{
  "packageName": "com.factsandquotes.naturesounds",
  "mainActivity": "com.factsandquotes.naturesounds.MainActivity",
  "callPaths": {
    "0": {
      "startMethod": "com.hkoiihgxg.zzqvzcurb90854.VideoAdActivity.onPause()V",
      "targetMethod": "org.apache.http.client.HttpClient.execute(Lorg/apache/http/client/methods/HttpUriRequest;)Lorg/apache/http/HttpResponse;",
      "eventChain": [
        {
          "start": "com.hkoiihgxg.zzqvzcurb90854.VideoAdActivity.onPause()V",
          "target": "invokeinterface \u003c Application, Lorg/apache/http/client/HttpClient, execute(Lorg/apache/http/client/methods/HttpUriRequest;)Lorg/apache/http/HttpResponse; \u003e@208",
          "type": "activity",
          "component": "com.hkoiihgxg.zzqvzcurb90854.VideoAdActivity",
          "constraintsFile": "constraints0_0.py",
          "variables": {},
          "stringMap": {},
          "strings": {}
        }
      ]
    },
    "1": {
      "startMethod": "com.hkoiihgxg.zzqvzcurb90854.VideoAdActivity.onPause()V",
      "targetMethod": "org.apache.http.impl.client.DefaultHttpClient.execute(Lorg/apache/http/client/methods/HttpUriRequest;)Lorg/apache/http/HttpResponse;",
      "eventChain": [
        {
          "start": "com.hkoiihgxg.zzqvzcurb90854.VideoAdActivity.onPause()V",
          "target": "invokevirtual \u003c Application, Lorg/apache/http/impl/client/DefaultHttpClient, execute(Lorg/apache/http/client/methods/HttpUriRequest;)Lorg/apache/http/HttpResponse; \u003e@137",
          "type": "activity",
          "component": "com.hkoiihgxg.zzqvzcurb90854.VideoAdActivity",
          "constraintsFile": "constraints1_0.py",
          "variables": {},
          "stringMap": {},
          "strings": {}
        }
      ]
    },
    "2": {
      "startMethod": "com.hkoiihgxg.zzqvzcurb90854.VideoAdActivity.onCreate(Landroid/os/Bundle;)V",
      "targetMethod": "org.apache.http.client.HttpClient.execute(Lorg/apache/http/client/methods/HttpUriRequest;)Lorg/apache/http/HttpResponse;",
      "eventChain": [
        {
          "start": "com.hkoiihgxg.zzqvzcurb90854.VideoAdActivity.onCreate(Landroid/os/Bundle;)V",
          "target": "PC@3",
          "type": "activity",
          "component": "com.hkoiihgxg.zzqvzcurb90854.VideoAdActivity",
          "constraintsFile": "constraints2_0.py",
          "variables": {},
          "stringMap": {
            "7000": "VPAID",
            "7001": "",
            "7002": "[ERRORCODE]",
            "7003": "\u0026"
          },
          "strings": {
            "IAAv8": "",
            "IAAv5": ""
          }
        },
        {
          "start": "com.hkoiihgxg.zzqvzcurb90854.VideoAdActivity.onCreate(Landroid/os/Bundle;)V",
          "target": "invokeinterface \u003c Application, Lorg/apache/http/client/HttpClient, execute(Lorg/apache/http/client/methods/HttpUriRequest;)Lorg/apache/http/HttpResponse; \u003e@208",
          "type": "activity",
          "component": "com.hkoiihgxg.zzqvzcurb90854.VideoAdActivity",
          "constraintsFile": "constraints2_1.py",
          "variables": {},
          "stringMap": {
            "7000": "VPAID",
            "7001": "",
            "7002": "[ERRORCODE]",
            "7003": "\u0026"
          },
          "strings": {
            "IAAv8": "",
            "IAAv5": ""
          }
        }
      ]
    },
    "3": {
      "startMethod": "com.hkoiihgxg.zzqvzcurb90854.VideoAdActivity.onCreate(Landroid/os/Bundle;)V",
      "targetMethod": "org.apache.http.impl.client.DefaultHttpClient.execute(Lorg/apache/http/client/methods/HttpUriRequest;)Lorg/apache/http/HttpResponse;",
      "eventChain": [
        {
          "start": "com.hkoiihgxg.zzqvzcurb90854.VideoAdActivity.onCreate(Landroid/os/Bundle;)V",
          "target": "PC@3",
          "type": "activity",
          "component": "com.hkoiihgxg.zzqvzcurb90854.VideoAdActivity",
          "constraintsFile": "constraints3_0.py",
          "variables": {},
          "stringMap": {
            "7000": "VPAID",
            "7001": "",
            "7002": "[ERRORCODE]",
            "7003": "\u0026"
          },
          "strings": {
            "IAAv8": "",
            "IAAv5": ""
          }
        },
        {
          "start": "com.hkoiihgxg.zzqvzcurb90854.VideoAdActivity.onCreate(Landroid/os/Bundle;)V",
          "target": "invokevirtual \u003c Application, Lorg/apache/http/impl/client/DefaultHttpClient, execute(Lorg/apache/http/client/methods/HttpUriRequest;)Lorg/apache/http/HttpResponse; \u003e@137",
          "type": "activity",
          "component": "com.hkoiihgxg.zzqvzcurb90854.VideoAdActivity",
          "constraintsFile": "constraints3_1.py",
          "variables": {},
          "stringMap": {
            "7000": "VPAID",
            "7001": "",
            "7002": "[ERRORCODE]",
            "7003": "\u0026"
          },
          "strings": {
            "IAAv8": "",
            "IAAv5": ""
          }
        }
      ]
    },
    "4": {
      "startMethod": "com.hkoiihgxg.zzqvzcurb90854.VideoAdActivity.onCreate(Landroid/os/Bundle;)V",
      "targetMethod": "java.net.URL.openConnection()Ljava/net/URLConnection;",
      "eventChain": [
        {
          "start": "com.hkoiihgxg.zzqvzcurb90854.VideoAdActivity.onCreate(Landroid/os/Bundle;)V",
          "target": "invokevirtual \u003c Application, Ljava/net/URL, openConnection()Ljava/net/URLConnection; \u003e@24",
          "type": "activity",
          "component": "com.hkoiihgxg.zzqvzcurb90854.VideoAdActivity",
          "constraintsFile": "constraints4_0.py",
          "variables": {},
          "stringMap": {
            "7000": "VPAID"
          },
          "strings": {}
        }
      ]
    },
    "5": {
      "startMethod": "com.hkoiihgxg.zzqvzcurb90854.VideoAdActivity.onStop()V",
      "targetMethod": "org.apache.http.client.HttpClient.execute(Lorg/apache/http/client/methods/HttpUriRequest;)Lorg/apache/http/HttpResponse;",
      "eventChain": [
        {
          "start": "com.hkoiihgxg.zzqvzcurb90854.VideoAdActivity.onStop()V",
          "target": "invokeinterface \u003c Application, Lorg/apache/http/client/HttpClient, execute(Lorg/apache/http/client/methods/HttpUriRequest;)Lorg/apache/http/HttpResponse; \u003e@208",
          "type": "activity",
          "component": "com.hkoiihgxg.zzqvzcurb90854.VideoAdActivity"
        }
      ]
    },
    "6": {
      "startMethod": "com.hkoiihgxg.zzqvzcurb90854.VideoAdActivity.onStop()V",
      "targetMethod": "org.apache.http.impl.client.DefaultHttpClient.execute(Lorg/apache/http/client/methods/HttpUriRequest;)Lorg/apache/http/HttpResponse;",
      "eventChain": [
        {
          "start": "com.hkoiihgxg.zzqvzcurb90854.VideoAdActivity.onStop()V",
          "target": "invokevirtual \u003c Application, Lorg/apache/http/impl/client/DefaultHttpClient, execute(Lorg/apache/http/client/methods/HttpUriRequest;)Lorg/apache/http/HttpResponse; \u003e@137",
          "type": "activity",
          "component": "com.hkoiihgxg.zzqvzcurb90854.VideoAdActivity"
        }
      ]
    },
    "7": {
      "startMethod": "com.factsandquotes.naturesounds.MainActivity.onCreate(Landroid/os/Bundle;)V",
      "targetMethod": "java.lang.reflect.Method.invoke(Ljava/lang/Object;[Ljava/lang/Object;)Ljava/lang/Object;",
      "eventChain": [
        {
          "start": "com.factsandquotes.naturesounds.MainActivity.onCreate(Landroid/os/Bundle;)V",
          "target": "PC@64",
          "type": "activity",
          "component": "com.factsandquotes.naturesounds.MainActivity",
          "constraintsFile": "constraints7_0.py",
          "variables": {},
          "stringMap": {},
          "strings": {}
        },
        {
          "start": "com.factsandquotes.naturesounds.MainActivity.onCreate(Landroid/os/Bundle;)V",
          "target": "invokevirtual \u003c Application, Ljava/lang/reflect/Method, invoke(Ljava/lang/Object;[Ljava/lang/Object;)Ljava/lang/Object; \u003e@132",
          "type": "activity",
          "component": "com.factsandquotes.naturesounds.MainActivity",
          "constraintsFile": "constraints7_1.py",
          "variables": {},
          "stringMap": {},
          "strings": {}
        }
      ]
    },
    "8": {
      "startMethod": "com.factsandquotes.naturesounds.MainActivity.onCreate(Landroid/os/Bundle;)V",
      "targetMethod": "org.apache.http.client.HttpClient.execute(Lorg/apache/http/client/methods/HttpUriRequest;)Lorg/apache/http/HttpResponse;",
      "eventChain": [
        {
          "start": "com.factsandquotes.naturesounds.MainActivity.onCreate(Landroid/os/Bundle;)V",
          "target": "PC@64",
          "type": "activity",
          "component": "com.factsandquotes.naturesounds.MainActivity",
          "constraintsFile": "constraints8_0.py",
          "variables": {},
          "stringMap": {},
          "strings": {}
        },
        {
          "start": "com.factsandquotes.naturesounds.MainActivity.onCreate(Landroid/os/Bundle;)V",
          "target": "invokeinterface \u003c Application, Lorg/apache/http/client/HttpClient, execute(Lorg/apache/http/client/methods/HttpUriRequest;)Lorg/apache/http/HttpResponse; \u003e@498",
          "type": "activity",
          "component": "com.factsandquotes.naturesounds.MainActivity",
          "constraintsFile": "constraints8_1.py",
          "variables": {},
          "stringMap": {},
          "strings": {}
        }
      ]
    },
    "9": {
      "startMethod": "com.factsandquotes.naturesounds.MainActivity.onStart()V",
      "targetMethod": "org.apache.http.client.HttpClient.execute(Lorg/apache/http/client/methods/HttpUriRequest;)Lorg/apache/http/HttpResponse;",
      "eventChain": [
        {
          "start": "com.factsandquotes.naturesounds.MainActivity.onCreate(Landroid/os/Bundle;)V",
          "target": "",
          "type": "activity",
          "component": "com.factsandquotes.naturesounds.MainActivity",
          "constraintsFile": "constraints9_0.py",
          "variables": {},
          "stringMap": {},
          "strings": {}
        },
        {
          "start": "com.factsandquotes.naturesounds.MainActivity.onStart()V",
          "target": "invokeinterface \u003c Application, Lorg/apache/http/client/HttpClient, execute(Lorg/apache/http/client/methods/HttpUriRequest;)Lorg/apache/http/HttpResponse; \u003e@498",
          "type": "activity",
          "component": "com.factsandquotes.naturesounds.MainActivity",
          "constraintsFile": "constraints9_1.py",
          "variables": {},
          "stringMap": {},
          "strings": {}
        }
      ]
    },
    "10": {
      "startMethod": "com.hkoiihgxg.zzqvzcurb90854.VideoAdActivity.onClick(Landroid/view/View;)V",
      "targetMethod": "org.apache.http.client.HttpClient.execute(Lorg/apache/http/client/methods/HttpUriRequest;)Lorg/apache/http/HttpResponse;",
      "eventChain": [
        {
          "start": "com.hkoiihgxg.zzqvzcurb90854.VideoAdActivity.onCreate(Landroid/os/Bundle;)V",
          "target": "invokevirtual \u003c Application, Landroid/widget/Button, setOnClickListener(Landroid/view/View$OnClickListener;)V \u003e@128",
          "type": "activity",
          "component": "com.hkoiihgxg.zzqvzcurb90854.VideoAdActivity",
          "constraintsFile": "constraints10_0.py",
          "variables": {},
          "stringMap": {
            "7000": "VPAID"
          },
          "strings": {}
        },
        {
          "start": "com.hkoiihgxg.zzqvzcurb90854.VideoAdActivity.\u003cinit\u003e()V",
          "target": "PC@35",
          "type": "",
          "constraintsFile": "constraints10_1.py",
          "variables": {
            "\u003cChainedInput1\u003e.getId()": "IAAv0"
          },
          "stringMap": {
            "7000": ""
          },
          "strings": {}
        },
        {
          "start": "com.hkoiihgxg.zzqvzcurb90854.VideoAdActivity.onCreate(Landroid/os/Bundle;)V",
          "target": "PC@3",
          "type": "activity",
          "component": "com.hkoiihgxg.zzqvzcurb90854.VideoAdActivity",
          "constraintsFile": "constraints10_2.py",
          "variables": {
            "\u003cChainedInput1\u003e.getId()": "IAAv0"
          },
          "stringMap": {
            "7000": ""
          },
          "strings": {}
        },
        {
          "start": "com.hkoiihgxg.zzqvzcurb90854.VideoAdActivity.onClick(Landroid/view/View;)V",
          "target": "invokeinterface \u003c Application, Lorg/apache/http/client/HttpClient, execute(Lorg/apache/http/client/methods/HttpUriRequest;)Lorg/apache/http/HttpResponse; \u003e@208",
          "type": "ui",
          "activities": [
            "com.hkoiihgxg.zzqvzcurb90854.VideoAdActivity"
          ],
          "listener": "com.hkoiihgxg.zzqvzcurb90854.VideoAdActivity",
          "listenerMethod": "onClick",
          "uiType": "onClick",
          "constraintsFile": "constraints10_3.py",
          "variables": {
            "\u003cChainedInput1\u003e.getId()": "IAAv0"
          },
          "stringMap": {
            "7000": ""
          },
          "strings": {}
        }
      ]
    },
    "11": {
      "startMethod": "com.hkoiihgxg.zzqvzcurb90854.VideoAdActivity.onClick(Landroid/view/View;)V",
      "targetMethod": "org.apache.http.impl.client.DefaultHttpClient.execute(Lorg/apache/http/client/methods/HttpUriRequest;)Lorg/apache/http/HttpResponse;",
      "eventChain": [
        {
          "start": "com.hkoiihgxg.zzqvzcurb90854.VideoAdActivity.onCreate(Landroid/os/Bundle;)V",
          "target": "invokevirtual \u003c Application, Landroid/widget/Button, setOnClickListener(Landroid/view/View$OnClickListener;)V \u003e@128",
          "type": "activity",
          "component": "com.hkoiihgxg.zzqvzcurb90854.VideoAdActivity",
          "constraintsFile": "constraints11_0.py",
          "variables": {},
          "stringMap": {
            "7000": "VPAID"
          },
          "strings": {}
        },
        {
          "start": "com.hkoiihgxg.zzqvzcurb90854.VideoAdActivity.\u003cinit\u003e()V",
          "target": "PC@35",
          "type": "",
          "constraintsFile": "constraints11_1.py",
          "variables": {
            "\u003cChainedInput1\u003e.getId()": "IAAv0"
          },
          "stringMap": {
            "7000": ""
          },
          "strings": {}
        },
        {
          "start": "com.hkoiihgxg.zzqvzcurb90854.VideoAdActivity.onCreate(Landroid/os/Bundle;)V",
          "target": "PC@3",
          "type": "activity",
          "component": "com.hkoiihgxg.zzqvzcurb90854.VideoAdActivity",
          "constraintsFile": "constraints11_2.py",
          "variables": {
            "\u003cChainedInput1\u003e.getId()": "IAAv0"
          },
          "stringMap": {
            "7000": ""
          },
          "strings": {}
        },
        {
          "start": "com.hkoiihgxg.zzqvzcurb90854.VideoAdActivity.onClick(Landroid/view/View;)V",
          "target": "invokevirtual \u003c Application, Lorg/apache/http/impl/client/DefaultHttpClient, execute(Lorg/apache/http/client/methods/HttpUriRequest;)Lorg/apache/http/HttpResponse; \u003e@137",
          "type": "ui",
          "activities": [
            "com.hkoiihgxg.zzqvzcurb90854.VideoAdActivity"
          ],
          "listener": "com.hkoiihgxg.zzqvzcurb90854.VideoAdActivity",
          "listenerMethod": "onClick",
          "uiType": "onClick",
          "constraintsFile": "constraints11_3.py",
          "variables": {
            "\u003cChainedInput1\u003e.getId()": "IAAv0"
          },
          "stringMap": {
            "7000": ""
          },
          "strings": {}
        }
      ]
    },
    "12": {
      "startMethod": "com.hkoiihgxg.zzqvzcurb90854.VideoAdActivity$1.onTouch(Landroid/view/View;Landroid/view/MotionEvent;)Z",
      "targetMethod": "org.apache.http.impl.client.DefaultHttpClient.execute(Lorg/apache/http/client/methods/HttpUriRequest;)Lorg/apache/http/HttpResponse;",
      "eventChain": [
        {
          "start": "com.hkoiihgxg.zzqvzcurb90854.VideoAdActivity.onCreate(Landroid/os/Bundle;)V",
          "target": "invokevirtual \u003c Application, Landroid/widget/VideoView, setOnTouchListener(Landroid/view/View$OnTouchListener;)V \u003e@240",
          "type": "activity",
          "component": "com.hkoiihgxg.zzqvzcurb90854.VideoAdActivity",
          "constraintsFile": "constraints12_0.py",
          "variables": {},
          "stringMap": {
            "7000": "VPAID"
          },
          "strings": {}
        },
        {
          "start": "com.hkoiihgxg.zzqvzcurb90854.VideoAdActivity$1.onTouch(Landroid/view/View;Landroid/view/MotionEvent;)Z",
          "target": "invokevirtual \u003c Application, Lorg/apache/http/impl/client/DefaultHttpClient, execute(Lorg/apache/http/client/methods/HttpUriRequest;)Lorg/apache/http/HttpResponse; \u003e@137",
          "type": "ui",
          "activities": [
            "com.hkoiihgxg.zzqvzcurb90854.VideoAdActivity"
          ],
          "listener": "com.hkoiihgxg.zzqvzcurb90854.VideoAdActivity$1",
          "listenerMethod": "onTouch",
          "uiType": "onTouch",
          "constraintsFile": "constraints12_1.py",
          "variables": {
            "\u003cChainedInput1\u003e": "IAAv0",
            "\u003cChainedInput2\u003e.getAction()": "IAAv2"
          },
          "stringMap": {
            "7000": ""
          },
          "strings": {
            "IAAv3": ""
          }
        }
      ]
    },
    "13": {
      "startMethod": "com.hkoiihgxg.zzqvzcurb90854.VideoAdActivity$1.onTouch(Landroid/view/View;Landroid/view/MotionEvent;)Z",
      "targetMethod": "org.apache.http.client.HttpClient.execute(Lorg/apache/http/client/methods/HttpUriRequest;)Lorg/apache/http/HttpResponse;",
      "eventChain": [
        {
          "start": "com.hkoiihgxg.zzqvzcurb90854.VideoAdActivity.onCreate(Landroid/os/Bundle;)V",
          "target": "invokevirtual \u003c Application, Landroid/widget/VideoView, setOnTouchListener(Landroid/view/View$OnTouchListener;)V \u003e@240",
          "type": "activity",
          "component": "com.hkoiihgxg.zzqvzcurb90854.VideoAdActivity",
          "constraintsFile": "constraints13_0.py",
          "variables": {},
          "stringMap": {
            "7000": "VPAID"
          },
          "strings": {}
        },
        {
          "start": "com.hkoiihgxg.zzqvzcurb90854.VideoAdActivity$1.onTouch(Landroid/view/View;Landroid/view/MotionEvent;)Z",
          "target": "invokeinterface \u003c Application, Lorg/apache/http/client/HttpClient, execute(Lorg/apache/http/client/methods/HttpUriRequest;)Lorg/apache/http/HttpResponse; \u003e@208",
          "type": "ui",
          "activities": [
            "com.hkoiihgxg.zzqvzcurb90854.VideoAdActivity"
          ],
          "listener": "com.hkoiihgxg.zzqvzcurb90854.VideoAdActivity$1",
          "listenerMethod": "onTouch",
          "uiType": "onTouch",
          "constraintsFile": "constraints13_1.py",
          "variables": {
            "\u003cChainedInput1\u003e": "IAAv0",
            "\u003cChainedInput2\u003e.getAction()": "IAAv2"
          },
          "stringMap": {
            "7000": ""
          },
          "strings": {
            "IAAv3": ""
          }
        }
      ]
    },
    "14": {
      "startMethod": "com.hkoiihgxg.zzqvzcurb90854.VideoAdActivity.onCompletion(Landroid/media/MediaPlayer;)V",
      "targetMethod": "org.apache.http.client.HttpClient.execute(Lorg/apache/http/client/methods/HttpUriRequest;)Lorg/apache/http/HttpResponse;",
      "eventChain": [
        {
          "start": "com.hkoiihgxg.zzqvzcurb90854.VideoAdActivity.onCreate(Landroid/os/Bundle;)V",
          "target": "invokevirtual \u003c Application, Landroid/widget/VideoView, setOnCompletionListener(Landroid/media/MediaPlayer$OnCompletionListener;)V \u003e@264",
          "type": "activity",
          "component": "com.hkoiihgxg.zzqvzcurb90854.VideoAdActivity",
          "constraintsFile": "constraints14_0.py",
          "variables": {},
          "stringMap": {
            "7000": "VPAID"
          },
          "strings": {}
        },
        {
          "start": "com.hkoiihgxg.zzqvzcurb90854.VideoAdActivity.onCreate(Landroid/os/Bundle;)V",
          "target": "PC@91",
          "type": "activity",
          "component": "com.hkoiihgxg.zzqvzcurb90854.VideoAdActivity",
          "constraintsFile": "constraints14_1.py",
          "variables": {
            "\u003cChainedInput1\u003e.release().context.checkInternetConnection()": "IAAv7",
            "\u003cChainedInput1\u003e.release().$SwitchMap$com$hkoiihgxg$zzqvzcurb90854$Vpaid$VpaidEnum": "IAAv2"
          },
          "stringMap": {
            "7000": "",
            "7001": "VPAID",
            "7002": "\u003cUI\u003e"
          },
          "strings": {}
        },
        {
          "start": "com.hkoiihgxg.zzqvzcurb90854.VideoAdActivity.onCreate(Landroid/os/Bundle;)V",
          "target": "PC@3",
          "type": "activity",
          "component": "com.hkoiihgxg.zzqvzcurb90854.VideoAdActivity",
          "constraintsFile": "constraints14_2.py",
          "variables": {
            "\u003cChainedInput1\u003e.release().context.checkInternetConnection()": "IAAv7",
            "\u003cChainedInput1\u003e.release().$SwitchMap$com$hkoiihgxg$zzqvzcurb90854$Vpaid$VpaidEnum": "IAAv2"
          },
          "stringMap": {
            "7000": ""
          },
          "strings": {}
        },
        {
          "start": "com.hkoiihgxg.zzqvzcurb90854.VideoAdActivity.onCompletion(Landroid/media/MediaPlayer;)V",
          "target": "invokeinterface \u003c Application, Lorg/apache/http/client/HttpClient, execute(Lorg/apache/http/client/methods/HttpUriRequest;)Lorg/apache/http/HttpResponse; \u003e@208",
          "type": "",
          "constraintsFile": "constraints14_3.py",
          "variables": {
            "\u003cChainedInput1\u003e.release().context.checkInternetConnection()": "IAAv7",
            "\u003cChainedInput1\u003e.release().$SwitchMap$com$hkoiihgxg$zzqvzcurb90854$Vpaid$VpaidEnum": "IAAv2"
          },
          "stringMap": {
            "7000": ""
          },
          "strings": {}
        }
      ]
    },
    "15": {
      "startMethod": "com.hkoiihgxg.zzqvzcurb90854.VideoAdActivity.onCompletion(Landroid/media/MediaPlayer;)V",
      "targetMethod": "org.apache.http.impl.client.DefaultHttpClient.execute(Lorg/apache/http/client/methods/HttpUriRequest;)Lorg/apache/http/HttpResponse;",
      "eventChain": [
        {
          "start": "com.hkoiihgxg.zzqvzcurb90854.VideoAdActivity.onCreate(Landroid/os/Bundle;)V",
          "target": "invokevirtual \u003c Application, Landroid/widget/VideoView, setOnCompletionListener(Landroid/media/MediaPlayer$OnCompletionListener;)V \u003e@264",
          "type": "activity",
          "component": "com.hkoiihgxg.zzqvzcurb90854.VideoAdActivity",
          "constraintsFile": "constraints15_0.py",
          "variables": {},
          "stringMap": {
            "7000": "VPAID"
          },
          "strings": {}
        },
        {
          "start": "com.hkoiihgxg.zzqvzcurb90854.VideoAdActivity.onCreate(Landroid/os/Bundle;)V",
          "target": "PC@91",
          "type": "activity",
          "component": "com.hkoiihgxg.zzqvzcurb90854.VideoAdActivity",
          "constraintsFile": "constraints15_1.py",
          "variables": {
            "\u003cChainedInput1\u003e.release().context.checkInternetConnection()": "IAAv7",
            "\u003cChainedInput1\u003e.release().$SwitchMap$com$hkoiihgxg$zzqvzcurb90854$Vpaid$VpaidEnum": "IAAv2"
          },
          "stringMap": {
            "7000": "",
            "7001": "VPAID",
            "7002": "\u003cUI\u003e"
          },
          "strings": {}
        },
        {
          "start": "com.hkoiihgxg.zzqvzcurb90854.VideoAdActivity.onCreate(Landroid/os/Bundle;)V",
          "target": "PC@3",
          "type": "activity",
          "component": "com.hkoiihgxg.zzqvzcurb90854.VideoAdActivity",
          "constraintsFile": "constraints15_2.py",
          "variables": {
            "\u003cChainedInput1\u003e.release().context.checkInternetConnection()": "IAAv7",
            "\u003cChainedInput1\u003e.release().$SwitchMap$com$hkoiihgxg$zzqvzcurb90854$Vpaid$VpaidEnum": "IAAv2"
          },
          "stringMap": {
            "7000": ""
          },
          "strings": {}
        },
        {
          "start": "com.hkoiihgxg.zzqvzcurb90854.VideoAdActivity.onCompletion(Landroid/media/MediaPlayer;)V",
          "target": "invokevirtual \u003c Application, Lorg/apache/http/impl/client/DefaultHttpClient, execute(Lorg/apache/http/client/methods/HttpUriRequest;)Lorg/apache/http/HttpResponse; \u003e@137",
          "type": "",
          "constraintsFile": "constraints15_3.py",
          "variables": {
            "\u003cChainedInput1\u003e.release().context.checkInternetConnection()": "IAAv7",
            "\u003cChainedInput1\u003e.release().$SwitchMap$com$hkoiihgxg$zzqvzcurb90854$Vpaid$VpaidEnum": "IAAv2"
          },
          "stringMap": {
            "7000": ""
          },
          "strings": {}
        }
      ]
    }
  }
}