{
  "packageName": "com.pip.itimes",
  "mainActivity": "com.pip.itimes.PipActivity",
  "callPaths": {
    "0": {
      "startMethod": "com.pip.itimes.PipActivity.onPause()V",
      "targetMethod": "android.os.PowerManager$WakeLock.release()V",
      "eventChain": [
        {
          "start": "com.pip.itimes.PipActivity.onResume()V",
          "target": "PC@3",
          "type": "activity",
          "component": "com.pip.itimes.PipActivity",
          "constraintsFile": "constraints0_0.py",
          "variables": {},
          "stringMap": {},
          "strings": {}
        },
        {
          "start": "com.pip.itimes.PipActivity.onPause()V",
          "target": "invokevirtual \u003c Application, Landroid/os/PowerManager$WakeLock, release()V \u003e@60",
          "type": "activity",
          "component": "com.pip.itimes.PipActivity",
          "constraintsFile": "constraints0_1.py",
          "variables": {},
          "stringMap": {},
          "strings": {}
        }
      ]
    },
    "1": {
      "startMethod": "com.pip.itimes.PipActivity.onCreate(Landroid/os/Bundle;)V",
      "targetMethod": "android.telephony.TelephonyManager.listen(Landroid/telephony/PhoneStateListener;I)V",
      "eventChain": [
        {
          "start": "com.pip.itimes.PipActivity.onCreate(Landroid/os/Bundle;)V",
          "target": "invokevirtual \u003c Application, Landroid/telephony/TelephonyManager, listen(Landroid/telephony/PhoneStateListener;I)V \u003e@299",
          "type": "activity",
          "component": "com.pip.itimes.PipActivity",
          "constraintsFile": "constraints1_0.py",
          "variables": {
            "\u003cChainedInput1\u003e": "IAAv1",
            "\u003cChainedInput1\u003e.getBoolean()": "IAAv2"
          },
          "stringMap": {},
          "strings": {}
        }
      ]
    },
    "2": {
      "startMethod": "ms.SMSAutoSender.run()V",
      "targetMethod": "android.telephony.SmsManager.sendTextMessage(Ljava/lang/String;Ljava/lang/String;Ljava/lang/String;Landroid/app/PendingIntent;Landroid/app/PendingIntent;)V",
      "eventChain": [
        {
          "start": "ms.SMSAutoSender.run()V",
          "target": "invokevirtual \u003c Application, Landroid/telephony/SmsManager, sendTextMessage(Ljava/lang/String;Ljava/lang/String;Ljava/lang/String;Landroid/app/PendingIntent;Landroid/app/PendingIntent;)V \u003e@205",
          "type": ""
        }
      ]
    }
  }
}