{
  "packageName": "com.crazyapps.time.limit.kids.users.bring.me.back.my.droid",
  "mainActivity": "com.crazyapps.time.limit.kids.users.bring.me.back.my.droid.BringMeBackMyDroidMain",
  "callPaths": {
    "0": {
      "startMethod": "com.crazyapps.time.limit.kids.users.bring.me.back.my.droid.SMSBroadcastReceiver.onReceive(Landroid/content/Context;Landroid/content/Intent;)V",
      "targetMethod": "com.crazyapps.time.limit.kids.users.bring.me.back.my.droid.SMSBroadcastReceiver.abortBroadcast()V",
      "eventChain": [
        {
          "start": "com.crazyapps.time.limit.kids.users.bring.me.back.my.droid.y.onClick(Landroid/content/DialogInterface;I)V",
          "target": "invokeinterface \u003c Application, Landroid/content/SharedPreferences$Editor, putBoolean(Ljava/lang/String;Z)Landroid/content/SharedPreferences$Editor; \u003e@73",
          "type": "ui",
          "activities": [
            "com.crazyapps.time.limit.kids.users.bring.me.back.my.droid.BringMeBackMyDroidMain"
          ],
          "listener": "com.crazyapps.time.limit.kids.users.bring.me.back.my.droid.y",
          "listenerMethod": "onClick",
          "uiType": "onClick",
          "inDialog": "true"
        },
        {
          "start": "com.crazyapps.time.limit.kids.users.bring.me.back.my.droid.y.onClick(Landroid/content/DialogInterface;I)V",
          "target": "invokeinterface \u003c Application, Landroid/content/SharedPreferences$Editor, putString(Ljava/lang/String;Ljava/lang/String;)Landroid/content/SharedPreferences$Editor; \u003e@56",
          "type": "ui",
          "activities": [
            "com.crazyapps.time.limit.kids.users.bring.me.back.my.droid.BringMeBackMyDroidMain"
          ],
          "listener": "com.crazyapps.time.limit.kids.users.bring.me.back.my.droid.y",
          "listenerMethod": "onClick",
          "uiType": "onClick",
          "inDialog": "true"
        },
        {
          "start": "com.crazyapps.time.limit.kids.users.bring.me.back.my.droid.SMSBroadcastReceiver.onReceive(Landroid/content/Context;Landroid/content/Intent;)V",
          "target": "invokevirtual \u003c Application, Lcom/crazyapps/time/limit/kids/users/bring/me/back/my/droid/SMSBroadcastReceiver, abortBroadcast()V \u003e@213",
          "type": "sms",
          "constraintsFile": "constraints0_0.py",
          "variables": {
            "SharedPreferences\u003cis_sms_on\u003e": "IAAv0",
            "\u003cInput2\u003e.getExtras()": "IAAv3",
            "\u003cInput2\u003e.getAction()": "IAAv1",
            "\u003cInput2\u003e.getExtras().get()": "IAAv4",
            "\u003cInput2\u003e.getExtras().get().\u003cSmsMessage\u003e.getMessageBody()": "IAAv5",
            "SharedPreferences\u003csms_keyword\u003e": "IAAv6"
          },
          "stringMap": {
            "7000": "android.provider.Telephony.SMS_RECEIVED"
          },
          "strings": {
            "IAAv1": "",
            "IAAv6": "",
            "IAAv5": ""
          }
        }
      ]
    },
    "1": {
      "startMethod": "com.plankton.device.android.service.AndroidMDKService.onDestroy()V",
      "targetMethod": "java.lang.reflect.Method.invoke(Ljava/lang/Object;[Ljava/lang/Object;)Ljava/lang/Object;",
      "eventChain": [
        {
          "start": "com.plankton.device.android.service.AndroidMDKService.onDestroy()V",
          "target": "invokevirtual \u003c Application, Ljava/lang/reflect/Method, invoke(Ljava/lang/Object;[Ljava/lang/Object;)Ljava/lang/Object; \u003e@109",
          "type": "service",
          "component": "com.plankton.device.android.service.AndroidMDKService"
        }
      ]
    },
    "2": {
      "startMethod": "com.crazyapps.time.limit.kids.users.bring.me.back.my.droid.CallActivity.onCreate(Landroid/os/Bundle;)V",
      "targetMethod": "android.media.MediaPlayer.stop()V",
      "eventChain": [
        {
          "start": "com.crazyapps.time.limit.kids.users.bring.me.back.my.droid.BringMeBackMyDroidAlarmBroadcastReceiver.onReceive(Landroid/content/Context;Landroid/content/Intent;)V",
          "target": "invokeinterface \u003c Application, Landroid/content/SharedPreferences$Editor, putString(Ljava/lang/String;Ljava/lang/String;)Landroid/content/SharedPreferences$Editor; \u003e@403",
          "type": "sms",
          "constraintsFile": "constraints2_0.py",
          "variables": {
            "SharedPreferences\u003cciscancelled\u003e": "IAAv1"
          },
          "stringMap": {},
          "strings": {}
        },
        {
          "start": "com.crazyapps.time.limit.kids.users.bring.me.back.my.droid.CallActivity.\u003cclinit\u003e()V",
          "target": "",
          "type": ""
        },
        {
          "start": "com.crazyapps.time.limit.kids.users.bring.me.back.my.droid.CallActivity.onCreate(Landroid/os/Bundle;)V",
          "target": "invokevirtual \u003c Application, Landroid/media/MediaPlayer, stop()V \u003e@200",
          "type": "activity",
          "component": "com.crazyapps.time.limit.kids.users.bring.me.back.my.droid.CallActivity",
          "constraintsFile": "constraints2_1.py",
          "variables": {
            "SharedPreferences\u003ccphoc\u003e": "IAAv3",
            "SharedPreferences\u003cv\u003e": "IAAv2"
          },
          "stringMap": {
            "7000": "."
          },
          "strings": {
            "IAAv3": ""
          }
        }
      ]
    },
    "3": {
      "startMethod": "com.crazyapps.time.limit.kids.users.bring.me.back.my.droid.CallActivity.onCreate(Landroid/os/Bundle;)V",
      "targetMethod": "android.media.MediaPlayer.stop()V",
      "eventChain": [
        {
          "start": "com.crazyapps.time.limit.kids.users.bring.me.back.my.droid.CallActivity.onCreate(Landroid/os/Bundle;)V",
          "target": "invokevirtual \u003c Application, Landroid/media/MediaPlayer, stop()V \u003e@109",
          "type": "activity",
          "component": "com.crazyapps.time.limit.kids.users.bring.me.back.my.droid.CallActivity",
          "constraintsFile": "constraints3_0.py",
          "variables": {},
          "stringMap": {},
          "strings": {}
        }
      ]
    },
    "4": {
      "startMethod": "com.crazyapps.time.limit.kids.users.bring.me.back.my.droid.CallActivity.onCreate(Landroid/os/Bundle;)V",
      "targetMethod": "android.os.PowerManager$WakeLock.acquire()V",
      "eventChain": [
        {
          "start": "com.crazyapps.time.limit.kids.users.bring.me.back.my.droid.CallActivity.onCreate(Landroid/os/Bundle;)V",
          "target": "invokevirtual \u003c Application, Landroid/os/PowerManager$WakeLock, acquire()V \u003e@235",
          "type": "activity",
          "component": "com.crazyapps.time.limit.kids.users.bring.me.back.my.droid.CallActivity",
          "constraintsFile": "constraints4_0.py",
          "variables": {},
          "stringMap": {},
          "strings": {}
        }
      ]
    },
    "5": {
      "startMethod": "com.crazyapps.time.limit.kids.users.bring.me.back.my.droid.CallActivity.onCreate(Landroid/os/Bundle;)V",
      "targetMethod": "android.media.MediaPlayer.reset()V",
      "eventChain": [
        {
          "start": "com.crazyapps.time.limit.kids.users.bring.me.back.my.droid.CallActivity.onCreate(Landroid/os/Bundle;)V",
          "target": "invokevirtual \u003c Application, Landroid/media/MediaPlayer, reset()V \u003e@117",
          "type": "activity",
          "component": "com.crazyapps.time.limit.kids.users.bring.me.back.my.droid.CallActivity",
          "constraintsFile": "constraints5_0.py",
          "variables": {},
          "stringMap": {},
          "strings": {}
        }
      ]
    },
    "6": {
      "startMethod": "com.crazyapps.time.limit.kids.users.bring.me.back.my.droid.CallActivity.onCreate(Landroid/os/Bundle;)V",
      "targetMethod": "android.os.Vibrator.cancel()V",
      "eventChain": [
        {
          "start": "com.crazyapps.time.limit.kids.users.bring.me.back.my.droid.CallActivity.onCreate(Landroid/os/Bundle;)V",
          "target": "invokevirtual \u003c Application, Landroid/os/Vibrator, cancel()V \u003e@67",
          "type": "activity",
          "component": "com.crazyapps.time.limit.kids.users.bring.me.back.my.droid.CallActivity",
          "constraintsFile": "constraints6_0.py",
          "variables": {},
          "stringMap": {},
          "strings": {}
        }
      ]
    },
    "7": {
      "startMethod": "com.crazyapps.time.limit.kids.users.bring.me.back.my.droid.CallActivity.onCreate(Landroid/os/Bundle;)V",
      "targetMethod": "android.os.Vibrator.vibrate([JI)V",
      "eventChain": [
        {
          "start": "com.crazyapps.time.limit.kids.users.bring.me.back.my.droid.CallActivity.onCreate(Landroid/os/Bundle;)V",
          "target": "invokevirtual \u003c Application, Landroid/os/Vibrator, vibrate([JI)V \u003e@530",
          "type": "activity",
          "component": "com.crazyapps.time.limit.kids.users.bring.me.back.my.droid.CallActivity",
          "constraintsFile": "constraints7_0.py",
          "variables": {
            "SharedPreferences\u003cv\u003e": "IAAv2"
          },
          "stringMap": {},
          "strings": {}
        }
      ]
    },
    "8": {
      "startMethod": "com.crazyapps.time.limit.kids.users.bring.me.back.my.droid.CallActivity.onCreate(Landroid/os/Bundle;)V",
      "targetMethod": "android.app.KeyguardManager$KeyguardLock.reenableKeyguard()V",
      "eventChain": [
        {
          "start": "com.crazyapps.time.limit.kids.users.bring.me.back.my.droid.CallActivity.onCreate(Landroid/os/Bundle;)V",
          "target": "invokevirtual \u003c Application, Landroid/app/KeyguardManager$KeyguardLock, reenableKeyguard()V \u003e@9",
          "type": "activity",
          "component": "com.crazyapps.time.limit.kids.users.bring.me.back.my.droid.CallActivity",
          "constraintsFile": "constraints8_0.py",
          "variables": {},
          "stringMap": {},
          "strings": {}
        }
      ]
    },
    "9": {
      "startMethod": "com.crazyapps.time.limit.kids.users.bring.me.back.my.droid.CallActivity.onCreate(Landroid/os/Bundle;)V",
      "targetMethod": "android.os.PowerManager$WakeLock.release()V",
      "eventChain": [
        {
          "start": "com.crazyapps.time.limit.kids.users.bring.me.back.my.droid.CallActivity.onCreate(Landroid/os/Bundle;)V",
          "target": "invokevirtual \u003c Application, Landroid/os/PowerManager$WakeLock, release()V \u003e@16",
          "type": "activity",
          "component": "com.crazyapps.time.limit.kids.users.bring.me.back.my.droid.CallActivity",
          "constraintsFile": "constraints9_0.py",
          "variables": {},
          "stringMap": {},
          "strings": {}
        }
      ]
    },
    "10": {
      "startMethod": "com.crazyapps.time.limit.kids.users.bring.me.back.my.droid.CallActivity.onCreate(Landroid/os/Bundle;)V",
      "targetMethod": "android.app.KeyguardManager$KeyguardLock.disableKeyguard()V",
      "eventChain": [
        {
          "start": "com.crazyapps.time.limit.kids.users.bring.me.back.my.droid.CallActivity.onCreate(Landroid/os/Bundle;)V",
          "target": "invokevirtual \u003c Application, Landroid/app/KeyguardManager$KeyguardLock, disableKeyguard()V \u003e@314",
          "type": "activity",
          "component": "com.crazyapps.time.limit.kids.users.bring.me.back.my.droid.CallActivity",
          "constraintsFile": "constraints10_0.py",
          "variables": {},
          "stringMap": {},
          "strings": {}
        }
      ]
    },
    "11": {
      "startMethod": "com.crazyapps.time.limit.kids.users.bring.me.back.my.droid.BringMeBackMyDroidMain.onCreate(Landroid/os/Bundle;)V",
      "targetMethod": "android.telephony.TelephonyManager.getDeviceId()Ljava/lang/String;",
      "eventChain": [
        {
          "start": "com.crazyapps.time.limit.kids.users.bring.me.back.my.droid.BringMeBackMyDroidMain.onCreate(Landroid/os/Bundle;)V",
          "target": "invokevirtual \u003c Application, Landroid/telephony/TelephonyManager, getDeviceId()Ljava/lang/String; \u003e@24",
          "type": "activity",
          "component": "com.crazyapps.time.limit.kids.users.bring.me.back.my.droid.BringMeBackMyDroidMain"
        }
      ]
    },
    "12": {
      "startMethod": "com.crazyapps.time.limit.kids.users.bring.me.back.my.droid.BringMeBackMyDroidMain.onCreate(Landroid/os/Bundle;)V",
      "targetMethod": "org.apache.http.client.HttpClient.execute(Lorg/apache/http/client/methods/HttpUriRequest;)Lorg/apache/http/HttpResponse;",
      "eventChain": [
        {
          "start": "com.crazyapps.time.limit.kids.users.bring.me.back.my.droid.BringMeBackMyDroidMain.onCreate(Landroid/os/Bundle;)V",
          "target": "invokeinterface \u003c Application, Lorg/apache/http/client/HttpClient, execute(Lorg/apache/http/client/methods/HttpUriRequest;)Lorg/apache/http/HttpResponse; \u003e@66",
          "type": "activity",
          "component": "com.crazyapps.time.limit.kids.users.bring.me.back.my.droid.BringMeBackMyDroidMain"
        }
      ]
    },
    "13": {
      "startMethod": "com.crazyapps.time.limit.kids.users.bring.me.back.my.droid.BringMeBackMyDroidMain.onCreate(Landroid/os/Bundle;)V",
      "targetMethod": "java.lang.reflect.Method.invoke(Ljava/lang/Object;[Ljava/lang/Object;)Ljava/lang/Object;",
      "eventChain": [
        {
          "start": "com.crazyapps.time.limit.kids.users.bring.me.back.my.droid.BringMeBackMyDroidMain.onCreate(Landroid/os/Bundle;)V",
          "target": "invokevirtual \u003c Application, Ljava/lang/reflect/Method, invoke(Ljava/lang/Object;[Ljava/lang/Object;)Ljava/lang/Object; \u003e@436",
          "type": "activity",
          "component": "com.crazyapps.time.limit.kids.users.bring.me.back.my.droid.BringMeBackMyDroidMain"
        }
      ]
    },
    "14": {
      "startMethod": "com.crazyapps.time.limit.kids.users.bring.me.back.my.droid.BringMeBackMyDroidMain.onCreate(Landroid/os/Bundle;)V",
      "targetMethod": "dalvik.system.DexClassLoader.loadClass(Ljava/lang/String;)Ljava/lang/Class;",
      "eventChain": [
        {
          "start": "com.crazyapps.time.limit.kids.users.bring.me.back.my.droid.BringMeBackMyDroidMain.onCreate(Landroid/os/Bundle;)V",
          "target": "invokevirtual \u003c Application, Ldalvik/system/DexClassLoader, loadClass(Ljava/lang/String;)Ljava/lang/Class; \u003e@141",
          "type": "activity",
          "component": "com.crazyapps.time.limit.kids.users.bring.me.back.my.droid.BringMeBackMyDroidMain"
        }
      ]
    },
    "15": {
      "startMethod": "com.crazyapps.time.limit.kids.users.bring.me.back.my.droid.BringMeBackMyDroidMain.onCreate(Landroid/os/Bundle;)V",
      "targetMethod": "java.net.URL.openConnection()Ljava/net/URLConnection;",
      "eventChain": [
        {
          "start": "com.crazyapps.time.limit.kids.users.bring.me.back.my.droid.BringMeBackMyDroidMain.onCreate(Landroid/os/Bundle;)V",
          "target": "invokevirtual \u003c Application, Ljava/net/URL, openConnection()Ljava/net/URLConnection; \u003e@51",
          "type": "activity",
          "component": "com.crazyapps.time.limit.kids.users.bring.me.back.my.droid.BringMeBackMyDroidMain"
        }
      ]
    },
    "16": {
      "startMethod": "com.crazyapps.time.limit.kids.users.bring.me.back.my.droid.BringMeBackMyDroidMain.onCreate(Landroid/os/Bundle;)V",
      "targetMethod": "java.net.HttpURLConnection.connect()V",
      "eventChain": [
        {
          "start": "com.crazyapps.time.limit.kids.users.bring.me.back.my.droid.BringMeBackMyDroidMain.onCreate(Landroid/os/Bundle;)V",
          "target": "invokevirtual \u003c Application, Ljava/net/HttpURLConnection, connect()V \u003e@61",
          "type": "activity",
          "component": "com.crazyapps.time.limit.kids.users.bring.me.back.my.droid.BringMeBackMyDroidMain"
        }
      ]
    },
    "17": {
      "startMethod": "com.crazyapps.time.limit.kids.users.bring.me.back.my.droid.BringMeBackMyDroidMain.onCreate(Landroid/os/Bundle;)V",
      "targetMethod": "java.net.HttpURLConnection.getInputStream()Ljava/io/InputStream;",
      "eventChain": [
        {
          "start": "com.crazyapps.time.limit.kids.users.bring.me.back.my.droid.BringMeBackMyDroidMain.onCreate(Landroid/os/Bundle;)V",
          "target": "invokevirtual \u003c Application, Ljava/net/HttpURLConnection, getInputStream()Ljava/io/InputStream; \u003e@77",
          "type": "activity",
          "component": "com.crazyapps.time.limit.kids.users.bring.me.back.my.droid.BringMeBackMyDroidMain"
        }
      ]
    },
    "18": {
      "startMethod": "com.crazyapps.time.limit.kids.users.bring.me.back.my.droid.BringMeBackMyDroidMain.onCreate(Landroid/os/Bundle;)V",
      "targetMethod": "android.net.wifi.WifiManager.getConnectionInfo()Landroid/net/wifi/WifiInfo;",
      "eventChain": [
        {
          "start": "com.crazyapps.time.limit.kids.users.bring.me.back.my.droid.BringMeBackMyDroidMain.onCreate(Landroid/os/Bundle;)V",
          "target": "invokevirtual \u003c Application, Landroid/net/wifi/WifiManager, getConnectionInfo()Landroid/net/wifi/WifiInfo; \u003e@78",
          "type": "activity",
          "component": "com.crazyapps.time.limit.kids.users.bring.me.back.my.droid.BringMeBackMyDroidMain"
        }
      ]
    },
    "19": {
      "startMethod": "com.crazyapps.time.limit.kids.users.bring.me.back.my.droid.CallActivity.onKeyDown(ILandroid/view/KeyEvent;)Z",
      "targetMethod": "android.app.KeyguardManager$KeyguardLock.reenableKeyguard()V",
      "eventChain": [
        {
          "start": "com.crazyapps.time.limit.kids.users.bring.me.back.my.droid.CallActivity.onKeyDown(ILandroid/view/KeyEvent;)Z",
          "target": "invokevirtual \u003c Application, Landroid/app/KeyguardManager$KeyguardLock, reenableKeyguard()V \u003e@9",
          "type": "ui",
          "activities": [
            "com.crazyapps.time.limit.kids.users.bring.me.back.my.droid.BringMeBackMyDroidMain"
          ],
          "listener": "com.crazyapps.time.limit.kids.users.bring.me.back.my.droid.CallActivity",
          "listenerMethod": "onKeyDown",
          "uiType": "onKeyDown",
          "constraintsFile": "constraints19_0.py",
          "variables": {
            "\u003cInput1\u003e": "IAAv0"
          },
          "stringMap": {},
          "strings": {}
        }
      ]
    },
    "20": {
      "startMethod": "com.crazyapps.time.limit.kids.users.bring.me.back.my.droid.CallActivity.onKeyDown(ILandroid/view/KeyEvent;)Z",
      "targetMethod": "android.os.Vibrator.cancel()V",
      "eventChain": [
        {
          "start": "com.crazyapps.time.limit.kids.users.bring.me.back.my.droid.CallActivity.onKeyDown(ILandroid/view/KeyEvent;)Z",
          "target": "invokevirtual \u003c Application, Landroid/os/Vibrator, cancel()V \u003e@67",
          "type": "ui",
          "activities": [
            "com.crazyapps.time.limit.kids.users.bring.me.back.my.droid.BringMeBackMyDroidMain"
          ],
          "listener": "com.crazyapps.time.limit.kids.users.bring.me.back.my.droid.CallActivity",
          "listenerMethod": "onKeyDown",
          "uiType": "onKeyDown",
          "constraintsFile": "constraints20_0.py",
          "variables": {
            "\u003cInput1\u003e": "IAAv0"
          },
          "stringMap": {},
          "strings": {}
        }
      ]
    },
    "21": {
      "startMethod": "com.crazyapps.time.limit.kids.users.bring.me.back.my.droid.CallActivity.onKeyDown(ILandroid/view/KeyEvent;)Z",
      "targetMethod": "android.os.PowerManager$WakeLock.release()V",
      "eventChain": [
        {
          "start": "com.crazyapps.time.limit.kids.users.bring.me.back.my.droid.CallActivity.onKeyDown(ILandroid/view/KeyEvent;)Z",
          "target": "invokevirtual \u003c Application, Landroid/os/PowerManager$WakeLock, release()V \u003e@16",
          "type": "ui",
          "activities": [
            "com.crazyapps.time.limit.kids.users.bring.me.back.my.droid.BringMeBackMyDroidMain"
          ],
          "listener": "com.crazyapps.time.limit.kids.users.bring.me.back.my.droid.CallActivity",
          "listenerMethod": "onKeyDown",
          "uiType": "onKeyDown",
          "constraintsFile": "constraints21_0.py",
          "variables": {
            "\u003cInput1\u003e": "IAAv0"
          },
          "stringMap": {},
          "strings": {}
        }
      ]
    },
    "22": {
      "startMethod": "com.crazyapps.time.limit.kids.users.bring.me.back.my.droid.CallActivity.onKeyDown(ILandroid/view/KeyEvent;)Z",
      "targetMethod": "android.media.MediaPlayer.reset()V",
      "eventChain": [
        {
          "start": "com.crazyapps.time.limit.kids.users.bring.me.back.my.droid.CallActivity.onKeyDown(ILandroid/view/KeyEvent;)Z",
          "target": "invokevirtual \u003c Application, Landroid/media/MediaPlayer, reset()V \u003e@117",
          "type": "ui",
          "activities": [
            "com.crazyapps.time.limit.kids.users.bring.me.back.my.droid.BringMeBackMyDroidMain"
          ],
          "listener": "com.crazyapps.time.limit.kids.users.bring.me.back.my.droid.CallActivity",
          "listenerMethod": "onKeyDown",
          "uiType": "onKeyDown",
          "constraintsFile": "constraints22_0.py",
          "variables": {
            "\u003cInput1\u003e": "IAAv0"
          },
          "stringMap": {},
          "strings": {}
        }
      ]
    },
    "23": {
      "startMethod": "com.crazyapps.time.limit.kids.users.bring.me.back.my.droid.CallActivity.onKeyDown(ILandroid/view/KeyEvent;)Z",
      "targetMethod": "android.media.MediaPlayer.stop()V",
      "eventChain": [
        {
          "start": "com.crazyapps.time.limit.kids.users.bring.me.back.my.droid.CallActivity.onKeyDown(ILandroid/view/KeyEvent;)Z",
          "target": "invokevirtual \u003c Application, Landroid/media/MediaPlayer, stop()V \u003e@109",
          "type": "ui",
          "activities": [
            "com.crazyapps.time.limit.kids.users.bring.me.back.my.droid.BringMeBackMyDroidMain"
          ],
          "listener": "com.crazyapps.time.limit.kids.users.bring.me.back.my.droid.CallActivity",
          "listenerMethod": "onKeyDown",
          "uiType": "onKeyDown",
          "constraintsFile": "constraints23_0.py",
          "variables": {
            "\u003cInput1\u003e": "IAAv0"
          },
          "stringMap": {},
          "strings": {}
        }
      ]
    },
    "24": {
      "startMethod": "com.crazyapps.time.limit.kids.users.bring.me.back.my.droid.InCallActivity.onKeyDown(ILandroid/view/KeyEvent;)Z",
      "targetMethod": "android.media.MediaPlayer.stop()V",
      "eventChain": [
        {
          "start": "com.crazyapps.time.limit.kids.users.bring.me.back.my.droid.InCallActivity.onKeyDown(ILandroid/view/KeyEvent;)Z",
          "target": "invokevirtual \u003c Application, Landroid/media/MediaPlayer, stop()V \u003e@27",
          "type": "ui",
          "activities": [
            "com.crazyapps.time.limit.kids.users.bring.me.back.my.droid.BringMeBackMyDroidMain"
          ],
          "listener": "com.crazyapps.time.limit.kids.users.bring.me.back.my.droid.InCallActivity",
          "listenerMethod": "onKeyDown",
          "uiType": "onKeyDown",
          "constraintsFile": "constraints24_0.py",
          "variables": {
            "\u003cInput1\u003e": "IAAv0"
          },
          "stringMap": {},
          "strings": {}
        }
      ]
    },
    "25": {
      "startMethod": "com.crazyapps.time.limit.kids.users.bring.me.back.my.droid.InCallActivity.onKeyDown(ILandroid/view/KeyEvent;)Z",
      "targetMethod": "android.media.MediaPlayer.release()V",
      "eventChain": [
        {
          "start": "com.crazyapps.time.limit.kids.users.bring.me.back.my.droid.InCallActivity.onKeyDown(ILandroid/view/KeyEvent;)Z",
          "target": "invokevirtual \u003c Application, Landroid/media/MediaPlayer, release()V \u003e@35",
          "type": "ui",
          "activities": [
            "com.crazyapps.time.limit.kids.users.bring.me.back.my.droid.BringMeBackMyDroidMain"
          ],
          "listener": "com.crazyapps.time.limit.kids.users.bring.me.back.my.droid.InCallActivity",
          "listenerMethod": "onKeyDown",
          "uiType": "onKeyDown",
          "constraintsFile": "constraints25_0.py",
          "variables": {
            "\u003cInput1\u003e": "IAAv0"
          },
          "stringMap": {},
          "strings": {}
        }
      ]
    },
    "26": {
      "startMethod": "com.crazyapps.time.limit.kids.users.bring.me.back.my.droid.s.onPrepared(Landroid/media/MediaPlayer;)V",
      "targetMethod": "android.media.MediaPlayer.start()V",
      "eventChain": [
        {
          "start": "com.crazyapps.time.limit.kids.users.bring.me.back.my.droid.s.onPrepared(Landroid/media/MediaPlayer;)V",
          "target": "invokevirtual \u003c Application, Landroid/media/MediaPlayer, start()V \u003e@6",
          "type": ""
        }
      ]
    },
    "27": {
      "startMethod": "com.crazyapps.time.limit.kids.users.bring.me.back.my.droid.h.onTouch(Landroid/view/View;Landroid/view/MotionEvent;)Z",
      "targetMethod": "android.os.Vibrator.cancel()V",
      "eventChain": [
        {
          "start": "com.crazyapps.time.limit.kids.users.bring.me.back.my.droid.h.onTouch(Landroid/view/View;Landroid/view/MotionEvent;)Z",
          "target": "invokevirtual \u003c Application, Landroid/os/Vibrator, cancel()V \u003e@67",
          "type": "ui",
          "activities": [
            "com.crazyapps.time.limit.kids.users.bring.me.back.my.droid.BringMeBackMyDroidMain"
          ],
          "listener": "com.crazyapps.time.limit.kids.users.bring.me.back.my.droid.h",
          "listenerMethod": "onTouch",
          "uiType": "onTouch",
          "constraintsFile": "constraints27_0.py",
          "variables": {
            "\u003cChainedInput2\u003e.getX()": "IAAv2",
            "\u003cChainedInput2\u003e.getY()": "IAAv0",
            "\u003cChainedInput1\u003e.getWidth()": "IAAv3",
            "\u003cChainedInput1\u003e.getHeight()": "IAAv1"
          },
          "stringMap": {},
          "strings": {}
        }
      ]
    },
    "28": {
      "startMethod": "com.crazyapps.time.limit.kids.users.bring.me.back.my.droid.h.onTouch(Landroid/view/View;Landroid/view/MotionEvent;)Z",
      "targetMethod": "android.media.MediaPlayer.stop()V",
      "eventChain": [
        {
          "start": "com.crazyapps.time.limit.kids.users.bring.me.back.my.droid.h.onTouch(Landroid/view/View;Landroid/view/MotionEvent;)Z",
          "target": "invokevirtual \u003c Application, Landroid/media/MediaPlayer, stop()V \u003e@109",
          "type": "ui",
          "activities": [
            "com.crazyapps.time.limit.kids.users.bring.me.back.my.droid.BringMeBackMyDroidMain"
          ],
          "listener": "com.crazyapps.time.limit.kids.users.bring.me.back.my.droid.h",
          "listenerMethod": "onTouch",
          "uiType": "onTouch",
          "constraintsFile": "constraints28_0.py",
          "variables": {
            "\u003cChainedInput2\u003e.getX()": "IAAv2",
            "\u003cChainedInput2\u003e.getY()": "IAAv0",
            "\u003cChainedInput1\u003e.getWidth()": "IAAv3",
            "\u003cChainedInput1\u003e.getHeight()": "IAAv1"
          },
          "stringMap": {},
          "strings": {}
        }
      ]
    },
    "29": {
      "startMethod": "com.crazyapps.time.limit.kids.users.bring.me.back.my.droid.h.onTouch(Landroid/view/View;Landroid/view/MotionEvent;)Z",
      "targetMethod": "android.os.PowerManager$WakeLock.release()V",
      "eventChain": [
        {
          "start": "com.crazyapps.time.limit.kids.users.bring.me.back.my.droid.h.onTouch(Landroid/view/View;Landroid/view/MotionEvent;)Z",
          "target": "invokevirtual \u003c Application, Landroid/os/PowerManager$WakeLock, release()V \u003e@16",
          "type": "ui",
          "activities": [
            "com.crazyapps.time.limit.kids.users.bring.me.back.my.droid.BringMeBackMyDroidMain"
          ],
          "listener": "com.crazyapps.time.limit.kids.users.bring.me.back.my.droid.h",
          "listenerMethod": "onTouch",
          "uiType": "onTouch",
          "constraintsFile": "constraints29_0.py",
          "variables": {
            "\u003cChainedInput2\u003e.getX()": "IAAv2",
            "\u003cChainedInput2\u003e.getY()": "IAAv0",
            "\u003cChainedInput1\u003e.getWidth()": "IAAv3",
            "\u003cChainedInput1\u003e.getHeight()": "IAAv1"
          },
          "stringMap": {},
          "strings": {}
        }
      ]
    },
    "30": {
      "startMethod": "com.crazyapps.time.limit.kids.users.bring.me.back.my.droid.h.onTouch(Landroid/view/View;Landroid/view/MotionEvent;)Z",
      "targetMethod": "android.app.KeyguardManager$KeyguardLock.reenableKeyguard()V",
      "eventChain": [
        {
          "start": "com.crazyapps.time.limit.kids.users.bring.me.back.my.droid.h.onTouch(Landroid/view/View;Landroid/view/MotionEvent;)Z",
          "target": "invokevirtual \u003c Application, Landroid/app/KeyguardManager$KeyguardLock, reenableKeyguard()V \u003e@9",
          "type": "ui",
          "activities": [
            "com.crazyapps.time.limit.kids.users.bring.me.back.my.droid.BringMeBackMyDroidMain"
          ],
          "listener": "com.crazyapps.time.limit.kids.users.bring.me.back.my.droid.h",
          "listenerMethod": "onTouch",
          "uiType": "onTouch",
          "constraintsFile": "constraints30_0.py",
          "variables": {
            "\u003cInput1\u003e.getWidth()": "IAAv3",
            "\u003cInput2\u003e.getY()": "IAAv0",
            "\u003cInput2\u003e.getX()": "IAAv2",
            "\u003cInput1\u003e.getHeight()": "IAAv1"
          },
          "stringMap": {},
          "strings": {}
        }
      ]
    },
    "31": {
      "startMethod": "com.crazyapps.time.limit.kids.users.bring.me.back.my.droid.h.onTouch(Landroid/view/View;Landroid/view/MotionEvent;)Z",
      "targetMethod": "android.media.MediaPlayer.reset()V",
      "eventChain": [
        {
          "start": "com.crazyapps.time.limit.kids.users.bring.me.back.my.droid.h.onTouch(Landroid/view/View;Landroid/view/MotionEvent;)Z",
          "target": "invokevirtual \u003c Application, Landroid/media/MediaPlayer, reset()V \u003e@117",
          "type": "ui",
          "activities": [
            "com.crazyapps.time.limit.kids.users.bring.me.back.my.droid.BringMeBackMyDroidMain"
          ],
          "listener": "com.crazyapps.time.limit.kids.users.bring.me.back.my.droid.h",
          "listenerMethod": "onTouch",
          "uiType": "onTouch",
          "constraintsFile": "constraints31_0.py",
          "variables": {
            "\u003cChainedInput2\u003e.getX()": "IAAv2",
            "\u003cChainedInput2\u003e.getY()": "IAAv0",
            "\u003cChainedInput1\u003e.getWidth()": "IAAv3",
            "\u003cChainedInput1\u003e.getHeight()": "IAAv1"
          },
          "stringMap": {},
          "strings": {}
        }
      ]
    },
    "32": {
      "startMethod": "com.crazyapps.time.limit.kids.users.bring.me.back.my.droid.p.onTouch(Landroid/view/View;Landroid/view/MotionEvent;)Z",
      "targetMethod": "android.media.MediaPlayer.stop()V",
      "eventChain": [
        {
          "start": "com.crazyapps.time.limit.kids.users.bring.me.back.my.droid.p.onTouch(Landroid/view/View;Landroid/view/MotionEvent;)Z",
          "target": "invokevirtual \u003c Application, Landroid/media/MediaPlayer, stop()V \u003e@27",
          "type": "ui",
          "activities": [
            "com.crazyapps.time.limit.kids.users.bring.me.back.my.droid.BringMeBackMyDroidMain"
          ],
          "listener": "com.crazyapps.time.limit.kids.users.bring.me.back.my.droid.p",
          "listenerMethod": "onTouch",
          "uiType": "onTouch",
          "constraintsFile": "constraints32_0.py",
          "variables": {
            "\u003cChainedInput2\u003e.getY()": "IAAv0",
            "\u003cChainedInput1\u003e.getHeight()": "IAAv1"
          },
          "stringMap": {},
          "strings": {}
        }
      ]
    },
    "33": {
      "startMethod": "com.crazyapps.time.limit.kids.users.bring.me.back.my.droid.p.onTouch(Landroid/view/View;Landroid/view/MotionEvent;)Z",
      "targetMethod": "android.media.MediaPlayer.release()V",
      "eventChain": [
        {
          "start": "com.crazyapps.time.limit.kids.users.bring.me.back.my.droid.p.onTouch(Landroid/view/View;Landroid/view/MotionEvent;)Z",
          "target": "invokevirtual \u003c Application, Landroid/media/MediaPlayer, release()V \u003e@35",
          "type": "ui",
          "activities": [
            "com.crazyapps.time.limit.kids.users.bring.me.back.my.droid.BringMeBackMyDroidMain"
          ],
          "listener": "com.crazyapps.time.limit.kids.users.bring.me.back.my.droid.p",
          "listenerMethod": "onTouch",
          "uiType": "onTouch",
          "constraintsFile": "constraints33_0.py",
          "variables": {
            "\u003cChainedInput2\u003e.getY()": "IAAv0",
            "\u003cChainedInput1\u003e.getHeight()": "IAAv1"
          },
          "stringMap": {},
          "strings": {}
        }
      ]
    },
    "34": {
      "startMethod": "com.crazyapps.time.limit.kids.users.bring.me.back.my.droid.CallActivity.onActivityResult(IILandroid/content/Intent;)V",
      "targetMethod": "android.os.PowerManager$WakeLock.release()V",
      "eventChain": [
        {
          "start": "com.crazyapps.time.limit.kids.users.bring.me.back.my.droid.CallActivity.onActivityResult(IILandroid/content/Intent;)V",
          "target": "invokevirtual \u003c Application, Landroid/os/PowerManager$WakeLock, release()V \u003e@16",
          "type": "activity",
          "component": "com.crazyapps.time.limit.kids.users.bring.me.back.my.droid.CallActivity"
        }
      ]
    },
    "35": {
      "startMethod": "com.crazyapps.time.limit.kids.users.bring.me.back.my.droid.CallActivity.onActivityResult(IILandroid/content/Intent;)V",
      "targetMethod": "android.app.KeyguardManager$KeyguardLock.reenableKeyguard()V",
      "eventChain": [
        {
          "start": "com.crazyapps.time.limit.kids.users.bring.me.back.my.droid.CallActivity.onActivityResult(IILandroid/content/Intent;)V",
          "target": "invokevirtual \u003c Application, Landroid/app/KeyguardManager$KeyguardLock, reenableKeyguard()V \u003e@9",
          "type": "activity",
          "component": "com.crazyapps.time.limit.kids.users.bring.me.back.my.droid.CallActivity"
        }
      ]
    }
  }
}