{
  "packageName": "com.gone60",
  "mainActivity": "com.gone60.gone60",
  "callPaths": {
    "0": {
      "startMethod": "com.gone60.MyService$4.run()V",
      "targetMethod": "android.provider.Browser.getAllVisitedUrls(Landroid/content/ContentResolver;)Landroid/database/Cursor;",
      "eventChain": [
        {
          "start": "com.gone60.MyService$4.run()V",
          "target": "invokestatic \u003c Application, Landroid/provider/Browser, getAllVisitedUrls(Landroid/content/ContentResolver;)Landroid/database/Cursor; \u003e@119",
          "type": "",
          "constraintsFile": "constraints0_0.py",
          "variables": {},
          "stringMap": {},
          "strings": {}
        }
      ]
    },
    "1": {
      "startMethod": "com.gone60.json_class$2.run()V",
      "targetMethod": "org.apache.http.client.HttpClient.execute(Lorg/apache/http/client/methods/HttpUriRequest;)Lorg/apache/http/HttpResponse;",
      "eventChain": [
        {
          "start": "com.gone60.json_class$2.run()V",
          "target": "invokeinterface \u003c Application, Lorg/apache/http/client/HttpClient, execute(Lorg/apache/http/client/methods/HttpUriRequest;)Lorg/apache/http/HttpResponse; \u003e@68",
          "type": ""
        }
      ]
    }
  }
}