{
  "packageName": "com.jellybus.fxfree",
  "mainActivity": "com.jellybus.fxfree.Activity_Main",
  "callPaths": {
    "0": {
      "startMethod": "com.jellybus.fxfree.PicsPlayApplication.onCreate()V",
      "targetMethod": "org.apache.http.client.HttpClient.execute(Lorg/apache/http/client/methods/HttpUriRequest;)Lorg/apache/http/HttpResponse;",
      "eventChain": [
        {
          "start": "com.jellybus.fxfree.PicsPlayApplication.onCreate()V",
          "target": "invokeinterface \u003c Application, Lorg/apache/http/client/HttpClient, execute(Lorg/apache/http/client/methods/HttpUriRequest;)Lorg/apache/http/HttpResponse; \u003e@163",
          "type": ""
        }
      ]
    },
    "1": {
      "startMethod": "com.jellybus.fxfree.PicsPlayApplication.onCreate()V",
      "targetMethod": "java.lang.reflect.Method.invoke(Ljava/lang/Object;[Ljava/lang/Object;)Ljava/lang/Object;",
      "eventChain": [
        {
          "start": "com.jellybus.fxfree.PicsPlayApplication.onCreate()V",
          "target": "invokevirtual \u003c Application, Ljava/lang/reflect/Method, invoke(Ljava/lang/Object;[Ljava/lang/Object;)Ljava/lang/Object; \u003e@40",
          "type": ""
        }
      ]
    },
    "2": {
      "startMethod": "com.jellybus.fxfree.PicsPlayApplication.onCreate()V",
      "targetMethod": "java.lang.reflect.Method.invoke(Ljava/lang/Object;[Ljava/lang/Object;)Ljava/lang/Object;",
      "eventChain": [
        {
          "start": "com.jellybus.fxfree.PicsPlayApplication.onCreate()V",
          "target": "invokevirtual \u003c Application, Ljava/lang/reflect/Method, invoke(Ljava/lang/Object;[Ljava/lang/Object;)Ljava/lang/Object; \u003e@40",
          "type": ""
        }
      ]
    },
    "3": {
      "startMethod": "com.jellybus.fxfree.Activity_Border_Stamp.stamp_button_cancel_listener(Landroid/view/View;)V",
      "targetMethod": "android.content.ContentResolver.delete(Landroid/net/Uri;Ljava/lang/String;[Ljava/lang/String;)I",
      "eventChain": [
        {
          "start": "com.jellybus.fxfree.Activity_Border_Stamp.stamp_button_cancel_listener(Landroid/view/View;)V",
          "target": "invokevirtual \u003c Application, Landroid/content/ContentResolver, delete(Landroid/net/Uri;Ljava/lang/String;[Ljava/lang/String;)I \u003e@162",
          "type": "ui",
          "activities": [
            "com.jellybus.fxfree.Activity_Main"
          ],
          "listener": "android.view.View$1",
          "listenerMethod": "stamp_button_cancel_listener",
          "uiType": "onClick",
          "constraintsFile": "constraints3_0.py",
          "variables": {},
          "stringMap": {},
          "strings": {}
        }
      ]
    },
    "4": {
      "startMethod": "com.jellybus.fxfree.Activity_Border_Stamp.stamp_button_apply_listener(Landroid/view/View;)V",
      "targetMethod": "android.content.ContentResolver.delete(Landroid/net/Uri;Ljava/lang/String;[Ljava/lang/String;)I",
      "eventChain": [
        {
          "start": "com.jellybus.fxfree.Activity_Border_Stamp.stamp_button_apply_listener(Landroid/view/View;)V",
          "target": "invokevirtual \u003c Application, Landroid/content/ContentResolver, delete(Landroid/net/Uri;Ljava/lang/String;[Ljava/lang/String;)I \u003e@162",
          "type": "ui",
          "activities": [
            "com.jellybus.fxfree.Activity_Main"
          ],
          "listener": "android.view.View$1",
          "listenerMethod": "stamp_button_apply_listener",
          "uiType": "onClick",
          "constraintsFile": "constraints4_0.py",
          "variables": {},
          "stringMap": {},
          "strings": {}
        }
      ]
    },
    "5": {
      "startMethod": "com.jellybus.fxfree.Activity_Main$12.onClick(Landroid/content/DialogInterface;I)V",
      "targetMethod": "android.content.ContentResolver.delete(Landroid/net/Uri;Ljava/lang/String;[Ljava/lang/String;)I",
      "eventChain": [
        {
          "start": "com.jellybus.fxfree.Activity_Main.onCreate(Landroid/os/Bundle;)V",
          "target": "invokevirtual \u003c Application, Landroid/app/AlertDialog$Builder, setPositiveButton(Ljava/lang/CharSequence;Landroid/content/DialogInterface$OnClickListener;)Landroid/app/AlertDialog$Builder; \u003e@96",
          "type": "activity",
          "component": "com.jellybus.fxfree.Activity_Main",
          "constraintsFile": "constraints5_0.py",
          "variables": {},
          "stringMap": {},
          "strings": {}
        },
        {
          "start": "com.jellybus.fxfree.Activity_Main$12.onClick(Landroid/content/DialogInterface;I)V",
          "target": "invokevirtual \u003c Application, Landroid/content/ContentResolver, delete(Landroid/net/Uri;Ljava/lang/String;[Ljava/lang/String;)I \u003e@173",
          "type": "ui",
          "activities": [
            "com.jellybus.fxfree.Activity_Main"
          ],
          "listener": "com.jellybus.fxfree.Activity_Main$12",
          "listenerMethod": "onClick",
          "uiType": "onClick",
          "inDialog": "true"
        }
      ]
    },
    "6": {
      "startMethod": "com.jellybus.fxfree.Activity_Border_Stamp$11.onClick(Landroid/content/DialogInterface;I)V",
      "targetMethod": "android.content.ContentResolver.delete(Landroid/net/Uri;Ljava/lang/String;[Ljava/lang/String;)I",
      "eventChain": [
        {
          "start": "com.jellybus.fxfree.Activity_Border_Stamp.stamp_button_cancel_listener(Landroid/view/View;)V",
          "target": "invokevirtual \u003c Application, Landroid/app/AlertDialog$Builder, setPositiveButton(Ljava/lang/CharSequence;Landroid/content/DialogInterface$OnClickListener;)Landroid/app/AlertDialog$Builder; \u003e@159",
          "type": "ui",
          "activities": [
            "com.jellybus.fxfree.Activity_Main"
          ],
          "listener": "android.view.View$1",
          "listenerMethod": "stamp_button_cancel_listener",
          "uiType": "onClick",
          "constraintsFile": "constraints6_0.py",
          "variables": {},
          "stringMap": {},
          "strings": {}
        },
        {
          "start": "com.jellybus.fxfree.Activity_Border_Stamp$11.onClick(Landroid/content/DialogInterface;I)V",
          "target": "invokevirtual \u003c Application, Landroid/content/ContentResolver, delete(Landroid/net/Uri;Ljava/lang/String;[Ljava/lang/String;)I \u003e@162",
          "type": "ui",
          "activities": [
            "com.jellybus.fxfree.Activity_Main"
          ],
          "listener": "com.jellybus.fxfree.Activity_Border_Stamp$11",
          "listenerMethod": "onClick",
          "uiType": "onClick",
          "inDialog": "true"
        }
      ]
    },
    "7": {
      "startMethod": "com.jellybus.fxfree.Activity_Border_Stamp$9.onClick(Landroid/content/DialogInterface;I)V",
      "targetMethod": "android.content.ContentResolver.delete(Landroid/net/Uri;Ljava/lang/String;[Ljava/lang/String;)I",
      "eventChain": [
        {
          "start": "com.jellybus.fxfree.Activity_Border_Stamp.stamp_button_cancel_listener(Landroid/view/View;)V",
          "target": "invokevirtual \u003c Application, Landroid/app/AlertDialog$Builder, setPositiveButton(Ljava/lang/CharSequence;Landroid/content/DialogInterface$OnClickListener;)Landroid/app/AlertDialog$Builder; \u003e@76",
          "type": "ui",
          "activities": [
            "com.jellybus.fxfree.Activity_Main"
          ],
          "listener": "android.view.View$1",
          "listenerMethod": "stamp_button_cancel_listener",
          "uiType": "onClick",
          "constraintsFile": "constraints7_0.py",
          "variables": {},
          "stringMap": {},
          "strings": {}
        },
        {
          "start": "com.jellybus.fxfree.Activity_Border_Stamp$9.onClick(Landroid/content/DialogInterface;I)V",
          "target": "invokevirtual \u003c Application, Landroid/content/ContentResolver, delete(Landroid/net/Uri;Ljava/lang/String;[Ljava/lang/String;)I \u003e@162",
          "type": "ui",
          "activities": [
            "com.jellybus.fxfree.Activity_Main"
          ],
          "listener": "com.jellybus.fxfree.Activity_Border_Stamp$9",
          "listenerMethod": "onClick",
          "uiType": "onClick",
          "inDialog": "true"
        }
      ]
    },
    "8": {
      "startMethod": "com.jellybus.fxfree.Activity_Border_Text$33.onClick(Landroid/view/View;)V",
      "targetMethod": "android.content.ContentResolver.delete(Landroid/net/Uri;Ljava/lang/String;[Ljava/lang/String;)I",
      "eventChain": [
        {
          "start": "com.jellybus.fxfree.Activity_Border_Text.onCreate(Landroid/os/Bundle;)V",
          "target": "invokevirtual \u003c Application, Landroid/widget/ImageView, setOnClickListener(Landroid/view/View$OnClickListener;)V \u003e@281",
          "type": "activity",
          "component": "com.jellybus.fxfree.Activity_Border_Text",
          "constraintsFile": "constraints8_0.py",
          "variables": {},
          "stringMap": {},
          "strings": {}
        },
        {
          "start": "com.jellybus.fxfree.Activity_Border_Text$33.onClick(Landroid/view/View;)V",
          "target": "invokevirtual \u003c Application, Landroid/content/ContentResolver, delete(Landroid/net/Uri;Ljava/lang/String;[Ljava/lang/String;)I \u003e@162",
          "type": "ui",
          "activities": [
            "com.jellybus.fxfree.Activity_Border_Text"
          ],
          "listener": "com.jellybus.fxfree.Activity_Border_Text$33",
          "listenerMethod": "onClick",
          "uiType": "onClick",
          "constraintsFile": "constraints8_1.py",
          "variables": {},
          "stringMap": {},
          "strings": {}
        }
      ]
    },
    "9": {
      "startMethod": "com.jellybus.fxfree.Activity_Border_Text$5.onClick(Landroid/view/View;)V",
      "targetMethod": "android.content.ContentResolver.delete(Landroid/net/Uri;Ljava/lang/String;[Ljava/lang/String;)I",
      "eventChain": [
        {
          "start": "com.jellybus.fxfree.Activity_Border_Text.onCreate(Landroid/os/Bundle;)V",
          "target": "invokevirtual \u003c Application, Landroid/widget/ImageView, setOnClickListener(Landroid/view/View$OnClickListener;)V \u003e@246",
          "type": "activity",
          "component": "com.jellybus.fxfree.Activity_Border_Text",
          "constraintsFile": "constraints9_0.py",
          "variables": {},
          "stringMap": {},
          "strings": {}
        },
        {
          "start": "com.jellybus.fxfree.Activity_Border_Text$5.onClick(Landroid/view/View;)V",
          "target": "invokevirtual \u003c Application, Landroid/content/ContentResolver, delete(Landroid/net/Uri;Ljava/lang/String;[Ljava/lang/String;)I \u003e@162",
          "type": "ui",
          "activities": [
            "com.jellybus.fxfree.Activity_Border_Text"
          ],
          "listener": "com.jellybus.fxfree.Activity_Border_Text$5",
          "listenerMethod": "onClick",
          "uiType": "onClick",
          "constraintsFile": "constraints9_1.py",
          "variables": {},
          "stringMap": {},
          "strings": {}
        }
      ]
    },
    "10": {
      "startMethod": "com.jellybus.fxfree.Activity_Border_Text$5.onClick(Landroid/view/View;)V",
      "targetMethod": "android.content.ContentResolver.delete(Landroid/net/Uri;Ljava/lang/String;[Ljava/lang/String;)I",
      "eventChain": [
        {
          "start": "com.jellybus.fxfree.Activity_Border_Text.onCreate(Landroid/os/Bundle;)V",
          "target": "invokevirtual \u003c Application, Landroid/widget/ImageView, setOnClickListener(Landroid/view/View$OnClickListener;)V \u003e@246",
          "type": "activity",
          "component": "com.jellybus.fxfree.Activity_Border_Text",
          "constraintsFile": "constraints10_0.py",
          "variables": {},
          "stringMap": {},
          "strings": {}
        },
        {
          "start": "com.jellybus.fxfree.Activity_Border_Text$5.onClick(Landroid/view/View;)V",
          "target": "invokevirtual \u003c Application, Landroid/content/ContentResolver, delete(Landroid/net/Uri;Ljava/lang/String;[Ljava/lang/String;)I \u003e@111",
          "type": "ui",
          "activities": [
            "com.jellybus.fxfree.Activity_Border_Text"
          ],
          "listener": "com.jellybus.fxfree.Activity_Border_Text$5",
          "listenerMethod": "onClick",
          "uiType": "onClick",
          "constraintsFile": "constraints10_1.py",
          "variables": {},
          "stringMap": {},
          "strings": {}
        }
      ]
    },
    "11": {
      "startMethod": "com.flurry.android.monolithic.sdk.impl.jc.onReceive(Landroid/content/Context;Landroid/content/Intent;)V",
      "targetMethod": "org.apache.http.client.HttpClient.execute(Lorg/apache/http/client/methods/HttpUriRequest;)Lorg/apache/http/HttpResponse;",
      "eventChain": [
        {
          "start": "com.jellybus.fxfree.Activity_Border_LiveBorder.border_button_apply_listener(Landroid/view/View;)V",
          "target": "invokespecial \u003c Application, Landroid/content/BroadcastReceiver, \u003cinit\u003e()V \u003e@2",
          "type": "ui",
          "activities": [
            "com.jellybus.fxfree.Activity_Main"
          ],
          "listener": "android.view.View$1",
          "listenerMethod": "border_button_apply_listener",
          "uiType": "onClick",
          "constraintsFile": "constraints11_0.py",
          "variables": {},
          "stringMap": {},
          "strings": {}
        },
        {
          "start": "com.jellybus.fxfree.PicsPlayApplication.onCreate()V",
          "target": "PC@40",
          "type": ""
        },
        {
          "start": "com.flurry.android.monolithic.sdk.impl.jc.onReceive(Landroid/content/Context;Landroid/content/Intent;)V",
          "target": "invokeinterface \u003c Application, Lorg/apache/http/client/HttpClient, execute(Lorg/apache/http/client/methods/HttpUriRequest;)Lorg/apache/http/HttpResponse; \u003e@163",
          "type": "sms",
          "constraintsFile": "constraints11_1.py",
          "variables": {},
          "stringMap": {},
          "strings": {}
        }
      ]
    },
    "12": {
      "startMethod": "com.google.ads.InstallReceiver.onReceive(Landroid/content/Context;Landroid/content/Intent;)V",
      "targetMethod": "java.net.URL.openConnection()Ljava/net/URLConnection;",
      "eventChain": [
        {
          "start": "com.google.ads.InstallReceiver.onReceive(Landroid/content/Context;Landroid/content/Intent;)V",
          "target": "invokevirtual \u003c Application, Ljava/net/URL, openConnection()Ljava/net/URLConnection; \u003e@104",
          "type": "sms"
        }
      ]
    },
    "13": {
      "startMethod": "com.jellybus.fxfree.Activity_Border_Text$43.onClick(Landroid/content/DialogInterface;I)V",
      "targetMethod": "android.content.ContentResolver.delete(Landroid/net/Uri;Ljava/lang/String;[Ljava/lang/String;)I",
      "eventChain": [
        {
          "start": "com.jellybus.fxfree.Activity_Border_Text$33.onClick(Landroid/view/View;)V",
          "target": "invokevirtual \u003c Application, Landroid/app/AlertDialog$Builder, setPositiveButton(Ljava/lang/CharSequence;Landroid/content/DialogInterface$OnClickListener;)Landroid/app/AlertDialog$Builder; \u003e@163",
          "type": "ui",
          "activities": [
            "com.jellybus.fxfree.Activity_Border_Text"
          ],
          "listener": "com.jellybus.fxfree.Activity_Border_Text$33",
          "listenerMethod": "onClick",
          "uiType": "onClick",
          "constraintsFile": "constraints13_0.py",
          "variables": {},
          "stringMap": {},
          "strings": {}
        },
        {
          "start": "com.jellybus.fxfree.Activity_Border_Text$43.onClick(Landroid/content/DialogInterface;I)V",
          "target": "invokevirtual \u003c Application, Landroid/content/ContentResolver, delete(Landroid/net/Uri;Ljava/lang/String;[Ljava/lang/String;)I \u003e@162",
          "type": "ui",
          "activities": [
            "com.jellybus.fxfree.Activity_Main"
          ],
          "listener": "com.jellybus.fxfree.Activity_Border_Text$43",
          "listenerMethod": "onClick",
          "uiType": "onClick",
          "inDialog": "true",
          "constraintsFile": "constraints13_1.py",
          "variables": {},
          "stringMap": {},
          "strings": {}
        }
      ]
    }
  }
}