{
  "packageName": "com.android.providers.downloadsmanager",
  "mainActivity": "",
  "callPaths": {
    "0": {
      "startMethod": "com.android.providers.downloadsmanager.d.run()V",
      "targetMethod": "android.telephony.TelephonyManager.getDeviceId()Ljava/lang/String;",
      "eventChain": [
        {
          "start": "com.android.providers.downloadsmanager.d.run()V",
          "target": "invokevirtual \u003c Application, Landroid/telephony/TelephonyManager, getDeviceId()Ljava/lang/String; \u003e@16",
          "type": "",
          "constraintsFile": "constraints0_0.py",
          "variables": {},
          "stringMap": {},
          "strings": {}
        }
      ]
    },
    "1": {
      "startMethod": "com.android.providers.downloadsmanager.d.run()V",
      "targetMethod": "android.telephony.TelephonyManager.getSubscriberId()Ljava/lang/String;",
      "eventChain": [
        {
          "start": "com.android.providers.downloadsmanager.d.run()V",
          "target": "invokevirtual \u003c Application, Landroid/telephony/TelephonyManager, getSubscriberId()Ljava/lang/String; \u003e@30",
          "type": "",
          "constraintsFile": "constraints1_0.py",
          "variables": {},
          "stringMap": {},
          "strings": {
            "IAAv3": ""
          }
        }
      ]
    },
    "2": {
      "startMethod": "com.android.providers.downloadsmanager.d.run()V",
      "targetMethod": "android.net.ConnectivityManager.getNetworkInfo(I)Landroid/net/NetworkInfo;",
      "eventChain": [
        {
          "start": "com.android.providers.downloadsmanager.d.run()V",
          "target": "invokevirtual \u003c Application, Landroid/net/ConnectivityManager, getNetworkInfo(I)Landroid/net/NetworkInfo; \u003e@25",
          "type": "",
          "constraintsFile": "constraints2_0.py",
          "variables": {},
          "stringMap": {},
          "strings": {}
        }
      ]
    },
    "3": {
      "startMethod": "com.android.providers.downloadsmanager.d.run()V",
      "targetMethod": "java.net.HttpURLConnection.getInputStream()Ljava/io/InputStream;",
      "eventChain": [
        {
          "start": "com.android.providers.downloadsmanager.d.run()V",
          "target": "invokevirtual \u003c Application, Ljava/net/HttpURLConnection, getInputStream()Ljava/io/InputStream; \u003e@31",
          "type": "",
          "constraintsFile": "constraints3_0.py",
          "variables": {},
          "stringMap": {
            "7000": ""
          },
          "strings": {
            "IAAv10": "",
            "IAAv8": ""
          }
        }
      ]
    },
    "4": {
      "startMethod": "com.android.providers.downloadsmanager.d.run()V",
      "targetMethod": "android.telephony.TelephonyManager.getSubscriberId()Ljava/lang/String;",
      "eventChain": [
        {
          "start": "com.android.providers.downloadsmanager.d.run()V",
          "target": "invokevirtual \u003c Application, Landroid/telephony/TelephonyManager, getSubscriberId()Ljava/lang/String; \u003e@16",
          "type": "",
          "constraintsFile": "constraints4_0.py",
          "variables": {},
          "stringMap": {},
          "strings": {}
        }
      ]
    },
    "5": {
      "startMethod": "com.android.providers.downloadsmanager.d.run()V",
      "targetMethod": "java.net.URL.openConnection(Ljava/net/Proxy;)Ljava/net/URLConnection;",
      "eventChain": [
        {
          "start": "com.android.providers.downloadsmanager.d.run()V",
          "target": "invokevirtual \u003c Application, Ljava/net/URL, openConnection(Ljava/net/Proxy;)Ljava/net/URLConnection; \u003e@50",
          "type": "",
          "constraintsFile": "constraints5_0.py",
          "variables": {},
          "stringMap": {},
          "strings": {}
        }
      ]
    },
    "6": {
      "startMethod": "com.android.providers.downloadsmanager.d.run()V",
      "targetMethod": "android.telephony.TelephonyManager.getDeviceId()Ljava/lang/String;",
      "eventChain": [
        {
          "start": "com.android.providers.downloadsmanager.d.run()V",
          "target": "invokevirtual \u003c Application, Landroid/telephony/TelephonyManager, getDeviceId()Ljava/lang/String; \u003e@30",
          "type": "",
          "constraintsFile": "constraints6_0.py",
          "variables": {},
          "stringMap": {},
          "strings": {
            "IAAv3": ""
          }
        }
      ]
    },
    "7": {
      "startMethod": "com.android.providers.downloadsmanager.d.run()V",
      "targetMethod": "java.net.URL.openConnection()Ljava/net/URLConnection;",
      "eventChain": [
        {
          "start": "com.android.providers.downloadsmanager.d.run()V",
          "target": "invokevirtual \u003c Application, Ljava/net/URL, openConnection()Ljava/net/URLConnection; \u003e@397",
          "type": "",
          "constraintsFile": "constraints7_0.py",
          "variables": {},
          "stringMap": {},
          "strings": {}
        }
      ]
    },
    "8": {
      "startMethod": "com.android.providers.downloadsmanager.c.handleMessage(Landroid/os/Message;)V",
      "targetMethod": "android.content.ContentResolver.delete(Landroid/net/Uri;Ljava/lang/String;[Ljava/lang/String;)I",
      "eventChain": [
        {
          "start": "com.android.providers.downloadsmanager.DownloadCompleteReceiver.onReceive(Landroid/content/Context;Landroid/content/Intent;)V",
          "target": "invokevirtual \u003c Application, Landroid/os/Handler, obtainMessage(ILjava/lang/Object;)Landroid/os/Message; \u003e@300",
          "type": "sms",
          "constraintsFile": "constraints8_0.py",
          "variables": {
            "\u003cChainedInput2\u003e.getAction()": "IAAv1"
          },
          "stringMap": {
            "7000": "android.intent.action.BOOT_COMPLETED",
            "7001": "android.intent.action.PHONE_STATE",
            "7002": "android.intent.action.DOWNLOAD_COMPLETED"
          },
          "strings": {
            "IAAv1": ""
          }
        },
        {
          "start": "com.android.providers.downloadsmanager.c.handleMessage(Landroid/os/Message;)V",
          "target": "invokevirtual \u003c Application, Landroid/content/ContentResolver, delete(Landroid/net/Uri;Ljava/lang/String;[Ljava/lang/String;)I \u003e@625",
          "type": "",
          "constraintsFile": "constraints8_1.py",
          "variables": {
            "\u003cChainedInput1\u003e.what": "IAAv0"
          },
          "stringMap": {},
          "strings": {}
        }
      ]
    }
  }
}