{
  "packageName": "com.FourCobblers.Free.PhoneLock",
  "mainActivity": "com.FourCobblers.Free.PhoneLock.PhoneLock",
  "callPaths": {
    "0": {
      "startMethod": "com.FourCobblers.Free.PhoneLock.DeviceAdminHandle$PhoneLockSetting.onCreate(Landroid/os/Bundle;)V",
      "targetMethod": "android.net.ConnectivityManager.getActiveNetworkInfo()Landroid/net/NetworkInfo;",
      "eventChain": [
        {
          "start": "com.FourCobblers.Free.PhoneLock.DeviceAdminHandle$PhoneLockSetting.onCreate(Landroid/os/Bundle;)V",
          "target": "invokevirtual \u003c Application, Landroid/net/ConnectivityManager, getActiveNetworkInfo()Landroid/net/NetworkInfo; \u003e@17",
          "type": "activity",
          "component": "com.FourCobblers.Free.PhoneLock.DeviceAdminHandle$PhoneLockSetting",
          "constraintsFile": "constraints0_0.py",
          "variables": {},
          "stringMap": {},
          "strings": {
            "IAAv11": "",
            "IAAv14": "",
            "IAAv9": "",
            "IAAv8": ""
          }
        }
      ]
    },
    "1": {
      "startMethod": "com.FourCobblers.Free.PhoneLock.DeviceAdminHandle$PhoneLockSetting.onCreate(Landroid/os/Bundle;)V",
      "targetMethod": "java.net.URL.openConnection()Ljava/net/URLConnection;",
      "eventChain": [
        {
          "start": "com.FourCobblers.Free.PhoneLock.DeviceAdminHandle$PhoneLockSetting.onCreate(Landroid/os/Bundle;)V",
          "target": "invokevirtual \u003c Application, Ljava/net/URL, openConnection()Ljava/net/URLConnection; \u003e@22",
          "type": "activity",
          "component": "com.FourCobblers.Free.PhoneLock.DeviceAdminHandle$PhoneLockSetting",
          "constraintsFile": "constraints1_0.py",
          "variables": {},
          "stringMap": {},
          "strings": {}
        }
      ]
    },
    "2": {
      "startMethod": "com.FourCobblers.Free.PhoneLock.DeviceAdminHandle$PhoneLockSetting.onCreate(Landroid/os/Bundle;)V",
      "targetMethod": "java.net.HttpURLConnection.connect()V",
      "eventChain": [
        {
          "start": "com.FourCobblers.Free.PhoneLock.DeviceAdminHandle$PhoneLockSetting.onCreate(Landroid/os/Bundle;)V",
          "target": "invokevirtual \u003c Application, Ljava/net/HttpURLConnection, connect()V \u003e@59",
          "type": "activity",
          "component": "com.FourCobblers.Free.PhoneLock.DeviceAdminHandle$PhoneLockSetting",
          "constraintsFile": "constraints2_0.py",
          "variables": {},
          "stringMap": {},
          "strings": {}
        }
      ]
    },
    "3": {
      "startMethod": "com.FourCobblers.Free.PhoneLock.DeviceAdminHandle$PhoneLockSetting.onCreate(Landroid/os/Bundle;)V",
      "targetMethod": "android.webkit.WebView.\u003cinit\u003e(Landroid/content/Context;)V",
      "eventChain": [
        {
          "start": "com.FourCobblers.Free.PhoneLock.DeviceAdminHandle$PhoneLockSetting.onCreate(Landroid/os/Bundle;)V",
          "target": "invokespecial \u003c Application, Landroid/webkit/WebView, \u003cinit\u003e(Landroid/content/Context;)V \u003e@62",
          "type": "activity",
          "component": "com.FourCobblers.Free.PhoneLock.DeviceAdminHandle$PhoneLockSetting",
          "constraintsFile": "constraints3_0.py",
          "variables": {},
          "stringMap": {},
          "strings": {}
        }
      ]
    },
    "4": {
      "startMethod": "com.FourCobblers.Free.PhoneLock.DeviceAdminHandle$PhoneLockSetting.onCreate(Landroid/os/Bundle;)V",
      "targetMethod": "android.webkit.WebView.\u003cinit\u003e(Landroid/content/Context;)V",
      "eventChain": [
        {
          "start": "com.FourCobblers.Free.PhoneLock.DeviceAdminHandle$PhoneLockSetting.onCreate(Landroid/os/Bundle;)V",
          "target": "invokespecial \u003c Application, Landroid/webkit/WebView, \u003cinit\u003e(Landroid/content/Context;)V \u003e@3",
          "type": "activity",
          "component": "com.FourCobblers.Free.PhoneLock.DeviceAdminHandle$PhoneLockSetting"
        }
      ]
    },
    "5": {
      "startMethod": "com.FourCobblers.Free.PhoneLock.DeviceAdminHandle$PhoneLockSetting.onCreate(Landroid/os/Bundle;)V",
      "targetMethod": "java.net.HttpURLConnection.getInputStream()Ljava/io/InputStream;",
      "eventChain": [
        {
          "start": "com.FourCobblers.Free.PhoneLock.DeviceAdminHandle$PhoneLockSetting.onCreate(Landroid/os/Bundle;)V",
          "target": "invokevirtual \u003c Application, Ljava/net/HttpURLConnection, getInputStream()Ljava/io/InputStream; \u003e@202",
          "type": "activity",
          "component": "com.FourCobblers.Free.PhoneLock.DeviceAdminHandle$PhoneLockSetting",
          "constraintsFile": "constraints5_0.py",
          "variables": {},
          "stringMap": {},
          "strings": {}
        }
      ]
    },
    "6": {
      "startMethod": "com.FourCobblers.Free.PhoneLock.DeviceAdminHandle$PhoneLockSetting.onCreate(Landroid/os/Bundle;)V",
      "targetMethod": "java.net.URL.openConnection()Ljava/net/URLConnection;",
      "eventChain": [
        {
          "start": "com.FourCobblers.Free.PhoneLock.DeviceAdminHandle$PhoneLockSetting.onCreate(Landroid/os/Bundle;)V",
          "target": "invokevirtual \u003c Application, Ljava/net/URL, openConnection()Ljava/net/URLConnection; \u003e@23",
          "type": "activity",
          "component": "com.FourCobblers.Free.PhoneLock.DeviceAdminHandle$PhoneLockSetting",
          "constraintsFile": "constraints6_0.py",
          "variables": {},
          "stringMap": {},
          "strings": {}
        }
      ]
    },
    "7": {
      "startMethod": "com.google.ads.AdActivity.onCreate(Landroid/os/Bundle;)V",
      "targetMethod": "android.webkit.WebView.\u003cinit\u003e(Landroid/content/Context;)V",
      "eventChain": [
        {
          "start": "com.google.ads.AdActivity.\u003cclinit\u003e()V",
          "target": "",
          "type": "",
          "constraintsFile": "constraints7_0.py",
          "variables": {},
          "stringMap": {},
          "strings": {}
        },
        {
          "start": "com.google.ads.AdActivity.onCreate(Landroid/os/Bundle;)V",
          "target": "invokespecial \u003c Application, Landroid/webkit/WebView, \u003cinit\u003e(Landroid/content/Context;)V \u003e@3",
          "type": "activity",
          "component": "com.google.ads.AdActivity",
          "constraintsFile": "constraints7_1.py",
          "variables": {},
          "stringMap": {},
          "strings": {}
        }
      ]
    },
    "8": {
      "startMethod": "com.google.ads.AdActivity.onDestroy()V",
      "targetMethod": "android.widget.VideoView.stopPlayback()V",
      "eventChain": [
        {
          "start": "com.google.ads.AdActivity.onCreate(Landroid/os/Bundle;)V",
          "target": "PC@528",
          "type": "activity",
          "component": "com.google.ads.AdActivity",
          "constraintsFile": "constraints8_0.py",
          "variables": {},
          "stringMap": {},
          "strings": {}
        },
        {
          "start": "com.google.ads.AdActivity.onCreate(Landroid/os/Bundle;)V",
          "target": "PC@30",
          "type": "activity",
          "component": "com.google.ads.AdActivity",
          "constraintsFile": "constraints8_1.py",
          "variables": {},
          "stringMap": {},
          "strings": {}
        },
        {
          "start": "com.google.ads.AdActivity.onDestroy()V",
          "target": "invokevirtual \u003c Application, Landroid/widget/VideoView, stopPlayback()V \u003e@73",
          "type": "activity",
          "component": "com.google.ads.AdActivity",
          "constraintsFile": "constraints8_2.py",
          "variables": {},
          "stringMap": {},
          "strings": {}
        }
      ]
    },
    "9": {
      "startMethod": "com.FourCobblers.Free.PhoneLock.SetMaxPasswordFailed.onCreate(Landroid/os/Bundle;)V",
      "targetMethod": "java.net.HttpURLConnection.connect()V",
      "eventChain": [
        {
          "start": "com.FourCobblers.Free.PhoneLock.SetMaxPasswordFailed.onCreate(Landroid/os/Bundle;)V",
          "target": "invokevirtual \u003c Application, Ljava/net/HttpURLConnection, connect()V \u003e@59",
          "type": "activity",
          "component": "com.FourCobblers.Free.PhoneLock.SetMaxPasswordFailed",
          "constraintsFile": "constraints9_0.py",
          "variables": {},
          "stringMap": {},
          "strings": {}
        }
      ]
    },
    "10": {
      "startMethod": "com.FourCobblers.Free.PhoneLock.SetMaxPasswordFailed.onCreate(Landroid/os/Bundle;)V",
      "targetMethod": "java.net.URL.openConnection()Ljava/net/URLConnection;",
      "eventChain": [
        {
          "start": "com.FourCobblers.Free.PhoneLock.SetMaxPasswordFailed.onCreate(Landroid/os/Bundle;)V",
          "target": "invokevirtual \u003c Application, Ljava/net/URL, openConnection()Ljava/net/URLConnection; \u003e@22",
          "type": "activity",
          "component": "com.FourCobblers.Free.PhoneLock.SetMaxPasswordFailed",
          "constraintsFile": "constraints10_0.py",
          "variables": {},
          "stringMap": {},
          "strings": {}
        }
      ]
    },
    "11": {
      "startMethod": "com.FourCobblers.Free.PhoneLock.SetMaxPasswordFailed.onCreate(Landroid/os/Bundle;)V",
      "targetMethod": "java.net.HttpURLConnection.getInputStream()Ljava/io/InputStream;",
      "eventChain": [
        {
          "start": "com.FourCobblers.Free.PhoneLock.SetMaxPasswordFailed.onCreate(Landroid/os/Bundle;)V",
          "target": "invokevirtual \u003c Application, Ljava/net/HttpURLConnection, getInputStream()Ljava/io/InputStream; \u003e@202",
          "type": "activity",
          "component": "com.FourCobblers.Free.PhoneLock.SetMaxPasswordFailed",
          "constraintsFile": "constraints11_0.py",
          "variables": {},
          "stringMap": {},
          "strings": {}
        }
      ]
    },
    "12": {
      "startMethod": "com.FourCobblers.Free.PhoneLock.SetMaxPasswordFailed.onCreate(Landroid/os/Bundle;)V",
      "targetMethod": "android.webkit.WebView.\u003cinit\u003e(Landroid/content/Context;)V",
      "eventChain": [
        {
          "start": "com.FourCobblers.Free.PhoneLock.SetMaxPasswordFailed.onCreate(Landroid/os/Bundle;)V",
          "target": "invokespecial \u003c Application, Landroid/webkit/WebView, \u003cinit\u003e(Landroid/content/Context;)V \u003e@3",
          "type": "activity",
          "component": "com.FourCobblers.Free.PhoneLock.SetMaxPasswordFailed"
        }
      ]
    },
    "13": {
      "startMethod": "com.FourCobblers.Free.PhoneLock.SetMaxPasswordFailed.onCreate(Landroid/os/Bundle;)V",
      "targetMethod": "java.net.URL.openConnection()Ljava/net/URLConnection;",
      "eventChain": [
        {
          "start": "com.FourCobblers.Free.PhoneLock.SetMaxPasswordFailed.onCreate(Landroid/os/Bundle;)V",
          "target": "invokevirtual \u003c Application, Ljava/net/URL, openConnection()Ljava/net/URLConnection; \u003e@23",
          "type": "activity",
          "component": "com.FourCobblers.Free.PhoneLock.SetMaxPasswordFailed",
          "constraintsFile": "constraints13_0.py",
          "variables": {},
          "stringMap": {},
          "strings": {}
        }
      ]
    },
    "14": {
      "startMethod": "com.FourCobblers.Free.PhoneLock.SetMaxPasswordFailed.onCreate(Landroid/os/Bundle;)V",
      "targetMethod": "android.webkit.WebView.\u003cinit\u003e(Landroid/content/Context;)V",
      "eventChain": [
        {
          "start": "com.FourCobblers.Free.PhoneLock.SetMaxPasswordFailed.onCreate(Landroid/os/Bundle;)V",
          "target": "invokespecial \u003c Application, Landroid/webkit/WebView, \u003cinit\u003e(Landroid/content/Context;)V \u003e@62",
          "type": "activity",
          "component": "com.FourCobblers.Free.PhoneLock.SetMaxPasswordFailed",
          "constraintsFile": "constraints14_0.py",
          "variables": {},
          "stringMap": {},
          "strings": {}
        }
      ]
    },
    "15": {
      "startMethod": "com.FourCobblers.Free.PhoneLock.SetMaxPasswordFailed.onCreate(Landroid/os/Bundle;)V",
      "targetMethod": "android.net.ConnectivityManager.getActiveNetworkInfo()Landroid/net/NetworkInfo;",
      "eventChain": [
        {
          "start": "com.FourCobblers.Free.PhoneLock.SetMaxPasswordFailed.onCreate(Landroid/os/Bundle;)V",
          "target": "invokevirtual \u003c Application, Landroid/net/ConnectivityManager, getActiveNetworkInfo()Landroid/net/NetworkInfo; \u003e@17",
          "type": "activity",
          "component": "com.FourCobblers.Free.PhoneLock.SetMaxPasswordFailed",
          "constraintsFile": "constraints15_0.py",
          "variables": {},
          "stringMap": {},
          "strings": {
            "IAAv11": "",
            "IAAv14": "",
            "IAAv9": "",
            "IAAv8": ""
          }
        }
      ]
    },
    "16": {
      "startMethod": "com.FourCobblers.Free.PhoneLock.SetSMSCommand.onCreate(Landroid/os/Bundle;)V",
      "targetMethod": "android.telephony.TelephonyManager.getDeviceId()Ljava/lang/String;",
      "eventChain": [
        {
          "start": "com.FourCobblers.Free.PhoneLock.SetSMSCommand.onCreate(Landroid/os/Bundle;)V",
          "target": "invokevirtual \u003c Application, Landroid/telephony/TelephonyManager, getDeviceId()Ljava/lang/String; \u003e@97",
          "type": "activity",
          "component": "com.FourCobblers.Free.PhoneLock.SetSMSCommand"
        }
      ]
    },
    "17": {
      "startMethod": "com.FourCobblers.Free.PhoneLock.SetSMSCommand.onCreate(Landroid/os/Bundle;)V",
      "targetMethod": "java.net.URL.openConnection()Ljava/net/URLConnection;",
      "eventChain": [
        {
          "start": "com.FourCobblers.Free.PhoneLock.SetSMSCommand.onCreate(Landroid/os/Bundle;)V",
          "target": "invokevirtual \u003c Application, Ljava/net/URL, openConnection()Ljava/net/URLConnection; \u003e@22",
          "type": "activity",
          "component": "com.FourCobblers.Free.PhoneLock.SetSMSCommand",
          "constraintsFile": "constraints17_0.py",
          "variables": {},
          "stringMap": {},
          "strings": {}
        }
      ]
    },
    "18": {
      "startMethod": "com.FourCobblers.Free.PhoneLock.SetSMSCommand.onCreate(Landroid/os/Bundle;)V",
      "targetMethod": "android.net.ConnectivityManager.getActiveNetworkInfo()Landroid/net/NetworkInfo;",
      "eventChain": [
        {
          "start": "com.FourCobblers.Free.PhoneLock.SetSMSCommand.onCreate(Landroid/os/Bundle;)V",
          "target": "invokevirtual \u003c Application, Landroid/net/ConnectivityManager, getActiveNetworkInfo()Landroid/net/NetworkInfo; \u003e@17",
          "type": "activity",
          "component": "com.FourCobblers.Free.PhoneLock.SetSMSCommand",
          "constraintsFile": "constraints18_0.py",
          "variables": {},
          "stringMap": {},
          "strings": {
            "IAAv11": "",
            "IAAv14": "",
            "IAAv9": "",
            "IAAv8": ""
          }
        }
      ]
    },
    "19": {
      "startMethod": "com.FourCobblers.Free.PhoneLock.SetSMSCommand.onCreate(Landroid/os/Bundle;)V",
      "targetMethod": "android.webkit.WebView.\u003cinit\u003e(Landroid/content/Context;)V",
      "eventChain": [
        {
          "start": "com.FourCobblers.Free.PhoneLock.SetSMSCommand.onCreate(Landroid/os/Bundle;)V",
          "target": "invokespecial \u003c Application, Landroid/webkit/WebView, \u003cinit\u003e(Landroid/content/Context;)V \u003e@62",
          "type": "activity",
          "component": "com.FourCobblers.Free.PhoneLock.SetSMSCommand",
          "constraintsFile": "constraints19_0.py",
          "variables": {},
          "stringMap": {},
          "strings": {}
        }
      ]
    },
    "20": {
      "startMethod": "com.FourCobblers.Free.PhoneLock.SetSMSCommand.onCreate(Landroid/os/Bundle;)V",
      "targetMethod": "java.net.URL.openConnection()Ljava/net/URLConnection;",
      "eventChain": [
        {
          "start": "com.FourCobblers.Free.PhoneLock.SetSMSCommand.onCreate(Landroid/os/Bundle;)V",
          "target": "invokevirtual \u003c Application, Ljava/net/URL, openConnection()Ljava/net/URLConnection; \u003e@23",
          "type": "activity",
          "component": "com.FourCobblers.Free.PhoneLock.SetSMSCommand",
          "constraintsFile": "constraints20_0.py",
          "variables": {},
          "stringMap": {},
          "strings": {}
        }
      ]
    },
    "21": {
      "startMethod": "com.FourCobblers.Free.PhoneLock.SetSMSCommand.onCreate(Landroid/os/Bundle;)V",
      "targetMethod": "android.telephony.TelephonyManager.getLine1Number()Ljava/lang/String;",
      "eventChain": [
        {
          "start": "com.FourCobblers.Free.PhoneLock.SetSMSCommand.onCreate(Landroid/os/Bundle;)V",
          "target": "invokevirtual \u003c Application, Landroid/telephony/TelephonyManager, getLine1Number()Ljava/lang/String; \u003e@103",
          "type": "activity",
          "component": "com.FourCobblers.Free.PhoneLock.SetSMSCommand"
        }
      ]
    },
    "22": {
      "startMethod": "com.FourCobblers.Free.PhoneLock.SetSMSCommand.onCreate(Landroid/os/Bundle;)V",
      "targetMethod": "android.webkit.WebView.\u003cinit\u003e(Landroid/content/Context;)V",
      "eventChain": [
        {
          "start": "com.FourCobblers.Free.PhoneLock.SetSMSCommand.onCreate(Landroid/os/Bundle;)V",
          "target": "invokespecial \u003c Application, Landroid/webkit/WebView, \u003cinit\u003e(Landroid/content/Context;)V \u003e@3",
          "type": "activity",
          "component": "com.FourCobblers.Free.PhoneLock.SetSMSCommand"
        }
      ]
    },
    "23": {
      "startMethod": "com.FourCobblers.Free.PhoneLock.SetSMSCommand.onCreate(Landroid/os/Bundle;)V",
      "targetMethod": "java.net.HttpURLConnection.connect()V",
      "eventChain": [
        {
          "start": "com.FourCobblers.Free.PhoneLock.SetSMSCommand.onCreate(Landroid/os/Bundle;)V",
          "target": "invokevirtual \u003c Application, Ljava/net/HttpURLConnection, connect()V \u003e@59",
          "type": "activity",
          "component": "com.FourCobblers.Free.PhoneLock.SetSMSCommand",
          "constraintsFile": "constraints23_0.py",
          "variables": {},
          "stringMap": {},
          "strings": {}
        }
      ]
    },
    "24": {
      "startMethod": "com.FourCobblers.Free.PhoneLock.SetSMSCommand.onCreate(Landroid/os/Bundle;)V",
      "targetMethod": "java.net.HttpURLConnection.getInputStream()Ljava/io/InputStream;",
      "eventChain": [
        {
          "start": "com.FourCobblers.Free.PhoneLock.SetSMSCommand.onCreate(Landroid/os/Bundle;)V",
          "target": "invokevirtual \u003c Application, Ljava/net/HttpURLConnection, getInputStream()Ljava/io/InputStream; \u003e@202",
          "type": "activity",
          "component": "com.FourCobblers.Free.PhoneLock.SetSMSCommand",
          "constraintsFile": "constraints24_0.py",
          "variables": {},
          "stringMap": {},
          "strings": {}
        }
      ]
    },
    "25": {
      "startMethod": "com.FourCobblers.Free.PhoneLock.SMSCommandHandle.onReceive(Landroid/content/Context;Landroid/content/Intent;)V",
      "targetMethod": "android.location.LocationManager.requestLocationUpdates(Ljava/lang/String;JFLandroid/location/LocationListener;)V",
      "eventChain": [
        {
          "start": "com.FourCobblers.Free.PhoneLock.SMSCommandHandle.onReceive(Landroid/content/Context;Landroid/content/Intent;)V",
          "target": "PC@59",
          "type": "sms",
          "constraintsFile": "constraints25_0.py",
          "variables": {
            "SharedPreferences\u003cWIPE_PHONE_SMS_PREFERENCE\u003e": "IAAv4",
            "SharedPreferences\u003cGET_LOCATION_SMS_PREFERENCE\u003e": "IAAv6",
            "\u003cChainedInput2\u003e.getExtras()": "IAAv0",
            "\u003cChainedInput1\u003e.a()": "IAAv8",
            "SharedPreferences\u003cWIPE_SDCARD_SMS_PREFERENCE\u003e": "IAAv2",
            "\u003cChainedInput2\u003e.getExtras().get().\u003cSmsMessage\u003e.getMessageBody()": "IAAv1",
            "\u003cChainedInput2\u003e.getExtras().get().\u003cSmsMessage\u003e.getOriginatingAddress()": "IAAv10"
          },
          "stringMap": {},
          "strings": {
            "IAAv4": "",
            "IAAv2": "",
            "IAAv1": "",
            "IAAv10": "",
            "IAAv6": ""
          }
        },
        {
          "start": "com.FourCobblers.Free.PhoneLock.SMSCommandHandle.onReceive(Landroid/content/Context;Landroid/content/Intent;)V",
          "target": "PC@11",
          "type": "sms",
          "constraintsFile": "constraints25_1.py",
          "variables": {
            "SharedPreferences\u003cGET_LOCATION_SMS_PREFERENCE\u003e": "IAAv6",
            "\u003cChainedInput2\u003e.getExtras()": "IAAv0",
            "\u003cChainedInput1\u003e.a()": "IAAv8",
            "SharedPreferences\u003cWIPE_SDCARD_SMS_PREFERENCE\u003e": "IAAv2",
            "\u003cChainedInput2\u003e.getExtras().get().\u003cSmsMessage\u003e.getMessageBody()": "IAAv1",
            "\u003cChainedInput2\u003e.getExtras().get().\u003cSmsMessage\u003e.getOriginatingAddress()": "IAAv10",
            "SharedPreferences\u003cWIPE_PHONE_SMS_PREFERENCE\u003e": "IAAv4",
            "\u003cChainedInput1\u003e.getSystemService().isProviderEnabled()": "IAAv12"
          },
          "stringMap": {},
          "strings": {
            "IAAv4": "",
            "IAAv2": "",
            "IAAv1": "",
            "IAAv10": "",
            "IAAv6": ""
          }
        },
        {
          "start": "com.FourCobblers.Free.PhoneLock.SMSCommandHandle.onReceive(Landroid/content/Context;Landroid/content/Intent;)V",
          "target": "invokevirtual \u003c Application, Landroid/location/LocationManager, requestLocationUpdates(Ljava/lang/String;JFLandroid/location/LocationListener;)V \u003e@307",
          "type": "sms",
          "constraintsFile": "constraints25_2.py",
          "variables": {
            "SharedPreferences\u003cGET_LOCATION_SMS_PREFERENCE\u003e": "IAAv6",
            "\u003cChainedInput2\u003e.getExtras()": "IAAv0",
            "\u003cChainedInput1\u003e.a()": "IAAv8",
            "SharedPreferences\u003cWIPE_SDCARD_SMS_PREFERENCE\u003e": "IAAv2",
            "\u003cChainedInput2\u003e.getExtras().get().\u003cSmsMessage\u003e.getMessageBody()": "IAAv1",
            "\u003cChainedInput2\u003e.getExtras().get().\u003cSmsMessage\u003e.getOriginatingAddress()": "IAAv10",
            "SharedPreferences\u003cWIPE_PHONE_SMS_PREFERENCE\u003e": "IAAv4",
            "\u003cChainedInput1\u003e.getSystemService().isProviderEnabled()": "IAAv13"
          },
          "stringMap": {},
          "strings": {
            "IAAv4": "",
            "IAAv2": "",
            "IAAv1": "",
            "IAAv10": "",
            "IAAv6": ""
          }
        }
      ]
    },
    "26": {
      "startMethod": "com.FourCobblers.Free.PhoneLock.SMSCommandHandle.onReceive(Landroid/content/Context;Landroid/content/Intent;)V",
      "targetMethod": "android.location.LocationManager.isProviderEnabled(Ljava/lang/String;)Z",
      "eventChain": [
        {
          "start": "com.FourCobblers.Free.PhoneLock.SMSCommandHandle.onReceive(Landroid/content/Context;Landroid/content/Intent;)V",
          "target": "PC@11",
          "type": "sms",
          "constraintsFile": "constraints26_0.py",
          "variables": {
            "SharedPreferences\u003cWIPE_PHONE_SMS_PREFERENCE\u003e": "IAAv4",
            "SharedPreferences\u003cGET_LOCATION_SMS_PREFERENCE\u003e": "IAAv6",
            "\u003cChainedInput2\u003e.getExtras()": "IAAv0",
            "\u003cChainedInput1\u003e.a()": "IAAv8",
            "SharedPreferences\u003cWIPE_SDCARD_SMS_PREFERENCE\u003e": "IAAv2",
            "\u003cChainedInput2\u003e.getExtras().get().\u003cSmsMessage\u003e.getMessageBody()": "IAAv1",
            "\u003cChainedInput2\u003e.getExtras().get().\u003cSmsMessage\u003e.getOriginatingAddress()": "IAAv10"
          },
          "stringMap": {},
          "strings": {
            "IAAv4": "",
            "IAAv2": "",
            "IAAv1": "",
            "IAAv10": "",
            "IAAv6": ""
          }
        },
        {
          "start": "com.FourCobblers.Free.PhoneLock.SMSCommandHandle.onReceive(Landroid/content/Context;Landroid/content/Intent;)V",
          "target": "invokevirtual \u003c Application, Landroid/location/LocationManager, isProviderEnabled(Ljava/lang/String;)Z \u003e@96",
          "type": "sms",
          "constraintsFile": "constraints26_1.py",
          "variables": {
            "SharedPreferences\u003cWIPE_PHONE_SMS_PREFERENCE\u003e": "IAAv4",
            "SharedPreferences\u003cGET_LOCATION_SMS_PREFERENCE\u003e": "IAAv6",
            "\u003cChainedInput2\u003e.getExtras()": "IAAv0",
            "\u003cChainedInput1\u003e.a()": "IAAv8",
            "SharedPreferences\u003cWIPE_SDCARD_SMS_PREFERENCE\u003e": "IAAv2",
            "\u003cChainedInput2\u003e.getExtras().get().\u003cSmsMessage\u003e.getMessageBody()": "IAAv1",
            "\u003cChainedInput2\u003e.getExtras().get().\u003cSmsMessage\u003e.getOriginatingAddress()": "IAAv10"
          },
          "stringMap": {},
          "strings": {
            "IAAv4": "",
            "IAAv2": "",
            "IAAv1": "",
            "IAAv10": "",
            "IAAv6": ""
          }
        }
      ]
    },
    "27": {
      "startMethod": "com.FourCobblers.Free.PhoneLock.SMSCommandHandle.onReceive(Landroid/content/Context;Landroid/content/Intent;)V",
      "targetMethod": "android.location.LocationManager.getLastKnownLocation(Ljava/lang/String;)Landroid/location/Location;",
      "eventChain": [
        {
          "start": "com.FourCobblers.Free.PhoneLock.SMSCommandHandle.onReceive(Landroid/content/Context;Landroid/content/Intent;)V",
          "target": "PC@11",
          "type": "sms",
          "constraintsFile": "constraints27_0.py",
          "variables": {
            "SharedPreferences\u003cGET_LOCATION_SMS_PREFERENCE\u003e": "IAAv6",
            "\u003cChainedInput2\u003e.getExtras()": "IAAv0",
            "\u003cChainedInput1\u003e.a()": "IAAv8",
            "SharedPreferences\u003cWIPE_SDCARD_SMS_PREFERENCE\u003e": "IAAv2",
            "\u003cChainedInput2\u003e.getExtras().get().\u003cSmsMessage\u003e.getMessageBody()": "IAAv1",
            "\u003cChainedInput2\u003e.getExtras().get().\u003cSmsMessage\u003e.getOriginatingAddress()": "IAAv10",
            "SharedPreferences\u003cWIPE_PHONE_SMS_PREFERENCE\u003e": "IAAv4",
            "\u003cChainedInput1\u003e.getSystemService().isProviderEnabled()": "IAAv12"
          },
          "stringMap": {},
          "strings": {
            "IAAv4": "",
            "IAAv2": "",
            "IAAv1": "",
            "IAAv10": "",
            "IAAv6": ""
          }
        },
        {
          "start": "com.FourCobblers.Free.PhoneLock.SMSCommandHandle.onReceive(Landroid/content/Context;Landroid/content/Intent;)V",
          "target": "invokevirtual \u003c Application, Landroid/location/LocationManager, getLastKnownLocation(Ljava/lang/String;)Landroid/location/Location; \u003e@164",
          "type": "sms",
          "constraintsFile": "constraints27_1.py",
          "variables": {
            "SharedPreferences\u003cGET_LOCATION_SMS_PREFERENCE\u003e": "IAAv6",
            "\u003cChainedInput2\u003e.getExtras()": "IAAv0",
            "\u003cChainedInput1\u003e.a()": "IAAv8",
            "SharedPreferences\u003cWIPE_SDCARD_SMS_PREFERENCE\u003e": "IAAv2",
            "\u003cChainedInput2\u003e.getExtras().get().\u003cSmsMessage\u003e.getMessageBody()": "IAAv1",
            "\u003cChainedInput2\u003e.getExtras().get().\u003cSmsMessage\u003e.getOriginatingAddress()": "IAAv10",
            "SharedPreferences\u003cWIPE_PHONE_SMS_PREFERENCE\u003e": "IAAv4",
            "\u003cChainedInput1\u003e.getSystemService().isProviderEnabled()": "IAAv13"
          },
          "stringMap": {},
          "strings": {
            "IAAv4": "",
            "IAAv2": "",
            "IAAv1": "",
            "IAAv10": "",
            "IAAv6": ""
          }
        }
      ]
    },
    "28": {
      "startMethod": "com.FourCobblers.Free.PhoneLock.SMSCommandHandle.onReceive(Landroid/content/Context;Landroid/content/Intent;)V",
      "targetMethod": "android.telephony.TelephonyManager.getLine1Number()Ljava/lang/String;",
      "eventChain": [
        {
          "start": "com.FourCobblers.Free.PhoneLock.SMSCommandHandle.onReceive(Landroid/content/Context;Landroid/content/Intent;)V",
          "target": "invokevirtual \u003c Application, Landroid/telephony/TelephonyManager, getLine1Number()Ljava/lang/String; \u003e@54",
          "type": "sms"
        }
      ]
    },
    "29": {
      "startMethod": "com.FourCobblers.Free.PhoneLock.SMSCommandHandle.onReceive(Landroid/content/Context;Landroid/content/Intent;)V",
      "targetMethod": "android.telephony.SmsManager.sendMultipartTextMessage(Ljava/lang/String;Ljava/lang/String;Ljava/util/ArrayList;Ljava/util/ArrayList;Ljava/util/ArrayList;)V",
      "eventChain": [
        {
          "start": "com.FourCobblers.Free.PhoneLock.SMSCommandHandle.onReceive(Landroid/content/Context;Landroid/content/Intent;)V",
          "target": "invokevirtual \u003c Application, Landroid/telephony/SmsManager, sendMultipartTextMessage(Ljava/lang/String;Ljava/lang/String;Ljava/util/ArrayList;Ljava/util/ArrayList;Ljava/util/ArrayList;)V \u003e@140",
          "type": "sms",
          "constraintsFile": "constraints29_0.py",
          "variables": {
            "SharedPreferences\u003cWIPE_PHONE_SMS_PREFERENCE\u003e": "IAAv4",
            "SharedPreferences\u003cGET_LOCATION_SMS_PREFERENCE\u003e": "IAAv6",
            "\u003cInput2\u003e.getExtras()": "IAAv0",
            "\u003cInput1\u003e.a()": "IAAv8",
            "SharedPreferences\u003cWIPE_SDCARD_SMS_PREFERENCE\u003e": "IAAv2",
            "\u003cInput2\u003e.getExtras().get().\u003cSmsMessage\u003e.getMessageBody()": "IAAv1"
          },
          "stringMap": {},
          "strings": {
            "IAAv4": "",
            "IAAv2": "",
            "IAAv1": "",
            "IAAv6": ""
          }
        }
      ]
    },
    "30": {
      "startMethod": "com.FourCobblers.Free.PhoneLock.SMSCommandHandle.onReceive(Landroid/content/Context;Landroid/content/Intent;)V",
      "targetMethod": "android.telephony.TelephonyManager.getDeviceId()Ljava/lang/String;",
      "eventChain": [
        {
          "start": "com.FourCobblers.Free.PhoneLock.SMSCommandHandle.onReceive(Landroid/content/Context;Landroid/content/Intent;)V",
          "target": "invokevirtual \u003c Application, Landroid/telephony/TelephonyManager, getDeviceId()Ljava/lang/String; \u003e@48",
          "type": "sms"
        }
      ]
    },
    "31": {
      "startMethod": "com.FourCobblers.Free.PhoneLock.SMSCommandHandle.onReceive(Landroid/content/Context;Landroid/content/Intent;)V",
      "targetMethod": "android.location.LocationManager.requestLocationUpdates(Ljava/lang/String;JFLandroid/location/LocationListener;)V",
      "eventChain": [
        {
          "start": "com.FourCobblers.Free.PhoneLock.SMSCommandHandle.onReceive(Landroid/content/Context;Landroid/content/Intent;)V",
          "target": "PC@45",
          "type": "sms",
          "constraintsFile": "constraints31_0.py",
          "variables": {
            "SharedPreferences\u003cWIPE_PHONE_SMS_PREFERENCE\u003e": "IAAv4",
            "SharedPreferences\u003cGET_LOCATION_SMS_PREFERENCE\u003e": "IAAv6",
            "\u003cChainedInput2\u003e.getExtras()": "IAAv0",
            "\u003cChainedInput1\u003e.a()": "IAAv8",
            "SharedPreferences\u003cWIPE_SDCARD_SMS_PREFERENCE\u003e": "IAAv2",
            "\u003cChainedInput2\u003e.getExtras().get().\u003cSmsMessage\u003e.getMessageBody()": "IAAv1",
            "\u003cChainedInput2\u003e.getExtras().get().\u003cSmsMessage\u003e.getOriginatingAddress()": "IAAv10"
          },
          "stringMap": {},
          "strings": {
            "IAAv4": "",
            "IAAv2": "",
            "IAAv1": "",
            "IAAv10": "",
            "IAAv6": ""
          }
        },
        {
          "start": "com.FourCobblers.Free.PhoneLock.SMSCommandHandle.onReceive(Landroid/content/Context;Landroid/content/Intent;)V",
          "target": "PC@11",
          "type": "sms",
          "constraintsFile": "constraints31_1.py",
          "variables": {
            "SharedPreferences\u003cGET_LOCATION_SMS_PREFERENCE\u003e": "IAAv6",
            "\u003cChainedInput2\u003e.getExtras()": "IAAv0",
            "\u003cChainedInput1\u003e.a()": "IAAv8",
            "SharedPreferences\u003cWIPE_SDCARD_SMS_PREFERENCE\u003e": "IAAv2",
            "\u003cChainedInput2\u003e.getExtras().get().\u003cSmsMessage\u003e.getMessageBody()": "IAAv1",
            "\u003cChainedInput2\u003e.getExtras().get().\u003cSmsMessage\u003e.getOriginatingAddress()": "IAAv10",
            "SharedPreferences\u003cWIPE_PHONE_SMS_PREFERENCE\u003e": "IAAv4",
            "\u003cChainedInput1\u003e.getSystemService().isProviderEnabled()": "IAAv12"
          },
          "stringMap": {},
          "strings": {
            "IAAv4": "",
            "IAAv2": "",
            "IAAv1": "",
            "IAAv10": "",
            "IAAv6": ""
          }
        },
        {
          "start": "com.FourCobblers.Free.PhoneLock.SMSCommandHandle.onReceive(Landroid/content/Context;Landroid/content/Intent;)V",
          "target": "invokevirtual \u003c Application, Landroid/location/LocationManager, requestLocationUpdates(Ljava/lang/String;JFLandroid/location/LocationListener;)V \u003e@271",
          "type": "sms",
          "constraintsFile": "constraints31_2.py",
          "variables": {
            "SharedPreferences\u003cGET_LOCATION_SMS_PREFERENCE\u003e": "IAAv6",
            "\u003cChainedInput2\u003e.getExtras()": "IAAv0",
            "\u003cChainedInput1\u003e.a()": "IAAv8",
            "SharedPreferences\u003cWIPE_SDCARD_SMS_PREFERENCE\u003e": "IAAv2",
            "\u003cChainedInput2\u003e.getExtras().get().\u003cSmsMessage\u003e.getMessageBody()": "IAAv1",
            "\u003cChainedInput2\u003e.getExtras().get().\u003cSmsMessage\u003e.getOriginatingAddress()": "IAAv10",
            "SharedPreferences\u003cWIPE_PHONE_SMS_PREFERENCE\u003e": "IAAv4",
            "\u003cChainedInput1\u003e.getSystemService().isProviderEnabled()": "IAAv13"
          },
          "stringMap": {},
          "strings": {
            "IAAv4": "",
            "IAAv2": "",
            "IAAv1": "",
            "IAAv10": "",
            "IAAv6": ""
          }
        }
      ]
    },
    "32": {
      "startMethod": "com.FourCobblers.Free.PhoneLock.SMSCommandHandle.onReceive(Landroid/content/Context;Landroid/content/Intent;)V",
      "targetMethod": "android.location.LocationManager.isProviderEnabled(Ljava/lang/String;)Z",
      "eventChain": [
        {
          "start": "com.FourCobblers.Free.PhoneLock.SMSCommandHandle.onReceive(Landroid/content/Context;Landroid/content/Intent;)V",
          "target": "PC@11",
          "type": "sms",
          "constraintsFile": "constraints32_0.py",
          "variables": {
            "SharedPreferences\u003cWIPE_PHONE_SMS_PREFERENCE\u003e": "IAAv4",
            "SharedPreferences\u003cGET_LOCATION_SMS_PREFERENCE\u003e": "IAAv6",
            "\u003cChainedInput2\u003e.getExtras()": "IAAv0",
            "\u003cChainedInput1\u003e.a()": "IAAv8",
            "SharedPreferences\u003cWIPE_SDCARD_SMS_PREFERENCE\u003e": "IAAv2",
            "\u003cChainedInput2\u003e.getExtras().get().\u003cSmsMessage\u003e.getMessageBody()": "IAAv1",
            "\u003cChainedInput2\u003e.getExtras().get().\u003cSmsMessage\u003e.getOriginatingAddress()": "IAAv10"
          },
          "stringMap": {},
          "strings": {
            "IAAv4": "",
            "IAAv2": "",
            "IAAv1": "",
            "IAAv10": "",
            "IAAv6": ""
          }
        },
        {
          "start": "com.FourCobblers.Free.PhoneLock.SMSCommandHandle.onReceive(Landroid/content/Context;Landroid/content/Intent;)V",
          "target": "invokevirtual \u003c Application, Landroid/location/LocationManager, isProviderEnabled(Ljava/lang/String;)Z \u003e@54",
          "type": "sms",
          "constraintsFile": "constraints32_1.py",
          "variables": {
            "SharedPreferences\u003cWIPE_PHONE_SMS_PREFERENCE\u003e": "IAAv4",
            "SharedPreferences\u003cGET_LOCATION_SMS_PREFERENCE\u003e": "IAAv6",
            "\u003cChainedInput2\u003e.getExtras()": "IAAv0",
            "\u003cChainedInput1\u003e.a()": "IAAv8",
            "SharedPreferences\u003cWIPE_SDCARD_SMS_PREFERENCE\u003e": "IAAv2",
            "\u003cChainedInput2\u003e.getExtras().get().\u003cSmsMessage\u003e.getMessageBody()": "IAAv1",
            "\u003cChainedInput2\u003e.getExtras().get().\u003cSmsMessage\u003e.getOriginatingAddress()": "IAAv10"
          },
          "stringMap": {},
          "strings": {
            "IAAv4": "",
            "IAAv2": "",
            "IAAv1": "",
            "IAAv10": "",
            "IAAv6": ""
          }
        }
      ]
    },
    "33": {
      "startMethod": "com.FourCobblers.Free.PhoneLock.SMSCommandHandle.onReceive(Landroid/content/Context;Landroid/content/Intent;)V",
      "targetMethod": "android.location.LocationManager.isProviderEnabled(Ljava/lang/String;)Z",
      "eventChain": [
        {
          "start": "com.FourCobblers.Free.PhoneLock.SMSCommandHandle.onReceive(Landroid/content/Context;Landroid/content/Intent;)V",
          "target": "PC@11",
          "type": "sms",
          "constraintsFile": "constraints33_0.py",
          "variables": {
            "SharedPreferences\u003cWIPE_PHONE_SMS_PREFERENCE\u003e": "IAAv4",
            "SharedPreferences\u003cGET_LOCATION_SMS_PREFERENCE\u003e": "IAAv6",
            "\u003cChainedInput2\u003e.getExtras()": "IAAv0",
            "\u003cChainedInput1\u003e.a()": "IAAv8",
            "SharedPreferences\u003cWIPE_SDCARD_SMS_PREFERENCE\u003e": "IAAv2",
            "\u003cChainedInput2\u003e.getExtras().get().\u003cSmsMessage\u003e.getMessageBody()": "IAAv1",
            "\u003cChainedInput2\u003e.getExtras().get().\u003cSmsMessage\u003e.getOriginatingAddress()": "IAAv10"
          },
          "stringMap": {},
          "strings": {
            "IAAv4": "",
            "IAAv2": "",
            "IAAv1": "",
            "IAAv10": "",
            "IAAv6": ""
          }
        },
        {
          "start": "com.FourCobblers.Free.PhoneLock.SMSCommandHandle.onReceive(Landroid/content/Context;Landroid/content/Intent;)V",
          "target": "invokevirtual \u003c Application, Landroid/location/LocationManager, isProviderEnabled(Ljava/lang/String;)Z \u003e@75",
          "type": "sms",
          "constraintsFile": "constraints33_1.py",
          "variables": {
            "SharedPreferences\u003cWIPE_PHONE_SMS_PREFERENCE\u003e": "IAAv4",
            "SharedPreferences\u003cGET_LOCATION_SMS_PREFERENCE\u003e": "IAAv6",
            "\u003cChainedInput2\u003e.getExtras()": "IAAv0",
            "\u003cChainedInput1\u003e.a()": "IAAv8",
            "SharedPreferences\u003cWIPE_SDCARD_SMS_PREFERENCE\u003e": "IAAv2",
            "\u003cChainedInput2\u003e.getExtras().get().\u003cSmsMessage\u003e.getMessageBody()": "IAAv1",
            "\u003cChainedInput2\u003e.getExtras().get().\u003cSmsMessage\u003e.getOriginatingAddress()": "IAAv10"
          },
          "stringMap": {},
          "strings": {
            "IAAv4": "",
            "IAAv2": "",
            "IAAv1": "",
            "IAAv10": "",
            "IAAv6": ""
          }
        }
      ]
    },
    "34": {
      "startMethod": "com.FourCobblers.Free.PhoneLock.SMSCommandHandle.onReceive(Landroid/content/Context;Landroid/content/Intent;)V",
      "targetMethod": "android.location.LocationManager.getLastKnownLocation(Ljava/lang/String;)Landroid/location/Location;",
      "eventChain": [
        {
          "start": "com.FourCobblers.Free.PhoneLock.SMSCommandHandle.onReceive(Landroid/content/Context;Landroid/content/Intent;)V",
          "target": "PC@11",
          "type": "sms",
          "constraintsFile": "constraints34_0.py",
          "variables": {
            "SharedPreferences\u003cGET_LOCATION_SMS_PREFERENCE\u003e": "IAAv6",
            "\u003cChainedInput2\u003e.getExtras()": "IAAv0",
            "\u003cChainedInput1\u003e.a()": "IAAv8",
            "SharedPreferences\u003cWIPE_SDCARD_SMS_PREFERENCE\u003e": "IAAv2",
            "\u003cChainedInput2\u003e.getExtras().get().\u003cSmsMessage\u003e.getMessageBody()": "IAAv1",
            "\u003cChainedInput2\u003e.getExtras().get().\u003cSmsMessage\u003e.getOriginatingAddress()": "IAAv10",
            "SharedPreferences\u003cWIPE_PHONE_SMS_PREFERENCE\u003e": "IAAv4",
            "\u003cChainedInput1\u003e.getSystemService().isProviderEnabled()": "IAAv12"
          },
          "stringMap": {},
          "strings": {
            "IAAv4": "",
            "IAAv2": "",
            "IAAv1": "",
            "IAAv10": "",
            "IAAv6": ""
          }
        },
        {
          "start": "com.FourCobblers.Free.PhoneLock.SMSCommandHandle.onReceive(Landroid/content/Context;Landroid/content/Intent;)V",
          "target": "invokevirtual \u003c Application, Landroid/location/LocationManager, getLastKnownLocation(Ljava/lang/String;)Landroid/location/Location; \u003e@107",
          "type": "sms",
          "constraintsFile": "constraints34_1.py",
          "variables": {
            "SharedPreferences\u003cGET_LOCATION_SMS_PREFERENCE\u003e": "IAAv6",
            "\u003cChainedInput2\u003e.getExtras()": "IAAv0",
            "\u003cChainedInput1\u003e.a()": "IAAv8",
            "SharedPreferences\u003cWIPE_SDCARD_SMS_PREFERENCE\u003e": "IAAv2",
            "\u003cChainedInput2\u003e.getExtras().get().\u003cSmsMessage\u003e.getMessageBody()": "IAAv1",
            "\u003cChainedInput2\u003e.getExtras().get().\u003cSmsMessage\u003e.getOriginatingAddress()": "IAAv10",
            "SharedPreferences\u003cWIPE_PHONE_SMS_PREFERENCE\u003e": "IAAv4",
            "\u003cChainedInput1\u003e.getSystemService().isProviderEnabled()": "IAAv13"
          },
          "stringMap": {},
          "strings": {
            "IAAv4": "",
            "IAAv2": "",
            "IAAv1": "",
            "IAAv10": "",
            "IAAv6": ""
          }
        }
      ]
    },
    "35": {
      "startMethod": "com.FourCobblers.Free.PhoneLock.PhoneLock.onCreate(Landroid/os/Bundle;)V",
      "targetMethod": "java.net.HttpURLConnection.connect()V",
      "eventChain": [
        {
          "start": "com.FourCobblers.Free.PhoneLock.PhoneLock.onCreate(Landroid/os/Bundle;)V",
          "target": "invokevirtual \u003c Application, Ljava/net/HttpURLConnection, connect()V \u003e@59",
          "type": "activity",
          "component": "com.FourCobblers.Free.PhoneLock.PhoneLock",
          "constraintsFile": "constraints35_0.py",
          "variables": {},
          "stringMap": {},
          "strings": {}
        }
      ]
    },
    "36": {
      "startMethod": "com.FourCobblers.Free.PhoneLock.PhoneLock.onCreate(Landroid/os/Bundle;)V",
      "targetMethod": "android.net.ConnectivityManager.getActiveNetworkInfo()Landroid/net/NetworkInfo;",
      "eventChain": [
        {
          "start": "com.FourCobblers.Free.PhoneLock.PhoneLock.onCreate(Landroid/os/Bundle;)V",
          "target": "invokevirtual \u003c Application, Landroid/net/ConnectivityManager, getActiveNetworkInfo()Landroid/net/NetworkInfo; \u003e@17",
          "type": "activity",
          "component": "com.FourCobblers.Free.PhoneLock.PhoneLock",
          "constraintsFile": "constraints36_0.py",
          "variables": {},
          "stringMap": {},
          "strings": {
            "IAAv11": "",
            "IAAv14": "",
            "IAAv9": "",
            "IAAv8": ""
          }
        }
      ]
    },
    "37": {
      "startMethod": "com.FourCobblers.Free.PhoneLock.PhoneLock.onCreate(Landroid/os/Bundle;)V",
      "targetMethod": "java.net.URL.openConnection()Ljava/net/URLConnection;",
      "eventChain": [
        {
          "start": "com.FourCobblers.Free.PhoneLock.PhoneLock.onCreate(Landroid/os/Bundle;)V",
          "target": "invokevirtual \u003c Application, Ljava/net/URL, openConnection()Ljava/net/URLConnection; \u003e@22",
          "type": "activity",
          "component": "com.FourCobblers.Free.PhoneLock.PhoneLock",
          "constraintsFile": "constraints37_0.py",
          "variables": {},
          "stringMap": {},
          "strings": {}
        }
      ]
    },
    "38": {
      "startMethod": "com.FourCobblers.Free.PhoneLock.PhoneLock.onCreate(Landroid/os/Bundle;)V",
      "targetMethod": "android.webkit.WebView.\u003cinit\u003e(Landroid/content/Context;)V",
      "eventChain": [
        {
          "start": "com.FourCobblers.Free.PhoneLock.PhoneLock.onCreate(Landroid/os/Bundle;)V",
          "target": "invokespecial \u003c Application, Landroid/webkit/WebView, \u003cinit\u003e(Landroid/content/Context;)V \u003e@62",
          "type": "activity",
          "component": "com.FourCobblers.Free.PhoneLock.PhoneLock",
          "constraintsFile": "constraints38_0.py",
          "variables": {},
          "stringMap": {},
          "strings": {}
        }
      ]
    },
    "39": {
      "startMethod": "com.FourCobblers.Free.PhoneLock.PhoneLock.onCreate(Landroid/os/Bundle;)V",
      "targetMethod": "java.net.URL.openConnection()Ljava/net/URLConnection;",
      "eventChain": [
        {
          "start": "com.FourCobblers.Free.PhoneLock.PhoneLock.onCreate(Landroid/os/Bundle;)V",
          "target": "invokevirtual \u003c Application, Ljava/net/URL, openConnection()Ljava/net/URLConnection; \u003e@23",
          "type": "activity",
          "component": "com.FourCobblers.Free.PhoneLock.PhoneLock",
          "constraintsFile": "constraints39_0.py",
          "variables": {},
          "stringMap": {},
          "strings": {}
        }
      ]
    },
    "40": {
      "startMethod": "com.FourCobblers.Free.PhoneLock.PhoneLock.onCreate(Landroid/os/Bundle;)V",
      "targetMethod": "java.net.HttpURLConnection.getInputStream()Ljava/io/InputStream;",
      "eventChain": [
        {
          "start": "com.FourCobblers.Free.PhoneLock.PhoneLock.onCreate(Landroid/os/Bundle;)V",
          "target": "invokevirtual \u003c Application, Ljava/net/HttpURLConnection, getInputStream()Ljava/io/InputStream; \u003e@202",
          "type": "activity",
          "component": "com.FourCobblers.Free.PhoneLock.PhoneLock",
          "constraintsFile": "constraints40_0.py",
          "variables": {},
          "stringMap": {},
          "strings": {}
        }
      ]
    },
    "41": {
      "startMethod": "com.FourCobblers.Free.PhoneLock.PhoneLock.onCreate(Landroid/os/Bundle;)V",
      "targetMethod": "android.webkit.WebView.\u003cinit\u003e(Landroid/content/Context;)V",
      "eventChain": [
        {
          "start": "com.FourCobblers.Free.PhoneLock.PhoneLock.onCreate(Landroid/os/Bundle;)V",
          "target": "invokespecial \u003c Application, Landroid/webkit/WebView, \u003cinit\u003e(Landroid/content/Context;)V \u003e@3",
          "type": "activity",
          "component": "com.FourCobblers.Free.PhoneLock.PhoneLock"
        }
      ]
    },
    "42": {
      "startMethod": "u.shouldOverrideUrlLoading(Landroid/webkit/WebView;Ljava/lang/String;)Z",
      "targetMethod": "android.widget.VideoView.stopPlayback()V",
      "eventChain": [
        {
          "start": "com.FourCobblers.Free.PhoneLock.DeviceAdminHandle$PhoneLockSetting.onCreate(Landroid/os/Bundle;)V",
          "target": "invokespecial \u003c Application, Landroid/webkit/WebViewClient, \u003cinit\u003e()V \u003e@5",
          "type": "activity",
          "component": "com.FourCobblers.Free.PhoneLock.DeviceAdminHandle$PhoneLockSetting"
        },
        {
          "start": "u.shouldOverrideUrlLoading(Landroid/webkit/WebView;Ljava/lang/String;)Z",
          "target": "invokevirtual \u003c Application, Landroid/widget/VideoView, stopPlayback()V \u003e@260",
          "type": "",
          "constraintsFile": "constraints42_0.py",
          "variables": {
            "\u003cInput2\u003e.a().a": "IAAv1",
            "\u003cInput1\u003e.b().a()": "IAAv12",
            "\u003cInput2\u003e.parse().b()": "IAAv7",
            "\u003cInput2\u003e.parse().a()": "IAAv0",
            "\u003cInput2\u003e.parse().getHost()": "IAAv3",
            "\u003cInput2\u003e.a().a.get()": "IAAv8",
            "\u003cInput2\u003e.a().b.get()": "IAAv9",
            "\u003cInput2\u003e.parse().a().get()": "IAAv11",
            "\u003cInput1\u003e.b()": "IAAv10",
            "\u003cInput2\u003e.parse().c()": "IAAv2"
          },
          "stringMap": {
            "7000": "launch",
            "7001": "closecanvas",
            "7002": "log",
            "7003": "load",
            "7004": "play",
            "7005": "pause",
            "7006": "stop"
          },
          "strings": {
            "IAAv3": ""
          }
        }
      ]
    },
    "43": {
      "startMethod": "u.shouldOverrideUrlLoading(Landroid/webkit/WebView;Ljava/lang/String;)Z",
      "targetMethod": "java.net.HttpURLConnection.getInputStream()Ljava/io/InputStream;",
      "eventChain": [
        {
          "start": "com.FourCobblers.Free.PhoneLock.DeviceAdminHandle$PhoneLockSetting.onCreate(Landroid/os/Bundle;)V",
          "target": "invokespecial \u003c Application, Landroid/webkit/WebViewClient, \u003cinit\u003e()V \u003e@5",
          "type": "activity",
          "component": "com.FourCobblers.Free.PhoneLock.DeviceAdminHandle$PhoneLockSetting"
        },
        {
          "start": "u.shouldOverrideUrlLoading(Landroid/webkit/WebView;Ljava/lang/String;)Z",
          "target": "invokevirtual \u003c Application, Ljava/net/HttpURLConnection, getInputStream()Ljava/io/InputStream; \u003e@202",
          "type": "",
          "constraintsFile": "constraints43_0.py",
          "variables": {
            "\u003cChainedInput2\u003e.a().a.get()": "IAAv8",
            "\u003cChainedInput2\u003e.parse().b()": "IAAv7",
            "\u003cChainedInput2\u003e.parse().a()": "IAAv0",
            "\u003cChainedInput2\u003e.parse().getHost()": "IAAv3",
            "\u003cChainedInput2\u003e.a().b.get()": "IAAv9",
            "\u003cChainedInput2\u003e.a().a": "IAAv1",
            "\u003cChainedInput2\u003e.parse().c()": "IAAv2"
          },
          "stringMap": {
            "7000": "launch",
            "7001": "closecanvas",
            "7002": "log"
          },
          "strings": {
            "IAAv3": ""
          }
        }
      ]
    },
    "44": {
      "startMethod": "u.shouldOverrideUrlLoading(Landroid/webkit/WebView;Ljava/lang/String;)Z",
      "targetMethod": "android.widget.VideoView.start()V",
      "eventChain": [
        {
          "start": "com.FourCobblers.Free.PhoneLock.DeviceAdminHandle$PhoneLockSetting.onCreate(Landroid/os/Bundle;)V",
          "target": "invokespecial \u003c Application, Landroid/webkit/WebViewClient, \u003cinit\u003e()V \u003e@5",
          "type": "activity",
          "component": "com.FourCobblers.Free.PhoneLock.DeviceAdminHandle$PhoneLockSetting"
        },
        {
          "start": "u.shouldOverrideUrlLoading(Landroid/webkit/WebView;Ljava/lang/String;)Z",
          "target": "invokevirtual \u003c Application, Landroid/widget/VideoView, start()V \u003e@210",
          "type": "",
          "constraintsFile": "constraints44_0.py",
          "variables": {
            "\u003cInput2\u003e.a().a": "IAAv1",
            "\u003cInput1\u003e.b().a()": "IAAv12",
            "\u003cInput2\u003e.parse().b()": "IAAv7",
            "\u003cInput2\u003e.parse().a()": "IAAv0",
            "\u003cInput2\u003e.parse().getHost()": "IAAv3",
            "\u003cInput2\u003e.a().a.get()": "IAAv8",
            "\u003cInput2\u003e.a().b.get()": "IAAv9",
            "\u003cInput2\u003e.parse().a().get()": "IAAv11",
            "\u003cInput1\u003e.b()": "IAAv10",
            "\u003cInput2\u003e.parse().c()": "IAAv2"
          },
          "stringMap": {
            "7000": "launch",
            "7001": "closecanvas",
            "7002": "log",
            "7003": "load",
            "7004": "play"
          },
          "strings": {
            "IAAv3": ""
          }
        }
      ]
    },
    "45": {
      "startMethod": "u.shouldOverrideUrlLoading(Landroid/webkit/WebView;Ljava/lang/String;)Z",
      "targetMethod": "android.widget.VideoView.setVideoPath(Ljava/lang/String;)V",
      "eventChain": [
        {
          "start": "com.FourCobblers.Free.PhoneLock.DeviceAdminHandle$PhoneLockSetting.onCreate(Landroid/os/Bundle;)V",
          "target": "invokespecial \u003c Application, Landroid/webkit/WebViewClient, \u003cinit\u003e()V \u003e@5",
          "type": "activity",
          "component": "com.FourCobblers.Free.PhoneLock.DeviceAdminHandle$PhoneLockSetting"
        },
        {
          "start": "u.shouldOverrideUrlLoading(Landroid/webkit/WebView;Ljava/lang/String;)Z",
          "target": "invokevirtual \u003c Application, Landroid/widget/VideoView, setVideoPath(Ljava/lang/String;)V \u003e@147",
          "type": "",
          "constraintsFile": "constraints45_0.py",
          "variables": {
            "\u003cChainedInput2\u003e.a().a.get()": "IAAv8",
            "\u003cChainedInput2\u003e.parse().b()": "IAAv7",
            "\u003cChainedInput2\u003e.parse().a()": "IAAv0",
            "\u003cChainedInput2\u003e.parse().getHost()": "IAAv3",
            "\u003cChainedInput2\u003e.parse().a().get()": "IAAv11",
            "\u003cChainedInput2\u003e.a().b.get()": "IAAv9",
            "\u003cChainedInput1\u003e.b()": "IAAv10",
            "\u003cChainedInput2\u003e.a().a": "IAAv1",
            "\u003cChainedInput2\u003e.parse().c()": "IAAv2"
          },
          "stringMap": {
            "7000": "launch",
            "7001": "closecanvas",
            "7002": "log",
            "7003": "load"
          },
          "strings": {
            "IAAv3": ""
          }
        }
      ]
    },
    "46": {
      "startMethod": "u.shouldOverrideUrlLoading(Landroid/webkit/WebView;Ljava/lang/String;)Z",
      "targetMethod": "android.widget.VideoView.start()V",
      "eventChain": [
        {
          "start": "com.FourCobblers.Free.PhoneLock.DeviceAdminHandle$PhoneLockSetting.onCreate(Landroid/os/Bundle;)V",
          "target": "invokespecial \u003c Application, Landroid/webkit/WebViewClient, \u003cinit\u003e()V \u003e@5",
          "type": "activity",
          "component": "com.FourCobblers.Free.PhoneLock.DeviceAdminHandle$PhoneLockSetting"
        },
        {
          "start": "u.shouldOverrideUrlLoading(Landroid/webkit/WebView;Ljava/lang/String;)Z",
          "target": "invokevirtual \u003c Application, Landroid/widget/VideoView, start()V \u003e@330",
          "type": "",
          "constraintsFile": "constraints46_0.py",
          "variables": {
            "\u003cInput2\u003e.a().a": "IAAv1",
            "\u003cInput1\u003e.b().a()": "IAAv12",
            "\u003cInput2\u003e.parse().b()": "IAAv7",
            "\u003cInput2\u003e.parse().a()": "IAAv0",
            "\u003cInput2\u003e.parse().getHost()": "IAAv3",
            "\u003cInput2\u003e.a().a.get()": "IAAv8",
            "\u003cInput2\u003e.a().b.get()": "IAAv9",
            "\u003cInput2\u003e.parse().a().get()": "IAAv11",
            "\u003cInput1\u003e.b()": "IAAv10",
            "\u003cInput2\u003e.parse().c()": "IAAv2"
          },
          "stringMap": {
            "7000": "launch",
            "7001": "closecanvas",
            "7002": "log",
            "7003": "load",
            "7004": "play",
            "7005": "pause",
            "7006": "stop",
            "7007": "remove",
            "7008": "replay"
          },
          "strings": {
            "IAAv3": ""
          }
        }
      ]
    },
    "47": {
      "startMethod": "u.shouldOverrideUrlLoading(Landroid/webkit/WebView;Ljava/lang/String;)Z",
      "targetMethod": "java.net.URL.openConnection()Ljava/net/URLConnection;",
      "eventChain": [
        {
          "start": "com.FourCobblers.Free.PhoneLock.DeviceAdminHandle$PhoneLockSetting.onCreate(Landroid/os/Bundle;)V",
          "target": "invokespecial \u003c Application, Landroid/webkit/WebViewClient, \u003cinit\u003e()V \u003e@5",
          "type": "activity",
          "component": "com.FourCobblers.Free.PhoneLock.DeviceAdminHandle$PhoneLockSetting"
        },
        {
          "start": "u.shouldOverrideUrlLoading(Landroid/webkit/WebView;Ljava/lang/String;)Z",
          "target": "invokevirtual \u003c Application, Ljava/net/URL, openConnection()Ljava/net/URLConnection; \u003e@22",
          "type": "",
          "constraintsFile": "constraints47_0.py",
          "variables": {
            "\u003cChainedInput2\u003e.a().a.get()": "IAAv8",
            "\u003cChainedInput2\u003e.parse().b()": "IAAv7",
            "\u003cChainedInput2\u003e.parse().a()": "IAAv0",
            "\u003cChainedInput2\u003e.parse().getHost()": "IAAv3",
            "\u003cChainedInput2\u003e.a().b.get()": "IAAv9",
            "\u003cChainedInput2\u003e.a().a": "IAAv1",
            "\u003cChainedInput2\u003e.parse().c()": "IAAv2"
          },
          "stringMap": {
            "7000": "launch",
            "7001": "closecanvas",
            "7002": "log"
          },
          "strings": {
            "IAAv3": ""
          }
        }
      ]
    },
    "48": {
      "startMethod": "u.shouldOverrideUrlLoading(Landroid/webkit/WebView;Ljava/lang/String;)Z",
      "targetMethod": "android.net.ConnectivityManager.getActiveNetworkInfo()Landroid/net/NetworkInfo;",
      "eventChain": [
        {
          "start": "com.FourCobblers.Free.PhoneLock.DeviceAdminHandle$PhoneLockSetting.onCreate(Landroid/os/Bundle;)V",
          "target": "invokespecial \u003c Application, Landroid/webkit/WebViewClient, \u003cinit\u003e()V \u003e@5",
          "type": "activity",
          "component": "com.FourCobblers.Free.PhoneLock.DeviceAdminHandle$PhoneLockSetting"
        },
        {
          "start": "u.shouldOverrideUrlLoading(Landroid/webkit/WebView;Ljava/lang/String;)Z",
          "target": "invokevirtual \u003c Application, Landroid/net/ConnectivityManager, getActiveNetworkInfo()Landroid/net/NetworkInfo; \u003e@17",
          "type": "",
          "constraintsFile": "constraints48_0.py",
          "variables": {
            "\u003cChainedInput2\u003e.a().a.get()": "IAAv8",
            "\u003cChainedInput2\u003e.parse().getHost()": "IAAv3",
            "\u003cChainedInput2\u003e.parse().c()": "IAAv2",
            "\u003cChainedInput2\u003e.parse().b()": "IAAv7",
            "\u003cChainedInput2\u003e.parse().a()": "IAAv0",
            "\u003cChainedInput2\u003e.a().b.get()": "IAAv9",
            "\u003cChainedInput2\u003e.a().a": "IAAv1"
          },
          "stringMap": {
            "7000": "launch",
            "7001": "closecanvas",
            "7002": "log"
          },
          "strings": {
            "IAAv20": "",
            "IAAv3": "",
            "IAAv22": "",
            "IAAv25": "",
            "IAAv19": ""
          }
        }
      ]
    },
    "49": {
      "startMethod": "u.shouldOverrideUrlLoading(Landroid/webkit/WebView;Ljava/lang/String;)Z",
      "targetMethod": "java.net.URL.openConnection()Ljava/net/URLConnection;",
      "eventChain": [
        {
          "start": "com.FourCobblers.Free.PhoneLock.DeviceAdminHandle$PhoneLockSetting.onCreate(Landroid/os/Bundle;)V",
          "target": "invokespecial \u003c Application, Landroid/webkit/WebViewClient, \u003cinit\u003e()V \u003e@5",
          "type": "activity",
          "component": "com.FourCobblers.Free.PhoneLock.DeviceAdminHandle$PhoneLockSetting"
        },
        {
          "start": "u.shouldOverrideUrlLoading(Landroid/webkit/WebView;Ljava/lang/String;)Z",
          "target": "invokevirtual \u003c Application, Ljava/net/URL, openConnection()Ljava/net/URLConnection; \u003e@23",
          "type": "",
          "constraintsFile": "constraints49_0.py",
          "variables": {
            "\u003cChainedInput2\u003e.a().a.get()": "IAAv8",
            "\u003cChainedInput2\u003e.parse().b()": "IAAv7",
            "\u003cChainedInput2\u003e.parse().a().get().parse().getPath()": "IAAv13",
            "\u003cChainedInput2\u003e.parse().a().get()": "IAAv15",
            "\u003cChainedInput2\u003e.parse().a()": "IAAv0",
            "\u003cChainedInput2\u003e.parse().getHost()": "IAAv3",
            "\u003cChainedInput2\u003e.parse().a().get().parse().getHost()": "IAAv11",
            "\u003cChainedInput2\u003e.a().b.get()": "IAAv9",
            "\u003cChainedInput2\u003e.a().a": "IAAv1",
            "\u003cChainedInput2\u003e.parse().c()": "IAAv2"
          },
          "stringMap": {
            "7000": "launch",
            "7001": "closecanvas",
            "7002": "log",
            "7003": "admob.com"
          },
          "strings": {
            "IAAv3": "",
            "IAAv11": "",
            "IAAv13": ""
          }
        }
      ]
    },
    "50": {
      "startMethod": "u.shouldOverrideUrlLoading(Landroid/webkit/WebView;Ljava/lang/String;)Z",
      "targetMethod": "java.net.URL.openConnection()Ljava/net/URLConnection;",
      "eventChain": [
        {
          "start": "com.FourCobblers.Free.PhoneLock.DeviceAdminHandle$PhoneLockSetting.onCreate(Landroid/os/Bundle;)V",
          "target": "invokespecial \u003c Application, Landroid/webkit/WebViewClient, \u003cinit\u003e()V \u003e@5",
          "type": "activity",
          "component": "com.FourCobblers.Free.PhoneLock.DeviceAdminHandle$PhoneLockSetting"
        },
        {
          "start": "com.FourCobblers.Free.PhoneLock.DeviceAdminHandle$PhoneLockSetting.onCreate(Landroid/os/Bundle;)V",
          "target": "PC@20",
          "type": "activity",
          "component": "com.FourCobblers.Free.PhoneLock.DeviceAdminHandle$PhoneLockSetting"
        },
        {
          "start": "u.shouldOverrideUrlLoading(Landroid/webkit/WebView;Ljava/lang/String;)Z",
          "target": "invokevirtual \u003c Application, Ljava/net/URL, openConnection()Ljava/net/URLConnection; \u003e@461",
          "type": "",
          "constraintsFile": "constraints50_0.py",
          "variables": {
            "\u003cChainedInput2\u003e": "IAAv2",
            "\u003cChainedInput2\u003e.parse().a()": "IAAv0"
          },
          "stringMap": {
            "7000": "http://",
            "7001": "https://",
            "7002": "tel:",
            "7003": "http://clk",
            "7004": "http://c.admob.com",
            "7005": "http://googleads.g.doubleclick.net/aclk",
            "7006": "http://www.googleadservices.com/pagead/aclk"
          },
          "strings": {
            "IAAv2": ""
          }
        }
      ]
    },
    "51": {
      "startMethod": "u.shouldOverrideUrlLoading(Landroid/webkit/WebView;Ljava/lang/String;)Z",
      "targetMethod": "android.widget.VideoView.pause()V",
      "eventChain": [
        {
          "start": "com.FourCobblers.Free.PhoneLock.DeviceAdminHandle$PhoneLockSetting.onCreate(Landroid/os/Bundle;)V",
          "target": "invokespecial \u003c Application, Landroid/webkit/WebViewClient, \u003cinit\u003e()V \u003e@5",
          "type": "activity",
          "component": "com.FourCobblers.Free.PhoneLock.DeviceAdminHandle$PhoneLockSetting"
        },
        {
          "start": "u.shouldOverrideUrlLoading(Landroid/webkit/WebView;Ljava/lang/String;)Z",
          "target": "invokevirtual \u003c Application, Landroid/widget/VideoView, pause()V \u003e@235",
          "type": "",
          "constraintsFile": "constraints51_0.py",
          "variables": {
            "\u003cInput2\u003e.a().a": "IAAv1",
            "\u003cInput1\u003e.b().a()": "IAAv12",
            "\u003cInput2\u003e.parse().b()": "IAAv7",
            "\u003cInput2\u003e.parse().a()": "IAAv0",
            "\u003cInput2\u003e.parse().getHost()": "IAAv3",
            "\u003cInput2\u003e.a().a.get()": "IAAv8",
            "\u003cInput2\u003e.a().b.get()": "IAAv9",
            "\u003cInput2\u003e.parse().a().get()": "IAAv11",
            "\u003cInput1\u003e.b()": "IAAv10",
            "\u003cInput2\u003e.parse().c()": "IAAv2"
          },
          "stringMap": {
            "7000": "launch",
            "7001": "closecanvas",
            "7002": "log",
            "7003": "load",
            "7004": "play",
            "7005": "pause"
          },
          "strings": {
            "IAAv3": ""
          }
        }
      ]
    },
    "52": {
      "startMethod": "u.shouldOverrideUrlLoading(Landroid/webkit/WebView;Ljava/lang/String;)Z",
      "targetMethod": "java.net.HttpURLConnection.connect()V",
      "eventChain": [
        {
          "start": "com.FourCobblers.Free.PhoneLock.DeviceAdminHandle$PhoneLockSetting.onCreate(Landroid/os/Bundle;)V",
          "target": "invokespecial \u003c Application, Landroid/webkit/WebViewClient, \u003cinit\u003e()V \u003e@5",
          "type": "activity",
          "component": "com.FourCobblers.Free.PhoneLock.DeviceAdminHandle$PhoneLockSetting"
        },
        {
          "start": "u.shouldOverrideUrlLoading(Landroid/webkit/WebView;Ljava/lang/String;)Z",
          "target": "invokevirtual \u003c Application, Ljava/net/HttpURLConnection, connect()V \u003e@59",
          "type": "",
          "constraintsFile": "constraints52_0.py",
          "variables": {
            "\u003cChainedInput2\u003e.a().a.get()": "IAAv8",
            "\u003cChainedInput2\u003e.parse().b()": "IAAv7",
            "\u003cChainedInput2\u003e.parse().a()": "IAAv0",
            "\u003cChainedInput2\u003e.parse().getHost()": "IAAv3",
            "\u003cChainedInput2\u003e.a().b.get()": "IAAv9",
            "\u003cChainedInput2\u003e.a().a": "IAAv1",
            "\u003cChainedInput2\u003e.parse().c()": "IAAv2"
          },
          "stringMap": {
            "7000": "launch",
            "7001": "closecanvas",
            "7002": "log"
          },
          "strings": {
            "IAAv3": ""
          }
        }
      ]
    },
    "53": {
      "startMethod": "u.shouldOverrideUrlLoading(Landroid/webkit/WebView;Ljava/lang/String;)Z",
      "targetMethod": "android.webkit.WebView.\u003cinit\u003e(Landroid/content/Context;)V",
      "eventChain": [
        {
          "start": "com.FourCobblers.Free.PhoneLock.DeviceAdminHandle$PhoneLockSetting.onCreate(Landroid/os/Bundle;)V",
          "target": "invokespecial \u003c Application, Landroid/webkit/WebViewClient, \u003cinit\u003e()V \u003e@5",
          "type": "activity",
          "component": "com.FourCobblers.Free.PhoneLock.DeviceAdminHandle$PhoneLockSetting"
        },
        {
          "start": "u.shouldOverrideUrlLoading(Landroid/webkit/WebView;Ljava/lang/String;)Z",
          "target": "invokespecial \u003c Application, Landroid/webkit/WebView, \u003cinit\u003e(Landroid/content/Context;)V \u003e@62",
          "type": "",
          "constraintsFile": "constraints53_0.py",
          "variables": {
            "\u003cChainedInput2\u003e.a().a.get()": "IAAv8",
            "\u003cChainedInput2\u003e.parse().b()": "IAAv7",
            "\u003cChainedInput2\u003e.parse().a()": "IAAv0",
            "\u003cChainedInput2\u003e.parse().getHost()": "IAAv3",
            "\u003cChainedInput2\u003e.a().b.get()": "IAAv9",
            "\u003cChainedInput2\u003e.a().a": "IAAv1",
            "\u003cChainedInput2\u003e.parse().c()": "IAAv2"
          },
          "stringMap": {
            "7000": "launch",
            "7001": "closecanvas",
            "7002": "log"
          },
          "strings": {
            "IAAv3": ""
          }
        }
      ]
    },
    "54": {
      "startMethod": "com.google.ads.InstallReceiver.onReceive(Landroid/content/Context;Landroid/content/Intent;)V",
      "targetMethod": "android.webkit.WebView.\u003cinit\u003e(Landroid/content/Context;)V",
      "eventChain": [
        {
          "start": "com.google.ads.InstallReceiver.onReceive(Landroid/content/Context;Landroid/content/Intent;)V",
          "target": "invokespecial \u003c Application, Landroid/webkit/WebView, \u003cinit\u003e(Landroid/content/Context;)V \u003e@99",
          "type": "sms"
        }
      ]
    },
    "55": {
      "startMethod": "com.google.ads.InstallReceiver.onReceive(Landroid/content/Context;Landroid/content/Intent;)V",
      "targetMethod": "java.net.URL.openConnection()Ljava/net/URLConnection;",
      "eventChain": [
        {
          "start": "com.google.ads.InstallReceiver.onReceive(Landroid/content/Context;Landroid/content/Intent;)V",
          "target": "invokevirtual \u003c Application, Ljava/net/URL, openConnection()Ljava/net/URLConnection; \u003e@129",
          "type": "sms"
        }
      ]
    },
    "56": {
      "startMethod": "com.FourCobblers.Free.a.h.onLocationChanged(Landroid/location/Location;)V",
      "targetMethod": "android.telephony.TelephonyManager.getCellLocation()Landroid/telephony/CellLocation;",
      "eventChain": [
        {
          "start": "com.FourCobblers.Free.a.h.onLocationChanged(Landroid/location/Location;)V",
          "target": "invokevirtual \u003c Application, Landroid/telephony/TelephonyManager, getCellLocation()Landroid/telephony/CellLocation; \u003e@43",
          "type": "location",
          "constraintsFile": "constraints56_0.py",
          "variables": {
            "\u003cChainedInput1\u003e": "IAAv0"
          },
          "stringMap": {},
          "strings": {
            "IAAv3": ""
          }
        }
      ]
    },
    "57": {
      "startMethod": "com.FourCobblers.Free.a.h.onLocationChanged(Landroid/location/Location;)V",
      "targetMethod": "android.telephony.TelephonyManager.getNeighboringCellInfo()Ljava/util/List;",
      "eventChain": [
        {
          "start": "com.FourCobblers.Free.a.h.onLocationChanged(Landroid/location/Location;)V",
          "target": "invokevirtual \u003c Application, Landroid/telephony/TelephonyManager, getNeighboringCellInfo()Ljava/util/List; \u003e@140",
          "type": "location",
          "constraintsFile": "constraints57_0.py",
          "variables": {
            "\u003cChainedInput1\u003e": "IAAv0"
          },
          "stringMap": {},
          "strings": {
            "IAAv3": ""
          }
        }
      ]
    },
    "58": {
      "startMethod": "com.FourCobblers.Free.a.h.onLocationChanged(Landroid/location/Location;)V",
      "targetMethod": "android.net.wifi.WifiManager.getConnectionInfo()Landroid/net/wifi/WifiInfo;",
      "eventChain": [
        {
          "start": "com.FourCobblers.Free.a.h.onLocationChanged(Landroid/location/Location;)V",
          "target": "invokevirtual \u003c Application, Landroid/net/wifi/WifiManager, getConnectionInfo()Landroid/net/wifi/WifiInfo; \u003e@22",
          "type": "location",
          "constraintsFile": "constraints58_0.py",
          "variables": {
            "\u003cInput1\u003e": "IAAv0"
          },
          "stringMap": {},
          "strings": {}
        }
      ]
    },
    "59": {
      "startMethod": "com.FourCobblers.Free.a.h.onLocationChanged(Landroid/location/Location;)V",
      "targetMethod": "org.apache.http.client.HttpClient.execute(Lorg/apache/http/client/methods/HttpUriRequest;)Lorg/apache/http/HttpResponse;",
      "eventChain": [
        {
          "start": "com.FourCobblers.Free.a.h.onLocationChanged(Landroid/location/Location;)V",
          "target": "invokeinterface \u003c Application, Lorg/apache/http/client/HttpClient, execute(Lorg/apache/http/client/methods/HttpUriRequest;)Lorg/apache/http/HttpResponse; \u003e@45",
          "type": "location",
          "constraintsFile": "constraints59_0.py",
          "variables": {
            "\u003cInput1\u003e": "IAAv0"
          },
          "stringMap": {},
          "strings": {}
        }
      ]
    },
    "60": {
      "startMethod": "com.FourCobblers.Free.a.h.onLocationChanged(Landroid/location/Location;)V",
      "targetMethod": "android.telephony.SmsManager.sendMultipartTextMessage(Ljava/lang/String;Ljava/lang/String;Ljava/util/ArrayList;Ljava/util/ArrayList;Ljava/util/ArrayList;)V",
      "eventChain": [
        {
          "start": "com.FourCobblers.Free.a.h.onLocationChanged(Landroid/location/Location;)V",
          "target": "invokevirtual \u003c Application, Landroid/telephony/SmsManager, sendMultipartTextMessage(Ljava/lang/String;Ljava/lang/String;Ljava/util/ArrayList;Ljava/util/ArrayList;Ljava/util/ArrayList;)V \u003e@140",
          "type": "location",
          "constraintsFile": "constraints60_0.py",
          "variables": {
            "\u003cChainedInput1\u003e": "IAAv0"
          },
          "stringMap": {},
          "strings": {}
        }
      ]
    },
    "61": {
      "startMethod": "com.FourCobblers.Free.a.g.onLocationChanged(Landroid/location/Location;)V",
      "targetMethod": "org.apache.http.client.HttpClient.execute(Lorg/apache/http/client/methods/HttpUriRequest;)Lorg/apache/http/HttpResponse;",
      "eventChain": [
        {
          "start": "com.FourCobblers.Free.a.g.onLocationChanged(Landroid/location/Location;)V",
          "target": "invokeinterface \u003c Application, Lorg/apache/http/client/HttpClient, execute(Lorg/apache/http/client/methods/HttpUriRequest;)Lorg/apache/http/HttpResponse; \u003e@45",
          "type": "location",
          "constraintsFile": "constraints61_0.py",
          "variables": {
            "\u003cInput1\u003e": "IAAv0"
          },
          "stringMap": {},
          "strings": {}
        }
      ]
    },
    "62": {
      "startMethod": "com.FourCobblers.Free.a.g.onLocationChanged(Landroid/location/Location;)V",
      "targetMethod": "android.telephony.TelephonyManager.getCellLocation()Landroid/telephony/CellLocation;",
      "eventChain": [
        {
          "start": "com.FourCobblers.Free.a.g.onLocationChanged(Landroid/location/Location;)V",
          "target": "invokevirtual \u003c Application, Landroid/telephony/TelephonyManager, getCellLocation()Landroid/telephony/CellLocation; \u003e@43",
          "type": "location",
          "constraintsFile": "constraints62_0.py",
          "variables": {
            "\u003cChainedInput1\u003e": "IAAv0"
          },
          "stringMap": {},
          "strings": {
            "IAAv3": ""
          }
        }
      ]
    },
    "63": {
      "startMethod": "com.FourCobblers.Free.a.g.onLocationChanged(Landroid/location/Location;)V",
      "targetMethod": "android.telephony.SmsManager.sendMultipartTextMessage(Ljava/lang/String;Ljava/lang/String;Ljava/util/ArrayList;Ljava/util/ArrayList;Ljava/util/ArrayList;)V",
      "eventChain": [
        {
          "start": "com.FourCobblers.Free.a.g.onLocationChanged(Landroid/location/Location;)V",
          "target": "invokevirtual \u003c Application, Landroid/telephony/SmsManager, sendMultipartTextMessage(Ljava/lang/String;Ljava/lang/String;Ljava/util/ArrayList;Ljava/util/ArrayList;Ljava/util/ArrayList;)V \u003e@140",
          "type": "location",
          "constraintsFile": "constraints63_0.py",
          "variables": {
            "\u003cChainedInput1\u003e": "IAAv0"
          },
          "stringMap": {},
          "strings": {}
        }
      ]
    },
    "64": {
      "startMethod": "com.FourCobblers.Free.a.g.onLocationChanged(Landroid/location/Location;)V",
      "targetMethod": "android.net.wifi.WifiManager.getConnectionInfo()Landroid/net/wifi/WifiInfo;",
      "eventChain": [
        {
          "start": "com.FourCobblers.Free.a.g.onLocationChanged(Landroid/location/Location;)V",
          "target": "invokevirtual \u003c Application, Landroid/net/wifi/WifiManager, getConnectionInfo()Landroid/net/wifi/WifiInfo; \u003e@22",
          "type": "location",
          "constraintsFile": "constraints64_0.py",
          "variables": {
            "\u003cInput1\u003e": "IAAv0"
          },
          "stringMap": {},
          "strings": {}
        }
      ]
    },
    "65": {
      "startMethod": "com.FourCobblers.Free.a.g.onLocationChanged(Landroid/location/Location;)V",
      "targetMethod": "android.telephony.TelephonyManager.getNeighboringCellInfo()Ljava/util/List;",
      "eventChain": [
        {
          "start": "com.FourCobblers.Free.a.g.onLocationChanged(Landroid/location/Location;)V",
          "target": "invokevirtual \u003c Application, Landroid/telephony/TelephonyManager, getNeighboringCellInfo()Ljava/util/List; \u003e@140",
          "type": "location",
          "constraintsFile": "constraints65_0.py",
          "variables": {
            "\u003cChainedInput1\u003e": "IAAv0"
          },
          "stringMap": {},
          "strings": {
            "IAAv3": ""
          }
        }
      ]
    }
  }
}