{
  "packageName": "com.joyce.wps.taylorswift",
  "mainActivity": "com.joyce.wps.base.Main",
  "callPaths": {
    "0": {
      "startMethod": "com.joyce.wps.base.Main.onCreate(Landroid/os/Bundle;)V",
      "targetMethod": "android.net.ConnectivityManager.getAllNetworkInfo()[Landroid/net/NetworkInfo;",
      "eventChain": [
        {
          "start": "com.joyce.wps.base.Main.onCreate(Landroid/os/Bundle;)V",
          "target": "invokevirtual \u003c Application, Landroid/net/ConnectivityManager, getAllNetworkInfo()[Landroid/net/NetworkInfo; \u003e@38",
          "type": "activity",
          "component": "com.joyce.wps.base.Main"
        }
      ]
    },
    "1": {
      "startMethod": "com.joyce.wps.base.Main.onCreate(Landroid/os/Bundle;)V",
      "targetMethod": "android.net.wifi.WifiManager.getConnectionInfo()Landroid/net/wifi/WifiInfo;",
      "eventChain": [
        {
          "start": "com.joyce.wps.base.Main.onCreate(Landroid/os/Bundle;)V",
          "target": "invokevirtual \u003c Application, Landroid/net/wifi/WifiManager, getConnectionInfo()Landroid/net/wifi/WifiInfo; \u003e@66",
          "type": "activity",
          "component": "com.joyce.wps.base.Main"
        }
      ]
    },
    "2": {
      "startMethod": "com.joyce.wps.base.Main.onCreate(Landroid/os/Bundle;)V",
      "targetMethod": "android.telephony.TelephonyManager.getDeviceId()Ljava/lang/String;",
      "eventChain": [
        {
          "start": "com.joyce.wps.base.Main.onCreate(Landroid/os/Bundle;)V",
          "target": "invokevirtual \u003c Application, Landroid/telephony/TelephonyManager, getDeviceId()Ljava/lang/String; \u003e@29",
          "type": "activity",
          "component": "com.joyce.wps.base.Main"
        }
      ]
    }
  }
}