{
  "packageName": "com.vee.project.chuangyifang",
  "mainActivity": "com.vee.project.fish.entrance.EntranceActivity",
  "callPaths": {
    "0": {
      "startMethod": "com.vee.project.browser.utils.ProxyChangeReceiver.onReceive(Landroid/content/Context;Landroid/content/Intent;)V",
      "targetMethod": "java.lang.reflect.Method.invoke(Ljava/lang/Object;[Ljava/lang/Object;)Ljava/lang/Object;",
      "eventChain": [
        {
          "start": "com.vee.project.browser.ui.activities.MainActivity.onCreate(Landroid/os/Bundle;)V",
          "target": "",
          "type": "activity",
          "component": "com.vee.project.browser.ui.activities.MainActivity"
        },
        {
          "start": "com.vee.project.browser.utils.ProxyChangeReceiver.onReceive(Landroid/content/Context;Landroid/content/Intent;)V",
          "target": "invokevirtual \u003c Application, Ljava/lang/reflect/Method, invoke(Ljava/lang/Object;[Ljava/lang/Object;)Ljava/lang/Object; \u003e@49",
          "type": "sms",
          "constraintsFile": "constraints0_0.py",
          "variables": {
            "SharedPreferences\u003cBrowserEnableProxySettings\u003e": "IAAv2"
          },
          "stringMap": {},
          "strings": {}
        }
      ]
    },
    "1": {
      "startMethod": "com.vee.project.browser.utils.ProxyChangeReceiver.onReceive(Landroid/content/Context;Landroid/content/Intent;)V",
      "targetMethod": "org.apache.http.impl.client.DefaultHttpClient.execute(Lorg/apache/http/client/methods/HttpUriRequest;)Lorg/apache/http/HttpResponse;",
      "eventChain": [
        {
          "start": "com.vee.project.browser.ui.activities.MainActivity.onCreate(Landroid/os/Bundle;)V",
          "target": "",
          "type": "activity",
          "component": "com.vee.project.browser.ui.activities.MainActivity"
        },
        {
          "start": "com.vee.project.browser.utils.ProxyChangeReceiver.onReceive(Landroid/content/Context;Landroid/content/Intent;)V",
          "target": "invokevirtual \u003c Application, Lorg/apache/http/impl/client/DefaultHttpClient, execute(Lorg/apache/http/client/methods/HttpUriRequest;)Lorg/apache/http/HttpResponse; \u003e@84",
          "type": "sms",
          "constraintsFile": "constraints1_0.py",
          "variables": {
            "SharedPreferences\u003cBrowserEnableProxySettings\u003e": "IAAv2"
          },
          "stringMap": {},
          "strings": {}
        }
      ]
    },
    "2": {
      "startMethod": "com.vee.project.browser.utils.ProxyChangeReceiver.onReceive(Landroid/content/Context;Landroid/content/Intent;)V",
      "targetMethod": "java.lang.reflect.Method.invoke(Ljava/lang/Object;[Ljava/lang/Object;)Ljava/lang/Object;",
      "eventChain": [
        {
          "start": "com.vee.project.browser.ui.activities.MainActivity.onCreate(Landroid/os/Bundle;)V",
          "target": "",
          "type": "activity",
          "component": "com.vee.project.browser.ui.activities.MainActivity"
        },
        {
          "start": "com.vee.project.browser.utils.ProxyChangeReceiver.onReceive(Landroid/content/Context;Landroid/content/Intent;)V",
          "target": "invokevirtual \u003c Application, Ljava/lang/reflect/Method, invoke(Ljava/lang/Object;[Ljava/lang/Object;)Ljava/lang/Object; \u003e@95",
          "type": "sms",
          "constraintsFile": "constraints2_0.py",
          "variables": {
            "SharedPreferences\u003cBrowserEnableProxySettings\u003e": "IAAv2"
          },
          "stringMap": {},
          "strings": {}
        }
      ]
    },
    "3": {
      "startMethod": "com.vee.project.browser.ui.activities.MainActivity.onResume()V",
      "targetMethod": "java.lang.reflect.Method.invoke(Ljava/lang/Object;[Ljava/lang/Object;)Ljava/lang/Object;",
      "eventChain": [
        {
          "start": "com.vee.project.browser.ui.activities.MainActivity.onCreate(Landroid/os/Bundle;)V",
          "target": "",
          "type": "activity",
          "component": "com.vee.project.browser.ui.activities.MainActivity",
          "constraintsFile": "constraints3_0.py",
          "variables": {
            "SharedPreferences\u003cGeneralHideTitleBars\u003e": "IAAv1",
            "SharedPreferences\u003cGeneralFullScreen\u003e": "IAAv0"
          },
          "stringMap": {},
          "strings": {}
        },
        {
          "start": "com.vee.project.browser.ui.activities.MainActivity.onCreate(Landroid/os/Bundle;)V",
          "target": "PC@119",
          "type": "activity",
          "component": "com.vee.project.browser.ui.activities.MainActivity",
          "constraintsFile": "constraints3_1.py",
          "variables": {
            "SharedPreferences\u003cGeneralHideTitleBars\u003e": "IAAv1",
            "SharedPreferences\u003cGeneralFullScreen\u003e": "IAAv0"
          },
          "stringMap": {
            "7000": "\u003cUI\u003e"
          },
          "strings": {}
        },
        {
          "start": "com.vee.project.browser.ui.activities.MainActivity.onResume()V",
          "target": "invokevirtual \u003c Application, Ljava/lang/reflect/Method, invoke(Ljava/lang/Object;[Ljava/lang/Object;)Ljava/lang/Object; \u003e@35",
          "type": "activity",
          "component": "com.vee.project.browser.ui.activities.MainActivity",
          "constraintsFile": "constraints3_2.py",
          "variables": {},
          "stringMap": {},
          "strings": {}
        }
      ]
    },
    "4": {
      "startMethod": "com.vee.project.browser.ui.activities.MainActivity.onCreate(Landroid/os/Bundle;)V",
      "targetMethod": "java.lang.reflect.Method.invoke(Ljava/lang/Object;[Ljava/lang/Object;)Ljava/lang/Object;",
      "eventChain": [
        {
          "start": "com.vee.project.browser.ui.activities.MainActivity.onCreate(Landroid/os/Bundle;)V",
          "target": "PC@23",
          "type": "activity",
          "component": "com.vee.project.browser.ui.activities.MainActivity",
          "constraintsFile": "constraints4_0.py",
          "variables": {
            "SharedPreferences\u003cGeneralHideTitleBars\u003e": "IAAv1",
            "SharedPreferences\u003cGeneralFullScreen\u003e": "IAAv0"
          },
          "stringMap": {},
          "strings": {}
        },
        {
          "start": "com.vee.project.browser.ui.activities.MainActivity.onCreate(Landroid/os/Bundle;)V",
          "target": "invokevirtual \u003c Application, Ljava/lang/reflect/Method, invoke(Ljava/lang/Object;[Ljava/lang/Object;)Ljava/lang/Object; \u003e@49",
          "type": "activity",
          "component": "com.vee.project.browser.ui.activities.MainActivity",
          "constraintsFile": "constraints4_1.py",
          "variables": {
            "SharedPreferences\u003cGeneralHideTitleBars\u003e": "IAAv1",
            "SharedPreferences\u003cBrowserEnableProxySettings\u003e": "IAAv2",
            "SharedPreferences\u003cGeneralFullScreen\u003e": "IAAv0"
          },
          "stringMap": {},
          "strings": {}
        }
      ]
    },
    "5": {
      "startMethod": "com.vee.project.browser.ui.activities.MainActivity.onCreate(Landroid/os/Bundle;)V",
      "targetMethod": "org.apache.http.client.HttpClient.execute(Lorg/apache/http/client/methods/HttpUriRequest;)Lorg/apache/http/HttpResponse;",
      "eventChain": [
        {
          "start": "com.vee.project.browser.ui.activities.MainActivity.onCreate(Landroid/os/Bundle;)V",
          "target": "invokeinterface \u003c Application, Lorg/apache/http/client/HttpClient, execute(Lorg/apache/http/client/methods/HttpUriRequest;)Lorg/apache/http/HttpResponse; \u003e@50",
          "type": "activity",
          "component": "com.vee.project.browser.ui.activities.MainActivity"
        }
      ]
    },
    "6": {
      "startMethod": "com.vee.project.browser.ui.activities.MainActivity.onCreate(Landroid/os/Bundle;)V",
      "targetMethod": "java.lang.reflect.Method.invoke(Ljava/lang/Object;[Ljava/lang/Object;)Ljava/lang/Object;",
      "eventChain": [
        {
          "start": "com.vee.project.browser.ui.activities.MainActivity.onCreate(Landroid/os/Bundle;)V",
          "target": "invokevirtual \u003c Application, Ljava/lang/reflect/Method, invoke(Ljava/lang/Object;[Ljava/lang/Object;)Ljava/lang/Object; \u003e@95",
          "type": "activity",
          "component": "com.vee.project.browser.ui.activities.MainActivity",
          "constraintsFile": "constraints6_0.py",
          "variables": {
            "SharedPreferences\u003cGeneralHideTitleBars\u003e": "IAAv1",
            "SharedPreferences\u003cBrowserEnableProxySettings\u003e": "IAAv2",
            "SharedPreferences\u003cGeneralFullScreen\u003e": "IAAv0"
          },
          "stringMap": {},
          "strings": {}
        }
      ]
    },
    "7": {
      "startMethod": "com.vee.project.browser.ui.activities.MainActivity.onCreate(Landroid/os/Bundle;)V",
      "targetMethod": "org.apache.http.client.HttpClient.execute(Lorg/apache/http/client/methods/HttpUriRequest;)Lorg/apache/http/HttpResponse;",
      "eventChain": [
        {
          "start": "com.vee.project.browser.ui.activities.MainActivity.onCreate(Landroid/os/Bundle;)V",
          "target": "invokeinterface \u003c Application, Lorg/apache/http/client/HttpClient, execute(Lorg/apache/http/client/methods/HttpUriRequest;)Lorg/apache/http/HttpResponse; \u003e@23",
          "type": "activity",
          "component": "com.vee.project.browser.ui.activities.MainActivity"
        }
      ]
    },
    "8": {
      "startMethod": "com.vee.project.browser.ui.activities.MainActivity.onCreate(Landroid/os/Bundle;)V",
      "targetMethod": "org.apache.http.impl.client.DefaultHttpClient.execute(Lorg/apache/http/client/methods/HttpUriRequest;)Lorg/apache/http/HttpResponse;",
      "eventChain": [
        {
          "start": "com.vee.project.browser.ui.activities.MainActivity.onCreate(Landroid/os/Bundle;)V",
          "target": "invokevirtual \u003c Application, Lorg/apache/http/impl/client/DefaultHttpClient, execute(Lorg/apache/http/client/methods/HttpUriRequest;)Lorg/apache/http/HttpResponse; \u003e@84",
          "type": "activity",
          "component": "com.vee.project.browser.ui.activities.MainActivity",
          "constraintsFile": "constraints8_0.py",
          "variables": {
            "SharedPreferences\u003cGeneralHideTitleBars\u003e": "IAAv1",
            "SharedPreferences\u003cBrowserEnableProxySettings\u003e": "IAAv2",
            "SharedPreferences\u003cGeneralFullScreen\u003e": "IAAv0"
          },
          "stringMap": {},
          "strings": {}
        }
      ]
    },
    "9": {
      "startMethod": "com.vee.project.fish.entrance.EntranceActivity.onCreate(Landroid/os/Bundle;)V",
      "targetMethod": "org.apache.http.client.HttpClient.execute(Lorg/apache/http/client/methods/HttpUriRequest;)Lorg/apache/http/HttpResponse;",
      "eventChain": [
        {
          "start": "com.vee.project.fish.entrance.EntranceActivity.onCreate(Landroid/os/Bundle;)V",
          "target": "invokeinterface \u003c Application, Lorg/apache/http/client/HttpClient, execute(Lorg/apache/http/client/methods/HttpUriRequest;)Lorg/apache/http/HttpResponse; \u003e@50",
          "type": "activity",
          "component": "com.vee.project.fish.entrance.EntranceActivity"
        }
      ]
    },
    "10": {
      "startMethod": "com.vee.project.browser.ui.activities.MainActivity.onPause()V",
      "targetMethod": "java.lang.reflect.Method.invoke(Ljava/lang/Object;[Ljava/lang/Object;)Ljava/lang/Object;",
      "eventChain": [
        {
          "start": "com.vee.project.browser.ui.activities.MainActivity.onCreate(Landroid/os/Bundle;)V",
          "target": "PC@119",
          "type": "activity",
          "component": "com.vee.project.browser.ui.activities.MainActivity",
          "constraintsFile": "constraints10_0.py",
          "variables": {
            "SharedPreferences\u003cGeneralHideTitleBars\u003e": "IAAv1",
            "SharedPreferences\u003cGeneralFullScreen\u003e": "IAAv0"
          },
          "stringMap": {
            "7000": "\u003cUI\u003e"
          },
          "strings": {}
        },
        {
          "start": "com.vee.project.browser.ui.activities.MainActivity.onCreate(Landroid/os/Bundle;)V",
          "target": "",
          "type": "activity",
          "component": "com.vee.project.browser.ui.activities.MainActivity",
          "constraintsFile": "constraints10_1.py",
          "variables": {
            "SharedPreferences\u003cGeneralHideTitleBars\u003e": "IAAv1",
            "SharedPreferences\u003cGeneralFullScreen\u003e": "IAAv0"
          },
          "stringMap": {},
          "strings": {}
        },
        {
          "start": "com.vee.project.browser.ui.activities.MainActivity.onPause()V",
          "target": "invokevirtual \u003c Application, Ljava/lang/reflect/Method, invoke(Ljava/lang/Object;[Ljava/lang/Object;)Ljava/lang/Object; \u003e@36",
          "type": "activity",
          "component": "com.vee.project.browser.ui.activities.MainActivity",
          "constraintsFile": "constraints10_2.py",
          "variables": {},
          "stringMap": {},
          "strings": {}
        }
      ]
    },
    "11": {
      "startMethod": "com.vee.project.browser.ui.activities.MainActivity.onKeyDown(ILandroid/view/KeyEvent;)Z",
      "targetMethod": "java.lang.reflect.Method.invoke(Ljava/lang/Object;[Ljava/lang/Object;)Ljava/lang/Object;",
      "eventChain": [
        {
          "start": "com.vee.project.browser.ui.activities.MainActivity.onKeyDown(ILandroid/view/KeyEvent;)Z",
          "target": "invokevirtual \u003c Application, Ljava/lang/reflect/Method, invoke(Ljava/lang/Object;[Ljava/lang/Object;)Ljava/lang/Object; \u003e@35",
          "type": "ui",
          "activities": [
            "com.vee.project.fish.entrance.EntranceActivity"
          ],
          "listener": "com.vee.project.browser.ui.activities.MainActivity",
          "listenerMethod": "onKeyDown",
          "uiType": "onKeyDown",
          "constraintsFile": "constraints11_0.py",
          "variables": {
            "SharedPreferences\u003cGeneralVolumeKeysBehaviour\u003e": "IAAv1",
            "\u003cInput1\u003e": "IAAv0"
          },
          "stringMap": {
            "7000": "SWITCH_TABS"
          },
          "strings": {
            "IAAv1": ""
          }
        }
      ]
    },
    "12": {
      "startMethod": "com.vee.project.browser.ui.activities.MainActivity.onKeyDown(ILandroid/view/KeyEvent;)Z",
      "targetMethod": "java.lang.reflect.Method.invoke(Ljava/lang/Object;[Ljava/lang/Object;)Ljava/lang/Object;",
      "eventChain": [
        {
          "start": "com.vee.project.browser.ui.activities.MainActivity.onKeyDown(ILandroid/view/KeyEvent;)Z",
          "target": "invokevirtual \u003c Application, Ljava/lang/reflect/Method, invoke(Ljava/lang/Object;[Ljava/lang/Object;)Ljava/lang/Object; \u003e@36",
          "type": "ui",
          "activities": [
            "com.vee.project.fish.entrance.EntranceActivity"
          ],
          "listener": "com.vee.project.browser.ui.activities.MainActivity",
          "listenerMethod": "onKeyDown",
          "uiType": "onKeyDown",
          "constraintsFile": "constraints12_0.py",
          "variables": {
            "SharedPreferences\u003cGeneralVolumeKeysBehaviour\u003e": "IAAv1",
            "\u003cInput1\u003e": "IAAv0"
          },
          "stringMap": {
            "7000": "SWITCH_TABS"
          },
          "strings": {
            "IAAv1": ""
          }
        }
      ]
    },
    "13": {
      "startMethod": "com.vee.project.browser.ui.activities.preferences.PreferencesActivity$19.onClick(Landroid/content/DialogInterface;I)V",
      "targetMethod": "android.content.ContentResolver.delete(Landroid/net/Uri;Ljava/lang/String;[Ljava/lang/String;)I",
      "eventChain": [
        {
          "start": "com.vee.project.browser.ui.activities.preferences.PreferencesActivity$19.onClick(Landroid/content/DialogInterface;I)V",
          "target": "invokevirtual \u003c Application, Landroid/content/ContentResolver, delete(Landroid/net/Uri;Ljava/lang/String;[Ljava/lang/String;)I \u003e@253",
          "type": "ui",
          "activities": [
            "com.vee.project.fish.entrance.EntranceActivity"
          ],
          "listener": "com.vee.project.browser.ui.activities.preferences.PreferencesActivity$19",
          "listenerMethod": "onClick",
          "uiType": "onClick",
          "inDialog": "true",
          "constraintsFile": "constraints13_0.py",
          "variables": {},
          "stringMap": {},
          "strings": {}
        }
      ]
    },
    "14": {
      "startMethod": "com.vee.project.browser.ui.activities.preferences.PreferencesActivity$12.onClick(Landroid/content/DialogInterface;I)V",
      "targetMethod": "android.content.ContentResolver.delete(Landroid/net/Uri;Ljava/lang/String;[Ljava/lang/String;)I",
      "eventChain": [
        {
          "start": "com.vee.project.browser.ui.activities.MainActivity.onCreate(Landroid/os/Bundle;)V",
          "target": "",
          "type": "activity",
          "component": "com.vee.project.browser.ui.activities.MainActivity",
          "constraintsFile": "constraints14_0.py",
          "variables": {
            "SharedPreferences\u003cPREFERENCE_BOOKMARKS_DATABASE\u003e": "IAAv2",
            "SharedPreferences\u003cGeneralHideTitleBars\u003e": "IAAv1",
            "SharedPreferences\u003cGeneralFullScreen\u003e": "IAAv0"
          },
          "stringMap": {
            "7000": "STOCK"
          },
          "strings": {
            "IAAv2": ""
          }
        },
        {
          "start": "com.vee.project.browser.ui.activities.preferences.PreferencesActivity$12.onClick(Landroid/content/DialogInterface;I)V",
          "target": "invokevirtual \u003c Application, Landroid/content/ContentResolver, delete(Landroid/net/Uri;Ljava/lang/String;[Ljava/lang/String;)I \u003e@253",
          "type": "ui",
          "activities": [
            "com.vee.project.fish.entrance.EntranceActivity"
          ],
          "listener": "com.vee.project.browser.ui.activities.preferences.PreferencesActivity$12",
          "listenerMethod": "onClick",
          "uiType": "onClick",
          "inDialog": "true"
        }
      ]
    },
    "15": {
      "startMethod": "com.vee.project.browser.utils.VersionTask$1.onClick(Landroid/content/DialogInterface;I)V",
      "targetMethod": "org.apache.http.client.HttpClient.execute(Lorg/apache/http/client/methods/HttpUriRequest;)Lorg/apache/http/HttpResponse;",
      "eventChain": [
        {
          "start": "com.vee.project.browser.ui.activities.MainActivity.onCreate(Landroid/os/Bundle;)V",
          "target": "invokevirtual \u003c Application, Landroid/app/AlertDialog$Builder, setPositiveButton(ILandroid/content/DialogInterface$OnClickListener;)Landroid/app/AlertDialog$Builder; \u003e@65",
          "type": "activity",
          "component": "com.vee.project.browser.ui.activities.MainActivity"
        },
        {
          "start": "com.vee.project.browser.utils.VersionTask$1.onClick(Landroid/content/DialogInterface;I)V",
          "target": "invokeinterface \u003c Application, Lorg/apache/http/client/HttpClient, execute(Lorg/apache/http/client/methods/HttpUriRequest;)Lorg/apache/http/HttpResponse; \u003e@23",
          "type": "ui",
          "activities": [
            "com.vee.project.fish.entrance.EntranceActivity"
          ],
          "listener": "com.vee.project.browser.utils.VersionTask$1",
          "listenerMethod": "onClick",
          "uiType": "onClick",
          "inDialog": "true",
          "constraintsFile": "constraints15_0.py",
          "variables": {},
          "stringMap": {},
          "strings": {}
        }
      ]
    },
    "16": {
      "startMethod": "com.vee.project.browser.ui.activities.WeaveBookmarksListActivity$4.onClick(Landroid/view/View;)V",
      "targetMethod": "android.content.ContentResolver.delete(Landroid/net/Uri;Ljava/lang/String;[Ljava/lang/String;)I",
      "eventChain": [
        {
          "start": "com.vee.project.browser.ui.activities.WeaveBookmarksListActivity.onCreate(Landroid/os/Bundle;)V",
          "target": "invokevirtual \u003c Application, Landroid/widget/Button, setOnClickListener(Landroid/view/View$OnClickListener;)V \u003e@452",
          "type": "activity",
          "component": "com.vee.project.browser.ui.activities.WeaveBookmarksListActivity"
        },
        {
          "start": "com.vee.project.browser.ui.activities.WeaveBookmarksListActivity$4.onClick(Landroid/view/View;)V",
          "target": "invokeinterface \u003c Application, Landroid/content/SharedPreferences$Editor, putLong(Ljava/lang/String;J)Landroid/content/SharedPreferences$Editor; \u003e@221",
          "type": "ui",
          "activities": [
            "com.vee.project.browser.ui.activities.WeaveBookmarksListActivity"
          ],
          "listener": "com.vee.project.browser.ui.activities.WeaveBookmarksListActivity$4",
          "listenerMethod": "onClick",
          "uiType": "onClick",
          "constraintsFile": "constraints16_0.py",
          "variables": {},
          "stringMap": {},
          "strings": {
            "IAAv0": ""
          }
        },
        {
          "start": "com.vee.project.browser.ui.activities.WeaveBookmarksListActivity$4.onClick(Landroid/view/View;)V",
          "target": "invokevirtual \u003c Application, Landroid/content/ContentResolver, delete(Landroid/net/Uri;Ljava/lang/String;[Ljava/lang/String;)I \u003e@49",
          "type": "ui",
          "activities": [
            "com.vee.project.browser.ui.activities.WeaveBookmarksListActivity"
          ],
          "listener": "com.vee.project.browser.ui.activities.WeaveBookmarksListActivity$4",
          "listenerMethod": "onClick",
          "uiType": "onClick",
          "constraintsFile": "constraints16_1.py",
          "variables": {
            "SharedPreferences\u003cPREFERENCE_WEAVE_LAST_SYNC_DATE\u003e": "IAAv2"
          },
          "stringMap": {},
          "strings": {
            "IAAv0": ""
          }
        }
      ]
    },
    "17": {
      "startMethod": "com.vee.project.browser.ui.activities.WeaveBookmarksListActivity$4.onClick(Landroid/view/View;)V",
      "targetMethod": "android.content.ContentResolver.delete(Landroid/net/Uri;Ljava/lang/String;[Ljava/lang/String;)I",
      "eventChain": [
        {
          "start": "com.vee.project.browser.ui.activities.WeaveBookmarksListActivity.onCreate(Landroid/os/Bundle;)V",
          "target": "invokevirtual \u003c Application, Landroid/widget/Button, setOnClickListener(Landroid/view/View$OnClickListener;)V \u003e@452",
          "type": "activity",
          "component": "com.vee.project.browser.ui.activities.WeaveBookmarksListActivity"
        },
        {
          "start": "com.vee.project.browser.ui.activities.WeaveBookmarksListActivity$4.onClick(Landroid/view/View;)V",
          "target": "invokeinterface \u003c Application, Landroid/content/SharedPreferences$Editor, putLong(Ljava/lang/String;J)Landroid/content/SharedPreferences$Editor; \u003e@221",
          "type": "ui",
          "activities": [
            "com.vee.project.browser.ui.activities.WeaveBookmarksListActivity"
          ],
          "listener": "com.vee.project.browser.ui.activities.WeaveBookmarksListActivity$4",
          "listenerMethod": "onClick",
          "uiType": "onClick",
          "constraintsFile": "constraints17_0.py",
          "variables": {},
          "stringMap": {},
          "strings": {
            "IAAv0": ""
          }
        },
        {
          "start": "com.vee.project.browser.ui.activities.WeaveBookmarksListActivity$4.onClick(Landroid/view/View;)V",
          "target": "invokevirtual \u003c Application, Landroid/content/ContentResolver, delete(Landroid/net/Uri;Ljava/lang/String;[Ljava/lang/String;)I \u003e@62",
          "type": "ui",
          "activities": [
            "com.vee.project.browser.ui.activities.WeaveBookmarksListActivity"
          ],
          "listener": "com.vee.project.browser.ui.activities.WeaveBookmarksListActivity$4",
          "listenerMethod": "onClick",
          "uiType": "onClick",
          "constraintsFile": "constraints17_1.py",
          "variables": {
            "SharedPreferences\u003cPREFERENCE_WEAVE_LAST_SYNC_DATE\u003e": "IAAv2"
          },
          "stringMap": {},
          "strings": {
            "IAAv0": ""
          }
        }
      ]
    },
    "18": {
      "startMethod": "com.vee.project.browser.ui.activities.WeaveBookmarksListActivity$4.onClick(Landroid/view/View;)V",
      "targetMethod": "android.content.ContentResolver.delete(Landroid/net/Uri;Ljava/lang/String;[Ljava/lang/String;)I",
      "eventChain": [
        {
          "start": "com.vee.project.browser.ui.activities.WeaveBookmarksListActivity.onCreate(Landroid/os/Bundle;)V",
          "target": "invokevirtual \u003c Application, Landroid/widget/Button, setOnClickListener(Landroid/view/View$OnClickListener;)V \u003e@452",
          "type": "activity",
          "component": "com.vee.project.browser.ui.activities.WeaveBookmarksListActivity"
        },
        {
          "start": "com.vee.project.browser.ui.activities.WeaveBookmarksListActivity$4.onClick(Landroid/view/View;)V",
          "target": "invokeinterface \u003c Application, Landroid/content/SharedPreferences$Editor, putLong(Ljava/lang/String;J)Landroid/content/SharedPreferences$Editor; \u003e@221",
          "type": "ui",
          "activities": [
            "com.vee.project.browser.ui.activities.WeaveBookmarksListActivity"
          ],
          "listener": "com.vee.project.browser.ui.activities.WeaveBookmarksListActivity$4",
          "listenerMethod": "onClick",
          "uiType": "onClick",
          "constraintsFile": "constraints18_0.py",
          "variables": {},
          "stringMap": {},
          "strings": {
            "IAAv0": ""
          }
        },
        {
          "start": "com.vee.project.browser.ui.activities.WeaveBookmarksListActivity$4.onClick(Landroid/view/View;)V",
          "target": "invokevirtual \u003c Application, Landroid/content/ContentResolver, delete(Landroid/net/Uri;Ljava/lang/String;[Ljava/lang/String;)I \u003e@11",
          "type": "ui",
          "activities": [
            "com.vee.project.browser.ui.activities.WeaveBookmarksListActivity"
          ],
          "listener": "com.vee.project.browser.ui.activities.WeaveBookmarksListActivity$4",
          "listenerMethod": "onClick",
          "uiType": "onClick",
          "constraintsFile": "constraints18_1.py",
          "variables": {
            "SharedPreferences\u003cPREFERENCE_WEAVE_LAST_SYNC_DATE\u003e": "IAAv2"
          },
          "stringMap": {},
          "strings": {
            "IAAv0": ""
          }
        }
      ]
    },
    "19": {
      "startMethod": "com.vee.project.browser.ui.activities.preferences.PreferencesActivity$10.onSharedPreferenceChanged(Landroid/content/SharedPreferences;Ljava/lang/String;)V",
      "targetMethod": "java.lang.reflect.Method.invoke(Ljava/lang/Object;[Ljava/lang/Object;)Ljava/lang/Object;",
      "eventChain": [
        {
          "start": "com.vee.project.browser.ui.activities.preferences.PreferencesActivity$10.onSharedPreferenceChanged(Landroid/content/SharedPreferences;Ljava/lang/String;)V",
          "target": "invokevirtual \u003c Application, Ljava/lang/reflect/Method, invoke(Ljava/lang/Object;[Ljava/lang/Object;)Ljava/lang/Object; \u003e@49",
          "type": "",
          "constraintsFile": "constraints19_0.py",
          "variables": {
            "SharedPreferences\u003cBrowserEnableProxySettings\u003e": "IAAv1"
          },
          "stringMap": {},
          "strings": {}
        }
      ]
    },
    "20": {
      "startMethod": "com.vee.project.browser.ui.activities.preferences.PreferencesActivity$10.onSharedPreferenceChanged(Landroid/content/SharedPreferences;Ljava/lang/String;)V",
      "targetMethod": "java.lang.reflect.Method.invoke(Ljava/lang/Object;[Ljava/lang/Object;)Ljava/lang/Object;",
      "eventChain": [
        {
          "start": "com.vee.project.browser.ui.activities.preferences.PreferencesActivity$10.onSharedPreferenceChanged(Landroid/content/SharedPreferences;Ljava/lang/String;)V",
          "target": "invokevirtual \u003c Application, Ljava/lang/reflect/Method, invoke(Ljava/lang/Object;[Ljava/lang/Object;)Ljava/lang/Object; \u003e@95",
          "type": "",
          "constraintsFile": "constraints20_0.py",
          "variables": {
            "SharedPreferences\u003cBrowserEnableProxySettings\u003e": "IAAv1"
          },
          "stringMap": {},
          "strings": {}
        }
      ]
    },
    "21": {
      "startMethod": "com.vee.project.browser.ui.activities.preferences.PreferencesActivity$10.onSharedPreferenceChanged(Landroid/content/SharedPreferences;Ljava/lang/String;)V",
      "targetMethod": "org.apache.http.impl.client.DefaultHttpClient.execute(Lorg/apache/http/client/methods/HttpUriRequest;)Lorg/apache/http/HttpResponse;",
      "eventChain": [
        {
          "start": "com.vee.project.browser.ui.activities.preferences.PreferencesActivity$10.onSharedPreferenceChanged(Landroid/content/SharedPreferences;Ljava/lang/String;)V",
          "target": "invokevirtual \u003c Application, Lorg/apache/http/impl/client/DefaultHttpClient, execute(Lorg/apache/http/client/methods/HttpUriRequest;)Lorg/apache/http/HttpResponse; \u003e@84",
          "type": "",
          "constraintsFile": "constraints21_0.py",
          "variables": {
            "SharedPreferences\u003cBrowserEnableProxySettings\u003e": "IAAv1"
          },
          "stringMap": {},
          "strings": {}
        }
      ]
    },
    "22": {
      "startMethod": "com.vee.project.browser.ui.activities.preferences.PreferencesActivity$18.onClick(Landroid/content/DialogInterface;I)V",
      "targetMethod": "android.content.ContentResolver.delete(Landroid/net/Uri;Ljava/lang/String;[Ljava/lang/String;)I",
      "eventChain": [
        {
          "start": "com.vee.project.browser.ui.activities.preferences.PreferencesActivity$8.onPreferenceClick(Landroid/preference/Preference;)Z",
          "target": "invokevirtual \u003c Application, Landroid/app/AlertDialog$Builder, setSingleChoiceItems([Ljava/lang/CharSequence;ILandroid/content/DialogInterface$OnClickListener;)Landroid/app/AlertDialog$Builder; \u003e@142",
          "type": ""
        },
        {
          "start": "com.vee.project.browser.ui.activities.preferences.PreferencesActivity$18.onClick(Landroid/content/DialogInterface;I)V",
          "target": "invokevirtual \u003c Application, Landroid/content/ContentResolver, delete(Landroid/net/Uri;Ljava/lang/String;[Ljava/lang/String;)I \u003e@253",
          "type": "ui",
          "activities": [
            "com.vee.project.fish.entrance.EntranceActivity"
          ],
          "listener": "com.vee.project.browser.ui.activities.preferences.PreferencesActivity$18",
          "listenerMethod": "onClick",
          "uiType": "onClick",
          "inDialog": "true",
          "constraintsFile": "constraints22_0.py",
          "variables": {},
          "stringMap": {},
          "strings": {}
        }
      ]
    }
  }
}