{
  "packageName": "com.cuponstar.ranclub",
  "mainActivity": "com.cuponstar.ranclub.SplashLoginActivity",
  "callPaths": {
    "0": {
      "startMethod": "com.cuponstar.ranclub.CouponsByCategoryLocationActivity.onCreate(Landroid/os/Bundle;)V",
      "targetMethod": "java.net.URL.openConnection()Ljava/net/URLConnection;",
      "eventChain": [
        {
          "start": "com.cuponstar.ranclub.CouponsByCategoryLocationActivity.\u003cinit\u003e()V",
          "target": "PC@54",
          "type": "",
          "constraintsFile": "constraints0_0.py",
          "variables": {
            "\u003cUI\u003e.setVisibility().animateFirstListener": "IAAv1",
            "\u003cUI\u003e.setVisibility().options": "IAAv0"
          },
          "stringMap": {
            "7000": "\u003cUI\u003e"
          },
          "strings": {}
        },
        {
          "start": "com.cuponstar.ranclub.CouponsByCategoryLocationActivity.onCreate(Landroid/os/Bundle;)V",
          "target": "invokevirtual \u003c Application, Ljava/net/URL, openConnection()Ljava/net/URLConnection; \u003e@25",
          "type": "activity",
          "component": "com.cuponstar.ranclub.CouponsByCategoryLocationActivity",
          "constraintsFile": "constraints0_1.py",
          "variables": {
            "\u003cUI\u003e.setVisibility().animateFirstListener": "IAAv2",
            "\u003cUI\u003e.setVisibility().options": "IAAv1"
          },
          "stringMap": {
            "7000": "\u003cUI\u003e"
          },
          "strings": {}
        }
      ]
    },
    "1": {
      "startMethod": "com.cuponstar.ranclub.LocationOfficeListActivity.onResume()V",
      "targetMethod": "org.apache.http.impl.client.DefaultHttpClient.execute(Lorg/apache/http/client/methods/HttpUriRequest;)Lorg/apache/http/HttpResponse;",
      "eventChain": [
        {
          "start": "com.cuponstar.ranclub.LocationOfficeListActivity.onResume()V",
          "target": "invokevirtual \u003c Application, Lorg/apache/http/impl/client/DefaultHttpClient, execute(Lorg/apache/http/client/methods/HttpUriRequest;)Lorg/apache/http/HttpResponse; \u003e@57",
          "type": "activity",
          "component": "com.cuponstar.ranclub.LocationOfficeListActivity",
          "constraintsFile": "constraints1_0.py",
          "variables": {},
          "stringMap": {},
          "strings": {}
        }
      ]
    },
    "2": {
      "startMethod": "com.cuponstar.ranclub.SplashLoginActivity.onCreate(Landroid/os/Bundle;)V",
      "targetMethod": "org.apache.http.impl.client.DefaultHttpClient.execute(Lorg/apache/http/client/methods/HttpUriRequest;)Lorg/apache/http/HttpResponse;",
      "eventChain": [
        {
          "start": "com.cuponstar.ranclub.SplashLoginActivity.onCreate(Landroid/os/Bundle;)V",
          "target": "invokevirtual \u003c Application, Lorg/apache/http/impl/client/DefaultHttpClient, execute(Lorg/apache/http/client/methods/HttpUriRequest;)Lorg/apache/http/HttpResponse; \u003e@57",
          "type": "activity",
          "component": "com.cuponstar.ranclub.SplashLoginActivity"
        }
      ]
    },
    "3": {
      "startMethod": "com.google.android.gms.maps.MapFragment.onResume()V",
      "targetMethod": "java.lang.ClassLoader.loadClass(Ljava/lang/String;)Ljava/lang/Class;",
      "eventChain": [
        {
          "start": "com.google.android.gms.maps.MapFragment.onResume()V",
          "target": "invokevirtual \u003c Application, Ljava/lang/ClassLoader, loadClass(Ljava/lang/String;)Ljava/lang/Class; \u003e@13",
          "type": "",
          "constraintsFile": "constraints3_0.py",
          "variables": {},
          "stringMap": {},
          "strings": {}
        }
      ]
    },
    "4": {
      "startMethod": "com.google.android.gms.maps.MapFragment.onCreate(Landroid/os/Bundle;)V",
      "targetMethod": "java.lang.ClassLoader.loadClass(Ljava/lang/String;)Ljava/lang/Class;",
      "eventChain": [
        {
          "start": "com.google.android.gms.maps.MapFragment.onCreate(Landroid/os/Bundle;)V",
          "target": "invokevirtual \u003c Application, Ljava/lang/ClassLoader, loadClass(Ljava/lang/String;)Ljava/lang/Class; \u003e@13",
          "type": "",
          "constraintsFile": "constraints4_0.py",
          "variables": {
            "\u003cChainedInput1\u003e": "IAAv2"
          },
          "stringMap": {},
          "strings": {}
        }
      ]
    },
    "5": {
      "startMethod": "com.cuponstar.ranclub.LocationOfficeListActivity.onCreate(Landroid/os/Bundle;)V",
      "targetMethod": "java.net.URL.openConnection()Ljava/net/URLConnection;",
      "eventChain": [
        {
          "start": "com.cuponstar.ranclub.LocationOfficeListActivity.onCreate(Landroid/os/Bundle;)V",
          "target": "invokevirtual \u003c Application, Ljava/net/URL, openConnection()Ljava/net/URLConnection; \u003e@25",
          "type": "activity",
          "component": "com.cuponstar.ranclub.LocationOfficeListActivity",
          "constraintsFile": "constraints5_0.py",
          "variables": {
            "\u003cUI\u003e.setVisibility().animateFirstListener": "IAAv1",
            "\u003cUI\u003e.setVisibility().options": "IAAv0"
          },
          "stringMap": {
            "7000": "\u003cUI\u003e"
          },
          "strings": {}
        }
      ]
    },
    "6": {
      "startMethod": "com.google.android.gms.maps.MapFragment.onAttach(Landroid/app/Activity;)V",
      "targetMethod": "java.lang.ClassLoader.loadClass(Ljava/lang/String;)Ljava/lang/Class;",
      "eventChain": [
        {
          "start": "com.google.android.gms.maps.MapFragment.onAttach(Landroid/app/Activity;)V",
          "target": "invokevirtual \u003c Application, Ljava/lang/ClassLoader, loadClass(Ljava/lang/String;)Ljava/lang/Class; \u003e@13",
          "type": "",
          "constraintsFile": "constraints6_0.py",
          "variables": {},
          "stringMap": {},
          "strings": {}
        }
      ]
    },
    "7": {
      "startMethod": "com.cuponstar.ranclub.CouponsByCategoryLocationActivity.onResume()V",
      "targetMethod": "org.apache.http.impl.client.DefaultHttpClient.execute(Lorg/apache/http/client/methods/HttpUriRequest;)Lorg/apache/http/HttpResponse;",
      "eventChain": [
        {
          "start": "com.cuponstar.ranclub.CouponsByCategoryLocationActivity.\u003cinit\u003e()V",
          "target": "PC@26",
          "type": "",
          "constraintsFile": "constraints7_0.py",
          "variables": {},
          "stringMap": {},
          "strings": {
            "IAAv4": "",
            "IAAv8": "",
            "IAAv7": "",
            "IAAv6": ""
          }
        },
        {
          "start": "com.cuponstar.ranclub.CouponsByCategoryLocationActivity.onResume()V",
          "target": "invokevirtual \u003c Application, Lorg/apache/http/impl/client/DefaultHttpClient, execute(Lorg/apache/http/client/methods/HttpUriRequest;)Lorg/apache/http/HttpResponse; \u003e@57",
          "type": "activity",
          "component": "com.cuponstar.ranclub.CouponsByCategoryLocationActivity",
          "constraintsFile": "constraints7_1.py",
          "variables": {},
          "stringMap": {},
          "strings": {
            "IAAv10": "",
            "IAAv9": "",
            "IAAv8": "",
            "IAAv6": ""
          }
        }
      ]
    },
    "8": {
      "startMethod": "com.cuponstar.ranclub.DetailCouponActivity.onResume()V",
      "targetMethod": "org.apache.http.impl.client.DefaultHttpClient.execute(Lorg/apache/http/client/methods/HttpUriRequest;)Lorg/apache/http/HttpResponse;",
      "eventChain": [
        {
          "start": "com.cuponstar.ranclub.DetailCouponActivity.onCreate(Landroid/os/Bundle;)V",
          "target": "PC@100",
          "type": "activity",
          "component": "com.cuponstar.ranclub.DetailCouponActivity"
        },
        {
          "start": "com.cuponstar.ranclub.DetailCouponActivity.onResume()V",
          "target": "invokevirtual \u003c Application, Lorg/apache/http/impl/client/DefaultHttpClient, execute(Lorg/apache/http/client/methods/HttpUriRequest;)Lorg/apache/http/HttpResponse; \u003e@57",
          "type": "activity",
          "component": "com.cuponstar.ranclub.DetailCouponActivity",
          "constraintsFile": "constraints8_0.py",
          "variables": {},
          "stringMap": {},
          "strings": {}
        }
      ]
    },
    "9": {
      "startMethod": "com.cuponstar.ranclub.DetailCouponActivity.onCreate(Landroid/os/Bundle;)V",
      "targetMethod": "java.net.URL.openConnection()Ljava/net/URLConnection;",
      "eventChain": [
        {
          "start": "com.cuponstar.ranclub.DetailCouponActivity.onCreate(Landroid/os/Bundle;)V",
          "target": "",
          "type": "activity",
          "component": "com.cuponstar.ranclub.DetailCouponActivity",
          "constraintsFile": "constraints9_0.py",
          "variables": {},
          "stringMap": {},
          "strings": {}
        },
        {
          "start": "com.cuponstar.ranclub.DetailCouponActivity.onCreate(Landroid/os/Bundle;)V",
          "target": "invokevirtual \u003c Application, Ljava/net/URL, openConnection()Ljava/net/URLConnection; \u003e@25",
          "type": "activity",
          "component": "com.cuponstar.ranclub.DetailCouponActivity",
          "constraintsFile": "constraints9_1.py",
          "variables": {},
          "stringMap": {},
          "strings": {}
        }
      ]
    },
    "10": {
      "startMethod": "com.cuponstar.ranclub.MainActivity.onCreate(Landroid/os/Bundle;)V",
      "targetMethod": "java.net.URL.openConnection()Ljava/net/URLConnection;",
      "eventChain": [
        {
          "start": "com.cuponstar.ranclub.MainActivity.onCreate(Landroid/os/Bundle;)V",
          "target": "",
          "type": "activity",
          "component": "com.cuponstar.ranclub.MainActivity",
          "constraintsFile": "constraints10_0.py",
          "variables": {},
          "stringMap": {},
          "strings": {}
        },
        {
          "start": "com.cuponstar.ranclub.MainActivity.onCreate(Landroid/os/Bundle;)V",
          "target": "PC@78",
          "type": "activity",
          "component": "com.cuponstar.ranclub.MainActivity",
          "constraintsFile": "constraints10_1.py",
          "variables": {},
          "stringMap": {},
          "strings": {}
        },
        {
          "start": "com.cuponstar.ranclub.MainActivity.onCreate(Landroid/os/Bundle;)V",
          "target": "invokevirtual \u003c Application, Ljava/net/URL, openConnection()Ljava/net/URLConnection; \u003e@25",
          "type": "activity",
          "component": "com.cuponstar.ranclub.MainActivity",
          "constraintsFile": "constraints10_2.py",
          "variables": {},
          "stringMap": {
            "7000": "\u003cUI\u003e"
          },
          "strings": {}
        }
      ]
    },
    "11": {
      "startMethod": "com.google.android.gms.maps.MapFragment.onCreateView(Landroid/view/LayoutInflater;Landroid/view/ViewGroup;Landroid/os/Bundle;)Landroid/view/View;",
      "targetMethod": "java.lang.ClassLoader.loadClass(Ljava/lang/String;)Ljava/lang/Class;",
      "eventChain": [
        {
          "start": "com.google.android.gms.maps.MapFragment.onCreateView(Landroid/view/LayoutInflater;Landroid/view/ViewGroup;Landroid/os/Bundle;)Landroid/view/View;",
          "target": "invokevirtual \u003c Application, Ljava/lang/ClassLoader, loadClass(Ljava/lang/String;)Ljava/lang/Class; \u003e@13",
          "type": "",
          "constraintsFile": "constraints11_0.py",
          "variables": {
            "\u003cChainedInput3\u003e": "IAAv2"
          },
          "stringMap": {},
          "strings": {}
        }
      ]
    },
    "12": {
      "startMethod": "com.cuponstar.ranclub.notification.GCMBroadcastReceiver.onReceive(Landroid/content/Context;Landroid/content/Intent;)V",
      "targetMethod": "org.apache.http.impl.client.DefaultHttpClient.execute(Lorg/apache/http/client/methods/HttpUriRequest;)Lorg/apache/http/HttpResponse;",
      "eventChain": [
        {
          "start": "com.cuponstar.ranclub.notification.GCMBroadcastReceiver.onReceive(Landroid/content/Context;Landroid/content/Intent;)V",
          "target": "invokevirtual \u003c Application, Lcom/cuponstar/ranclub/notification/GCMBroadcastReceiver, setResultCode(I)V \u003e@233",
          "type": "sms",
          "constraintsFile": "constraints12_0.py",
          "variables": {
            "\u003cChainedInput2\u003e.getStringExtra()": "IAAv0"
          },
          "stringMap": {},
          "strings": {
            "IAAv0": ""
          }
        },
        {
          "start": "com.cuponstar.ranclub.LocationOfficeListActivity.onResume()V",
          "target": "PC@3",
          "type": "activity",
          "component": "com.cuponstar.ranclub.LocationOfficeListActivity",
          "constraintsFile": "constraints12_1.py",
          "variables": {},
          "stringMap": {},
          "strings": {}
        },
        {
          "start": "com.cuponstar.ranclub.notification.GCMBroadcastReceiver.onReceive(Landroid/content/Context;Landroid/content/Intent;)V",
          "target": "invokevirtual \u003c Application, Lorg/apache/http/impl/client/DefaultHttpClient, execute(Lorg/apache/http/client/methods/HttpUriRequest;)Lorg/apache/http/HttpResponse; \u003e@57",
          "type": "sms",
          "constraintsFile": "constraints12_2.py",
          "variables": {
            "\u003cChainedInput1\u003e.getInstance().getSplashLoginActivity().getInstance().getDate()": "IAAv6",
            "\u003cChainedInput1\u003e.getInstance().getSplashLoginActivity().getApplicationContext().getInstance().isRegistered()": "IAAv8",
            "\u003cChainedInput1\u003e.getInstance().getSplashLoginActivity().getInstance().getUserData().getSex()": "IAAv10",
            "\u003cChainedInput2\u003e.getStringExtra()": "IAAv0",
            "\u003cChainedInput1\u003e.getInstance().getSplashLoginActivity()": "IAAv1",
            "\u003cChainedInput1\u003e.getInstance().getSplashLoginActivity().getInstance().context.checkInternetConnection()": "IAAv9",
            "\u003cChainedInput1\u003e.getInstance().getSplashLoginActivity().pDialog": "IAAv2",
            "\u003cChainedInput1\u003e.getInstance().getSplashLoginActivity().getInstance().getUserData().getDoc()": "IAAv3",
            "\u003cChainedInput1\u003e.getInstance().getSplashLoginActivity().today()": "IAAv5"
          },
          "stringMap": {
            "7000": "",
            "7001": "femenino"
          },
          "strings": {
            "IAAv3": "",
            "IAAv0": "",
            "IAAv10": "",
            "IAAv6": "",
            "IAAv5": ""
          }
        }
      ]
    },
    "13": {
      "startMethod": "com.cuponstar.ranclub.MapOfficeActivity.onResume()V",
      "targetMethod": "org.apache.http.impl.client.DefaultHttpClient.execute(Lorg/apache/http/client/methods/HttpUriRequest;)Lorg/apache/http/HttpResponse;",
      "eventChain": [
        {
          "start": "com.cuponstar.ranclub.MapOfficeActivity.onCreate(Landroid/os/Bundle;)V",
          "target": "PC@33",
          "type": "activity",
          "component": "com.cuponstar.ranclub.MapOfficeActivity"
        },
        {
          "start": "com.cuponstar.ranclub.MapOfficeActivity.\u003cinit\u003e()V",
          "target": "PC@14",
          "type": "",
          "constraintsFile": "constraints13_0.py",
          "variables": {},
          "stringMap": {},
          "strings": {}
        },
        {
          "start": "com.cuponstar.ranclub.MapOfficeActivity.onResume()V",
          "target": "invokevirtual \u003c Application, Lorg/apache/http/impl/client/DefaultHttpClient, execute(Lorg/apache/http/client/methods/HttpUriRequest;)Lorg/apache/http/HttpResponse; \u003e@57",
          "type": "activity",
          "component": "com.cuponstar.ranclub.MapOfficeActivity",
          "constraintsFile": "constraints13_1.py",
          "variables": {},
          "stringMap": {},
          "strings": {}
        }
      ]
    },
    "14": {
      "startMethod": "com.cuponstar.ranclub.fragments.BenefitsCategoryFragment$2.onClick(Landroid/view/View;)V",
      "targetMethod": "org.apache.http.impl.client.DefaultHttpClient.execute(Lorg/apache/http/client/methods/HttpUriRequest;)Lorg/apache/http/HttpResponse;",
      "eventChain": [
        {
          "start": "com.cuponstar.ranclub.fragments.BenefitsCategoryFragment$2.onClick(Landroid/view/View;)V",
          "target": "invokevirtual \u003c Application, Lorg/apache/http/impl/client/DefaultHttpClient, execute(Lorg/apache/http/client/methods/HttpUriRequest;)Lorg/apache/http/HttpResponse; \u003e@57",
          "type": "ui",
          "activities": [
            "com.cuponstar.ranclub.SplashLoginActivity"
          ],
          "listener": "com.cuponstar.ranclub.fragments.BenefitsCategoryFragment$2",
          "listenerMethod": "onClick",
          "uiType": "onClick",
          "constraintsFile": "constraints14_0.py",
          "variables": {},
          "stringMap": {},
          "strings": {}
        }
      ]
    },
    "15": {
      "startMethod": "com.cuponstar.ranclub.fragments.SMSLoginFragment$3.onClick(Landroid/view/View;)V",
      "targetMethod": "org.apache.http.impl.client.DefaultHttpClient.execute(Lorg/apache/http/client/methods/HttpUriRequest;)Lorg/apache/http/HttpResponse;",
      "eventChain": [
        {
          "start": "com.cuponstar.ranclub.LocationOfficeListActivity.onResume()V",
          "target": "PC@3",
          "type": "activity",
          "component": "com.cuponstar.ranclub.LocationOfficeListActivity",
          "constraintsFile": "constraints15_0.py",
          "variables": {},
          "stringMap": {},
          "strings": {}
        },
        {
          "start": "com.cuponstar.ranclub.fragments.SMSLoginFragment$3.onClick(Landroid/view/View;)V",
          "target": "invokevirtual \u003c Application, Lorg/apache/http/impl/client/DefaultHttpClient, execute(Lorg/apache/http/client/methods/HttpUriRequest;)Lorg/apache/http/HttpResponse; \u003e@57",
          "type": "ui",
          "activities": [
            "com.cuponstar.ranclub.SplashLoginActivity"
          ],
          "listener": "com.cuponstar.ranclub.fragments.SMSLoginFragment$3",
          "listenerMethod": "onClick",
          "uiType": "onClick",
          "constraintsFile": "constraints15_1.py",
          "variables": {},
          "stringMap": {},
          "strings": {
            "IAAv3": "",
            "IAAv2": "",
            "IAAv7": ""
          }
        }
      ]
    },
    "16": {
      "startMethod": "com.cuponstar.ranclub.CouponsByCategoryLocationActivity$1.onClick(Landroid/view/View;)V",
      "targetMethod": "org.apache.http.impl.client.DefaultHttpClient.execute(Lorg/apache/http/client/methods/HttpUriRequest;)Lorg/apache/http/HttpResponse;",
      "eventChain": [
        {
          "start": "com.cuponstar.ranclub.CouponsByCategoryLocationActivity$1.onClick(Landroid/view/View;)V",
          "target": "invokevirtual \u003c Application, Lorg/apache/http/impl/client/DefaultHttpClient, execute(Lorg/apache/http/client/methods/HttpUriRequest;)Lorg/apache/http/HttpResponse; \u003e@57",
          "type": "ui",
          "activities": [
            "com.cuponstar.ranclub.SplashLoginActivity"
          ],
          "listener": "com.cuponstar.ranclub.CouponsByCategoryLocationActivity$1",
          "listenerMethod": "onClick",
          "uiType": "onClick",
          "constraintsFile": "constraints16_0.py",
          "variables": {},
          "stringMap": {},
          "strings": {}
        }
      ]
    },
    "17": {
      "startMethod": "com.cuponstar.ranclub.fragments.CouponsUsedFragment$1.onClick(Landroid/view/View;)V",
      "targetMethod": "org.apache.http.impl.client.DefaultHttpClient.execute(Lorg/apache/http/client/methods/HttpUriRequest;)Lorg/apache/http/HttpResponse;",
      "eventChain": [
        {
          "start": "com.cuponstar.ranclub.fragments.CouponsUsedFragment$1.onClick(Landroid/view/View;)V",
          "target": "invokevirtual \u003c Application, Lorg/apache/http/impl/client/DefaultHttpClient, execute(Lorg/apache/http/client/methods/HttpUriRequest;)Lorg/apache/http/HttpResponse; \u003e@57",
          "type": "ui",
          "activities": [
            "com.cuponstar.ranclub.SplashLoginActivity"
          ],
          "listener": "com.cuponstar.ranclub.fragments.CouponsUsedFragment$1",
          "listenerMethod": "onClick",
          "uiType": "onClick",
          "constraintsFile": "constraints17_0.py",
          "variables": {},
          "stringMap": {},
          "strings": {}
        }
      ]
    },
    "18": {
      "startMethod": "com.cuponstar.ranclub.dialog.ConfirmBenefitsDialog.onClick(Landroid/view/View;)V",
      "targetMethod": "org.apache.http.impl.client.DefaultHttpClient.execute(Lorg/apache/http/client/methods/HttpUriRequest;)Lorg/apache/http/HttpResponse;",
      "eventChain": [
        {
          "start": "com.cuponstar.ranclub.DetailCouponActivity.onClick(Landroid/view/View;)V",
          "target": "invokevirtual \u003c Application, Landroid/view/View, setOnClickListener(Landroid/view/View$OnClickListener;)V \u003e@29",
          "type": "ui",
          "activities": [
            "com.cuponstar.ranclub.DetailCouponActivity"
          ],
          "listener": "com.cuponstar.ranclub.DetailCouponActivity",
          "listenerMethod": "onClick",
          "uiType": "onClick",
          "constraintsFile": "constraints18_0.py",
          "variables": {
            "\u003cInput1\u003e.getId()": "IAAv0"
          },
          "stringMap": {},
          "strings": {}
        },
        {
          "start": "com.cuponstar.ranclub.dialog.ConfirmBenefitsDialog.onClick(Landroid/view/View;)V",
          "target": "invokevirtual \u003c Application, Lorg/apache/http/impl/client/DefaultHttpClient, execute(Lorg/apache/http/client/methods/HttpUriRequest;)Lorg/apache/http/HttpResponse; \u003e@57",
          "type": "ui",
          "activities": [
            "com.cuponstar.ranclub.SplashLoginActivity"
          ],
          "listener": "com.cuponstar.ranclub.dialog.ConfirmBenefitsDialog",
          "listenerMethod": "onClick",
          "uiType": "onClick",
          "constraintsFile": "constraints18_1.py",
          "variables": {
            "\u003cChainedInput1\u003e.getId()": "IAAv0"
          },
          "stringMap": {},
          "strings": {}
        }
      ]
    },
    "19": {
      "startMethod": "com.cuponstar.ranclub.fragments.PhoneNumberLoginFragment$3.onClick(Landroid/view/View;)V",
      "targetMethod": "org.apache.http.impl.client.DefaultHttpClient.execute(Lorg/apache/http/client/methods/HttpUriRequest;)Lorg/apache/http/HttpResponse;",
      "eventChain": [
        {
          "start": "com.cuponstar.ranclub.fragments.PhoneNumberLoginFragment$3.onClick(Landroid/view/View;)V",
          "target": "invokevirtual \u003c Application, Lorg/apache/http/impl/client/DefaultHttpClient, execute(Lorg/apache/http/client/methods/HttpUriRequest;)Lorg/apache/http/HttpResponse; \u003e@57",
          "type": "ui",
          "activities": [
            "com.cuponstar.ranclub.SplashLoginActivity"
          ],
          "listener": "com.cuponstar.ranclub.fragments.PhoneNumberLoginFragment$3",
          "listenerMethod": "onClick",
          "uiType": "onClick",
          "constraintsFile": "constraints19_0.py",
          "variables": {},
          "stringMap": {
            "7000": "",
            "7001": "femenino"
          },
          "strings": {}
        }
      ]
    },
    "20": {
      "startMethod": "com.cuponstar.ranclub.CouponsByCategoryLocationActivity$4$1.onClick(Landroid/view/View;)V",
      "targetMethod": "org.apache.http.impl.client.DefaultHttpClient.execute(Lorg/apache/http/client/methods/HttpUriRequest;)Lorg/apache/http/HttpResponse;",
      "eventChain": [
        {
          "start": "com.cuponstar.ranclub.CouponsByCategoryLocationActivity.onResume()V",
          "target": "invokevirtual \u003c Application, Landroid/view/View, setOnClickListener(Landroid/view/View$OnClickListener;)V \u003e@236",
          "type": "activity",
          "component": "com.cuponstar.ranclub.CouponsByCategoryLocationActivity",
          "constraintsFile": "constraints20_0.py",
          "variables": {},
          "stringMap": {},
          "strings": {}
        },
        {
          "start": "com.cuponstar.ranclub.CouponsByCategoryLocationActivity$4$1.onClick(Landroid/view/View;)V",
          "target": "invokevirtual \u003c Application, Lorg/apache/http/impl/client/DefaultHttpClient, execute(Lorg/apache/http/client/methods/HttpUriRequest;)Lorg/apache/http/HttpResponse; \u003e@57",
          "type": "ui",
          "activities": [
            "com.cuponstar.ranclub.SplashLoginActivity"
          ],
          "listener": "com.cuponstar.ranclub.CouponsByCategoryLocationActivity$4$1",
          "listenerMethod": "onClick",
          "uiType": "onClick",
          "constraintsFile": "constraints20_1.py",
          "variables": {},
          "stringMap": {},
          "strings": {
            "IAAv9": "",
            "IAAv8": "",
            "IAAv7": "",
            "IAAv5": ""
          }
        }
      ]
    },
    "21": {
      "startMethod": "com.cuponstar.ranclub.fragments.ProfileFragment$2.onClick(Landroid/view/View;)V",
      "targetMethod": "org.apache.http.impl.client.DefaultHttpClient.execute(Lorg/apache/http/client/methods/HttpUriRequest;)Lorg/apache/http/HttpResponse;",
      "eventChain": [
        {
          "start": "com.cuponstar.ranclub.LocationOfficeListActivity.onResume()V",
          "target": "PC@3",
          "type": "activity",
          "component": "com.cuponstar.ranclub.LocationOfficeListActivity",
          "constraintsFile": "constraints21_0.py",
          "variables": {},
          "stringMap": {},
          "strings": {}
        },
        {
          "start": "com.cuponstar.ranclub.fragments.ProfileFragment$2.onClick(Landroid/view/View;)V",
          "target": "invokevirtual \u003c Application, Lorg/apache/http/impl/client/DefaultHttpClient, execute(Lorg/apache/http/client/methods/HttpUriRequest;)Lorg/apache/http/HttpResponse; \u003e@57",
          "type": "ui",
          "activities": [
            "com.cuponstar.ranclub.SplashLoginActivity"
          ],
          "listener": "com.cuponstar.ranclub.fragments.ProfileFragment$2",
          "listenerMethod": "onClick",
          "uiType": "onClick",
          "constraintsFile": "constraints21_1.py",
          "variables": {},
          "stringMap": {},
          "strings": {
            "IAAv3": "",
            "IAAv0": "",
            "IAAv10": "",
            "IAAv6": ""
          }
        }
      ]
    },
    "22": {
      "startMethod": "com.cuponstar.ranclub.fragments.BenefitsZoneFragment$2.onClick(Landroid/view/View;)V",
      "targetMethod": "org.apache.http.impl.client.DefaultHttpClient.execute(Lorg/apache/http/client/methods/HttpUriRequest;)Lorg/apache/http/HttpResponse;",
      "eventChain": [
        {
          "start": "com.cuponstar.ranclub.fragments.BenefitsZoneFragment$2.onClick(Landroid/view/View;)V",
          "target": "invokevirtual \u003c Application, Lorg/apache/http/impl/client/DefaultHttpClient, execute(Lorg/apache/http/client/methods/HttpUriRequest;)Lorg/apache/http/HttpResponse; \u003e@57",
          "type": "ui",
          "activities": [
            "com.cuponstar.ranclub.SplashLoginActivity"
          ],
          "listener": "com.cuponstar.ranclub.fragments.BenefitsZoneFragment$2",
          "listenerMethod": "onClick",
          "uiType": "onClick",
          "constraintsFile": "constraints22_0.py",
          "variables": {},
          "stringMap": {},
          "strings": {}
        }
      ]
    },
    "23": {
      "startMethod": "com.cuponstar.ranclub.fragments.MainBenefitsFragment$2.onClick(Landroid/view/View;)V",
      "targetMethod": "org.apache.http.impl.client.DefaultHttpClient.execute(Lorg/apache/http/client/methods/HttpUriRequest;)Lorg/apache/http/HttpResponse;",
      "eventChain": [
        {
          "start": "com.cuponstar.ranclub.fragments.MainBenefitsFragment$2.onClick(Landroid/view/View;)V",
          "target": "invokevirtual \u003c Application, Lorg/apache/http/impl/client/DefaultHttpClient, execute(Lorg/apache/http/client/methods/HttpUriRequest;)Lorg/apache/http/HttpResponse; \u003e@57",
          "type": "ui",
          "activities": [
            "com.cuponstar.ranclub.SplashLoginActivity"
          ],
          "listener": "com.cuponstar.ranclub.fragments.MainBenefitsFragment$2",
          "listenerMethod": "onClick",
          "uiType": "onClick",
          "constraintsFile": "constraints23_0.py",
          "variables": {},
          "stringMap": {},
          "strings": {}
        }
      ]
    },
    "24": {
      "startMethod": "com.cuponstar.ranclub.dialog.FilterDialog$3.onClick(Landroid/view/View;)V",
      "targetMethod": "org.apache.http.impl.client.DefaultHttpClient.execute(Lorg/apache/http/client/methods/HttpUriRequest;)Lorg/apache/http/HttpResponse;",
      "eventChain": [
        {
          "start": "com.cuponstar.ranclub.CouponsByCategoryLocationActivity.onCreate(Landroid/os/Bundle;)V",
          "target": "invokevirtual \u003c Application, Landroid/widget/TextView, setOnClickListener(Landroid/view/View$OnClickListener;)V \u003e@100",
          "type": "activity",
          "component": "com.cuponstar.ranclub.CouponsByCategoryLocationActivity"
        },
        {
          "start": "com.cuponstar.ranclub.dialog.FilterDialog$3.onClick(Landroid/view/View;)V",
          "target": "invokevirtual \u003c Application, Lorg/apache/http/impl/client/DefaultHttpClient, execute(Lorg/apache/http/client/methods/HttpUriRequest;)Lorg/apache/http/HttpResponse; \u003e@57",
          "type": "ui",
          "activities": [
            "com.cuponstar.ranclub.SplashLoginActivity"
          ],
          "listener": "com.cuponstar.ranclub.dialog.FilterDialog$3",
          "listenerMethod": "onClick",
          "uiType": "onClick",
          "constraintsFile": "constraints24_0.py",
          "variables": {},
          "stringMap": {},
          "strings": {
            "IAAv4": "",
            "IAAv8": "",
            "IAAv7": "",
            "IAAv6": ""
          }
        }
      ]
    },
    "25": {
      "startMethod": "com.cuponstar.ranclub.fragments.QuestionFragment$2.onClick(Landroid/view/View;)V",
      "targetMethod": "org.apache.http.impl.client.DefaultHttpClient.execute(Lorg/apache/http/client/methods/HttpUriRequest;)Lorg/apache/http/HttpResponse;",
      "eventChain": [
        {
          "start": "com.cuponstar.ranclub.fragments.QuestionFragment$2.onClick(Landroid/view/View;)V",
          "target": "invokevirtual \u003c Application, Lorg/apache/http/impl/client/DefaultHttpClient, execute(Lorg/apache/http/client/methods/HttpUriRequest;)Lorg/apache/http/HttpResponse; \u003e@57",
          "type": "ui",
          "activities": [
            "com.cuponstar.ranclub.SplashLoginActivity"
          ],
          "listener": "com.cuponstar.ranclub.fragments.QuestionFragment$2",
          "listenerMethod": "onClick",
          "uiType": "onClick",
          "constraintsFile": "constraints25_0.py",
          "variables": {},
          "stringMap": {},
          "strings": {}
        }
      ]
    },
    "26": {
      "startMethod": "com.cuponstar.ranclub.fragments.DniLoginFragment$2.onClick(Landroid/view/View;)V",
      "targetMethod": "org.apache.http.impl.client.DefaultHttpClient.execute(Lorg/apache/http/client/methods/HttpUriRequest;)Lorg/apache/http/HttpResponse;",
      "eventChain": [
        {
          "start": "com.cuponstar.ranclub.fragments.DniLoginFragment$2.onClick(Landroid/view/View;)V",
          "target": "invokevirtual \u003c Application, Lorg/apache/http/impl/client/DefaultHttpClient, execute(Lorg/apache/http/client/methods/HttpUriRequest;)Lorg/apache/http/HttpResponse; \u003e@57",
          "type": "ui",
          "activities": [
            "com.cuponstar.ranclub.SplashLoginActivity"
          ],
          "listener": "com.cuponstar.ranclub.fragments.DniLoginFragment$2",
          "listenerMethod": "onClick",
          "uiType": "onClick",
          "constraintsFile": "constraints26_0.py",
          "variables": {},
          "stringMap": {
            "7000": ""
          },
          "strings": {}
        }
      ]
    },
    "27": {
      "startMethod": "com.cuponstar.ranclub.fragments.ProfileFragment$3.onClick(Landroid/view/View;)V",
      "targetMethod": "org.apache.http.impl.client.DefaultHttpClient.execute(Lorg/apache/http/client/methods/HttpUriRequest;)Lorg/apache/http/HttpResponse;",
      "eventChain": [
        {
          "start": "com.cuponstar.ranclub.LocationOfficeListActivity.onResume()V",
          "target": "PC@3",
          "type": "activity",
          "component": "com.cuponstar.ranclub.LocationOfficeListActivity",
          "constraintsFile": "constraints27_0.py",
          "variables": {},
          "stringMap": {},
          "strings": {}
        },
        {
          "start": "com.cuponstar.ranclub.fragments.ProfileFragment$3.onClick(Landroid/view/View;)V",
          "target": "invokevirtual \u003c Application, Lorg/apache/http/impl/client/DefaultHttpClient, execute(Lorg/apache/http/client/methods/HttpUriRequest;)Lorg/apache/http/HttpResponse; \u003e@57",
          "type": "ui",
          "activities": [
            "com.cuponstar.ranclub.SplashLoginActivity"
          ],
          "listener": "com.cuponstar.ranclub.fragments.ProfileFragment$3",
          "listenerMethod": "onClick",
          "uiType": "onClick",
          "constraintsFile": "constraints27_1.py",
          "variables": {},
          "stringMap": {},
          "strings": {
            "IAAv3": "",
            "IAAv0": "",
            "IAAv10": "",
            "IAAv6": ""
          }
        }
      ]
    },
    "28": {
      "startMethod": "com.cuponstar.ranclub.dialog.SmsDialog$5.onClick(Landroid/view/View;)V",
      "targetMethod": "org.apache.http.impl.client.DefaultHttpClient.execute(Lorg/apache/http/client/methods/HttpUriRequest;)Lorg/apache/http/HttpResponse;",
      "eventChain": [
        {
          "start": "com.cuponstar.ranclub.LocationOfficeListActivity.onResume()V",
          "target": "PC@3",
          "type": "activity",
          "component": "com.cuponstar.ranclub.LocationOfficeListActivity",
          "constraintsFile": "constraints28_0.py",
          "variables": {},
          "stringMap": {},
          "strings": {}
        },
        {
          "start": "com.cuponstar.ranclub.dialog.SmsDialog$5.onClick(Landroid/view/View;)V",
          "target": "invokevirtual \u003c Application, Lorg/apache/http/impl/client/DefaultHttpClient, execute(Lorg/apache/http/client/methods/HttpUriRequest;)Lorg/apache/http/HttpResponse; \u003e@57",
          "type": "ui",
          "activities": [
            "com.cuponstar.ranclub.SplashLoginActivity"
          ],
          "listener": "com.cuponstar.ranclub.dialog.SmsDialog$5",
          "listenerMethod": "onClick",
          "uiType": "onClick",
          "constraintsFile": "constraints28_1.py",
          "variables": {},
          "stringMap": {},
          "strings": {
            "IAAv2": ""
          }
        }
      ]
    },
    "29": {
      "startMethod": "com.cuponstar.ranclub.fragments.FavouriteFragment$2.onClick(Landroid/view/View;)V",
      "targetMethod": "org.apache.http.impl.client.DefaultHttpClient.execute(Lorg/apache/http/client/methods/HttpUriRequest;)Lorg/apache/http/HttpResponse;",
      "eventChain": [
        {
          "start": "com.cuponstar.ranclub.fragments.FavouriteFragment$2.onClick(Landroid/view/View;)V",
          "target": "invokevirtual \u003c Application, Lorg/apache/http/impl/client/DefaultHttpClient, execute(Lorg/apache/http/client/methods/HttpUriRequest;)Lorg/apache/http/HttpResponse; \u003e@57",
          "type": "ui",
          "activities": [
            "com.cuponstar.ranclub.SplashLoginActivity"
          ],
          "listener": "com.cuponstar.ranclub.fragments.FavouriteFragment$2",
          "listenerMethod": "onClick",
          "uiType": "onClick",
          "constraintsFile": "constraints29_0.py",
          "variables": {},
          "stringMap": {},
          "strings": {}
        }
      ]
    }
  }
}