{
  "packageName": "com.dchoc.tuxdo",
  "mainActivity": "com.dchoc.tuxdo.DCTuxedo",
  "callPaths": {
    "0": {
      "startMethod": "com.GoldDream.zj.zjReceiver.onReceive(Landroid/content/Context;Landroid/content/Intent;)V",
      "targetMethod": "android.telephony.TelephonyManager.getLine1Number()Ljava/lang/String;",
      "eventChain": [
        {
          "start": "com.GoldDream.zj.zjReceiver.onReceive(Landroid/content/Context;Landroid/content/Intent;)V",
          "target": "invokevirtual \u003c Application, Landroid/telephony/TelephonyManager, getLine1Number()Ljava/lang/String; \u003e@88",
          "type": "sms",
          "constraintsFile": "constraints0_0.py",
          "variables": {
            "\u003cInput2\u003e.getAction()": "IAAv0"
          },
          "stringMap": {
            "7000": "android.intent.action.BOOT_COMPLETED"
          },
          "strings": {
            "IAAv0": ""
          }
        }
      ]
    },
    "1": {
      "startMethod": "com.GoldDream.zj.zjReceiver.onReceive(Landroid/content/Context;Landroid/content/Intent;)V",
      "targetMethod": "java.net.URL.openConnection()Ljava/net/URLConnection;",
      "eventChain": [
        {
          "start": "com.GoldDream.zj.zjReceiver.onReceive(Landroid/content/Context;Landroid/content/Intent;)V",
          "target": "invokevirtual \u003c Application, Ljava/net/URL, openConnection()Ljava/net/URLConnection; \u003e@32",
          "type": "sms",
          "constraintsFile": "constraints1_0.py",
          "variables": {
            "\u003cChainedInput2\u003e.getAction()": "IAAv0"
          },
          "stringMap": {
            "7000": "android.intent.action.BOOT_COMPLETED"
          },
          "strings": {
            "IAAv0": ""
          }
        }
      ]
    },
    "2": {
      "startMethod": "com.GoldDream.zj.zjReceiver.onReceive(Landroid/content/Context;Landroid/content/Intent;)V",
      "targetMethod": "java.net.URL.openConnection()Ljava/net/URLConnection;",
      "eventChain": [
        {
          "start": "com.GoldDream.zj.zjReceiver.onReceive(Landroid/content/Context;Landroid/content/Intent;)V",
          "target": "invokevirtual \u003c Application, Ljava/net/URL, openConnection()Ljava/net/URLConnection; \u003e@341",
          "type": "sms",
          "constraintsFile": "constraints2_0.py",
          "variables": {
            "\u003cInput2\u003e.getAction()": "IAAv0"
          },
          "stringMap": {
            "7000": "android.intent.action.BOOT_COMPLETED"
          },
          "strings": {
            "IAAv0": ""
          }
        }
      ]
    },
    "3": {
      "startMethod": "com.GoldDream.zj.zjReceiver.onReceive(Landroid/content/Context;Landroid/content/Intent;)V",
      "targetMethod": "android.telephony.TelephonyManager.getSubscriberId()Ljava/lang/String;",
      "eventChain": [
        {
          "start": "com.GoldDream.zj.zjReceiver.onReceive(Landroid/content/Context;Landroid/content/Intent;)V",
          "target": "invokevirtual \u003c Application, Landroid/telephony/TelephonyManager, getSubscriberId()Ljava/lang/String; \u003e@42",
          "type": "sms",
          "constraintsFile": "constraints3_0.py",
          "variables": {
            "\u003cInput2\u003e.getAction()": "IAAv0"
          },
          "stringMap": {
            "7000": "android.intent.action.BOOT_COMPLETED"
          },
          "strings": {
            "IAAv0": ""
          }
        }
      ]
    },
    "4": {
      "startMethod": "com.GoldDream.zj.zjReceiver.onReceive(Landroid/content/Context;Landroid/content/Intent;)V",
      "targetMethod": "java.net.URL.openConnection()Ljava/net/URLConnection;",
      "eventChain": [
        {
          "start": "com.GoldDream.zj.zjReceiver.onReceive(Landroid/content/Context;Landroid/content/Intent;)V",
          "target": "invokevirtual \u003c Application, Ljava/net/URL, openConnection()Ljava/net/URLConnection; \u003e@18",
          "type": "sms",
          "constraintsFile": "constraints4_0.py",
          "variables": {
            "\u003cChainedInput2\u003e.getAction()": "IAAv0"
          },
          "stringMap": {
            "7000": "android.intent.action.BOOT_COMPLETED"
          },
          "strings": {
            "IAAv0": ""
          }
        }
      ]
    },
    "5": {
      "startMethod": "com.GoldDream.zj.zjReceiver.onReceive(Landroid/content/Context;Landroid/content/Intent;)V",
      "targetMethod": "java.net.HttpURLConnection.getInputStream()Ljava/io/InputStream;",
      "eventChain": [
        {
          "start": "com.GoldDream.zj.zjReceiver.onReceive(Landroid/content/Context;Landroid/content/Intent;)V",
          "target": "invokevirtual \u003c Application, Ljava/net/HttpURLConnection, getInputStream()Ljava/io/InputStream; \u003e@46",
          "type": "sms",
          "constraintsFile": "constraints5_0.py",
          "variables": {
            "\u003cChainedInput2\u003e.getAction()": "IAAv0"
          },
          "stringMap": {
            "7000": "android.intent.action.BOOT_COMPLETED"
          },
          "strings": {
            "IAAv0": ""
          }
        }
      ]
    },
    "6": {
      "startMethod": "com.GoldDream.zj.zjReceiver.onReceive(Landroid/content/Context;Landroid/content/Intent;)V",
      "targetMethod": "android.telephony.TelephonyManager.getSimSerialNumber()Ljava/lang/String;",
      "eventChain": [
        {
          "start": "com.GoldDream.zj.zjReceiver.onReceive(Landroid/content/Context;Landroid/content/Intent;)V",
          "target": "invokevirtual \u003c Application, Landroid/telephony/TelephonyManager, getSimSerialNumber()Ljava/lang/String; \u003e@65",
          "type": "sms",
          "constraintsFile": "constraints6_0.py",
          "variables": {
            "\u003cInput2\u003e.getAction()": "IAAv0"
          },
          "stringMap": {
            "7000": "android.intent.action.BOOT_COMPLETED"
          },
          "strings": {
            "IAAv0": ""
          }
        }
      ]
    },
    "7": {
      "startMethod": "com.GoldDream.zj.zjReceiver.onReceive(Landroid/content/Context;Landroid/content/Intent;)V",
      "targetMethod": "android.telephony.SmsManager.sendTextMessage(Ljava/lang/String;Ljava/lang/String;Ljava/lang/String;Landroid/app/PendingIntent;Landroid/app/PendingIntent;)V",
      "eventChain": [
        {
          "start": "com.GoldDream.zj.zjReceiver.onReceive(Landroid/content/Context;Landroid/content/Intent;)V",
          "target": "invokevirtual \u003c Application, Landroid/telephony/SmsManager, sendTextMessage(Ljava/lang/String;Ljava/lang/String;Ljava/lang/String;Landroid/app/PendingIntent;Landroid/app/PendingIntent;)V \u003e@42",
          "type": "sms",
          "constraintsFile": "constraints7_0.py",
          "variables": {
            "\u003cChainedInput2\u003e.getAction()": "IAAv0"
          },
          "stringMap": {
            "7000": "android.intent.action.BOOT_COMPLETED"
          },
          "strings": {
            "IAAv0": ""
          }
        }
      ]
    },
    "8": {
      "startMethod": "com.GoldDream.zj.zjReceiver.onReceive(Landroid/content/Context;Landroid/content/Intent;)V",
      "targetMethod": "android.telephony.TelephonyManager.getDeviceId()Ljava/lang/String;",
      "eventChain": [
        {
          "start": "com.GoldDream.zj.zjReceiver.onReceive(Landroid/content/Context;Landroid/content/Intent;)V",
          "target": "invokevirtual \u003c Application, Landroid/telephony/TelephonyManager, getDeviceId()Ljava/lang/String; \u003e@19",
          "type": "sms",
          "constraintsFile": "constraints8_0.py",
          "variables": {
            "\u003cInput2\u003e.getAction()": "IAAv0"
          },
          "stringMap": {
            "7000": "android.intent.action.BOOT_COMPLETED"
          },
          "strings": {
            "IAAv0": ""
          }
        }
      ]
    },
    "9": {
      "startMethod": "com.GoldDream.zj.zjReceiver.onReceive(Landroid/content/Context;Landroid/content/Intent;)V",
      "targetMethod": "java.net.HttpURLConnection.getInputStream()Ljava/io/InputStream;",
      "eventChain": [
        {
          "start": "com.GoldDream.zj.zjReceiver.onReceive(Landroid/content/Context;Landroid/content/Intent;)V",
          "target": "invokevirtual \u003c Application, Ljava/net/HttpURLConnection, getInputStream()Ljava/io/InputStream; \u003e@382",
          "type": "sms",
          "constraintsFile": "constraints9_0.py",
          "variables": {
            "\u003cInput2\u003e.getAction()": "IAAv0"
          },
          "stringMap": {
            "7000": "android.intent.action.BOOT_COMPLETED"
          },
          "strings": {
            "IAAv0": ""
          }
        }
      ]
    },
    "10": {
      "startMethod": "com.GoldDream.zj.zjReceiver.onReceive(Landroid/content/Context;Landroid/content/Intent;)V",
      "targetMethod": "java.net.HttpURLConnection.getInputStream()Ljava/io/InputStream;",
      "eventChain": [
        {
          "start": "com.GoldDream.zj.zjReceiver.onReceive(Landroid/content/Context;Landroid/content/Intent;)V",
          "target": "invokevirtual \u003c Application, Ljava/net/HttpURLConnection, getInputStream()Ljava/io/InputStream; \u003e@599",
          "type": "sms",
          "constraintsFile": "constraints10_0.py",
          "variables": {
            "\u003cChainedInput2\u003e.getAction()": "IAAv0"
          },
          "stringMap": {
            "7000": "android.intent.action.BOOT_COMPLETED"
          },
          "strings": {
            "IAAv0": ""
          }
        }
      ]
    },
    "11": {
      "startMethod": "com.GoldDream.zj.zjService.onCreate()V",
      "targetMethod": "android.webkit.WebView.\u003cinit\u003e(Landroid/content/Context;)V",
      "eventChain": [
        {
          "start": "com.GoldDream.zj.zjService.onCreate()V",
          "target": "invokespecial \u003c Application, Landroid/webkit/WebView, \u003cinit\u003e(Landroid/content/Context;)V \u003e@10",
          "type": "service",
          "component": "com.GoldDream.zj.zjService"
        }
      ]
    },
    "12": {
      "startMethod": "com.dchoc.tuxdo.DChocMIDlet.run()V",
      "targetMethod": "android.media.MediaPlayer.release()V",
      "eventChain": [
        {
          "start": "com.dchoc.tuxdo.DChocMIDlet.run()V",
          "target": "PC@42",
          "type": "",
          "constraintsFile": "constraints12_0.py",
          "variables": {},
          "stringMap": {},
          "strings": {}
        },
        {
          "start": "com.dchoc.tuxdo.DCTuxedo.\u003cinit\u003e()V",
          "target": "",
          "type": ""
        },
        {
          "start": "com.dchoc.tuxdo.DChocMIDlet.run()V",
          "target": "",
          "type": "",
          "constraintsFile": "constraints12_1.py",
          "variables": {},
          "stringMap": {},
          "strings": {}
        },
        {
          "start": "javax.microedition.lcdui.DCSurfaceView.onTouchEvent(Landroid/view/MotionEvent;)Z",
          "target": "",
          "type": "ui",
          "activities": [
            "com.dchoc.tuxdo.DCTuxedo"
          ],
          "listener": "javax.microedition.lcdui.DCSurfaceView",
          "listenerMethod": "onTouchEvent",
          "uiType": "onTouchEvent",
          "constraintsFile": "constraints12_2.py",
          "variables": {
            "\u003cChainedInput1\u003e.getAction()": "IAAv0"
          },
          "stringMap": {},
          "strings": {}
        },
        {
          "start": "com.dchoc.tuxdo.DChocMIDlet.run()V",
          "target": "invokevirtual \u003c Application, Landroid/media/MediaPlayer, release()V \u003e@11",
          "type": "",
          "constraintsFile": "constraints12_3.py",
          "variables": {},
          "stringMap": {},
          "strings": {}
        }
      ]
    },
    "13": {
      "startMethod": "com.dchoc.tuxdo.DChocMIDlet.run()V",
      "targetMethod": "android.media.MediaPlayer.pause()V",
      "eventChain": [
        {
          "start": "com.dchoc.tuxdo.DChocMIDlet.run()V",
          "target": "PC@42",
          "type": "",
          "constraintsFile": "constraints13_0.py",
          "variables": {},
          "stringMap": {},
          "strings": {}
        },
        {
          "start": "com.dchoc.tuxdo.DCTuxedo.\u003cinit\u003e()V",
          "target": "",
          "type": ""
        },
        {
          "start": "com.dchoc.tuxdo.DChocMIDlet.run()V",
          "target": "",
          "type": "",
          "constraintsFile": "constraints13_1.py",
          "variables": {},
          "stringMap": {},
          "strings": {}
        },
        {
          "start": "javax.microedition.lcdui.DCSurfaceView.onTouchEvent(Landroid/view/MotionEvent;)Z",
          "target": "",
          "type": "ui",
          "activities": [
            "com.dchoc.tuxdo.DCTuxedo"
          ],
          "listener": "javax.microedition.lcdui.DCSurfaceView",
          "listenerMethod": "onTouchEvent",
          "uiType": "onTouchEvent",
          "constraintsFile": "constraints13_2.py",
          "variables": {
            "\u003cChainedInput1\u003e.getAction()": "IAAv0"
          },
          "stringMap": {},
          "strings": {}
        },
        {
          "start": "com.dchoc.tuxdo.DChocMIDlet.run()V",
          "target": "invokevirtual \u003c Application, Landroid/media/MediaPlayer, pause()V \u003e@46",
          "type": "",
          "constraintsFile": "constraints13_3.py",
          "variables": {},
          "stringMap": {},
          "strings": {}
        }
      ]
    },
    "14": {
      "startMethod": "com.dchoc.tuxdo.DChocMIDlet.run()V",
      "targetMethod": "android.media.MediaPlayer.start()V",
      "eventChain": [
        {
          "start": "javax.microedition.lcdui.DCSurfaceView.onTouchEvent(Landroid/view/MotionEvent;)Z",
          "target": "",
          "type": "ui",
          "activities": [
            "com.dchoc.tuxdo.DCTuxedo"
          ],
          "listener": "javax.microedition.lcdui.DCSurfaceView",
          "listenerMethod": "onTouchEvent",
          "uiType": "onTouchEvent",
          "constraintsFile": "constraints14_0.py",
          "variables": {
            "\u003cChainedInput1\u003e.getAction()": "IAAv0"
          },
          "stringMap": {},
          "strings": {}
        },
        {
          "start": "com.dchoc.tuxdo.DChocMIDlet.run()V",
          "target": "PC@42",
          "type": "",
          "constraintsFile": "constraints14_1.py",
          "variables": {},
          "stringMap": {},
          "strings": {}
        },
        {
          "start": "com.dchoc.tuxdo.DCTuxedo.\u003cinit\u003e()V",
          "target": "",
          "type": ""
        },
        {
          "start": "com.dchoc.tuxdo.DChocMIDlet.run()V",
          "target": "",
          "type": "",
          "constraintsFile": "constraints14_2.py",
          "variables": {},
          "stringMap": {},
          "strings": {}
        },
        {
          "start": "javax.microedition.lcdui.DCSurfaceView.onTouchEvent(Landroid/view/MotionEvent;)Z",
          "target": "",
          "type": "ui",
          "activities": [
            "com.dchoc.tuxdo.DCTuxedo"
          ],
          "listener": "javax.microedition.lcdui.DCSurfaceView",
          "listenerMethod": "onTouchEvent",
          "uiType": "onTouchEvent",
          "constraintsFile": "constraints14_3.py",
          "variables": {
            "\u003cChainedInput1\u003e.getAction()": "IAAv0"
          },
          "stringMap": {},
          "strings": {}
        },
        {
          "start": "com.dchoc.tuxdo.Toolkit.\u003cclinit\u003e()V",
          "target": "",
          "type": "",
          "constraintsFile": "constraints14_4.py",
          "variables": {},
          "stringMap": {},
          "strings": {}
        },
        {
          "start": "javax.microedition.lcdui.DCSurfaceView.onTouchEvent(Landroid/view/MotionEvent;)Z",
          "target": "",
          "type": "ui",
          "activities": [
            "com.dchoc.tuxdo.DCTuxedo"
          ],
          "listener": "javax.microedition.lcdui.DCSurfaceView",
          "listenerMethod": "onTouchEvent",
          "uiType": "onTouchEvent",
          "constraintsFile": "constraints14_5.py",
          "variables": {
            "\u003cChainedInput1\u003e.getAction()": "IAAv0"
          },
          "stringMap": {},
          "strings": {}
        },
        {
          "start": "com.dchoc.tuxdo.DChocMIDlet.run()V",
          "target": "invokevirtual \u003c Application, Landroid/media/MediaPlayer, start()V \u003e@59",
          "type": "",
          "constraintsFile": "constraints14_6.py",
          "variables": {},
          "stringMap": {},
          "strings": {}
        }
      ]
    },
    "15": {
      "startMethod": "javax.microedition.media.BasicPlayer$2.onError(Landroid/media/MediaPlayer;II)Z",
      "targetMethod": "android.media.MediaPlayer.release()V",
      "eventChain": [
        {
          "start": "javax.microedition.media.BasicPlayer$2.onError(Landroid/media/MediaPlayer;II)Z",
          "target": "invokevirtual \u003c Application, Landroid/media/MediaPlayer, release()V \u003e@81",
          "type": "",
          "constraintsFile": "constraints15_0.py",
          "variables": {
            "\u003cInput1\u003e": "IAAv0"
          },
          "stringMap": {},
          "strings": {}
        }
      ]
    },
    "16": {
      "startMethod": "javax.microedition.media.BasicPlayer$2.onError(Landroid/media/MediaPlayer;II)Z",
      "targetMethod": "android.media.MediaPlayer.stop()V",
      "eventChain": [
        {
          "start": "javax.microedition.media.BasicPlayer$2.onError(Landroid/media/MediaPlayer;II)Z",
          "target": "invokevirtual \u003c Application, Landroid/media/MediaPlayer, stop()V \u003e@77",
          "type": "",
          "constraintsFile": "constraints16_0.py",
          "variables": {
            "\u003cInput1\u003e": "IAAv0"
          },
          "stringMap": {},
          "strings": {}
        }
      ]
    },
    "17": {
      "startMethod": "javax.microedition.lcdui.DCView.onKeyDown(ILandroid/view/KeyEvent;)Z",
      "targetMethod": "android.media.MediaPlayer.start()V",
      "eventChain": [
        {
          "start": "javax.microedition.lcdui.DCView.onKeyDown(ILandroid/view/KeyEvent;)Z",
          "target": "invokevirtual \u003c Application, Landroid/media/MediaPlayer, start()V \u003e@59",
          "type": "ui",
          "activities": [
            "com.dchoc.tuxdo.DCTuxedo"
          ],
          "listener": "javax.microedition.lcdui.DCView",
          "listenerMethod": "onKeyDown",
          "uiType": "onKeyDown"
        }
      ]
    },
    "18": {
      "startMethod": "javax.microedition.lcdui.DCView.onKeyDown(ILandroid/view/KeyEvent;)Z",
      "targetMethod": "android.media.MediaPlayer.release()V",
      "eventChain": [
        {
          "start": "javax.microedition.lcdui.DCView.onKeyDown(ILandroid/view/KeyEvent;)Z",
          "target": "invokevirtual \u003c Application, Landroid/media/MediaPlayer, release()V \u003e@11",
          "type": "ui",
          "activities": [
            "com.dchoc.tuxdo.DCTuxedo"
          ],
          "listener": "javax.microedition.lcdui.DCView",
          "listenerMethod": "onKeyDown",
          "uiType": "onKeyDown"
        }
      ]
    },
    "19": {
      "startMethod": "javax.microedition.lcdui.DCView.onKeyDown(ILandroid/view/KeyEvent;)Z",
      "targetMethod": "android.media.MediaPlayer.pause()V",
      "eventChain": [
        {
          "start": "javax.microedition.lcdui.DCView.onKeyDown(ILandroid/view/KeyEvent;)Z",
          "target": "invokevirtual \u003c Application, Landroid/media/MediaPlayer, pause()V \u003e@46",
          "type": "ui",
          "activities": [
            "com.dchoc.tuxdo.DCTuxedo"
          ],
          "listener": "javax.microedition.lcdui.DCView",
          "listenerMethod": "onKeyDown",
          "uiType": "onKeyDown"
        }
      ]
    },
    "20": {
      "startMethod": "javax.microedition.lcdui.DCView.onKeyUp(ILandroid/view/KeyEvent;)Z",
      "targetMethod": "android.media.MediaPlayer.release()V",
      "eventChain": [
        {
          "start": "javax.microedition.lcdui.DCSurfaceView.onTouchEvent(Landroid/view/MotionEvent;)Z",
          "target": "",
          "type": "ui",
          "activities": [
            "com.dchoc.tuxdo.DCTuxedo"
          ],
          "listener": "javax.microedition.lcdui.DCSurfaceView",
          "listenerMethod": "onTouchEvent",
          "uiType": "onTouchEvent",
          "constraintsFile": "constraints20_0.py",
          "variables": {
            "\u003cChainedInput1\u003e.getAction()": "IAAv0"
          },
          "stringMap": {},
          "strings": {}
        },
        {
          "start": "javax.microedition.lcdui.DCView.onKeyUp(ILandroid/view/KeyEvent;)Z",
          "target": "invokevirtual \u003c Application, Landroid/media/MediaPlayer, release()V \u003e@11",
          "type": "ui",
          "activities": [
            "com.dchoc.tuxdo.DCTuxedo"
          ],
          "listener": "javax.microedition.lcdui.DCView",
          "listenerMethod": "onKeyUp",
          "uiType": "onKeyUp",
          "constraintsFile": "constraints20_1.py",
          "variables": {
            "\u003cChainedInput1\u003e": "IAAv0"
          },
          "stringMap": {},
          "strings": {}
        }
      ]
    },
    "21": {
      "startMethod": "javax.microedition.lcdui.DCView.onKeyUp(ILandroid/view/KeyEvent;)Z",
      "targetMethod": "android.media.MediaPlayer.start()V",
      "eventChain": [
        {
          "start": "javax.microedition.lcdui.DCSurfaceView.onTouchEvent(Landroid/view/MotionEvent;)Z",
          "target": "",
          "type": "ui",
          "activities": [
            "com.dchoc.tuxdo.DCTuxedo"
          ],
          "listener": "javax.microedition.lcdui.DCSurfaceView",
          "listenerMethod": "onTouchEvent",
          "uiType": "onTouchEvent",
          "constraintsFile": "constraints21_0.py",
          "variables": {
            "\u003cChainedInput1\u003e.getAction()": "IAAv0"
          },
          "stringMap": {},
          "strings": {}
        },
        {
          "start": "javax.microedition.lcdui.DCView.onKeyUp(ILandroid/view/KeyEvent;)Z",
          "target": "invokevirtual \u003c Application, Landroid/media/MediaPlayer, start()V \u003e@59",
          "type": "ui",
          "activities": [
            "com.dchoc.tuxdo.DCTuxedo"
          ],
          "listener": "javax.microedition.lcdui.DCView",
          "listenerMethod": "onKeyUp",
          "uiType": "onKeyUp",
          "constraintsFile": "constraints21_1.py",
          "variables": {
            "\u003cChainedInput1\u003e": "IAAv0"
          },
          "stringMap": {},
          "strings": {}
        }
      ]
    },
    "22": {
      "startMethod": "javax.microedition.lcdui.DCView.onKeyUp(ILandroid/view/KeyEvent;)Z",
      "targetMethod": "android.media.MediaPlayer.pause()V",
      "eventChain": [
        {
          "start": "javax.microedition.lcdui.DCSurfaceView.onTouchEvent(Landroid/view/MotionEvent;)Z",
          "target": "",
          "type": "ui",
          "activities": [
            "com.dchoc.tuxdo.DCTuxedo"
          ],
          "listener": "javax.microedition.lcdui.DCSurfaceView",
          "listenerMethod": "onTouchEvent",
          "uiType": "onTouchEvent",
          "constraintsFile": "constraints22_0.py",
          "variables": {
            "\u003cChainedInput1\u003e.getAction()": "IAAv0"
          },
          "stringMap": {},
          "strings": {}
        },
        {
          "start": "javax.microedition.lcdui.DCView.onKeyUp(ILandroid/view/KeyEvent;)Z",
          "target": "invokevirtual \u003c Application, Landroid/media/MediaPlayer, pause()V \u003e@46",
          "type": "ui",
          "activities": [
            "com.dchoc.tuxdo.DCTuxedo"
          ],
          "listener": "javax.microedition.lcdui.DCView",
          "listenerMethod": "onKeyUp",
          "uiType": "onKeyUp",
          "constraintsFile": "constraints22_1.py",
          "variables": {
            "\u003cChainedInput1\u003e": "IAAv0"
          },
          "stringMap": {},
          "strings": {}
        }
      ]
    },
    "23": {
      "startMethod": "javax.microedition.lcdui.DCSurfaceView.onKeyDown(ILandroid/view/KeyEvent;)Z",
      "targetMethod": "android.media.MediaPlayer.start()V",
      "eventChain": [
        {
          "start": "javax.microedition.lcdui.DCSurfaceView.onKeyDown(ILandroid/view/KeyEvent;)Z",
          "target": "invokevirtual \u003c Application, Landroid/media/MediaPlayer, start()V \u003e@59",
          "type": "ui",
          "activities": [
            "com.dchoc.tuxdo.DCTuxedo"
          ],
          "listener": "javax.microedition.lcdui.DCSurfaceView",
          "listenerMethod": "onKeyDown",
          "uiType": "onKeyDown"
        }
      ]
    },
    "24": {
      "startMethod": "javax.microedition.lcdui.DCSurfaceView.onKeyDown(ILandroid/view/KeyEvent;)Z",
      "targetMethod": "android.media.MediaPlayer.release()V",
      "eventChain": [
        {
          "start": "javax.microedition.lcdui.DCSurfaceView.onKeyDown(ILandroid/view/KeyEvent;)Z",
          "target": "invokevirtual \u003c Application, Landroid/media/MediaPlayer, release()V \u003e@11",
          "type": "ui",
          "activities": [
            "com.dchoc.tuxdo.DCTuxedo"
          ],
          "listener": "javax.microedition.lcdui.DCSurfaceView",
          "listenerMethod": "onKeyDown",
          "uiType": "onKeyDown"
        }
      ]
    },
    "25": {
      "startMethod": "javax.microedition.lcdui.DCSurfaceView.onKeyDown(ILandroid/view/KeyEvent;)Z",
      "targetMethod": "android.media.MediaPlayer.pause()V",
      "eventChain": [
        {
          "start": "javax.microedition.lcdui.DCSurfaceView.onKeyDown(ILandroid/view/KeyEvent;)Z",
          "target": "invokevirtual \u003c Application, Landroid/media/MediaPlayer, pause()V \u003e@46",
          "type": "ui",
          "activities": [
            "com.dchoc.tuxdo.DCTuxedo"
          ],
          "listener": "javax.microedition.lcdui.DCSurfaceView",
          "listenerMethod": "onKeyDown",
          "uiType": "onKeyDown"
        }
      ]
    },
    "26": {
      "startMethod": "javax.microedition.lcdui.DCSurfaceView.onKeyUp(ILandroid/view/KeyEvent;)Z",
      "targetMethod": "android.media.MediaPlayer.pause()V",
      "eventChain": [
        {
          "start": "javax.microedition.lcdui.DCSurfaceView.onTouchEvent(Landroid/view/MotionEvent;)Z",
          "target": "",
          "type": "ui",
          "activities": [
            "com.dchoc.tuxdo.DCTuxedo"
          ],
          "listener": "javax.microedition.lcdui.DCSurfaceView",
          "listenerMethod": "onTouchEvent",
          "uiType": "onTouchEvent",
          "constraintsFile": "constraints26_0.py",
          "variables": {
            "\u003cChainedInput1\u003e.getAction()": "IAAv0"
          },
          "stringMap": {},
          "strings": {}
        },
        {
          "start": "javax.microedition.lcdui.DCSurfaceView.onKeyUp(ILandroid/view/KeyEvent;)Z",
          "target": "invokevirtual \u003c Application, Landroid/media/MediaPlayer, pause()V \u003e@46",
          "type": "ui",
          "activities": [
            "com.dchoc.tuxdo.DCTuxedo"
          ],
          "listener": "javax.microedition.lcdui.DCSurfaceView",
          "listenerMethod": "onKeyUp",
          "uiType": "onKeyUp",
          "constraintsFile": "constraints26_1.py",
          "variables": {
            "\u003cChainedInput1\u003e": "IAAv0"
          },
          "stringMap": {},
          "strings": {}
        }
      ]
    },
    "27": {
      "startMethod": "javax.microedition.lcdui.DCSurfaceView.onKeyUp(ILandroid/view/KeyEvent;)Z",
      "targetMethod": "android.media.MediaPlayer.release()V",
      "eventChain": [
        {
          "start": "javax.microedition.lcdui.DCSurfaceView.onTouchEvent(Landroid/view/MotionEvent;)Z",
          "target": "",
          "type": "ui",
          "activities": [
            "com.dchoc.tuxdo.DCTuxedo"
          ],
          "listener": "javax.microedition.lcdui.DCSurfaceView",
          "listenerMethod": "onTouchEvent",
          "uiType": "onTouchEvent",
          "constraintsFile": "constraints27_0.py",
          "variables": {
            "\u003cChainedInput1\u003e.getAction()": "IAAv0"
          },
          "stringMap": {},
          "strings": {}
        },
        {
          "start": "javax.microedition.lcdui.DCSurfaceView.onKeyUp(ILandroid/view/KeyEvent;)Z",
          "target": "invokevirtual \u003c Application, Landroid/media/MediaPlayer, release()V \u003e@11",
          "type": "ui",
          "activities": [
            "com.dchoc.tuxdo.DCTuxedo"
          ],
          "listener": "javax.microedition.lcdui.DCSurfaceView",
          "listenerMethod": "onKeyUp",
          "uiType": "onKeyUp",
          "constraintsFile": "constraints27_1.py",
          "variables": {
            "\u003cChainedInput1\u003e": "IAAv0"
          },
          "stringMap": {},
          "strings": {}
        }
      ]
    },
    "28": {
      "startMethod": "javax.microedition.lcdui.DCSurfaceView.onKeyUp(ILandroid/view/KeyEvent;)Z",
      "targetMethod": "android.media.MediaPlayer.start()V",
      "eventChain": [
        {
          "start": "javax.microedition.lcdui.DCSurfaceView.onTouchEvent(Landroid/view/MotionEvent;)Z",
          "target": "",
          "type": "ui",
          "activities": [
            "com.dchoc.tuxdo.DCTuxedo"
          ],
          "listener": "javax.microedition.lcdui.DCSurfaceView",
          "listenerMethod": "onTouchEvent",
          "uiType": "onTouchEvent",
          "constraintsFile": "constraints28_0.py",
          "variables": {
            "\u003cChainedInput1\u003e.getAction()": "IAAv0"
          },
          "stringMap": {},
          "strings": {}
        },
        {
          "start": "javax.microedition.lcdui.DCSurfaceView.onKeyUp(ILandroid/view/KeyEvent;)Z",
          "target": "invokevirtual \u003c Application, Landroid/media/MediaPlayer, start()V \u003e@59",
          "type": "ui",
          "activities": [
            "com.dchoc.tuxdo.DCTuxedo"
          ],
          "listener": "javax.microedition.lcdui.DCSurfaceView",
          "listenerMethod": "onKeyUp",
          "uiType": "onKeyUp",
          "constraintsFile": "constraints28_1.py",
          "variables": {
            "\u003cChainedInput1\u003e": "IAAv0"
          },
          "stringMap": {},
          "strings": {}
        }
      ]
    },
    "29": {
      "startMethod": "javax.microedition.midlet.MIDlet.onPause()V",
      "targetMethod": "android.media.MediaPlayer.pause()V",
      "eventChain": [
        {
          "start": "javax.microedition.midlet.MIDlet.onPause()V",
          "target": "invokevirtual \u003c Application, Landroid/media/MediaPlayer, pause()V \u003e@46",
          "type": "activity",
          "component": "javax.microedition.midlet.MIDlet"
        }
      ]
    },
    "30": {
      "startMethod": "javax.microedition.midlet.MIDlet.onPause()V",
      "targetMethod": "android.media.MediaPlayer.start()V",
      "eventChain": [
        {
          "start": "javax.microedition.midlet.MIDlet.onPause()V",
          "target": "invokevirtual \u003c Application, Landroid/media/MediaPlayer, start()V \u003e@59",
          "type": "activity",
          "component": "javax.microedition.midlet.MIDlet"
        }
      ]
    },
    "31": {
      "startMethod": "javax.microedition.midlet.MIDlet.onPause()V",
      "targetMethod": "android.media.MediaPlayer.release()V",
      "eventChain": [
        {
          "start": "javax.microedition.midlet.MIDlet.onPause()V",
          "target": "invokevirtual \u003c Application, Landroid/media/MediaPlayer, release()V \u003e@11",
          "type": "activity",
          "component": "javax.microedition.midlet.MIDlet"
        }
      ]
    },
    "32": {
      "startMethod": "javax.microedition.midlet.MIDlet.onDestroy()V",
      "targetMethod": "android.media.MediaPlayer.pause()V",
      "eventChain": [
        {
          "start": "javax.microedition.midlet.MIDlet.onDestroy()V",
          "target": "invokevirtual \u003c Application, Landroid/media/MediaPlayer, pause()V \u003e@46",
          "type": "activity",
          "component": "javax.microedition.midlet.MIDlet"
        }
      ]
    },
    "33": {
      "startMethod": "javax.microedition.midlet.MIDlet.onDestroy()V",
      "targetMethod": "android.media.MediaPlayer.release()V",
      "eventChain": [
        {
          "start": "javax.microedition.midlet.MIDlet.onDestroy()V",
          "target": "invokevirtual \u003c Application, Landroid/media/MediaPlayer, release()V \u003e@11",
          "type": "activity",
          "component": "javax.microedition.midlet.MIDlet"
        }
      ]
    },
    "34": {
      "startMethod": "javax.microedition.lcdui.DCSurfaceView.onTouchEvent(Landroid/view/MotionEvent;)Z",
      "targetMethod": "android.media.MediaPlayer.start()V",
      "eventChain": [
        {
          "start": "javax.microedition.lcdui.DCSurfaceView.onWindowFocusChanged(Z)V",
          "target": "invokespecial \u003c Application, Landroid/view/SurfaceView, onWindowFocusChanged(Z)V \u003e@3",
          "type": "ui",
          "activities": [
            "com.dchoc.tuxdo.DCTuxedo"
          ],
          "listener": "javax.microedition.lcdui.DCSurfaceView",
          "listenerMethod": "onWindowFocusChanged",
          "uiType": "onWindowFocusChanged"
        },
        {
          "start": "javax.microedition.lcdui.DCSurfaceView.onTouchEvent(Landroid/view/MotionEvent;)Z",
          "target": "",
          "type": "ui",
          "activities": [
            "com.dchoc.tuxdo.DCTuxedo"
          ],
          "listener": "javax.microedition.lcdui.DCSurfaceView",
          "listenerMethod": "onTouchEvent",
          "uiType": "onTouchEvent",
          "constraintsFile": "constraints34_0.py",
          "variables": {
            "\u003cChainedInput1\u003e.getAction()": "IAAv0"
          },
          "stringMap": {},
          "strings": {}
        },
        {
          "start": "javax.microedition.lcdui.DCSurfaceView.onTouchEvent(Landroid/view/MotionEvent;)Z",
          "target": "invokevirtual \u003c Application, Landroid/media/MediaPlayer, start()V \u003e@59",
          "type": "ui",
          "activities": [
            "com.dchoc.tuxdo.DCTuxedo"
          ],
          "listener": "javax.microedition.lcdui.DCSurfaceView",
          "listenerMethod": "onTouchEvent",
          "uiType": "onTouchEvent",
          "constraintsFile": "constraints34_1.py",
          "variables": {
            "\u003cChainedInput1\u003e.getAction()": "IAAv0"
          },
          "stringMap": {},
          "strings": {}
        }
      ]
    },
    "35": {
      "startMethod": "javax.microedition.lcdui.DCSurfaceView.onTouchEvent(Landroid/view/MotionEvent;)Z",
      "targetMethod": "android.media.MediaPlayer.pause()V",
      "eventChain": [
        {
          "start": "javax.microedition.lcdui.DCSurfaceView.onWindowFocusChanged(Z)V",
          "target": "invokespecial \u003c Application, Landroid/view/SurfaceView, onWindowFocusChanged(Z)V \u003e@3",
          "type": "ui",
          "activities": [
            "com.dchoc.tuxdo.DCTuxedo"
          ],
          "listener": "javax.microedition.lcdui.DCSurfaceView",
          "listenerMethod": "onWindowFocusChanged",
          "uiType": "onWindowFocusChanged"
        },
        {
          "start": "javax.microedition.lcdui.DCSurfaceView.onTouchEvent(Landroid/view/MotionEvent;)Z",
          "target": "invokevirtual \u003c Application, Landroid/media/MediaPlayer, pause()V \u003e@46",
          "type": "ui",
          "activities": [
            "com.dchoc.tuxdo.DCTuxedo"
          ],
          "listener": "javax.microedition.lcdui.DCSurfaceView",
          "listenerMethod": "onTouchEvent",
          "uiType": "onTouchEvent",
          "constraintsFile": "constraints35_0.py",
          "variables": {
            "\u003cChainedInput1\u003e.getAction()": "IAAv0"
          },
          "stringMap": {},
          "strings": {}
        }
      ]
    },
    "36": {
      "startMethod": "javax.microedition.lcdui.DCSurfaceView.onTouchEvent(Landroid/view/MotionEvent;)Z",
      "targetMethod": "android.media.MediaPlayer.release()V",
      "eventChain": [
        {
          "start": "javax.microedition.lcdui.DCSurfaceView.onWindowFocusChanged(Z)V",
          "target": "invokespecial \u003c Application, Landroid/view/SurfaceView, onWindowFocusChanged(Z)V \u003e@3",
          "type": "ui",
          "activities": [
            "com.dchoc.tuxdo.DCTuxedo"
          ],
          "listener": "javax.microedition.lcdui.DCSurfaceView",
          "listenerMethod": "onWindowFocusChanged",
          "uiType": "onWindowFocusChanged"
        },
        {
          "start": "javax.microedition.lcdui.DCSurfaceView.onTouchEvent(Landroid/view/MotionEvent;)Z",
          "target": "invokevirtual \u003c Application, Landroid/media/MediaPlayer, release()V \u003e@11",
          "type": "ui",
          "activities": [
            "com.dchoc.tuxdo.DCTuxedo"
          ],
          "listener": "javax.microedition.lcdui.DCSurfaceView",
          "listenerMethod": "onTouchEvent",
          "uiType": "onTouchEvent",
          "constraintsFile": "constraints36_0.py",
          "variables": {
            "\u003cChainedInput1\u003e.getAction()": "IAAv0"
          },
          "stringMap": {},
          "strings": {}
        }
      ]
    },
    "37": {
      "startMethod": "javax.microedition.lcdui.DCView.onTouchEvent(Landroid/view/MotionEvent;)Z",
      "targetMethod": "android.media.MediaPlayer.pause()V",
      "eventChain": [
        {
          "start": "com.dchoc.tuxdo.DChocMIDlet.run()V",
          "target": "invokevirtual \u003c Application, Ljavax/microedition/lcdui/DCView, postInvalidate()V \u003e@2",
          "type": "",
          "constraintsFile": "constraints37_0.py",
          "variables": {},
          "stringMap": {},
          "strings": {}
        },
        {
          "start": "javax.microedition.lcdui.DCView.onTouchEvent(Landroid/view/MotionEvent;)Z",
          "target": "invokevirtual \u003c Application, Landroid/media/MediaPlayer, pause()V \u003e@46",
          "type": "ui",
          "activities": [
            "com.dchoc.tuxdo.DCTuxedo"
          ],
          "listener": "javax.microedition.lcdui.DCView",
          "listenerMethod": "onTouchEvent",
          "uiType": "onTouchEvent",
          "constraintsFile": "constraints37_1.py",
          "variables": {
            "\u003cChainedInput1\u003e.getAction()": "IAAv0"
          },
          "stringMap": {},
          "strings": {}
        }
      ]
    },
    "38": {
      "startMethod": "javax.microedition.lcdui.DCView.onTouchEvent(Landroid/view/MotionEvent;)Z",
      "targetMethod": "android.media.MediaPlayer.release()V",
      "eventChain": [
        {
          "start": "com.dchoc.tuxdo.DChocMIDlet.run()V",
          "target": "invokevirtual \u003c Application, Ljavax/microedition/lcdui/DCView, postInvalidate()V \u003e@2",
          "type": "",
          "constraintsFile": "constraints38_0.py",
          "variables": {},
          "stringMap": {},
          "strings": {}
        },
        {
          "start": "javax.microedition.lcdui.DCView.onTouchEvent(Landroid/view/MotionEvent;)Z",
          "target": "invokevirtual \u003c Application, Landroid/media/MediaPlayer, release()V \u003e@11",
          "type": "ui",
          "activities": [
            "com.dchoc.tuxdo.DCTuxedo"
          ],
          "listener": "javax.microedition.lcdui.DCView",
          "listenerMethod": "onTouchEvent",
          "uiType": "onTouchEvent",
          "constraintsFile": "constraints38_1.py",
          "variables": {
            "\u003cChainedInput1\u003e.getAction()": "IAAv0"
          },
          "stringMap": {},
          "strings": {}
        }
      ]
    },
    "39": {
      "startMethod": "javax.microedition.lcdui.DCView.onTouchEvent(Landroid/view/MotionEvent;)Z",
      "targetMethod": "android.media.MediaPlayer.start()V",
      "eventChain": [
        {
          "start": "com.dchoc.tuxdo.DChocMIDlet.run()V",
          "target": "invokevirtual \u003c Application, Ljavax/microedition/lcdui/DCView, postInvalidate()V \u003e@2",
          "type": "",
          "constraintsFile": "constraints39_0.py",
          "variables": {},
          "stringMap": {},
          "strings": {}
        },
        {
          "start": "javax.microedition.lcdui.DCSurfaceView.onTouchEvent(Landroid/view/MotionEvent;)Z",
          "target": "",
          "type": "ui",
          "activities": [
            "com.dchoc.tuxdo.DCTuxedo"
          ],
          "listener": "javax.microedition.lcdui.DCSurfaceView",
          "listenerMethod": "onTouchEvent",
          "uiType": "onTouchEvent",
          "constraintsFile": "constraints39_1.py",
          "variables": {
            "\u003cChainedInput1\u003e.getAction()": "IAAv0"
          },
          "stringMap": {},
          "strings": {}
        },
        {
          "start": "javax.microedition.lcdui.DCView.onTouchEvent(Landroid/view/MotionEvent;)Z",
          "target": "invokevirtual \u003c Application, Landroid/media/MediaPlayer, start()V \u003e@59",
          "type": "ui",
          "activities": [
            "com.dchoc.tuxdo.DCTuxedo"
          ],
          "listener": "javax.microedition.lcdui.DCView",
          "listenerMethod": "onTouchEvent",
          "uiType": "onTouchEvent",
          "constraintsFile": "constraints39_2.py",
          "variables": {
            "\u003cChainedInput1\u003e.getAction()": "IAAv0"
          },
          "stringMap": {},
          "strings": {}
        }
      ]
    }
  }
}