{
  "packageName": "com.bucketbrigade.softkeyboard",
  "mainActivity": "",
  "callPaths": {
    "0": {
      "startMethod": "com.bucketbrigade.softkeyboard.SoftKeyboard.onKeyDown(ILandroid/view/KeyEvent;)Z",
      "targetMethod": "android.inputmethodservice.KeyboardView.setKeyboard(Landroid/inputmethodservice/Keyboard;)V",
      "eventChain": [
        {
          "start": "com.bucketbrigade.softkeyboard.SoftKeyboard.onKeyDown(ILandroid/view/KeyEvent;)Z",
          "target": "invokevirtual \u003c Application, Landroid/inputmethodservice/KeyboardView, setKeyboard(Landroid/inputmethodservice/Keyboard;)V \u003e@23",
          "type": "ui",
          "activities": [
            ""
          ],
          "listener": "com.bucketbrigade.softkeyboard.SoftKeyboard",
          "listenerMethod": "onKeyDown",
          "uiType": "onKeyDown",
          "constraintsFile": "constraints0_0.py",
          "variables": {
            "\u003cChainedInput1\u003e": "IAAv0"
          },
          "stringMap": {},
          "strings": {}
        }
      ]
    },
    "1": {
      "startMethod": "com.bucketbrigade.softkeyboard.SoftKeyboard.onKeyDown(ILandroid/view/KeyEvent;)Z",
      "targetMethod": "android.inputmethodservice.KeyboardView.setKeyboard(Landroid/inputmethodservice/Keyboard;)V",
      "eventChain": [
        {
          "start": "com.bucketbrigade.softkeyboard.SoftKeyboard.onKeyDown(ILandroid/view/KeyEvent;)Z",
          "target": "invokevirtual \u003c Application, Landroid/inputmethodservice/KeyboardView, setKeyboard(Landroid/inputmethodservice/Keyboard;)V \u003e@121",
          "type": "ui",
          "activities": [
            ""
          ],
          "listener": "com.bucketbrigade.softkeyboard.SoftKeyboard",
          "listenerMethod": "onKeyDown",
          "uiType": "onKeyDown",
          "constraintsFile": "constraints1_0.py",
          "variables": {
            "\u003cChainedInput1\u003e": "IAAv0"
          },
          "stringMap": {},
          "strings": {}
        }
      ]
    },
    "2": {
      "startMethod": "com.bucketbrigade.softkeyboard.SoftKeyboard.onKeyDown(ILandroid/view/KeyEvent;)Z",
      "targetMethod": "android.inputmethodservice.KeyboardView.setKeyboard(Landroid/inputmethodservice/Keyboard;)V",
      "eventChain": [
        {
          "start": "com.bucketbrigade.softkeyboard.SoftKeyboard.onKeyDown(ILandroid/view/KeyEvent;)Z",
          "target": "invokevirtual \u003c Application, Landroid/inputmethodservice/KeyboardView, setKeyboard(Landroid/inputmethodservice/Keyboard;)V \u003e@192",
          "type": "ui",
          "activities": [
            ""
          ],
          "listener": "com.bucketbrigade.softkeyboard.SoftKeyboard",
          "listenerMethod": "onKeyDown",
          "uiType": "onKeyDown",
          "constraintsFile": "constraints2_0.py",
          "variables": {
            "\u003cChainedInput1\u003e": "IAAv0"
          },
          "stringMap": {},
          "strings": {}
        }
      ]
    },
    "3": {
      "startMethod": "com.bucketbrigade.softkeyboard.SoftKeyboard.onKeyDown(ILandroid/view/KeyEvent;)Z",
      "targetMethod": "android.inputmethodservice.KeyboardView.setKeyboard(Landroid/inputmethodservice/Keyboard;)V",
      "eventChain": [
        {
          "start": "com.bucketbrigade.softkeyboard.SoftKeyboard.onKeyDown(ILandroid/view/KeyEvent;)Z",
          "target": "invokevirtual \u003c Application, Landroid/inputmethodservice/KeyboardView, setKeyboard(Landroid/inputmethodservice/Keyboard;)V \u003e@225",
          "type": "ui",
          "activities": [
            ""
          ],
          "listener": "com.bucketbrigade.softkeyboard.SoftKeyboard",
          "listenerMethod": "onKeyDown",
          "uiType": "onKeyDown",
          "constraintsFile": "constraints3_0.py",
          "variables": {
            "\u003cChainedInput1\u003e": "IAAv0"
          },
          "stringMap": {},
          "strings": {}
        }
      ]
    },
    "4": {
      "startMethod": "com.bucketbrigade.softkeyboard.SoftKeyboard.onKeyDown(ILandroid/view/KeyEvent;)Z",
      "targetMethod": "android.inputmethodservice.KeyboardView.setKeyboard(Landroid/inputmethodservice/Keyboard;)V",
      "eventChain": [
        {
          "start": "com.bucketbrigade.softkeyboard.SoftKeyboard.onKeyDown(ILandroid/view/KeyEvent;)Z",
          "target": "invokevirtual \u003c Application, Landroid/inputmethodservice/KeyboardView, setKeyboard(Landroid/inputmethodservice/Keyboard;)V \u003e@173",
          "type": "ui",
          "activities": [
            ""
          ],
          "listener": "com.bucketbrigade.softkeyboard.SoftKeyboard",
          "listenerMethod": "onKeyDown",
          "uiType": "onKeyDown",
          "constraintsFile": "constraints4_0.py",
          "variables": {
            "\u003cChainedInput1\u003e": "IAAv0"
          },
          "stringMap": {},
          "strings": {}
        }
      ]
    },
    "5": {
      "startMethod": "com.bucketbrigade.softkeyboard.SoftKeyboard.swipeDown()V",
      "targetMethod": "android.inputmethodservice.KeyboardView.setKeyboard(Landroid/inputmethodservice/Keyboard;)V",
      "eventChain": [
        {
          "start": "com.bucketbrigade.softkeyboard.SoftKeyboard.swipeDown()V",
          "target": "invokevirtual \u003c Application, Landroid/inputmethodservice/KeyboardView, setKeyboard(Landroid/inputmethodservice/Keyboard;)V \u003e@23",
          "type": ""
        }
      ]
    },
    "6": {
      "startMethod": "com.bucketbrigade.softkeyboard.SoftKeyboard.onCreateInputView()Landroid/view/View;",
      "targetMethod": "android.inputmethodservice.KeyboardView.setKeyboard(Landroid/inputmethodservice/Keyboard;)V",
      "eventChain": [
        {
          "start": "com.bucketbrigade.softkeyboard.SoftKeyboard.onUpdateSelection(IIIIII)V",
          "target": "invokespecial \u003c Application, Landroid/inputmethodservice/InputMethodService, onUpdateSelection(IIIIII)V \u003e@11",
          "type": ""
        },
        {
          "start": "com.bucketbrigade.softkeyboard.SoftKeyboard.onInitializeInterface()V",
          "target": "PC@46",
          "type": "",
          "constraintsFile": "constraints6_0.py",
          "variables": {},
          "stringMap": {},
          "strings": {}
        },
        {
          "start": "com.bucketbrigade.softkeyboard.SoftKeyboard.onCreateInputView()Landroid/view/View;",
          "target": "invokevirtual \u003c Application, Landroid/inputmethodservice/KeyboardView, setKeyboard(Landroid/inputmethodservice/Keyboard;)V \u003e@51",
          "type": ""
        }
      ]
    },
    "7": {
      "startMethod": "com.bucketbrigade.softkeyboard.SoftKeyboard.onStartInputView(Landroid/view/inputmethod/EditorInfo;Z)V",
      "targetMethod": "android.inputmethodservice.KeyboardView.setKeyboard(Landroid/inputmethodservice/Keyboard;)V",
      "eventChain": [
        {
          "start": "com.bucketbrigade.softkeyboard.SoftKeyboard.onUpdateSelection(IIIIII)V",
          "target": "invokespecial \u003c Application, Landroid/inputmethodservice/InputMethodService, onUpdateSelection(IIIIII)V \u003e@11",
          "type": ""
        },
        {
          "start": "com.bucketbrigade.softkeyboard.SoftKeyboard.onStartInput(Landroid/view/inputmethod/EditorInfo;Z)V",
          "target": "PC@117",
          "type": "",
          "constraintsFile": "constraints7_0.py",
          "variables": {
            "\u003cInput2\u003e": "IAAv0"
          },
          "stringMap": {},
          "strings": {}
        },
        {
          "start": "com.bucketbrigade.softkeyboard.SoftKeyboard.onStartInputView(Landroid/view/inputmethod/EditorInfo;Z)V",
          "target": "invokevirtual \u003c Application, Landroid/inputmethodservice/KeyboardView, setKeyboard(Landroid/inputmethodservice/Keyboard;)V \u003e@21",
          "type": ""
        }
      ]
    }
  }
}