{
  "packageName": "com.app_auradental.layout",
  "mainActivity": "com.biznessapps.layout.MainController",
  "callPaths": {
    "0": {
      "startMethod": "com.facebook.LoginActivity.onResume()V",
      "targetMethod": "java.net.URL.openConnection()Ljava/net/URLConnection;",
      "eventChain": [
        {
          "start": "com.facebook.LoginActivity.onCreate(Landroid/os/Bundle;)V",
          "target": "PC@30",
          "type": "activity",
          "component": "com.facebook.LoginActivity",
          "constraintsFile": "constraints0_0.py",
          "variables": {
            "\u003cInput1\u003e": "IAAv8"
          },
          "stringMap": {},
          "strings": {
            "IAAv3": "",
            "IAAv2": ""
          }
        },
        {
          "start": "com.facebook.LoginActivity.onResume()V",
          "target": "invokevirtual \u003c Application, Ljava/net/URL, openConnection()Ljava/net/URLConnection; \u003e@2",
          "type": "activity",
          "component": "com.facebook.LoginActivity",
          "constraintsFile": "constraints0_1.py",
          "variables": {},
          "stringMap": {},
          "strings": {
            "IAAv3": "",
            "IAAv2": ""
          }
        }
      ]
    },
    "1": {
      "startMethod": "com.biznessapps.layout.MainController.onCreate(Landroid/os/Bundle;)V",
      "targetMethod": "org.apache.http.client.HttpClient.execute(Lorg/apache/http/client/methods/HttpUriRequest;)Lorg/apache/http/HttpResponse;",
      "eventChain": [
        {
          "start": "com.biznessapps.layout.MainController.onCreate(Landroid/os/Bundle;)V",
          "target": "invokeinterface \u003c Application, Lorg/apache/http/client/HttpClient, execute(Lorg/apache/http/client/methods/HttpUriRequest;)Lorg/apache/http/HttpResponse; \u003e@160",
          "type": "activity",
          "component": "com.biznessapps.layout.MainController"
        }
      ]
    },
    "2": {
      "startMethod": "com.biznessapps.layout.MainController.onCreate(Landroid/os/Bundle;)V",
      "targetMethod": "org.apache.http.client.HttpClient.execute(Lorg/apache/http/client/methods/HttpUriRequest;)Lorg/apache/http/HttpResponse;",
      "eventChain": [
        {
          "start": "com.biznessapps.layout.MainController.onCreate(Landroid/os/Bundle;)V",
          "target": "invokeinterface \u003c Application, Lorg/apache/http/client/HttpClient, execute(Lorg/apache/http/client/methods/HttpUriRequest;)Lorg/apache/http/HttpResponse; \u003e@33",
          "type": "activity",
          "component": "com.biznessapps.layout.MainController"
        }
      ]
    },
    "3": {
      "startMethod": "com.biznessapps.layout.MainController.onCreate(Landroid/os/Bundle;)V",
      "targetMethod": "org.apache.http.client.HttpClient.execute(Lorg/apache/http/client/methods/HttpUriRequest;)Lorg/apache/http/HttpResponse;",
      "eventChain": [
        {
          "start": "com.biznessapps.layout.MainController.onCreate(Landroid/os/Bundle;)V",
          "target": "invokeinterface \u003c Application, Lorg/apache/http/client/HttpClient, execute(Lorg/apache/http/client/methods/HttpUriRequest;)Lorg/apache/http/HttpResponse; \u003e@239",
          "type": "activity",
          "component": "com.biznessapps.layout.MainController"
        }
      ]
    },
    "4": {
      "startMethod": "com.paypal.android.MEP.PayPalActivity.onCreate(Landroid/os/Bundle;)V",
      "targetMethod": "org.apache.http.impl.client.DefaultHttpClient.execute(Lorg/apache/http/client/methods/HttpUriRequest;)Lorg/apache/http/HttpResponse;",
      "eventChain": [
        {
          "start": "com.paypal.android.MEP.PayPalActivity.onCreate(Landroid/os/Bundle;)V",
          "target": "",
          "type": "activity",
          "component": "com.paypal.android.MEP.PayPalActivity",
          "constraintsFile": "constraints4_0.py",
          "variables": {},
          "stringMap": {},
          "strings": {}
        },
        {
          "start": "com.paypal.android.MEP.PayPalActivity.onCreate(Landroid/os/Bundle;)V",
          "target": "invokevirtual \u003c Application, Lorg/apache/http/impl/client/DefaultHttpClient, execute(Lorg/apache/http/client/methods/HttpUriRequest;)Lorg/apache/http/HttpResponse; \u003e@53",
          "type": "activity",
          "component": "com.paypal.android.MEP.PayPalActivity",
          "constraintsFile": "constraints4_1.py",
          "variables": {},
          "stringMap": {},
          "strings": {}
        }
      ]
    },
    "5": {
      "startMethod": "com.paypal.android.MEP.PayPalActivity.onCreate(Landroid/os/Bundle;)V",
      "targetMethod": "org.apache.http.impl.client.DefaultHttpClient.execute(Lorg/apache/http/client/methods/HttpUriRequest;)Lorg/apache/http/HttpResponse;",
      "eventChain": [
        {
          "start": "com.paypal.android.MEP.PayPalActivity.onCreate(Landroid/os/Bundle;)V",
          "target": "",
          "type": "activity",
          "component": "com.paypal.android.MEP.PayPalActivity",
          "constraintsFile": "constraints5_0.py",
          "variables": {},
          "stringMap": {},
          "strings": {}
        },
        {
          "start": "com.paypal.android.MEP.PayPalActivity.onCreate(Landroid/os/Bundle;)V",
          "target": "",
          "type": "activity",
          "component": "com.paypal.android.MEP.PayPalActivity"
        },
        {
          "start": "com.paypal.android.MEP.PayPalActivity.onCreate(Landroid/os/Bundle;)V",
          "target": "invokevirtual \u003c Application, Lorg/apache/http/impl/client/DefaultHttpClient, execute(Lorg/apache/http/client/methods/HttpUriRequest;)Lorg/apache/http/HttpResponse; \u003e@410",
          "type": "activity",
          "component": "com.paypal.android.MEP.PayPalActivity",
          "constraintsFile": "constraints5_1.py",
          "variables": {},
          "stringMap": {},
          "strings": {}
        }
      ]
    },
    "6": {
      "startMethod": "com.biznessapps.layout.views.scanning.CaptureActivity.onPause()V",
      "targetMethod": "java.lang.reflect.Method.invoke(Ljava/lang/Object;[Ljava/lang/Object;)Ljava/lang/Object;",
      "eventChain": [
        {
          "start": "com.biznessapps.layout.views.scanning.CaptureActivity.onCreate(Landroid/os/Bundle;)V",
          "target": "PC@64",
          "type": "activity",
          "component": "com.biznessapps.layout.views.scanning.CaptureActivity",
          "constraintsFile": "constraints6_0.py",
          "variables": {},
          "stringMap": {},
          "strings": {}
        },
        {
          "start": "com.biznessapps.layout.views.scanning.CaptureActivity.onResume()V",
          "target": "PC@16",
          "type": "activity",
          "component": "com.biznessapps.layout.views.scanning.CaptureActivity",
          "constraintsFile": "constraints6_1.py",
          "variables": {},
          "stringMap": {},
          "strings": {}
        },
        {
          "start": "com.biznessapps.layout.views.scanning.CaptureActivity.onPause()V",
          "target": "invokevirtual \u003c Application, Ljava/lang/reflect/Method, invoke(Ljava/lang/Object;[Ljava/lang/Object;)Ljava/lang/Object; \u003e@7",
          "type": "activity",
          "component": "com.biznessapps.layout.views.scanning.CaptureActivity",
          "constraintsFile": "constraints6_2.py",
          "variables": {},
          "stringMap": {},
          "strings": {}
        }
      ]
    },
    "7": {
      "startMethod": "com.biznessapps.pushnotifications.C2DMMessagesReceiver.onReceive(Landroid/content/Context;Landroid/content/Intent;)V",
      "targetMethod": "org.apache.http.client.HttpClient.execute(Lorg/apache/http/client/methods/HttpUriRequest;)Lorg/apache/http/HttpResponse;",
      "eventChain": [
        {
          "start": "com.biznessapps.pushnotifications.C2DMMessagesReceiver.onReceive(Landroid/content/Context;Landroid/content/Intent;)V",
          "target": "invokeinterface \u003c Application, Lorg/apache/http/client/HttpClient, execute(Lorg/apache/http/client/methods/HttpUriRequest;)Lorg/apache/http/HttpResponse; \u003e@160",
          "type": "sms",
          "constraintsFile": "constraints7_0.py",
          "variables": {
            "\u003cInput2\u003e.getAction()": "IAAv0",
            "\u003cInput2\u003e.getStringExtra()": "IAAv3",
            "\u003cInput2\u003e.getStringExtra().indexOf()": "IAAv2"
          },
          "stringMap": {
            "7000": "com.google.android.c2dm.intent.RECEIVE"
          },
          "strings": {
            "IAAv3": "",
            "IAAv0": ""
          }
        }
      ]
    },
    "8": {
      "startMethod": "com.biznessapps.pushnotifications.C2DMMessagesReceiver.onReceive(Landroid/content/Context;Landroid/content/Intent;)V",
      "targetMethod": "org.apache.http.client.HttpClient.execute(Lorg/apache/http/client/methods/HttpUriRequest;)Lorg/apache/http/HttpResponse;",
      "eventChain": [
        {
          "start": "com.biznessapps.pushnotifications.C2DMMessagesReceiver.onReceive(Landroid/content/Context;Landroid/content/Intent;)V",
          "target": "invokeinterface \u003c Application, Lorg/apache/http/client/HttpClient, execute(Lorg/apache/http/client/methods/HttpUriRequest;)Lorg/apache/http/HttpResponse; \u003e@33",
          "type": "sms",
          "constraintsFile": "constraints8_0.py",
          "variables": {
            "\u003cInput2\u003e.getAction()": "IAAv0",
            "\u003cInput2\u003e.getStringExtra()": "IAAv3",
            "\u003cInput2\u003e.getStringExtra().indexOf()": "IAAv2"
          },
          "stringMap": {
            "7000": "com.google.android.c2dm.intent.RECEIVE"
          },
          "strings": {
            "IAAv3": "",
            "IAAv0": ""
          }
        }
      ]
    },
    "9": {
      "startMethod": "com.biznessapps.fragments.events.EventV2DetailsFragment$3.onClick(Landroid/view/View;)V",
      "targetMethod": "org.apache.http.client.HttpClient.execute(Lorg/apache/http/client/methods/HttpUriRequest;)Lorg/apache/http/HttpResponse;",
      "eventChain": [
        {
          "start": "com.biznessapps.fragments.events.EventV2DetailsFragment$3.onClick(Landroid/view/View;)V",
          "target": "invokeinterface \u003c Application, Lorg/apache/http/client/HttpClient, execute(Lorg/apache/http/client/methods/HttpUriRequest;)Lorg/apache/http/HttpResponse; \u003e@160",
          "type": "ui",
          "activities": [
            "com.biznessapps.layout.MainController"
          ],
          "listener": "com.biznessapps.fragments.events.EventV2DetailsFragment$3",
          "listenerMethod": "onClick",
          "uiType": "onClick"
        }
      ]
    },
    "10": {
      "startMethod": "com.biznessapps.fragments.events.EventV2DetailsFragment$3.onClick(Landroid/view/View;)V",
      "targetMethod": "org.apache.http.client.HttpClient.execute(Lorg/apache/http/client/methods/HttpUriRequest;)Lorg/apache/http/HttpResponse;",
      "eventChain": [
        {
          "start": "com.biznessapps.fragments.events.EventV2DetailsFragment$3.onClick(Landroid/view/View;)V",
          "target": "invokeinterface \u003c Application, Lorg/apache/http/client/HttpClient, execute(Lorg/apache/http/client/methods/HttpUriRequest;)Lorg/apache/http/HttpResponse; \u003e@33",
          "type": "ui",
          "activities": [
            "com.biznessapps.layout.MainController"
          ],
          "listener": "com.biznessapps.fragments.events.EventV2DetailsFragment$3",
          "listenerMethod": "onClick",
          "uiType": "onClick"
        }
      ]
    },
    "11": {
      "startMethod": "com.biznessapps.fragments.events.EventGoingTabUtils$1.onClick(Landroid/view/View;)V",
      "targetMethod": "org.apache.http.client.HttpClient.execute(Lorg/apache/http/client/methods/HttpUriRequest;)Lorg/apache/http/HttpResponse;",
      "eventChain": [
        {
          "start": "com.biznessapps.fragments.events.EventGoingTabUtils$1.onClick(Landroid/view/View;)V",
          "target": "invokeinterface \u003c Application, Lorg/apache/http/client/HttpClient, execute(Lorg/apache/http/client/methods/HttpUriRequest;)Lorg/apache/http/HttpResponse; \u003e@160",
          "type": "ui",
          "activities": [
            "com.biznessapps.layout.MainController"
          ],
          "listener": "com.biznessapps.fragments.events.EventGoingTabUtils$1",
          "listenerMethod": "onClick",
          "uiType": "onClick",
          "constraintsFile": "constraints11_0.py",
          "variables": {},
          "stringMap": {},
          "strings": {}
        }
      ]
    },
    "12": {
      "startMethod": "com.facebook.widget.LoginButton$LoginClickListener.onClick(Landroid/view/View;)V",
      "targetMethod": "java.net.URL.openConnection()Ljava/net/URLConnection;",
      "eventChain": [
        {
          "start": "com.facebook.widget.LoginButton$LoginClickListener.onClick(Landroid/view/View;)V",
          "target": "invokevirtual \u003c Application, Ljava/net/URL, openConnection()Ljava/net/URLConnection; \u003e@2",
          "type": "ui",
          "activities": [
            "com.biznessapps.layout.MainController"
          ],
          "listener": "com.facebook.widget.LoginButton$LoginClickListener",
          "listenerMethod": "onClick",
          "uiType": "onClick",
          "constraintsFile": "constraints12_0.py",
          "variables": {},
          "stringMap": {},
          "strings": {
            "IAAv10": ""
          }
        }
      ]
    },
    "13": {
      "startMethod": "com.biznessapps.fragments.events.EventV2DetailsFragment$4.onClick(Landroid/view/View;)V",
      "targetMethod": "org.apache.http.client.HttpClient.execute(Lorg/apache/http/client/methods/HttpUriRequest;)Lorg/apache/http/HttpResponse;",
      "eventChain": [
        {
          "start": "com.biznessapps.fragments.events.EventV2DetailsFragment$4.onClick(Landroid/view/View;)V",
          "target": "invokeinterface \u003c Application, Lorg/apache/http/client/HttpClient, execute(Lorg/apache/http/client/methods/HttpUriRequest;)Lorg/apache/http/HttpResponse; \u003e@33",
          "type": "ui",
          "activities": [
            "com.biznessapps.layout.MainController"
          ],
          "listener": "com.biznessapps.fragments.events.EventV2DetailsFragment$4",
          "listenerMethod": "onClick",
          "uiType": "onClick"
        }
      ]
    },
    "14": {
      "startMethod": "com.biznessapps.fragments.events.EventV2DetailsFragment$4.onClick(Landroid/view/View;)V",
      "targetMethod": "org.apache.http.client.HttpClient.execute(Lorg/apache/http/client/methods/HttpUriRequest;)Lorg/apache/http/HttpResponse;",
      "eventChain": [
        {
          "start": "com.biznessapps.fragments.events.EventV2DetailsFragment$4.onClick(Landroid/view/View;)V",
          "target": "invokeinterface \u003c Application, Lorg/apache/http/client/HttpClient, execute(Lorg/apache/http/client/methods/HttpUriRequest;)Lorg/apache/http/HttpResponse; \u003e@160",
          "type": "ui",
          "activities": [
            "com.biznessapps.layout.MainController"
          ],
          "listener": "com.biznessapps.fragments.events.EventV2DetailsFragment$4",
          "listenerMethod": "onClick",
          "uiType": "onClick"
        }
      ]
    },
    "15": {
      "startMethod": "com.biznessapps.fragments.infoitems.InfoDetailFragment$3.onClick(Landroid/view/View;)V",
      "targetMethod": "org.apache.http.client.HttpClient.execute(Lorg/apache/http/client/methods/HttpUriRequest;)Lorg/apache/http/HttpResponse;",
      "eventChain": [
        {
          "start": "com.biznessapps.fragments.infoitems.InfoDetailFragment$3.onClick(Landroid/view/View;)V",
          "target": "invokeinterface \u003c Application, Lorg/apache/http/client/HttpClient, execute(Lorg/apache/http/client/methods/HttpUriRequest;)Lorg/apache/http/HttpResponse; \u003e@160",
          "type": "ui",
          "activities": [
            "com.biznessapps.layout.MainController"
          ],
          "listener": "com.biznessapps.fragments.infoitems.InfoDetailFragment$3",
          "listenerMethod": "onClick",
          "uiType": "onClick"
        }
      ]
    },
    "16": {
      "startMethod": "com.biznessapps.fragments.infoitems.InfoDetailFragment$3.onClick(Landroid/view/View;)V",
      "targetMethod": "org.apache.http.client.HttpClient.execute(Lorg/apache/http/client/methods/HttpUriRequest;)Lorg/apache/http/HttpResponse;",
      "eventChain": [
        {
          "start": "com.biznessapps.fragments.infoitems.InfoDetailFragment$3.onClick(Landroid/view/View;)V",
          "target": "invokeinterface \u003c Application, Lorg/apache/http/client/HttpClient, execute(Lorg/apache/http/client/methods/HttpUriRequest;)Lorg/apache/http/HttpResponse; \u003e@33",
          "type": "ui",
          "activities": [
            "com.biznessapps.layout.MainController"
          ],
          "listener": "com.biznessapps.fragments.infoitems.InfoDetailFragment$3",
          "listenerMethod": "onClick",
          "uiType": "onClick"
        }
      ]
    },
    "17": {
      "startMethod": "com.biznessapps.fragments.events.EventV2DetailsFragment$2.onClick(Landroid/view/View;)V",
      "targetMethod": "org.apache.http.client.HttpClient.execute(Lorg/apache/http/client/methods/HttpUriRequest;)Lorg/apache/http/HttpResponse;",
      "eventChain": [
        {
          "start": "com.biznessapps.fragments.events.EventV2DetailsFragment$2.onClick(Landroid/view/View;)V",
          "target": "invokeinterface \u003c Application, Lorg/apache/http/client/HttpClient, execute(Lorg/apache/http/client/methods/HttpUriRequest;)Lorg/apache/http/HttpResponse; \u003e@160",
          "type": "ui",
          "activities": [
            "com.biznessapps.layout.MainController"
          ],
          "listener": "com.biznessapps.fragments.events.EventV2DetailsFragment$2",
          "listenerMethod": "onClick",
          "uiType": "onClick"
        }
      ]
    },
    "18": {
      "startMethod": "com.biznessapps.fragments.events.EventV2DetailsFragment$2.onClick(Landroid/view/View;)V",
      "targetMethod": "org.apache.http.client.HttpClient.execute(Lorg/apache/http/client/methods/HttpUriRequest;)Lorg/apache/http/HttpResponse;",
      "eventChain": [
        {
          "start": "com.biznessapps.fragments.events.EventV2DetailsFragment$2.onClick(Landroid/view/View;)V",
          "target": "invokeinterface \u003c Application, Lorg/apache/http/client/HttpClient, execute(Lorg/apache/http/client/methods/HttpUriRequest;)Lorg/apache/http/HttpResponse; \u003e@33",
          "type": "ui",
          "activities": [
            "com.biznessapps.layout.MainController"
          ],
          "listener": "com.biznessapps.fragments.events.EventV2DetailsFragment$2",
          "listenerMethod": "onClick",
          "uiType": "onClick"
        }
      ]
    }
  }
}