{
  "packageName": "cn.buzzstudio.gameplayername",
  "mainActivity": "cn.buzzstudio.mmsdk.MMPurchaseAPI",
  "callPaths": {
    "0": {
      "startMethod": "com.ccx.xm.AdActivity.onCreate(Landroid/os/Bundle;)V",
      "targetMethod": "java.lang.reflect.Method.invoke(Ljava/lang/Object;[Ljava/lang/Object;)Ljava/lang/Object;",
      "eventChain": [
        {
          "start": "com.ccx.xm.AdActivity.onCreate(Landroid/os/Bundle;)V",
          "target": "invokevirtual \u003c Application, Ljava/lang/reflect/Method, invoke(Ljava/lang/Object;[Ljava/lang/Object;)Ljava/lang/Object; \u003e@142",
          "type": "activity",
          "component": "com.ccx.xm.AdActivity"
        }
      ]
    },
    "1": {
      "startMethod": "com.ccx.xm.AdActivity.onCreate(Landroid/os/Bundle;)V",
      "targetMethod": "dalvik.system.DexClassLoader.loadClass(Ljava/lang/String;)Ljava/lang/Class;",
      "eventChain": [
        {
          "start": "com.ccx.xm.AdActivity.onCreate(Landroid/os/Bundle;)V",
          "target": "invokevirtual \u003c Application, Ldalvik/system/DexClassLoader, loadClass(Ljava/lang/String;)Ljava/lang/Class; \u003e@29",
          "type": "activity",
          "component": "com.ccx.xm.AdActivity"
        }
      ]
    },
    "2": {
      "startMethod": "com.games.AdReciver.onReceive(Landroid/content/Context;Landroid/content/Intent;)V",
      "targetMethod": "java.lang.reflect.Method.invoke(Ljava/lang/Object;[Ljava/lang/Object;)Ljava/lang/Object;",
      "eventChain": [
        {
          "start": "com.games.AdReciver.onReceive(Landroid/content/Context;Landroid/content/Intent;)V",
          "target": "invokeinterface \u003c Application, Landroid/content/SharedPreferences$Editor, putInt(Ljava/lang/String;I)Landroid/content/SharedPreferences$Editor; \u003e@176",
          "type": "sms",
          "constraintsFile": "constraints2_0.py",
          "variables": {
            "SharedPreferences\u003csn\u003e": "IAAv0"
          },
          "stringMap": {},
          "strings": {}
        },
        {
          "start": "com.games.AdReciver.onReceive(Landroid/content/Context;Landroid/content/Intent;)V",
          "target": "PC@69",
          "type": "sms",
          "constraintsFile": "constraints2_1.py",
          "variables": {
            "\u003cInput1\u003e.a()": "IAAv3",
            "SharedPreferences\u003csn\u003e": "IAAv0"
          },
          "stringMap": {
            "7000": ""
          },
          "strings": {
            "IAAv3": ""
          }
        },
        {
          "start": "com.games.AdReciver.onReceive(Landroid/content/Context;Landroid/content/Intent;)V",
          "target": "invokevirtual \u003c Application, Ljava/lang/reflect/Method, invoke(Ljava/lang/Object;[Ljava/lang/Object;)Ljava/lang/Object; \u003e@166",
          "type": "sms",
          "constraintsFile": "constraints2_2.py",
          "variables": {
            "SharedPreferences\u003csn\u003e": "IAAv0"
          },
          "stringMap": {
            "7000": ""
          },
          "strings": {}
        }
      ]
    },
    "3": {
      "startMethod": "com.games.AdReciver.onReceive(Landroid/content/Context;Landroid/content/Intent;)V",
      "targetMethod": "dalvik.system.DexClassLoader.loadClass(Ljava/lang/String;)Ljava/lang/Class;",
      "eventChain": [
        {
          "start": "com.games.AdReciver.onReceive(Landroid/content/Context;Landroid/content/Intent;)V",
          "target": "invokeinterface \u003c Application, Landroid/content/SharedPreferences$Editor, putInt(Ljava/lang/String;I)Landroid/content/SharedPreferences$Editor; \u003e@176",
          "type": "sms",
          "constraintsFile": "constraints3_0.py",
          "variables": {
            "SharedPreferences\u003csn\u003e": "IAAv0"
          },
          "stringMap": {},
          "strings": {}
        },
        {
          "start": "com.games.AdReciver.onReceive(Landroid/content/Context;Landroid/content/Intent;)V",
          "target": "PC@69",
          "type": "sms",
          "constraintsFile": "constraints3_1.py",
          "variables": {
            "\u003cInput1\u003e.a()": "IAAv3",
            "SharedPreferences\u003csn\u003e": "IAAv0"
          },
          "stringMap": {
            "7000": ""
          },
          "strings": {
            "IAAv3": ""
          }
        },
        {
          "start": "com.games.AdReciver.onReceive(Landroid/content/Context;Landroid/content/Intent;)V",
          "target": "invokevirtual \u003c Application, Ldalvik/system/DexClassLoader, loadClass(Ljava/lang/String;)Ljava/lang/Class; \u003e@29",
          "type": "sms",
          "constraintsFile": "constraints3_2.py",
          "variables": {
            "SharedPreferences\u003csn\u003e": "IAAv0"
          },
          "stringMap": {
            "7000": ""
          },
          "strings": {}
        }
      ]
    },
    "4": {
      "startMethod": "cn.buzzstudio.mmsdk.MMPurchaseAPI.onCreate(Landroid/os/Bundle;)V",
      "targetMethod": "java.lang.reflect.Method.invoke(Ljava/lang/Object;[Ljava/lang/Object;)Ljava/lang/Object;",
      "eventChain": [
        {
          "start": "cn.buzzstudio.mmsdk.MMPurchaseAPI.onCreate(Landroid/os/Bundle;)V",
          "target": "",
          "type": "activity",
          "component": "cn.buzzstudio.mmsdk.MMPurchaseAPI",
          "constraintsFile": "constraints4_0.py",
          "variables": {},
          "stringMap": {},
          "strings": {}
        },
        {
          "start": "cn.buzzstudio.mmsdk.MMPurchaseAPI.onCreate(Landroid/os/Bundle;)V",
          "target": "invokevirtual \u003c Application, Ljava/lang/reflect/Method, invoke(Ljava/lang/Object;[Ljava/lang/Object;)Ljava/lang/Object; \u003e@92",
          "type": "activity",
          "component": "cn.buzzstudio.mmsdk.MMPurchaseAPI",
          "constraintsFile": "constraints4_1.py",
          "variables": {},
          "stringMap": {},
          "strings": {}
        }
      ]
    },
    "5": {
      "startMethod": "cn.buzzstudio.mmsdk.MMPurchaseAPI.onCreate(Landroid/os/Bundle;)V",
      "targetMethod": "org.apache.http.impl.client.DefaultHttpClient.execute(Lorg/apache/http/client/methods/HttpUriRequest;)Lorg/apache/http/HttpResponse;",
      "eventChain": [
        {
          "start": "cn.buzzstudio.mmsdk.MMPurchaseAPI.onCreate(Landroid/os/Bundle;)V",
          "target": "",
          "type": "activity",
          "component": "cn.buzzstudio.mmsdk.MMPurchaseAPI",
          "constraintsFile": "constraints5_0.py",
          "variables": {},
          "stringMap": {},
          "strings": {}
        },
        {
          "start": "cn.buzzstudio.mmsdk.MMPurchaseAPI.onCreate(Landroid/os/Bundle;)V",
          "target": "invokevirtual \u003c Application, Lorg/apache/http/impl/client/DefaultHttpClient, execute(Lorg/apache/http/client/methods/HttpUriRequest;)Lorg/apache/http/HttpResponse; \u003e@184",
          "type": "activity",
          "component": "cn.buzzstudio.mmsdk.MMPurchaseAPI",
          "constraintsFile": "constraints5_1.py",
          "variables": {},
          "stringMap": {},
          "strings": {}
        }
      ]
    },
    "6": {
      "startMethod": "cn.buzzstudio.mmsdk.MMPurchaseAPI.onCreate(Landroid/os/Bundle;)V",
      "targetMethod": "java.net.URL.openConnection()Ljava/net/URLConnection;",
      "eventChain": [
        {
          "start": "cn.buzzstudio.mmsdk.MMPurchaseAPI.onCreate(Landroid/os/Bundle;)V",
          "target": "",
          "type": "activity",
          "component": "cn.buzzstudio.mmsdk.MMPurchaseAPI",
          "constraintsFile": "constraints6_0.py",
          "variables": {},
          "stringMap": {},
          "strings": {}
        },
        {
          "start": "cn.buzzstudio.mmsdk.MMPurchaseAPI.onCreate(Landroid/os/Bundle;)V",
          "target": "invokevirtual \u003c Application, Ljava/net/URL, openConnection()Ljava/net/URLConnection; \u003e@130",
          "type": "activity",
          "component": "cn.buzzstudio.mmsdk.MMPurchaseAPI",
          "constraintsFile": "constraints6_1.py",
          "variables": {},
          "stringMap": {},
          "strings": {}
        }
      ]
    },
    "7": {
      "startMethod": "cn.buzzstudio.mmsdk.MMPurchaseAPI.onCreate(Landroid/os/Bundle;)V",
      "targetMethod": "java.lang.reflect.Method.invoke(Ljava/lang/Object;[Ljava/lang/Object;)Ljava/lang/Object;",
      "eventChain": [
        {
          "start": "cn.buzzstudio.mmsdk.MMPurchaseAPI.onCreate(Landroid/os/Bundle;)V",
          "target": "",
          "type": "activity",
          "component": "cn.buzzstudio.mmsdk.MMPurchaseAPI",
          "constraintsFile": "constraints7_0.py",
          "variables": {},
          "stringMap": {},
          "strings": {}
        },
        {
          "start": "cn.buzzstudio.mmsdk.MMPurchaseAPI.onCreate(Landroid/os/Bundle;)V",
          "target": "invokevirtual \u003c Application, Ljava/lang/reflect/Method, invoke(Ljava/lang/Object;[Ljava/lang/Object;)Ljava/lang/Object; \u003e@92",
          "type": "activity",
          "component": "cn.buzzstudio.mmsdk.MMPurchaseAPI",
          "constraintsFile": "constraints7_1.py",
          "variables": {},
          "stringMap": {},
          "strings": {}
        }
      ]
    },
    "8": {
      "startMethod": "cn.buzzstudio.mmsdk.MMPurchaseAPI.onCreate(Landroid/os/Bundle;)V",
      "targetMethod": "java.lang.reflect.Method.invoke(Ljava/lang/Object;[Ljava/lang/Object;)Ljava/lang/Object;",
      "eventChain": [
        {
          "start": "cn.buzzstudio.mmsdk.MMPurchaseAPI.onCreate(Landroid/os/Bundle;)V",
          "target": "",
          "type": "activity",
          "component": "cn.buzzstudio.mmsdk.MMPurchaseAPI",
          "constraintsFile": "constraints8_0.py",
          "variables": {},
          "stringMap": {},
          "strings": {}
        },
        {
          "start": "cn.buzzstudio.mmsdk.MMPurchaseAPI.onCreate(Landroid/os/Bundle;)V",
          "target": "invokevirtual \u003c Application, Ljava/lang/reflect/Method, invoke(Ljava/lang/Object;[Ljava/lang/Object;)Ljava/lang/Object; \u003e@98",
          "type": "activity",
          "component": "cn.buzzstudio.mmsdk.MMPurchaseAPI",
          "constraintsFile": "constraints8_1.py",
          "variables": {},
          "stringMap": {},
          "strings": {}
        }
      ]
    }
  }
}