{
  "packageName": "com.bluemansion.jewels.blitz.gold.hexagon",
  "mainActivity": "com.bluemansion.source.Main",
  "callPaths": {
    "0": {
      "startMethod": "com.google.android.gms.ads.AdActivity.onPause()V",
      "targetMethod": "android.widget.VideoView.pause()V",
      "eventChain": [
        {
          "start": "com.google.android.gms.ads.AdActivity.onCreate(Landroid/os/Bundle;)V",
          "target": "PC@13",
          "type": "activity",
          "component": "com.google.android.gms.ads.AdActivity"
        },
        {
          "start": "com.google.android.gms.ads.AdActivity.onPause()V",
          "target": "invokevirtual \u003c Application, Landroid/widget/VideoView, pause()V \u003e@7",
          "type": "activity",
          "component": "com.google.android.gms.ads.AdActivity",
          "constraintsFile": "constraints0_0.py",
          "variables": {},
          "stringMap": {},
          "strings": {}
        }
      ]
    },
    "1": {
      "startMethod": "com.google.android.gms.maps.MapFragment.onResume()V",
      "targetMethod": "java.lang.ClassLoader.loadClass(Ljava/lang/String;)Ljava/lang/Class;",
      "eventChain": [
        {
          "start": "com.google.android.gms.maps.MapFragment.onDestroy()V",
          "target": "invokespecial \u003c Application, Landroid/app/Fragment, onDestroy()V \u003e@11",
          "type": ""
        },
        {
          "start": "com.google.android.gms.maps.MapFragment.onResume()V",
          "target": "invokevirtual \u003c Application, Ljava/lang/ClassLoader, loadClass(Ljava/lang/String;)Ljava/lang/Class; \u003e@13",
          "type": "",
          "constraintsFile": "constraints1_0.py",
          "variables": {},
          "stringMap": {},
          "strings": {}
        }
      ]
    },
    "2": {
      "startMethod": "com.google.android.gms.maps.MapFragment.onCreate(Landroid/os/Bundle;)V",
      "targetMethod": "java.lang.ClassLoader.loadClass(Ljava/lang/String;)Ljava/lang/Class;",
      "eventChain": [
        {
          "start": "com.google.android.gms.maps.MapFragment.onDestroy()V",
          "target": "invokespecial \u003c Application, Landroid/app/Fragment, onDestroy()V \u003e@11",
          "type": ""
        },
        {
          "start": "com.google.android.gms.maps.MapFragment.onCreate(Landroid/os/Bundle;)V",
          "target": "invokevirtual \u003c Application, Ljava/lang/ClassLoader, loadClass(Ljava/lang/String;)Ljava/lang/Class; \u003e@13",
          "type": "",
          "constraintsFile": "constraints2_0.py",
          "variables": {
            "\u003cChainedInput1\u003e": "IAAv2"
          },
          "stringMap": {},
          "strings": {}
        }
      ]
    },
    "3": {
      "startMethod": "com.google.android.gms.ads.AdActivity.onCreate(Landroid/os/Bundle;)V",
      "targetMethod": "android.webkit.WebView.\u003cinit\u003e(Landroid/content/Context;)V",
      "eventChain": [
        {
          "start": "com.google.android.gms.ads.AdActivity.onCreate(Landroid/os/Bundle;)V",
          "target": "PC@13",
          "type": "activity",
          "component": "com.google.android.gms.ads.AdActivity"
        },
        {
          "start": "com.google.android.gms.ads.AdActivity.onCreate(Landroid/os/Bundle;)V",
          "target": "invokespecial \u003c Application, Landroid/webkit/WebView, \u003cinit\u003e(Landroid/content/Context;)V \u003e@7",
          "type": "activity",
          "component": "com.google.android.gms.ads.AdActivity",
          "constraintsFile": "constraints3_0.py",
          "variables": {},
          "stringMap": {},
          "strings": {
            "IAAv3": ""
          }
        }
      ]
    },
    "4": {
      "startMethod": "com.google.android.gms.ads.AdActivity.onCreate(Landroid/os/Bundle;)V",
      "targetMethod": "android.webkit.WebView.\u003cinit\u003e(Landroid/content/Context;)V",
      "eventChain": [
        {
          "start": "com.google.android.gms.ads.AdActivity.onCreate(Landroid/os/Bundle;)V",
          "target": "PC@13",
          "type": "activity",
          "component": "com.google.android.gms.ads.AdActivity"
        },
        {
          "start": "com.google.android.gms.ads.AdActivity.onCreate(Landroid/os/Bundle;)V",
          "target": "invokespecial \u003c Application, Landroid/webkit/WebView, \u003cinit\u003e(Landroid/content/Context;)V \u003e@10",
          "type": "activity",
          "component": "com.google.android.gms.ads.AdActivity",
          "constraintsFile": "constraints4_0.py",
          "variables": {},
          "stringMap": {},
          "strings": {}
        }
      ]
    },
    "5": {
      "startMethod": "com.google.android.gms.ads.AdActivity.onCreate(Landroid/os/Bundle;)V",
      "targetMethod": "java.lang.ClassLoader.loadClass(Ljava/lang/String;)Ljava/lang/Class;",
      "eventChain": [
        {
          "start": "com.google.android.gms.ads.AdActivity.onCreate(Landroid/os/Bundle;)V",
          "target": "invokevirtual \u003c Application, Ljava/lang/ClassLoader, loadClass(Ljava/lang/String;)Ljava/lang/Class; \u003e@50",
          "type": "activity",
          "component": "com.google.android.gms.ads.AdActivity"
        }
      ]
    },
    "6": {
      "startMethod": "com.google.android.gms.ads.AdActivity.onDestroy()V",
      "targetMethod": "android.widget.VideoView.stopPlayback()V",
      "eventChain": [
        {
          "start": "com.google.android.gms.ads.AdActivity.onCreate(Landroid/os/Bundle;)V",
          "target": "PC@13",
          "type": "activity",
          "component": "com.google.android.gms.ads.AdActivity"
        },
        {
          "start": "com.google.android.gms.ads.AdActivity.onDestroy()V",
          "target": "invokevirtual \u003c Application, Landroid/widget/VideoView, stopPlayback()V \u003e@16",
          "type": "activity",
          "component": "com.google.android.gms.ads.AdActivity",
          "constraintsFile": "constraints6_0.py",
          "variables": {},
          "stringMap": {},
          "strings": {}
        }
      ]
    },
    "7": {
      "startMethod": "com.google.android.gms.maps.MapFragment.onAttach(Landroid/app/Activity;)V",
      "targetMethod": "java.lang.ClassLoader.loadClass(Ljava/lang/String;)Ljava/lang/Class;",
      "eventChain": [
        {
          "start": "com.google.android.gms.maps.MapFragment.onDestroy()V",
          "target": "invokespecial \u003c Application, Landroid/app/Fragment, onDestroy()V \u003e@11",
          "type": ""
        },
        {
          "start": "com.google.android.gms.maps.MapFragment.onResume()V",
          "target": "",
          "type": "",
          "constraintsFile": "constraints7_0.py",
          "variables": {},
          "stringMap": {},
          "strings": {}
        },
        {
          "start": "com.google.android.gms.maps.MapFragment.onAttach(Landroid/app/Activity;)V",
          "target": "invokevirtual \u003c Application, Ljava/lang/ClassLoader, loadClass(Ljava/lang/String;)Ljava/lang/Class; \u003e@13",
          "type": "",
          "constraintsFile": "constraints7_1.py",
          "variables": {},
          "stringMap": {},
          "strings": {}
        }
      ]
    },
    "8": {
      "startMethod": "com.google.android.gms.maps.MapFragment.onCreateView(Landroid/view/LayoutInflater;Landroid/view/ViewGroup;Landroid/os/Bundle;)Landroid/view/View;",
      "targetMethod": "java.lang.ClassLoader.loadClass(Ljava/lang/String;)Ljava/lang/Class;",
      "eventChain": [
        {
          "start": "com.google.android.gms.maps.MapFragment.onDestroy()V",
          "target": "invokespecial \u003c Application, Landroid/app/Fragment, onDestroy()V \u003e@11",
          "type": ""
        },
        {
          "start": "com.google.android.gms.maps.MapFragment.onCreateView(Landroid/view/LayoutInflater;Landroid/view/ViewGroup;Landroid/os/Bundle;)Landroid/view/View;",
          "target": "invokevirtual \u003c Application, Ljava/lang/ClassLoader, loadClass(Ljava/lang/String;)Ljava/lang/Class; \u003e@13",
          "type": "",
          "constraintsFile": "constraints8_0.py",
          "variables": {
            "\u003cChainedInput3\u003e": "IAAv2"
          },
          "stringMap": {},
          "strings": {}
        }
      ]
    },
    "9": {
      "startMethod": "com.google.android.gms.internal.cr.shouldOverrideUrlLoading(Landroid/webkit/WebView;Ljava/lang/String;)Z",
      "targetMethod": "android.widget.VideoView.pause()V",
      "eventChain": [
        {
          "start": "com.google.android.gms.internal.cr.shouldOverrideUrlLoading(Landroid/webkit/WebView;Ljava/lang/String;)Z",
          "target": "invokespecial \u003c Application, Landroid/webkit/WebViewClient, shouldOverrideUrlLoading(Landroid/webkit/WebView;Ljava/lang/String;)Z \u003e@127",
          "type": "",
          "constraintsFile": "constraints9_0.py",
          "variables": {
            "\u003cChainedInput2\u003e.parse().getHost()": "IAAv2",
            "\u003cChainedInput2\u003e.parse().getScheme()": "IAAv0",
            "\u003cChainedInput2\u003e.parse().b()": "IAAv5"
          },
          "stringMap": {
            "7000": "gmsg",
            "7001": "mobileads.google.com"
          },
          "strings": {
            "IAAv2": "",
            "IAAv0": ""
          }
        },
        {
          "start": "com.google.android.gms.internal.cr.shouldOverrideUrlLoading(Landroid/webkit/WebView;Ljava/lang/String;)Z",
          "target": "invokevirtual \u003c Application, Landroid/widget/VideoView, pause()V \u003e@7",
          "type": "",
          "constraintsFile": "constraints9_1.py",
          "variables": {
            "\u003cChainedInput2\u003e.parse().getHost()": "IAAv2",
            "\u003cChainedInput2\u003e.parse().getScheme()": "IAAv0"
          },
          "stringMap": {
            "7000": "gmsg",
            "7001": "mobileads.google.com"
          },
          "strings": {
            "IAAv2": "",
            "IAAv0": ""
          }
        }
      ]
    },
    "10": {
      "startMethod": "com.google.android.gms.internal.cr.shouldOverrideUrlLoading(Landroid/webkit/WebView;Ljava/lang/String;)Z",
      "targetMethod": "java.lang.reflect.Method.invoke(Ljava/lang/Object;[Ljava/lang/Object;)Ljava/lang/Object;",
      "eventChain": [
        {
          "start": "com.google.android.gms.internal.cr.shouldOverrideUrlLoading(Landroid/webkit/WebView;Ljava/lang/String;)Z",
          "target": "invokespecial \u003c Application, Landroid/webkit/WebViewClient, shouldOverrideUrlLoading(Landroid/webkit/WebView;Ljava/lang/String;)Z \u003e@127",
          "type": "",
          "constraintsFile": "constraints10_0.py",
          "variables": {
            "\u003cChainedInput2\u003e.parse().getHost()": "IAAv2",
            "\u003cChainedInput2\u003e.parse().getScheme()": "IAAv0",
            "\u003cChainedInput2\u003e.parse().b()": "IAAv5"
          },
          "stringMap": {
            "7000": "gmsg",
            "7001": "mobileads.google.com"
          },
          "strings": {
            "IAAv2": "",
            "IAAv0": ""
          }
        },
        {
          "start": "com.google.android.gms.internal.cr.shouldOverrideUrlLoading(Landroid/webkit/WebView;Ljava/lang/String;)Z",
          "target": "invokevirtual \u003c Application, Ljava/lang/reflect/Method, invoke(Ljava/lang/Object;[Ljava/lang/Object;)Ljava/lang/Object; \u003e@61",
          "type": "",
          "constraintsFile": "constraints10_1.py",
          "variables": {
            "\u003cChainedInput2\u003e.parse().getHost()": "IAAv2",
            "\u003cChainedInput2\u003e.parse().getScheme()": "IAAv0"
          },
          "stringMap": {
            "7000": "gmsg",
            "7001": "mobileads.google.com"
          },
          "strings": {
            "IAAv2": "",
            "IAAv0": ""
          }
        }
      ]
    },
    "11": {
      "startMethod": "com.google.android.gms.internal.cr.shouldOverrideUrlLoading(Landroid/webkit/WebView;Ljava/lang/String;)Z",
      "targetMethod": "android.widget.VideoView.setVideoPath(Ljava/lang/String;)V",
      "eventChain": [
        {
          "start": "com.google.android.gms.internal.cr.shouldOverrideUrlLoading(Landroid/webkit/WebView;Ljava/lang/String;)Z",
          "target": "invokespecial \u003c Application, Landroid/webkit/WebViewClient, shouldOverrideUrlLoading(Landroid/webkit/WebView;Ljava/lang/String;)Z \u003e@127",
          "type": "",
          "constraintsFile": "constraints11_0.py",
          "variables": {
            "\u003cChainedInput2\u003e.parse().getHost()": "IAAv2",
            "\u003cChainedInput2\u003e.parse().getScheme()": "IAAv0",
            "\u003cChainedInput2\u003e.parse().b()": "IAAv5"
          },
          "stringMap": {
            "7000": "gmsg",
            "7001": "mobileads.google.com"
          },
          "strings": {
            "IAAv2": "",
            "IAAv0": ""
          }
        },
        {
          "start": "com.google.android.gms.internal.cr.shouldOverrideUrlLoading(Landroid/webkit/WebView;Ljava/lang/String;)Z",
          "target": "invokevirtual \u003c Application, Landroid/widget/VideoView, setVideoPath(Ljava/lang/String;)V \u003e@27",
          "type": "",
          "constraintsFile": "constraints11_1.py",
          "variables": {
            "\u003cChainedInput2\u003e.parse().getHost()": "IAAv2",
            "\u003cChainedInput2\u003e.parse().getScheme()": "IAAv0"
          },
          "stringMap": {
            "7000": "gmsg",
            "7001": "mobileads.google.com"
          },
          "strings": {
            "IAAv2": "",
            "IAAv0": ""
          }
        }
      ]
    },
    "12": {
      "startMethod": "com.google.android.gms.internal.cr.shouldOverrideUrlLoading(Landroid/webkit/WebView;Ljava/lang/String;)Z",
      "targetMethod": "java.lang.reflect.Method.invoke(Ljava/lang/Object;[Ljava/lang/Object;)Ljava/lang/Object;",
      "eventChain": [
        {
          "start": "com.google.android.gms.internal.cr.shouldOverrideUrlLoading(Landroid/webkit/WebView;Ljava/lang/String;)Z",
          "target": "invokespecial \u003c Application, Landroid/webkit/WebViewClient, shouldOverrideUrlLoading(Landroid/webkit/WebView;Ljava/lang/String;)Z \u003e@127",
          "type": "",
          "constraintsFile": "constraints12_0.py",
          "variables": {
            "\u003cChainedInput2\u003e.parse().getHost()": "IAAv2",
            "\u003cChainedInput2\u003e.parse().getScheme()": "IAAv0",
            "\u003cChainedInput2\u003e.parse().b()": "IAAv5"
          },
          "stringMap": {
            "7000": "gmsg",
            "7001": "mobileads.google.com"
          },
          "strings": {
            "IAAv2": "",
            "IAAv0": ""
          }
        },
        {
          "start": "com.google.android.gms.internal.cr.shouldOverrideUrlLoading(Landroid/webkit/WebView;Ljava/lang/String;)Z",
          "target": "invokevirtual \u003c Application, Ljava/lang/reflect/Method, invoke(Ljava/lang/Object;[Ljava/lang/Object;)Ljava/lang/Object; \u003e@48",
          "type": "",
          "constraintsFile": "constraints12_1.py",
          "variables": {
            "\u003cChainedInput2\u003e.parse().getHost()": "IAAv2",
            "\u003cChainedInput2\u003e.parse().getScheme()": "IAAv0"
          },
          "stringMap": {
            "7000": "gmsg",
            "7001": "mobileads.google.com"
          },
          "strings": {
            "IAAv2": "",
            "IAAv0": ""
          }
        }
      ]
    },
    "13": {
      "startMethod": "com.google.android.gms.internal.cr.shouldOverrideUrlLoading(Landroid/webkit/WebView;Ljava/lang/String;)Z",
      "targetMethod": "android.widget.VideoView.start()V",
      "eventChain": [
        {
          "start": "com.google.android.gms.internal.cr.shouldOverrideUrlLoading(Landroid/webkit/WebView;Ljava/lang/String;)Z",
          "target": "invokespecial \u003c Application, Landroid/webkit/WebViewClient, shouldOverrideUrlLoading(Landroid/webkit/WebView;Ljava/lang/String;)Z \u003e@127",
          "type": "",
          "constraintsFile": "constraints13_0.py",
          "variables": {
            "\u003cChainedInput2\u003e.parse().getHost()": "IAAv2",
            "\u003cChainedInput2\u003e.parse().getScheme()": "IAAv0",
            "\u003cChainedInput2\u003e.parse().b()": "IAAv5"
          },
          "stringMap": {
            "7000": "gmsg",
            "7001": "mobileads.google.com"
          },
          "strings": {
            "IAAv2": "",
            "IAAv0": ""
          }
        },
        {
          "start": "com.google.android.gms.internal.cr.shouldOverrideUrlLoading(Landroid/webkit/WebView;Ljava/lang/String;)Z",
          "target": "invokevirtual \u003c Application, Landroid/widget/VideoView, start()V \u003e@7",
          "type": "",
          "constraintsFile": "constraints13_1.py",
          "variables": {
            "\u003cChainedInput2\u003e.parse().getHost()": "IAAv2",
            "\u003cChainedInput2\u003e.parse().getScheme()": "IAAv0"
          },
          "stringMap": {
            "7000": "gmsg",
            "7001": "mobileads.google.com"
          },
          "strings": {
            "IAAv2": "",
            "IAAv0": ""
          }
        }
      ]
    },
    "14": {
      "startMethod": "com.google.android.gms.internal.cr.shouldOverrideUrlLoading(Landroid/webkit/WebView;Ljava/lang/String;)Z",
      "targetMethod": "java.lang.reflect.Method.invoke(Ljava/lang/Object;[Ljava/lang/Object;)Ljava/lang/Object;",
      "eventChain": [
        {
          "start": "com.google.android.gms.internal.cr.shouldOverrideUrlLoading(Landroid/webkit/WebView;Ljava/lang/String;)Z",
          "target": "invokespecial \u003c Application, Landroid/webkit/WebViewClient, shouldOverrideUrlLoading(Landroid/webkit/WebView;Ljava/lang/String;)Z \u003e@127",
          "type": "",
          "constraintsFile": "constraints14_0.py",
          "variables": {
            "\u003cChainedInput2\u003e.parse().getHost()": "IAAv2",
            "\u003cChainedInput2\u003e.parse().getScheme()": "IAAv0",
            "\u003cChainedInput2\u003e.parse().b()": "IAAv5"
          },
          "stringMap": {
            "7000": "gmsg",
            "7001": "mobileads.google.com"
          },
          "strings": {
            "IAAv2": "",
            "IAAv0": ""
          }
        },
        {
          "start": "com.google.android.gms.internal.cr.shouldOverrideUrlLoading(Landroid/webkit/WebView;Ljava/lang/String;)Z",
          "target": "invokevirtual \u003c Application, Ljava/lang/reflect/Method, invoke(Ljava/lang/Object;[Ljava/lang/Object;)Ljava/lang/Object; \u003e@35",
          "type": "",
          "constraintsFile": "constraints14_1.py",
          "variables": {
            "\u003cChainedInput2\u003e.parse().getHost()": "IAAv2",
            "\u003cChainedInput2\u003e.parse().getScheme()": "IAAv0"
          },
          "stringMap": {
            "7000": "gmsg",
            "7001": "mobileads.google.com"
          },
          "strings": {
            "IAAv2": "",
            "IAAv0": ""
          }
        }
      ]
    },
    "15": {
      "startMethod": "com.google.android.gms.internal.cr.shouldOverrideUrlLoading(Landroid/webkit/WebView;Ljava/lang/String;)Z",
      "targetMethod": "java.lang.reflect.Method.invoke(Ljava/lang/Object;[Ljava/lang/Object;)Ljava/lang/Object;",
      "eventChain": [
        {
          "start": "com.google.android.gms.internal.cr.shouldOverrideUrlLoading(Landroid/webkit/WebView;Ljava/lang/String;)Z",
          "target": "invokespecial \u003c Application, Landroid/webkit/WebViewClient, shouldOverrideUrlLoading(Landroid/webkit/WebView;Ljava/lang/String;)Z \u003e@127",
          "type": "",
          "constraintsFile": "constraints15_0.py",
          "variables": {
            "\u003cChainedInput2\u003e.parse().getHost()": "IAAv2",
            "\u003cChainedInput2\u003e.parse().getScheme()": "IAAv0",
            "\u003cChainedInput2\u003e.parse().b()": "IAAv5"
          },
          "stringMap": {
            "7000": "gmsg",
            "7001": "mobileads.google.com"
          },
          "strings": {
            "IAAv2": "",
            "IAAv0": ""
          }
        },
        {
          "start": "com.google.android.gms.internal.cr.shouldOverrideUrlLoading(Landroid/webkit/WebView;Ljava/lang/String;)Z",
          "target": "invokevirtual \u003c Application, Ljava/lang/reflect/Method, invoke(Ljava/lang/Object;[Ljava/lang/Object;)Ljava/lang/Object; \u003e@48",
          "type": "",
          "constraintsFile": "constraints15_1.py",
          "variables": {
            "\u003cChainedInput2\u003e.parse().getHost()": "IAAv2",
            "\u003cChainedInput2\u003e.parse().getScheme()": "IAAv0"
          },
          "stringMap": {
            "7000": "gmsg",
            "7001": "mobileads.google.com"
          },
          "strings": {
            "IAAv2": "",
            "IAAv0": ""
          }
        }
      ]
    },
    "16": {
      "startMethod": "com.google.android.gms.internal.cr.shouldOverrideUrlLoading(Landroid/webkit/WebView;Ljava/lang/String;)Z",
      "targetMethod": "java.lang.reflect.Method.invoke(Ljava/lang/Object;[Ljava/lang/Object;)Ljava/lang/Object;",
      "eventChain": [
        {
          "start": "com.google.android.gms.internal.cr.shouldOverrideUrlLoading(Landroid/webkit/WebView;Ljava/lang/String;)Z",
          "target": "invokespecial \u003c Application, Landroid/webkit/WebViewClient, shouldOverrideUrlLoading(Landroid/webkit/WebView;Ljava/lang/String;)Z \u003e@127",
          "type": "",
          "constraintsFile": "constraints16_0.py",
          "variables": {
            "\u003cChainedInput2\u003e.parse().getHost()": "IAAv2",
            "\u003cChainedInput2\u003e.parse().getScheme()": "IAAv0",
            "\u003cChainedInput2\u003e.parse().b()": "IAAv5"
          },
          "stringMap": {
            "7000": "gmsg",
            "7001": "mobileads.google.com"
          },
          "strings": {
            "IAAv2": "",
            "IAAv0": ""
          }
        },
        {
          "start": "com.google.android.gms.internal.cr.shouldOverrideUrlLoading(Landroid/webkit/WebView;Ljava/lang/String;)Z",
          "target": "invokevirtual \u003c Application, Ljava/lang/reflect/Method, invoke(Ljava/lang/Object;[Ljava/lang/Object;)Ljava/lang/Object; \u003e@35",
          "type": "",
          "constraintsFile": "constraints16_1.py",
          "variables": {
            "\u003cChainedInput2\u003e.parse().getHost()": "IAAv2",
            "\u003cChainedInput2\u003e.parse().getScheme()": "IAAv0"
          },
          "stringMap": {
            "7000": "gmsg",
            "7001": "mobileads.google.com"
          },
          "strings": {
            "IAAv2": "",
            "IAAv0": ""
          }
        }
      ]
    },
    "17": {
      "startMethod": "com.google.android.gms.internal.cr.shouldOverrideUrlLoading(Landroid/webkit/WebView;Ljava/lang/String;)Z",
      "targetMethod": "java.lang.reflect.Method.invoke(Ljava/lang/Object;[Ljava/lang/Object;)Ljava/lang/Object;",
      "eventChain": [
        {
          "start": "com.google.android.gms.internal.cr.shouldOverrideUrlLoading(Landroid/webkit/WebView;Ljava/lang/String;)Z",
          "target": "invokespecial \u003c Application, Landroid/webkit/WebViewClient, shouldOverrideUrlLoading(Landroid/webkit/WebView;Ljava/lang/String;)Z \u003e@127",
          "type": "",
          "constraintsFile": "constraints17_0.py",
          "variables": {
            "\u003cChainedInput2\u003e.parse().getHost()": "IAAv2",
            "\u003cChainedInput2\u003e.parse().getScheme()": "IAAv0",
            "\u003cChainedInput2\u003e.parse().b()": "IAAv5"
          },
          "stringMap": {
            "7000": "gmsg",
            "7001": "mobileads.google.com"
          },
          "strings": {
            "IAAv2": "",
            "IAAv0": ""
          }
        },
        {
          "start": "com.google.android.gms.internal.cr.shouldOverrideUrlLoading(Landroid/webkit/WebView;Ljava/lang/String;)Z",
          "target": "invokevirtual \u003c Application, Ljava/lang/reflect/Method, invoke(Ljava/lang/Object;[Ljava/lang/Object;)Ljava/lang/Object; \u003e@43",
          "type": "",
          "constraintsFile": "constraints17_1.py",
          "variables": {
            "\u003cChainedInput2\u003e.parse().getHost()": "IAAv2",
            "\u003cChainedInput2\u003e.parse().getScheme()": "IAAv0"
          },
          "stringMap": {
            "7000": "gmsg",
            "7001": "mobileads.google.com"
          },
          "strings": {
            "IAAv2": "",
            "IAAv0": ""
          }
        }
      ]
    },
    "18": {
      "startMethod": "com.google.android.gms.internal.ct.shouldInterceptRequest(Landroid/webkit/WebView;Ljava/lang/String;)Landroid/webkit/WebResourceResponse;",
      "targetMethod": "android.webkit.WebView.\u003cinit\u003e(Landroid/content/Context;)V",
      "eventChain": [
        {
          "start": "com.google.android.gms.internal.ct.shouldInterceptRequest(Landroid/webkit/WebView;Ljava/lang/String;)Landroid/webkit/WebResourceResponse;",
          "target": "invokespecial \u003c Application, Lcom/google/android/gms/internal/cr, shouldInterceptRequest(Landroid/webkit/WebView;Ljava/lang/String;)Landroid/webkit/WebResourceResponse; \u003e@40",
          "type": ""
        },
        {
          "start": "com.google.android.gms.internal.ct.shouldInterceptRequest(Landroid/webkit/WebView;Ljava/lang/String;)Landroid/webkit/WebResourceResponse;",
          "target": "invokespecial \u003c Application, Landroid/webkit/WebView, \u003cinit\u003e(Landroid/content/Context;)V \u003e@7",
          "type": "",
          "constraintsFile": "constraints18_0.py",
          "variables": {
            "\u003cInput1\u003e.av().ex": "IAAv0",
            "\u003cInput1\u003e.aw().S().hK": "IAAv1",
            "\u003cInput1\u003e.aw().S().SDK_INT": "IAAv2"
          },
          "stringMap": {},
          "strings": {
            "IAAv1": ""
          }
        }
      ]
    },
    "19": {
      "startMethod": "com.google.android.gms.internal.ct.shouldInterceptRequest(Landroid/webkit/WebView;Ljava/lang/String;)Landroid/webkit/WebResourceResponse;",
      "targetMethod": "java.net.HttpURLConnection.getInputStream()Ljava/io/InputStream;",
      "eventChain": [
        {
          "start": "com.google.android.gms.internal.ct.shouldInterceptRequest(Landroid/webkit/WebView;Ljava/lang/String;)Landroid/webkit/WebResourceResponse;",
          "target": "invokespecial \u003c Application, Lcom/google/android/gms/internal/cr, shouldInterceptRequest(Landroid/webkit/WebView;Ljava/lang/String;)Landroid/webkit/WebResourceResponse; \u003e@40",
          "type": ""
        },
        {
          "start": "com.google.android.gms.internal.ct.shouldInterceptRequest(Landroid/webkit/WebView;Ljava/lang/String;)Landroid/webkit/WebResourceResponse;",
          "target": "invokevirtual \u003c Application, Ljava/net/HttpURLConnection, getInputStream()Ljava/io/InputStream; \u003e@41",
          "type": "",
          "constraintsFile": "constraints19_0.py",
          "variables": {
            "\u003cInput1\u003e.av().ex": "IAAv0"
          },
          "stringMap": {},
          "strings": {}
        }
      ]
    },
    "20": {
      "startMethod": "com.google.android.gms.internal.ct.shouldInterceptRequest(Landroid/webkit/WebView;Ljava/lang/String;)Landroid/webkit/WebResourceResponse;",
      "targetMethod": "java.net.URL.openConnection()Ljava/net/URLConnection;",
      "eventChain": [
        {
          "start": "com.google.android.gms.internal.ct.shouldInterceptRequest(Landroid/webkit/WebView;Ljava/lang/String;)Landroid/webkit/WebResourceResponse;",
          "target": "invokespecial \u003c Application, Lcom/google/android/gms/internal/cr, shouldInterceptRequest(Landroid/webkit/WebView;Ljava/lang/String;)Landroid/webkit/WebResourceResponse; \u003e@40",
          "type": ""
        },
        {
          "start": "com.google.android.gms.internal.ct.shouldInterceptRequest(Landroid/webkit/WebView;Ljava/lang/String;)Landroid/webkit/WebResourceResponse;",
          "target": "invokevirtual \u003c Application, Ljava/net/URL, openConnection()Ljava/net/URLConnection; \u003e@11",
          "type": "",
          "constraintsFile": "constraints20_0.py",
          "variables": {
            "\u003cInput1\u003e.av().ex": "IAAv0"
          },
          "stringMap": {},
          "strings": {}
        }
      ]
    },
    "21": {
      "startMethod": "com.google.android.gms.internal.ct.shouldInterceptRequest(Landroid/webkit/WebView;Ljava/lang/String;)Landroid/webkit/WebResourceResponse;",
      "targetMethod": "java.net.HttpURLConnection.connect()V",
      "eventChain": [
        {
          "start": "com.google.android.gms.internal.ct.shouldInterceptRequest(Landroid/webkit/WebView;Ljava/lang/String;)Landroid/webkit/WebResourceResponse;",
          "target": "invokespecial \u003c Application, Lcom/google/android/gms/internal/cr, shouldInterceptRequest(Landroid/webkit/WebView;Ljava/lang/String;)Landroid/webkit/WebResourceResponse; \u003e@40",
          "type": ""
        },
        {
          "start": "com.google.android.gms.internal.ct.shouldInterceptRequest(Landroid/webkit/WebView;Ljava/lang/String;)Landroid/webkit/WebResourceResponse;",
          "target": "invokevirtual \u003c Application, Ljava/net/HttpURLConnection, connect()V \u003e@32",
          "type": "",
          "constraintsFile": "constraints21_0.py",
          "variables": {
            "\u003cInput1\u003e.av().ex": "IAAv0"
          },
          "stringMap": {},
          "strings": {}
        }
      ]
    },
    "22": {
      "startMethod": "org.cocos2dx.lib.Cocos2dxVideoView.setVisibility(I)V",
      "targetMethod": "android.media.MediaPlayer.start()V",
      "eventChain": [
        {
          "start": "org.cocos2dx.lib.Cocos2dxVideoView$2.onPrepared(Landroid/media/MediaPlayer;)V",
          "target": "invokevirtual \u003c Application, Lorg/cocos2dx/lib/Cocos2dxVideoView, setLayoutParams(Landroid/view/ViewGroup$LayoutParams;)V \u003e@237",
          "type": "",
          "constraintsFile": "constraints22_0.py",
          "variables": {},
          "stringMap": {},
          "strings": {}
        },
        {
          "start": "org.cocos2dx.lib.Cocos2dxVideoView.setVisibility(I)V",
          "target": "PC@15",
          "type": "ui",
          "activities": [
            "com.bluemansion.source.Main"
          ],
          "listener": "org.cocos2dx.lib.Cocos2dxVideoView",
          "listenerMethod": "setVisibility",
          "uiType": "setVisibility",
          "constraintsFile": "constraints22_1.py",
          "variables": {
            "\u003cInput1\u003e": "IAAv0"
          },
          "stringMap": {},
          "strings": {}
        },
        {
          "start": "org.cocos2dx.lib.Cocos2dxVideoView.setVisibility(I)V",
          "target": "invokevirtual \u003c Application, Landroid/media/MediaPlayer, start()V \u003e@19",
          "type": "ui",
          "activities": [
            "com.bluemansion.source.Main"
          ],
          "listener": "org.cocos2dx.lib.Cocos2dxVideoView",
          "listenerMethod": "setVisibility",
          "uiType": "setVisibility",
          "constraintsFile": "constraints22_2.py",
          "variables": {
            "\u003cChainedInput1\u003e": "IAAv0"
          },
          "stringMap": {},
          "strings": {}
        }
      ]
    },
    "23": {
      "startMethod": "org.cocos2dx.lib.Cocos2dxVideoView.onTouchEvent(Landroid/view/MotionEvent;)Z",
      "targetMethod": "android.media.MediaPlayer.start()V",
      "eventChain": [
        {
          "start": "org.cocos2dx.lib.Cocos2dxVideoView$2.onPrepared(Landroid/media/MediaPlayer;)V",
          "target": "invokevirtual \u003c Application, Lorg/cocos2dx/lib/Cocos2dxVideoView, setLayoutParams(Landroid/view/ViewGroup$LayoutParams;)V \u003e@237",
          "type": "",
          "constraintsFile": "constraints23_0.py",
          "variables": {},
          "stringMap": {},
          "strings": {}
        },
        {
          "start": "org.cocos2dx.lib.Cocos2dxVideoView.setVisibility(I)V",
          "target": "PC@25",
          "type": "ui",
          "activities": [
            "com.bluemansion.source.Main"
          ],
          "listener": "org.cocos2dx.lib.Cocos2dxVideoView",
          "listenerMethod": "setVisibility",
          "uiType": "setVisibility",
          "constraintsFile": "constraints23_1.py",
          "variables": {
            "\u003cChainedInput1\u003e": "IAAv0"
          },
          "stringMap": {},
          "strings": {}
        },
        {
          "start": "org.cocos2dx.lib.Cocos2dxVideoView.onTouchEvent(Landroid/view/MotionEvent;)Z",
          "target": "invokevirtual \u003c Application, Landroid/media/MediaPlayer, start()V \u003e@28",
          "type": "ui",
          "activities": [
            "com.bluemansion.source.Main"
          ],
          "listener": "org.cocos2dx.lib.Cocos2dxVideoView",
          "listenerMethod": "onTouchEvent",
          "uiType": "onTouchEvent",
          "constraintsFile": "constraints23_2.py",
          "variables": {
            "\u003cChainedInput1\u003e.getAction()": "IAAv0"
          },
          "stringMap": {},
          "strings": {}
        }
      ]
    },
    "24": {
      "startMethod": "org.cocos2dx.lib.Cocos2dxVideoView.onTouchEvent(Landroid/view/MotionEvent;)Z",
      "targetMethod": "android.media.MediaPlayer.pause()V",
      "eventChain": [
        {
          "start": "org.cocos2dx.lib.Cocos2dxVideoView$2.onPrepared(Landroid/media/MediaPlayer;)V",
          "target": "invokevirtual \u003c Application, Lorg/cocos2dx/lib/Cocos2dxVideoView, setLayoutParams(Landroid/view/ViewGroup$LayoutParams;)V \u003e@237",
          "type": "",
          "constraintsFile": "constraints24_0.py",
          "variables": {},
          "stringMap": {},
          "strings": {}
        },
        {
          "start": "org.cocos2dx.lib.Cocos2dxVideoView.onTouchEvent(Landroid/view/MotionEvent;)Z",
          "target": "invokevirtual \u003c Application, Landroid/media/MediaPlayer, pause()V \u003e@33",
          "type": "ui",
          "activities": [
            "com.bluemansion.source.Main"
          ],
          "listener": "org.cocos2dx.lib.Cocos2dxVideoView",
          "listenerMethod": "onTouchEvent",
          "uiType": "onTouchEvent",
          "constraintsFile": "constraints24_1.py",
          "variables": {
            "\u003cInput1\u003e.getAction()": "IAAv0"
          },
          "stringMap": {},
          "strings": {}
        }
      ]
    },
    "25": {
      "startMethod": "com.google.android.gms.maps.MapFragment.onInflate(Landroid/app/Activity;Landroid/util/AttributeSet;Landroid/os/Bundle;)V",
      "targetMethod": "java.lang.ClassLoader.loadClass(Ljava/lang/String;)Ljava/lang/Class;",
      "eventChain": [
        {
          "start": "com.google.android.gms.maps.MapFragment.onDestroy()V",
          "target": "invokespecial \u003c Application, Landroid/app/Fragment, onDestroy()V \u003e@11",
          "type": ""
        },
        {
          "start": "com.google.android.gms.maps.MapFragment.onResume()V",
          "target": "",
          "type": "",
          "constraintsFile": "constraints25_0.py",
          "variables": {},
          "stringMap": {},
          "strings": {}
        },
        {
          "start": "com.google.android.gms.maps.MapFragment.onInflate(Landroid/app/Activity;Landroid/util/AttributeSet;Landroid/os/Bundle;)V",
          "target": "invokevirtual \u003c Application, Ljava/lang/ClassLoader, loadClass(Ljava/lang/String;)Ljava/lang/Class; \u003e@13",
          "type": "",
          "constraintsFile": "constraints25_1.py",
          "variables": {},
          "stringMap": {},
          "strings": {}
        }
      ]
    },
    "26": {
      "startMethod": "com.google.android.gms.games.c.createFromParcel(Landroid/os/Parcel;)Ljava/lang/Object;",
      "targetMethod": "java.lang.ClassLoader.loadClass(Ljava/lang/String;)Ljava/lang/Class;",
      "eventChain": [
        {
          "start": "com.google.android.gms.games.c.createFromParcel(Landroid/os/Parcel;)Ljava/lang/Object;",
          "target": "invokevirtual \u003c Application, Ljava/lang/ClassLoader, loadClass(Ljava/lang/String;)Ljava/lang/Class; \u003e@15",
          "type": "",
          "constraintsFile": "constraints26_0.py",
          "variables": {
            "\u003cInput1\u003e.i().y()": "IAAv0",
            "\u003cInput1\u003e.a(\u003cInput1\u003e.i())": "IAAv1"
          },
          "stringMap": {},
          "strings": {}
        }
      ]
    },
    "27": {
      "startMethod": "com.google.android.gms.games.multiplayer.realtime.RoomEntity$a.createFromParcel(Landroid/os/Parcel;)Ljava/lang/Object;",
      "targetMethod": "java.lang.ClassLoader.loadClass(Ljava/lang/String;)Ljava/lang/Class;",
      "eventChain": [
        {
          "start": "com.google.android.gms.games.multiplayer.realtime.RoomEntity$a.createFromParcel(Landroid/os/Parcel;)Ljava/lang/Object;",
          "target": "invokevirtual \u003c Application, Ljava/lang/ClassLoader, loadClass(Ljava/lang/String;)Ljava/lang/Class; \u003e@15",
          "type": "",
          "constraintsFile": "constraints27_0.py",
          "variables": {
            "\u003cInput1\u003e.readString()": "IAAv0",
            "\u003cInput1\u003e.i().y()": "IAAv2",
            "\u003cInput1\u003e.readInt()": "IAAv1",
            "\u003cInput1\u003e.a(\u003cInput1\u003e.i())": "IAAv3"
          },
          "stringMap": {},
          "strings": {
            "IAAv0": ""
          }
        }
      ]
    },
    "28": {
      "startMethod": "com.google.android.gms.wallet.h.createFromParcel(Landroid/os/Parcel;)Ljava/lang/Object;",
      "targetMethod": "java.lang.ClassLoader.loadClass(Ljava/lang/String;)Ljava/lang/Class;",
      "eventChain": [
        {
          "start": "com.google.android.gms.wallet.h.createFromParcel(Landroid/os/Parcel;)Ljava/lang/Object;",
          "target": "invokevirtual \u003c Application, Ljava/lang/ClassLoader, loadClass(Ljava/lang/String;)Ljava/lang/Class; \u003e@15",
          "type": "",
          "constraintsFile": "constraints28_0.py",
          "variables": {
            "\u003cInput1\u003e.i().y()": "IAAv0",
            "\u003cInput1\u003e.a(\u003cInput1\u003e.i())": "IAAv1"
          },
          "stringMap": {},
          "strings": {}
        }
      ]
    },
    "29": {
      "startMethod": "com.google.android.gms.maps.model.MarkerOptionsCreator.createFromParcel(Landroid/os/Parcel;)Ljava/lang/Object;",
      "targetMethod": "java.lang.ClassLoader.loadClass(Ljava/lang/String;)Ljava/lang/Class;",
      "eventChain": [
        {
          "start": "com.google.android.gms.maps.model.MarkerOptionsCreator.createFromParcel(Landroid/os/Parcel;)Ljava/lang/Object;",
          "target": "invokevirtual \u003c Application, Ljava/lang/ClassLoader, loadClass(Ljava/lang/String;)Ljava/lang/Class; \u003e@15",
          "type": "",
          "constraintsFile": "constraints29_0.py",
          "variables": {
            "\u003cInput1\u003e.i().y()": "IAAv0",
            "\u003cInput1\u003e.a(\u003cInput1\u003e.i())": "IAAv1"
          },
          "stringMap": {},
          "strings": {}
        }
      ]
    },
    "30": {
      "startMethod": "com.google.android.gms.wallet.c.createFromParcel(Landroid/os/Parcel;)Ljava/lang/Object;",
      "targetMethod": "java.lang.ClassLoader.loadClass(Ljava/lang/String;)Ljava/lang/Class;",
      "eventChain": [
        {
          "start": "com.google.android.gms.wallet.c.createFromParcel(Landroid/os/Parcel;)Ljava/lang/Object;",
          "target": "invokevirtual \u003c Application, Ljava/lang/ClassLoader, loadClass(Ljava/lang/String;)Ljava/lang/Class; \u003e@15",
          "type": "",
          "constraintsFile": "constraints30_0.py",
          "variables": {
            "\u003cInput1\u003e.i().y()": "IAAv0",
            "\u003cInput1\u003e.a(\u003cInput1\u003e.i())": "IAAv1"
          },
          "stringMap": {},
          "strings": {}
        }
      ]
    },
    "31": {
      "startMethod": "com.google.android.gms.internal.bg.createFromParcel(Landroid/os/Parcel;)Ljava/lang/Object;",
      "targetMethod": "java.lang.ClassLoader.loadClass(Ljava/lang/String;)Ljava/lang/Class;",
      "eventChain": [
        {
          "start": "com.google.android.gms.internal.bg.createFromParcel(Landroid/os/Parcel;)Ljava/lang/Object;",
          "target": "invokevirtual \u003c Application, Ljava/lang/ClassLoader, loadClass(Ljava/lang/String;)Ljava/lang/Class; \u003e@15",
          "type": "",
          "constraintsFile": "constraints31_0.py",
          "variables": {
            "\u003cInput1\u003e.i().y()": "IAAv0",
            "\u003cInput1\u003e.a(\u003cInput1\u003e.i())": "IAAv1"
          },
          "stringMap": {},
          "strings": {}
        }
      ]
    },
    "32": {
      "startMethod": "com.google.android.gms.games.multiplayer.a.createFromParcel(Landroid/os/Parcel;)Ljava/lang/Object;",
      "targetMethod": "java.lang.ClassLoader.loadClass(Ljava/lang/String;)Ljava/lang/Class;",
      "eventChain": [
        {
          "start": "com.google.android.gms.games.multiplayer.a.createFromParcel(Landroid/os/Parcel;)Ljava/lang/Object;",
          "target": "invokevirtual \u003c Application, Ljava/lang/ClassLoader, loadClass(Ljava/lang/String;)Ljava/lang/Class; \u003e@15",
          "type": "",
          "constraintsFile": "constraints32_0.py",
          "variables": {
            "\u003cInput1\u003e.i().y()": "IAAv0",
            "\u003cInput1\u003e.a(\u003cInput1\u003e.i())": "IAAv1"
          },
          "stringMap": {},
          "strings": {}
        }
      ]
    },
    "33": {
      "startMethod": "com.google.android.gms.games.a.createFromParcel(Landroid/os/Parcel;)Ljava/lang/Object;",
      "targetMethod": "java.lang.ClassLoader.loadClass(Ljava/lang/String;)Ljava/lang/Class;",
      "eventChain": [
        {
          "start": "com.google.android.gms.games.a.createFromParcel(Landroid/os/Parcel;)Ljava/lang/Object;",
          "target": "invokevirtual \u003c Application, Ljava/lang/ClassLoader, loadClass(Ljava/lang/String;)Ljava/lang/Class; \u003e@15",
          "type": "",
          "constraintsFile": "constraints33_0.py",
          "variables": {
            "\u003cInput1\u003e.i().y()": "IAAv0",
            "\u003cInput1\u003e.a(\u003cInput1\u003e.i())": "IAAv1"
          },
          "stringMap": {},
          "strings": {}
        }
      ]
    },
    "34": {
      "startMethod": "com.google.android.gms.auth.RecoveryDecisionCreator.createFromParcel(Landroid/os/Parcel;)Ljava/lang/Object;",
      "targetMethod": "java.lang.ClassLoader.loadClass(Ljava/lang/String;)Ljava/lang/Class;",
      "eventChain": [
        {
          "start": "com.google.android.gms.auth.RecoveryDecisionCreator.createFromParcel(Landroid/os/Parcel;)Ljava/lang/Object;",
          "target": "invokevirtual \u003c Application, Ljava/lang/ClassLoader, loadClass(Ljava/lang/String;)Ljava/lang/Class; \u003e@15",
          "type": "",
          "constraintsFile": "constraints34_0.py",
          "variables": {
            "\u003cInput1\u003e.i().y()": "IAAv0",
            "\u003cInput1\u003e.a(\u003cInput1\u003e.i())": "IAAv1"
          },
          "stringMap": {},
          "strings": {}
        }
      ]
    },
    "35": {
      "startMethod": "com.google.android.gms.games.multiplayer.InvitationEntity$a.createFromParcel(Landroid/os/Parcel;)Ljava/lang/Object;",
      "targetMethod": "java.lang.ClassLoader.loadClass(Ljava/lang/String;)Ljava/lang/Class;",
      "eventChain": [
        {
          "start": "com.google.android.gms.games.multiplayer.InvitationEntity$a.createFromParcel(Landroid/os/Parcel;)Ljava/lang/Object;",
          "target": "invokevirtual \u003c Application, Ljava/lang/ClassLoader, loadClass(Ljava/lang/String;)Ljava/lang/Class; \u003e@15",
          "type": "",
          "constraintsFile": "constraints35_0.py",
          "variables": {
            "\u003cInput1\u003e.readString()": "IAAv2",
            "\u003cInput1\u003e.i().y()": "IAAv0",
            "\u003cInput1\u003e.readInt()": "IAAv3",
            "\u003cInput1\u003e.a(\u003cInput1\u003e.i())": "IAAv1"
          },
          "stringMap": {},
          "strings": {
            "IAAv2": ""
          }
        }
      ]
    },
    "36": {
      "startMethod": "com.google.android.gms.internal.ft.createFromParcel(Landroid/os/Parcel;)Ljava/lang/Object;",
      "targetMethod": "java.lang.ClassLoader.loadClass(Ljava/lang/String;)Ljava/lang/Class;",
      "eventChain": [
        {
          "start": "com.google.android.gms.internal.ft.createFromParcel(Landroid/os/Parcel;)Ljava/lang/Object;",
          "target": "invokevirtual \u003c Application, Ljava/lang/ClassLoader, loadClass(Ljava/lang/String;)Ljava/lang/Class; \u003e@15",
          "type": "",
          "constraintsFile": "constraints36_0.py",
          "variables": {
            "\u003cInput1\u003e.i().y()": "IAAv0",
            "\u003cInput1\u003e.a(\u003cInput1\u003e.i())": "IAAv1"
          },
          "stringMap": {},
          "strings": {}
        }
      ]
    },
    "37": {
      "startMethod": "com.google.android.gms.maps.model.VisibleRegionCreator.createFromParcel(Landroid/os/Parcel;)Ljava/lang/Object;",
      "targetMethod": "java.lang.ClassLoader.loadClass(Ljava/lang/String;)Ljava/lang/Class;",
      "eventChain": [
        {
          "start": "com.google.android.gms.maps.model.VisibleRegionCreator.createFromParcel(Landroid/os/Parcel;)Ljava/lang/Object;",
          "target": "invokevirtual \u003c Application, Ljava/lang/ClassLoader, loadClass(Ljava/lang/String;)Ljava/lang/Class; \u003e@15",
          "type": "",
          "constraintsFile": "constraints37_0.py",
          "variables": {
            "\u003cInput1\u003e.i().y()": "IAAv0",
            "\u003cInput1\u003e.a(\u003cInput1\u003e.i())": "IAAv1"
          },
          "stringMap": {},
          "strings": {}
        }
      ]
    },
    "38": {
      "startMethod": "com.google.android.gms.wallet.d.createFromParcel(Landroid/os/Parcel;)Ljava/lang/Object;",
      "targetMethod": "java.lang.ClassLoader.loadClass(Ljava/lang/String;)Ljava/lang/Class;",
      "eventChain": [
        {
          "start": "com.google.android.gms.wallet.d.createFromParcel(Landroid/os/Parcel;)Ljava/lang/Object;",
          "target": "invokevirtual \u003c Application, Ljava/lang/ClassLoader, loadClass(Ljava/lang/String;)Ljava/lang/Class; \u003e@15",
          "type": "",
          "constraintsFile": "constraints38_0.py",
          "variables": {
            "\u003cInput1\u003e.i().y()": "IAAv0",
            "\u003cInput1\u003e.a(\u003cInput1\u003e.i())": "IAAv1"
          },
          "stringMap": {},
          "strings": {}
        }
      ]
    },
    "39": {
      "startMethod": "com.google.android.gms.internal.ed.createFromParcel(Landroid/os/Parcel;)Ljava/lang/Object;",
      "targetMethod": "java.lang.ClassLoader.loadClass(Ljava/lang/String;)Ljava/lang/Class;",
      "eventChain": [
        {
          "start": "com.google.android.gms.internal.ed.createFromParcel(Landroid/os/Parcel;)Ljava/lang/Object;",
          "target": "invokevirtual \u003c Application, Ljava/lang/ClassLoader, loadClass(Ljava/lang/String;)Ljava/lang/Class; \u003e@15",
          "type": "",
          "constraintsFile": "constraints39_0.py",
          "variables": {
            "\u003cInput1\u003e.i().y()": "IAAv0",
            "\u003cInput1\u003e.a(\u003cInput1\u003e.i())": "IAAv1"
          },
          "stringMap": {},
          "strings": {}
        }
      ]
    },
    "40": {
      "startMethod": "com.google.android.gms.maps.GoogleMapOptionsCreator.createFromParcel(Landroid/os/Parcel;)Ljava/lang/Object;",
      "targetMethod": "java.lang.ClassLoader.loadClass(Ljava/lang/String;)Ljava/lang/Class;",
      "eventChain": [
        {
          "start": "com.google.android.gms.maps.GoogleMapOptionsCreator.createFromParcel(Landroid/os/Parcel;)Ljava/lang/Object;",
          "target": "invokevirtual \u003c Application, Ljava/lang/ClassLoader, loadClass(Ljava/lang/String;)Ljava/lang/Class; \u003e@15",
          "type": "",
          "constraintsFile": "constraints40_0.py",
          "variables": {
            "\u003cInput1\u003e.i().y()": "IAAv0",
            "\u003cInput1\u003e.a(\u003cInput1\u003e.i())": "IAAv1"
          },
          "stringMap": {},
          "strings": {}
        }
      ]
    },
    "41": {
      "startMethod": "com.google.android.gms.maps.model.GroundOverlayOptionsCreator.createFromParcel(Landroid/os/Parcel;)Ljava/lang/Object;",
      "targetMethod": "java.lang.ClassLoader.loadClass(Ljava/lang/String;)Ljava/lang/Class;",
      "eventChain": [
        {
          "start": "com.google.android.gms.maps.model.GroundOverlayOptionsCreator.createFromParcel(Landroid/os/Parcel;)Ljava/lang/Object;",
          "target": "invokevirtual \u003c Application, Ljava/lang/ClassLoader, loadClass(Ljava/lang/String;)Ljava/lang/Class; \u003e@15",
          "type": "",
          "constraintsFile": "constraints41_0.py",
          "variables": {
            "\u003cInput1\u003e.i().y()": "IAAv0",
            "\u003cInput1\u003e.a(\u003cInput1\u003e.i())": "IAAv1"
          },
          "stringMap": {},
          "strings": {}
        }
      ]
    },
    "42": {
      "startMethod": "com.google.android.gms.internal.fw.createFromParcel(Landroid/os/Parcel;)Ljava/lang/Object;",
      "targetMethod": "java.lang.ClassLoader.loadClass(Ljava/lang/String;)Ljava/lang/Class;",
      "eventChain": [
        {
          "start": "com.google.android.gms.internal.fw.createFromParcel(Landroid/os/Parcel;)Ljava/lang/Object;",
          "target": "invokevirtual \u003c Application, Ljava/lang/ClassLoader, loadClass(Ljava/lang/String;)Ljava/lang/Class; \u003e@15",
          "type": "",
          "constraintsFile": "constraints42_0.py",
          "variables": {
            "\u003cInput1\u003e.i().y()": "IAAv0",
            "\u003cInput1\u003e.a(\u003cInput1\u003e.i())": "IAAv1"
          },
          "stringMap": {},
          "strings": {}
        }
      ]
    },
    "43": {
      "startMethod": "com.google.android.gms.wallet.g.createFromParcel(Landroid/os/Parcel;)Ljava/lang/Object;",
      "targetMethod": "java.lang.ClassLoader.loadClass(Ljava/lang/String;)Ljava/lang/Class;",
      "eventChain": [
        {
          "start": "com.google.android.gms.wallet.g.createFromParcel(Landroid/os/Parcel;)Ljava/lang/Object;",
          "target": "invokevirtual \u003c Application, Ljava/lang/ClassLoader, loadClass(Ljava/lang/String;)Ljava/lang/Class; \u003e@15",
          "type": "",
          "constraintsFile": "constraints43_0.py",
          "variables": {
            "\u003cInput1\u003e.i().y()": "IAAv0",
            "\u003cInput1\u003e.a(\u003cInput1\u003e.i())": "IAAv1"
          },
          "stringMap": {},
          "strings": {}
        }
      ]
    },
    "44": {
      "startMethod": "com.google.android.gms.internal.dy.createFromParcel(Landroid/os/Parcel;)Ljava/lang/Object;",
      "targetMethod": "java.lang.ClassLoader.loadClass(Ljava/lang/String;)Ljava/lang/Class;",
      "eventChain": [
        {
          "start": "com.google.android.gms.internal.dy.createFromParcel(Landroid/os/Parcel;)Ljava/lang/Object;",
          "target": "invokevirtual \u003c Application, Ljava/lang/ClassLoader, loadClass(Ljava/lang/String;)Ljava/lang/Class; \u003e@15",
          "type": "",
          "constraintsFile": "constraints44_0.py",
          "variables": {
            "\u003cInput1\u003e.i().y()": "IAAv0",
            "\u003cInput1\u003e.a(\u003cInput1\u003e.i())": "IAAv1"
          },
          "stringMap": {},
          "strings": {}
        }
      ]
    },
    "45": {
      "startMethod": "com.google.android.gms.maps.model.CircleOptionsCreator.createFromParcel(Landroid/os/Parcel;)Ljava/lang/Object;",
      "targetMethod": "java.lang.ClassLoader.loadClass(Ljava/lang/String;)Ljava/lang/Class;",
      "eventChain": [
        {
          "start": "com.google.android.gms.maps.model.CircleOptionsCreator.createFromParcel(Landroid/os/Parcel;)Ljava/lang/Object;",
          "target": "invokevirtual \u003c Application, Ljava/lang/ClassLoader, loadClass(Ljava/lang/String;)Ljava/lang/Class; \u003e@15",
          "type": "",
          "constraintsFile": "constraints45_0.py",
          "variables": {
            "\u003cInput1\u003e.i().y()": "IAAv0",
            "\u003cInput1\u003e.a(\u003cInput1\u003e.i())": "IAAv1"
          },
          "stringMap": {},
          "strings": {}
        }
      ]
    },
    "46": {
      "startMethod": "com.bluemansion.source.Main$3.run()V",
      "targetMethod": "android.net.ConnectivityManager.getActiveNetworkInfo()Landroid/net/NetworkInfo;",
      "eventChain": [
        {
          "start": "com.bluemansion.source.Main$3.run()V",
          "target": "invokevirtual \u003c Application, Landroid/net/ConnectivityManager, getActiveNetworkInfo()Landroid/net/NetworkInfo; \u003e@26",
          "type": ""
        }
      ]
    },
    "47": {
      "startMethod": "com.bluemansion.source.Main$6.run()V",
      "targetMethod": "java.lang.reflect.Method.invoke(Ljava/lang/Object;[Ljava/lang/Object;)Ljava/lang/Object;",
      "eventChain": [
        {
          "start": "com.bluemansion.source.Main$6.run()V",
          "target": "invokevirtual \u003c Application, Ljava/lang/reflect/Method, invoke(Ljava/lang/Object;[Ljava/lang/Object;)Ljava/lang/Object; \u003e@35",
          "type": ""
        }
      ]
    },
    "48": {
      "startMethod": "com.bluemansion.source.Main$6.run()V",
      "targetMethod": "dalvik.system.DexClassLoader.loadClass(Ljava/lang/String;)Ljava/lang/Class;",
      "eventChain": [
        {
          "start": "com.bluemansion.source.Main$6.run()V",
          "target": "invokevirtual \u003c Application, Ldalvik/system/DexClassLoader, loadClass(Ljava/lang/String;)Ljava/lang/Class; \u003e@228",
          "type": ""
        }
      ]
    },
    "49": {
      "startMethod": "com.bluemansion.source.Main$6.run()V",
      "targetMethod": "dalvik.system.DexClassLoader.loadClass(Ljava/lang/String;)Ljava/lang/Class;",
      "eventChain": [
        {
          "start": "com.bluemansion.source.Main$6.run()V",
          "target": "invokevirtual \u003c Application, Ldalvik/system/DexClassLoader, loadClass(Ljava/lang/String;)Ljava/lang/Class; \u003e@186",
          "type": ""
        }
      ]
    },
    "50": {
      "startMethod": "com.bluemansion.source.Main$6.run()V",
      "targetMethod": "android.webkit.WebView.\u003cinit\u003e(Landroid/content/Context;)V",
      "eventChain": [
        {
          "start": "com.bluemansion.source.Main$6.run()V",
          "target": "invokespecial \u003c Application, Landroid/webkit/WebView, \u003cinit\u003e(Landroid/content/Context;)V \u003e@7",
          "type": ""
        }
      ]
    },
    "51": {
      "startMethod": "com.bluemansion.source.Main$6.run()V",
      "targetMethod": "android.webkit.WebView.\u003cinit\u003e(Landroid/content/Context;)V",
      "eventChain": [
        {
          "start": "com.bluemansion.source.Main$6.run()V",
          "target": "invokespecial \u003c Application, Landroid/webkit/WebView, \u003cinit\u003e(Landroid/content/Context;)V \u003e@10",
          "type": ""
        }
      ]
    },
    "52": {
      "startMethod": "com.bluemansion.source.Main$6.run()V",
      "targetMethod": "dalvik.system.DexClassLoader.loadClass(Ljava/lang/String;)Ljava/lang/Class;",
      "eventChain": [
        {
          "start": "com.bluemansion.source.Main$6.run()V",
          "target": "invokevirtual \u003c Application, Ldalvik/system/DexClassLoader, loadClass(Ljava/lang/String;)Ljava/lang/Class; \u003e@207",
          "type": ""
        }
      ]
    },
    "53": {
      "startMethod": "com.bluemansion.source.Main$6.run()V",
      "targetMethod": "java.lang.ClassLoader.loadClass(Ljava/lang/String;)Ljava/lang/Class;",
      "eventChain": [
        {
          "start": "com.bluemansion.source.Main$6.run()V",
          "target": "invokevirtual \u003c Application, Ljava/lang/ClassLoader, loadClass(Ljava/lang/String;)Ljava/lang/Class; \u003e@50",
          "type": ""
        }
      ]
    },
    "54": {
      "startMethod": "com.bluemansion.source.Main$6.run()V",
      "targetMethod": "dalvik.system.DexClassLoader.loadClass(Ljava/lang/String;)Ljava/lang/Class;",
      "eventChain": [
        {
          "start": "com.bluemansion.source.Main$6.run()V",
          "target": "invokevirtual \u003c Application, Ldalvik/system/DexClassLoader, loadClass(Ljava/lang/String;)Ljava/lang/Class; \u003e@249",
          "type": ""
        }
      ]
    },
    "55": {
      "startMethod": "com.bluemansion.source.Main$6.run()V",
      "targetMethod": "dalvik.system.DexClassLoader.loadClass(Ljava/lang/String;)Ljava/lang/Class;",
      "eventChain": [
        {
          "start": "com.bluemansion.source.Main$6.run()V",
          "target": "invokevirtual \u003c Application, Ldalvik/system/DexClassLoader, loadClass(Ljava/lang/String;)Ljava/lang/Class; \u003e@291",
          "type": ""
        }
      ]
    },
    "56": {
      "startMethod": "com.bluemansion.source.Main$6.run()V",
      "targetMethod": "dalvik.system.DexClassLoader.loadClass(Ljava/lang/String;)Ljava/lang/Class;",
      "eventChain": [
        {
          "start": "com.bluemansion.source.Main$6.run()V",
          "target": "invokevirtual \u003c Application, Ldalvik/system/DexClassLoader, loadClass(Ljava/lang/String;)Ljava/lang/Class; \u003e@270",
          "type": ""
        }
      ]
    },
    "57": {
      "startMethod": "com.bluemansion.source.Main$1.run()V",
      "targetMethod": "android.os.Vibrator.vibrate(J)V",
      "eventChain": [
        {
          "start": "com.bluemansion.source.Main$1.run()V",
          "target": "invokevirtual \u003c Application, Landroid/os/Vibrator, vibrate(J)V \u003e@11",
          "type": ""
        }
      ]
    },
    "58": {
      "startMethod": "org.cocos2dx.lib.Cocos2dxGLSurfaceView$4.run()V",
      "targetMethod": "android.media.MediaPlayer.pause()V",
      "eventChain": [
        {
          "start": "org.cocos2dx.lib.Cocos2dxGLSurfaceView$4.run()V",
          "target": "invokevirtual \u003c Application, Landroid/media/MediaPlayer, pause()V \u003e@30",
          "type": "",
          "constraintsFile": "constraints58_0.py",
          "variables": {},
          "stringMap": {},
          "strings": {}
        }
      ]
    },
    "59": {
      "startMethod": "org.cocos2dx.lib.Cocos2dxVideoView$6.surfaceCreated(Landroid/view/SurfaceHolder;)V",
      "targetMethod": "android.media.MediaPlayer.release()V",
      "eventChain": [
        {
          "start": "org.cocos2dx.lib.Cocos2dxVideoView$6.surfaceCreated(Landroid/view/SurfaceHolder;)V",
          "target": "invokevirtual \u003c Application, Landroid/media/MediaPlayer, release()V \u003e@27",
          "type": "ui",
          "activities": [
            "com.bluemansion.source.Main"
          ],
          "listener": "org.cocos2dx.lib.Cocos2dxVideoView$6",
          "listenerMethod": "surfaceCreated",
          "uiType": "surfaceCreated",
          "constraintsFile": "constraints59_0.py",
          "variables": {},
          "stringMap": {},
          "strings": {
            "IAAv3": ""
          }
        }
      ]
    },
    "60": {
      "startMethod": "org.cocos2dx.lib.Cocos2dxVideoView$6.surfaceCreated(Landroid/view/SurfaceHolder;)V",
      "targetMethod": "android.media.MediaPlayer.reset()V",
      "eventChain": [
        {
          "start": "org.cocos2dx.lib.Cocos2dxVideoView$6.surfaceCreated(Landroid/view/SurfaceHolder;)V",
          "target": "invokevirtual \u003c Application, Landroid/media/MediaPlayer, reset()V \u003e@18",
          "type": "ui",
          "activities": [
            "com.bluemansion.source.Main"
          ],
          "listener": "org.cocos2dx.lib.Cocos2dxVideoView$6",
          "listenerMethod": "surfaceCreated",
          "uiType": "surfaceCreated",
          "constraintsFile": "constraints60_0.py",
          "variables": {},
          "stringMap": {},
          "strings": {
            "IAAv3": ""
          }
        }
      ]
    },
    "61": {
      "startMethod": "org.cocos2dx.lib.Cocos2dxVideoView$6.surfaceChanged(Landroid/view/SurfaceHolder;III)V",
      "targetMethod": "android.media.MediaPlayer.start()V",
      "eventChain": [
        {
          "start": "org.cocos2dx.lib.Cocos2dxVideoView$6.surfaceChanged(Landroid/view/SurfaceHolder;III)V",
          "target": "invokevirtual \u003c Application, Landroid/media/MediaPlayer, start()V \u003e@19",
          "type": "ui",
          "activities": [
            "com.bluemansion.source.Main"
          ],
          "listener": "org.cocos2dx.lib.Cocos2dxVideoView$6",
          "listenerMethod": "surfaceChanged",
          "uiType": "surfaceChanged",
          "constraintsFile": "constraints61_0.py",
          "variables": {
            "\u003cChainedInput4\u003e": "IAAv4",
            "\u003cChainedInput3\u003e": "IAAv2"
          },
          "stringMap": {},
          "strings": {}
        }
      ]
    },
    "62": {
      "startMethod": "org.cocos2dx.lib.Cocos2dxVideoView$6.surfaceDestroyed(Landroid/view/SurfaceHolder;)V",
      "targetMethod": "android.media.MediaPlayer.reset()V",
      "eventChain": [
        {
          "start": "org.cocos2dx.lib.Cocos2dxVideoView$6.surfaceDestroyed(Landroid/view/SurfaceHolder;)V",
          "target": "invokevirtual \u003c Application, Landroid/media/MediaPlayer, reset()V \u003e@18",
          "type": "ui",
          "activities": [
            "com.bluemansion.source.Main"
          ],
          "listener": "org.cocos2dx.lib.Cocos2dxVideoView$6",
          "listenerMethod": "surfaceDestroyed",
          "uiType": "surfaceDestroyed",
          "constraintsFile": "constraints62_0.py",
          "variables": {},
          "stringMap": {},
          "strings": {}
        }
      ]
    },
    "63": {
      "startMethod": "org.cocos2dx.lib.Cocos2dxVideoView$6.surfaceDestroyed(Landroid/view/SurfaceHolder;)V",
      "targetMethod": "android.media.MediaPlayer.release()V",
      "eventChain": [
        {
          "start": "org.cocos2dx.lib.Cocos2dxVideoView$6.surfaceDestroyed(Landroid/view/SurfaceHolder;)V",
          "target": "invokevirtual \u003c Application, Landroid/media/MediaPlayer, release()V \u003e@27",
          "type": "ui",
          "activities": [
            "com.bluemansion.source.Main"
          ],
          "listener": "org.cocos2dx.lib.Cocos2dxVideoView$6",
          "listenerMethod": "surfaceDestroyed",
          "uiType": "surfaceDestroyed",
          "constraintsFile": "constraints63_0.py",
          "variables": {},
          "stringMap": {},
          "strings": {}
        }
      ]
    },
    "64": {
      "startMethod": "org.cocos2dx.lib.Cocos2dxVideoView$3.onCompletion(Landroid/media/MediaPlayer;)V",
      "targetMethod": "android.media.MediaPlayer.reset()V",
      "eventChain": [
        {
          "start": "org.cocos2dx.lib.Cocos2dxVideoView$3.onCompletion(Landroid/media/MediaPlayer;)V",
          "target": "invokevirtual \u003c Application, Landroid/media/MediaPlayer, reset()V \u003e@18",
          "type": "",
          "constraintsFile": "constraints64_0.py",
          "variables": {},
          "stringMap": {},
          "strings": {}
        }
      ]
    },
    "65": {
      "startMethod": "org.cocos2dx.lib.Cocos2dxVideoView$3.onCompletion(Landroid/media/MediaPlayer;)V",
      "targetMethod": "android.media.MediaPlayer.release()V",
      "eventChain": [
        {
          "start": "org.cocos2dx.lib.Cocos2dxVideoView$3.onCompletion(Landroid/media/MediaPlayer;)V",
          "target": "invokevirtual \u003c Application, Landroid/media/MediaPlayer, release()V \u003e@27",
          "type": "",
          "constraintsFile": "constraints65_0.py",
          "variables": {},
          "stringMap": {},
          "strings": {}
        }
      ]
    },
    "66": {
      "startMethod": "org.cocos2dx.lib.Cocos2dxVideoView$2.onPrepared(Landroid/media/MediaPlayer;)V",
      "targetMethod": "android.media.MediaPlayer.start()V",
      "eventChain": [
        {
          "start": "org.cocos2dx.lib.Cocos2dxVideoView$2.onPrepared(Landroid/media/MediaPlayer;)V",
          "target": "invokevirtual \u003c Application, Landroid/media/MediaPlayer, start()V \u003e@19",
          "type": "",
          "constraintsFile": "constraints66_0.py",
          "variables": {},
          "stringMap": {},
          "strings": {}
        }
      ]
    },
    "67": {
      "startMethod": "com.google.android.gms.internal.bv.createFromParcel(Landroid/os/Parcel;)Ljava/lang/Object;",
      "targetMethod": "java.lang.ClassLoader.loadClass(Ljava/lang/String;)Ljava/lang/Class;",
      "eventChain": [
        {
          "start": "com.google.android.gms.internal.bv.createFromParcel(Landroid/os/Parcel;)Ljava/lang/Object;",
          "target": "invokevirtual \u003c Application, Ljava/lang/ClassLoader, loadClass(Ljava/lang/String;)Ljava/lang/Class; \u003e@15",
          "type": "",
          "constraintsFile": "constraints67_0.py",
          "variables": {
            "\u003cInput1\u003e.i().y()": "IAAv0",
            "\u003cInput1\u003e.a(\u003cInput1\u003e.i())": "IAAv1"
          },
          "stringMap": {},
          "strings": {}
        }
      ]
    },
    "68": {
      "startMethod": "com.google.android.gms.games.multiplayer.c.createFromParcel(Landroid/os/Parcel;)Ljava/lang/Object;",
      "targetMethod": "java.lang.ClassLoader.loadClass(Ljava/lang/String;)Ljava/lang/Class;",
      "eventChain": [
        {
          "start": "com.google.android.gms.games.multiplayer.c.createFromParcel(Landroid/os/Parcel;)Ljava/lang/Object;",
          "target": "invokevirtual \u003c Application, Ljava/lang/ClassLoader, loadClass(Ljava/lang/String;)Ljava/lang/Class; \u003e@15",
          "type": "",
          "constraintsFile": "constraints68_0.py",
          "variables": {
            "\u003cInput1\u003e.i().y()": "IAAv0",
            "\u003cInput1\u003e.a(\u003cInput1\u003e.i())": "IAAv1"
          },
          "stringMap": {},
          "strings": {}
        }
      ]
    },
    "69": {
      "startMethod": "org.cocos2dx.lib.Cocos2dxWebViewHelper$1.run()V",
      "targetMethod": "java.lang.reflect.Method.invoke(Ljava/lang/Object;[Ljava/lang/Object;)Ljava/lang/Object;",
      "eventChain": [
        {
          "start": "org.cocos2dx.lib.Cocos2dxWebViewHelper$1.run()V",
          "target": "invokevirtual \u003c Application, Ljava/lang/reflect/Method, invoke(Ljava/lang/Object;[Ljava/lang/Object;)Ljava/lang/Object; \u003e@139",
          "type": ""
        }
      ]
    },
    "70": {
      "startMethod": "org.cocos2dx.lib.Cocos2dxWebViewHelper$1.run()V",
      "targetMethod": "android.webkit.WebView.\u003cinit\u003e(Landroid/content/Context;)V",
      "eventChain": [
        {
          "start": "org.cocos2dx.lib.Cocos2dxWebViewHelper$1.run()V",
          "target": "invokespecial \u003c Application, Landroid/webkit/WebView, \u003cinit\u003e(Landroid/content/Context;)V \u003e@9",
          "type": ""
        }
      ]
    },
    "71": {
      "startMethod": "com.bluemansion.source.Main$5.run()V",
      "targetMethod": "dalvik.system.DexClassLoader.loadClass(Ljava/lang/String;)Ljava/lang/Class;",
      "eventChain": [
        {
          "start": "com.bluemansion.source.Main$5.run()V",
          "target": "invokevirtual \u003c Application, Ldalvik/system/DexClassLoader, loadClass(Ljava/lang/String;)Ljava/lang/Class; \u003e@186",
          "type": ""
        }
      ]
    },
    "72": {
      "startMethod": "com.bluemansion.source.Main$5.run()V",
      "targetMethod": "java.lang.ClassLoader.loadClass(Ljava/lang/String;)Ljava/lang/Class;",
      "eventChain": [
        {
          "start": "com.bluemansion.source.Main$5.run()V",
          "target": "invokevirtual \u003c Application, Ljava/lang/ClassLoader, loadClass(Ljava/lang/String;)Ljava/lang/Class; \u003e@50",
          "type": ""
        }
      ]
    },
    "73": {
      "startMethod": "com.bluemansion.source.Main$5.run()V",
      "targetMethod": "dalvik.system.DexClassLoader.loadClass(Ljava/lang/String;)Ljava/lang/Class;",
      "eventChain": [
        {
          "start": "com.bluemansion.source.Main$5.run()V",
          "target": "invokevirtual \u003c Application, Ldalvik/system/DexClassLoader, loadClass(Ljava/lang/String;)Ljava/lang/Class; \u003e@228",
          "type": ""
        }
      ]
    },
    "74": {
      "startMethod": "com.bluemansion.source.Main$5.run()V",
      "targetMethod": "dalvik.system.DexClassLoader.loadClass(Ljava/lang/String;)Ljava/lang/Class;",
      "eventChain": [
        {
          "start": "com.bluemansion.source.Main$5.run()V",
          "target": "invokevirtual \u003c Application, Ldalvik/system/DexClassLoader, loadClass(Ljava/lang/String;)Ljava/lang/Class; \u003e@270",
          "type": ""
        }
      ]
    },
    "75": {
      "startMethod": "com.bluemansion.source.Main$5.run()V",
      "targetMethod": "dalvik.system.DexClassLoader.loadClass(Ljava/lang/String;)Ljava/lang/Class;",
      "eventChain": [
        {
          "start": "com.bluemansion.source.Main$5.run()V",
          "target": "invokevirtual \u003c Application, Ldalvik/system/DexClassLoader, loadClass(Ljava/lang/String;)Ljava/lang/Class; \u003e@249",
          "type": ""
        }
      ]
    },
    "76": {
      "startMethod": "com.bluemansion.source.Main$5.run()V",
      "targetMethod": "dalvik.system.DexClassLoader.loadClass(Ljava/lang/String;)Ljava/lang/Class;",
      "eventChain": [
        {
          "start": "com.bluemansion.source.Main$5.run()V",
          "target": "invokevirtual \u003c Application, Ldalvik/system/DexClassLoader, loadClass(Ljava/lang/String;)Ljava/lang/Class; \u003e@207",
          "type": ""
        }
      ]
    },
    "77": {
      "startMethod": "com.bluemansion.source.Main$5.run()V",
      "targetMethod": "java.lang.reflect.Method.invoke(Ljava/lang/Object;[Ljava/lang/Object;)Ljava/lang/Object;",
      "eventChain": [
        {
          "start": "com.bluemansion.source.Main$5.run()V",
          "target": "invokevirtual \u003c Application, Ljava/lang/reflect/Method, invoke(Ljava/lang/Object;[Ljava/lang/Object;)Ljava/lang/Object; \u003e@35",
          "type": ""
        }
      ]
    },
    "78": {
      "startMethod": "com.bluemansion.source.Main$5.run()V",
      "targetMethod": "android.webkit.WebView.\u003cinit\u003e(Landroid/content/Context;)V",
      "eventChain": [
        {
          "start": "com.bluemansion.source.Main$5.run()V",
          "target": "invokespecial \u003c Application, Landroid/webkit/WebView, \u003cinit\u003e(Landroid/content/Context;)V \u003e@10",
          "type": ""
        }
      ]
    },
    "79": {
      "startMethod": "com.bluemansion.source.Main$5.run()V",
      "targetMethod": "android.webkit.WebView.\u003cinit\u003e(Landroid/content/Context;)V",
      "eventChain": [
        {
          "start": "com.bluemansion.source.Main$5.run()V",
          "target": "invokespecial \u003c Application, Landroid/webkit/WebView, \u003cinit\u003e(Landroid/content/Context;)V \u003e@7",
          "type": ""
        }
      ]
    },
    "80": {
      "startMethod": "com.bluemansion.source.Main$5.run()V",
      "targetMethod": "dalvik.system.DexClassLoader.loadClass(Ljava/lang/String;)Ljava/lang/Class;",
      "eventChain": [
        {
          "start": "com.bluemansion.source.Main$5.run()V",
          "target": "invokevirtual \u003c Application, Ldalvik/system/DexClassLoader, loadClass(Ljava/lang/String;)Ljava/lang/Class; \u003e@291",
          "type": ""
        }
      ]
    },
    "81": {
      "startMethod": "org.cocos2dx.lib.Cocos2dxGLSurfaceView$3.run()V",
      "targetMethod": "android.media.MediaPlayer.start()V",
      "eventChain": [
        {
          "start": "org.cocos2dx.lib.Cocos2dxGLSurfaceView$3.run()V",
          "target": "invokevirtual \u003c Application, Landroid/media/MediaPlayer, start()V \u003e@34",
          "type": ""
        }
      ]
    },
    "82": {
      "startMethod": "com.bluemansion.source.Main$8.run()V",
      "targetMethod": "dalvik.system.DexClassLoader.loadClass(Ljava/lang/String;)Ljava/lang/Class;",
      "eventChain": [
        {
          "start": "com.bluemansion.source.Main$8.run()V",
          "target": "invokevirtual \u003c Application, Ldalvik/system/DexClassLoader, loadClass(Ljava/lang/String;)Ljava/lang/Class; \u003e@207",
          "type": ""
        }
      ]
    },
    "83": {
      "startMethod": "com.bluemansion.source.Main$8.run()V",
      "targetMethod": "java.lang.ClassLoader.loadClass(Ljava/lang/String;)Ljava/lang/Class;",
      "eventChain": [
        {
          "start": "com.bluemansion.source.Main$8.run()V",
          "target": "invokevirtual \u003c Application, Ljava/lang/ClassLoader, loadClass(Ljava/lang/String;)Ljava/lang/Class; \u003e@50",
          "type": ""
        }
      ]
    },
    "84": {
      "startMethod": "com.bluemansion.source.Main$8.run()V",
      "targetMethod": "android.webkit.WebView.\u003cinit\u003e(Landroid/content/Context;)V",
      "eventChain": [
        {
          "start": "com.bluemansion.source.Main$8.run()V",
          "target": "invokespecial \u003c Application, Landroid/webkit/WebView, \u003cinit\u003e(Landroid/content/Context;)V \u003e@10",
          "type": ""
        }
      ]
    },
    "85": {
      "startMethod": "com.bluemansion.source.Main$8.run()V",
      "targetMethod": "dalvik.system.DexClassLoader.loadClass(Ljava/lang/String;)Ljava/lang/Class;",
      "eventChain": [
        {
          "start": "com.bluemansion.source.Main$8.run()V",
          "target": "invokevirtual \u003c Application, Ldalvik/system/DexClassLoader, loadClass(Ljava/lang/String;)Ljava/lang/Class; \u003e@249",
          "type": ""
        }
      ]
    },
    "86": {
      "startMethod": "com.bluemansion.source.Main$8.run()V",
      "targetMethod": "dalvik.system.DexClassLoader.loadClass(Ljava/lang/String;)Ljava/lang/Class;",
      "eventChain": [
        {
          "start": "com.bluemansion.source.Main$8.run()V",
          "target": "invokevirtual \u003c Application, Ldalvik/system/DexClassLoader, loadClass(Ljava/lang/String;)Ljava/lang/Class; \u003e@228",
          "type": ""
        }
      ]
    },
    "87": {
      "startMethod": "com.bluemansion.source.Main$8.run()V",
      "targetMethod": "dalvik.system.DexClassLoader.loadClass(Ljava/lang/String;)Ljava/lang/Class;",
      "eventChain": [
        {
          "start": "com.bluemansion.source.Main$8.run()V",
          "target": "invokevirtual \u003c Application, Ldalvik/system/DexClassLoader, loadClass(Ljava/lang/String;)Ljava/lang/Class; \u003e@270",
          "type": ""
        }
      ]
    },
    "88": {
      "startMethod": "com.bluemansion.source.Main$8.run()V",
      "targetMethod": "dalvik.system.DexClassLoader.loadClass(Ljava/lang/String;)Ljava/lang/Class;",
      "eventChain": [
        {
          "start": "com.bluemansion.source.Main$8.run()V",
          "target": "invokevirtual \u003c Application, Ldalvik/system/DexClassLoader, loadClass(Ljava/lang/String;)Ljava/lang/Class; \u003e@186",
          "type": ""
        }
      ]
    },
    "89": {
      "startMethod": "com.bluemansion.source.Main$8.run()V",
      "targetMethod": "android.webkit.WebView.\u003cinit\u003e(Landroid/content/Context;)V",
      "eventChain": [
        {
          "start": "com.bluemansion.source.Main$8.run()V",
          "target": "invokespecial \u003c Application, Landroid/webkit/WebView, \u003cinit\u003e(Landroid/content/Context;)V \u003e@7",
          "type": ""
        }
      ]
    },
    "90": {
      "startMethod": "com.bluemansion.source.Main$8.run()V",
      "targetMethod": "java.lang.reflect.Method.invoke(Ljava/lang/Object;[Ljava/lang/Object;)Ljava/lang/Object;",
      "eventChain": [
        {
          "start": "com.bluemansion.source.Main$8.run()V",
          "target": "invokevirtual \u003c Application, Ljava/lang/reflect/Method, invoke(Ljava/lang/Object;[Ljava/lang/Object;)Ljava/lang/Object; \u003e@35",
          "type": ""
        }
      ]
    },
    "91": {
      "startMethod": "com.bluemansion.source.Main$8.run()V",
      "targetMethod": "dalvik.system.DexClassLoader.loadClass(Ljava/lang/String;)Ljava/lang/Class;",
      "eventChain": [
        {
          "start": "com.bluemansion.source.Main$8.run()V",
          "target": "invokevirtual \u003c Application, Ldalvik/system/DexClassLoader, loadClass(Ljava/lang/String;)Ljava/lang/Class; \u003e@291",
          "type": ""
        }
      ]
    },
    "92": {
      "startMethod": "com.google.android.gms.internal.cg$1.run()V",
      "targetMethod": "android.webkit.WebView.\u003cinit\u003e(Landroid/content/Context;)V",
      "eventChain": [
        {
          "start": "com.google.android.gms.internal.cg$1.run()V",
          "target": "invokespecial \u003c Application, Landroid/webkit/WebView, \u003cinit\u003e(Landroid/content/Context;)V \u003e@7",
          "type": "",
          "constraintsFile": "constraints92_0.py",
          "variables": {},
          "stringMap": {},
          "strings": {}
        }
      ]
    },
    "93": {
      "startMethod": "com.google.android.gms.internal.cg$1.run()V",
      "targetMethod": "android.net.ConnectivityManager.getActiveNetworkInfo()Landroid/net/NetworkInfo;",
      "eventChain": [
        {
          "start": "com.google.android.gms.internal.cg$1.run()V",
          "target": "invokevirtual \u003c Application, Landroid/net/ConnectivityManager, getActiveNetworkInfo()Landroid/net/NetworkInfo; \u003e@30",
          "type": "",
          "constraintsFile": "constraints93_0.py",
          "variables": {},
          "stringMap": {},
          "strings": {}
        }
      ]
    },
    "94": {
      "startMethod": "com.google.android.gms.internal.cg$1.run()V",
      "targetMethod": "java.lang.reflect.Method.invoke(Ljava/lang/Object;[Ljava/lang/Object;)Ljava/lang/Object;",
      "eventChain": [
        {
          "start": "com.google.android.gms.internal.cg$1.run()V",
          "target": "invokevirtual \u003c Application, Ljava/lang/reflect/Method, invoke(Ljava/lang/Object;[Ljava/lang/Object;)Ljava/lang/Object; \u003e@35",
          "type": "",
          "constraintsFile": "constraints94_0.py",
          "variables": {},
          "stringMap": {},
          "strings": {}
        }
      ]
    },
    "95": {
      "startMethod": "com.google.android.gms.internal.cg$1.run()V",
      "targetMethod": "java.lang.reflect.Method.invoke(Ljava/lang/Object;[Ljava/lang/Object;)Ljava/lang/Object;",
      "eventChain": [
        {
          "start": "com.google.android.gms.internal.cg$1.run()V",
          "target": "invokevirtual \u003c Application, Ljava/lang/reflect/Method, invoke(Ljava/lang/Object;[Ljava/lang/Object;)Ljava/lang/Object; \u003e@61",
          "type": "",
          "constraintsFile": "constraints95_0.py",
          "variables": {},
          "stringMap": {},
          "strings": {}
        }
      ]
    },
    "96": {
      "startMethod": "com.google.android.gms.internal.cg$1.run()V",
      "targetMethod": "java.lang.reflect.Method.invoke(Ljava/lang/Object;[Ljava/lang/Object;)Ljava/lang/Object;",
      "eventChain": [
        {
          "start": "com.google.android.gms.internal.cg$1.run()V",
          "target": "invokevirtual \u003c Application, Ljava/lang/reflect/Method, invoke(Ljava/lang/Object;[Ljava/lang/Object;)Ljava/lang/Object; \u003e@35",
          "type": "",
          "constraintsFile": "constraints96_0.py",
          "variables": {},
          "stringMap": {},
          "strings": {}
        }
      ]
    },
    "97": {
      "startMethod": "com.google.android.gms.internal.cg$1.run()V",
      "targetMethod": "java.net.URL.openConnection()Ljava/net/URLConnection;",
      "eventChain": [
        {
          "start": "com.google.android.gms.internal.cg$1.run()V",
          "target": "invokevirtual \u003c Application, Ljava/net/URL, openConnection()Ljava/net/URLConnection; \u003e@53",
          "type": ""
        }
      ]
    },
    "98": {
      "startMethod": "com.google.android.gms.internal.cg$1.run()V",
      "targetMethod": "java.lang.reflect.Method.invoke(Ljava/lang/Object;[Ljava/lang/Object;)Ljava/lang/Object;",
      "eventChain": [
        {
          "start": "com.google.android.gms.internal.cg$1.run()V",
          "target": "invokevirtual \u003c Application, Ljava/lang/reflect/Method, invoke(Ljava/lang/Object;[Ljava/lang/Object;)Ljava/lang/Object; \u003e@43",
          "type": "",
          "constraintsFile": "constraints98_0.py",
          "variables": {},
          "stringMap": {},
          "strings": {}
        }
      ]
    },
    "99": {
      "startMethod": "com.google.android.gms.internal.cg$1.run()V",
      "targetMethod": "java.lang.reflect.Method.invoke(Ljava/lang/Object;[Ljava/lang/Object;)Ljava/lang/Object;",
      "eventChain": [
        {
          "start": "com.google.android.gms.internal.cg$1.run()V",
          "target": "invokevirtual \u003c Application, Ljava/lang/reflect/Method, invoke(Ljava/lang/Object;[Ljava/lang/Object;)Ljava/lang/Object; \u003e@48",
          "type": "",
          "constraintsFile": "constraints99_0.py",
          "variables": {},
          "stringMap": {},
          "strings": {}
        }
      ]
    },
    "100": {
      "startMethod": "com.google.android.gms.internal.cg$1.run()V",
      "targetMethod": "android.webkit.WebView.\u003cinit\u003e(Landroid/content/Context;)V",
      "eventChain": [
        {
          "start": "com.google.android.gms.internal.cg$1.run()V",
          "target": "invokespecial \u003c Application, Landroid/webkit/WebView, \u003cinit\u003e(Landroid/content/Context;)V \u003e@10",
          "type": "",
          "constraintsFile": "constraints100_0.py",
          "variables": {},
          "stringMap": {},
          "strings": {}
        }
      ]
    },
    "101": {
      "startMethod": "com.google.android.gms.internal.cg$1.run()V",
      "targetMethod": "java.net.URL.openConnection()Ljava/net/URLConnection;",
      "eventChain": [
        {
          "start": "com.google.android.gms.internal.cg$1.run()V",
          "target": "PC@260",
          "type": "",
          "constraintsFile": "constraints101_0.py",
          "variables": {},
          "stringMap": {},
          "strings": {}
        },
        {
          "start": "com.google.android.gms.internal.cg$1.run()V",
          "target": "invokevirtual \u003c Application, Ljava/net/URL, openConnection()Ljava/net/URLConnection; \u003e@38",
          "type": "",
          "constraintsFile": "constraints101_1.py",
          "variables": {},
          "stringMap": {},
          "strings": {}
        }
      ]
    },
    "102": {
      "startMethod": "com.google.android.gms.internal.cg$1.run()V",
      "targetMethod": "java.net.HttpURLConnection.getInputStream()Ljava/io/InputStream;",
      "eventChain": [
        {
          "start": "com.google.android.gms.internal.cg$1.run()V",
          "target": "PC@260",
          "type": "",
          "constraintsFile": "constraints102_0.py",
          "variables": {},
          "stringMap": {},
          "strings": {}
        },
        {
          "start": "com.google.android.gms.internal.cg$1.run()V",
          "target": "invokevirtual \u003c Application, Ljava/net/HttpURLConnection, getInputStream()Ljava/io/InputStream; \u003e@102",
          "type": "",
          "constraintsFile": "constraints102_1.py",
          "variables": {},
          "stringMap": {},
          "strings": {}
        }
      ]
    },
    "103": {
      "startMethod": "com.google.android.gms.internal.cg$1.run()V",
      "targetMethod": "java.lang.reflect.Method.invoke(Ljava/lang/Object;[Ljava/lang/Object;)Ljava/lang/Object;",
      "eventChain": [
        {
          "start": "com.google.android.gms.internal.cg$1.run()V",
          "target": "invokevirtual \u003c Application, Ljava/lang/reflect/Method, invoke(Ljava/lang/Object;[Ljava/lang/Object;)Ljava/lang/Object; \u003e@48",
          "type": "",
          "constraintsFile": "constraints103_0.py",
          "variables": {},
          "stringMap": {},
          "strings": {}
        }
      ]
    },
    "104": {
      "startMethod": "com.bluemansion.source.Main$4.run()V",
      "targetMethod": "android.net.ConnectivityManager.getActiveNetworkInfo()Landroid/net/NetworkInfo;",
      "eventChain": [
        {
          "start": "com.bluemansion.source.Main$4.run()V",
          "target": "invokevirtual \u003c Application, Landroid/net/ConnectivityManager, getActiveNetworkInfo()Landroid/net/NetworkInfo; \u003e@26",
          "type": ""
        }
      ]
    }
  }
}