{
  "packageName": "com.mj.iCalendar",
  "mainActivity": "com.mj.iCalendar.iBook",
  "callPaths": {
    "0": {
      "startMethod": "com.mj.iCalendar.SmsReceiver.onReceive(Landroid/content/Context;Landroid/content/Intent;)V",
      "targetMethod": "com.mj.iCalendar.SmsReceiver.abortBroadcast()V",
      "eventChain": [
        {
          "start": "com.mj.iCalendar.SmsReceiver.onReceive(Landroid/content/Context;Landroid/content/Intent;)V",
          "target": "invokevirtual \u003c Application, Lcom/mj/iCalendar/SmsReceiver, abortBroadcast()V \u003e@221",
          "type": "sms",
          "constraintsFile": "constraints0_0.py",
          "variables": {
            "\u003cInput2\u003e.getExtras()": "IAAv4",
            "\u003cInput2\u003e.getExtras().get().\u003cSmsMessage\u003e.getDisplayOriginatingAddress()": "IAAv5",
            "\u003cInput2\u003e.getAction()": "IAAv0",
            "System.currentTimeMillis()": "IAAv2",
            "\u003cSystemPrevTime\u003e": "IAAv3"
          },
          "stringMap": {
            "7000": "android.provider.Telephony.SMS_RECEIVED",
            "7001": "10086",
            "7002": "1066185829"
          },
          "strings": {
            "IAAv0": "",
            "IAAv5": ""
          }
        }
      ]
    },
    "1": {
      "startMethod": "com.mj.iCalendar.SmsReceiver.onReceive(Landroid/content/Context;Landroid/content/Intent;)V",
      "targetMethod": "com.mj.iCalendar.SmsReceiver.abortBroadcast()V",
      "eventChain": [
        {
          "start": "com.mj.iCalendar.SmsReceiver.onReceive(Landroid/content/Context;Landroid/content/Intent;)V",
          "target": "invokevirtual \u003c Application, Lcom/mj/iCalendar/SmsReceiver, abortBroadcast()V \u003e@239",
          "type": "sms"
        }
      ]
    },
    "2": {
      "startMethod": "com.admob.android.ads.analytics.InstallReceiver.onReceive(Landroid/content/Context;Landroid/content/Intent;)V",
      "targetMethod": "java.net.URL.openConnection()Ljava/net/URLConnection;",
      "eventChain": [
        {
          "start": "com.admob.android.ads.analytics.InstallReceiver.onReceive(Landroid/content/Context;Landroid/content/Intent;)V",
          "target": "invokevirtual \u003c Application, Ljava/net/URL, openConnection()Ljava/net/URLConnection; \u003e@327",
          "type": "sms"
        }
      ]
    },
    "3": {
      "startMethod": "com.mj.iCalendar.iBook.onClick(Landroid/view/View;)V",
      "targetMethod": "android.telephony.gsm.SmsManager.sendTextMessage(Ljava/lang/String;Ljava/lang/String;Ljava/lang/String;Landroid/app/PendingIntent;Landroid/app/PendingIntent;)V",
      "eventChain": [
        {
          "start": "com.mj.iCalendar.iBook.onCreate(Landroid/os/Bundle;)V",
          "target": "invokevirtual \u003c Application, Landroid/view/View, setOnClickListener(Landroid/view/View$OnClickListener;)V \u003e@44",
          "type": "activity",
          "component": "com.mj.iCalendar.iBook"
        },
        {
          "start": "com.mj.iCalendar.iBook.onCreate(Landroid/os/Bundle;)V",
          "target": "PC@34",
          "type": "activity",
          "component": "com.mj.iCalendar.iBook",
          "constraintsFile": "constraints3_0.py",
          "variables": {
            "\u003cChainedInput1\u003e": "IAAv0"
          },
          "stringMap": {
            "7000": "\u003cUI\u003e"
          },
          "strings": {}
        },
        {
          "start": "com.mj.iCalendar.iBook.onLongClick(Landroid/view/View;)Z",
          "target": "PC@38",
          "type": "ui",
          "activities": [
            "com.mj.iCalendar.iBook"
          ],
          "listener": "com.mj.iCalendar.iBook",
          "listenerMethod": "onLongClick",
          "uiType": "onLongClick",
          "constraintsFile": "constraints3_1.py",
          "variables": {
            "\u003cChainedInput1\u003e": "IAAv0"
          },
          "stringMap": {},
          "strings": {}
        },
        {
          "start": "com.mj.iCalendar.iBook.onClick(Landroid/view/View;)V",
          "target": "invokevirtual \u003c Application, Landroid/telephony/gsm/SmsManager, sendTextMessage(Ljava/lang/String;Ljava/lang/String;Ljava/lang/String;Landroid/app/PendingIntent;Landroid/app/PendingIntent;)V \u003e@75",
          "type": "ui",
          "activities": [
            "com.mj.iCalendar.iBook"
          ],
          "listener": "com.mj.iCalendar.iBook",
          "listenerMethod": "onClick",
          "uiType": "onClick",
          "constraintsFile": "constraints3_2.py",
          "variables": {
            "\u003cChainedInput1\u003e": "IAAv0"
          },
          "stringMap": {},
          "strings": {}
        }
      ]
    }
  }
}