{
  "packageName": "cz.devsoft.mpos",
  "mainActivity": "cz.devsoft.mpos.MainActivity",
  "callPaths": {
    "0": {
      "startMethod": "org.apache.cordova.inappbrowser.InAppBrowser$5.run()V",
      "targetMethod": "android.webkit.WebView.\u003cinit\u003e(Landroid/content/Context;)V",
      "eventChain": [
        {
          "start": "org.apache.cordova.inappbrowser.InAppBrowser$5.run()V",
          "target": "invokespecial \u003c Application, Landroid/webkit/WebView, \u003cinit\u003e(Landroid/content/Context;)V \u003e@1762",
          "type": "",
          "constraintsFile": "constraints0_0.py",
          "variables": {},
          "stringMap": {},
          "strings": {}
        }
      ]
    },
    "1": {
      "startMethod": "org.apache.cordova.CordovaActivity$2.run()V",
      "targetMethod": "java.net.URL.openConnection()Ljava/net/URLConnection;",
      "eventChain": [
        {
          "start": "org.apache.cordova.CordovaActivity$2.run()V",
          "target": "invokevirtual \u003c Application, Ljava/net/URL, openConnection()Ljava/net/URLConnection; \u003e@117",
          "type": "",
          "constraintsFile": "constraints1_0.py",
          "variables": {},
          "stringMap": {
            "7000": "file"
          },
          "strings": {
            "IAAv2": ""
          }
        }
      ]
    },
    "2": {
      "startMethod": "com.megster.cordova.BluetoothSerialService$ConnectThread.run()V",
      "targetMethod": "java.lang.reflect.Method.invoke(Ljava/lang/Object;[Ljava/lang/Object;)Ljava/lang/Object;",
      "eventChain": [
        {
          "start": "com.megster.cordova.BluetoothSerialService$ConnectThread.\u003cinit\u003e(Lcom/megster/cordova/BluetoothSerialService;Landroid/bluetooth/BluetoothDevice;Z)V",
          "target": "PC@12",
          "type": "",
          "constraintsFile": "constraints2_0.py",
          "variables": {
            "\u003cInput2\u003e": "IAAv1"
          },
          "stringMap": {},
          "strings": {}
        },
        {
          "start": "com.megster.cordova.BluetoothSerialService$ConnectThread.run()V",
          "target": "invokevirtual \u003c Application, Ljava/lang/reflect/Method, invoke(Ljava/lang/Object;[Ljava/lang/Object;)Ljava/lang/Object; \u003e@366",
          "type": ""
        }
      ]
    },
    "3": {
      "startMethod": "com.megster.cordova.BluetoothSerialService$ConnectThread.run()V",
      "targetMethod": "android.bluetooth.BluetoothSocket.connect()V",
      "eventChain": [
        {
          "start": "com.megster.cordova.BluetoothSerialService$ConnectThread.run()V",
          "target": "invokevirtual \u003c Application, Landroid/bluetooth/BluetoothSocket, connect()V \u003e@152",
          "type": ""
        }
      ]
    },
    "4": {
      "startMethod": "com.megster.cordova.BluetoothSerialService$ConnectThread.run()V",
      "targetMethod": "android.bluetooth.BluetoothSocket.connect()V",
      "eventChain": [
        {
          "start": "com.megster.cordova.BluetoothSerialService$ConnectThread.run()V",
          "target": "invokevirtual \u003c Application, Landroid/bluetooth/BluetoothSocket, connect()V \u003e@392",
          "type": ""
        }
      ]
    },
    "5": {
      "startMethod": "com.megster.cordova.BluetoothSerialService$ConnectThread.run()V",
      "targetMethod": "android.bluetooth.BluetoothAdapter.cancelDiscovery()Z",
      "eventChain": [
        {
          "start": "com.megster.cordova.BluetoothSerialService$ConnectThread.run()V",
          "target": "invokevirtual \u003c Application, Landroid/bluetooth/BluetoothAdapter, cancelDiscovery()Z \u003e@124",
          "type": ""
        }
      ]
    }
  }
}