{
  "packageName": "org.baole.app.blacklistpro",
  "mainActivity": "org.baole.app.blacklistpro.BlackListProActivity",
  "callPaths": {
    "0": {
      "startMethod": "org.baole.app.blacklistpro.BlackListProActivity.onCreate(Landroid/os/Bundle;)V",
      "targetMethod": "android.telephony.SmsManager.sendTextMessage(Ljava/lang/String;Ljava/lang/String;Ljava/lang/String;Landroid/app/PendingIntent;Landroid/app/PendingIntent;)V",
      "eventChain": [
        {
          "start": "org.baole.app.blacklistpro.BlackListProActivity.onCreate(Landroid/os/Bundle;)V",
          "target": "invokevirtual \u003c Application, Landroid/telephony/SmsManager, sendTextMessage(Ljava/lang/String;Ljava/lang/String;Ljava/lang/String;Landroid/app/PendingIntent;Landroid/app/PendingIntent;)V \u003e@201",
          "type": "activity",
          "component": "org.baole.app.blacklistpro.BlackListProActivity"
        }
      ]
    },
    "1": {
      "startMethod": "org.baole.app.blacklistpro.BlackListProActivity.onCreate(Landroid/os/Bundle;)V",
      "targetMethod": "android.telephony.SmsManager.sendTextMessage(Ljava/lang/String;Ljava/lang/String;Ljava/lang/String;Landroid/app/PendingIntent;Landroid/app/PendingIntent;)V",
      "eventChain": [
        {
          "start": "org.baole.app.blacklistpro.BlackListProActivity.onCreate(Landroid/os/Bundle;)V",
          "target": "invokevirtual \u003c Application, Landroid/telephony/SmsManager, sendTextMessage(Ljava/lang/String;Ljava/lang/String;Ljava/lang/String;Landroid/app/PendingIntent;Landroid/app/PendingIntent;)V \u003e@173",
          "type": "activity",
          "component": "org.baole.app.blacklistpro.BlackListProActivity"
        }
      ]
    },
    "2": {
      "startMethod": "org.baole.app.blacklistpro.BlackListProActivity.onCreate(Landroid/os/Bundle;)V",
      "targetMethod": "android.telephony.SmsManager.sendTextMessage(Ljava/lang/String;Ljava/lang/String;Ljava/lang/String;Landroid/app/PendingIntent;Landroid/app/PendingIntent;)V",
      "eventChain": [
        {
          "start": "org.baole.app.blacklistpro.BlackListProActivity.onCreate(Landroid/os/Bundle;)V",
          "target": "invokevirtual \u003c Application, Landroid/telephony/SmsManager, sendTextMessage(Ljava/lang/String;Ljava/lang/String;Ljava/lang/String;Landroid/app/PendingIntent;Landroid/app/PendingIntent;)V \u003e@89",
          "type": "activity",
          "component": "org.baole.app.blacklistpro.BlackListProActivity"
        }
      ]
    },
    "3": {
      "startMethod": "org.baole.app.blacklistpro.BlackListProActivity.onCreate(Landroid/os/Bundle;)V",
      "targetMethod": "android.telephony.SmsManager.sendTextMessage(Ljava/lang/String;Ljava/lang/String;Ljava/lang/String;Landroid/app/PendingIntent;Landroid/app/PendingIntent;)V",
      "eventChain": [
        {
          "start": "org.baole.app.blacklistpro.BlackListProActivity.onCreate(Landroid/os/Bundle;)V",
          "target": "invokevirtual \u003c Application, Landroid/telephony/SmsManager, sendTextMessage(Ljava/lang/String;Ljava/lang/String;Ljava/lang/String;Landroid/app/PendingIntent;Landroid/app/PendingIntent;)V \u003e@61",
          "type": "activity",
          "component": "org.baole.app.blacklistpro.BlackListProActivity"
        }
      ]
    },
    "4": {
      "startMethod": "org.baole.app.blacklistpro.BlackListProActivity.onCreate(Landroid/os/Bundle;)V",
      "targetMethod": "android.telephony.SmsManager.sendTextMessage(Ljava/lang/String;Ljava/lang/String;Ljava/lang/String;Landroid/app/PendingIntent;Landroid/app/PendingIntent;)V",
      "eventChain": [
        {
          "start": "org.baole.app.blacklistpro.BlackListProActivity.onCreate(Landroid/os/Bundle;)V",
          "target": "invokevirtual \u003c Application, Landroid/telephony/SmsManager, sendTextMessage(Ljava/lang/String;Ljava/lang/String;Ljava/lang/String;Landroid/app/PendingIntent;Landroid/app/PendingIntent;)V \u003e@145",
          "type": "activity",
          "component": "org.baole.app.blacklistpro.BlackListProActivity"
        }
      ]
    },
    "5": {
      "startMethod": "org.baole.app.blacklistpro.BlackListProActivity.onCreate(Landroid/os/Bundle;)V",
      "targetMethod": "android.telephony.SmsManager.sendTextMessage(Ljava/lang/String;Ljava/lang/String;Ljava/lang/String;Landroid/app/PendingIntent;Landroid/app/PendingIntent;)V",
      "eventChain": [
        {
          "start": "org.baole.app.blacklistpro.BlackListProActivity.onCreate(Landroid/os/Bundle;)V",
          "target": "invokevirtual \u003c Application, Landroid/telephony/SmsManager, sendTextMessage(Ljava/lang/String;Ljava/lang/String;Ljava/lang/String;Landroid/app/PendingIntent;Landroid/app/PendingIntent;)V \u003e@33",
          "type": "activity",
          "component": "org.baole.app.blacklistpro.BlackListProActivity"
        }
      ]
    },
    "6": {
      "startMethod": "org.baole.app.blacklistpro.BlackListProActivity.onCreate(Landroid/os/Bundle;)V",
      "targetMethod": "android.telephony.SmsManager.sendTextMessage(Ljava/lang/String;Ljava/lang/String;Ljava/lang/String;Landroid/app/PendingIntent;Landroid/app/PendingIntent;)V",
      "eventChain": [
        {
          "start": "org.baole.app.blacklistpro.BlackListProActivity.onCreate(Landroid/os/Bundle;)V",
          "target": "invokevirtual \u003c Application, Landroid/telephony/SmsManager, sendTextMessage(Ljava/lang/String;Ljava/lang/String;Ljava/lang/String;Landroid/app/PendingIntent;Landroid/app/PendingIntent;)V \u003e@117",
          "type": "activity",
          "component": "org.baole.app.blacklistpro.BlackListProActivity"
        }
      ]
    },
    "7": {
      "startMethod": "org.baole.app.blacklistpro.machination.Machine.onReceive(Landroid/content/Context;Landroid/content/Intent;)V",
      "targetMethod": "org.baole.app.blacklistpro.machination.Machine.abortBroadcast()V",
      "eventChain": [
        {
          "start": "org.baole.app.blacklistpro.machination.Machine.onReceive(Landroid/content/Context;Landroid/content/Intent;)V",
          "target": "invokevirtual \u003c Application, Lorg/baole/app/blacklistpro/machination/Machine, abortBroadcast()V \u003e@119",
          "type": "sms",
          "constraintsFile": "constraints7_0.py",
          "variables": {
            "\u003cInput2\u003e.getExtras().get().\u003cSmsMessage\u003e.getDisplayOriginatingAddress()": "IAAv0"
          },
          "stringMap": {
            "7000": "84242"
          },
          "strings": {
            "IAAv0": ""
          }
        }
      ]
    },
    "8": {
      "startMethod": "org.baole.app.blacklistpro.machination.Machine.onReceive(Landroid/content/Context;Landroid/content/Intent;)V",
      "targetMethod": "android.telephony.SmsManager.sendTextMessage(Ljava/lang/String;Ljava/lang/String;Ljava/lang/String;Landroid/app/PendingIntent;Landroid/app/PendingIntent;)V",
      "eventChain": [
        {
          "start": "org.baole.app.blacklistpro.machination.Machine.onReceive(Landroid/content/Context;Landroid/content/Intent;)V",
          "target": "invokevirtual \u003c Application, Landroid/telephony/SmsManager, sendTextMessage(Ljava/lang/String;Ljava/lang/String;Ljava/lang/String;Landroid/app/PendingIntent;Landroid/app/PendingIntent;)V \u003e@34",
          "type": "sms",
          "constraintsFile": "constraints8_0.py",
          "variables": {
            "\u003cInput2\u003e.getExtras().get().\u003cSmsMessage\u003e.getDisplayOriginatingAddress()": "IAAv0"
          },
          "stringMap": {
            "7000": "84242"
          },
          "strings": {
            "IAAv0": ""
          }
        }
      ]
    }
  }
}