{
  "packageName": "de.androidcrowd.quizforkids",
  "mainActivity": "de.androidcrowd.quizforkids.QuizMain",
  "callPaths": {
    "0": {
      "startMethod": "de.androidcrowd.quizforkids.FeedbackDialog$1.onClick(Landroid/view/View;)V",
      "targetMethod": "org.apache.http.client.HttpClient.execute(Lorg/apache/http/client/methods/HttpUriRequest;)Lorg/apache/http/HttpResponse;",
      "eventChain": [
        {
          "start": "de.androidcrowd.quizforkids.QuizMain$8.onClick(Landroid/view/View;)V",
          "target": "invokevirtual \u003c Application, Landroid/widget/Button, setOnClickListener(Landroid/view/View$OnClickListener;)V \u003e@130",
          "type": "ui",
          "activities": [
            "de.androidcrowd.quizforkids.QuizMain"
          ],
          "listener": "de.androidcrowd.quizforkids.QuizMain$8",
          "listenerMethod": "onClick",
          "uiType": "onClick"
        },
        {
          "start": "de.androidcrowd.quizforkids.FeedbackDialog$1.onClick(Landroid/view/View;)V",
          "target": "invokeinterface \u003c Application, Lorg/apache/http/client/HttpClient, execute(Lorg/apache/http/client/methods/HttpUriRequest;)Lorg/apache/http/HttpResponse; \u003e@309",
          "type": "ui",
          "activities": [
            "de.androidcrowd.quizforkids.QuizMain"
          ],
          "listener": "de.androidcrowd.quizforkids.FeedbackDialog$1",
          "listenerMethod": "onClick",
          "uiType": "onClick",
          "constraintsFile": "constraints0_0.py",
          "variables": {},
          "stringMap": {},
          "strings": {}
        }
      ]
    },
    "1": {
      "startMethod": "de.androidcrowd.quizforkids.BeschwerdeDialog$1.onClick(Landroid/view/View;)V",
      "targetMethod": "org.apache.http.client.HttpClient.execute(Lorg/apache/http/client/methods/HttpUriRequest;)Lorg/apache/http/HttpResponse;",
      "eventChain": [
        {
          "start": "de.androidcrowd.quizforkids.Quiz$15.onClick(Landroid/view/View;)V",
          "target": "invokevirtual \u003c Application, Landroid/widget/Button, setOnClickListener(Landroid/view/View$OnClickListener;)V \u003e@185",
          "type": "ui",
          "activities": [
            "de.androidcrowd.quizforkids.Quiz"
          ],
          "listener": "de.androidcrowd.quizforkids.Quiz$15",
          "listenerMethod": "onClick",
          "uiType": "onClick"
        },
        {
          "start": "de.androidcrowd.quizforkids.BeschwerdeDialog$1.onClick(Landroid/view/View;)V",
          "target": "invokeinterface \u003c Application, Lorg/apache/http/client/HttpClient, execute(Lorg/apache/http/client/methods/HttpUriRequest;)Lorg/apache/http/HttpResponse; \u003e@428",
          "type": "ui",
          "activities": [
            "de.androidcrowd.quizforkids.QuizMain"
          ],
          "listener": "de.androidcrowd.quizforkids.BeschwerdeDialog$1",
          "listenerMethod": "onClick",
          "uiType": "onClick"
        }
      ]
    }
  }
}