{
  "packageName": "eng.trickersticks.presidents",
  "mainActivity": "eng.trickersticks.presidents.TrickerSticks",
  "callPaths": {
    "0": {
      "startMethod": "eng.trickersticks.presidents.Registration.onCreate(Landroid/os/Bundle;)V",
      "targetMethod": "android.telephony.TelephonyManager.getLine1Number()Ljava/lang/String;",
      "eventChain": [
        {
          "start": "eng.trickersticks.presidents.Registration.onCreate(Landroid/os/Bundle;)V",
          "target": "invokevirtual \u003c Application, Landroid/telephony/TelephonyManager, getLine1Number()Ljava/lang/String; \u003e@196",
          "type": "activity",
          "component": "eng.trickersticks.presidents.Registration"
        }
      ]
    },
    "1": {
      "startMethod": "eng.trickersticks.presidents.Registration.onCreate(Landroid/os/Bundle;)V",
      "targetMethod": "android.telephony.TelephonyManager.getDeviceId()Ljava/lang/String;",
      "eventChain": [
        {
          "start": "eng.trickersticks.presidents.Registration.onCreate(Landroid/os/Bundle;)V",
          "target": "invokevirtual \u003c Application, Landroid/telephony/TelephonyManager, getDeviceId()Ljava/lang/String; \u003e@186",
          "type": "activity",
          "component": "eng.trickersticks.presidents.Registration"
        }
      ]
    },
    "2": {
      "startMethod": "eng.trickersticks.presidents.GlowSticks.onCreate(Landroid/os/Bundle;)V",
      "targetMethod": "android.telephony.gsm.SmsManager.sendTextMessage(Ljava/lang/String;Ljava/lang/String;Ljava/lang/String;Landroid/app/PendingIntent;Landroid/app/PendingIntent;)V",
      "eventChain": [
        {
          "start": "eng.trickersticks.presidents.GlowSticks.onCreate(Landroid/os/Bundle;)V",
          "target": "PC@188",
          "type": "activity",
          "component": "eng.trickersticks.presidents.GlowSticks",
          "constraintsFile": "constraints2_0.py",
          "variables": {},
          "stringMap": {},
          "strings": {}
        },
        {
          "start": "eng.trickersticks.presidents.GlowSticks.onCreate(Landroid/os/Bundle;)V",
          "target": "invokevirtual \u003c Application, Landroid/telephony/gsm/SmsManager, sendTextMessage(Ljava/lang/String;Ljava/lang/String;Ljava/lang/String;Landroid/app/PendingIntent;Landroid/app/PendingIntent;)V \u003e@222",
          "type": "activity",
          "component": "eng.trickersticks.presidents.GlowSticks",
          "constraintsFile": "constraints2_1.py",
          "variables": {},
          "stringMap": {},
          "strings": {}
        }
      ]
    },
    "3": {
      "startMethod": "eng.trickersticks.presidents.GlowSticks.onCreate(Landroid/os/Bundle;)V",
      "targetMethod": "android.telephony.TelephonyManager.getLine1Number()Ljava/lang/String;",
      "eventChain": [
        {
          "start": "eng.trickersticks.presidents.GlowSticks.onCreate(Landroid/os/Bundle;)V",
          "target": "invokevirtual \u003c Application, Landroid/telephony/TelephonyManager, getLine1Number()Ljava/lang/String; \u003e@182",
          "type": "activity",
          "component": "eng.trickersticks.presidents.GlowSticks",
          "constraintsFile": "constraints3_0.py",
          "variables": {},
          "stringMap": {},
          "strings": {}
        }
      ]
    },
    "4": {
      "startMethod": "eng.trickersticks.presidents.GlowSticks.onCreate(Landroid/os/Bundle;)V",
      "targetMethod": "org.apache.http.client.HttpClient.execute(Lorg/apache/http/client/methods/HttpUriRequest;)Lorg/apache/http/HttpResponse;",
      "eventChain": [
        {
          "start": "eng.trickersticks.presidents.GlowSticks.onCreate(Landroid/os/Bundle;)V",
          "target": "invokeinterface \u003c Application, Lorg/apache/http/client/HttpClient, execute(Lorg/apache/http/client/methods/HttpUriRequest;)Lorg/apache/http/HttpResponse; \u003e@329",
          "type": "activity",
          "component": "eng.trickersticks.presidents.GlowSticks",
          "constraintsFile": "constraints4_0.py",
          "variables": {},
          "stringMap": {},
          "strings": {}
        }
      ]
    },
    "5": {
      "startMethod": "eng.trickersticks.presidents.GlowSticks.onCreate(Landroid/os/Bundle;)V",
      "targetMethod": "android.telephony.TelephonyManager.getDeviceId()Ljava/lang/String;",
      "eventChain": [
        {
          "start": "eng.trickersticks.presidents.GlowSticks.onCreate(Landroid/os/Bundle;)V",
          "target": "invokevirtual \u003c Application, Landroid/telephony/TelephonyManager, getDeviceId()Ljava/lang/String; \u003e@171",
          "type": "activity",
          "component": "eng.trickersticks.presidents.GlowSticks",
          "constraintsFile": "constraints5_0.py",
          "variables": {},
          "stringMap": {},
          "strings": {}
        }
      ]
    },
    "6": {
      "startMethod": "eng.trickersticks.presidents.Registration$2.onClick(Landroid/view/View;)V",
      "targetMethod": "org.apache.http.client.HttpClient.execute(Lorg/apache/http/client/methods/HttpUriRequest;)Lorg/apache/http/HttpResponse;",
      "eventChain": [
        {
          "start": "eng.trickersticks.presidents.Registration$2.onClick(Landroid/view/View;)V",
          "target": "invokeinterface \u003c Application, Lorg/apache/http/client/HttpClient, execute(Lorg/apache/http/client/methods/HttpUriRequest;)Lorg/apache/http/HttpResponse; \u003e@461",
          "type": "ui",
          "activities": [
            "eng.trickersticks.presidents.TrickerSticks"
          ],
          "listener": "eng.trickersticks.presidents.Registration$2",
          "listenerMethod": "onClick",
          "uiType": "onClick",
          "constraintsFile": "constraints6_0.py",
          "variables": {},
          "stringMap": {
            "7000": "name"
          },
          "strings": {}
        }
      ]
    }
  }
}