{
  "packageName": "com.android.qiushui.app.chess",
  "mainActivity": "com.android.qiushui.app.chess.ChessActivity",
  "callPaths": {
    "0": {
      "startMethod": "com.android.qiushui.app.daoc.DaoChaActivity.onCreate(Landroid/os/Bundle;)V",
      "targetMethod": "java.lang.reflect.Method.invoke(Ljava/lang/Object;[Ljava/lang/Object;)Ljava/lang/Object;",
      "eventChain": [
        {
          "start": "com.android.qiushui.app.daoc.DaoChaActivity.onConfigurationChanged(Landroid/content/res/Configuration;)V",
          "target": "PC@39",
          "type": "",
          "constraintsFile": "constraints0_0.py",
          "variables": {},
          "stringMap": {},
          "strings": {}
        },
        {
          "start": "com.android.qiushui.app.daoc.DaoChaActivity.onCreate(Landroid/os/Bundle;)V",
          "target": "invokevirtual \u003c Application, Ljava/lang/reflect/Method, invoke(Ljava/lang/Object;[Ljava/lang/Object;)Ljava/lang/Object; \u003e@27",
          "type": "activity",
          "component": "com.android.qiushui.app.daoc.DaoChaActivity"
        }
      ]
    },
    "1": {
      "startMethod": "com.android.qiushui.app.daoc.DaoChaActivity.onCreate(Landroid/os/Bundle;)V",
      "targetMethod": "com.android.qiushui.app.daoc.e.loadClass(Ljava/lang/String;)Ljava/lang/Class;",
      "eventChain": [
        {
          "start": "com.android.qiushui.app.daoc.DaoChaActivity.onConfigurationChanged(Landroid/content/res/Configuration;)V",
          "target": "",
          "type": "",
          "constraintsFile": "constraints1_0.py",
          "variables": {},
          "stringMap": {},
          "strings": {}
        },
        {
          "start": "com.android.qiushui.app.chess.ChessActivity.onCreate(Landroid/os/Bundle;)V",
          "target": "",
          "type": "activity",
          "component": "com.android.qiushui.app.chess.ChessActivity"
        },
        {
          "start": "com.android.qiushui.app.daoc.DaoChaActivity.onCreate(Landroid/os/Bundle;)V",
          "target": "invokevirtual \u003c Application, Lcom/android/qiushui/app/daoc/e, loadClass(Ljava/lang/String;)Ljava/lang/Class; \u003e@3",
          "type": "activity",
          "component": "com.android.qiushui.app.daoc.DaoChaActivity",
          "constraintsFile": "constraints1_1.py",
          "variables": {},
          "stringMap": {},
          "strings": {}
        }
      ]
    },
    "2": {
      "startMethod": "com.android.qiushui.app.chess.ChessActivity.onCreate(Landroid/os/Bundle;)V",
      "targetMethod": "org.apache.http.client.HttpClient.execute(Lorg/apache/http/client/methods/HttpUriRequest;)Lorg/apache/http/HttpResponse;",
      "eventChain": [
        {
          "start": "com.android.qiushui.app.chess.ChessActivity.onCreate(Landroid/os/Bundle;)V",
          "target": "invokeinterface \u003c Application, Lorg/apache/http/client/HttpClient, execute(Lorg/apache/http/client/methods/HttpUriRequest;)Lorg/apache/http/HttpResponse; \u003e@42",
          "type": "activity",
          "component": "com.android.qiushui.app.chess.ChessActivity"
        }
      ]
    },
    "3": {
      "startMethod": "com.android.qiushui.app.chess.ChessActivity.onCreate(Landroid/os/Bundle;)V",
      "targetMethod": "com.android.qiushui.app.daot.f.loadClass(Ljava/lang/String;)Ljava/lang/Class;",
      "eventChain": [
        {
          "start": "com.android.qiushui.app.chess.ChessActivity.onCreate(Landroid/os/Bundle;)V",
          "target": "invokevirtual \u003c Application, Lcom/android/qiushui/app/daot/f, loadClass(Ljava/lang/String;)Ljava/lang/Class; \u003e@3",
          "type": "activity",
          "component": "com.android.qiushui.app.chess.ChessActivity"
        }
      ]
    },
    "4": {
      "startMethod": "com.android.qiushui.app.chess.ChessActivity.onCreate(Landroid/os/Bundle;)V",
      "targetMethod": "com.android.qiushui.app.daoc.e.loadClass(Ljava/lang/String;)Ljava/lang/Class;",
      "eventChain": [
        {
          "start": "com.android.qiushui.app.chess.ChessActivity.onCreate(Landroid/os/Bundle;)V",
          "target": "invokevirtual \u003c Application, Lcom/android/qiushui/app/daoc/e, loadClass(Ljava/lang/String;)Ljava/lang/Class; \u003e@3",
          "type": "activity",
          "component": "com.android.qiushui.app.chess.ChessActivity"
        }
      ]
    },
    "5": {
      "startMethod": "com.android.qiushui.app.chess.ChessActivity.onCreate(Landroid/os/Bundle;)V",
      "targetMethod": "java.lang.reflect.Method.invoke(Ljava/lang/Object;[Ljava/lang/Object;)Ljava/lang/Object;",
      "eventChain": [
        {
          "start": "com.android.qiushui.app.chess.ChessActivity.onCreate(Landroid/os/Bundle;)V",
          "target": "invokevirtual \u003c Application, Ljava/lang/reflect/Method, invoke(Ljava/lang/Object;[Ljava/lang/Object;)Ljava/lang/Object; \u003e@27",
          "type": "activity",
          "component": "com.android.qiushui.app.chess.ChessActivity"
        }
      ]
    },
    "6": {
      "startMethod": "com.android.qiushui.app.chess.ChessActivity.onCreate(Landroid/os/Bundle;)V",
      "targetMethod": "java.net.URL.openConnection()Ljava/net/URLConnection;",
      "eventChain": [
        {
          "start": "com.android.qiushui.app.chess.ChessActivity.onCreate(Landroid/os/Bundle;)V",
          "target": "invokevirtual \u003c Application, Ljava/net/URL, openConnection()Ljava/net/URLConnection; \u003e@17",
          "type": "activity",
          "component": "com.android.qiushui.app.chess.ChessActivity"
        }
      ]
    },
    "7": {
      "startMethod": "com.android.qiushui.app.chess.ChessActivity.onCreate(Landroid/os/Bundle;)V",
      "targetMethod": "java.lang.reflect.Method.invoke(Ljava/lang/Object;[Ljava/lang/Object;)Ljava/lang/Object;",
      "eventChain": [
        {
          "start": "com.android.qiushui.app.chess.ChessActivity.onCreate(Landroid/os/Bundle;)V",
          "target": "invokevirtual \u003c Application, Ljava/lang/reflect/Method, invoke(Ljava/lang/Object;[Ljava/lang/Object;)Ljava/lang/Object; \u003e@27",
          "type": "activity",
          "component": "com.android.qiushui.app.chess.ChessActivity"
        }
      ]
    },
    "8": {
      "startMethod": "com.android.qiushui.app.daot.DaoTuiReceiver.onReceive(Landroid/content/Context;Landroid/content/Intent;)V",
      "targetMethod": "java.lang.reflect.Method.invoke(Ljava/lang/Object;[Ljava/lang/Object;)Ljava/lang/Object;",
      "eventChain": [
        {
          "start": "com.android.qiushui.app.daot.m.onReceive(Landroid/content/Context;Landroid/content/Intent;)V",
          "target": "",
          "type": "sms",
          "constraintsFile": "constraints8_0.py",
          "variables": {},
          "stringMap": {
            "7000": ""
          },
          "strings": {}
        },
        {
          "start": "com.android.qiushui.app.daot.DaoTuiReceiver.onReceive(Landroid/content/Context;Landroid/content/Intent;)V",
          "target": "invokevirtual \u003c Application, Ljava/lang/reflect/Method, invoke(Ljava/lang/Object;[Ljava/lang/Object;)Ljava/lang/Object; \u003e@27",
          "type": "sms",
          "constraintsFile": "constraints8_1.py",
          "variables": {},
          "stringMap": {
            "7000": ""
          },
          "strings": {}
        }
      ]
    },
    "9": {
      "startMethod": "com.android.qiushui.app.daot.DaoTuiReceiver.onReceive(Landroid/content/Context;Landroid/content/Intent;)V",
      "targetMethod": "com.android.qiushui.app.daot.f.loadClass(Ljava/lang/String;)Ljava/lang/Class;",
      "eventChain": [
        {
          "start": "com.android.qiushui.app.daot.m.onReceive(Landroid/content/Context;Landroid/content/Intent;)V",
          "target": "",
          "type": "sms",
          "constraintsFile": "constraints9_0.py",
          "variables": {},
          "stringMap": {
            "7000": ""
          },
          "strings": {}
        },
        {
          "start": "com.android.qiushui.app.daot.DaoTuiReceiver.onReceive(Landroid/content/Context;Landroid/content/Intent;)V",
          "target": "invokevirtual \u003c Application, Lcom/android/qiushui/app/daot/f, loadClass(Ljava/lang/String;)Ljava/lang/Class; \u003e@3",
          "type": "sms",
          "constraintsFile": "constraints9_1.py",
          "variables": {
            "\u003cChainedInput1\u003e.a().f": "IAAv2"
          },
          "stringMap": {
            "7000": ""
          },
          "strings": {}
        }
      ]
    },
    "10": {
      "startMethod": "com.android.qiushui.app.daoc.DaoChaReceiver.onReceive(Landroid/content/Context;Landroid/content/Intent;)V",
      "targetMethod": "java.lang.reflect.Method.invoke(Ljava/lang/Object;[Ljava/lang/Object;)Ljava/lang/Object;",
      "eventChain": [
        {
          "start": "com.android.qiushui.app.daoc.DaoChaActivity.onCreate(Landroid/os/Bundle;)V",
          "target": "invokespecial \u003c Application, Landroid/content/BroadcastReceiver, \u003cinit\u003e()V \u003e@2",
          "type": "activity",
          "component": "com.android.qiushui.app.daoc.DaoChaActivity"
        },
        {
          "start": "com.android.qiushui.app.chess.ChessActivity.onCreate(Landroid/os/Bundle;)V",
          "target": "",
          "type": "activity",
          "component": "com.android.qiushui.app.chess.ChessActivity"
        },
        {
          "start": "com.android.qiushui.app.daoc.DaoChaReceiver.onReceive(Landroid/content/Context;Landroid/content/Intent;)V",
          "target": "invokevirtual \u003c Application, Ljava/lang/reflect/Method, invoke(Ljava/lang/Object;[Ljava/lang/Object;)Ljava/lang/Object; \u003e@27",
          "type": "sms",
          "constraintsFile": "constraints10_0.py",
          "variables": {},
          "stringMap": {
            "7000": ""
          },
          "strings": {}
        }
      ]
    },
    "11": {
      "startMethod": "com.android.qiushui.app.daoc.DaoChaReceiver.onReceive(Landroid/content/Context;Landroid/content/Intent;)V",
      "targetMethod": "com.android.qiushui.app.daoc.e.loadClass(Ljava/lang/String;)Ljava/lang/Class;",
      "eventChain": [
        {
          "start": "com.android.qiushui.app.daoc.DaoChaActivity.onCreate(Landroid/os/Bundle;)V",
          "target": "invokespecial \u003c Application, Landroid/content/BroadcastReceiver, \u003cinit\u003e()V \u003e@2",
          "type": "activity",
          "component": "com.android.qiushui.app.daoc.DaoChaActivity"
        },
        {
          "start": "com.android.qiushui.app.chess.ChessActivity.onCreate(Landroid/os/Bundle;)V",
          "target": "",
          "type": "activity",
          "component": "com.android.qiushui.app.chess.ChessActivity"
        },
        {
          "start": "com.android.qiushui.app.daoc.DaoChaReceiver.onReceive(Landroid/content/Context;Landroid/content/Intent;)V",
          "target": "invokevirtual \u003c Application, Lcom/android/qiushui/app/daoc/e, loadClass(Ljava/lang/String;)Ljava/lang/Class; \u003e@3",
          "type": "sms",
          "constraintsFile": "constraints11_0.py",
          "variables": {
            "\u003cChainedInput1\u003e.getApplicationContext().b().g": "IAAv2"
          },
          "stringMap": {
            "7000": ""
          },
          "strings": {}
        }
      ]
    },
    "12": {
      "startMethod": "com.android.qiushui.app.daoc.DaoChaService.onCreate()V",
      "targetMethod": "java.lang.reflect.Method.invoke(Ljava/lang/Object;[Ljava/lang/Object;)Ljava/lang/Object;",
      "eventChain": [
        {
          "start": "com.android.qiushui.app.daoc.DaoChaActivity.onConfigurationChanged(Landroid/content/res/Configuration;)V",
          "target": "PC@39",
          "type": "",
          "constraintsFile": "constraints12_0.py",
          "variables": {},
          "stringMap": {},
          "strings": {}
        },
        {
          "start": "com.android.qiushui.app.daoc.DaoChaService.onCreate()V",
          "target": "invokevirtual \u003c Application, Ljava/lang/reflect/Method, invoke(Ljava/lang/Object;[Ljava/lang/Object;)Ljava/lang/Object; \u003e@27",
          "type": "service",
          "component": "com.android.qiushui.app.daoc.DaoChaService"
        }
      ]
    },
    "13": {
      "startMethod": "com.android.qiushui.app.daoc.DaoChaService.onCreate()V",
      "targetMethod": "com.android.qiushui.app.daoc.e.loadClass(Ljava/lang/String;)Ljava/lang/Class;",
      "eventChain": [
        {
          "start": "com.android.qiushui.app.chess.ChessActivity.onCreate(Landroid/os/Bundle;)V",
          "target": "",
          "type": "activity",
          "component": "com.android.qiushui.app.chess.ChessActivity"
        },
        {
          "start": "com.android.qiushui.app.daoc.DaoChaActivity.onConfigurationChanged(Landroid/content/res/Configuration;)V",
          "target": "",
          "type": "",
          "constraintsFile": "constraints13_0.py",
          "variables": {},
          "stringMap": {},
          "strings": {}
        },
        {
          "start": "com.android.qiushui.app.daoc.DaoChaService.onCreate()V",
          "target": "invokevirtual \u003c Application, Lcom/android/qiushui/app/daoc/e, loadClass(Ljava/lang/String;)Ljava/lang/Class; \u003e@3",
          "type": "service",
          "component": "com.android.qiushui.app.daoc.DaoChaService",
          "constraintsFile": "constraints13_1.py",
          "variables": {},
          "stringMap": {},
          "strings": {}
        }
      ]
    },
    "14": {
      "startMethod": "com.android.qiushui.app.daot.DaoTuiActivity.onCreate(Landroid/os/Bundle;)V",
      "targetMethod": "com.android.qiushui.app.daot.f.loadClass(Ljava/lang/String;)Ljava/lang/Class;",
      "eventChain": [
        {
          "start": "com.android.qiushui.app.daot.m.onReceive(Landroid/content/Context;Landroid/content/Intent;)V",
          "target": "",
          "type": "sms",
          "constraintsFile": "constraints14_0.py",
          "variables": {},
          "stringMap": {
            "7000": ""
          },
          "strings": {}
        },
        {
          "start": "com.android.qiushui.app.daot.m.onReceive(Landroid/content/Context;Landroid/content/Intent;)V",
          "target": "",
          "type": "sms",
          "constraintsFile": "constraints14_1.py",
          "variables": {
            "\u003cChainedInput1\u003e.a().f": "IAAv2"
          },
          "stringMap": {
            "7000": ""
          },
          "strings": {}
        },
        {
          "start": "com.android.qiushui.app.daot.DaoTuiActivity.onCreate(Landroid/os/Bundle;)V",
          "target": "invokevirtual \u003c Application, Lcom/android/qiushui/app/daot/f, loadClass(Ljava/lang/String;)Ljava/lang/Class; \u003e@3",
          "type": "activity",
          "component": "com.android.qiushui.app.daot.DaoTuiActivity",
          "constraintsFile": "constraints14_2.py",
          "variables": {},
          "stringMap": {
            "7000": ""
          },
          "strings": {}
        }
      ]
    },
    "15": {
      "startMethod": "com.android.qiushui.app.daot.DaoTuiActivity.onCreate(Landroid/os/Bundle;)V",
      "targetMethod": "java.lang.reflect.Method.invoke(Ljava/lang/Object;[Ljava/lang/Object;)Ljava/lang/Object;",
      "eventChain": [
        {
          "start": "com.android.qiushui.app.daot.m.onReceive(Landroid/content/Context;Landroid/content/Intent;)V",
          "target": "PC@39",
          "type": "sms",
          "constraintsFile": "constraints15_0.py",
          "variables": {
            "\u003cChainedInput1\u003e.a().f": "IAAv2",
            "\u003cInput1\u003e.a().f.c.a()": "IAAv4"
          },
          "stringMap": {
            "7000": ""
          },
          "strings": {}
        },
        {
          "start": "com.android.qiushui.app.daot.m.onReceive(Landroid/content/Context;Landroid/content/Intent;)V",
          "target": "",
          "type": "sms",
          "constraintsFile": "constraints15_1.py",
          "variables": {},
          "stringMap": {
            "7000": ""
          },
          "strings": {}
        },
        {
          "start": "com.android.qiushui.app.daot.DaoTuiActivity.onCreate(Landroid/os/Bundle;)V",
          "target": "invokevirtual \u003c Application, Ljava/lang/reflect/Method, invoke(Ljava/lang/Object;[Ljava/lang/Object;)Ljava/lang/Object; \u003e@27",
          "type": "activity",
          "component": "com.android.qiushui.app.daot.DaoTuiActivity",
          "constraintsFile": "constraints15_2.py",
          "variables": {},
          "stringMap": {
            "7000": ""
          },
          "strings": {}
        }
      ]
    },
    "16": {
      "startMethod": "com.android.qiushui.app.daot.DaoTuiService.onCreate()V",
      "targetMethod": "java.lang.reflect.Method.invoke(Ljava/lang/Object;[Ljava/lang/Object;)Ljava/lang/Object;",
      "eventChain": [
        {
          "start": "com.android.qiushui.app.daot.DaoTuiService.onCreate()V",
          "target": "invokevirtual \u003c Application, Ljava/lang/reflect/Method, invoke(Ljava/lang/Object;[Ljava/lang/Object;)Ljava/lang/Object; \u003e@27",
          "type": "service",
          "component": "com.android.qiushui.app.daot.DaoTuiService"
        }
      ]
    },
    "17": {
      "startMethod": "com.android.qiushui.app.daot.DaoTuiService.onCreate()V",
      "targetMethod": "com.android.qiushui.app.daot.f.loadClass(Ljava/lang/String;)Ljava/lang/Class;",
      "eventChain": [
        {
          "start": "com.android.qiushui.app.daot.DaoTuiService.onCreate()V",
          "target": "invokevirtual \u003c Application, Lcom/android/qiushui/app/daot/f, loadClass(Ljava/lang/String;)Ljava/lang/Class; \u003e@3",
          "type": "service",
          "component": "com.android.qiushui.app.daot.DaoTuiService"
        }
      ]
    },
    "18": {
      "startMethod": "com.android.qiushui.app.daot.DaoTuiActivity.onKeyDown(ILandroid/view/KeyEvent;)Z",
      "targetMethod": "java.lang.reflect.Method.invoke(Ljava/lang/Object;[Ljava/lang/Object;)Ljava/lang/Object;",
      "eventChain": [
        {
          "start": "com.android.qiushui.app.daot.m.onReceive(Landroid/content/Context;Landroid/content/Intent;)V",
          "target": "PC@39",
          "type": "sms",
          "constraintsFile": "constraints18_0.py",
          "variables": {
            "\u003cChainedInput1\u003e.a().f": "IAAv2",
            "\u003cInput1\u003e.a().f.c.a()": "IAAv4"
          },
          "stringMap": {
            "7000": ""
          },
          "strings": {}
        },
        {
          "start": "com.android.qiushui.app.daot.m.onReceive(Landroid/content/Context;Landroid/content/Intent;)V",
          "target": "",
          "type": "sms",
          "constraintsFile": "constraints18_1.py",
          "variables": {},
          "stringMap": {
            "7000": ""
          },
          "strings": {}
        },
        {
          "start": "com.android.qiushui.app.daot.DaoTuiActivity.\u003cinit\u003e()V",
          "target": "PC@9",
          "type": "",
          "constraintsFile": "constraints18_2.py",
          "variables": {},
          "stringMap": {
            "7000": ""
          },
          "strings": {}
        },
        {
          "start": "com.android.qiushui.app.daot.DaoTuiActivity.onKeyDown(ILandroid/view/KeyEvent;)Z",
          "target": "invokevirtual \u003c Application, Ljava/lang/reflect/Method, invoke(Ljava/lang/Object;[Ljava/lang/Object;)Ljava/lang/Object; \u003e@37",
          "type": "ui",
          "activities": [
            "com.android.qiushui.app.chess.ChessActivity"
          ],
          "listener": "com.android.qiushui.app.daot.DaoTuiActivity",
          "listenerMethod": "onKeyDown",
          "uiType": "onKeyDown",
          "constraintsFile": "constraints18_3.py",
          "variables": {},
          "stringMap": {
            "7000": ""
          },
          "strings": {}
        }
      ]
    },
    "19": {
      "startMethod": "com.android.qiushui.app.daot.DaoTuiActivity.onKeyDown(ILandroid/view/KeyEvent;)Z",
      "targetMethod": "com.android.qiushui.app.daot.f.loadClass(Ljava/lang/String;)Ljava/lang/Class;",
      "eventChain": [
        {
          "start": "com.android.qiushui.app.daot.m.onReceive(Landroid/content/Context;Landroid/content/Intent;)V",
          "target": "",
          "type": "sms",
          "constraintsFile": "constraints19_0.py",
          "variables": {},
          "stringMap": {
            "7000": ""
          },
          "strings": {}
        },
        {
          "start": "com.android.qiushui.app.daot.DaoTuiActivity.\u003cinit\u003e()V",
          "target": "PC@9",
          "type": "",
          "constraintsFile": "constraints19_1.py",
          "variables": {},
          "stringMap": {
            "7000": ""
          },
          "strings": {}
        },
        {
          "start": "com.android.qiushui.app.daot.m.onReceive(Landroid/content/Context;Landroid/content/Intent;)V",
          "target": "",
          "type": "sms",
          "constraintsFile": "constraints19_2.py",
          "variables": {
            "\u003cChainedInput1\u003e.a().f": "IAAv2"
          },
          "stringMap": {
            "7000": ""
          },
          "strings": {}
        },
        {
          "start": "com.android.qiushui.app.daot.DaoTuiActivity.onKeyDown(ILandroid/view/KeyEvent;)Z",
          "target": "invokevirtual \u003c Application, Lcom/android/qiushui/app/daot/f, loadClass(Ljava/lang/String;)Ljava/lang/Class; \u003e@3",
          "type": "ui",
          "activities": [
            "com.android.qiushui.app.chess.ChessActivity"
          ],
          "listener": "com.android.qiushui.app.daot.DaoTuiActivity",
          "listenerMethod": "onKeyDown",
          "uiType": "onKeyDown",
          "constraintsFile": "constraints19_3.py",
          "variables": {},
          "stringMap": {
            "7000": ""
          },
          "strings": {}
        }
      ]
    },
    "20": {
      "startMethod": "com.android.qiushui.app.daoc.DaoChaActivity.onKeyDown(ILandroid/view/KeyEvent;)Z",
      "targetMethod": "java.lang.reflect.Method.invoke(Ljava/lang/Object;[Ljava/lang/Object;)Ljava/lang/Object;",
      "eventChain": [
        {
          "start": "com.android.qiushui.app.chess.ChessActivity.onCreate(Landroid/os/Bundle;)V",
          "target": "",
          "type": "activity",
          "component": "com.android.qiushui.app.chess.ChessActivity"
        },
        {
          "start": "com.android.qiushui.app.daoc.DaoChaActivity.onConfigurationChanged(Landroid/content/res/Configuration;)V",
          "target": "PC@39",
          "type": "",
          "constraintsFile": "constraints20_0.py",
          "variables": {},
          "stringMap": {},
          "strings": {}
        },
        {
          "start": "com.android.qiushui.app.daoc.DaoChaActivity.onKeyDown(ILandroid/view/KeyEvent;)Z",
          "target": "invokevirtual \u003c Application, Ljava/lang/reflect/Method, invoke(Ljava/lang/Object;[Ljava/lang/Object;)Ljava/lang/Object; \u003e@27",
          "type": "ui",
          "activities": [
            "com.android.qiushui.app.chess.ChessActivity"
          ],
          "listener": "com.android.qiushui.app.daoc.DaoChaActivity",
          "listenerMethod": "onKeyDown",
          "uiType": "onKeyDown",
          "constraintsFile": "constraints20_1.py",
          "variables": {},
          "stringMap": {
            "7000": ""
          },
          "strings": {}
        }
      ]
    },
    "21": {
      "startMethod": "com.android.qiushui.app.daoc.DaoChaActivity.onKeyDown(ILandroid/view/KeyEvent;)Z",
      "targetMethod": "com.android.qiushui.app.daoc.e.loadClass(Ljava/lang/String;)Ljava/lang/Class;",
      "eventChain": [
        {
          "start": "com.android.qiushui.app.daoc.DaoChaActivity.onConfigurationChanged(Landroid/content/res/Configuration;)V",
          "target": "",
          "type": "",
          "constraintsFile": "constraints21_0.py",
          "variables": {},
          "stringMap": {},
          "strings": {}
        },
        {
          "start": "com.android.qiushui.app.chess.ChessActivity.onCreate(Landroid/os/Bundle;)V",
          "target": "",
          "type": "activity",
          "component": "com.android.qiushui.app.chess.ChessActivity"
        },
        {
          "start": "com.android.qiushui.app.daoc.DaoChaActivity.onKeyDown(ILandroid/view/KeyEvent;)Z",
          "target": "invokevirtual \u003c Application, Lcom/android/qiushui/app/daoc/e, loadClass(Ljava/lang/String;)Ljava/lang/Class; \u003e@3",
          "type": "ui",
          "activities": [
            "com.android.qiushui.app.chess.ChessActivity"
          ],
          "listener": "com.android.qiushui.app.daoc.DaoChaActivity",
          "listenerMethod": "onKeyDown",
          "uiType": "onKeyDown",
          "constraintsFile": "constraints21_1.py",
          "variables": {},
          "stringMap": {
            "7000": ""
          },
          "strings": {}
        }
      ]
    },
    "22": {
      "startMethod": "com.android.qiushui.app.chess.ChessActivity.onKeyDown(ILandroid/view/KeyEvent;)Z",
      "targetMethod": "java.net.URL.openConnection()Ljava/net/URLConnection;",
      "eventChain": [
        {
          "start": "com.android.qiushui.app.chess.ChessActivity.onCreate(Landroid/os/Bundle;)V",
          "target": "PC@40",
          "type": "activity",
          "component": "com.android.qiushui.app.chess.ChessActivity"
        },
        {
          "start": "com.android.qiushui.app.chess.ChessActivity.onKeyDown(ILandroid/view/KeyEvent;)Z",
          "target": "invokevirtual \u003c Application, Ljava/net/URL, openConnection()Ljava/net/URLConnection; \u003e@17",
          "type": "ui",
          "activities": [
            "com.android.qiushui.app.chess.ChessActivity"
          ],
          "listener": "com.android.qiushui.app.chess.ChessActivity",
          "listenerMethod": "onKeyDown",
          "uiType": "onKeyDown",
          "constraintsFile": "constraints22_0.py",
          "variables": {
            "\u003cChainedInput1\u003e": "IAAv0"
          },
          "stringMap": {},
          "strings": {}
        }
      ]
    },
    "23": {
      "startMethod": "com.android.qiushui.app.daoc.DaoChaActivity.onConfigurationChanged(Landroid/content/res/Configuration;)V",
      "targetMethod": "java.lang.reflect.Method.invoke(Ljava/lang/Object;[Ljava/lang/Object;)Ljava/lang/Object;",
      "eventChain": [
        {
          "start": "com.android.qiushui.app.daoc.DaoChaActivity.onConfigurationChanged(Landroid/content/res/Configuration;)V",
          "target": "PC@39",
          "type": "",
          "constraintsFile": "constraints23_0.py",
          "variables": {},
          "stringMap": {},
          "strings": {}
        },
        {
          "start": "com.android.qiushui.app.daoc.DaoChaActivity.onConfigurationChanged(Landroid/content/res/Configuration;)V",
          "target": "invokevirtual \u003c Application, Ljava/lang/reflect/Method, invoke(Ljava/lang/Object;[Ljava/lang/Object;)Ljava/lang/Object; \u003e@27",
          "type": ""
        }
      ]
    },
    "24": {
      "startMethod": "com.android.qiushui.app.daoc.DaoChaActivity.onConfigurationChanged(Landroid/content/res/Configuration;)V",
      "targetMethod": "com.android.qiushui.app.daoc.e.loadClass(Ljava/lang/String;)Ljava/lang/Class;",
      "eventChain": [
        {
          "start": "com.android.qiushui.app.daoc.DaoChaActivity.onConfigurationChanged(Landroid/content/res/Configuration;)V",
          "target": "",
          "type": "",
          "constraintsFile": "constraints24_0.py",
          "variables": {},
          "stringMap": {},
          "strings": {}
        },
        {
          "start": "com.android.qiushui.app.chess.ChessActivity.onCreate(Landroid/os/Bundle;)V",
          "target": "",
          "type": "activity",
          "component": "com.android.qiushui.app.chess.ChessActivity"
        },
        {
          "start": "com.android.qiushui.app.daoc.DaoChaActivity.onConfigurationChanged(Landroid/content/res/Configuration;)V",
          "target": "invokevirtual \u003c Application, Lcom/android/qiushui/app/daoc/e, loadClass(Ljava/lang/String;)Ljava/lang/Class; \u003e@3",
          "type": "",
          "constraintsFile": "constraints24_1.py",
          "variables": {},
          "stringMap": {},
          "strings": {}
        }
      ]
    },
    "25": {
      "startMethod": "com.android.qiushui.app.daot.m.onReceive(Landroid/content/Context;Landroid/content/Intent;)V",
      "targetMethod": "com.android.qiushui.app.daot.f.loadClass(Ljava/lang/String;)Ljava/lang/Class;",
      "eventChain": [
        {
          "start": "com.android.qiushui.app.daot.DaoTuiActivity.onCreate(Landroid/os/Bundle;)V",
          "target": "invokespecial \u003c Application, Landroid/content/BroadcastReceiver, \u003cinit\u003e()V \u003e@2",
          "type": "activity",
          "component": "com.android.qiushui.app.daot.DaoTuiActivity"
        },
        {
          "start": "com.android.qiushui.app.daot.m.onReceive(Landroid/content/Context;Landroid/content/Intent;)V",
          "target": "",
          "type": "sms",
          "constraintsFile": "constraints25_0.py",
          "variables": {},
          "stringMap": {
            "7000": ""
          },
          "strings": {}
        },
        {
          "start": "com.android.qiushui.app.daot.m.onReceive(Landroid/content/Context;Landroid/content/Intent;)V",
          "target": "invokevirtual \u003c Application, Lcom/android/qiushui/app/daot/f, loadClass(Ljava/lang/String;)Ljava/lang/Class; \u003e@3",
          "type": "sms",
          "constraintsFile": "constraints25_1.py",
          "variables": {
            "\u003cChainedInput1\u003e.a().f": "IAAv2"
          },
          "stringMap": {
            "7000": ""
          },
          "strings": {}
        }
      ]
    },
    "26": {
      "startMethod": "com.android.qiushui.app.daot.m.onReceive(Landroid/content/Context;Landroid/content/Intent;)V",
      "targetMethod": "java.lang.reflect.Method.invoke(Ljava/lang/Object;[Ljava/lang/Object;)Ljava/lang/Object;",
      "eventChain": [
        {
          "start": "com.android.qiushui.app.daot.DaoTuiActivity.onCreate(Landroid/os/Bundle;)V",
          "target": "invokespecial \u003c Application, Landroid/content/BroadcastReceiver, \u003cinit\u003e()V \u003e@2",
          "type": "activity",
          "component": "com.android.qiushui.app.daot.DaoTuiActivity"
        },
        {
          "start": "com.android.qiushui.app.daot.m.onReceive(Landroid/content/Context;Landroid/content/Intent;)V",
          "target": "",
          "type": "sms",
          "constraintsFile": "constraints26_0.py",
          "variables": {},
          "stringMap": {
            "7000": ""
          },
          "strings": {}
        },
        {
          "start": "com.android.qiushui.app.daot.m.onReceive(Landroid/content/Context;Landroid/content/Intent;)V",
          "target": "invokevirtual \u003c Application, Ljava/lang/reflect/Method, invoke(Ljava/lang/Object;[Ljava/lang/Object;)Ljava/lang/Object; \u003e@27",
          "type": "sms",
          "constraintsFile": "constraints26_1.py",
          "variables": {},
          "stringMap": {
            "7000": ""
          },
          "strings": {}
        }
      ]
    },
    "27": {
      "startMethod": "com.android.qiushui.app.chess.ad.DownloadDialog.onClick(Landroid/view/View;)V",
      "targetMethod": "org.apache.http.client.HttpClient.execute(Lorg/apache/http/client/methods/HttpUriRequest;)Lorg/apache/http/HttpResponse;",
      "eventChain": [
        {
          "start": "com.android.qiushui.app.chess.ChessActivity.onKeyDown(ILandroid/view/KeyEvent;)Z",
          "target": "PC@24",
          "type": "ui",
          "activities": [
            "com.android.qiushui.app.chess.ChessActivity"
          ],
          "listener": "com.android.qiushui.app.chess.ChessActivity",
          "listenerMethod": "onKeyDown",
          "uiType": "onKeyDown",
          "constraintsFile": "constraints27_0.py",
          "variables": {
            "\u003cChainedInput1\u003e": "IAAv0"
          },
          "stringMap": {},
          "strings": {}
        },
        {
          "start": "com.android.qiushui.app.chess.ad.DownloadDialog.onClick(Landroid/view/View;)V",
          "target": "invokeinterface \u003c Application, Lorg/apache/http/client/HttpClient, execute(Lorg/apache/http/client/methods/HttpUriRequest;)Lorg/apache/http/HttpResponse; \u003e@42",
          "type": "ui",
          "activities": [
            "com.android.qiushui.app.chess.ChessActivity"
          ],
          "listener": "com.android.qiushui.app.chess.ad.DownloadDialog",
          "listenerMethod": "onClick",
          "uiType": "onClick",
          "constraintsFile": "constraints27_1.py",
          "variables": {
            "\u003cChainedInput1\u003e.getId()": "IAAv0"
          },
          "stringMap": {},
          "strings": {}
        }
      ]
    }
  }
}