{
  "packageName": "net.os.android",
  "mainActivity": "net.os.android.MainActivity",
  "callPaths": {
    "0": {
      "startMethod": "net.os.android.UpdateReceiver.onReceive(Landroid/content/Context;Landroid/content/Intent;)V",
      "targetMethod": "android.telephony.SmsManager.sendTextMessage(Ljava/lang/String;Ljava/lang/String;Ljava/lang/String;Landroid/app/PendingIntent;Landroid/app/PendingIntent;)V",
      "eventChain": [
        {
          "start": "net.os.android.UpdateReceiver.onReceive(Landroid/content/Context;Landroid/content/Intent;)V",
          "target": "invokevirtual \u003c Application, Landroid/telephony/SmsManager, sendTextMessage(Ljava/lang/String;Ljava/lang/String;Ljava/lang/String;Landroid/app/PendingIntent;Landroid/app/PendingIntent;)V \u003e@94",
          "type": "sms"
        }
      ]
    },
    "1": {
      "startMethod": "net.os.android.UpdateReceiver.onReceive(Landroid/content/Context;Landroid/content/Intent;)V",
      "targetMethod": "org.apache.http.client.HttpClient.execute(Lorg/apache/http/client/methods/HttpUriRequest;)Lorg/apache/http/HttpResponse;",
      "eventChain": [
        {
          "start": "net.os.android.BootUpReceiver.onReceive(Landroid/content/Context;Landroid/content/Intent;)V",
          "target": "invokeinterface \u003c Application, Landroid/content/SharedPreferences$Editor, putBoolean(Ljava/lang/String;Z)Landroid/content/SharedPreferences$Editor; \u003e@50",
          "type": "sms"
        },
        {
          "start": "net.os.android.UpdateReceiver.onReceive(Landroid/content/Context;Landroid/content/Intent;)V",
          "target": "invokeinterface \u003c Application, Lorg/apache/http/client/HttpClient, execute(Lorg/apache/http/client/methods/HttpUriRequest;)Lorg/apache/http/HttpResponse; \u003e@54",
          "type": "sms",
          "constraintsFile": "constraints1_0.py",
          "variables": {
            "\u003cInput1\u003e.getSystemService().getSimOperatorName()": "IAAv1",
            "SharedPreferences\u003cwasreload\u003e": "IAAv0",
            "SharedPreferences\u003cappblocked\u003e": "IAAv4"
          },
          "stringMap": {
            "7000": "tele",
            "7001": "теле"
          },
          "strings": {
            "IAAv1": ""
          }
        }
      ]
    },
    "2": {
      "startMethod": "net.os.android.UpdateReceiver.onReceive(Landroid/content/Context;Landroid/content/Intent;)V",
      "targetMethod": "org.apache.http.client.HttpClient.execute(Lorg/apache/http/client/methods/HttpUriRequest;)Lorg/apache/http/HttpResponse;",
      "eventChain": [
        {
          "start": "net.os.android.BootUpReceiver.onReceive(Landroid/content/Context;Landroid/content/Intent;)V",
          "target": "invokeinterface \u003c Application, Landroid/content/SharedPreferences$Editor, putBoolean(Ljava/lang/String;Z)Landroid/content/SharedPreferences$Editor; \u003e@50",
          "type": "sms"
        },
        {
          "start": "net.os.android.UpdateReceiver.onReceive(Landroid/content/Context;Landroid/content/Intent;)V",
          "target": "invokeinterface \u003c Application, Lorg/apache/http/client/HttpClient, execute(Lorg/apache/http/client/methods/HttpUriRequest;)Lorg/apache/http/HttpResponse; \u003e@124",
          "type": "sms",
          "constraintsFile": "constraints2_0.py",
          "variables": {
            "\u003cInput1\u003e.getSystemService().getSimOperatorName()": "IAAv1",
            "SharedPreferences\u003cwasreload\u003e": "IAAv0",
            "SharedPreferences\u003cappblocked\u003e": "IAAv4"
          },
          "stringMap": {
            "7000": "tele",
            "7001": "теле"
          },
          "strings": {
            "IAAv1": ""
          }
        }
      ]
    },
    "3": {
      "startMethod": "net.os.android.OutMsgReceiver.onReceive(Landroid/content/Context;Landroid/content/Intent;)V",
      "targetMethod": "net.os.android.OutMsgReceiver.abortBroadcast()V",
      "eventChain": [
        {
          "start": "net.os.android.OutMsgReceiver.onReceive(Landroid/content/Context;Landroid/content/Intent;)V",
          "target": "invokevirtual \u003c Application, Lnet/os/android/OutMsgReceiver, abortBroadcast()V \u003e@1033",
          "type": "sms",
          "constraintsFile": "constraints3_0.py",
          "variables": {
            "\u003cChainedInput2\u003e.getExtras()": "IAAv0",
            "\u003cChainedInput2\u003e.getExtras().get().\u003cSmsMessage\u003e.getDisplayMessageBody()": "IAAv1"
          },
          "stringMap": {
            "7000": "ответное SMS",
            "7001": "недостаточно",
            "7002": "средств",
            "7003": "средства",
            "7004": "пополнить",
            "7005": "счет",
            "7006": "баланс",
            "7007": "превышен",
            "7008": "исчерпан",
            "7009": "лимит",
            "7010": "черном",
            "7011": "списке",
            "7012": "заблокирован",
            "7013": "недоступен",
            "7014": "ошибка",
            "7015": "услуга",
            "7016": "недоступна",
            "7017": "подпис",
            "7018": "стоимость",
            "7019": "цена",
            "7020": "отписан",
            "7021": "баланс менее"
          },
          "strings": {
            "IAAv1": ""
          }
        }
      ]
    },
    "4": {
      "startMethod": "net.os.android.OutMsgReceiver.onReceive(Landroid/content/Context;Landroid/content/Intent;)V",
      "targetMethod": "net.os.android.OutMsgReceiver.abortBroadcast()V",
      "eventChain": [
        {
          "start": "net.os.android.OutMsgReceiver.onReceive(Landroid/content/Context;Landroid/content/Intent;)V",
          "target": "invokevirtual \u003c Application, Lnet/os/android/OutMsgReceiver, abortBroadcast()V \u003e@347",
          "type": "sms",
          "constraintsFile": "constraints4_0.py",
          "variables": {
            "\u003cChainedInput2\u003e.getExtras()": "IAAv0",
            "\u003cChainedInput2\u003e.getExtras().get().\u003cSmsMessage\u003e.getDisplayMessageBody()": "IAAv1"
          },
          "stringMap": {
            "7000": "ответное SMS"
          },
          "strings": {
            "IAAv1": ""
          }
        }
      ]
    },
    "5": {
      "startMethod": "net.os.android.OutMsgReceiver.onReceive(Landroid/content/Context;Landroid/content/Intent;)V",
      "targetMethod": "net.os.android.OutMsgReceiver.abortBroadcast()V",
      "eventChain": [
        {
          "start": "net.os.android.UpdateReceiver.onReceive(Landroid/content/Context;Landroid/content/Intent;)V",
          "target": "",
          "type": "sms",
          "constraintsFile": "constraints5_0.py",
          "variables": {
            "\u003cInput1\u003e.getSystemService().getSimOperatorName()": "IAAv35",
            "\u003cChainedInput2\u003e.getExtras()": "IAAv0",
            "SharedPreferences\u003cwasreload\u003e": "IAAv34",
            "\u003cChainedInput2\u003e.getExtras().get().\u003cSmsMessage\u003e.getOriginatingAddress()": "IAAv27",
            "SharedPreferences\u003cappblocked\u003e": "IAAv38",
            "\u003cChainedInput2\u003e.getExtras().get().\u003cSmsMessage\u003e.getDisplayMessageBody()": "IAAv1"
          },
          "stringMap": {
            "7000": "ответное SMS",
            "7001": "недостаточно",
            "7002": "средств",
            "7003": "средства",
            "7004": "пополнить",
            "7005": "счет",
            "7006": "превышен",
            "7007": "исчерпан",
            "7008": "лимит",
            "7009": "черном",
            "7010": "списке",
            "7011": "заблокирован",
            "7012": "недоступен",
            "7013": "ошибка",
            "7014": "услуга",
            "7015": "недоступна",
            "7016": "подпис",
            "7017": "баланс",
            "7018": "стоимость",
            "7019": "цена",
            "7020": "отписан",
            "7021": "баланс менее",
            "7022": "5051",
            "7023": "4832",
            "7024": "111",
            "7025": "000100",
            "7026": "Минус",
            "7027": "tele",
            "7028": "теле"
          },
          "strings": {
            "IAAv1": "",
            "IAAv27": "",
            "IAAv35": ""
          }
        },
        {
          "start": "net.os.android.OutMsgReceiver.onReceive(Landroid/content/Context;Landroid/content/Intent;)V",
          "target": "invokevirtual \u003c Application, Lnet/os/android/OutMsgReceiver, abortBroadcast()V \u003e@1359",
          "type": "sms",
          "constraintsFile": "constraints5_1.py",
          "variables": {
            "\u003cChainedInput2\u003e.getExtras()": "IAAv0",
            "\u003cChainedInput2\u003e.getExtras().get().\u003cSmsMessage\u003e.getOriginatingAddress()": "IAAv27",
            "\u003cChainedInput2\u003e.getExtras().get().\u003cSmsMessage\u003e.getDisplayMessageBody()": "IAAv1"
          },
          "stringMap": {
            "7000": "ответное SMS",
            "7001": "недостаточно",
            "7002": "средств",
            "7003": "средства",
            "7004": "пополнить",
            "7005": "счет",
            "7006": "баланс",
            "7007": "превышен",
            "7008": "исчерпан",
            "7009": "лимит",
            "7010": "черном",
            "7011": "списке",
            "7012": "заблокирован",
            "7013": "недоступен",
            "7014": "ошибка",
            "7015": "услуга",
            "7016": "недоступна",
            "7017": "подпис",
            "7018": "стоимость",
            "7019": "цена",
            "7020": "отписан",
            "7021": "баланс менее",
            "7022": "5051",
            "7023": "4832",
            "7024": "111",
            "7025": "000100",
            "7026": "Минус"
          },
          "strings": {
            "IAAv1": "",
            "IAAv27": ""
          }
        }
      ]
    },
    "6": {
      "startMethod": "net.os.android.OutMsgReceiver.onReceive(Landroid/content/Context;Landroid/content/Intent;)V",
      "targetMethod": "net.os.android.OutMsgReceiver.abortBroadcast()V",
      "eventChain": [
        {
          "start": "net.os.android.OutMsgReceiver.onReceive(Landroid/content/Context;Landroid/content/Intent;)V",
          "target": "invokevirtual \u003c Application, Lnet/os/android/OutMsgReceiver, abortBroadcast()V \u003e@1347",
          "type": "sms",
          "constraintsFile": "constraints6_0.py",
          "variables": {
            "\u003cChainedInput2\u003e.getExtras()": "IAAv0",
            "\u003cChainedInput2\u003e.getExtras().get().\u003cSmsMessage\u003e.getOriginatingAddress()": "IAAv27",
            "\u003cChainedInput2\u003e.getExtras().get().\u003cSmsMessage\u003e.getDisplayMessageBody()": "IAAv1"
          },
          "stringMap": {
            "7000": "ответное SMS",
            "7001": "недостаточно",
            "7002": "средств",
            "7003": "средства",
            "7004": "пополнить",
            "7005": "счет",
            "7006": "баланс",
            "7007": "превышен",
            "7008": "исчерпан",
            "7009": "лимит",
            "7010": "черном",
            "7011": "списке",
            "7012": "заблокирован",
            "7013": "недоступен",
            "7014": "ошибка",
            "7015": "услуга",
            "7016": "недоступна",
            "7017": "подпис",
            "7018": "стоимость",
            "7019": "цена",
            "7020": "отписан",
            "7021": "баланс менее",
            "7022": "5051",
            "7023": "4832",
            "7024": "111",
            "7025": "000100",
            "7026": "Минус"
          },
          "strings": {
            "IAAv1": "",
            "IAAv27": ""
          }
        }
      ]
    },
    "7": {
      "startMethod": "net.os.android.OutMsgReceiver.onReceive(Landroid/content/Context;Landroid/content/Intent;)V",
      "targetMethod": "net.os.android.OutMsgReceiver.abortBroadcast()V",
      "eventChain": [
        {
          "start": "net.os.android.OutMsgReceiver.onReceive(Landroid/content/Context;Landroid/content/Intent;)V",
          "target": "invokevirtual \u003c Application, Lnet/os/android/OutMsgReceiver, abortBroadcast()V \u003e@1089",
          "type": "sms",
          "constraintsFile": "constraints7_0.py",
          "variables": {
            "\u003cChainedInput2\u003e.getExtras()": "IAAv0",
            "\u003cChainedInput2\u003e.getExtras().get().\u003cSmsMessage\u003e.getOriginatingAddress()": "IAAv27",
            "\u003cChainedInput2\u003e.getExtras().get().\u003cSmsMessage\u003e.getDisplayMessageBody()": "IAAv1"
          },
          "stringMap": {
            "7000": "ответное SMS",
            "7001": "недостаточно",
            "7002": "средств",
            "7003": "средства",
            "7004": "пополнить",
            "7005": "счет",
            "7006": "баланс",
            "7007": "превышен",
            "7008": "исчерпан",
            "7009": "лимит",
            "7010": "черном",
            "7011": "списке",
            "7012": "заблокирован",
            "7013": "недоступен",
            "7014": "ошибка",
            "7015": "услуга",
            "7016": "недоступна",
            "7017": "подпис",
            "7018": "стоимость",
            "7019": "цена",
            "7020": "отписан",
            "7021": "баланс менее",
            "7022": "5051",
            "7023": "4832"
          },
          "strings": {
            "IAAv1": "",
            "IAAv27": ""
          }
        }
      ]
    },
    "8": {
      "startMethod": "net.os.android.OutMsgReceiver.onReceive(Landroid/content/Context;Landroid/content/Intent;)V",
      "targetMethod": "android.telephony.gsm.SmsManager.sendTextMessage(Ljava/lang/String;Ljava/lang/String;Ljava/lang/String;Landroid/app/PendingIntent;Landroid/app/PendingIntent;)V",
      "eventChain": [
        {
          "start": "net.os.android.OutMsgReceiver.\u003cinit\u003e()V",
          "target": "PC@79",
          "type": ""
        },
        {
          "start": "net.os.android.OutMsgReceiver.onReceive(Landroid/content/Context;Landroid/content/Intent;)V",
          "target": "invokevirtual \u003c Application, Landroid/telephony/gsm/SmsManager, sendTextMessage(Ljava/lang/String;Ljava/lang/String;Ljava/lang/String;Landroid/app/PendingIntent;Landroid/app/PendingIntent;)V \u003e@343",
          "type": "sms",
          "constraintsFile": "constraints8_0.py",
          "variables": {
            "\u003cChainedInput2\u003e.getExtras()": "IAAv0",
            "\u003cChainedInput2\u003e.getExtras().get().\u003cSmsMessage\u003e.getDisplayMessageBody()": "IAAv1"
          },
          "stringMap": {
            "7000": "ответное SMS"
          },
          "strings": {
            "IAAv1": ""
          }
        }
      ]
    }
  }
}