{
  "packageName": "com.ts.gxdq",
  "mainActivity": "com.ts.ysdw.mainActivity",
  "callPaths": {
    "0": {
      "startMethod": "com.baidu.mobads.AppActivity.onStop()V",
      "targetMethod": "java.lang.reflect.Method.invoke(Ljava/lang/Object;[Ljava/lang/Object;)Ljava/lang/Object;",
      "eventChain": [
        {
          "start": "com.baidu.mobads.AppActivity.onStop()V",
          "target": "invokevirtual \u003c Application, Ljava/lang/reflect/Method, invoke(Ljava/lang/Object;[Ljava/lang/Object;)Ljava/lang/Object; \u003e@115",
          "type": "activity",
          "component": "com.baidu.mobads.AppActivity"
        }
      ]
    },
    "1": {
      "startMethod": "com.baidu.mobads.AppActivity.onStop()V",
      "targetMethod": "java.lang.reflect.Method.invoke(Ljava/lang/Object;[Ljava/lang/Object;)Ljava/lang/Object;",
      "eventChain": [
        {
          "start": "com.baidu.mobads.AppActivity.onStop()V",
          "target": "invokevirtual \u003c Application, Ljava/lang/reflect/Method, invoke(Ljava/lang/Object;[Ljava/lang/Object;)Ljava/lang/Object; \u003e@100",
          "type": "activity",
          "component": "com.baidu.mobads.AppActivity"
        }
      ]
    },
    "2": {
      "startMethod": "com.ts.ysdw.mainActivity.onPause()V",
      "targetMethod": "org.apache.http.client.HttpClient.execute(Lorg/apache/http/client/methods/HttpUriRequest;)Lorg/apache/http/HttpResponse;",
      "eventChain": [
        {
          "start": "com.ts.ysdw.mainActivity.onPause()V",
          "target": "invokeinterface \u003c Application, Landroid/content/SharedPreferences$Editor, putString(Ljava/lang/String;Ljava/lang/String;)Landroid/content/SharedPreferences$Editor; \u003e@352",
          "type": "activity",
          "component": "com.ts.ysdw.mainActivity",
          "constraintsFile": "constraints2_0.py",
          "variables": {
            "SharedPreferences\u003cactivities\u003e": "IAAv7",
            "SharedPreferences\u003cstart_millis\u003e": "IAAv5"
          },
          "stringMap": {
            "7000": ""
          },
          "strings": {
            "IAAv7": ""
          }
        },
        {
          "start": "com.ts.ysdw.mainActivity.onPause()V",
          "target": "invokeinterface \u003c Application, Landroid/content/SharedPreferences$Editor, putString(Ljava/lang/String;Ljava/lang/String;)Landroid/content/SharedPreferences$Editor; \u003e@57",
          "type": "activity",
          "component": "com.ts.ysdw.mainActivity",
          "constraintsFile": "constraints2_1.py",
          "variables": {},
          "stringMap": {},
          "strings": {}
        },
        {
          "start": "com.ts.ysdw.mainActivity.onPause()V",
          "target": "invokeinterface \u003c Application, Landroid/content/SharedPreferences$Editor, putLong(Ljava/lang/String;J)Landroid/content/SharedPreferences$Editor; \u003e@405",
          "type": "activity",
          "component": "com.ts.ysdw.mainActivity",
          "constraintsFile": "constraints2_2.py",
          "variables": {
            "SharedPreferences\u003cactivities\u003e": "IAAv7",
            "SharedPreferences\u003cstart_millis\u003e": "IAAv5"
          },
          "stringMap": {
            "7000": ""
          },
          "strings": {
            "IAAv7": ""
          }
        },
        {
          "start": "com.ts.ysdw.mainActivity.onCreate(Landroid/os/Bundle;)V",
          "target": "",
          "type": "activity",
          "component": "com.ts.ysdw.mainActivity"
        },
        {
          "start": "com.ts.ysdw.mainActivity.\u003cinit\u003e()V",
          "target": "PC@74",
          "type": "",
          "constraintsFile": "constraints2_3.py",
          "variables": {
            "SharedPreferences\u003csession_id\u003e": "IAAv2",
            "SharedPreferences\u003cduration\u003e.valueOf().longValue()": "IAAv3",
            "SharedPreferences\u003cactivities\u003e": "IAAv5"
          },
          "stringMap": {
            "7000": "",
            "7001": "update"
          },
          "strings": {
            "IAAv2": "",
            "IAAv10": "",
            "IAAv5": ""
          }
        },
        {
          "start": "com.ts.ysdw.mainActivity.onPause()V",
          "target": "PC@23",
          "type": "activity",
          "component": "com.ts.ysdw.mainActivity",
          "constraintsFile": "constraints2_4.py",
          "variables": {
            "SharedPreferences\u003csession_id\u003e": "IAAv3",
            "SharedPreferences\u003cactivities\u003e": "IAAv6",
            "SharedPreferences\u003cduration\u003e.valueOf().longValue()": "IAAv4"
          },
          "stringMap": {
            "7000": ""
          },
          "strings": {
            "IAAv3": "",
            "IAAv6": ""
          }
        },
        {
          "start": "com.ts.ysdw.mainActivity.onPause()V",
          "target": "PC@12",
          "type": "activity",
          "component": "com.ts.ysdw.mainActivity",
          "constraintsFile": "constraints2_5.py",
          "variables": {},
          "stringMap": {},
          "strings": {}
        },
        {
          "start": "com.ts.ysdw.mainActivity.onPause()V",
          "target": "invokeinterface \u003c Application, Lorg/apache/http/client/HttpClient, execute(Lorg/apache/http/client/methods/HttpUriRequest;)Lorg/apache/http/HttpResponse; \u003e@289",
          "type": "activity",
          "component": "com.ts.ysdw.mainActivity",
          "constraintsFile": "constraints2_6.py",
          "variables": {
            "SharedPreferences\u003csession_id\u003e": "IAAv3",
            "SharedPreferences\u003cduration\u003e.valueOf().longValue()": "IAAv4",
            "SharedPreferences\u003cactivities\u003e": "IAAv6"
          },
          "stringMap": {
            "7000": "",
            "7001": "update"
          },
          "strings": {
            "IAAv3": "",
            "IAAv11": "",
            "IAAv6": ""
          }
        }
      ]
    },
    "3": {
      "startMethod": "com.baidu.mobads.AppActivity.onResume()V",
      "targetMethod": "java.lang.reflect.Method.invoke(Ljava/lang/Object;[Ljava/lang/Object;)Ljava/lang/Object;",
      "eventChain": [
        {
          "start": "com.baidu.mobads.AppActivity.onResume()V",
          "target": "invokevirtual \u003c Application, Ljava/lang/reflect/Method, invoke(Ljava/lang/Object;[Ljava/lang/Object;)Ljava/lang/Object; \u003e@115",
          "type": "activity",
          "component": "com.baidu.mobads.AppActivity"
        }
      ]
    },
    "4": {
      "startMethod": "com.baidu.mobads.AppActivity.onResume()V",
      "targetMethod": "java.lang.reflect.Method.invoke(Ljava/lang/Object;[Ljava/lang/Object;)Ljava/lang/Object;",
      "eventChain": [
        {
          "start": "com.baidu.mobads.AppActivity.onResume()V",
          "target": "invokevirtual \u003c Application, Ljava/lang/reflect/Method, invoke(Ljava/lang/Object;[Ljava/lang/Object;)Ljava/lang/Object; \u003e@100",
          "type": "activity",
          "component": "com.baidu.mobads.AppActivity"
        }
      ]
    },
    "5": {
      "startMethod": "com.jinbi.MyOffer.onResume()V",
      "targetMethod": "org.apache.http.client.HttpClient.execute(Lorg/apache/http/client/methods/HttpUriRequest;)Lorg/apache/http/HttpResponse;",
      "eventChain": [
        {
          "start": "com.jinbi.MyOffer.onResume()V",
          "target": "invokeinterface \u003c Application, Lorg/apache/http/client/HttpClient, execute(Lorg/apache/http/client/methods/HttpUriRequest;)Lorg/apache/http/HttpResponse; \u003e@231",
          "type": "activity",
          "component": "com.jinbi.MyOffer"
        }
      ]
    },
    "6": {
      "startMethod": "com.jinbi.MyOffer.onResume()V",
      "targetMethod": "org.apache.http.impl.client.DefaultHttpClient.execute(Lorg/apache/http/client/methods/HttpUriRequest;)Lorg/apache/http/HttpResponse;",
      "eventChain": [
        {
          "start": "com.jinbi.MyOffer.onResume()V",
          "target": "invokevirtual \u003c Application, Lorg/apache/http/impl/client/DefaultHttpClient, execute(Lorg/apache/http/client/methods/HttpUriRequest;)Lorg/apache/http/HttpResponse; \u003e@167",
          "type": "activity",
          "component": "com.jinbi.MyOffer"
        }
      ]
    },
    "7": {
      "startMethod": "com.baidu.mobads.AppActivity.onDestroy()V",
      "targetMethod": "java.lang.reflect.Method.invoke(Ljava/lang/Object;[Ljava/lang/Object;)Ljava/lang/Object;",
      "eventChain": [
        {
          "start": "com.baidu.mobads.AppActivity.onDestroy()V",
          "target": "invokevirtual \u003c Application, Ljava/lang/reflect/Method, invoke(Ljava/lang/Object;[Ljava/lang/Object;)Ljava/lang/Object; \u003e@100",
          "type": "activity",
          "component": "com.baidu.mobads.AppActivity"
        }
      ]
    },
    "8": {
      "startMethod": "com.baidu.mobads.AppActivity.onDestroy()V",
      "targetMethod": "java.lang.reflect.Method.invoke(Ljava/lang/Object;[Ljava/lang/Object;)Ljava/lang/Object;",
      "eventChain": [
        {
          "start": "com.baidu.mobads.AppActivity.onDestroy()V",
          "target": "invokevirtual \u003c Application, Ljava/lang/reflect/Method, invoke(Ljava/lang/Object;[Ljava/lang/Object;)Ljava/lang/Object; \u003e@115",
          "type": "activity",
          "component": "com.baidu.mobads.AppActivity"
        }
      ]
    },
    "9": {
      "startMethod": "com.baidu.mobads.AppActivity.onStart()V",
      "targetMethod": "java.lang.reflect.Method.invoke(Ljava/lang/Object;[Ljava/lang/Object;)Ljava/lang/Object;",
      "eventChain": [
        {
          "start": "com.baidu.mobads.AppActivity.onStart()V",
          "target": "invokevirtual \u003c Application, Ljava/lang/reflect/Method, invoke(Ljava/lang/Object;[Ljava/lang/Object;)Ljava/lang/Object; \u003e@115",
          "type": "activity",
          "component": "com.baidu.mobads.AppActivity"
        }
      ]
    },
    "10": {
      "startMethod": "com.baidu.mobads.AppActivity.onStart()V",
      "targetMethod": "java.lang.reflect.Method.invoke(Ljava/lang/Object;[Ljava/lang/Object;)Ljava/lang/Object;",
      "eventChain": [
        {
          "start": "com.baidu.mobads.AppActivity.onStart()V",
          "target": "invokevirtual \u003c Application, Ljava/lang/reflect/Method, invoke(Ljava/lang/Object;[Ljava/lang/Object;)Ljava/lang/Object; \u003e@100",
          "type": "activity",
          "component": "com.baidu.mobads.AppActivity"
        }
      ]
    },
    "11": {
      "startMethod": "com.jinbi.MyOffer.onCreate(Landroid/os/Bundle;)V",
      "targetMethod": "org.apache.http.impl.client.DefaultHttpClient.execute(Lorg/apache/http/client/methods/HttpUriRequest;)Lorg/apache/http/HttpResponse;",
      "eventChain": [
        {
          "start": "com.jinbi.MyOffer.onResume()V",
          "target": "invokeinterface \u003c Application, Landroid/content/SharedPreferences$Editor, putString(Ljava/lang/String;Ljava/lang/String;)Landroid/content/SharedPreferences$Editor; \u003e@1301",
          "type": "activity",
          "component": "com.jinbi.MyOffer"
        },
        {
          "start": "com.jinbi.MyOffer.onResume()V",
          "target": "PC@17",
          "type": "activity",
          "component": "com.jinbi.MyOffer"
        },
        {
          "start": "com.jinbi.MyOffer.onCreate(Landroid/os/Bundle;)V",
          "target": "invokevirtual \u003c Application, Lorg/apache/http/impl/client/DefaultHttpClient, execute(Lorg/apache/http/client/methods/HttpUriRequest;)Lorg/apache/http/HttpResponse; \u003e@167",
          "type": "activity",
          "component": "com.jinbi.MyOffer",
          "constraintsFile": "constraints11_0.py",
          "variables": {
            "\u003cUI\u003e.setOnClickListener().q": "IAAv0",
            "SharedPreferences\u003cdownload_filename\u003e": "IAAv7"
          },
          "stringMap": {
            "7000": ""
          },
          "strings": {
            "IAAv2": "",
            "IAAv7": ""
          }
        }
      ]
    },
    "12": {
      "startMethod": "com.jinbi.MyOffer.onCreate(Landroid/os/Bundle;)V",
      "targetMethod": "org.apache.http.client.HttpClient.execute(Lorg/apache/http/client/methods/HttpUriRequest;)Lorg/apache/http/HttpResponse;",
      "eventChain": [
        {
          "start": "com.jinbi.MyOffer.onCreate(Landroid/os/Bundle;)V",
          "target": "invokeinterface \u003c Application, Lorg/apache/http/client/HttpClient, execute(Lorg/apache/http/client/methods/HttpUriRequest;)Lorg/apache/http/HttpResponse; \u003e@231",
          "type": "activity",
          "component": "com.jinbi.MyOffer",
          "constraintsFile": "constraints12_0.py",
          "variables": {
            "\u003cUI\u003e.setOnClickListener().q": "IAAv0"
          },
          "stringMap": {
            "7000": "",
            "7001": "ctwap"
          },
          "strings": {
            "IAAv2": "",
            "IAAv9": "",
            "IAAv5": ""
          }
        }
      ]
    },
    "13": {
      "startMethod": "com.feedback.ui.FeedbackConversations.onCreate(Landroid/os/Bundle;)V",
      "targetMethod": "org.apache.http.client.HttpClient.execute(Lorg/apache/http/client/methods/HttpUriRequest;)Lorg/apache/http/HttpResponse;",
      "eventChain": [
        {
          "start": "com.feedback.ui.FeedbackConversations.onCreate(Landroid/os/Bundle;)V",
          "target": "invokeinterface \u003c Application, Lorg/apache/http/client/HttpClient, execute(Lorg/apache/http/client/methods/HttpUriRequest;)Lorg/apache/http/HttpResponse; \u003e@165",
          "type": "activity",
          "component": "com.feedback.ui.FeedbackConversations",
          "constraintsFile": "constraints13_0.py",
          "variables": {
            "SharedPreferences\u003cmaxReplyID\u003e": "IAAv1"
          },
          "stringMap": {
            "7000": "\u003cUI\u003e",
            "7001": "RP0"
          },
          "strings": {
            "IAAv1": ""
          }
        }
      ]
    },
    "14": {
      "startMethod": "com.ts.ysdw.playerServer.onCreate()V",
      "targetMethod": "java.net.URL.openConnection()Ljava/net/URLConnection;",
      "eventChain": [
        {
          "start": "com.ts.ysdw.playerServer.onCreate()V",
          "target": "invokevirtual \u003c Application, Ljava/net/URL, openConnection()Ljava/net/URLConnection; \u003e@68",
          "type": "service",
          "component": "com.ts.ysdw.playerServer",
          "constraintsFile": "constraints14_0.py",
          "variables": {},
          "stringMap": {},
          "strings": {}
        }
      ]
    },
    "15": {
      "startMethod": "com.ts.ysdw.playerServer.onCreate()V",
      "targetMethod": "java.net.URL.openConnection(Ljava/net/Proxy;)Ljava/net/URLConnection;",
      "eventChain": [
        {
          "start": "com.ts.ysdw.playerServer.onCreate()V",
          "target": "invokevirtual \u003c Application, Ljava/net/URL, openConnection(Ljava/net/Proxy;)Ljava/net/URLConnection; \u003e@22",
          "type": "service",
          "component": "com.ts.ysdw.playerServer",
          "constraintsFile": "constraints15_0.py",
          "variables": {},
          "stringMap": {},
          "strings": {}
        }
      ]
    },
    "16": {
      "startMethod": "com.ts.ysdw.playerServer.onCreate()V",
      "targetMethod": "org.apache.http.client.HttpClient.execute(Lorg/apache/http/client/methods/HttpUriRequest;)Lorg/apache/http/HttpResponse;",
      "eventChain": [
        {
          "start": "com.ts.ysdw.playerServer.onCreate()V",
          "target": "invokeinterface \u003c Application, Lorg/apache/http/client/HttpClient, execute(Lorg/apache/http/client/methods/HttpUriRequest;)Lorg/apache/http/HttpResponse; \u003e@110",
          "type": "service",
          "component": "com.ts.ysdw.playerServer",
          "constraintsFile": "constraints16_0.py",
          "variables": {},
          "stringMap": {},
          "strings": {}
        }
      ]
    },
    "17": {
      "startMethod": "com.ts.ysdw.playerServer.onCreate()V",
      "targetMethod": "org.apache.http.client.HttpClient.execute(Lorg/apache/http/client/methods/HttpUriRequest;)Lorg/apache/http/HttpResponse;",
      "eventChain": [
        {
          "start": "com.ts.ysdw.playerServer.onCreate()V",
          "target": "invokeinterface \u003c Application, Lorg/apache/http/client/HttpClient, execute(Lorg/apache/http/client/methods/HttpUriRequest;)Lorg/apache/http/HttpResponse; \u003e@165",
          "type": "service",
          "component": "com.ts.ysdw.playerServer",
          "constraintsFile": "constraints17_0.py",
          "variables": {},
          "stringMap": {},
          "strings": {}
        }
      ]
    },
    "18": {
      "startMethod": "com.baidu.mobads.AppActivity.onRestart()V",
      "targetMethod": "java.lang.reflect.Method.invoke(Ljava/lang/Object;[Ljava/lang/Object;)Ljava/lang/Object;",
      "eventChain": [
        {
          "start": "com.baidu.mobads.AppActivity.onRestart()V",
          "target": "invokevirtual \u003c Application, Ljava/lang/reflect/Method, invoke(Ljava/lang/Object;[Ljava/lang/Object;)Ljava/lang/Object; \u003e@115",
          "type": "activity",
          "component": "com.baidu.mobads.AppActivity"
        }
      ]
    },
    "19": {
      "startMethod": "com.baidu.mobads.AppActivity.onRestart()V",
      "targetMethod": "java.lang.reflect.Method.invoke(Ljava/lang/Object;[Ljava/lang/Object;)Ljava/lang/Object;",
      "eventChain": [
        {
          "start": "com.baidu.mobads.AppActivity.onRestart()V",
          "target": "invokevirtual \u003c Application, Ljava/lang/reflect/Method, invoke(Ljava/lang/Object;[Ljava/lang/Object;)Ljava/lang/Object; \u003e@100",
          "type": "activity",
          "component": "com.baidu.mobads.AppActivity"
        }
      ]
    },
    "20": {
      "startMethod": "com.baidu.mobads.AppActivity.onPause()V",
      "targetMethod": "java.lang.reflect.Method.invoke(Ljava/lang/Object;[Ljava/lang/Object;)Ljava/lang/Object;",
      "eventChain": [
        {
          "start": "com.baidu.mobads.AppActivity.onPause()V",
          "target": "invokevirtual \u003c Application, Ljava/lang/reflect/Method, invoke(Ljava/lang/Object;[Ljava/lang/Object;)Ljava/lang/Object; \u003e@115",
          "type": "activity",
          "component": "com.baidu.mobads.AppActivity"
        }
      ]
    },
    "21": {
      "startMethod": "com.baidu.mobads.AppActivity.onPause()V",
      "targetMethod": "java.lang.reflect.Method.invoke(Ljava/lang/Object;[Ljava/lang/Object;)Ljava/lang/Object;",
      "eventChain": [
        {
          "start": "com.baidu.mobads.AppActivity.onPause()V",
          "target": "invokevirtual \u003c Application, Ljava/lang/reflect/Method, invoke(Ljava/lang/Object;[Ljava/lang/Object;)Ljava/lang/Object; \u003e@100",
          "type": "activity",
          "component": "com.baidu.mobads.AppActivity"
        }
      ]
    },
    "22": {
      "startMethod": "com.baidu.mobads.AppActivity.onCreate(Landroid/os/Bundle;)V",
      "targetMethod": "java.lang.ClassLoader.loadClass(Ljava/lang/String;)Ljava/lang/Class;",
      "eventChain": [
        {
          "start": "com.baidu.mobads.AppActivity.onCreate(Landroid/os/Bundle;)V",
          "target": "invokevirtual \u003c Application, Ljava/lang/ClassLoader, loadClass(Ljava/lang/String;)Ljava/lang/Class; \u003e@8",
          "type": "activity",
          "component": "com.baidu.mobads.AppActivity"
        }
      ]
    },
    "23": {
      "startMethod": "com.baidu.mobads.AppActivity.onCreate(Landroid/os/Bundle;)V",
      "targetMethod": "java.net.URL.openConnection()Ljava/net/URLConnection;",
      "eventChain": [
        {
          "start": "com.baidu.mobads.AppActivity.onCreate(Landroid/os/Bundle;)V",
          "target": "invokevirtual \u003c Application, Ljava/net/URL, openConnection()Ljava/net/URLConnection; \u003e@113",
          "type": "activity",
          "component": "com.baidu.mobads.AppActivity"
        }
      ]
    },
    "24": {
      "startMethod": "com.baidu.mobads.AppActivity.onCreate(Landroid/os/Bundle;)V",
      "targetMethod": "java.lang.reflect.Method.invoke(Ljava/lang/Object;[Ljava/lang/Object;)Ljava/lang/Object;",
      "eventChain": [
        {
          "start": "com.baidu.mobads.AppActivity.onCreate(Landroid/os/Bundle;)V",
          "target": "invokevirtual \u003c Application, Ljava/lang/reflect/Method, invoke(Ljava/lang/Object;[Ljava/lang/Object;)Ljava/lang/Object; \u003e@100",
          "type": "activity",
          "component": "com.baidu.mobads.AppActivity",
          "constraintsFile": "constraints24_0.py",
          "variables": {
            "\u003cInput1\u003e": "IAAv0"
          },
          "stringMap": {},
          "strings": {}
        }
      ]
    },
    "25": {
      "startMethod": "com.baidu.mobads.AppActivity.onCreate(Landroid/os/Bundle;)V",
      "targetMethod": "java.net.URL.openConnection(Ljava/net/Proxy;)Ljava/net/URLConnection;",
      "eventChain": [
        {
          "start": "com.baidu.mobads.AppActivity.onCreate(Landroid/os/Bundle;)V",
          "target": "invokevirtual \u003c Application, Ljava/net/URL, openConnection(Ljava/net/Proxy;)Ljava/net/URLConnection; \u003e@321",
          "type": "activity",
          "component": "com.baidu.mobads.AppActivity"
        }
      ]
    },
    "26": {
      "startMethod": "com.baidu.mobads.AppActivity.onCreate(Landroid/os/Bundle;)V",
      "targetMethod": "java.net.URL.openConnection(Ljava/net/Proxy;)Ljava/net/URLConnection;",
      "eventChain": [
        {
          "start": "com.baidu.mobads.AppActivity.onCreate(Landroid/os/Bundle;)V",
          "target": "invokevirtual \u003c Application, Ljava/net/URL, openConnection(Ljava/net/Proxy;)Ljava/net/URLConnection; \u003e@272",
          "type": "activity",
          "component": "com.baidu.mobads.AppActivity"
        }
      ]
    },
    "27": {
      "startMethod": "com.baidu.mobads.AppActivity.onCreate(Landroid/os/Bundle;)V",
      "targetMethod": "java.net.URL.openConnection()Ljava/net/URLConnection;",
      "eventChain": [
        {
          "start": "com.baidu.mobads.AppActivity.onCreate(Landroid/os/Bundle;)V",
          "target": "invokevirtual \u003c Application, Ljava/net/URL, openConnection()Ljava/net/URLConnection; \u003e@355",
          "type": "activity",
          "component": "com.baidu.mobads.AppActivity"
        }
      ]
    },
    "28": {
      "startMethod": "com.baidu.mobads.AppActivity.onCreate(Landroid/os/Bundle;)V",
      "targetMethod": "java.net.URL.openConnection()Ljava/net/URLConnection;",
      "eventChain": [
        {
          "start": "com.baidu.mobads.AppActivity.onCreate(Landroid/os/Bundle;)V",
          "target": "invokevirtual \u003c Application, Ljava/net/URL, openConnection()Ljava/net/URLConnection; \u003e@43",
          "type": "activity",
          "component": "com.baidu.mobads.AppActivity"
        }
      ]
    },
    "29": {
      "startMethod": "com.baidu.mobads.AppActivity.onCreate(Landroid/os/Bundle;)V",
      "targetMethod": "java.lang.reflect.Method.invoke(Ljava/lang/Object;[Ljava/lang/Object;)Ljava/lang/Object;",
      "eventChain": [
        {
          "start": "com.baidu.mobads.AppActivity.onCreate(Landroid/os/Bundle;)V",
          "target": "invokevirtual \u003c Application, Ljava/lang/reflect/Method, invoke(Ljava/lang/Object;[Ljava/lang/Object;)Ljava/lang/Object; \u003e@115",
          "type": "activity",
          "component": "com.baidu.mobads.AppActivity",
          "constraintsFile": "constraints29_0.py",
          "variables": {
            "\u003cInput1\u003e": "IAAv0"
          },
          "stringMap": {},
          "strings": {}
        }
      ]
    },
    "30": {
      "startMethod": "com.baidu.mobads.AppActivity.onCreate(Landroid/os/Bundle;)V",
      "targetMethod": "java.net.URL.openConnection()Ljava/net/URLConnection;",
      "eventChain": [
        {
          "start": "com.baidu.mobads.AppActivity.onCreate(Landroid/os/Bundle;)V",
          "target": "invokevirtual \u003c Application, Ljava/net/URL, openConnection()Ljava/net/URLConnection; \u003e@91",
          "type": "activity",
          "component": "com.baidu.mobads.AppActivity"
        }
      ]
    },
    "31": {
      "startMethod": "com.baidu.mobads.AppActivity.onCreate(Landroid/os/Bundle;)V",
      "targetMethod": "java.net.URL.openConnection()Ljava/net/URLConnection;",
      "eventChain": [
        {
          "start": "com.baidu.mobads.AppActivity.onCreate(Landroid/os/Bundle;)V",
          "target": "invokevirtual \u003c Application, Ljava/net/URL, openConnection()Ljava/net/URLConnection; \u003e@338",
          "type": "activity",
          "component": "com.baidu.mobads.AppActivity"
        }
      ]
    },
    "32": {
      "startMethod": "com.ijinshan.duba.push.AdPushReceiver.onReceive(Landroid/content/Context;Landroid/content/Intent;)V",
      "targetMethod": "org.apache.http.client.HttpClient.execute(Lorg/apache/http/client/methods/HttpUriRequest;)Lorg/apache/http/HttpResponse;",
      "eventChain": [
        {
          "start": "com.ijinshan.duba.push.AdPushReceiver.onReceive(Landroid/content/Context;Landroid/content/Intent;)V",
          "target": "PC@16",
          "type": "sms",
          "constraintsFile": "constraints32_0.py",
          "variables": {
            "\u003cChainedInput2\u003e": "IAAv0",
            "\u003cChainedInput2\u003e.getAction()": "IAAv1"
          },
          "stringMap": {
            "7000": "android.intent.action.BOOT_COMPLETED",
            "7001": "android.intent.action.PACKAGE_INSTALL",
            "7002": "android.intent.action.PACKAGE_ADDED"
          },
          "strings": {
            "IAAv1": ""
          }
        },
        {
          "start": "com.ijinshan.duba.push.AdPushReceiver.onReceive(Landroid/content/Context;Landroid/content/Intent;)V",
          "target": "invokeinterface \u003c Application, Lorg/apache/http/client/HttpClient, execute(Lorg/apache/http/client/methods/HttpUriRequest;)Lorg/apache/http/HttpResponse; \u003e@110",
          "type": "sms",
          "constraintsFile": "constraints32_1.py",
          "variables": {
            "\u003cChainedInput2\u003e": "IAAv0",
            "\u003cChainedInput2\u003e.getAction()": "IAAv1"
          },
          "stringMap": {
            "7000": "android.intent.action.BOOT_COMPLETED",
            "7001": "android.intent.action.PACKAGE_INSTALL",
            "7002": "android.intent.action.PACKAGE_ADDED"
          },
          "strings": {
            "IAAv1": ""
          }
        }
      ]
    },
    "33": {
      "startMethod": "com.ts.ysdw.mainActivity.onCreate(Landroid/os/Bundle;)V",
      "targetMethod": "org.apache.http.client.HttpClient.execute(Lorg/apache/http/client/methods/HttpUriRequest;)Lorg/apache/http/HttpResponse;",
      "eventChain": [
        {
          "start": "com.ts.ysdw.mainActivity.onPause()V",
          "target": "invokeinterface \u003c Application, Landroid/content/SharedPreferences$Editor, putString(Ljava/lang/String;Ljava/lang/String;)Landroid/content/SharedPreferences$Editor; \u003e@352",
          "type": "activity",
          "component": "com.ts.ysdw.mainActivity",
          "constraintsFile": "constraints33_0.py",
          "variables": {
            "SharedPreferences\u003cactivities\u003e": "IAAv7",
            "SharedPreferences\u003cstart_millis\u003e": "IAAv5"
          },
          "stringMap": {
            "7000": ""
          },
          "strings": {
            "IAAv7": ""
          }
        },
        {
          "start": "com.ts.ysdw.mainActivity.onPause()V",
          "target": "invokeinterface \u003c Application, Landroid/content/SharedPreferences$Editor, putString(Ljava/lang/String;Ljava/lang/String;)Landroid/content/SharedPreferences$Editor; \u003e@57",
          "type": "activity",
          "component": "com.ts.ysdw.mainActivity",
          "constraintsFile": "constraints33_1.py",
          "variables": {},
          "stringMap": {},
          "strings": {}
        },
        {
          "start": "com.ts.ysdw.mainActivity.onPause()V",
          "target": "invokeinterface \u003c Application, Landroid/content/SharedPreferences$Editor, putLong(Ljava/lang/String;J)Landroid/content/SharedPreferences$Editor; \u003e@405",
          "type": "activity",
          "component": "com.ts.ysdw.mainActivity",
          "constraintsFile": "constraints33_2.py",
          "variables": {
            "SharedPreferences\u003cactivities\u003e": "IAAv7",
            "SharedPreferences\u003cstart_millis\u003e": "IAAv5"
          },
          "stringMap": {
            "7000": ""
          },
          "strings": {
            "IAAv7": ""
          }
        },
        {
          "start": "com.ts.ysdw.mainActivity.onCreate(Landroid/os/Bundle;)V",
          "target": "",
          "type": "activity",
          "component": "com.ts.ysdw.mainActivity"
        },
        {
          "start": "com.ts.ysdw.mainActivity.onPause()V",
          "target": "PC@23",
          "type": "activity",
          "component": "com.ts.ysdw.mainActivity",
          "constraintsFile": "constraints33_3.py",
          "variables": {
            "SharedPreferences\u003csession_id\u003e": "IAAv3",
            "SharedPreferences\u003cactivities\u003e": "IAAv6",
            "SharedPreferences\u003cduration\u003e.valueOf().longValue()": "IAAv4"
          },
          "stringMap": {
            "7000": ""
          },
          "strings": {
            "IAAv3": "",
            "IAAv6": ""
          }
        },
        {
          "start": "com.ts.ysdw.mainActivity.onPause()V",
          "target": "PC@12",
          "type": "activity",
          "component": "com.ts.ysdw.mainActivity",
          "constraintsFile": "constraints33_4.py",
          "variables": {},
          "stringMap": {},
          "strings": {}
        },
        {
          "start": "com.ts.ysdw.mainActivity.onCreate(Landroid/os/Bundle;)V",
          "target": "invokeinterface \u003c Application, Lorg/apache/http/client/HttpClient, execute(Lorg/apache/http/client/methods/HttpUriRequest;)Lorg/apache/http/HttpResponse; \u003e@289",
          "type": "activity",
          "component": "com.ts.ysdw.mainActivity",
          "constraintsFile": "constraints33_5.py",
          "variables": {
            "SharedPreferences\u003csession_id\u003e": "IAAv2",
            "SharedPreferences\u003cactivities\u003e": "IAAv5",
            "SharedPreferences\u003cduration\u003e.valueOf().longValue()": "IAAv3"
          },
          "stringMap": {
            "7000": "",
            "7001": "update"
          },
          "strings": {
            "IAAv2": "",
            "IAAv10": "",
            "IAAv5": ""
          }
        }
      ]
    },
    "34": {
      "startMethod": "com.ts.ysdw.mainActivity.onCreate(Landroid/os/Bundle;)V",
      "targetMethod": "org.apache.http.client.HttpClient.execute(Lorg/apache/http/client/methods/HttpUriRequest;)Lorg/apache/http/HttpResponse;",
      "eventChain": [
        {
          "start": "com.ts.ysdw.mainActivity.onCreate(Landroid/os/Bundle;)V",
          "target": "invokeinterface \u003c Application, Lorg/apache/http/client/HttpClient, execute(Lorg/apache/http/client/methods/HttpUriRequest;)Lorg/apache/http/HttpResponse; \u003e@165",
          "type": "activity",
          "component": "com.ts.ysdw.mainActivity",
          "constraintsFile": "constraints34_0.py",
          "variables": {
            "SharedPreferences\u003cmaxReplyID\u003e": "IAAv0"
          },
          "stringMap": {
            "7000": "RP0"
          },
          "strings": {
            "IAAv0": ""
          }
        }
      ]
    },
    "35": {
      "startMethod": "com.ts.ysdw.mainActivity.onCreate(Landroid/os/Bundle;)V",
      "targetMethod": "org.apache.http.client.HttpClient.execute(Lorg/apache/http/client/methods/HttpUriRequest;)Lorg/apache/http/HttpResponse;",
      "eventChain": [
        {
          "start": "com.ts.ysdw.mainActivity.onDestroy()V",
          "target": "PC@116",
          "type": "activity",
          "component": "com.ts.ysdw.mainActivity",
          "constraintsFile": "constraints35_0.py",
          "variables": {
            "(System.currentTimeMillis() - \u003cSystemPrevTime\u003e).abs()": "IAAv2"
          },
          "stringMap": {},
          "strings": {
            "IAAv20": ""
          }
        },
        {
          "start": "com.ts.ysdw.mainActivity.onCreate(Landroid/os/Bundle;)V",
          "target": "PC@179",
          "type": "activity",
          "component": "com.ts.ysdw.mainActivity",
          "constraintsFile": "constraints35_1.py",
          "variables": {
            "(System.currentTimeMillis() - \u003cSystemPrevTime\u003e).abs()": "IAAv2"
          },
          "stringMap": {},
          "strings": {}
        },
        {
          "start": "com.ts.ysdw.mainActivity.onDestroy()V",
          "target": "PC@24",
          "type": "activity",
          "component": "com.ts.ysdw.mainActivity",
          "constraintsFile": "constraints35_2.py",
          "variables": {
            "(System.currentTimeMillis() - \u003cSystemPrevTime\u003e).abs()": "IAAv2"
          },
          "stringMap": {},
          "strings": {
            "IAAv20": ""
          }
        },
        {
          "start": "com.ts.ysdw.mainActivity.onCreate(Landroid/os/Bundle;)V",
          "target": "invokeinterface \u003c Application, Lorg/apache/http/client/HttpClient, execute(Lorg/apache/http/client/methods/HttpUriRequest;)Lorg/apache/http/HttpResponse; \u003e@1035",
          "type": "activity",
          "component": "com.ts.ysdw.mainActivity",
          "constraintsFile": "constraints35_3.py",
          "variables": {
            "(System.currentTimeMillis() - \u003cSystemPrevTime\u003e).abs()": "IAAv2"
          },
          "stringMap": {},
          "strings": {
            "IAAv20": ""
          }
        }
      ]
    },
    "36": {
      "startMethod": "com.ts.ysdw.mainActivity.onCreate(Landroid/os/Bundle;)V",
      "targetMethod": "org.apache.http.client.HttpClient.execute(Lorg/apache/http/client/methods/HttpUriRequest;)Lorg/apache/http/HttpResponse;",
      "eventChain": [
        {
          "start": "com.ts.ysdw.mainActivity.onDestroy()V",
          "target": "PC@116",
          "type": "activity",
          "component": "com.ts.ysdw.mainActivity",
          "constraintsFile": "constraints36_0.py",
          "variables": {
            "(System.currentTimeMillis() - \u003cSystemPrevTime\u003e).abs()": "IAAv2"
          },
          "stringMap": {},
          "strings": {
            "IAAv20": ""
          }
        },
        {
          "start": "com.ts.ysdw.mainActivity.onCreate(Landroid/os/Bundle;)V",
          "target": "PC@179",
          "type": "activity",
          "component": "com.ts.ysdw.mainActivity",
          "constraintsFile": "constraints36_1.py",
          "variables": {
            "(System.currentTimeMillis() - \u003cSystemPrevTime\u003e).abs()": "IAAv2"
          },
          "stringMap": {},
          "strings": {}
        },
        {
          "start": "com.ts.ysdw.mainActivity.onDestroy()V",
          "target": "PC@24",
          "type": "activity",
          "component": "com.ts.ysdw.mainActivity",
          "constraintsFile": "constraints36_2.py",
          "variables": {
            "(System.currentTimeMillis() - \u003cSystemPrevTime\u003e).abs()": "IAAv2"
          },
          "stringMap": {},
          "strings": {
            "IAAv20": ""
          }
        },
        {
          "start": "com.ts.ysdw.mainActivity.onCreate(Landroid/os/Bundle;)V",
          "target": "invokeinterface \u003c Application, Lorg/apache/http/client/HttpClient, execute(Lorg/apache/http/client/methods/HttpUriRequest;)Lorg/apache/http/HttpResponse; \u003e@779",
          "type": "activity",
          "component": "com.ts.ysdw.mainActivity",
          "constraintsFile": "constraints36_3.py",
          "variables": {
            "(System.currentTimeMillis() - \u003cSystemPrevTime\u003e).abs()": "IAAv2"
          },
          "stringMap": {},
          "strings": {
            "IAAv20": ""
          }
        }
      ]
    },
    "37": {
      "startMethod": "com.ts.ysdw.mainActivity.onResume()V",
      "targetMethod": "org.apache.http.client.HttpClient.execute(Lorg/apache/http/client/methods/HttpUriRequest;)Lorg/apache/http/HttpResponse;",
      "eventChain": [
        {
          "start": "com.ts.ysdw.mainActivity.onPause()V",
          "target": "invokeinterface \u003c Application, Landroid/content/SharedPreferences$Editor, putString(Ljava/lang/String;Ljava/lang/String;)Landroid/content/SharedPreferences$Editor; \u003e@352",
          "type": "activity",
          "component": "com.ts.ysdw.mainActivity",
          "constraintsFile": "constraints37_0.py",
          "variables": {
            "SharedPreferences\u003cactivities\u003e": "IAAv7",
            "SharedPreferences\u003cstart_millis\u003e": "IAAv5"
          },
          "stringMap": {
            "7000": ""
          },
          "strings": {
            "IAAv7": ""
          }
        },
        {
          "start": "com.ts.ysdw.mainActivity.onPause()V",
          "target": "invokeinterface \u003c Application, Landroid/content/SharedPreferences$Editor, putString(Ljava/lang/String;Ljava/lang/String;)Landroid/content/SharedPreferences$Editor; \u003e@57",
          "type": "activity",
          "component": "com.ts.ysdw.mainActivity",
          "constraintsFile": "constraints37_1.py",
          "variables": {},
          "stringMap": {},
          "strings": {}
        },
        {
          "start": "com.ts.ysdw.mainActivity.onPause()V",
          "target": "invokeinterface \u003c Application, Landroid/content/SharedPreferences$Editor, putLong(Ljava/lang/String;J)Landroid/content/SharedPreferences$Editor; \u003e@405",
          "type": "activity",
          "component": "com.ts.ysdw.mainActivity",
          "constraintsFile": "constraints37_2.py",
          "variables": {
            "SharedPreferences\u003cactivities\u003e": "IAAv7",
            "SharedPreferences\u003cstart_millis\u003e": "IAAv5"
          },
          "stringMap": {
            "7000": ""
          },
          "strings": {
            "IAAv7": ""
          }
        },
        {
          "start": "com.ts.ysdw.mainActivity.\u003cinit\u003e()V",
          "target": "PC@258",
          "type": "",
          "constraintsFile": "constraints37_3.py",
          "variables": {
            "SharedPreferences\u003csession_id\u003e": "IAAv3",
            "SharedPreferences\u003cduration\u003e.valueOf().longValue()": "IAAv4",
            "SharedPreferences\u003cactivities\u003e": "IAAv6"
          },
          "stringMap": {
            "7000": "",
            "7001": "update"
          },
          "strings": {
            "IAAv3": "",
            "IAAv11": "",
            "IAAv6": ""
          }
        },
        {
          "start": "com.ts.ysdw.mainActivity.onCreate(Landroid/os/Bundle;)V",
          "target": "",
          "type": "activity",
          "component": "com.ts.ysdw.mainActivity"
        },
        {
          "start": "com.ts.ysdw.mainActivity.\u003cinit\u003e()V",
          "target": "PC@74",
          "type": "",
          "constraintsFile": "constraints37_4.py",
          "variables": {
            "SharedPreferences\u003csession_id\u003e": "IAAv3",
            "SharedPreferences\u003cduration\u003e.valueOf().longValue()": "IAAv4",
            "SharedPreferences\u003cactivities\u003e": "IAAv6"
          },
          "stringMap": {
            "7000": "",
            "7001": "update"
          },
          "strings": {
            "IAAv3": "",
            "IAAv11": "",
            "IAAv6": ""
          }
        },
        {
          "start": "com.ts.ysdw.mainActivity.onPause()V",
          "target": "PC@23",
          "type": "activity",
          "component": "com.ts.ysdw.mainActivity",
          "constraintsFile": "constraints37_5.py",
          "variables": {
            "SharedPreferences\u003csession_id\u003e": "IAAv3",
            "SharedPreferences\u003cactivities\u003e": "IAAv6",
            "SharedPreferences\u003cduration\u003e.valueOf().longValue()": "IAAv4"
          },
          "stringMap": {
            "7000": ""
          },
          "strings": {
            "IAAv3": "",
            "IAAv6": ""
          }
        },
        {
          "start": "com.ts.ysdw.mainActivity.onPause()V",
          "target": "PC@12",
          "type": "activity",
          "component": "com.ts.ysdw.mainActivity",
          "constraintsFile": "constraints37_6.py",
          "variables": {},
          "stringMap": {},
          "strings": {}
        },
        {
          "start": "com.ts.ysdw.mainActivity.onResume()V",
          "target": "invokeinterface \u003c Application, Lorg/apache/http/client/HttpClient, execute(Lorg/apache/http/client/methods/HttpUriRequest;)Lorg/apache/http/HttpResponse; \u003e@289",
          "type": "activity",
          "component": "com.ts.ysdw.mainActivity",
          "constraintsFile": "constraints37_7.py",
          "variables": {
            "SharedPreferences\u003csession_id\u003e": "IAAv4",
            "SharedPreferences\u003cduration\u003e.valueOf().longValue()": "IAAv5",
            "SharedPreferences\u003cactivities\u003e": "IAAv7"
          },
          "stringMap": {
            "7000": "",
            "7001": "update"
          },
          "strings": {
            "IAAv4": "",
            "IAAv12": "",
            "IAAv7": ""
          }
        }
      ]
    },
    "38": {
      "startMethod": "com.baidu.mobads.AppActivity.onKeyDown(ILandroid/view/KeyEvent;)Z",
      "targetMethod": "java.lang.reflect.Method.invoke(Ljava/lang/Object;[Ljava/lang/Object;)Ljava/lang/Object;",
      "eventChain": [
        {
          "start": "com.baidu.mobads.AppActivity.onCreate(Landroid/os/Bundle;)V",
          "target": "PC@122",
          "type": "activity",
          "component": "com.baidu.mobads.AppActivity",
          "constraintsFile": "constraints38_0.py",
          "variables": {},
          "stringMap": {},
          "strings": {}
        },
        {
          "start": "com.baidu.mobads.AppActivity.onKeyDown(ILandroid/view/KeyEvent;)Z",
          "target": "invokevirtual \u003c Application, Ljava/lang/reflect/Method, invoke(Ljava/lang/Object;[Ljava/lang/Object;)Ljava/lang/Object; \u003e@129",
          "type": "ui",
          "activities": [
            "com.ts.ysdw.mainActivity"
          ],
          "listener": "com.baidu.mobads.AppActivity",
          "listenerMethod": "onKeyDown",
          "uiType": "onKeyDown",
          "constraintsFile": "constraints38_1.py",
          "variables": {
            "\u003cInput2\u003e": "IAAv0"
          },
          "stringMap": {},
          "strings": {}
        }
      ]
    },
    "39": {
      "startMethod": "com.baidu.mobads.AppActivity.onKeyDown(ILandroid/view/KeyEvent;)Z",
      "targetMethod": "java.lang.reflect.Method.invoke(Ljava/lang/Object;[Ljava/lang/Object;)Ljava/lang/Object;",
      "eventChain": [
        {
          "start": "com.baidu.mobads.AppActivity.onCreate(Landroid/os/Bundle;)V",
          "target": "PC@122",
          "type": "activity",
          "component": "com.baidu.mobads.AppActivity",
          "constraintsFile": "constraints39_0.py",
          "variables": {},
          "stringMap": {},
          "strings": {}
        },
        {
          "start": "com.baidu.mobads.AppActivity.onKeyDown(ILandroid/view/KeyEvent;)Z",
          "target": "invokevirtual \u003c Application, Ljava/lang/reflect/Method, invoke(Ljava/lang/Object;[Ljava/lang/Object;)Ljava/lang/Object; \u003e@97",
          "type": "ui",
          "activities": [
            "com.ts.ysdw.mainActivity"
          ],
          "listener": "com.baidu.mobads.AppActivity",
          "listenerMethod": "onKeyDown",
          "uiType": "onKeyDown",
          "constraintsFile": "constraints39_1.py",
          "variables": {
            "\u003cInput2\u003e": "IAAv0"
          },
          "stringMap": {},
          "strings": {}
        }
      ]
    },
    "40": {
      "startMethod": "com.baidu.mobads.AppActivity.onKeyUp(ILandroid/view/KeyEvent;)Z",
      "targetMethod": "java.lang.reflect.Method.invoke(Ljava/lang/Object;[Ljava/lang/Object;)Ljava/lang/Object;",
      "eventChain": [
        {
          "start": "com.baidu.mobads.AppActivity.onCreate(Landroid/os/Bundle;)V",
          "target": "PC@122",
          "type": "activity",
          "component": "com.baidu.mobads.AppActivity",
          "constraintsFile": "constraints40_0.py",
          "variables": {},
          "stringMap": {},
          "strings": {}
        },
        {
          "start": "com.baidu.mobads.AppActivity.onKeyUp(ILandroid/view/KeyEvent;)Z",
          "target": "invokevirtual \u003c Application, Ljava/lang/reflect/Method, invoke(Ljava/lang/Object;[Ljava/lang/Object;)Ljava/lang/Object; \u003e@97",
          "type": "ui",
          "activities": [
            "com.ts.ysdw.mainActivity"
          ],
          "listener": "com.baidu.mobads.AppActivity",
          "listenerMethod": "onKeyUp",
          "uiType": "onKeyUp",
          "constraintsFile": "constraints40_1.py",
          "variables": {
            "\u003cInput2\u003e": "IAAv0"
          },
          "stringMap": {},
          "strings": {}
        }
      ]
    },
    "41": {
      "startMethod": "com.baidu.mobads.AppActivity.onKeyUp(ILandroid/view/KeyEvent;)Z",
      "targetMethod": "java.lang.reflect.Method.invoke(Ljava/lang/Object;[Ljava/lang/Object;)Ljava/lang/Object;",
      "eventChain": [
        {
          "start": "com.baidu.mobads.AppActivity.onCreate(Landroid/os/Bundle;)V",
          "target": "PC@122",
          "type": "activity",
          "component": "com.baidu.mobads.AppActivity",
          "constraintsFile": "constraints41_0.py",
          "variables": {},
          "stringMap": {},
          "strings": {}
        },
        {
          "start": "com.baidu.mobads.AppActivity.onKeyUp(ILandroid/view/KeyEvent;)Z",
          "target": "invokevirtual \u003c Application, Ljava/lang/reflect/Method, invoke(Ljava/lang/Object;[Ljava/lang/Object;)Ljava/lang/Object; \u003e@129",
          "type": "ui",
          "activities": [
            "com.ts.ysdw.mainActivity"
          ],
          "listener": "com.baidu.mobads.AppActivity",
          "listenerMethod": "onKeyUp",
          "uiType": "onKeyUp",
          "constraintsFile": "constraints41_1.py",
          "variables": {
            "\u003cInput2\u003e": "IAAv0"
          },
          "stringMap": {},
          "strings": {}
        }
      ]
    },
    "42": {
      "startMethod": "com.baidu.mobads.AppActivity.onKeyMultiple(IILandroid/view/KeyEvent;)Z",
      "targetMethod": "java.lang.reflect.Method.invoke(Ljava/lang/Object;[Ljava/lang/Object;)Ljava/lang/Object;",
      "eventChain": [
        {
          "start": "com.baidu.mobads.AppActivity.onCreate(Landroid/os/Bundle;)V",
          "target": "PC@122",
          "type": "activity",
          "component": "com.baidu.mobads.AppActivity",
          "constraintsFile": "constraints42_0.py",
          "variables": {},
          "stringMap": {},
          "strings": {}
        },
        {
          "start": "com.baidu.mobads.AppActivity.onKeyMultiple(IILandroid/view/KeyEvent;)Z",
          "target": "invokevirtual \u003c Application, Ljava/lang/reflect/Method, invoke(Ljava/lang/Object;[Ljava/lang/Object;)Ljava/lang/Object; \u003e@97",
          "type": "ui",
          "activities": [
            "com.ts.ysdw.mainActivity"
          ],
          "listener": "com.baidu.mobads.AppActivity",
          "listenerMethod": "onKeyMultiple",
          "uiType": "onKeyMultiple",
          "constraintsFile": "constraints42_1.py",
          "variables": {
            "\u003cInput3\u003e": "IAAv0"
          },
          "stringMap": {},
          "strings": {}
        }
      ]
    },
    "43": {
      "startMethod": "com.baidu.mobads.AppActivity.onKeyMultiple(IILandroid/view/KeyEvent;)Z",
      "targetMethod": "java.lang.reflect.Method.invoke(Ljava/lang/Object;[Ljava/lang/Object;)Ljava/lang/Object;",
      "eventChain": [
        {
          "start": "com.baidu.mobads.AppActivity.onCreate(Landroid/os/Bundle;)V",
          "target": "PC@122",
          "type": "activity",
          "component": "com.baidu.mobads.AppActivity",
          "constraintsFile": "constraints43_0.py",
          "variables": {},
          "stringMap": {},
          "strings": {}
        },
        {
          "start": "com.baidu.mobads.AppActivity.onKeyMultiple(IILandroid/view/KeyEvent;)Z",
          "target": "invokevirtual \u003c Application, Ljava/lang/reflect/Method, invoke(Ljava/lang/Object;[Ljava/lang/Object;)Ljava/lang/Object; \u003e@129",
          "type": "ui",
          "activities": [
            "com.ts.ysdw.mainActivity"
          ],
          "listener": "com.baidu.mobads.AppActivity",
          "listenerMethod": "onKeyMultiple",
          "uiType": "onKeyMultiple",
          "constraintsFile": "constraints43_1.py",
          "variables": {
            "\u003cInput3\u003e": "IAAv0"
          },
          "stringMap": {},
          "strings": {}
        }
      ]
    },
    "44": {
      "startMethod": "com.jinbi.YoumiAd$5.onClick(Landroid/content/DialogInterface;I)V",
      "targetMethod": "org.apache.http.client.HttpClient.execute(Lorg/apache/http/client/methods/HttpUriRequest;)Lorg/apache/http/HttpResponse;",
      "eventChain": [
        {
          "start": "com.jinbi.MyOffer$3.onClick(Landroid/view/View;)V",
          "target": "invokevirtual \u003c Application, Landroid/app/AlertDialog$Builder, setPositiveButton(Ljava/lang/CharSequence;Landroid/content/DialogInterface$OnClickListener;)Landroid/app/AlertDialog$Builder; \u003e@302",
          "type": "ui",
          "activities": [
            "com.jinbi.MyOffer"
          ],
          "listener": "com.jinbi.MyOffer$3",
          "listenerMethod": "onClick",
          "uiType": "onClick"
        },
        {
          "start": "com.jinbi.YoumiAd$5.onClick(Landroid/content/DialogInterface;I)V",
          "target": "invokeinterface \u003c Application, Lorg/apache/http/client/HttpClient, execute(Lorg/apache/http/client/methods/HttpUriRequest;)Lorg/apache/http/HttpResponse; \u003e@231",
          "type": "ui",
          "activities": [
            "com.ts.ysdw.mainActivity"
          ],
          "listener": "com.jinbi.YoumiAd$5",
          "listenerMethod": "onClick",
          "uiType": "onClick",
          "inDialog": "true",
          "constraintsFile": "constraints44_0.py",
          "variables": {},
          "stringMap": {
            "7000": "",
            "7001": "ctwap"
          },
          "strings": {
            "IAAv2": "",
            "IAAv9": "",
            "IAAv5": ""
          }
        }
      ]
    },
    "45": {
      "startMethod": "com.jinbi.YoumiAd$5.onClick(Landroid/content/DialogInterface;I)V",
      "targetMethod": "org.apache.http.impl.client.DefaultHttpClient.execute(Lorg/apache/http/client/methods/HttpUriRequest;)Lorg/apache/http/HttpResponse;",
      "eventChain": [
        {
          "start": "com.jinbi.MyOffer$3.onClick(Landroid/view/View;)V",
          "target": "invokevirtual \u003c Application, Landroid/app/AlertDialog$Builder, setPositiveButton(Ljava/lang/CharSequence;Landroid/content/DialogInterface$OnClickListener;)Landroid/app/AlertDialog$Builder; \u003e@302",
          "type": "ui",
          "activities": [
            "com.jinbi.MyOffer"
          ],
          "listener": "com.jinbi.MyOffer$3",
          "listenerMethod": "onClick",
          "uiType": "onClick"
        },
        {
          "start": "com.jinbi.MyOffer.onResume()V",
          "target": "invokeinterface \u003c Application, Landroid/content/SharedPreferences$Editor, putString(Ljava/lang/String;Ljava/lang/String;)Landroid/content/SharedPreferences$Editor; \u003e@1301",
          "type": "activity",
          "component": "com.jinbi.MyOffer"
        },
        {
          "start": "com.jinbi.MyOffer.onResume()V",
          "target": "PC@17",
          "type": "activity",
          "component": "com.jinbi.MyOffer"
        },
        {
          "start": "com.jinbi.YoumiAd$5.onClick(Landroid/content/DialogInterface;I)V",
          "target": "invokevirtual \u003c Application, Lorg/apache/http/impl/client/DefaultHttpClient, execute(Lorg/apache/http/client/methods/HttpUriRequest;)Lorg/apache/http/HttpResponse; \u003e@167",
          "type": "ui",
          "activities": [
            "com.ts.ysdw.mainActivity"
          ],
          "listener": "com.jinbi.YoumiAd$5",
          "listenerMethod": "onClick",
          "uiType": "onClick",
          "inDialog": "true",
          "constraintsFile": "constraints45_0.py",
          "variables": {
            "SharedPreferences\u003cdownload_filename\u003e": "IAAv7"
          },
          "stringMap": {
            "7000": ""
          },
          "strings": {
            "IAAv2": "",
            "IAAv7": ""
          }
        }
      ]
    },
    "46": {
      "startMethod": "com.jinbi.YoumiAd$8.onClick(Landroid/content/DialogInterface;I)V",
      "targetMethod": "org.apache.http.client.HttpClient.execute(Lorg/apache/http/client/methods/HttpUriRequest;)Lorg/apache/http/HttpResponse;",
      "eventChain": [
        {
          "start": "com.jinbi.MyOffer.onResume()V",
          "target": "invokevirtual \u003c Application, Landroid/app/AlertDialog$Builder, setNegativeButton(Ljava/lang/CharSequence;Landroid/content/DialogInterface$OnClickListener;)Landroid/app/AlertDialog$Builder; \u003e@169",
          "type": "activity",
          "component": "com.jinbi.MyOffer"
        },
        {
          "start": "com.jinbi.YoumiAd$8.onClick(Landroid/content/DialogInterface;I)V",
          "target": "invokeinterface \u003c Application, Lorg/apache/http/client/HttpClient, execute(Lorg/apache/http/client/methods/HttpUriRequest;)Lorg/apache/http/HttpResponse; \u003e@231",
          "type": "ui",
          "activities": [
            "com.ts.ysdw.mainActivity"
          ],
          "listener": "com.jinbi.YoumiAd$8",
          "listenerMethod": "onClick",
          "uiType": "onClick",
          "inDialog": "true",
          "constraintsFile": "constraints46_0.py",
          "variables": {},
          "stringMap": {
            "7000": "",
            "7001": "ctwap"
          },
          "strings": {
            "IAAv2": "",
            "IAAv9": "",
            "IAAv5": ""
          }
        }
      ]
    },
    "47": {
      "startMethod": "com.jinbi.YoumiAd$8.onClick(Landroid/content/DialogInterface;I)V",
      "targetMethod": "org.apache.http.impl.client.DefaultHttpClient.execute(Lorg/apache/http/client/methods/HttpUriRequest;)Lorg/apache/http/HttpResponse;",
      "eventChain": [
        {
          "start": "com.jinbi.MyOffer.onResume()V",
          "target": "invokevirtual \u003c Application, Landroid/app/AlertDialog$Builder, setNegativeButton(Ljava/lang/CharSequence;Landroid/content/DialogInterface$OnClickListener;)Landroid/app/AlertDialog$Builder; \u003e@169",
          "type": "activity",
          "component": "com.jinbi.MyOffer"
        },
        {
          "start": "com.jinbi.MyOffer.onResume()V",
          "target": "invokeinterface \u003c Application, Landroid/content/SharedPreferences$Editor, putString(Ljava/lang/String;Ljava/lang/String;)Landroid/content/SharedPreferences$Editor; \u003e@1301",
          "type": "activity",
          "component": "com.jinbi.MyOffer"
        },
        {
          "start": "com.jinbi.MyOffer.onResume()V",
          "target": "PC@17",
          "type": "activity",
          "component": "com.jinbi.MyOffer"
        },
        {
          "start": "com.jinbi.YoumiAd$8.onClick(Landroid/content/DialogInterface;I)V",
          "target": "invokevirtual \u003c Application, Lorg/apache/http/impl/client/DefaultHttpClient, execute(Lorg/apache/http/client/methods/HttpUriRequest;)Lorg/apache/http/HttpResponse; \u003e@167",
          "type": "ui",
          "activities": [
            "com.ts.ysdw.mainActivity"
          ],
          "listener": "com.jinbi.YoumiAd$8",
          "listenerMethod": "onClick",
          "uiType": "onClick",
          "inDialog": "true",
          "constraintsFile": "constraints47_0.py",
          "variables": {
            "SharedPreferences\u003cdownload_filename\u003e": "IAAv7"
          },
          "stringMap": {
            "7000": ""
          },
          "strings": {
            "IAAv2": "",
            "IAAv7": ""
          }
        }
      ]
    },
    "48": {
      "startMethod": "com.ui.MylsView$3$3.onClick(Landroid/content/DialogInterface;I)V",
      "targetMethod": "android.content.ContentResolver.delete(Landroid/net/Uri;Ljava/lang/String;[Ljava/lang/String;)I",
      "eventChain": [
        {
          "start": "com.ui.MylsView$3.onClick(Landroid/view/View;)V",
          "target": "invokevirtual \u003c Application, Landroid/app/AlertDialog$Builder, setPositiveButton(Ljava/lang/CharSequence;Landroid/content/DialogInterface$OnClickListener;)Landroid/app/AlertDialog$Builder; \u003e@338",
          "type": "ui",
          "activities": [
            "com.ts.ysdw.mainActivity"
          ],
          "listener": "com.ui.MylsView$3",
          "listenerMethod": "onClick",
          "uiType": "onClick",
          "constraintsFile": "constraints48_0.py",
          "variables": {},
          "stringMap": {},
          "strings": {}
        },
        {
          "start": "com.ui.MylsView$3$3.onClick(Landroid/content/DialogInterface;I)V",
          "target": "invokevirtual \u003c Application, Landroid/content/ContentResolver, delete(Landroid/net/Uri;Ljava/lang/String;[Ljava/lang/String;)I \u003e@94",
          "type": "ui",
          "activities": [
            "com.ts.ysdw.mainActivity"
          ],
          "listener": "com.ui.MylsView$3$3",
          "listenerMethod": "onClick",
          "uiType": "onClick",
          "inDialog": "true",
          "constraintsFile": "constraints48_1.py",
          "variables": {},
          "stringMap": {},
          "strings": {
            "IAAv1": ""
          }
        }
      ]
    },
    "49": {
      "startMethod": "com.jinbi.YoumiAd$6.onClick(Landroid/content/DialogInterface;I)V",
      "targetMethod": "org.apache.http.impl.client.DefaultHttpClient.execute(Lorg/apache/http/client/methods/HttpUriRequest;)Lorg/apache/http/HttpResponse;",
      "eventChain": [
        {
          "start": "com.jinbi.MyOffer$3.onClick(Landroid/view/View;)V",
          "target": "invokevirtual \u003c Application, Landroid/app/AlertDialog$Builder, setNeutralButton(Ljava/lang/CharSequence;Landroid/content/DialogInterface$OnClickListener;)Landroid/app/AlertDialog$Builder; \u003e@326",
          "type": "ui",
          "activities": [
            "com.jinbi.MyOffer"
          ],
          "listener": "com.jinbi.MyOffer$3",
          "listenerMethod": "onClick",
          "uiType": "onClick"
        },
        {
          "start": "com.jinbi.MyOffer.onResume()V",
          "target": "invokeinterface \u003c Application, Landroid/content/SharedPreferences$Editor, putString(Ljava/lang/String;Ljava/lang/String;)Landroid/content/SharedPreferences$Editor; \u003e@1301",
          "type": "activity",
          "component": "com.jinbi.MyOffer"
        },
        {
          "start": "com.jinbi.MyOffer.onResume()V",
          "target": "PC@17",
          "type": "activity",
          "component": "com.jinbi.MyOffer"
        },
        {
          "start": "com.jinbi.YoumiAd$6.onClick(Landroid/content/DialogInterface;I)V",
          "target": "invokevirtual \u003c Application, Lorg/apache/http/impl/client/DefaultHttpClient, execute(Lorg/apache/http/client/methods/HttpUriRequest;)Lorg/apache/http/HttpResponse; \u003e@167",
          "type": "ui",
          "activities": [
            "com.ts.ysdw.mainActivity"
          ],
          "listener": "com.jinbi.YoumiAd$6",
          "listenerMethod": "onClick",
          "uiType": "onClick",
          "inDialog": "true",
          "constraintsFile": "constraints49_0.py",
          "variables": {
            "SharedPreferences\u003cdownload_filename\u003e": "IAAv7"
          },
          "stringMap": {
            "7000": ""
          },
          "strings": {
            "IAAv2": "",
            "IAAv7": ""
          }
        }
      ]
    },
    "50": {
      "startMethod": "com.jinbi.YoumiAd$6.onClick(Landroid/content/DialogInterface;I)V",
      "targetMethod": "org.apache.http.client.HttpClient.execute(Lorg/apache/http/client/methods/HttpUriRequest;)Lorg/apache/http/HttpResponse;",
      "eventChain": [
        {
          "start": "com.jinbi.MyOffer$3.onClick(Landroid/view/View;)V",
          "target": "invokevirtual \u003c Application, Landroid/app/AlertDialog$Builder, setNeutralButton(Ljava/lang/CharSequence;Landroid/content/DialogInterface$OnClickListener;)Landroid/app/AlertDialog$Builder; \u003e@326",
          "type": "ui",
          "activities": [
            "com.jinbi.MyOffer"
          ],
          "listener": "com.jinbi.MyOffer$3",
          "listenerMethod": "onClick",
          "uiType": "onClick"
        },
        {
          "start": "com.jinbi.YoumiAd$6.onClick(Landroid/content/DialogInterface;I)V",
          "target": "invokeinterface \u003c Application, Lorg/apache/http/client/HttpClient, execute(Lorg/apache/http/client/methods/HttpUriRequest;)Lorg/apache/http/HttpResponse; \u003e@231",
          "type": "ui",
          "activities": [
            "com.ts.ysdw.mainActivity"
          ],
          "listener": "com.jinbi.YoumiAd$6",
          "listenerMethod": "onClick",
          "uiType": "onClick",
          "inDialog": "true",
          "constraintsFile": "constraints50_0.py",
          "variables": {},
          "stringMap": {
            "7000": "",
            "7001": "ctwap"
          },
          "strings": {
            "IAAv2": "",
            "IAAv9": "",
            "IAAv5": ""
          }
        }
      ]
    },
    "51": {
      "startMethod": "com.waps.ai.onClick(Landroid/content/DialogInterface;I)V",
      "targetMethod": "org.apache.http.client.HttpClient.execute(Lorg/apache/http/client/methods/HttpUriRequest;)Lorg/apache/http/HttpResponse;",
      "eventChain": [
        {
          "start": "com.waps.ah.onDownloadStart(Ljava/lang/String;Ljava/lang/String;Ljava/lang/String;Ljava/lang/String;J)V",
          "target": "invokevirtual \u003c Application, Landroid/app/AlertDialog$Builder, setNeutralButton(Ljava/lang/CharSequence;Landroid/content/DialogInterface$OnClickListener;)Landroid/app/AlertDialog$Builder; \u003e@358",
          "type": "",
          "constraintsFile": "constraints51_0.py",
          "variables": {},
          "stringMap": {},
          "strings": {}
        },
        {
          "start": "com.waps.ai.onClick(Landroid/content/DialogInterface;I)V",
          "target": "invokeinterface \u003c Application, Lorg/apache/http/client/HttpClient, execute(Lorg/apache/http/client/methods/HttpUriRequest;)Lorg/apache/http/HttpResponse; \u003e@231",
          "type": "ui",
          "activities": [
            "com.ts.ysdw.mainActivity"
          ],
          "listener": "com.waps.ai",
          "listenerMethod": "onClick",
          "uiType": "onClick",
          "inDialog": "true",
          "constraintsFile": "constraints51_1.py",
          "variables": {},
          "stringMap": {
            "7000": "",
            "7001": ".apk",
            "7002": "ctwap"
          },
          "strings": {
            "IAAv0": "",
            "IAAv10": "",
            "IAAv13": "",
            "IAAv17": "",
            "IAAv6": ""
          }
        }
      ]
    },
    "52": {
      "startMethod": "com.waps.ai.onClick(Landroid/content/DialogInterface;I)V",
      "targetMethod": "org.apache.http.impl.client.DefaultHttpClient.execute(Lorg/apache/http/client/methods/HttpUriRequest;)Lorg/apache/http/HttpResponse;",
      "eventChain": [
        {
          "start": "com.waps.ah.onDownloadStart(Ljava/lang/String;Ljava/lang/String;Ljava/lang/String;Ljava/lang/String;J)V",
          "target": "invokevirtual \u003c Application, Landroid/app/AlertDialog$Builder, setNeutralButton(Ljava/lang/CharSequence;Landroid/content/DialogInterface$OnClickListener;)Landroid/app/AlertDialog$Builder; \u003e@358",
          "type": "",
          "constraintsFile": "constraints52_0.py",
          "variables": {},
          "stringMap": {},
          "strings": {}
        },
        {
          "start": "com.waps.ai.onClick(Landroid/content/DialogInterface;I)V",
          "target": "invokevirtual \u003c Application, Lorg/apache/http/impl/client/DefaultHttpClient, execute(Lorg/apache/http/client/methods/HttpUriRequest;)Lorg/apache/http/HttpResponse; \u003e@167",
          "type": "ui",
          "activities": [
            "com.ts.ysdw.mainActivity"
          ],
          "listener": "com.waps.ai",
          "listenerMethod": "onClick",
          "uiType": "onClick",
          "inDialog": "true",
          "constraintsFile": "constraints52_1.py",
          "variables": {},
          "stringMap": {
            "7000": ""
          },
          "strings": {
            "IAAv0": ""
          }
        }
      ]
    },
    "53": {
      "startMethod": "com.jinbi.YoumiAd$4.onClick(Landroid/content/DialogInterface;I)V",
      "targetMethod": "org.apache.http.impl.client.DefaultHttpClient.execute(Lorg/apache/http/client/methods/HttpUriRequest;)Lorg/apache/http/HttpResponse;",
      "eventChain": [
        {
          "start": "com.jinbi.MyOffer$3.onClick(Landroid/view/View;)V",
          "target": "invokevirtual \u003c Application, Landroid/app/AlertDialog$Builder, setNegativeButton(Ljava/lang/CharSequence;Landroid/content/DialogInterface$OnClickListener;)Landroid/app/AlertDialog$Builder; \u003e@278",
          "type": "ui",
          "activities": [
            "com.jinbi.MyOffer"
          ],
          "listener": "com.jinbi.MyOffer$3",
          "listenerMethod": "onClick",
          "uiType": "onClick"
        },
        {
          "start": "com.jinbi.MyOffer.onResume()V",
          "target": "invokeinterface \u003c Application, Landroid/content/SharedPreferences$Editor, putString(Ljava/lang/String;Ljava/lang/String;)Landroid/content/SharedPreferences$Editor; \u003e@1301",
          "type": "activity",
          "component": "com.jinbi.MyOffer"
        },
        {
          "start": "com.jinbi.MyOffer.onResume()V",
          "target": "PC@17",
          "type": "activity",
          "component": "com.jinbi.MyOffer"
        },
        {
          "start": "com.jinbi.YoumiAd$4.onClick(Landroid/content/DialogInterface;I)V",
          "target": "invokevirtual \u003c Application, Lorg/apache/http/impl/client/DefaultHttpClient, execute(Lorg/apache/http/client/methods/HttpUriRequest;)Lorg/apache/http/HttpResponse; \u003e@167",
          "type": "ui",
          "activities": [
            "com.ts.ysdw.mainActivity"
          ],
          "listener": "com.jinbi.YoumiAd$4",
          "listenerMethod": "onClick",
          "uiType": "onClick",
          "inDialog": "true",
          "constraintsFile": "constraints53_0.py",
          "variables": {
            "SharedPreferences\u003cdownload_filename\u003e": "IAAv7"
          },
          "stringMap": {
            "7000": ""
          },
          "strings": {
            "IAAv2": "",
            "IAAv7": ""
          }
        }
      ]
    },
    "54": {
      "startMethod": "com.jinbi.YoumiAd$4.onClick(Landroid/content/DialogInterface;I)V",
      "targetMethod": "org.apache.http.client.HttpClient.execute(Lorg/apache/http/client/methods/HttpUriRequest;)Lorg/apache/http/HttpResponse;",
      "eventChain": [
        {
          "start": "com.jinbi.MyOffer$3.onClick(Landroid/view/View;)V",
          "target": "invokevirtual \u003c Application, Landroid/app/AlertDialog$Builder, setNegativeButton(Ljava/lang/CharSequence;Landroid/content/DialogInterface$OnClickListener;)Landroid/app/AlertDialog$Builder; \u003e@278",
          "type": "ui",
          "activities": [
            "com.jinbi.MyOffer"
          ],
          "listener": "com.jinbi.MyOffer$3",
          "listenerMethod": "onClick",
          "uiType": "onClick"
        },
        {
          "start": "com.jinbi.YoumiAd$4.onClick(Landroid/content/DialogInterface;I)V",
          "target": "invokeinterface \u003c Application, Lorg/apache/http/client/HttpClient, execute(Lorg/apache/http/client/methods/HttpUriRequest;)Lorg/apache/http/HttpResponse; \u003e@231",
          "type": "ui",
          "activities": [
            "com.ts.ysdw.mainActivity"
          ],
          "listener": "com.jinbi.YoumiAd$4",
          "listenerMethod": "onClick",
          "uiType": "onClick",
          "inDialog": "true",
          "constraintsFile": "constraints54_0.py",
          "variables": {},
          "stringMap": {
            "7000": "",
            "7001": "ctwap"
          },
          "strings": {
            "IAAv2": "",
            "IAAv9": "",
            "IAAv5": ""
          }
        }
      ]
    },
    "55": {
      "startMethod": "com.ts.ysdw.mainActivity$37.onClick(Landroid/content/DialogInterface;I)V",
      "targetMethod": "android.content.ContentResolver.delete(Landroid/net/Uri;Ljava/lang/String;[Ljava/lang/String;)I",
      "eventChain": [
        {
          "start": "com.ts.ysdw.mainActivity$17.onClick(Landroid/view/View;)V",
          "target": "invokevirtual \u003c Application, Landroid/app/AlertDialog$Builder, setPositiveButton(Ljava/lang/CharSequence;Landroid/content/DialogInterface$OnClickListener;)Landroid/app/AlertDialog$Builder; \u003e@66",
          "type": "ui",
          "activities": [
            "com.ts.ysdw.mainActivity"
          ],
          "listener": "com.ts.ysdw.mainActivity$17",
          "listenerMethod": "onClick",
          "uiType": "onClick"
        },
        {
          "start": "com.ts.ysdw.mainActivity$37.onClick(Landroid/content/DialogInterface;I)V",
          "target": "invokevirtual \u003c Application, Landroid/content/ContentResolver, delete(Landroid/net/Uri;Ljava/lang/String;[Ljava/lang/String;)I \u003e@19",
          "type": "ui",
          "activities": [
            "com.ts.ysdw.mainActivity"
          ],
          "listener": "com.ts.ysdw.mainActivity$37",
          "listenerMethod": "onClick",
          "uiType": "onClick",
          "inDialog": "true"
        }
      ]
    },
    "56": {
      "startMethod": "com.ts.ysdw.mainActivity$37.onClick(Landroid/content/DialogInterface;I)V",
      "targetMethod": "android.content.ContentResolver.delete(Landroid/net/Uri;Ljava/lang/String;[Ljava/lang/String;)I",
      "eventChain": [
        {
          "start": "com.ts.ysdw.mainActivity$17.onClick(Landroid/view/View;)V",
          "target": "invokevirtual \u003c Application, Landroid/app/AlertDialog$Builder, setPositiveButton(Ljava/lang/CharSequence;Landroid/content/DialogInterface$OnClickListener;)Landroid/app/AlertDialog$Builder; \u003e@66",
          "type": "ui",
          "activities": [
            "com.ts.ysdw.mainActivity"
          ],
          "listener": "com.ts.ysdw.mainActivity$17",
          "listenerMethod": "onClick",
          "uiType": "onClick"
        },
        {
          "start": "com.ts.ysdw.mainActivity$37.onClick(Landroid/content/DialogInterface;I)V",
          "target": "invokevirtual \u003c Application, Landroid/content/ContentResolver, delete(Landroid/net/Uri;Ljava/lang/String;[Ljava/lang/String;)I \u003e@19",
          "type": "ui",
          "activities": [
            "com.ts.ysdw.mainActivity"
          ],
          "listener": "com.ts.ysdw.mainActivity$37",
          "listenerMethod": "onClick",
          "uiType": "onClick",
          "inDialog": "true"
        }
      ]
    },
    "57": {
      "startMethod": "com.mobclick.android.d.onClick(Landroid/content/DialogInterface;I)V",
      "targetMethod": "org.apache.http.client.HttpClient.execute(Lorg/apache/http/client/methods/HttpUriRequest;)Lorg/apache/http/HttpResponse;",
      "eventChain": [
        {
          "start": "com.ts.ysdw.mainActivity.onPause()V",
          "target": "invokevirtual \u003c Application, Landroid/app/AlertDialog$Builder, setPositiveButton(Ljava/lang/CharSequence;Landroid/content/DialogInterface$OnClickListener;)Landroid/app/AlertDialog$Builder; \u003e@368",
          "type": "activity",
          "component": "com.ts.ysdw.mainActivity",
          "constraintsFile": "constraints57_0.py",
          "variables": {
            "SharedPreferences\u003csession_id\u003e": "IAAv3",
            "SharedPreferences\u003cduration\u003e.valueOf().longValue()": "IAAv4",
            "SharedPreferences\u003cactivities\u003e": "IAAv6"
          },
          "stringMap": {
            "7000": "",
            "7001": "update",
            "7002": "Yes",
            "7003": "yes",
            "7004": "Wi-Fi"
          },
          "strings": {
            "IAAv3": "",
            "IAAv17": "",
            "IAAv6": ""
          }
        },
        {
          "start": "com.mobclick.android.d.onClick(Landroid/content/DialogInterface;I)V",
          "target": "invokeinterface \u003c Application, Lorg/apache/http/client/HttpClient, execute(Lorg/apache/http/client/methods/HttpUriRequest;)Lorg/apache/http/HttpResponse; \u003e@8",
          "type": "ui",
          "activities": [
            "com.ts.ysdw.mainActivity"
          ],
          "listener": "com.mobclick.android.d",
          "listenerMethod": "onClick",
          "uiType": "onClick",
          "inDialog": "true"
        }
      ]
    },
    "58": {
      "startMethod": "com.baidu.mobads.AppActivity.onConfigurationChanged(Landroid/content/res/Configuration;)V",
      "targetMethod": "java.lang.reflect.Method.invoke(Ljava/lang/Object;[Ljava/lang/Object;)Ljava/lang/Object;",
      "eventChain": [
        {
          "start": "com.baidu.mobads.AppActivity.onCreate(Landroid/os/Bundle;)V",
          "target": "PC@122",
          "type": "activity",
          "component": "com.baidu.mobads.AppActivity",
          "constraintsFile": "constraints58_0.py",
          "variables": {},
          "stringMap": {},
          "strings": {}
        },
        {
          "start": "com.baidu.mobads.AppActivity.onConfigurationChanged(Landroid/content/res/Configuration;)V",
          "target": "invokevirtual \u003c Application, Ljava/lang/reflect/Method, invoke(Ljava/lang/Object;[Ljava/lang/Object;)Ljava/lang/Object; \u003e@100",
          "type": "",
          "constraintsFile": "constraints58_1.py",
          "variables": {
            "\u003cInput1\u003e": "IAAv0"
          },
          "stringMap": {},
          "strings": {}
        }
      ]
    },
    "59": {
      "startMethod": "com.baidu.mobads.AppActivity.onConfigurationChanged(Landroid/content/res/Configuration;)V",
      "targetMethod": "java.lang.reflect.Method.invoke(Ljava/lang/Object;[Ljava/lang/Object;)Ljava/lang/Object;",
      "eventChain": [
        {
          "start": "com.baidu.mobads.AppActivity.onCreate(Landroid/os/Bundle;)V",
          "target": "PC@122",
          "type": "activity",
          "component": "com.baidu.mobads.AppActivity",
          "constraintsFile": "constraints59_0.py",
          "variables": {},
          "stringMap": {},
          "strings": {}
        },
        {
          "start": "com.baidu.mobads.AppActivity.onConfigurationChanged(Landroid/content/res/Configuration;)V",
          "target": "invokevirtual \u003c Application, Ljava/lang/reflect/Method, invoke(Ljava/lang/Object;[Ljava/lang/Object;)Ljava/lang/Object; \u003e@115",
          "type": "",
          "constraintsFile": "constraints59_1.py",
          "variables": {
            "\u003cInput1\u003e": "IAAv0"
          },
          "stringMap": {},
          "strings": {}
        }
      ]
    },
    "60": {
      "startMethod": "com.baidu.mobads.AppActivity.onLowMemory()V",
      "targetMethod": "java.lang.reflect.Method.invoke(Ljava/lang/Object;[Ljava/lang/Object;)Ljava/lang/Object;",
      "eventChain": [
        {
          "start": "com.baidu.mobads.AppActivity.onLowMemory()V",
          "target": "invokevirtual \u003c Application, Ljava/lang/reflect/Method, invoke(Ljava/lang/Object;[Ljava/lang/Object;)Ljava/lang/Object; \u003e@100",
          "type": ""
        }
      ]
    },
    "61": {
      "startMethod": "com.baidu.mobads.AppActivity.onLowMemory()V",
      "targetMethod": "java.lang.reflect.Method.invoke(Ljava/lang/Object;[Ljava/lang/Object;)Ljava/lang/Object;",
      "eventChain": [
        {
          "start": "com.baidu.mobads.AppActivity.onLowMemory()V",
          "target": "invokevirtual \u003c Application, Ljava/lang/reflect/Method, invoke(Ljava/lang/Object;[Ljava/lang/Object;)Ljava/lang/Object; \u003e@115",
          "type": ""
        }
      ]
    },
    "62": {
      "startMethod": "com.jinbi.MyOffer$1.onClick(Landroid/view/View;)V",
      "targetMethod": "org.apache.http.client.HttpClient.execute(Lorg/apache/http/client/methods/HttpUriRequest;)Lorg/apache/http/HttpResponse;",
      "eventChain": [
        {
          "start": "com.jinbi.MyOffer.onCreate(Landroid/os/Bundle;)V",
          "target": "invokevirtual \u003c Application, Landroid/widget/Button, setOnClickListener(Landroid/view/View$OnClickListener;)V \u003e@141",
          "type": "activity",
          "component": "com.jinbi.MyOffer"
        },
        {
          "start": "com.jinbi.MyOffer.onResume()V",
          "target": "",
          "type": "activity",
          "component": "com.jinbi.MyOffer"
        },
        {
          "start": "com.jinbi.MyOffer$1.onClick(Landroid/view/View;)V",
          "target": "invokeinterface \u003c Application, Lorg/apache/http/client/HttpClient, execute(Lorg/apache/http/client/methods/HttpUriRequest;)Lorg/apache/http/HttpResponse; \u003e@231",
          "type": "ui",
          "activities": [
            "com.jinbi.MyOffer"
          ],
          "listener": "com.jinbi.MyOffer$1",
          "listenerMethod": "onClick",
          "uiType": "onClick",
          "constraintsFile": "constraints62_0.py",
          "variables": {},
          "stringMap": {
            "7000": "",
            "7001": "ctwap"
          },
          "strings": {
            "IAAv2": "",
            "IAAv9": "",
            "IAAv5": ""
          }
        }
      ]
    },
    "63": {
      "startMethod": "com.jinbi.MyOffer$1.onClick(Landroid/view/View;)V",
      "targetMethod": "org.apache.http.impl.client.DefaultHttpClient.execute(Lorg/apache/http/client/methods/HttpUriRequest;)Lorg/apache/http/HttpResponse;",
      "eventChain": [
        {
          "start": "com.jinbi.MyOffer.onCreate(Landroid/os/Bundle;)V",
          "target": "invokevirtual \u003c Application, Landroid/widget/Button, setOnClickListener(Landroid/view/View$OnClickListener;)V \u003e@141",
          "type": "activity",
          "component": "com.jinbi.MyOffer"
        },
        {
          "start": "com.jinbi.MyOffer.onResume()V",
          "target": "invokeinterface \u003c Application, Landroid/content/SharedPreferences$Editor, putString(Ljava/lang/String;Ljava/lang/String;)Landroid/content/SharedPreferences$Editor; \u003e@1301",
          "type": "activity",
          "component": "com.jinbi.MyOffer"
        },
        {
          "start": "com.jinbi.MyOffer.onResume()V",
          "target": "",
          "type": "activity",
          "component": "com.jinbi.MyOffer"
        },
        {
          "start": "com.jinbi.MyOffer.onResume()V",
          "target": "PC@17",
          "type": "activity",
          "component": "com.jinbi.MyOffer"
        },
        {
          "start": "com.jinbi.MyOffer$1.onClick(Landroid/view/View;)V",
          "target": "invokevirtual \u003c Application, Lorg/apache/http/impl/client/DefaultHttpClient, execute(Lorg/apache/http/client/methods/HttpUriRequest;)Lorg/apache/http/HttpResponse; \u003e@167",
          "type": "ui",
          "activities": [
            "com.jinbi.MyOffer"
          ],
          "listener": "com.jinbi.MyOffer$1",
          "listenerMethod": "onClick",
          "uiType": "onClick",
          "constraintsFile": "constraints63_0.py",
          "variables": {
            "SharedPreferences\u003cdownload_filename\u003e": "IAAv7"
          },
          "stringMap": {
            "7000": ""
          },
          "strings": {
            "IAAv2": "",
            "IAAv7": ""
          }
        }
      ]
    },
    "64": {
      "startMethod": "com.jinbi.MyOffer$2.onClick(Landroid/view/View;)V",
      "targetMethod": "org.apache.http.impl.client.DefaultHttpClient.execute(Lorg/apache/http/client/methods/HttpUriRequest;)Lorg/apache/http/HttpResponse;",
      "eventChain": [
        {
          "start": "com.jinbi.MyOffer.onCreate(Landroid/os/Bundle;)V",
          "target": "invokevirtual \u003c Application, Landroid/widget/Button, setOnClickListener(Landroid/view/View$OnClickListener;)V \u003e@185",
          "type": "activity",
          "component": "com.jinbi.MyOffer"
        },
        {
          "start": "com.ts.ysdw.mainActivity.onCreate(Landroid/os/Bundle;)V",
          "target": "",
          "type": "activity",
          "component": "com.ts.ysdw.mainActivity",
          "constraintsFile": "constraints64_0.py",
          "variables": {},
          "stringMap": {},
          "strings": {}
        },
        {
          "start": "com.jinbi.MyOffer$2.onClick(Landroid/view/View;)V",
          "target": "invokevirtual \u003c Application, Lorg/apache/http/impl/client/DefaultHttpClient, execute(Lorg/apache/http/client/methods/HttpUriRequest;)Lorg/apache/http/HttpResponse; \u003e@167",
          "type": "ui",
          "activities": [
            "com.jinbi.MyOffer"
          ],
          "listener": "com.jinbi.MyOffer$2",
          "listenerMethod": "onClick",
          "uiType": "onClick",
          "constraintsFile": "constraints64_1.py",
          "variables": {},
          "stringMap": {},
          "strings": {}
        }
      ]
    },
    "65": {
      "startMethod": "com.jinbi.MyOffer$2.onClick(Landroid/view/View;)V",
      "targetMethod": "org.apache.http.client.HttpClient.execute(Lorg/apache/http/client/methods/HttpUriRequest;)Lorg/apache/http/HttpResponse;",
      "eventChain": [
        {
          "start": "com.jinbi.MyOffer.onCreate(Landroid/os/Bundle;)V",
          "target": "invokevirtual \u003c Application, Landroid/widget/Button, setOnClickListener(Landroid/view/View$OnClickListener;)V \u003e@185",
          "type": "activity",
          "component": "com.jinbi.MyOffer"
        },
        {
          "start": "com.ts.ysdw.mainActivity.onCreate(Landroid/os/Bundle;)V",
          "target": "",
          "type": "activity",
          "component": "com.ts.ysdw.mainActivity",
          "constraintsFile": "constraints65_0.py",
          "variables": {},
          "stringMap": {},
          "strings": {}
        },
        {
          "start": "com.jinbi.MyOffer$2.onClick(Landroid/view/View;)V",
          "target": "invokeinterface \u003c Application, Lorg/apache/http/client/HttpClient, execute(Lorg/apache/http/client/methods/HttpUriRequest;)Lorg/apache/http/HttpResponse; \u003e@231",
          "type": "ui",
          "activities": [
            "com.jinbi.MyOffer"
          ],
          "listener": "com.jinbi.MyOffer$2",
          "listenerMethod": "onClick",
          "uiType": "onClick",
          "constraintsFile": "constraints65_1.py",
          "variables": {},
          "stringMap": {},
          "strings": {}
        }
      ]
    },
    "66": {
      "startMethod": "com.waps.ag.onClick(Landroid/view/View;)V",
      "targetMethod": "org.apache.http.client.HttpClient.execute(Lorg/apache/http/client/methods/HttpUriRequest;)Lorg/apache/http/HttpResponse;",
      "eventChain": [
        {
          "start": "com.waps.ag.onClick(Landroid/view/View;)V",
          "target": "invokeinterface \u003c Application, Lorg/apache/http/client/HttpClient, execute(Lorg/apache/http/client/methods/HttpUriRequest;)Lorg/apache/http/HttpResponse; \u003e@231",
          "type": "ui",
          "activities": [
            "com.ts.ysdw.mainActivity"
          ],
          "listener": "com.waps.ag",
          "listenerMethod": "onClick",
          "uiType": "onClick",
          "constraintsFile": "constraints66_0.py",
          "variables": {},
          "stringMap": {
            "7000": "",
            "7001": "ctwap"
          },
          "strings": {
            "IAAv3": "",
            "IAAv10": "",
            "IAAv6": ""
          }
        }
      ]
    },
    "67": {
      "startMethod": "com.waps.ag.onClick(Landroid/view/View;)V",
      "targetMethod": "org.apache.http.impl.client.DefaultHttpClient.execute(Lorg/apache/http/client/methods/HttpUriRequest;)Lorg/apache/http/HttpResponse;",
      "eventChain": [
        {
          "start": "com.jinbi.MyOffer.onResume()V",
          "target": "invokeinterface \u003c Application, Landroid/content/SharedPreferences$Editor, putString(Ljava/lang/String;Ljava/lang/String;)Landroid/content/SharedPreferences$Editor; \u003e@1301",
          "type": "activity",
          "component": "com.jinbi.MyOffer"
        },
        {
          "start": "com.jinbi.MyOffer.onResume()V",
          "target": "PC@17",
          "type": "activity",
          "component": "com.jinbi.MyOffer"
        },
        {
          "start": "com.waps.ag.onClick(Landroid/view/View;)V",
          "target": "invokevirtual \u003c Application, Lorg/apache/http/impl/client/DefaultHttpClient, execute(Lorg/apache/http/client/methods/HttpUriRequest;)Lorg/apache/http/HttpResponse; \u003e@167",
          "type": "ui",
          "activities": [
            "com.ts.ysdw.mainActivity"
          ],
          "listener": "com.waps.ag",
          "listenerMethod": "onClick",
          "uiType": "onClick",
          "constraintsFile": "constraints67_0.py",
          "variables": {
            "SharedPreferences\u003cdownload_filename\u003e": "IAAv8"
          },
          "stringMap": {
            "7000": ""
          },
          "strings": {
            "IAAv3": "",
            "IAAv8": ""
          }
        }
      ]
    },
    "68": {
      "startMethod": "com.baidu.mobads.AppActivity.onCreateContextMenu(Landroid/view/ContextMenu;Landroid/view/View;Landroid/view/ContextMenu$ContextMenuInfo;)V",
      "targetMethod": "java.lang.reflect.Method.invoke(Ljava/lang/Object;[Ljava/lang/Object;)Ljava/lang/Object;",
      "eventChain": [
        {
          "start": "com.baidu.mobads.AppActivity.onCreate(Landroid/os/Bundle;)V",
          "target": "PC@122",
          "type": "activity",
          "component": "com.baidu.mobads.AppActivity",
          "constraintsFile": "constraints68_0.py",
          "variables": {},
          "stringMap": {},
          "strings": {}
        },
        {
          "start": "com.baidu.mobads.AppActivity.onCreateContextMenu(Landroid/view/ContextMenu;Landroid/view/View;Landroid/view/ContextMenu$ContextMenuInfo;)V",
          "target": "invokevirtual \u003c Application, Ljava/lang/reflect/Method, invoke(Ljava/lang/Object;[Ljava/lang/Object;)Ljava/lang/Object; \u003e@115",
          "type": "ui",
          "activities": [
            "com.ts.ysdw.mainActivity"
          ],
          "listener": "com.baidu.mobads.AppActivity",
          "listenerMethod": "onCreateContextMenu",
          "uiType": "onCreateContextMenu",
          "constraintsFile": "constraints68_1.py",
          "variables": {
            "\u003cInput3\u003e": "IAAv0"
          },
          "stringMap": {},
          "strings": {}
        }
      ]
    },
    "69": {
      "startMethod": "com.baidu.mobads.AppActivity.onCreateContextMenu(Landroid/view/ContextMenu;Landroid/view/View;Landroid/view/ContextMenu$ContextMenuInfo;)V",
      "targetMethod": "java.lang.reflect.Method.invoke(Ljava/lang/Object;[Ljava/lang/Object;)Ljava/lang/Object;",
      "eventChain": [
        {
          "start": "com.baidu.mobads.AppActivity.onCreate(Landroid/os/Bundle;)V",
          "target": "PC@122",
          "type": "activity",
          "component": "com.baidu.mobads.AppActivity",
          "constraintsFile": "constraints69_0.py",
          "variables": {},
          "stringMap": {},
          "strings": {}
        },
        {
          "start": "com.baidu.mobads.AppActivity.onCreateContextMenu(Landroid/view/ContextMenu;Landroid/view/View;Landroid/view/ContextMenu$ContextMenuInfo;)V",
          "target": "invokevirtual \u003c Application, Ljava/lang/reflect/Method, invoke(Ljava/lang/Object;[Ljava/lang/Object;)Ljava/lang/Object; \u003e@100",
          "type": "ui",
          "activities": [
            "com.ts.ysdw.mainActivity"
          ],
          "listener": "com.baidu.mobads.AppActivity",
          "listenerMethod": "onCreateContextMenu",
          "uiType": "onCreateContextMenu",
          "constraintsFile": "constraints69_1.py",
          "variables": {
            "\u003cInput3\u003e": "IAAv0"
          },
          "stringMap": {},
          "strings": {}
        }
      ]
    },
    "70": {
      "startMethod": "com.waps.v.onReceive(Landroid/content/Context;Landroid/content/Intent;)V",
      "targetMethod": "org.apache.http.impl.client.DefaultHttpClient.execute(Lorg/apache/http/client/methods/HttpUriRequest;)Lorg/apache/http/HttpResponse;",
      "eventChain": [
        {
          "start": "com.waps.aj.onClick(Landroid/content/DialogInterface;I)V",
          "target": "invokespecial \u003c Application, Landroid/content/BroadcastReceiver, \u003cinit\u003e()V \u003e@2",
          "type": "ui",
          "activities": [
            "com.ts.ysdw.mainActivity"
          ],
          "listener": "com.waps.aj",
          "listenerMethod": "onClick",
          "uiType": "onClick",
          "inDialog": "true"
        },
        {
          "start": "com.jinbi.MyOffer.onResume()V",
          "target": "invokeinterface \u003c Application, Landroid/content/SharedPreferences$Editor, putString(Ljava/lang/String;Ljava/lang/String;)Landroid/content/SharedPreferences$Editor; \u003e@1301",
          "type": "activity",
          "component": "com.jinbi.MyOffer"
        },
        {
          "start": "com.jinbi.MyOffer.onResume()V",
          "target": "",
          "type": "activity",
          "component": "com.jinbi.MyOffer"
        },
        {
          "start": "com.jinbi.MyOffer.onResume()V",
          "target": "PC@17",
          "type": "activity",
          "component": "com.jinbi.MyOffer"
        },
        {
          "start": "com.waps.v.onReceive(Landroid/content/Context;Landroid/content/Intent;)V",
          "target": "invokevirtual \u003c Application, Lorg/apache/http/impl/client/DefaultHttpClient, execute(Lorg/apache/http/client/methods/HttpUriRequest;)Lorg/apache/http/HttpResponse; \u003e@167",
          "type": "sms",
          "constraintsFile": "constraints70_0.py",
          "variables": {
            "\u003cChainedInput2\u003e.getDataString()": "IAAv2",
            "\u003cChainedInput2\u003e.getAction()": "IAAv0",
            "\u003cChainedInput1\u003e.d().a()": "IAAv8",
            "\u003cChainedInput1\u003e.a().n": "IAAv10",
            "SharedPreferences\u003cdownload_filename\u003e": "IAAv11"
          },
          "stringMap": {
            "7000": "android.intent.action.PACKAGE_ADDED",
            "7001": ""
          },
          "strings": {
            "IAAv2": "",
            "IAAv11": "",
            "IAAv0": "",
            "IAAv6": ""
          }
        }
      ]
    },
    "71": {
      "startMethod": "com.waps.v.onReceive(Landroid/content/Context;Landroid/content/Intent;)V",
      "targetMethod": "org.apache.http.client.HttpClient.execute(Lorg/apache/http/client/methods/HttpUriRequest;)Lorg/apache/http/HttpResponse;",
      "eventChain": [
        {
          "start": "com.waps.aj.onClick(Landroid/content/DialogInterface;I)V",
          "target": "invokespecial \u003c Application, Landroid/content/BroadcastReceiver, \u003cinit\u003e()V \u003e@2",
          "type": "ui",
          "activities": [
            "com.ts.ysdw.mainActivity"
          ],
          "listener": "com.waps.aj",
          "listenerMethod": "onClick",
          "uiType": "onClick",
          "inDialog": "true"
        },
        {
          "start": "com.jinbi.MyOffer.onResume()V",
          "target": "",
          "type": "activity",
          "component": "com.jinbi.MyOffer"
        },
        {
          "start": "com.waps.v.onReceive(Landroid/content/Context;Landroid/content/Intent;)V",
          "target": "invokeinterface \u003c Application, Lorg/apache/http/client/HttpClient, execute(Lorg/apache/http/client/methods/HttpUriRequest;)Lorg/apache/http/HttpResponse; \u003e@231",
          "type": "sms",
          "constraintsFile": "constraints71_0.py",
          "variables": {
            "\u003cChainedInput2\u003e.getDataString()": "IAAv2",
            "\u003cChainedInput2\u003e.getAction()": "IAAv0",
            "\u003cChainedInput1\u003e.d().a()": "IAAv8"
          },
          "stringMap": {
            "7000": "android.intent.action.PACKAGE_ADDED",
            "7001": "",
            "7002": "ctwap",
            "7003": "http://app",
            "7004": "http://ads",
            "7005": "http://push"
          },
          "strings": {
            "IAAv2": "",
            "IAAv0": "",
            "IAAv13": "",
            "IAAv15": "",
            "IAAv9": "",
            "IAAv6": ""
          }
        }
      ]
    },
    "72": {
      "startMethod": "com.waps.ah.onDownloadStart(Ljava/lang/String;Ljava/lang/String;Ljava/lang/String;Ljava/lang/String;J)V",
      "targetMethod": "org.apache.http.impl.client.DefaultHttpClient.execute(Lorg/apache/http/client/methods/HttpUriRequest;)Lorg/apache/http/HttpResponse;",
      "eventChain": [
        {
          "start": "com.waps.OffersWebView.onCreate(Landroid/os/Bundle;)V",
          "target": "invokevirtual \u003c Application, Landroid/webkit/WebView, setDownloadListener(Landroid/webkit/DownloadListener;)V \u003e@1032",
          "type": "activity",
          "component": "com.waps.OffersWebView",
          "constraintsFile": "constraints72_0.py",
          "variables": {
            "SharedPreferences\u003cpackageName\u003e": "IAAv4",
            "SharedPreferences\u003cclassName\u003e": "IAAv6"
          },
          "stringMap": {
            "7000": "",
            "7001": "OffersWebView",
            "7002": "feedback",
            "7003": "down_type",
            "7004": "true",
            "7005": "false",
            "7006": "notify"
          },
          "strings": {
            "IAAv4": "",
            "IAAv6": ""
          }
        },
        {
          "start": "com.jinbi.MyOffer.onResume()V",
          "target": "invokeinterface \u003c Application, Landroid/content/SharedPreferences$Editor, putString(Ljava/lang/String;Ljava/lang/String;)Landroid/content/SharedPreferences$Editor; \u003e@1301",
          "type": "activity",
          "component": "com.jinbi.MyOffer"
        },
        {
          "start": "com.jinbi.MyOffer.onResume()V",
          "target": "",
          "type": "activity",
          "component": "com.jinbi.MyOffer"
        },
        {
          "start": "com.waps.ah.onDownloadStart(Ljava/lang/String;Ljava/lang/String;Ljava/lang/String;Ljava/lang/String;J)V",
          "target": "invokevirtual \u003c Application, Lorg/apache/http/impl/client/DefaultHttpClient, execute(Lorg/apache/http/client/methods/HttpUriRequest;)Lorg/apache/http/HttpResponse; \u003e@167",
          "type": "",
          "constraintsFile": "constraints72_1.py",
          "variables": {
            "SharedPreferences\u003cdownload_filename\u003e": "IAAv8"
          },
          "stringMap": {
            "7000": ""
          },
          "strings": {
            "IAAv3": "",
            "IAAv8": ""
          }
        }
      ]
    },
    "73": {
      "startMethod": "com.waps.ah.onDownloadStart(Ljava/lang/String;Ljava/lang/String;Ljava/lang/String;Ljava/lang/String;J)V",
      "targetMethod": "java.net.URL.openConnection()Ljava/net/URLConnection;",
      "eventChain": [
        {
          "start": "com.waps.OffersWebView.onCreate(Landroid/os/Bundle;)V",
          "target": "invokevirtual \u003c Application, Landroid/webkit/WebView, setDownloadListener(Landroid/webkit/DownloadListener;)V \u003e@1032",
          "type": "activity",
          "component": "com.waps.OffersWebView",
          "constraintsFile": "constraints73_0.py",
          "variables": {
            "SharedPreferences\u003cpackageName\u003e": "IAAv4",
            "SharedPreferences\u003cclassName\u003e": "IAAv6"
          },
          "stringMap": {
            "7000": "",
            "7001": "OffersWebView",
            "7002": "feedback",
            "7003": "down_type",
            "7004": "true",
            "7005": "false",
            "7006": "notify"
          },
          "strings": {
            "IAAv4": "",
            "IAAv6": ""
          }
        },
        {
          "start": "com.waps.ah.onDownloadStart(Ljava/lang/String;Ljava/lang/String;Ljava/lang/String;Ljava/lang/String;J)V",
          "target": "invokevirtual \u003c Application, Ljava/net/URL, openConnection()Ljava/net/URLConnection; \u003e@25",
          "type": "",
          "constraintsFile": "constraints73_1.py",
          "variables": {},
          "stringMap": {},
          "strings": {}
        }
      ]
    },
    "74": {
      "startMethod": "com.waps.ah.onDownloadStart(Ljava/lang/String;Ljava/lang/String;Ljava/lang/String;Ljava/lang/String;J)V",
      "targetMethod": "org.apache.http.client.HttpClient.execute(Lorg/apache/http/client/methods/HttpUriRequest;)Lorg/apache/http/HttpResponse;",
      "eventChain": [
        {
          "start": "com.waps.OffersWebView.onCreate(Landroid/os/Bundle;)V",
          "target": "invokevirtual \u003c Application, Landroid/webkit/WebView, setDownloadListener(Landroid/webkit/DownloadListener;)V \u003e@1032",
          "type": "activity",
          "component": "com.waps.OffersWebView",
          "constraintsFile": "constraints74_0.py",
          "variables": {
            "SharedPreferences\u003cpackageName\u003e": "IAAv4",
            "SharedPreferences\u003cclassName\u003e": "IAAv6"
          },
          "stringMap": {
            "7000": "",
            "7001": "OffersWebView",
            "7002": "feedback",
            "7003": "down_type",
            "7004": "true",
            "7005": "false",
            "7006": "notify"
          },
          "strings": {
            "IAAv4": "",
            "IAAv6": ""
          }
        },
        {
          "start": "com.jinbi.MyOffer.onResume()V",
          "target": "",
          "type": "activity",
          "component": "com.jinbi.MyOffer"
        },
        {
          "start": "com.waps.ah.onDownloadStart(Ljava/lang/String;Ljava/lang/String;Ljava/lang/String;Ljava/lang/String;J)V",
          "target": "invokeinterface \u003c Application, Lorg/apache/http/client/HttpClient, execute(Lorg/apache/http/client/methods/HttpUriRequest;)Lorg/apache/http/HttpResponse; \u003e@231",
          "type": "",
          "constraintsFile": "constraints74_1.py",
          "variables": {},
          "stringMap": {
            "7000": "",
            "7001": "ctwap"
          },
          "strings": {
            "IAAv3": "",
            "IAAv10": "",
            "IAAv6": ""
          }
        }
      ]
    }
  }
}