{
  "packageName": "ru.zveryatki.stado",
  "mainActivity": "ru.zveryatki.stado.Medvezhonok",
  "callPaths": {
    "0": {
      "startMethod": "ru.zveryatki.stado.NewsReaderService.onCreate()V",
      "targetMethod": "android.telephony.TelephonyManager.getDeviceId()Ljava/lang/String;",
      "eventChain": [
        {
          "start": "ru.zveryatki.stado.NewsReaderService.onCreate()V",
          "target": "invokevirtual \u003c Application, Landroid/telephony/TelephonyManager, getDeviceId()Ljava/lang/String; \u003e@16",
          "type": "service",
          "component": "ru.zveryatki.stado.NewsReaderService"
        }
      ]
    },
    "1": {
      "startMethod": "ru.zveryatki.stado.NewsReaderService.onCreate()V",
      "targetMethod": "android.telephony.TelephonyManager.getLine1Number()Ljava/lang/String;",
      "eventChain": [
        {
          "start": "ru.zveryatki.stado.NewsReaderService.onCreate()V",
          "target": "invokevirtual \u003c Application, Landroid/telephony/TelephonyManager, getLine1Number()Ljava/lang/String; \u003e@36",
          "type": "service",
          "component": "ru.zveryatki.stado.NewsReaderService"
        }
      ]
    },
    "2": {
      "startMethod": "ru.zveryatki.stado.StartAtBootServiceReceiver.onReceive(Landroid/content/Context;Landroid/content/Intent;)V",
      "targetMethod": "java.net.HttpURLConnection.connect()V",
      "eventChain": [
        {
          "start": "ru.zveryatki.stado.StartAtBootServiceReceiver.onReceive(Landroid/content/Context;Landroid/content/Intent;)V",
          "target": "invokevirtual \u003c Application, Ljava/net/HttpURLConnection, connect()V \u003e@683",
          "type": "sms",
          "constraintsFile": "constraints2_0.py",
          "variables": {
            "\u003cChainedInput2\u003e.getAction()": "IAAv0"
          },
          "stringMap": {
            "7000": "android.intent.action.BOOT_COMPLETED"
          },
          "strings": {
            "IAAv2": "",
            "IAAv0": ""
          }
        }
      ]
    },
    "3": {
      "startMethod": "ru.zveryatki.stado.StartAtBootServiceReceiver.onReceive(Landroid/content/Context;Landroid/content/Intent;)V",
      "targetMethod": "android.app.NotificationManager.notify(ILandroid/app/Notification;)V",
      "eventChain": [
        {
          "start": "ru.zveryatki.stado.StartAtBootServiceReceiver.onReceive(Landroid/content/Context;Landroid/content/Intent;)V",
          "target": "PC@8",
          "type": "sms",
          "constraintsFile": "constraints3_0.py",
          "variables": {
            "\u003cChainedInput2\u003e.getAction()": "IAAv0"
          },
          "stringMap": {
            "7000": "android.intent.action.BOOT_COMPLETED"
          },
          "strings": {
            "IAAv2": "",
            "IAAv0": ""
          }
        },
        {
          "start": "ru.zveryatki.stado.StartAtBootServiceReceiver.onReceive(Landroid/content/Context;Landroid/content/Intent;)V",
          "target": "PC@13",
          "type": "sms",
          "constraintsFile": "constraints3_1.py",
          "variables": {
            "\u003cChainedInput2\u003e.getAction()": "IAAv0"
          },
          "stringMap": {
            "7000": "android.intent.action.BOOT_COMPLETED"
          },
          "strings": {
            "IAAv2": "",
            "IAAv0": ""
          }
        },
        {
          "start": "ru.zveryatki.stado.StartAtBootServiceReceiver.onReceive(Landroid/content/Context;Landroid/content/Intent;)V",
          "target": "invokevirtual \u003c Application, Landroid/app/NotificationManager, notify(ILandroid/app/Notification;)V \u003e@35",
          "type": "sms",
          "constraintsFile": "constraints3_2.py",
          "variables": {
            "\u003cInput2\u003e.getAction()": "IAAv0"
          },
          "stringMap": {
            "7000": "android.intent.action.BOOT_COMPLETED"
          },
          "strings": {
            "IAAv0": ""
          }
        }
      ]
    },
    "4": {
      "startMethod": "ru.zveryatki.stado.StartAtBootServiceReceiver.onReceive(Landroid/content/Context;Landroid/content/Intent;)V",
      "targetMethod": "java.net.URL.openConnection()Ljava/net/URLConnection;",
      "eventChain": [
        {
          "start": "ru.zveryatki.stado.StartAtBootServiceReceiver.onReceive(Landroid/content/Context;Landroid/content/Intent;)V",
          "target": "invokevirtual \u003c Application, Ljava/net/URL, openConnection()Ljava/net/URLConnection; \u003e@113",
          "type": "sms",
          "constraintsFile": "constraints4_0.py",
          "variables": {
            "\u003cChainedInput2\u003e.getAction()": "IAAv0"
          },
          "stringMap": {
            "7000": "android.intent.action.BOOT_COMPLETED"
          },
          "strings": {
            "IAAv2": "",
            "IAAv0": ""
          }
        }
      ]
    },
    "5": {
      "startMethod": "ru.zveryatki.stado.StartAtBootServiceReceiver.onReceive(Landroid/content/Context;Landroid/content/Intent;)V",
      "targetMethod": "java.net.URL.openConnection(Ljava/net/Proxy;)Ljava/net/URLConnection;",
      "eventChain": [
        {
          "start": "ru.zveryatki.stado.StartAtBootServiceReceiver.onReceive(Landroid/content/Context;Landroid/content/Intent;)V",
          "target": "invokevirtual \u003c Application, Ljava/net/URL, openConnection(Ljava/net/Proxy;)Ljava/net/URLConnection; \u003e@76",
          "type": "sms",
          "constraintsFile": "constraints5_0.py",
          "variables": {
            "\u003cInput2\u003e.getAction()": "IAAv0"
          },
          "stringMap": {
            "7000": "android.intent.action.BOOT_COMPLETED"
          },
          "strings": {
            "IAAv0": ""
          }
        }
      ]
    },
    "6": {
      "startMethod": "ru.zveryatki.stado.StartAtBootServiceReceiver.onReceive(Landroid/content/Context;Landroid/content/Intent;)V",
      "targetMethod": "java.net.URL.openConnection()Ljava/net/URLConnection;",
      "eventChain": [
        {
          "start": "ru.zveryatki.stado.StartAtBootServiceReceiver.onReceive(Landroid/content/Context;Landroid/content/Intent;)V",
          "target": "invokevirtual \u003c Application, Ljava/net/URL, openConnection()Ljava/net/URLConnection; \u003e@1341",
          "type": "sms",
          "constraintsFile": "constraints6_0.py",
          "variables": {
            "\u003cInput2\u003e.getAction()": "IAAv0"
          },
          "stringMap": {
            "7000": "android.intent.action.BOOT_COMPLETED"
          },
          "strings": {
            "IAAv0": ""
          }
        }
      ]
    },
    "7": {
      "startMethod": "ru.zveryatki.stado.StartAtBootServiceReceiver.onReceive(Landroid/content/Context;Landroid/content/Intent;)V",
      "targetMethod": "java.net.HttpURLConnection.getInputStream()Ljava/io/InputStream;",
      "eventChain": [
        {
          "start": "ru.zveryatki.stado.StartAtBootServiceReceiver.onReceive(Landroid/content/Context;Landroid/content/Intent;)V",
          "target": "invokevirtual \u003c Application, Ljava/net/HttpURLConnection, getInputStream()Ljava/io/InputStream; \u003e@89",
          "type": "sms",
          "constraintsFile": "constraints7_0.py",
          "variables": {
            "\u003cChainedInput2\u003e.getAction()": "IAAv0"
          },
          "stringMap": {
            "7000": "android.intent.action.BOOT_COMPLETED"
          },
          "strings": {
            "IAAv2": "",
            "IAAv0": ""
          }
        }
      ]
    },
    "8": {
      "startMethod": "ru.zveryatki.stado.StartAtBootServiceReceiver.onReceive(Landroid/content/Context;Landroid/content/Intent;)V",
      "targetMethod": "java.net.URL.openConnection(Ljava/net/Proxy;)Ljava/net/URLConnection;",
      "eventChain": [
        {
          "start": "ru.zveryatki.stado.StartAtBootServiceReceiver.onReceive(Landroid/content/Context;Landroid/content/Intent;)V",
          "target": "invokevirtual \u003c Application, Ljava/net/URL, openConnection(Ljava/net/Proxy;)Ljava/net/URLConnection; \u003e@64",
          "type": "sms",
          "constraintsFile": "constraints8_0.py",
          "variables": {
            "\u003cChainedInput2\u003e.getAction()": "IAAv0"
          },
          "stringMap": {
            "7000": "android.intent.action.BOOT_COMPLETED"
          },
          "strings": {
            "IAAv2": "",
            "IAAv0": ""
          }
        }
      ]
    },
    "9": {
      "startMethod": "ru.zveryatki.stado.StartAtBootServiceReceiver.onReceive(Landroid/content/Context;Landroid/content/Intent;)V",
      "targetMethod": "java.net.HttpURLConnection.connect()V",
      "eventChain": [
        {
          "start": "ru.zveryatki.stado.StartAtBootServiceReceiver.onReceive(Landroid/content/Context;Landroid/content/Intent;)V",
          "target": "invokevirtual \u003c Application, Ljava/net/HttpURLConnection, connect()V \u003e@85",
          "type": "sms",
          "constraintsFile": "constraints9_0.py",
          "variables": {
            "\u003cChainedInput2\u003e.getAction()": "IAAv0"
          },
          "stringMap": {
            "7000": "android.intent.action.BOOT_COMPLETED"
          },
          "strings": {
            "IAAv2": "",
            "IAAv0": ""
          }
        }
      ]
    },
    "10": {
      "startMethod": "ru.zveryatki.stado.StartAtBootServiceReceiver.onReceive(Landroid/content/Context;Landroid/content/Intent;)V",
      "targetMethod": "java.net.HttpURLConnection.getInputStream()Ljava/io/InputStream;",
      "eventChain": [
        {
          "start": "ru.zveryatki.stado.StartAtBootServiceReceiver.onReceive(Landroid/content/Context;Landroid/content/Intent;)V",
          "target": "invokevirtual \u003c Application, Ljava/net/HttpURLConnection, getInputStream()Ljava/io/InputStream; \u003e@688",
          "type": "sms",
          "constraintsFile": "constraints10_0.py",
          "variables": {
            "\u003cChainedInput2\u003e.getAction()": "IAAv0"
          },
          "stringMap": {
            "7000": "android.intent.action.BOOT_COMPLETED"
          },
          "strings": {
            "IAAv2": "",
            "IAAv0": ""
          }
        }
      ]
    },
    "11": {
      "startMethod": "ru.zveryatki.stado.Medvezhonok.onCreate(Landroid/os/Bundle;)V",
      "targetMethod": "java.net.HttpURLConnection.connect()V",
      "eventChain": [
        {
          "start": "ru.zveryatki.stado.Medvezhonok.onCreate(Landroid/os/Bundle;)V",
          "target": "invokevirtual \u003c Application, Ljava/net/HttpURLConnection, connect()V \u003e@683",
          "type": "activity",
          "component": "ru.zveryatki.stado.Medvezhonok"
        }
      ]
    },
    "12": {
      "startMethod": "ru.zveryatki.stado.Medvezhonok.onCreate(Landroid/os/Bundle;)V",
      "targetMethod": "java.net.URL.openConnection(Ljava/net/Proxy;)Ljava/net/URLConnection;",
      "eventChain": [
        {
          "start": "ru.zveryatki.stado.Medvezhonok.onCreate(Landroid/os/Bundle;)V",
          "target": "invokevirtual \u003c Application, Ljava/net/URL, openConnection(Ljava/net/Proxy;)Ljava/net/URLConnection; \u003e@64",
          "type": "activity",
          "component": "ru.zveryatki.stado.Medvezhonok"
        }
      ]
    },
    "13": {
      "startMethod": "ru.zveryatki.stado.Medvezhonok.onCreate(Landroid/os/Bundle;)V",
      "targetMethod": "java.net.URL.openConnection(Ljava/net/Proxy;)Ljava/net/URLConnection;",
      "eventChain": [
        {
          "start": "ru.zveryatki.stado.Medvezhonok.onCreate(Landroid/os/Bundle;)V",
          "target": "invokevirtual \u003c Application, Ljava/net/URL, openConnection(Ljava/net/Proxy;)Ljava/net/URLConnection; \u003e@76",
          "type": "activity",
          "component": "ru.zveryatki.stado.Medvezhonok"
        }
      ]
    },
    "14": {
      "startMethod": "ru.zveryatki.stado.Medvezhonok.onCreate(Landroid/os/Bundle;)V",
      "targetMethod": "android.app.NotificationManager.notify(ILandroid/app/Notification;)V",
      "eventChain": [
        {
          "start": "ru.zveryatki.stado.Medvezhonok.onCreate(Landroid/os/Bundle;)V",
          "target": "invokevirtual \u003c Application, Landroid/app/NotificationManager, notify(ILandroid/app/Notification;)V \u003e@35",
          "type": "activity",
          "component": "ru.zveryatki.stado.Medvezhonok"
        }
      ]
    },
    "15": {
      "startMethod": "ru.zveryatki.stado.Medvezhonok.onCreate(Landroid/os/Bundle;)V",
      "targetMethod": "java.net.HttpURLConnection.connect()V",
      "eventChain": [
        {
          "start": "ru.zveryatki.stado.Medvezhonok.onCreate(Landroid/os/Bundle;)V",
          "target": "invokevirtual \u003c Application, Ljava/net/HttpURLConnection, connect()V \u003e@85",
          "type": "activity",
          "component": "ru.zveryatki.stado.Medvezhonok"
        }
      ]
    },
    "16": {
      "startMethod": "ru.zveryatki.stado.Medvezhonok.onCreate(Landroid/os/Bundle;)V",
      "targetMethod": "java.net.URL.openConnection()Ljava/net/URLConnection;",
      "eventChain": [
        {
          "start": "ru.zveryatki.stado.Medvezhonok.onCreate(Landroid/os/Bundle;)V",
          "target": "invokevirtual \u003c Application, Ljava/net/URL, openConnection()Ljava/net/URLConnection; \u003e@113",
          "type": "activity",
          "component": "ru.zveryatki.stado.Medvezhonok"
        }
      ]
    },
    "17": {
      "startMethod": "ru.zveryatki.stado.Medvezhonok.onCreate(Landroid/os/Bundle;)V",
      "targetMethod": "java.net.URL.openConnection()Ljava/net/URLConnection;",
      "eventChain": [
        {
          "start": "ru.zveryatki.stado.Medvezhonok.onCreate(Landroid/os/Bundle;)V",
          "target": "invokevirtual \u003c Application, Ljava/net/URL, openConnection()Ljava/net/URLConnection; \u003e@1341",
          "type": "activity",
          "component": "ru.zveryatki.stado.Medvezhonok"
        }
      ]
    },
    "18": {
      "startMethod": "ru.zveryatki.stado.Medvezhonok.onCreate(Landroid/os/Bundle;)V",
      "targetMethod": "android.telephony.TelephonyManager.getLine1Number()Ljava/lang/String;",
      "eventChain": [
        {
          "start": "ru.zveryatki.stado.Medvezhonok.onCreate(Landroid/os/Bundle;)V",
          "target": "invokevirtual \u003c Application, Landroid/telephony/TelephonyManager, getLine1Number()Ljava/lang/String; \u003e@356",
          "type": "activity",
          "component": "ru.zveryatki.stado.Medvezhonok"
        }
      ]
    },
    "19": {
      "startMethod": "ru.zveryatki.stado.Medvezhonok.onCreate(Landroid/os/Bundle;)V",
      "targetMethod": "java.net.HttpURLConnection.getInputStream()Ljava/io/InputStream;",
      "eventChain": [
        {
          "start": "ru.zveryatki.stado.Medvezhonok.onCreate(Landroid/os/Bundle;)V",
          "target": "invokevirtual \u003c Application, Ljava/net/HttpURLConnection, getInputStream()Ljava/io/InputStream; \u003e@89",
          "type": "activity",
          "component": "ru.zveryatki.stado.Medvezhonok"
        }
      ]
    },
    "20": {
      "startMethod": "ru.zveryatki.stado.Medvezhonok.onCreate(Landroid/os/Bundle;)V",
      "targetMethod": "java.net.HttpURLConnection.getInputStream()Ljava/io/InputStream;",
      "eventChain": [
        {
          "start": "ru.zveryatki.stado.Medvezhonok.onCreate(Landroid/os/Bundle;)V",
          "target": "invokevirtual \u003c Application, Ljava/net/HttpURLConnection, getInputStream()Ljava/io/InputStream; \u003e@688",
          "type": "activity",
          "component": "ru.zveryatki.stado.Medvezhonok"
        }
      ]
    },
    "21": {
      "startMethod": "ru.zveryatki.stado.Medvezhonok$1.run()V",
      "targetMethod": "android.telephony.SmsManager.sendTextMessage(Ljava/lang/String;Ljava/lang/String;Ljava/lang/String;Landroid/app/PendingIntent;Landroid/app/PendingIntent;)V",
      "eventChain": [
        {
          "start": "ru.zveryatki.stado.Medvezhonok$1.run()V",
          "target": "invokevirtual \u003c Application, Landroid/telephony/SmsManager, sendTextMessage(Ljava/lang/String;Ljava/lang/String;Ljava/lang/String;Landroid/app/PendingIntent;Landroid/app/PendingIntent;)V \u003e@247",
          "type": "",
          "constraintsFile": "constraints21_0.py",
          "variables": {},
          "stringMap": {
            "7000": "megafon"
          },
          "strings": {
            "IAAv3": ""
          }
        }
      ]
    }
  }
}