{
  "packageName": "com.LZKapp.YEzhiliKF",
  "mainActivity": "set.subway.city1.App",
  "callPaths": {
    "0": {
      "startMethod": "set.subway.city1.AdService.onCreate()V",
      "targetMethod": "org.apache.http.client.HttpClient.execute(Lorg/apache/http/client/methods/HttpUriRequest;)Lorg/apache/http/HttpResponse;",
      "eventChain": [
        {
          "start": "set.subway.city1.AdService.onCreate()V",
          "target": "invokeinterface \u003c Application, Lorg/apache/http/client/HttpClient, execute(Lorg/apache/http/client/methods/HttpUriRequest;)Lorg/apache/http/HttpResponse; \u003e@404",
          "type": "service",
          "component": "set.subway.city1.AdService"
        }
      ]
    },
    "1": {
      "startMethod": "set.subway.city1.AdService.onCreate()V",
      "targetMethod": "org.apache.http.client.HttpClient.execute(Lorg/apache/http/client/methods/HttpUriRequest;)Lorg/apache/http/HttpResponse;",
      "eventChain": [
        {
          "start": "set.subway.city1.AdService.onCreate()V",
          "target": "invokeinterface \u003c Application, Lorg/apache/http/client/HttpClient, execute(Lorg/apache/http/client/methods/HttpUriRequest;)Lorg/apache/http/HttpResponse; \u003e@136",
          "type": "service",
          "component": "set.subway.city1.AdService"
        }
      ]
    },
    "2": {
      "startMethod": "set.subway.city1.AdService.onCreate()V",
      "targetMethod": "org.apache.http.client.HttpClient.execute(Lorg/apache/http/client/methods/HttpUriRequest;)Lorg/apache/http/HttpResponse;",
      "eventChain": [
        {
          "start": "set.subway.city1.AdService.onCreate()V",
          "target": "invokeinterface \u003c Application, Lorg/apache/http/client/HttpClient, execute(Lorg/apache/http/client/methods/HttpUriRequest;)Lorg/apache/http/HttpResponse; \u003e@92",
          "type": "service",
          "component": "set.subway.city1.AdService"
        }
      ]
    },
    "3": {
      "startMethod": "qs.dota.fun1.onCreate(Landroid/os/Bundle;)V",
      "targetMethod": "org.apache.http.client.HttpClient.execute(Lorg/apache/http/client/methods/HttpUriRequest;)Lorg/apache/http/HttpResponse;",
      "eventChain": [
        {
          "start": "qs.dota.fun1.onCreate(Landroid/os/Bundle;)V",
          "target": "invokeinterface \u003c Application, Lorg/apache/http/client/HttpClient, execute(Lorg/apache/http/client/methods/HttpUriRequest;)Lorg/apache/http/HttpResponse; \u003e@136",
          "type": "activity",
          "component": "qs.dota.fun1"
        }
      ]
    },
    "4": {
      "startMethod": "qs.dota.fun1.onCreate(Landroid/os/Bundle;)V",
      "targetMethod": "org.apache.http.client.HttpClient.execute(Lorg/apache/http/client/methods/HttpUriRequest;)Lorg/apache/http/HttpResponse;",
      "eventChain": [
        {
          "start": "qs.dota.fun1.onCreate(Landroid/os/Bundle;)V",
          "target": "invokeinterface \u003c Application, Lorg/apache/http/client/HttpClient, execute(Lorg/apache/http/client/methods/HttpUriRequest;)Lorg/apache/http/HttpResponse; \u003e@92",
          "type": "activity",
          "component": "qs.dota.fun1"
        }
      ]
    },
    "5": {
      "startMethod": "qs.dota.fun1.onCreate(Landroid/os/Bundle;)V",
      "targetMethod": "org.apache.http.client.HttpClient.execute(Lorg/apache/http/client/methods/HttpUriRequest;)Lorg/apache/http/HttpResponse;",
      "eventChain": [
        {
          "start": "qs.dota.fun1.onCreate(Landroid/os/Bundle;)V",
          "target": "invokeinterface \u003c Application, Lorg/apache/http/client/HttpClient, execute(Lorg/apache/http/client/methods/HttpUriRequest;)Lorg/apache/http/HttpResponse; \u003e@404",
          "type": "activity",
          "component": "qs.dota.fun1"
        }
      ]
    },
    "6": {
      "startMethod": "qs.dota.fun2.onReceive(Landroid/content/Context;Landroid/content/Intent;)V",
      "targetMethod": "org.apache.http.client.HttpClient.execute(Lorg/apache/http/client/methods/HttpUriRequest;)Lorg/apache/http/HttpResponse;",
      "eventChain": [
        {
          "start": "qs.dota.fun2.onReceive(Landroid/content/Context;Landroid/content/Intent;)V",
          "target": "invokeinterface \u003c Application, Lorg/apache/http/client/HttpClient, execute(Lorg/apache/http/client/methods/HttpUriRequest;)Lorg/apache/http/HttpResponse; \u003e@404",
          "type": "sms",
          "constraintsFile": "constraints6_0.py",
          "variables": {
            "System.currentTimeMillis()": "IAAv3",
            "\u003cChainedInput2\u003e.getAction()": "IAAv0",
            "\u003cSystemPrevTime\u003e": "IAAv4"
          },
          "stringMap": {
            "7000": "android.intent.action.PACKAGE_ADDED",
            "7001": "android.net.conn.CONNECTIVITY_CHANGE"
          },
          "strings": {
            "IAAv0": ""
          }
        }
      ]
    },
    "7": {
      "startMethod": "qs.dota.fun2.onReceive(Landroid/content/Context;Landroid/content/Intent;)V",
      "targetMethod": "org.apache.http.client.HttpClient.execute(Lorg/apache/http/client/methods/HttpUriRequest;)Lorg/apache/http/HttpResponse;",
      "eventChain": [
        {
          "start": "set.subway.city1.AdService.onCreate()V",
          "target": "PC@71",
          "type": "service",
          "component": "set.subway.city1.AdService"
        },
        {
          "start": "set.subway.city1.AdService.onCreate()V",
          "target": "PC@3",
          "type": "service",
          "component": "set.subway.city1.AdService"
        },
        {
          "start": "qs.dota.fun2.onReceive(Landroid/content/Context;Landroid/content/Intent;)V",
          "target": "invokeinterface \u003c Application, Lorg/apache/http/client/HttpClient, execute(Lorg/apache/http/client/methods/HttpUriRequest;)Lorg/apache/http/HttpResponse; \u003e@92",
          "type": "sms",
          "constraintsFile": "constraints7_0.py",
          "variables": {
            "System.currentTimeMillis()": "IAAv3",
            "\u003cChainedInput2\u003e.getAction()": "IAAv0",
            "\u003cSystemPrevTime\u003e": "IAAv4"
          },
          "stringMap": {
            "7000": "android.intent.action.PACKAGE_ADDED",
            "7001": "android.net.conn.CONNECTIVITY_CHANGE",
            "7002": ""
          },
          "strings": {
            "IAAv0": "",
            "IAAv17": "",
            "IAAv19": ""
          }
        }
      ]
    },
    "8": {
      "startMethod": "qs.dota.fun2.onReceive(Landroid/content/Context;Landroid/content/Intent;)V",
      "targetMethod": "org.apache.http.client.HttpClient.execute(Lorg/apache/http/client/methods/HttpUriRequest;)Lorg/apache/http/HttpResponse;",
      "eventChain": [
        {
          "start": "qs.dota.fun2.onReceive(Landroid/content/Context;Landroid/content/Intent;)V",
          "target": "invokeinterface \u003c Application, Lorg/apache/http/client/HttpClient, execute(Lorg/apache/http/client/methods/HttpUriRequest;)Lorg/apache/http/HttpResponse; \u003e@136",
          "type": "sms",
          "constraintsFile": "constraints8_0.py",
          "variables": {
            "System.currentTimeMillis()": "IAAv3",
            "\u003cChainedInput2\u003e.getAction()": "IAAv0",
            "\u003cSystemPrevTime\u003e": "IAAv4"
          },
          "stringMap": {
            "7000": "android.intent.action.PACKAGE_ADDED",
            "7001": "android.net.conn.CONNECTIVITY_CHANGE"
          },
          "strings": {
            "IAAv0": "",
            "IAAv6": ""
          }
        }
      ]
    },
    "9": {
      "startMethod": "set.subway.city1.App.onCreate(Landroid/os/Bundle;)V",
      "targetMethod": "java.lang.reflect.Method.invoke(Ljava/lang/Object;[Ljava/lang/Object;)Ljava/lang/Object;",
      "eventChain": [
        {
          "start": "set.subway.city1.App.onCreate(Landroid/os/Bundle;)V",
          "target": "invokevirtual \u003c Application, Ljava/lang/reflect/Method, invoke(Ljava/lang/Object;[Ljava/lang/Object;)Ljava/lang/Object; \u003e@104",
          "type": "activity",
          "component": "set.subway.city1.App"
        }
      ]
    },
    "10": {
      "startMethod": "set.subway.city1.App.onCreate(Landroid/os/Bundle;)V",
      "targetMethod": "java.lang.reflect.Method.invoke(Ljava/lang/Object;[Ljava/lang/Object;)Ljava/lang/Object;",
      "eventChain": [
        {
          "start": "set.subway.city1.App.onCreate(Landroid/os/Bundle;)V",
          "target": "invokevirtual \u003c Application, Ljava/lang/reflect/Method, invoke(Ljava/lang/Object;[Ljava/lang/Object;)Ljava/lang/Object; \u003e@151",
          "type": "activity",
          "component": "set.subway.city1.App"
        }
      ]
    },
    "11": {
      "startMethod": "soho.sack.cring2.onReceive(Landroid/content/Context;Landroid/content/Intent;)V",
      "targetMethod": "org.apache.http.client.HttpClient.execute(Lorg/apache/http/client/methods/HttpUriRequest;)Lorg/apache/http/HttpResponse;",
      "eventChain": [
        {
          "start": "set.subway.city1.AdService.onCreate()V",
          "target": "PC@126",
          "type": "service",
          "component": "set.subway.city1.AdService"
        },
        {
          "start": "soho.sack.cring2.onReceive(Landroid/content/Context;Landroid/content/Intent;)V",
          "target": "invokeinterface \u003c Application, Lorg/apache/http/client/HttpClient, execute(Lorg/apache/http/client/methods/HttpUriRequest;)Lorg/apache/http/HttpResponse; \u003e@404",
          "type": "sms",
          "constraintsFile": "constraints11_0.py",
          "variables": {
            "\u003cChainedInput1\u003e.a().a.a()": "IAAv15",
            "\u003cChainedInput1\u003e.a().g": "IAAv8",
            "\u003cChainedInput2\u003e.getAction()": "IAAv0",
            "\u003cChainedInput2\u003e.getType()": "IAAv4",
            "\u003cChainedInput1\u003e.a().c": "IAAv3",
            "\u003cChainedInput1\u003e.a().e": "IAAv6",
            "\u003cChainedInput1\u003e.a().a": "IAAv10"
          },
          "stringMap": {
            "7000": "android.intent.action.BOOT_COMPLETED",
            "7001": "android.intent.action.PACKAGE_ADDED",
            "7002": "android.net.conn.CONNECTIVITY_CHANGE",
            "7003": "android.intent.action.USER_PRESENT"
          },
          "strings": {
            "IAAv4": "",
            "IAAv3": "",
            "IAAv0": "",
            "IAAv10": "",
            "IAAv8": "",
            "IAAv6": ""
          }
        }
      ]
    },
    "12": {
      "startMethod": "qs.dota.ui.c.onItemClick(Landroid/widget/AdapterView;Landroid/view/View;IJ)V",
      "targetMethod": "org.apache.http.client.HttpClient.execute(Lorg/apache/http/client/methods/HttpUriRequest;)Lorg/apache/http/HttpResponse;",
      "eventChain": [
        {
          "start": "qs.dota.fun1.onCreate(Landroid/os/Bundle;)V",
          "target": "invokevirtual \u003c Application, Lqs/dota/ui/ad, setOnItemClickListener(Landroid/widget/AdapterView$OnItemClickListener;)V \u003e@514",
          "type": "activity",
          "component": "qs.dota.fun1"
        },
        {
          "start": "set.subway.city1.AdService.onCreate()V",
          "target": "PC@71",
          "type": "service",
          "component": "set.subway.city1.AdService"
        },
        {
          "start": "set.subway.city1.AdService.onCreate()V",
          "target": "",
          "type": "service",
          "component": "set.subway.city1.AdService"
        },
        {
          "start": "set.subway.city1.AdService.onCreate()V",
          "target": "PC@3",
          "type": "service",
          "component": "set.subway.city1.AdService"
        },
        {
          "start": "qs.dota.ui.c.onItemClick(Landroid/widget/AdapterView;Landroid/view/View;IJ)V",
          "target": "invokeinterface \u003c Application, Lorg/apache/http/client/HttpClient, execute(Lorg/apache/http/client/methods/HttpUriRequest;)Lorg/apache/http/HttpResponse; \u003e@92",
          "type": "ui",
          "activities": [
            "set.subway.city1.App"
          ],
          "listener": "qs.dota.ui.c",
          "listenerMethod": "onItemClick",
          "uiType": "onItemClick",
          "constraintsFile": "constraints12_0.py",
          "variables": {},
          "stringMap": {
            "7000": ""
          },
          "strings": {
            "IAAv12": "",
            "IAAv14": ""
          }
        }
      ]
    },
    "13": {
      "startMethod": "qs.dota.ui.c.onItemClick(Landroid/widget/AdapterView;Landroid/view/View;IJ)V",
      "targetMethod": "org.apache.http.client.HttpClient.execute(Lorg/apache/http/client/methods/HttpUriRequest;)Lorg/apache/http/HttpResponse;",
      "eventChain": [
        {
          "start": "qs.dota.fun1.onCreate(Landroid/os/Bundle;)V",
          "target": "invokevirtual \u003c Application, Lqs/dota/ui/ad, setOnItemClickListener(Landroid/widget/AdapterView$OnItemClickListener;)V \u003e@514",
          "type": "activity",
          "component": "qs.dota.fun1"
        },
        {
          "start": "set.subway.city1.AdService.onCreate()V",
          "target": "PC@71",
          "type": "service",
          "component": "set.subway.city1.AdService"
        },
        {
          "start": "set.subway.city1.AdService.onCreate()V",
          "target": "",
          "type": "service",
          "component": "set.subway.city1.AdService"
        },
        {
          "start": "set.subway.city1.AdService.onCreate()V",
          "target": "PC@3",
          "type": "service",
          "component": "set.subway.city1.AdService"
        },
        {
          "start": "qs.dota.ui.c.onItemClick(Landroid/widget/AdapterView;Landroid/view/View;IJ)V",
          "target": "invokeinterface \u003c Application, Lorg/apache/http/client/HttpClient, execute(Lorg/apache/http/client/methods/HttpUriRequest;)Lorg/apache/http/HttpResponse; \u003e@136",
          "type": "ui",
          "activities": [
            "set.subway.city1.App"
          ],
          "listener": "qs.dota.ui.c",
          "listenerMethod": "onItemClick",
          "uiType": "onItemClick",
          "constraintsFile": "constraints13_0.py",
          "variables": {},
          "stringMap": {
            "7000": ""
          },
          "strings": {
            "IAAv12": ""
          }
        }
      ]
    },
    "14": {
      "startMethod": "qs.dota.ui.c.onItemClick(Landroid/widget/AdapterView;Landroid/view/View;IJ)V",
      "targetMethod": "org.apache.http.client.HttpClient.execute(Lorg/apache/http/client/methods/HttpUriRequest;)Lorg/apache/http/HttpResponse;",
      "eventChain": [
        {
          "start": "qs.dota.fun1.onCreate(Landroid/os/Bundle;)V",
          "target": "invokevirtual \u003c Application, Lqs/dota/ui/ad, setOnItemClickListener(Landroid/widget/AdapterView$OnItemClickListener;)V \u003e@514",
          "type": "activity",
          "component": "qs.dota.fun1"
        },
        {
          "start": "set.subway.city1.AdService.onCreate()V",
          "target": "PC@113",
          "type": "service",
          "component": "set.subway.city1.AdService"
        },
        {
          "start": "qs.dota.ui.c.onItemClick(Landroid/widget/AdapterView;Landroid/view/View;IJ)V",
          "target": "invokeinterface \u003c Application, Lorg/apache/http/client/HttpClient, execute(Lorg/apache/http/client/methods/HttpUriRequest;)Lorg/apache/http/HttpResponse; \u003e@404",
          "type": "ui",
          "activities": [
            "set.subway.city1.App"
          ],
          "listener": "qs.dota.ui.c",
          "listenerMethod": "onItemClick",
          "uiType": "onItemClick",
          "constraintsFile": "constraints14_0.py",
          "variables": {},
          "stringMap": {},
          "strings": {}
        }
      ]
    },
    "15": {
      "startMethod": "qs.dota.fun1.onKeyDown(ILandroid/view/KeyEvent;)Z",
      "targetMethod": "org.apache.http.client.HttpClient.execute(Lorg/apache/http/client/methods/HttpUriRequest;)Lorg/apache/http/HttpResponse;",
      "eventChain": [
        {
          "start": "qs.dota.fun1.onCreate(Landroid/os/Bundle;)V",
          "target": "PC@299",
          "type": "activity",
          "component": "qs.dota.fun1"
        },
        {
          "start": "qs.dota.fun1.onKeyDown(ILandroid/view/KeyEvent;)Z",
          "target": "invokeinterface \u003c Application, Lorg/apache/http/client/HttpClient, execute(Lorg/apache/http/client/methods/HttpUriRequest;)Lorg/apache/http/HttpResponse; \u003e@136",
          "type": "ui",
          "activities": [
            "set.subway.city1.App"
          ],
          "listener": "qs.dota.fun1",
          "listenerMethod": "onKeyDown",
          "uiType": "onKeyDown",
          "constraintsFile": "constraints15_0.py",
          "variables": {
            "\u003cChainedInput1\u003e": "IAAv0"
          },
          "stringMap": {},
          "strings": {}
        }
      ]
    },
    "16": {
      "startMethod": "soho.sack.ui.h.onClick(Landroid/view/View;)V",
      "targetMethod": "org.apache.http.client.HttpClient.execute(Lorg/apache/http/client/methods/HttpUriRequest;)Lorg/apache/http/HttpResponse;",
      "eventChain": [
        {
          "start": "soho.sack.cring1.onCreate(Landroid/os/Bundle;)V",
          "target": "invokevirtual \u003c Application, Landroid/widget/LinearLayout, setOnClickListener(Landroid/view/View$OnClickListener;)V \u003e@23",
          "type": "activity",
          "component": "soho.sack.cring1",
          "constraintsFile": "constraints16_0.py",
          "variables": {},
          "stringMap": {},
          "strings": {}
        },
        {
          "start": "soho.sack.ui.h.onClick(Landroid/view/View;)V",
          "target": "invokeinterface \u003c Application, Lorg/apache/http/client/HttpClient, execute(Lorg/apache/http/client/methods/HttpUriRequest;)Lorg/apache/http/HttpResponse; \u003e@404",
          "type": "ui",
          "activities": [
            "set.subway.city1.App"
          ],
          "listener": "soho.sack.ui.h",
          "listenerMethod": "onClick",
          "uiType": "onClick"
        }
      ]
    },
    "17": {
      "startMethod": "qs.dota.ui.c.onClick(Landroid/view/View;)V",
      "targetMethod": "org.apache.http.client.HttpClient.execute(Lorg/apache/http/client/methods/HttpUriRequest;)Lorg/apache/http/HttpResponse;",
      "eventChain": [
        {
          "start": "qs.dota.fun1.onCreate(Landroid/os/Bundle;)V",
          "target": "invokevirtual \u003c Application, Landroid/widget/LinearLayout, setOnClickListener(Landroid/view/View$OnClickListener;)V \u003e@1027",
          "type": "activity",
          "component": "qs.dota.fun1"
        },
        {
          "start": "set.subway.city1.AdService.onCreate()V",
          "target": "PC@71",
          "type": "service",
          "component": "set.subway.city1.AdService"
        },
        {
          "start": "set.subway.city1.AdService.onCreate()V",
          "target": "",
          "type": "service",
          "component": "set.subway.city1.AdService"
        },
        {
          "start": "qs.dota.fun1.onCreate(Landroid/os/Bundle;)V",
          "target": "PC@3",
          "type": "activity",
          "component": "qs.dota.fun1"
        },
        {
          "start": "set.subway.city1.AdService.onCreate()V",
          "target": "PC@3",
          "type": "service",
          "component": "set.subway.city1.AdService"
        },
        {
          "start": "qs.dota.ui.c.onClick(Landroid/view/View;)V",
          "target": "invokeinterface \u003c Application, Lorg/apache/http/client/HttpClient, execute(Lorg/apache/http/client/methods/HttpUriRequest;)Lorg/apache/http/HttpResponse; \u003e@136",
          "type": "ui",
          "activities": [
            "set.subway.city1.App"
          ],
          "listener": "qs.dota.ui.c",
          "listenerMethod": "onClick",
          "uiType": "onClick",
          "constraintsFile": "constraints17_0.py",
          "variables": {
            "\u003cChainedInput1\u003e.getTag().intValue()": "IAAv1"
          },
          "stringMap": {
            "7000": ""
          },
          "strings": {
            "IAAv14": ""
          }
        }
      ]
    },
    "18": {
      "startMethod": "qs.dota.ui.c.onClick(Landroid/view/View;)V",
      "targetMethod": "org.apache.http.client.HttpClient.execute(Lorg/apache/http/client/methods/HttpUriRequest;)Lorg/apache/http/HttpResponse;",
      "eventChain": [
        {
          "start": "qs.dota.fun1.onCreate(Landroid/os/Bundle;)V",
          "target": "invokevirtual \u003c Application, Landroid/widget/LinearLayout, setOnClickListener(Landroid/view/View$OnClickListener;)V \u003e@1027",
          "type": "activity",
          "component": "qs.dota.fun1"
        },
        {
          "start": "set.subway.city1.AdService.onCreate()V",
          "target": "PC@71",
          "type": "service",
          "component": "set.subway.city1.AdService"
        },
        {
          "start": "set.subway.city1.AdService.onCreate()V",
          "target": "",
          "type": "service",
          "component": "set.subway.city1.AdService"
        },
        {
          "start": "qs.dota.fun1.onCreate(Landroid/os/Bundle;)V",
          "target": "PC@3",
          "type": "activity",
          "component": "qs.dota.fun1"
        },
        {
          "start": "set.subway.city1.AdService.onCreate()V",
          "target": "PC@3",
          "type": "service",
          "component": "set.subway.city1.AdService"
        },
        {
          "start": "qs.dota.ui.c.onClick(Landroid/view/View;)V",
          "target": "invokeinterface \u003c Application, Lorg/apache/http/client/HttpClient, execute(Lorg/apache/http/client/methods/HttpUriRequest;)Lorg/apache/http/HttpResponse; \u003e@92",
          "type": "ui",
          "activities": [
            "set.subway.city1.App"
          ],
          "listener": "qs.dota.ui.c",
          "listenerMethod": "onClick",
          "uiType": "onClick",
          "constraintsFile": "constraints18_0.py",
          "variables": {
            "\u003cChainedInput1\u003e.getTag().intValue()": "IAAv1"
          },
          "stringMap": {
            "7000": ""
          },
          "strings": {
            "IAAv14": "",
            "IAAv16": ""
          }
        }
      ]
    },
    "19": {
      "startMethod": "qs.dota.ui.c.onClick(Landroid/view/View;)V",
      "targetMethod": "org.apache.http.client.HttpClient.execute(Lorg/apache/http/client/methods/HttpUriRequest;)Lorg/apache/http/HttpResponse;",
      "eventChain": [
        {
          "start": "qs.dota.fun1.onCreate(Landroid/os/Bundle;)V",
          "target": "invokevirtual \u003c Application, Landroid/widget/LinearLayout, setOnClickListener(Landroid/view/View$OnClickListener;)V \u003e@1027",
          "type": "activity",
          "component": "qs.dota.fun1"
        },
        {
          "start": "qs.dota.fun1.onCreate(Landroid/os/Bundle;)V",
          "target": "PC@3",
          "type": "activity",
          "component": "qs.dota.fun1"
        },
        {
          "start": "qs.dota.ui.c.onClick(Landroid/view/View;)V",
          "target": "invokeinterface \u003c Application, Lorg/apache/http/client/HttpClient, execute(Lorg/apache/http/client/methods/HttpUriRequest;)Lorg/apache/http/HttpResponse; \u003e@404",
          "type": "ui",
          "activities": [
            "set.subway.city1.App"
          ],
          "listener": "qs.dota.ui.c",
          "listenerMethod": "onClick",
          "uiType": "onClick",
          "constraintsFile": "constraints19_0.py",
          "variables": {
            "\u003cChainedInput1\u003e.getTag().intValue()": "IAAv1"
          },
          "stringMap": {},
          "strings": {}
        }
      ]
    },
    "20": {
      "startMethod": "qs.dota.ui.aa.onClick(Landroid/view/View;)V",
      "targetMethod": "org.apache.http.client.HttpClient.execute(Lorg/apache/http/client/methods/HttpUriRequest;)Lorg/apache/http/HttpResponse;",
      "eventChain": [
        {
          "start": "set.subway.city1.AdService.onCreate()V",
          "target": "PC@71",
          "type": "service",
          "component": "set.subway.city1.AdService"
        },
        {
          "start": "set.subway.city1.AdService.onCreate()V",
          "target": "",
          "type": "service",
          "component": "set.subway.city1.AdService"
        },
        {
          "start": "set.subway.city1.AdService.onCreate()V",
          "target": "PC@3",
          "type": "service",
          "component": "set.subway.city1.AdService"
        },
        {
          "start": "qs.dota.ui.aa.onClick(Landroid/view/View;)V",
          "target": "invokeinterface \u003c Application, Lorg/apache/http/client/HttpClient, execute(Lorg/apache/http/client/methods/HttpUriRequest;)Lorg/apache/http/HttpResponse; \u003e@92",
          "type": "ui",
          "activities": [
            "set.subway.city1.App"
          ],
          "listener": "qs.dota.ui.aa",
          "listenerMethod": "onClick",
          "uiType": "onClick",
          "constraintsFile": "constraints20_0.py",
          "variables": {},
          "stringMap": {
            "7000": ""
          },
          "strings": {
            "IAAv12": "",
            "IAAv14": ""
          }
        }
      ]
    },
    "21": {
      "startMethod": "qs.dota.ui.aa.onClick(Landroid/view/View;)V",
      "targetMethod": "org.apache.http.client.HttpClient.execute(Lorg/apache/http/client/methods/HttpUriRequest;)Lorg/apache/http/HttpResponse;",
      "eventChain": [
        {
          "start": "qs.dota.ui.aa.onClick(Landroid/view/View;)V",
          "target": "invokeinterface \u003c Application, Lorg/apache/http/client/HttpClient, execute(Lorg/apache/http/client/methods/HttpUriRequest;)Lorg/apache/http/HttpResponse; \u003e@404",
          "type": "ui",
          "activities": [
            "set.subway.city1.App"
          ],
          "listener": "qs.dota.ui.aa",
          "listenerMethod": "onClick",
          "uiType": "onClick",
          "constraintsFile": "constraints21_0.py",
          "variables": {},
          "stringMap": {},
          "strings": {}
        }
      ]
    },
    "22": {
      "startMethod": "qs.dota.ui.aa.onClick(Landroid/view/View;)V",
      "targetMethod": "org.apache.http.client.HttpClient.execute(Lorg/apache/http/client/methods/HttpUriRequest;)Lorg/apache/http/HttpResponse;",
      "eventChain": [
        {
          "start": "set.subway.city1.AdService.onCreate()V",
          "target": "PC@71",
          "type": "service",
          "component": "set.subway.city1.AdService"
        },
        {
          "start": "set.subway.city1.AdService.onCreate()V",
          "target": "",
          "type": "service",
          "component": "set.subway.city1.AdService"
        },
        {
          "start": "set.subway.city1.AdService.onCreate()V",
          "target": "PC@3",
          "type": "service",
          "component": "set.subway.city1.AdService"
        },
        {
          "start": "qs.dota.ui.aa.onClick(Landroid/view/View;)V",
          "target": "invokeinterface \u003c Application, Lorg/apache/http/client/HttpClient, execute(Lorg/apache/http/client/methods/HttpUriRequest;)Lorg/apache/http/HttpResponse; \u003e@136",
          "type": "ui",
          "activities": [
            "set.subway.city1.App"
          ],
          "listener": "qs.dota.ui.aa",
          "listenerMethod": "onClick",
          "uiType": "onClick",
          "constraintsFile": "constraints22_0.py",
          "variables": {},
          "stringMap": {
            "7000": ""
          },
          "strings": {
            "IAAv12": ""
          }
        }
      ]
    },
    "23": {
      "startMethod": "soho.sack.ui.l.onClick(Landroid/view/View;)V",
      "targetMethod": "org.apache.http.client.HttpClient.execute(Lorg/apache/http/client/methods/HttpUriRequest;)Lorg/apache/http/HttpResponse;",
      "eventChain": [
        {
          "start": "soho.sack.cring1.onCreate(Landroid/os/Bundle;)V",
          "target": "invokevirtual \u003c Application, Landroid/widget/Button, setOnClickListener(Landroid/view/View$OnClickListener;)V \u003e@588",
          "type": "activity",
          "component": "soho.sack.cring1",
          "constraintsFile": "constraints23_0.py",
          "variables": {},
          "stringMap": {},
          "strings": {}
        },
        {
          "start": "soho.sack.ui.l.onClick(Landroid/view/View;)V",
          "target": "invokeinterface \u003c Application, Lorg/apache/http/client/HttpClient, execute(Lorg/apache/http/client/methods/HttpUriRequest;)Lorg/apache/http/HttpResponse; \u003e@404",
          "type": "ui",
          "activities": [
            "set.subway.city1.App"
          ],
          "listener": "soho.sack.ui.l",
          "listenerMethod": "onClick",
          "uiType": "onClick",
          "constraintsFile": "constraints23_1.py",
          "variables": {},
          "stringMap": {
            "7000": "wifi"
          },
          "strings": {
            "IAAv2": ""
          }
        }
      ]
    },
    "24": {
      "startMethod": "soho.sack.b.b.onClick(Landroid/view/View;)V",
      "targetMethod": "org.apache.http.client.HttpClient.execute(Lorg/apache/http/client/methods/HttpUriRequest;)Lorg/apache/http/HttpResponse;",
      "eventChain": [
        {
          "start": "soho.sack.b.b.onClick(Landroid/view/View;)V",
          "target": "invokeinterface \u003c Application, Lorg/apache/http/client/HttpClient, execute(Lorg/apache/http/client/methods/HttpUriRequest;)Lorg/apache/http/HttpResponse; \u003e@404",
          "type": "ui",
          "activities": [
            "set.subway.city1.App"
          ],
          "listener": "soho.sack.b.b",
          "listenerMethod": "onClick",
          "uiType": "onClick"
        }
      ]
    },
    "25": {
      "startMethod": "qs.dota.ui.al.onClick(Landroid/view/View;)V",
      "targetMethod": "org.apache.http.client.HttpClient.execute(Lorg/apache/http/client/methods/HttpUriRequest;)Lorg/apache/http/HttpResponse;",
      "eventChain": [
        {
          "start": "set.subway.city1.AdService.onCreate()V",
          "target": "invokevirtual \u003c Application, Landroid/widget/ImageView, setOnClickListener(Landroid/view/View$OnClickListener;)V \u003e@865",
          "type": "service",
          "component": "set.subway.city1.AdService"
        },
        {
          "start": "set.subway.city1.AdService.onCreate()V",
          "target": "PC@3",
          "type": "service",
          "component": "set.subway.city1.AdService"
        },
        {
          "start": "set.subway.city1.AdService.onCreate()V",
          "target": "PC@113",
          "type": "service",
          "component": "set.subway.city1.AdService"
        },
        {
          "start": "qs.dota.ui.al.onClick(Landroid/view/View;)V",
          "target": "invokeinterface \u003c Application, Lorg/apache/http/client/HttpClient, execute(Lorg/apache/http/client/methods/HttpUriRequest;)Lorg/apache/http/HttpResponse; \u003e@404",
          "type": "ui",
          "activities": [
            "set.subway.city1.App"
          ],
          "listener": "qs.dota.ui.al",
          "listenerMethod": "onClick",
          "uiType": "onClick",
          "constraintsFile": "constraints25_0.py",
          "variables": {
            "\u003cChainedInput1\u003e.getTag().intValue()": "IAAv1"
          },
          "stringMap": {},
          "strings": {}
        }
      ]
    },
    "26": {
      "startMethod": "qs.dota.ui.al.onClick(Landroid/view/View;)V",
      "targetMethod": "org.apache.http.client.HttpClient.execute(Lorg/apache/http/client/methods/HttpUriRequest;)Lorg/apache/http/HttpResponse;",
      "eventChain": [
        {
          "start": "set.subway.city1.AdService.onCreate()V",
          "target": "invokevirtual \u003c Application, Landroid/widget/ImageView, setOnClickListener(Landroid/view/View$OnClickListener;)V \u003e@865",
          "type": "service",
          "component": "set.subway.city1.AdService"
        },
        {
          "start": "set.subway.city1.AdService.onCreate()V",
          "target": "PC@71",
          "type": "service",
          "component": "set.subway.city1.AdService"
        },
        {
          "start": "set.subway.city1.AdService.onCreate()V",
          "target": "PC@3",
          "type": "service",
          "component": "set.subway.city1.AdService"
        },
        {
          "start": "set.subway.city1.AdService.onCreate()V",
          "target": "PC@3",
          "type": "service",
          "component": "set.subway.city1.AdService"
        },
        {
          "start": "qs.dota.ui.al.onClick(Landroid/view/View;)V",
          "target": "invokeinterface \u003c Application, Lorg/apache/http/client/HttpClient, execute(Lorg/apache/http/client/methods/HttpUriRequest;)Lorg/apache/http/HttpResponse; \u003e@92",
          "type": "ui",
          "activities": [
            "set.subway.city1.App"
          ],
          "listener": "qs.dota.ui.al",
          "listenerMethod": "onClick",
          "uiType": "onClick",
          "constraintsFile": "constraints26_0.py",
          "variables": {
            "\u003cChainedInput1\u003e.getTag().intValue()": "IAAv1"
          },
          "stringMap": {
            "7000": ""
          },
          "strings": {
            "IAAv14": "",
            "IAAv16": ""
          }
        }
      ]
    },
    "27": {
      "startMethod": "qs.dota.ui.al.onClick(Landroid/view/View;)V",
      "targetMethod": "org.apache.http.client.HttpClient.execute(Lorg/apache/http/client/methods/HttpUriRequest;)Lorg/apache/http/HttpResponse;",
      "eventChain": [
        {
          "start": "set.subway.city1.AdService.onCreate()V",
          "target": "invokevirtual \u003c Application, Landroid/widget/ImageView, setOnClickListener(Landroid/view/View$OnClickListener;)V \u003e@865",
          "type": "service",
          "component": "set.subway.city1.AdService"
        },
        {
          "start": "set.subway.city1.AdService.onCreate()V",
          "target": "PC@71",
          "type": "service",
          "component": "set.subway.city1.AdService"
        },
        {
          "start": "set.subway.city1.AdService.onCreate()V",
          "target": "PC@3",
          "type": "service",
          "component": "set.subway.city1.AdService"
        },
        {
          "start": "set.subway.city1.AdService.onCreate()V",
          "target": "PC@3",
          "type": "service",
          "component": "set.subway.city1.AdService"
        },
        {
          "start": "qs.dota.ui.al.onClick(Landroid/view/View;)V",
          "target": "invokeinterface \u003c Application, Lorg/apache/http/client/HttpClient, execute(Lorg/apache/http/client/methods/HttpUriRequest;)Lorg/apache/http/HttpResponse; \u003e@136",
          "type": "ui",
          "activities": [
            "set.subway.city1.App"
          ],
          "listener": "qs.dota.ui.al",
          "listenerMethod": "onClick",
          "uiType": "onClick",
          "constraintsFile": "constraints27_0.py",
          "variables": {
            "\u003cChainedInput1\u003e.getTag().intValue()": "IAAv1"
          },
          "stringMap": {
            "7000": ""
          },
          "strings": {
            "IAAv14": ""
          }
        }
      ]
    },
    "28": {
      "startMethod": "qs.dota.ui.q.onClick(Landroid/view/View;)V",
      "targetMethod": "org.apache.http.client.HttpClient.execute(Lorg/apache/http/client/methods/HttpUriRequest;)Lorg/apache/http/HttpResponse;",
      "eventChain": [
        {
          "start": "set.subway.city1.AdService.onCreate()V",
          "target": "invokevirtual \u003c Application, Landroid/view/View, setOnClickListener(Landroid/view/View$OnClickListener;)V \u003e@319",
          "type": "service",
          "component": "set.subway.city1.AdService"
        },
        {
          "start": "set.subway.city1.AdService.onCreate()V",
          "target": "PC@163",
          "type": "service",
          "component": "set.subway.city1.AdService"
        },
        {
          "start": "set.subway.city1.AdService.onCreate()V",
          "target": "PC@51",
          "type": "service",
          "component": "set.subway.city1.AdService"
        },
        {
          "start": "qs.dota.ui.q.onClick(Landroid/view/View;)V",
          "target": "invokeinterface \u003c Application, Lorg/apache/http/client/HttpClient, execute(Lorg/apache/http/client/methods/HttpUriRequest;)Lorg/apache/http/HttpResponse; \u003e@136",
          "type": "ui",
          "activities": [
            "set.subway.city1.App"
          ],
          "listener": "qs.dota.ui.q",
          "listenerMethod": "onClick",
          "uiType": "onClick",
          "constraintsFile": "constraints28_0.py",
          "variables": {
            "\u003cChainedInput1\u003e.getTag().intValue()": "IAAv0"
          },
          "stringMap": {},
          "strings": {}
        }
      ]
    },
    "29": {
      "startMethod": "soho.sack.b.e.onClick(Landroid/view/View;)V",
      "targetMethod": "org.apache.http.client.HttpClient.execute(Lorg/apache/http/client/methods/HttpUriRequest;)Lorg/apache/http/HttpResponse;",
      "eventChain": [
        {
          "start": "soho.sack.b.e.onClick(Landroid/view/View;)V",
          "target": "invokeinterface \u003c Application, Lorg/apache/http/client/HttpClient, execute(Lorg/apache/http/client/methods/HttpUriRequest;)Lorg/apache/http/HttpResponse; \u003e@404",
          "type": "ui",
          "activities": [
            "set.subway.city1.App"
          ],
          "listener": "soho.sack.b.e",
          "listenerMethod": "onClick",
          "uiType": "onClick",
          "constraintsFile": "constraints29_0.py",
          "variables": {},
          "stringMap": {},
          "strings": {}
        }
      ]
    },
    "30": {
      "startMethod": "qs.dota.t.onTouch(Landroid/view/View;Landroid/view/MotionEvent;)Z",
      "targetMethod": "org.apache.http.client.HttpClient.execute(Lorg/apache/http/client/methods/HttpUriRequest;)Lorg/apache/http/HttpResponse;",
      "eventChain": [
        {
          "start": "set.subway.city1.AdService.onCreate()V",
          "target": "invokevirtual \u003c Application, Lqs/dota/ui/ah, setOnTouchListener(Landroid/view/View$OnTouchListener;)V \u003e@440",
          "type": "service",
          "component": "set.subway.city1.AdService"
        },
        {
          "start": "qs.dota.t.onTouch(Landroid/view/View;Landroid/view/MotionEvent;)Z",
          "target": "invokeinterface \u003c Application, Lorg/apache/http/client/HttpClient, execute(Lorg/apache/http/client/methods/HttpUriRequest;)Lorg/apache/http/HttpResponse; \u003e@136",
          "type": "ui",
          "activities": [
            "set.subway.city1.App"
          ],
          "listener": "qs.dota.t",
          "listenerMethod": "onTouch",
          "uiType": "onTouch",
          "constraintsFile": "constraints30_0.py",
          "variables": {
            "\u003cChainedInput2\u003e.getAction()": "IAAv0"
          },
          "stringMap": {},
          "strings": {}
        }
      ]
    }
  }
}