{
  "packageName": "com.navsurf.hiit_free",
  "mainActivity": "com.navsurf.hiit_free.HiitListActivity",
  "callPaths": {
    "0": {
      "startMethod": "com.google.android.gms.maps.StreetViewPanoramaFragment.onCreate(Landroid/os/Bundle;)V",
      "targetMethod": "java.lang.ClassLoader.loadClass(Ljava/lang/String;)Ljava/lang/Class;",
      "eventChain": [
        {
          "start": "com.google.android.gms.maps.StreetViewPanoramaFragment.onCreate(Landroid/os/Bundle;)V",
          "target": "invokevirtual \u003c Application, Ljava/lang/ClassLoader, loadClass(Ljava/lang/String;)Ljava/lang/Class; \u003e@13",
          "type": "",
          "constraintsFile": "constraints0_0.py",
          "variables": {
            "\u003cChainedInput1\u003e": "IAAv2"
          },
          "stringMap": {},
          "strings": {}
        }
      ]
    },
    "1": {
      "startMethod": "com.google.android.gms.maps.StreetViewPanoramaFragment.onCreate(Landroid/os/Bundle;)V",
      "targetMethod": "java.lang.ClassLoader.loadClass(Ljava/lang/String;)Ljava/lang/Class;",
      "eventChain": [
        {
          "start": "com.google.android.gms.maps.StreetViewPanoramaFragment.onCreate(Landroid/os/Bundle;)V",
          "target": "PC@7",
          "type": "",
          "constraintsFile": "constraints1_0.py",
          "variables": {
            "\u003cChainedInput1\u003e": "IAAv2"
          },
          "stringMap": {},
          "strings": {}
        },
        {
          "start": "com.google.android.gms.maps.StreetViewPanoramaFragment.onCreate(Landroid/os/Bundle;)V",
          "target": "invokevirtual \u003c Application, Ljava/lang/ClassLoader, loadClass(Ljava/lang/String;)Ljava/lang/Class; \u003e@50",
          "type": "",
          "constraintsFile": "constraints1_1.py",
          "variables": {
            "\u003cChainedInput1\u003e": "IAAv2"
          },
          "stringMap": {},
          "strings": {}
        }
      ]
    },
    "2": {
      "startMethod": "com.google.android.gms.wallet.fragment.WalletFragment.onResume()V",
      "targetMethod": "java.lang.ClassLoader.loadClass(Ljava/lang/String;)Ljava/lang/Class;",
      "eventChain": [
        {
          "start": "com.google.android.gms.maps.StreetViewPanoramaFragment.onCreate(Landroid/os/Bundle;)V",
          "target": "PC@7",
          "type": "",
          "constraintsFile": "constraints2_0.py",
          "variables": {
            "\u003cChainedInput1\u003e": "IAAv2"
          },
          "stringMap": {},
          "strings": {}
        },
        {
          "start": "com.google.android.gms.wallet.fragment.WalletFragment.onResume()V",
          "target": "invokevirtual \u003c Application, Ljava/lang/ClassLoader, loadClass(Ljava/lang/String;)Ljava/lang/Class; \u003e@50",
          "type": "",
          "constraintsFile": "constraints2_1.py",
          "variables": {},
          "stringMap": {},
          "strings": {}
        }
      ]
    },
    "3": {
      "startMethod": "com.google.android.gms.wallet.fragment.WalletFragment.onResume()V",
      "targetMethod": "java.lang.ClassLoader.loadClass(Ljava/lang/String;)Ljava/lang/Class;",
      "eventChain": [
        {
          "start": "com.google.android.gms.wallet.fragment.WalletFragment.onResume()V",
          "target": "invokevirtual \u003c Application, Ljava/lang/ClassLoader, loadClass(Ljava/lang/String;)Ljava/lang/Class; \u003e@13",
          "type": "",
          "constraintsFile": "constraints3_0.py",
          "variables": {},
          "stringMap": {},
          "strings": {}
        }
      ]
    },
    "4": {
      "startMethod": "com.google.android.gms.maps.StreetViewPanoramaFragment.onAttach(Landroid/app/Activity;)V",
      "targetMethod": "java.lang.ClassLoader.loadClass(Ljava/lang/String;)Ljava/lang/Class;",
      "eventChain": [
        {
          "start": "com.google.android.gms.maps.StreetViewPanoramaFragment.onCreate(Landroid/os/Bundle;)V",
          "target": "",
          "type": "",
          "constraintsFile": "constraints4_0.py",
          "variables": {
            "\u003cChainedInput1\u003e": "IAAv6"
          },
          "stringMap": {},
          "strings": {}
        },
        {
          "start": "com.google.android.gms.maps.StreetViewPanoramaFragment.onAttach(Landroid/app/Activity;)V",
          "target": "invokevirtual \u003c Application, Ljava/lang/ClassLoader, loadClass(Ljava/lang/String;)Ljava/lang/Class; \u003e@13",
          "type": "",
          "constraintsFile": "constraints4_1.py",
          "variables": {},
          "stringMap": {},
          "strings": {}
        }
      ]
    },
    "5": {
      "startMethod": "com.google.android.gms.maps.MapFragment.onResume()V",
      "targetMethod": "java.lang.ClassLoader.loadClass(Ljava/lang/String;)Ljava/lang/Class;",
      "eventChain": [
        {
          "start": "com.google.android.gms.maps.MapFragment.onResume()V",
          "target": "invokevirtual \u003c Application, Ljava/lang/ClassLoader, loadClass(Ljava/lang/String;)Ljava/lang/Class; \u003e@13",
          "type": "",
          "constraintsFile": "constraints5_0.py",
          "variables": {},
          "stringMap": {},
          "strings": {}
        }
      ]
    },
    "6": {
      "startMethod": "com.google.android.gms.maps.MapFragment.onResume()V",
      "targetMethod": "java.lang.ClassLoader.loadClass(Ljava/lang/String;)Ljava/lang/Class;",
      "eventChain": [
        {
          "start": "com.google.android.gms.maps.StreetViewPanoramaFragment.onCreate(Landroid/os/Bundle;)V",
          "target": "PC@7",
          "type": "",
          "constraintsFile": "constraints6_0.py",
          "variables": {
            "\u003cChainedInput1\u003e": "IAAv2"
          },
          "stringMap": {},
          "strings": {}
        },
        {
          "start": "com.google.android.gms.maps.MapFragment.onResume()V",
          "target": "invokevirtual \u003c Application, Ljava/lang/ClassLoader, loadClass(Ljava/lang/String;)Ljava/lang/Class; \u003e@50",
          "type": "",
          "constraintsFile": "constraints6_1.py",
          "variables": {},
          "stringMap": {},
          "strings": {}
        }
      ]
    },
    "7": {
      "startMethod": "com.google.android.gms.maps.StreetViewPanoramaFragment.onCreateView(Landroid/view/LayoutInflater;Landroid/view/ViewGroup;Landroid/os/Bundle;)Landroid/view/View;",
      "targetMethod": "java.lang.ClassLoader.loadClass(Ljava/lang/String;)Ljava/lang/Class;",
      "eventChain": [
        {
          "start": "com.google.android.gms.maps.StreetViewPanoramaFragment.onCreateView(Landroid/view/LayoutInflater;Landroid/view/ViewGroup;Landroid/os/Bundle;)Landroid/view/View;",
          "target": "invokevirtual \u003c Application, Ljava/lang/ClassLoader, loadClass(Ljava/lang/String;)Ljava/lang/Class; \u003e@13",
          "type": "",
          "constraintsFile": "constraints7_0.py",
          "variables": {
            "\u003cChainedInput3\u003e": "IAAv2"
          },
          "stringMap": {},
          "strings": {}
        }
      ]
    },
    "8": {
      "startMethod": "com.google.android.gms.maps.StreetViewPanoramaFragment.onCreateView(Landroid/view/LayoutInflater;Landroid/view/ViewGroup;Landroid/os/Bundle;)Landroid/view/View;",
      "targetMethod": "java.lang.ClassLoader.loadClass(Ljava/lang/String;)Ljava/lang/Class;",
      "eventChain": [
        {
          "start": "com.google.android.gms.maps.StreetViewPanoramaFragment.onCreate(Landroid/os/Bundle;)V",
          "target": "PC@7",
          "type": "",
          "constraintsFile": "constraints8_0.py",
          "variables": {
            "\u003cChainedInput1\u003e": "IAAv2"
          },
          "stringMap": {},
          "strings": {}
        },
        {
          "start": "com.google.android.gms.maps.StreetViewPanoramaFragment.onCreateView(Landroid/view/LayoutInflater;Landroid/view/ViewGroup;Landroid/os/Bundle;)Landroid/view/View;",
          "target": "invokevirtual \u003c Application, Ljava/lang/ClassLoader, loadClass(Ljava/lang/String;)Ljava/lang/Class; \u003e@50",
          "type": "",
          "constraintsFile": "constraints8_1.py",
          "variables": {
            "\u003cChainedInput3\u003e": "IAAv2"
          },
          "stringMap": {},
          "strings": {}
        }
      ]
    },
    "9": {
      "startMethod": "com.google.android.gms.maps.MapFragment.onCreate(Landroid/os/Bundle;)V",
      "targetMethod": "java.lang.ClassLoader.loadClass(Ljava/lang/String;)Ljava/lang/Class;",
      "eventChain": [
        {
          "start": "com.google.android.gms.maps.MapFragment.onCreate(Landroid/os/Bundle;)V",
          "target": "invokevirtual \u003c Application, Ljava/lang/ClassLoader, loadClass(Ljava/lang/String;)Ljava/lang/Class; \u003e@13",
          "type": "",
          "constraintsFile": "constraints9_0.py",
          "variables": {
            "\u003cChainedInput1\u003e": "IAAv2"
          },
          "stringMap": {},
          "strings": {}
        }
      ]
    },
    "10": {
      "startMethod": "com.google.android.gms.maps.MapFragment.onCreate(Landroid/os/Bundle;)V",
      "targetMethod": "java.lang.ClassLoader.loadClass(Ljava/lang/String;)Ljava/lang/Class;",
      "eventChain": [
        {
          "start": "com.google.android.gms.maps.StreetViewPanoramaFragment.onCreate(Landroid/os/Bundle;)V",
          "target": "PC@7",
          "type": "",
          "constraintsFile": "constraints10_0.py",
          "variables": {
            "\u003cChainedInput1\u003e": "IAAv2"
          },
          "stringMap": {},
          "strings": {}
        },
        {
          "start": "com.google.android.gms.maps.MapFragment.onCreate(Landroid/os/Bundle;)V",
          "target": "invokevirtual \u003c Application, Ljava/lang/ClassLoader, loadClass(Ljava/lang/String;)Ljava/lang/Class; \u003e@50",
          "type": "",
          "constraintsFile": "constraints10_1.py",
          "variables": {
            "\u003cChainedInput1\u003e": "IAAv2"
          },
          "stringMap": {},
          "strings": {}
        }
      ]
    },
    "11": {
      "startMethod": "com.google.android.gms.ads.AdActivity.onCreate(Landroid/os/Bundle;)V",
      "targetMethod": "java.lang.ClassLoader.loadClass(Ljava/lang/String;)Ljava/lang/Class;",
      "eventChain": [
        {
          "start": "com.google.android.gms.ads.AdActivity.onCreate(Landroid/os/Bundle;)V",
          "target": "invokevirtual \u003c Application, Ljava/lang/ClassLoader, loadClass(Ljava/lang/String;)Ljava/lang/Class; \u003e@50",
          "type": "activity",
          "component": "com.google.android.gms.ads.AdActivity"
        }
      ]
    },
    "12": {
      "startMethod": "com.google.android.gms.wallet.fragment.WalletFragment.onCreate(Landroid/os/Bundle;)V",
      "targetMethod": "java.lang.ClassLoader.loadClass(Ljava/lang/String;)Ljava/lang/Class;",
      "eventChain": [
        {
          "start": "com.google.android.gms.wallet.fragment.WalletFragment.onCreate(Landroid/os/Bundle;)V",
          "target": "PC@122",
          "type": "",
          "constraintsFile": "constraints12_0.py",
          "variables": {
            "\u003cChainedInput1\u003e": "IAAv0",
            "\u003cChainedInput1\u003e.containsKey()": "IAAv5",
            "\u003cChainedInput1\u003e.setClassLoader().aak": "IAAv14",
            "\u003cChainedInput1\u003e.getParcelable()": "IAAv1",
            "\u003cInput1\u003e.getParcelable()": "IAAv15"
          },
          "stringMap": {},
          "strings": {}
        },
        {
          "start": "com.google.android.gms.wallet.fragment.WalletFragment.onCreate(Landroid/os/Bundle;)V",
          "target": "PC@94",
          "type": "",
          "constraintsFile": "constraints12_1.py",
          "variables": {
            "\u003cChainedInput1\u003e": "IAAv0",
            "\u003cChainedInput1\u003e.containsKey()": "IAAv5",
            "\u003cChainedInput1\u003e.setClassLoader().aak": "IAAv14",
            "\u003cChainedInput1\u003e.getParcelable()": "IAAv1",
            "\u003cInput1\u003e.getParcelable()": "IAAv15"
          },
          "stringMap": {},
          "strings": {}
        },
        {
          "start": "com.google.android.gms.wallet.fragment.WalletFragment.onCreate(Landroid/os/Bundle;)V",
          "target": "PC@66",
          "type": "",
          "constraintsFile": "constraints12_2.py",
          "variables": {
            "\u003cChainedInput1\u003e": "IAAv0",
            "\u003cChainedInput1\u003e.containsKey()": "IAAv5",
            "\u003cChainedInput1\u003e.setClassLoader().aak": "IAAv14",
            "\u003cChainedInput1\u003e.getParcelable()": "IAAv1",
            "\u003cInput1\u003e.getParcelable()": "IAAv15"
          },
          "stringMap": {},
          "strings": {}
        },
        {
          "start": "com.google.android.gms.wallet.fragment.WalletFragment.onCreate(Landroid/os/Bundle;)V",
          "target": "invokevirtual \u003c Application, Ljava/lang/ClassLoader, loadClass(Ljava/lang/String;)Ljava/lang/Class; \u003e@13",
          "type": "",
          "constraintsFile": "constraints12_3.py",
          "variables": {
            "\u003cChainedInput1\u003e": "IAAv0",
            "\u003cChainedInput1\u003e.containsKey()": "IAAv5",
            "\u003cChainedInput1\u003e.setClassLoader().aak": "IAAv14",
            "\u003cChainedInput1\u003e.getParcelable()": "IAAv1"
          },
          "stringMap": {},
          "strings": {}
        }
      ]
    },
    "13": {
      "startMethod": "com.google.android.gms.wallet.fragment.WalletFragment.onCreate(Landroid/os/Bundle;)V",
      "targetMethod": "java.lang.ClassLoader.loadClass(Ljava/lang/String;)Ljava/lang/Class;",
      "eventChain": [
        {
          "start": "com.google.android.gms.wallet.fragment.WalletFragment.onCreate(Landroid/os/Bundle;)V",
          "target": "PC@122",
          "type": "",
          "constraintsFile": "constraints13_0.py",
          "variables": {
            "\u003cChainedInput1\u003e": "IAAv0",
            "\u003cChainedInput1\u003e.containsKey()": "IAAv5",
            "\u003cChainedInput1\u003e.getParcelable()": "IAAv1",
            "\u003cInput1\u003e.getParcelable()": "IAAv17"
          },
          "stringMap": {},
          "strings": {}
        },
        {
          "start": "com.google.android.gms.maps.StreetViewPanoramaFragment.onCreate(Landroid/os/Bundle;)V",
          "target": "PC@7",
          "type": "",
          "constraintsFile": "constraints13_1.py",
          "variables": {
            "\u003cChainedInput1\u003e": "IAAv2"
          },
          "stringMap": {},
          "strings": {}
        },
        {
          "start": "com.google.android.gms.wallet.fragment.WalletFragment.onCreate(Landroid/os/Bundle;)V",
          "target": "PC@94",
          "type": "",
          "constraintsFile": "constraints13_2.py",
          "variables": {
            "\u003cChainedInput1\u003e": "IAAv0",
            "\u003cChainedInput1\u003e.containsKey()": "IAAv5",
            "\u003cChainedInput1\u003e.getParcelable()": "IAAv1",
            "\u003cInput1\u003e.getParcelable()": "IAAv17"
          },
          "stringMap": {},
          "strings": {}
        },
        {
          "start": "com.google.android.gms.wallet.fragment.WalletFragment.onCreate(Landroid/os/Bundle;)V",
          "target": "PC@66",
          "type": "",
          "constraintsFile": "constraints13_3.py",
          "variables": {
            "\u003cChainedInput1\u003e": "IAAv0",
            "\u003cChainedInput1\u003e.containsKey()": "IAAv5",
            "\u003cChainedInput1\u003e.getParcelable()": "IAAv1",
            "\u003cInput1\u003e.getParcelable()": "IAAv17"
          },
          "stringMap": {},
          "strings": {}
        },
        {
          "start": "com.google.android.gms.wallet.fragment.WalletFragment.onCreate(Landroid/os/Bundle;)V",
          "target": "invokevirtual \u003c Application, Ljava/lang/ClassLoader, loadClass(Ljava/lang/String;)Ljava/lang/Class; \u003e@50",
          "type": "",
          "constraintsFile": "constraints13_4.py",
          "variables": {
            "\u003cChainedInput1\u003e": "IAAv0",
            "\u003cChainedInput1\u003e.containsKey()": "IAAv5",
            "\u003cChainedInput1\u003e.getParcelable()": "IAAv1"
          },
          "stringMap": {},
          "strings": {}
        }
      ]
    },
    "14": {
      "startMethod": "com.google.android.gms.maps.MapFragment.onAttach(Landroid/app/Activity;)V",
      "targetMethod": "java.lang.ClassLoader.loadClass(Ljava/lang/String;)Ljava/lang/Class;",
      "eventChain": [
        {
          "start": "com.google.android.gms.maps.StreetViewPanoramaFragment.onCreate(Landroid/os/Bundle;)V",
          "target": "",
          "type": "",
          "constraintsFile": "constraints14_0.py",
          "variables": {
            "\u003cChainedInput1\u003e": "IAAv6"
          },
          "stringMap": {},
          "strings": {}
        },
        {
          "start": "com.google.android.gms.maps.MapFragment.onAttach(Landroid/app/Activity;)V",
          "target": "invokevirtual \u003c Application, Ljava/lang/ClassLoader, loadClass(Ljava/lang/String;)Ljava/lang/Class; \u003e@13",
          "type": "",
          "constraintsFile": "constraints14_1.py",
          "variables": {},
          "stringMap": {},
          "strings": {}
        }
      ]
    },
    "15": {
      "startMethod": "com.google.android.gms.wallet.fragment.WalletFragment.onCreateView(Landroid/view/LayoutInflater;Landroid/view/ViewGroup;Landroid/os/Bundle;)Landroid/view/View;",
      "targetMethod": "java.lang.ClassLoader.loadClass(Ljava/lang/String;)Ljava/lang/Class;",
      "eventChain": [
        {
          "start": "com.google.android.gms.wallet.fragment.WalletFragment.onCreateView(Landroid/view/LayoutInflater;Landroid/view/ViewGroup;Landroid/os/Bundle;)Landroid/view/View;",
          "target": "invokevirtual \u003c Application, Ljava/lang/ClassLoader, loadClass(Ljava/lang/String;)Ljava/lang/Class; \u003e@13",
          "type": "",
          "constraintsFile": "constraints15_0.py",
          "variables": {
            "\u003cChainedInput3\u003e": "IAAv2"
          },
          "stringMap": {},
          "strings": {}
        }
      ]
    },
    "16": {
      "startMethod": "com.google.android.gms.wallet.fragment.WalletFragment.onCreateView(Landroid/view/LayoutInflater;Landroid/view/ViewGroup;Landroid/os/Bundle;)Landroid/view/View;",
      "targetMethod": "java.lang.ClassLoader.loadClass(Ljava/lang/String;)Ljava/lang/Class;",
      "eventChain": [
        {
          "start": "com.google.android.gms.maps.StreetViewPanoramaFragment.onCreate(Landroid/os/Bundle;)V",
          "target": "PC@7",
          "type": "",
          "constraintsFile": "constraints16_0.py",
          "variables": {
            "\u003cChainedInput1\u003e": "IAAv2"
          },
          "stringMap": {},
          "strings": {}
        },
        {
          "start": "com.google.android.gms.wallet.fragment.WalletFragment.onCreateView(Landroid/view/LayoutInflater;Landroid/view/ViewGroup;Landroid/os/Bundle;)Landroid/view/View;",
          "target": "invokevirtual \u003c Application, Ljava/lang/ClassLoader, loadClass(Ljava/lang/String;)Ljava/lang/Class; \u003e@50",
          "type": "",
          "constraintsFile": "constraints16_1.py",
          "variables": {
            "\u003cChainedInput3\u003e": "IAAv2"
          },
          "stringMap": {},
          "strings": {}
        }
      ]
    },
    "17": {
      "startMethod": "com.google.android.gms.wallet.fragment.WalletFragment.onStart()V",
      "targetMethod": "java.lang.ClassLoader.loadClass(Ljava/lang/String;)Ljava/lang/Class;",
      "eventChain": [
        {
          "start": "com.google.android.gms.maps.StreetViewPanoramaFragment.onCreate(Landroid/os/Bundle;)V",
          "target": "PC@7",
          "type": "",
          "constraintsFile": "constraints17_0.py",
          "variables": {
            "\u003cChainedInput1\u003e": "IAAv2"
          },
          "stringMap": {},
          "strings": {}
        },
        {
          "start": "com.google.android.gms.wallet.fragment.WalletFragment.onStart()V",
          "target": "invokevirtual \u003c Application, Ljava/lang/ClassLoader, loadClass(Ljava/lang/String;)Ljava/lang/Class; \u003e@50",
          "type": "",
          "constraintsFile": "constraints17_1.py",
          "variables": {},
          "stringMap": {},
          "strings": {}
        }
      ]
    },
    "18": {
      "startMethod": "com.google.android.gms.wallet.fragment.WalletFragment.onStart()V",
      "targetMethod": "java.lang.ClassLoader.loadClass(Ljava/lang/String;)Ljava/lang/Class;",
      "eventChain": [
        {
          "start": "com.google.android.gms.wallet.fragment.WalletFragment.onStart()V",
          "target": "invokevirtual \u003c Application, Ljava/lang/ClassLoader, loadClass(Ljava/lang/String;)Ljava/lang/Class; \u003e@13",
          "type": "",
          "constraintsFile": "constraints18_0.py",
          "variables": {},
          "stringMap": {},
          "strings": {}
        }
      ]
    },
    "19": {
      "startMethod": "com.google.android.gms.maps.MapFragment.onCreateView(Landroid/view/LayoutInflater;Landroid/view/ViewGroup;Landroid/os/Bundle;)Landroid/view/View;",
      "targetMethod": "java.lang.ClassLoader.loadClass(Ljava/lang/String;)Ljava/lang/Class;",
      "eventChain": [
        {
          "start": "com.google.android.gms.maps.MapFragment.onCreateView(Landroid/view/LayoutInflater;Landroid/view/ViewGroup;Landroid/os/Bundle;)Landroid/view/View;",
          "target": "invokevirtual \u003c Application, Ljava/lang/ClassLoader, loadClass(Ljava/lang/String;)Ljava/lang/Class; \u003e@13",
          "type": "",
          "constraintsFile": "constraints19_0.py",
          "variables": {
            "\u003cChainedInput3\u003e": "IAAv2"
          },
          "stringMap": {},
          "strings": {}
        }
      ]
    },
    "20": {
      "startMethod": "com.google.android.gms.maps.MapFragment.onCreateView(Landroid/view/LayoutInflater;Landroid/view/ViewGroup;Landroid/os/Bundle;)Landroid/view/View;",
      "targetMethod": "java.lang.ClassLoader.loadClass(Ljava/lang/String;)Ljava/lang/Class;",
      "eventChain": [
        {
          "start": "com.google.android.gms.maps.StreetViewPanoramaFragment.onCreate(Landroid/os/Bundle;)V",
          "target": "PC@7",
          "type": "",
          "constraintsFile": "constraints20_0.py",
          "variables": {
            "\u003cChainedInput1\u003e": "IAAv2"
          },
          "stringMap": {},
          "strings": {}
        },
        {
          "start": "com.google.android.gms.maps.MapFragment.onCreateView(Landroid/view/LayoutInflater;Landroid/view/ViewGroup;Landroid/os/Bundle;)Landroid/view/View;",
          "target": "invokevirtual \u003c Application, Ljava/lang/ClassLoader, loadClass(Ljava/lang/String;)Ljava/lang/Class; \u003e@50",
          "type": "",
          "constraintsFile": "constraints20_1.py",
          "variables": {
            "\u003cChainedInput3\u003e": "IAAv2"
          },
          "stringMap": {},
          "strings": {}
        }
      ]
    },
    "21": {
      "startMethod": "com.google.android.gms.maps.StreetViewPanoramaFragment.onResume()V",
      "targetMethod": "java.lang.ClassLoader.loadClass(Ljava/lang/String;)Ljava/lang/Class;",
      "eventChain": [
        {
          "start": "com.google.android.gms.maps.StreetViewPanoramaFragment.onCreate(Landroid/os/Bundle;)V",
          "target": "PC@7",
          "type": "",
          "constraintsFile": "constraints21_0.py",
          "variables": {
            "\u003cChainedInput1\u003e": "IAAv2"
          },
          "stringMap": {},
          "strings": {}
        },
        {
          "start": "com.google.android.gms.maps.StreetViewPanoramaFragment.onResume()V",
          "target": "invokevirtual \u003c Application, Ljava/lang/ClassLoader, loadClass(Ljava/lang/String;)Ljava/lang/Class; \u003e@50",
          "type": "",
          "constraintsFile": "constraints21_1.py",
          "variables": {},
          "stringMap": {},
          "strings": {}
        }
      ]
    },
    "22": {
      "startMethod": "com.google.android.gms.maps.StreetViewPanoramaFragment.onResume()V",
      "targetMethod": "java.lang.ClassLoader.loadClass(Ljava/lang/String;)Ljava/lang/Class;",
      "eventChain": [
        {
          "start": "com.google.android.gms.maps.StreetViewPanoramaFragment.onResume()V",
          "target": "invokevirtual \u003c Application, Ljava/lang/ClassLoader, loadClass(Ljava/lang/String;)Ljava/lang/Class; \u003e@13",
          "type": "",
          "constraintsFile": "constraints22_0.py",
          "variables": {},
          "stringMap": {},
          "strings": {}
        }
      ]
    }
  }
}