{
  "packageName": "com.x25.cn.MagicDrum",
  "mainActivity": "com.x25.cn.MagicDrum.MagicDrum",
  "callPaths": {
    "0": {
      "startMethod": "com.x25.cn.MagicDrum.MagicDrum.onCreate(Landroid/os/Bundle;)V",
      "targetMethod": "java.net.URL.openConnection(Ljava/net/Proxy;)Ljava/net/URLConnection;",
      "eventChain": [
        {
          "start": "com.x25.cn.MagicDrum.MagicDrum.onCreate(Landroid/os/Bundle;)V",
          "target": "invokevirtual \u003c Application, Ljava/net/URL, openConnection(Ljava/net/Proxy;)Ljava/net/URLConnection; \u003e@906",
          "type": "activity",
          "component": "com.x25.cn.MagicDrum.MagicDrum",
          "constraintsFile": "constraints0_0.py",
          "variables": {},
          "stringMap": {
            "7000": "\u003cUI\u003e"
          },
          "strings": {
            "IAAv3": "",
            "IAAv2": ""
          }
        }
      ]
    },
    "1": {
      "startMethod": "com.x25.cn.MagicDrum.MagicDrum.onCreate(Landroid/os/Bundle;)V",
      "targetMethod": "java.net.URL.openConnection()Ljava/net/URLConnection;",
      "eventChain": [
        {
          "start": "com.x25.cn.MagicDrum.MagicDrum.onCreate(Landroid/os/Bundle;)V",
          "target": "invokevirtual \u003c Application, Ljava/net/URL, openConnection()Ljava/net/URLConnection; \u003e@703",
          "type": "activity",
          "component": "com.x25.cn.MagicDrum.MagicDrum",
          "constraintsFile": "constraints1_0.py",
          "variables": {},
          "stringMap": {
            "7000": "\u003cUI\u003e"
          },
          "strings": {
            "IAAv3": "",
            "IAAv2": ""
          }
        }
      ]
    },
    "2": {
      "startMethod": "com.x25.cn.MagicDrum.MagicDrum.onCreate(Landroid/os/Bundle;)V",
      "targetMethod": "java.net.URL.openConnection()Ljava/net/URLConnection;",
      "eventChain": [
        {
          "start": "com.x25.cn.MagicDrum.MagicDrum.onCreate(Landroid/os/Bundle;)V",
          "target": "invokevirtual \u003c Application, Ljava/net/URL, openConnection()Ljava/net/URLConnection; \u003e@529",
          "type": "activity",
          "component": "com.x25.cn.MagicDrum.MagicDrum",
          "constraintsFile": "constraints2_0.py",
          "variables": {},
          "stringMap": {
            "7000": "\u003cUI\u003e"
          },
          "strings": {
            "IAAv3": "",
            "IAAv2": ""
          }
        }
      ]
    },
    "3": {
      "startMethod": "com.x25.cn.MagicDrum.MagicDrum.onCreate(Landroid/os/Bundle;)V",
      "targetMethod": "java.net.URL.openConnection()Ljava/net/URLConnection;",
      "eventChain": [
        {
          "start": "com.x25.cn.MagicDrum.MagicDrum.onCreate(Landroid/os/Bundle;)V",
          "target": "invokevirtual \u003c Application, Ljava/net/URL, openConnection()Ljava/net/URLConnection; \u003e@13",
          "type": "activity",
          "component": "com.x25.cn.MagicDrum.MagicDrum",
          "constraintsFile": "constraints3_0.py",
          "variables": {},
          "stringMap": {
            "7000": "\u003cUI\u003e"
          },
          "strings": {}
        }
      ]
    },
    "4": {
      "startMethod": "com.x25.cn.MagicDrum.MagicDrum.onCreate(Landroid/os/Bundle;)V",
      "targetMethod": "java.net.URL.openConnection()Ljava/net/URLConnection;",
      "eventChain": [
        {
          "start": "com.x25.cn.MagicDrum.MagicDrum.onCreate(Landroid/os/Bundle;)V",
          "target": "PC@64",
          "type": "activity",
          "component": "com.x25.cn.MagicDrum.MagicDrum",
          "constraintsFile": "constraints4_0.py",
          "variables": {},
          "stringMap": {
            "7000": "\u003cUI\u003e"
          },
          "strings": {}
        },
        {
          "start": "com.x25.cn.MagicDrum.MagicDrum.onCreate(Landroid/os/Bundle;)V",
          "target": "invokevirtual \u003c Application, Ljava/net/URL, openConnection()Ljava/net/URLConnection; \u003e@53",
          "type": "activity",
          "component": "com.x25.cn.MagicDrum.MagicDrum",
          "constraintsFile": "constraints4_1.py",
          "variables": {},
          "stringMap": {
            "7000": "\u003cUI\u003e"
          },
          "strings": {}
        }
      ]
    },
    "5": {
      "startMethod": "com.wooboo.adlib_android.a.onKeyUp(ILandroid/view/KeyEvent;)Z",
      "targetMethod": "java.net.URL.openConnection(Ljava/net/Proxy;)Ljava/net/URLConnection;",
      "eventChain": [
        {
          "start": "com.wooboo.adlib_android.a.onKeyUp(ILandroid/view/KeyEvent;)Z",
          "target": "invokevirtual \u003c Application, Ljava/net/URL, openConnection(Ljava/net/Proxy;)Ljava/net/URLConnection; \u003e@512",
          "type": "ui",
          "activities": [
            "com.x25.cn.MagicDrum.MagicDrum"
          ],
          "listener": "com.wooboo.adlib_android.a",
          "listenerMethod": "onKeyUp",
          "uiType": "onKeyUp",
          "constraintsFile": "constraints5_0.py",
          "variables": {
            "\u003cInput1\u003e": "IAAv0"
          },
          "stringMap": {},
          "strings": {}
        }
      ]
    },
    "6": {
      "startMethod": "com.wooboo.adlib_android.a.onKeyUp(ILandroid/view/KeyEvent;)Z",
      "targetMethod": "java.net.URL.openConnection()Ljava/net/URLConnection;",
      "eventChain": [
        {
          "start": "com.wooboo.adlib_android.a.onKeyUp(ILandroid/view/KeyEvent;)Z",
          "target": "invokevirtual \u003c Application, Ljava/net/URL, openConnection()Ljava/net/URLConnection; \u003e@94",
          "type": "ui",
          "activities": [
            "com.x25.cn.MagicDrum.MagicDrum"
          ],
          "listener": "com.wooboo.adlib_android.a",
          "listenerMethod": "onKeyUp",
          "uiType": "onKeyUp",
          "constraintsFile": "constraints6_0.py",
          "variables": {
            "\u003cInput1\u003e": "IAAv0"
          },
          "stringMap": {},
          "strings": {}
        }
      ]
    },
    "7": {
      "startMethod": "com.wooboo.adlib_android.a.onKeyUp(ILandroid/view/KeyEvent;)Z",
      "targetMethod": "java.net.URL.openConnection(Ljava/net/Proxy;)Ljava/net/URLConnection;",
      "eventChain": [
        {
          "start": "com.wooboo.adlib_android.a.onKeyUp(ILandroid/view/KeyEvent;)Z",
          "target": "invokevirtual \u003c Application, Ljava/net/URL, openConnection(Ljava/net/Proxy;)Ljava/net/URLConnection; \u003e@363",
          "type": "ui",
          "activities": [
            "com.x25.cn.MagicDrum.MagicDrum"
          ],
          "listener": "com.wooboo.adlib_android.a",
          "listenerMethod": "onKeyUp",
          "uiType": "onKeyUp",
          "constraintsFile": "constraints7_0.py",
          "variables": {
            "\u003cInput1\u003e": "IAAv0"
          },
          "stringMap": {},
          "strings": {}
        }
      ]
    }
  }
}