{
  "packageName": "com.accutracking",
  "mainActivity": "com.accutracking.AccuTracking",
  "callPaths": {
    "0": {
      "startMethod": "com.accutracking.TrackingService.onCreate()V",
      "targetMethod": "android.telephony.TelephonyManager.listen(Landroid/telephony/PhoneStateListener;I)V",
      "eventChain": [
        {
          "start": "com.accutracking.TrackingService.onCreate()V",
          "target": "PC@15",
          "type": "service",
          "component": "com.accutracking.TrackingService",
          "constraintsFile": "constraints0_0.py",
          "variables": {},
          "stringMap": {},
          "strings": {}
        },
        {
          "start": "com.accutracking.TrackingService.onCreate()V",
          "target": "invokevirtual \u003c Application, Landroid/telephony/TelephonyManager, listen(Landroid/telephony/PhoneStateListener;I)V \u003e@53",
          "type": "service",
          "component": "com.accutracking.TrackingService",
          "constraintsFile": "constraints0_1.py",
          "variables": {},
          "stringMap": {},
          "strings": {}
        }
      ]
    },
    "1": {
      "startMethod": "com.accutracking.TrackingService.onCreate()V",
      "targetMethod": "android.location.LocationManager.requestLocationUpdates(Ljava/lang/String;JFLandroid/location/LocationListener;)V",
      "eventChain": [
        {
          "start": "com.accutracking.TrackingService.onCreate()V",
          "target": "PC@17",
          "type": "service",
          "component": "com.accutracking.TrackingService",
          "constraintsFile": "constraints1_0.py",
          "variables": {},
          "stringMap": {},
          "strings": {}
        },
        {
          "start": "com.accutracking.TrackingService.onCreate()V",
          "target": "PC@12",
          "type": "service",
          "component": "com.accutracking.TrackingService",
          "constraintsFile": "constraints1_1.py",
          "variables": {},
          "stringMap": {},
          "strings": {}
        },
        {
          "start": "com.accutracking.TrackingService.onCreate()V",
          "target": "PC@231",
          "type": "service",
          "component": "com.accutracking.TrackingService",
          "constraintsFile": "constraints1_2.py",
          "variables": {},
          "stringMap": {},
          "strings": {}
        },
        {
          "start": "com.accutracking.TrackingService.onCreate()V",
          "target": "invokevirtual \u003c Application, Landroid/location/LocationManager, requestLocationUpdates(Ljava/lang/String;JFLandroid/location/LocationListener;)V \u003e@45",
          "type": "service",
          "component": "com.accutracking.TrackingService",
          "constraintsFile": "constraints1_3.py",
          "variables": {},
          "stringMap": {},
          "strings": {}
        }
      ]
    },
    "2": {
      "startMethod": "com.accutracking.TrackingService.onDestroy()V",
      "targetMethod": "android.telephony.TelephonyManager.listen(Landroid/telephony/PhoneStateListener;I)V",
      "eventChain": [
        {
          "start": "com.accutracking.TrackingService.onCreate()V",
          "target": "PC@134",
          "type": "service",
          "component": "com.accutracking.TrackingService",
          "constraintsFile": "constraints2_0.py",
          "variables": {},
          "stringMap": {},
          "strings": {}
        },
        {
          "start": "com.accutracking.TrackingService.onCreate()V",
          "target": "PC@174",
          "type": "service",
          "component": "com.accutracking.TrackingService",
          "constraintsFile": "constraints2_1.py",
          "variables": {},
          "stringMap": {},
          "strings": {}
        },
        {
          "start": "com.accutracking.TrackingService.onCreate()V",
          "target": "PC@94",
          "type": "service",
          "component": "com.accutracking.TrackingService",
          "constraintsFile": "constraints2_2.py",
          "variables": {},
          "stringMap": {},
          "strings": {}
        },
        {
          "start": "com.accutracking.TrackingService.onDestroy()V",
          "target": "invokevirtual \u003c Application, Landroid/telephony/TelephonyManager, listen(Landroid/telephony/PhoneStateListener;I)V \u003e@35",
          "type": "service",
          "component": "com.accutracking.TrackingService",
          "constraintsFile": "constraints2_3.py",
          "variables": {},
          "stringMap": {},
          "strings": {}
        }
      ]
    },
    "3": {
      "startMethod": "com.accutracking.TrackingService$SettingsBroadcastReceiver.onReceive(Landroid/content/Context;Landroid/content/Intent;)V",
      "targetMethod": "android.location.LocationManager.requestLocationUpdates(Ljava/lang/String;JFLandroid/location/LocationListener;)V",
      "eventChain": [
        {
          "start": "com.accutracking.TrackingService.onCreate()V",
          "target": "invokespecial \u003c Application, Landroid/content/BroadcastReceiver, \u003cinit\u003e()V \u003e@7",
          "type": "service",
          "component": "com.accutracking.TrackingService",
          "constraintsFile": "constraints3_0.py",
          "variables": {},
          "stringMap": {},
          "strings": {}
        },
        {
          "start": "com.accutracking.TrackingService$SettingsBroadcastReceiver.onReceive(Landroid/content/Context;Landroid/content/Intent;)V",
          "target": "invokevirtual \u003c Application, Landroid/location/LocationManager, requestLocationUpdates(Ljava/lang/String;JFLandroid/location/LocationListener;)V \u003e@45",
          "type": "sms",
          "constraintsFile": "constraints3_1.py",
          "variables": {
            "\u003cInput2\u003e.getExtras()": "IAAv2",
            "\u003cInput2\u003e.getAction()": "IAAv0",
            "\u003cInput2\u003e.getExtras().getBoolean()": "IAAv3"
          },
          "stringMap": {
            "7000": "com.accutracking.action.SETTING.UPDATE"
          },
          "strings": {
            "IAAv0": ""
          }
        }
      ]
    }
  }
}