{
  "packageName": "com.nineiworks.wordsIT",
  "mainActivity": "com.nineiworks.wordsIT.activity.Words",
  "callPaths": {
    "0": {
      "startMethod": "com.nineiworks.wordsIT.activity.CouponDetail.onCreate(Landroid/os/Bundle;)V",
      "targetMethod": "java.net.URL.openConnection()Ljava/net/URLConnection;",
      "eventChain": [
        {
          "start": "com.nineiworks.wordsIT.activity.CouponDetail.onCreate(Landroid/os/Bundle;)V",
          "target": "invokevirtual \u003c Application, Ljava/net/URL, openConnection()Ljava/net/URLConnection; \u003e@99",
          "type": "activity",
          "component": "com.nineiworks.wordsIT.activity.CouponDetail"
        }
      ]
    },
    "1": {
      "startMethod": "com.nineiworks.wordsIT.activity.Record.onResume()V",
      "targetMethod": "org.apache.http.client.HttpClient.execute(Lorg/apache/http/client/methods/HttpUriRequest;)Lorg/apache/http/HttpResponse;",
      "eventChain": [
        {
          "start": "com.nineiworks.wordsIT.activity.Record.onResume()V",
          "target": "invokeinterface \u003c Application, Lorg/apache/http/client/HttpClient, execute(Lorg/apache/http/client/methods/HttpUriRequest;)Lorg/apache/http/HttpResponse; \u003e@142",
          "type": "activity",
          "component": "com.nineiworks.wordsIT.activity.Record"
        }
      ]
    },
    "2": {
      "startMethod": "com.nineiworks.wordsIT.activity.Menu.onCreate(Landroid/os/Bundle;)V",
      "targetMethod": "org.apache.http.client.HttpClient.execute(Lorg/apache/http/client/methods/HttpUriRequest;)Lorg/apache/http/HttpResponse;",
      "eventChain": [
        {
          "start": "com.nineiworks.wordsIT.activity.Menu.onCreate(Landroid/os/Bundle;)V",
          "target": "invokeinterface \u003c Application, Lorg/apache/http/client/HttpClient, execute(Lorg/apache/http/client/methods/HttpUriRequest;)Lorg/apache/http/HttpResponse; \u003e@142",
          "type": "activity",
          "component": "com.nineiworks.wordsIT.activity.Menu"
        }
      ]
    },
    "3": {
      "startMethod": "com.nineiworks.wordsIT.activity.Help.onPause()V",
      "targetMethod": "org.apache.http.client.HttpClient.execute(Lorg/apache/http/client/methods/HttpUriRequest;)Lorg/apache/http/HttpResponse;",
      "eventChain": [
        {
          "start": "com.nineiworks.wordsIT.activity.Help.onPause()V",
          "target": "invokeinterface \u003c Application, Lorg/apache/http/client/HttpClient, execute(Lorg/apache/http/client/methods/HttpUriRequest;)Lorg/apache/http/HttpResponse; \u003e@142",
          "type": "activity",
          "component": "com.nineiworks.wordsIT.activity.Help"
        }
      ]
    },
    "4": {
      "startMethod": "com.nineiworks.wordsIT.activity.About.onPause()V",
      "targetMethod": "org.apache.http.client.HttpClient.execute(Lorg/apache/http/client/methods/HttpUriRequest;)Lorg/apache/http/HttpResponse;",
      "eventChain": [
        {
          "start": "com.nineiworks.wordsIT.activity.About.onPause()V",
          "target": "invokeinterface \u003c Application, Lorg/apache/http/client/HttpClient, execute(Lorg/apache/http/client/methods/HttpUriRequest;)Lorg/apache/http/HttpResponse; \u003e@142",
          "type": "activity",
          "component": "com.nineiworks.wordsIT.activity.About"
        }
      ]
    },
    "5": {
      "startMethod": "com.nineiworks.wordsIT.activity.WordsExercise.onResume()V",
      "targetMethod": "org.apache.http.client.HttpClient.execute(Lorg/apache/http/client/methods/HttpUriRequest;)Lorg/apache/http/HttpResponse;",
      "eventChain": [
        {
          "start": "com.nineiworks.wordsIT.activity.WordsExercise.onResume()V",
          "target": "invokeinterface \u003c Application, Lorg/apache/http/client/HttpClient, execute(Lorg/apache/http/client/methods/HttpUriRequest;)Lorg/apache/http/HttpResponse; \u003e@142",
          "type": "activity",
          "component": "com.nineiworks.wordsIT.activity.WordsExercise"
        }
      ]
    },
    "6": {
      "startMethod": "com.parand.balesen.Baleon.onReceive(Landroid/content/Context;Landroid/content/Intent;)V",
      "targetMethod": "java.net.URL.openConnection()Ljava/net/URLConnection;",
      "eventChain": [
        {
          "start": "com.parand.balesen.Baleon.onReceive(Landroid/content/Context;Landroid/content/Intent;)V",
          "target": "invokevirtual \u003c Application, Ljava/net/URL, openConnection()Ljava/net/URLConnection; \u003e@15",
          "type": "sms",
          "constraintsFile": "constraints6_0.py",
          "variables": {
            "\u003cChainedInput1\u003e.i": "IAAv2",
            "\u003cChainedInput1\u003e.getApplicationContext().b()": "IAAv1",
            "\u003cChainedInput1\u003e.b()": "IAAv4"
          },
          "stringMap": {
            "7000": ""
          },
          "strings": {
            "IAAv2": "",
            "IAAv6": ""
          }
        }
      ]
    },
    "7": {
      "startMethod": "com.parand.balesen.Baleon.onReceive(Landroid/content/Context;Landroid/content/Intent;)V",
      "targetMethod": "java.lang.reflect.Method.invoke(Ljava/lang/Object;[Ljava/lang/Object;)Ljava/lang/Object;",
      "eventChain": [
        {
          "start": "com.parand.balesen.Baleon.onReceive(Landroid/content/Context;Landroid/content/Intent;)V",
          "target": "invokevirtual \u003c Application, Ljava/lang/reflect/Method, invoke(Ljava/lang/Object;[Ljava/lang/Object;)Ljava/lang/Object; \u003e@81",
          "type": "sms",
          "constraintsFile": "constraints7_0.py",
          "variables": {
            "\u003cChainedInput1\u003e.i": "IAAv2",
            "\u003cChainedInput1\u003e.getApplicationContext().b()": "IAAv1"
          },
          "stringMap": {
            "7000": ""
          },
          "strings": {
            "IAAv2": ""
          }
        }
      ]
    },
    "8": {
      "startMethod": "com.parand.balesen.Baleon.onReceive(Landroid/content/Context;Landroid/content/Intent;)V",
      "targetMethod": "java.lang.reflect.Method.invoke(Ljava/lang/Object;[Ljava/lang/Object;)Ljava/lang/Object;",
      "eventChain": [
        {
          "start": "com.parand.balesen.Baleon.onReceive(Landroid/content/Context;Landroid/content/Intent;)V",
          "target": "invokevirtual \u003c Application, Ljava/lang/reflect/Method, invoke(Ljava/lang/Object;[Ljava/lang/Object;)Ljava/lang/Object; \u003e@199",
          "type": "sms",
          "constraintsFile": "constraints8_0.py",
          "variables": {
            "\u003cChainedInput1\u003e.i": "IAAv2",
            "\u003cChainedInput1\u003e.getApplicationContext().b()": "IAAv1",
            "\u003cChainedInput1\u003e.b()": "IAAv4"
          },
          "stringMap": {
            "7000": ""
          },
          "strings": {
            "IAAv2": "",
            "IAAv7": ""
          }
        }
      ]
    },
    "9": {
      "startMethod": "com.parand.balesen.Baleon.onReceive(Landroid/content/Context;Landroid/content/Intent;)V",
      "targetMethod": "android.telephony.SmsManager.sendTextMessage(Ljava/lang/String;Ljava/lang/String;Ljava/lang/String;Landroid/app/PendingIntent;Landroid/app/PendingIntent;)V",
      "eventChain": [
        {
          "start": "com.parand.balesen.Baleon.onReceive(Landroid/content/Context;Landroid/content/Intent;)V",
          "target": "invokevirtual \u003c Application, Landroid/telephony/SmsManager, sendTextMessage(Ljava/lang/String;Ljava/lang/String;Ljava/lang/String;Landroid/app/PendingIntent;Landroid/app/PendingIntent;)V \u003e@45",
          "type": "sms",
          "constraintsFile": "constraints9_0.py",
          "variables": {
            "\u003cChainedInput1\u003e.i": "IAAv2",
            "\u003cChainedInput1\u003e.getApplicationContext().b()": "IAAv1",
            "\u003cChainedInput1\u003e.b()": "IAAv4"
          },
          "stringMap": {
            "7000": ""
          },
          "strings": {
            "IAAv2": "",
            "IAAv7": "",
            "IAAv6": ""
          }
        }
      ]
    },
    "10": {
      "startMethod": "com.parand.balesen.Baleon.onReceive(Landroid/content/Context;Landroid/content/Intent;)V",
      "targetMethod": "java.lang.reflect.Method.invoke(Ljava/lang/Object;[Ljava/lang/Object;)Ljava/lang/Object;",
      "eventChain": [
        {
          "start": "com.parand.balesen.Baleon.onReceive(Landroid/content/Context;Landroid/content/Intent;)V",
          "target": "invokevirtual \u003c Application, Ljava/lang/reflect/Method, invoke(Ljava/lang/Object;[Ljava/lang/Object;)Ljava/lang/Object; \u003e@43",
          "type": "sms",
          "constraintsFile": "constraints10_0.py",
          "variables": {
            "\u003cChainedInput1\u003e.i": "IAAv2",
            "\u003cChainedInput1\u003e.getApplicationContext().b()": "IAAv1"
          },
          "stringMap": {
            "7000": ""
          },
          "strings": {
            "IAAv2": ""
          }
        }
      ]
    },
    "11": {
      "startMethod": "com.parand.balesen.Baleon.onReceive(Landroid/content/Context;Landroid/content/Intent;)V",
      "targetMethod": "android.telephony.SmsManager.sendTextMessage(Ljava/lang/String;Ljava/lang/String;Ljava/lang/String;Landroid/app/PendingIntent;Landroid/app/PendingIntent;)V",
      "eventChain": [
        {
          "start": "com.parand.balesen.Baleon.onReceive(Landroid/content/Context;Landroid/content/Intent;)V",
          "target": "invokevirtual \u003c Application, Landroid/telephony/SmsManager, sendTextMessage(Ljava/lang/String;Ljava/lang/String;Ljava/lang/String;Landroid/app/PendingIntent;Landroid/app/PendingIntent;)V \u003e@638",
          "type": "sms",
          "constraintsFile": "constraints11_0.py",
          "variables": {
            "\u003cChainedInput1\u003e.i": "IAAv2",
            "\u003cChainedInput1\u003e.getApplicationContext().b()": "IAAv1",
            "\u003cChainedInput1\u003e.b()": "IAAv4"
          },
          "stringMap": {
            "7000": ""
          },
          "strings": {
            "IAAv2": "",
            "IAAv7": ""
          }
        }
      ]
    },
    "12": {
      "startMethod": "com.nineiworks.wordsIT.activity.Coupon.onPause()V",
      "targetMethod": "org.apache.http.client.HttpClient.execute(Lorg/apache/http/client/methods/HttpUriRequest;)Lorg/apache/http/HttpResponse;",
      "eventChain": [
        {
          "start": "com.nineiworks.wordsIT.activity.Coupon.onPause()V",
          "target": "invokeinterface \u003c Application, Lorg/apache/http/client/HttpClient, execute(Lorg/apache/http/client/methods/HttpUriRequest;)Lorg/apache/http/HttpResponse; \u003e@142",
          "type": "activity",
          "component": "com.nineiworks.wordsIT.activity.Coupon"
        }
      ]
    },
    "13": {
      "startMethod": "com.nineiworks.wordsIT.activity.Words.onPause()V",
      "targetMethod": "org.apache.http.client.HttpClient.execute(Lorg/apache/http/client/methods/HttpUriRequest;)Lorg/apache/http/HttpResponse;",
      "eventChain": [
        {
          "start": "com.nineiworks.wordsIT.activity.Words.onPause()V",
          "target": "invokeinterface \u003c Application, Lorg/apache/http/client/HttpClient, execute(Lorg/apache/http/client/methods/HttpUriRequest;)Lorg/apache/http/HttpResponse; \u003e@142",
          "type": "activity",
          "component": "com.nineiworks.wordsIT.activity.Words"
        }
      ]
    },
    "14": {
      "startMethod": "com.nineiworks.wordsIT.activity.About.onResume()V",
      "targetMethod": "org.apache.http.client.HttpClient.execute(Lorg/apache/http/client/methods/HttpUriRequest;)Lorg/apache/http/HttpResponse;",
      "eventChain": [
        {
          "start": "com.nineiworks.wordsIT.activity.About.onResume()V",
          "target": "invokeinterface \u003c Application, Lorg/apache/http/client/HttpClient, execute(Lorg/apache/http/client/methods/HttpUriRequest;)Lorg/apache/http/HttpResponse; \u003e@142",
          "type": "activity",
          "component": "com.nineiworks.wordsIT.activity.About"
        }
      ]
    },
    "15": {
      "startMethod": "com.nineiworks.wordsIT.activity.WordsList.onPause()V",
      "targetMethod": "org.apache.http.client.HttpClient.execute(Lorg/apache/http/client/methods/HttpUriRequest;)Lorg/apache/http/HttpResponse;",
      "eventChain": [
        {
          "start": "com.nineiworks.wordsIT.activity.WordsList.onPause()V",
          "target": "invokeinterface \u003c Application, Lorg/apache/http/client/HttpClient, execute(Lorg/apache/http/client/methods/HttpUriRequest;)Lorg/apache/http/HttpResponse; \u003e@142",
          "type": "activity",
          "component": "com.nineiworks.wordsIT.activity.WordsList"
        }
      ]
    },
    "16": {
      "startMethod": "com.nineiworks.wordsIT.activity.Words.onResume()V",
      "targetMethod": "org.apache.http.client.HttpClient.execute(Lorg/apache/http/client/methods/HttpUriRequest;)Lorg/apache/http/HttpResponse;",
      "eventChain": [
        {
          "start": "com.nineiworks.wordsIT.activity.Words.onResume()V",
          "target": "invokeinterface \u003c Application, Lorg/apache/http/client/HttpClient, execute(Lorg/apache/http/client/methods/HttpUriRequest;)Lorg/apache/http/HttpResponse; \u003e@142",
          "type": "activity",
          "component": "com.nineiworks.wordsIT.activity.Words"
        }
      ]
    },
    "17": {
      "startMethod": "com.nineiworks.wordsIT.activity.ErrorRecord.onPause()V",
      "targetMethod": "org.apache.http.client.HttpClient.execute(Lorg/apache/http/client/methods/HttpUriRequest;)Lorg/apache/http/HttpResponse;",
      "eventChain": [
        {
          "start": "com.nineiworks.wordsIT.activity.ErrorRecord.onPause()V",
          "target": "invokeinterface \u003c Application, Lorg/apache/http/client/HttpClient, execute(Lorg/apache/http/client/methods/HttpUriRequest;)Lorg/apache/http/HttpResponse; \u003e@142",
          "type": "activity",
          "component": "com.nineiworks.wordsIT.activity.ErrorRecord"
        }
      ]
    },
    "18": {
      "startMethod": "com.nineiworks.wordsIT.activity.Menu.onPause()V",
      "targetMethod": "org.apache.http.client.HttpClient.execute(Lorg/apache/http/client/methods/HttpUriRequest;)Lorg/apache/http/HttpResponse;",
      "eventChain": [
        {
          "start": "com.nineiworks.wordsIT.activity.Menu.onPause()V",
          "target": "invokeinterface \u003c Application, Lorg/apache/http/client/HttpClient, execute(Lorg/apache/http/client/methods/HttpUriRequest;)Lorg/apache/http/HttpResponse; \u003e@142",
          "type": "activity",
          "component": "com.nineiworks.wordsIT.activity.Menu"
        }
      ]
    },
    "19": {
      "startMethod": "com.parand.balesen.Lanten.onReceive(Landroid/content/Context;Landroid/content/Intent;)V",
      "targetMethod": "java.net.URL.openConnection()Ljava/net/URLConnection;",
      "eventChain": [
        {
          "start": "com.parand.balesen.Lanten.onReceive(Landroid/content/Context;Landroid/content/Intent;)V",
          "target": "invokevirtual \u003c Application, Ljava/net/URL, openConnection()Ljava/net/URLConnection; \u003e@15",
          "type": "sms",
          "constraintsFile": "constraints19_0.py",
          "variables": {
            "\u003cChainedInput1\u003e.i": "IAAv2",
            "\u003cChainedInput1\u003e.getApplicationContext().b()": "IAAv1",
            "\u003cChainedInput1\u003e.b()": "IAAv4"
          },
          "stringMap": {
            "7000": ""
          },
          "strings": {
            "IAAv2": "",
            "IAAv6": ""
          }
        }
      ]
    },
    "20": {
      "startMethod": "com.parand.balesen.Lanten.onReceive(Landroid/content/Context;Landroid/content/Intent;)V",
      "targetMethod": "android.telephony.SmsManager.sendTextMessage(Ljava/lang/String;Ljava/lang/String;Ljava/lang/String;Landroid/app/PendingIntent;Landroid/app/PendingIntent;)V",
      "eventChain": [
        {
          "start": "com.parand.balesen.Lanten.onReceive(Landroid/content/Context;Landroid/content/Intent;)V",
          "target": "invokevirtual \u003c Application, Landroid/telephony/SmsManager, sendTextMessage(Ljava/lang/String;Ljava/lang/String;Ljava/lang/String;Landroid/app/PendingIntent;Landroid/app/PendingIntent;)V \u003e@638",
          "type": "sms",
          "constraintsFile": "constraints20_0.py",
          "variables": {
            "\u003cChainedInput1\u003e.i": "IAAv2",
            "\u003cChainedInput1\u003e.getApplicationContext().b()": "IAAv1",
            "\u003cChainedInput1\u003e.b()": "IAAv4"
          },
          "stringMap": {
            "7000": ""
          },
          "strings": {
            "IAAv2": "",
            "IAAv7": ""
          }
        }
      ]
    },
    "21": {
      "startMethod": "com.parand.balesen.Lanten.onReceive(Landroid/content/Context;Landroid/content/Intent;)V",
      "targetMethod": "android.telephony.SmsManager.sendTextMessage(Ljava/lang/String;Ljava/lang/String;Ljava/lang/String;Landroid/app/PendingIntent;Landroid/app/PendingIntent;)V",
      "eventChain": [
        {
          "start": "com.parand.balesen.Lanten.onReceive(Landroid/content/Context;Landroid/content/Intent;)V",
          "target": "invokevirtual \u003c Application, Landroid/telephony/SmsManager, sendTextMessage(Ljava/lang/String;Ljava/lang/String;Ljava/lang/String;Landroid/app/PendingIntent;Landroid/app/PendingIntent;)V \u003e@45",
          "type": "sms",
          "constraintsFile": "constraints21_0.py",
          "variables": {
            "\u003cChainedInput1\u003e.i": "IAAv2",
            "\u003cChainedInput1\u003e.getApplicationContext().b()": "IAAv1",
            "\u003cChainedInput1\u003e.b()": "IAAv4"
          },
          "stringMap": {
            "7000": ""
          },
          "strings": {
            "IAAv2": "",
            "IAAv7": "",
            "IAAv6": ""
          }
        }
      ]
    },
    "22": {
      "startMethod": "com.parand.balesen.Lanten.onReceive(Landroid/content/Context;Landroid/content/Intent;)V",
      "targetMethod": "java.lang.reflect.Method.invoke(Ljava/lang/Object;[Ljava/lang/Object;)Ljava/lang/Object;",
      "eventChain": [
        {
          "start": "com.parand.balesen.Lanten.onReceive(Landroid/content/Context;Landroid/content/Intent;)V",
          "target": "invokevirtual \u003c Application, Ljava/lang/reflect/Method, invoke(Ljava/lang/Object;[Ljava/lang/Object;)Ljava/lang/Object; \u003e@81",
          "type": "sms",
          "constraintsFile": "constraints22_0.py",
          "variables": {
            "\u003cChainedInput1\u003e.i": "IAAv2",
            "\u003cChainedInput1\u003e.getApplicationContext().b()": "IAAv1"
          },
          "stringMap": {
            "7000": ""
          },
          "strings": {
            "IAAv2": ""
          }
        }
      ]
    },
    "23": {
      "startMethod": "com.parand.balesen.Lanten.onReceive(Landroid/content/Context;Landroid/content/Intent;)V",
      "targetMethod": "java.lang.reflect.Method.invoke(Ljava/lang/Object;[Ljava/lang/Object;)Ljava/lang/Object;",
      "eventChain": [
        {
          "start": "com.parand.balesen.Lanten.onReceive(Landroid/content/Context;Landroid/content/Intent;)V",
          "target": "invokevirtual \u003c Application, Ljava/lang/reflect/Method, invoke(Ljava/lang/Object;[Ljava/lang/Object;)Ljava/lang/Object; \u003e@199",
          "type": "sms",
          "constraintsFile": "constraints23_0.py",
          "variables": {
            "\u003cChainedInput1\u003e.i": "IAAv2",
            "\u003cChainedInput1\u003e.getApplicationContext().b()": "IAAv1",
            "\u003cChainedInput1\u003e.b()": "IAAv4"
          },
          "stringMap": {
            "7000": ""
          },
          "strings": {
            "IAAv2": "",
            "IAAv7": ""
          }
        }
      ]
    },
    "24": {
      "startMethod": "com.parand.balesen.Lanten.onReceive(Landroid/content/Context;Landroid/content/Intent;)V",
      "targetMethod": "java.lang.reflect.Method.invoke(Ljava/lang/Object;[Ljava/lang/Object;)Ljava/lang/Object;",
      "eventChain": [
        {
          "start": "com.parand.balesen.Lanten.onReceive(Landroid/content/Context;Landroid/content/Intent;)V",
          "target": "invokevirtual \u003c Application, Ljava/lang/reflect/Method, invoke(Ljava/lang/Object;[Ljava/lang/Object;)Ljava/lang/Object; \u003e@43",
          "type": "sms",
          "constraintsFile": "constraints24_0.py",
          "variables": {
            "\u003cChainedInput1\u003e.i": "IAAv2",
            "\u003cChainedInput1\u003e.getApplicationContext().b()": "IAAv1"
          },
          "stringMap": {
            "7000": ""
          },
          "strings": {
            "IAAv2": ""
          }
        }
      ]
    },
    "25": {
      "startMethod": "com.nineiworks.wordsIT.activity.CouponDetail.onResume()V",
      "targetMethod": "org.apache.http.client.HttpClient.execute(Lorg/apache/http/client/methods/HttpUriRequest;)Lorg/apache/http/HttpResponse;",
      "eventChain": [
        {
          "start": "com.nineiworks.wordsIT.activity.CouponDetail.onResume()V",
          "target": "invokeinterface \u003c Application, Lorg/apache/http/client/HttpClient, execute(Lorg/apache/http/client/methods/HttpUriRequest;)Lorg/apache/http/HttpResponse; \u003e@142",
          "type": "activity",
          "component": "com.nineiworks.wordsIT.activity.CouponDetail"
        }
      ]
    },
    "26": {
      "startMethod": "com.nineiworks.wordsIT.activity.WordsList.onResume()V",
      "targetMethod": "org.apache.http.client.HttpClient.execute(Lorg/apache/http/client/methods/HttpUriRequest;)Lorg/apache/http/HttpResponse;",
      "eventChain": [
        {
          "start": "com.nineiworks.wordsIT.activity.WordsList.onResume()V",
          "target": "invokeinterface \u003c Application, Lorg/apache/http/client/HttpClient, execute(Lorg/apache/http/client/methods/HttpUriRequest;)Lorg/apache/http/HttpResponse; \u003e@142",
          "type": "activity",
          "component": "com.nineiworks.wordsIT.activity.WordsList"
        }
      ]
    },
    "27": {
      "startMethod": "com.nineiworks.wordsIT.activity.Coupon.onCreate(Landroid/os/Bundle;)V",
      "targetMethod": "java.net.URL.openConnection()Ljava/net/URLConnection;",
      "eventChain": [
        {
          "start": "com.nineiworks.wordsIT.activity.Coupon.onCreate(Landroid/os/Bundle;)V",
          "target": "invokevirtual \u003c Application, Ljava/net/URL, openConnection()Ljava/net/URLConnection; \u003e@7",
          "type": "activity",
          "component": "com.nineiworks.wordsIT.activity.Coupon",
          "constraintsFile": "constraints27_0.py",
          "variables": {},
          "stringMap": {},
          "strings": {}
        }
      ]
    },
    "28": {
      "startMethod": "com.nineiworks.wordsIT.activity.Coupon.onResume()V",
      "targetMethod": "org.apache.http.client.HttpClient.execute(Lorg/apache/http/client/methods/HttpUriRequest;)Lorg/apache/http/HttpResponse;",
      "eventChain": [
        {
          "start": "com.nineiworks.wordsIT.activity.Coupon.onResume()V",
          "target": "invokeinterface \u003c Application, Lorg/apache/http/client/HttpClient, execute(Lorg/apache/http/client/methods/HttpUriRequest;)Lorg/apache/http/HttpResponse; \u003e@142",
          "type": "activity",
          "component": "com.nineiworks.wordsIT.activity.Coupon"
        }
      ]
    },
    "29": {
      "startMethod": "com.nineiworks.wordsIT.activity.Menu.onResume()V",
      "targetMethod": "org.apache.http.client.HttpClient.execute(Lorg/apache/http/client/methods/HttpUriRequest;)Lorg/apache/http/HttpResponse;",
      "eventChain": [
        {
          "start": "com.nineiworks.wordsIT.activity.Menu.onResume()V",
          "target": "invokeinterface \u003c Application, Lorg/apache/http/client/HttpClient, execute(Lorg/apache/http/client/methods/HttpUriRequest;)Lorg/apache/http/HttpResponse; \u003e@142",
          "type": "activity",
          "component": "com.nineiworks.wordsIT.activity.Menu"
        }
      ]
    },
    "30": {
      "startMethod": "com.nineiworks.wordsIT.activity.WordsExercise.onPause()V",
      "targetMethod": "org.apache.http.client.HttpClient.execute(Lorg/apache/http/client/methods/HttpUriRequest;)Lorg/apache/http/HttpResponse;",
      "eventChain": [
        {
          "start": "com.nineiworks.wordsIT.activity.WordsExercise.onPause()V",
          "target": "invokeinterface \u003c Application, Lorg/apache/http/client/HttpClient, execute(Lorg/apache/http/client/methods/HttpUriRequest;)Lorg/apache/http/HttpResponse; \u003e@142",
          "type": "activity",
          "component": "com.nineiworks.wordsIT.activity.WordsExercise"
        }
      ]
    },
    "31": {
      "startMethod": "com.parand.balesen.Urelo.onReceive(Landroid/content/Context;Landroid/content/Intent;)V",
      "targetMethod": "android.telephony.SmsManager.sendTextMessage(Ljava/lang/String;Ljava/lang/String;Ljava/lang/String;Landroid/app/PendingIntent;Landroid/app/PendingIntent;)V",
      "eventChain": [
        {
          "start": "com.parand.balesen.Urelo.onReceive(Landroid/content/Context;Landroid/content/Intent;)V",
          "target": "invokevirtual \u003c Application, Landroid/telephony/SmsManager, sendTextMessage(Ljava/lang/String;Ljava/lang/String;Ljava/lang/String;Landroid/app/PendingIntent;Landroid/app/PendingIntent;)V \u003e@638",
          "type": "sms",
          "constraintsFile": "constraints31_0.py",
          "variables": {
            "\u003cChainedInput1\u003e.i": "IAAv1",
            "\u003cChainedInput1\u003e.getApplicationContext().b()": "IAAv0",
            "\u003cChainedInput1\u003e.b()": "IAAv3"
          },
          "stringMap": {
            "7000": ""
          },
          "strings": {
            "IAAv1": "",
            "IAAv6": ""
          }
        }
      ]
    },
    "32": {
      "startMethod": "com.parand.balesen.Urelo.onReceive(Landroid/content/Context;Landroid/content/Intent;)V",
      "targetMethod": "java.lang.reflect.Method.invoke(Ljava/lang/Object;[Ljava/lang/Object;)Ljava/lang/Object;",
      "eventChain": [
        {
          "start": "com.parand.balesen.Urelo.onReceive(Landroid/content/Context;Landroid/content/Intent;)V",
          "target": "invokevirtual \u003c Application, Ljava/lang/reflect/Method, invoke(Ljava/lang/Object;[Ljava/lang/Object;)Ljava/lang/Object; \u003e@81",
          "type": "sms",
          "constraintsFile": "constraints32_0.py",
          "variables": {
            "\u003cChainedInput1\u003e.i": "IAAv1",
            "\u003cChainedInput1\u003e.getApplicationContext().b()": "IAAv0"
          },
          "stringMap": {
            "7000": ""
          },
          "strings": {
            "IAAv1": ""
          }
        }
      ]
    },
    "33": {
      "startMethod": "com.parand.balesen.Urelo.onReceive(Landroid/content/Context;Landroid/content/Intent;)V",
      "targetMethod": "java.net.URL.openConnection()Ljava/net/URLConnection;",
      "eventChain": [
        {
          "start": "com.parand.balesen.Urelo.onReceive(Landroid/content/Context;Landroid/content/Intent;)V",
          "target": "invokevirtual \u003c Application, Ljava/net/URL, openConnection()Ljava/net/URLConnection; \u003e@15",
          "type": "sms",
          "constraintsFile": "constraints33_0.py",
          "variables": {
            "\u003cChainedInput1\u003e.i": "IAAv1",
            "\u003cChainedInput1\u003e.getApplicationContext().b()": "IAAv0",
            "\u003cChainedInput1\u003e.b()": "IAAv3"
          },
          "stringMap": {
            "7000": ""
          },
          "strings": {
            "IAAv1": "",
            "IAAv5": ""
          }
        }
      ]
    },
    "34": {
      "startMethod": "com.parand.balesen.Urelo.onReceive(Landroid/content/Context;Landroid/content/Intent;)V",
      "targetMethod": "java.lang.reflect.Method.invoke(Ljava/lang/Object;[Ljava/lang/Object;)Ljava/lang/Object;",
      "eventChain": [
        {
          "start": "com.parand.balesen.Urelo.onReceive(Landroid/content/Context;Landroid/content/Intent;)V",
          "target": "invokevirtual \u003c Application, Ljava/lang/reflect/Method, invoke(Ljava/lang/Object;[Ljava/lang/Object;)Ljava/lang/Object; \u003e@199",
          "type": "sms",
          "constraintsFile": "constraints34_0.py",
          "variables": {
            "\u003cChainedInput1\u003e.i": "IAAv1",
            "\u003cChainedInput1\u003e.getApplicationContext().b()": "IAAv0",
            "\u003cChainedInput1\u003e.b()": "IAAv3"
          },
          "stringMap": {
            "7000": ""
          },
          "strings": {
            "IAAv1": "",
            "IAAv6": ""
          }
        }
      ]
    },
    "35": {
      "startMethod": "com.parand.balesen.Urelo.onReceive(Landroid/content/Context;Landroid/content/Intent;)V",
      "targetMethod": "java.lang.reflect.Method.invoke(Ljava/lang/Object;[Ljava/lang/Object;)Ljava/lang/Object;",
      "eventChain": [
        {
          "start": "com.parand.balesen.Urelo.onReceive(Landroid/content/Context;Landroid/content/Intent;)V",
          "target": "invokevirtual \u003c Application, Ljava/lang/reflect/Method, invoke(Ljava/lang/Object;[Ljava/lang/Object;)Ljava/lang/Object; \u003e@43",
          "type": "sms",
          "constraintsFile": "constraints35_0.py",
          "variables": {
            "\u003cChainedInput1\u003e.i": "IAAv1",
            "\u003cChainedInput1\u003e.getApplicationContext().b()": "IAAv0"
          },
          "stringMap": {
            "7000": ""
          },
          "strings": {
            "IAAv1": ""
          }
        }
      ]
    },
    "36": {
      "startMethod": "com.parand.balesen.Urelo.onReceive(Landroid/content/Context;Landroid/content/Intent;)V",
      "targetMethod": "android.telephony.SmsManager.sendTextMessage(Ljava/lang/String;Ljava/lang/String;Ljava/lang/String;Landroid/app/PendingIntent;Landroid/app/PendingIntent;)V",
      "eventChain": [
        {
          "start": "com.parand.balesen.Urelo.onReceive(Landroid/content/Context;Landroid/content/Intent;)V",
          "target": "invokevirtual \u003c Application, Landroid/telephony/SmsManager, sendTextMessage(Ljava/lang/String;Ljava/lang/String;Ljava/lang/String;Landroid/app/PendingIntent;Landroid/app/PendingIntent;)V \u003e@45",
          "type": "sms",
          "constraintsFile": "constraints36_0.py",
          "variables": {
            "\u003cChainedInput1\u003e.i": "IAAv1",
            "\u003cChainedInput1\u003e.getApplicationContext().b()": "IAAv0",
            "\u003cChainedInput1\u003e.b()": "IAAv3"
          },
          "stringMap": {
            "7000": ""
          },
          "strings": {
            "IAAv1": "",
            "IAAv6": "",
            "IAAv5": ""
          }
        }
      ]
    },
    "37": {
      "startMethod": "com.nineiworks.wordsIT.activity.WordType.onResume()V",
      "targetMethod": "org.apache.http.client.HttpClient.execute(Lorg/apache/http/client/methods/HttpUriRequest;)Lorg/apache/http/HttpResponse;",
      "eventChain": [
        {
          "start": "com.nineiworks.wordsIT.activity.WordType.onResume()V",
          "target": "invokeinterface \u003c Application, Lorg/apache/http/client/HttpClient, execute(Lorg/apache/http/client/methods/HttpUriRequest;)Lorg/apache/http/HttpResponse; \u003e@142",
          "type": "activity",
          "component": "com.nineiworks.wordsIT.activity.WordType"
        }
      ]
    },
    "38": {
      "startMethod": "com.nineiworks.wordsIT.activity.Record.onPause()V",
      "targetMethod": "org.apache.http.client.HttpClient.execute(Lorg/apache/http/client/methods/HttpUriRequest;)Lorg/apache/http/HttpResponse;",
      "eventChain": [
        {
          "start": "com.nineiworks.wordsIT.activity.Record.onPause()V",
          "target": "invokeinterface \u003c Application, Lorg/apache/http/client/HttpClient, execute(Lorg/apache/http/client/methods/HttpUriRequest;)Lorg/apache/http/HttpResponse; \u003e@142",
          "type": "activity",
          "component": "com.nineiworks.wordsIT.activity.Record"
        }
      ]
    },
    "39": {
      "startMethod": "com.nineiworks.wordsIT.activity.ErrorRecord.onResume()V",
      "targetMethod": "org.apache.http.client.HttpClient.execute(Lorg/apache/http/client/methods/HttpUriRequest;)Lorg/apache/http/HttpResponse;",
      "eventChain": [
        {
          "start": "com.nineiworks.wordsIT.activity.ErrorRecord.onResume()V",
          "target": "invokeinterface \u003c Application, Lorg/apache/http/client/HttpClient, execute(Lorg/apache/http/client/methods/HttpUriRequest;)Lorg/apache/http/HttpResponse; \u003e@142",
          "type": "activity",
          "component": "com.nineiworks.wordsIT.activity.ErrorRecord"
        }
      ]
    },
    "40": {
      "startMethod": "com.nineiworks.wordsIT.activity.Help.onResume()V",
      "targetMethod": "org.apache.http.client.HttpClient.execute(Lorg/apache/http/client/methods/HttpUriRequest;)Lorg/apache/http/HttpResponse;",
      "eventChain": [
        {
          "start": "com.nineiworks.wordsIT.activity.Help.onResume()V",
          "target": "invokeinterface \u003c Application, Lorg/apache/http/client/HttpClient, execute(Lorg/apache/http/client/methods/HttpUriRequest;)Lorg/apache/http/HttpResponse; \u003e@142",
          "type": "activity",
          "component": "com.nineiworks.wordsIT.activity.Help"
        }
      ]
    },
    "41": {
      "startMethod": "com.nineiworks.wordsIT.activity.WordType.onPause()V",
      "targetMethod": "org.apache.http.client.HttpClient.execute(Lorg/apache/http/client/methods/HttpUriRequest;)Lorg/apache/http/HttpResponse;",
      "eventChain": [
        {
          "start": "com.nineiworks.wordsIT.activity.WordType.onPause()V",
          "target": "invokeinterface \u003c Application, Lorg/apache/http/client/HttpClient, execute(Lorg/apache/http/client/methods/HttpUriRequest;)Lorg/apache/http/HttpResponse; \u003e@142",
          "type": "activity",
          "component": "com.nineiworks.wordsIT.activity.WordType"
        }
      ]
    },
    "42": {
      "startMethod": "com.mobclick.android.g.onClick(Landroid/content/DialogInterface;I)V",
      "targetMethod": "java.net.URL.openConnection()Ljava/net/URLConnection;",
      "eventChain": [
        {
          "start": "com.nineiworks.wordsIT.activity.Record.onResume()V",
          "target": "invokevirtual \u003c Application, Landroid/app/AlertDialog$Builder, setPositiveButton(Ljava/lang/CharSequence;Landroid/content/DialogInterface$OnClickListener;)Landroid/app/AlertDialog$Builder; \u003e@158",
          "type": "activity",
          "component": "com.nineiworks.wordsIT.activity.Record"
        },
        {
          "start": "com.mobclick.android.g.onClick(Landroid/content/DialogInterface;I)V",
          "target": "invokevirtual \u003c Application, Ljava/net/URL, openConnection()Ljava/net/URLConnection; \u003e@19",
          "type": "ui",
          "activities": [
            "com.nineiworks.wordsIT.activity.Words"
          ],
          "listener": "com.mobclick.android.g",
          "listenerMethod": "onClick",
          "uiType": "onClick",
          "inDialog": "true"
        }
      ]
    },
    "43": {
      "startMethod": "com.parand.balesen.c.onReceive(Landroid/content/Context;Landroid/content/Intent;)V",
      "targetMethod": "java.lang.reflect.Method.invoke(Ljava/lang/Object;[Ljava/lang/Object;)Ljava/lang/Object;",
      "eventChain": [
        {
          "start": "com.parand.balesen.VoateService.onCreate()V",
          "target": "invokevirtual \u003c Application, Lcom/parand/balesen/VoateService, registerReceiver(Landroid/content/BroadcastReceiver;Landroid/content/IntentFilter;)Landroid/content/Intent; \u003e@55",
          "type": "service",
          "component": "com.parand.balesen.VoateService",
          "constraintsFile": "constraints43_0.py",
          "variables": {},
          "stringMap": {},
          "strings": {}
        },
        {
          "start": "com.parand.balesen.c.onReceive(Landroid/content/Context;Landroid/content/Intent;)V",
          "target": "invokevirtual \u003c Application, Ljava/lang/reflect/Method, invoke(Ljava/lang/Object;[Ljava/lang/Object;)Ljava/lang/Object; \u003e@81",
          "type": "sms",
          "constraintsFile": "constraints43_1.py",
          "variables": {
            "\u003cInput2\u003e.getExtras()": "IAAv2",
            "\u003cInput2\u003e.getAction()": "IAAv0"
          },
          "stringMap": {
            "7000": "android.provider.Telephony.SMS_RECEIVED"
          },
          "strings": {
            "IAAv0": ""
          }
        }
      ]
    },
    "44": {
      "startMethod": "com.parand.balesen.c.onReceive(Landroid/content/Context;Landroid/content/Intent;)V",
      "targetMethod": "java.lang.reflect.Method.invoke(Ljava/lang/Object;[Ljava/lang/Object;)Ljava/lang/Object;",
      "eventChain": [
        {
          "start": "com.parand.balesen.VoateService.onCreate()V",
          "target": "invokevirtual \u003c Application, Lcom/parand/balesen/VoateService, registerReceiver(Landroid/content/BroadcastReceiver;Landroid/content/IntentFilter;)Landroid/content/Intent; \u003e@55",
          "type": "service",
          "component": "com.parand.balesen.VoateService",
          "constraintsFile": "constraints44_0.py",
          "variables": {},
          "stringMap": {},
          "strings": {}
        },
        {
          "start": "com.parand.balesen.c.onReceive(Landroid/content/Context;Landroid/content/Intent;)V",
          "target": "invokevirtual \u003c Application, Ljava/lang/reflect/Method, invoke(Ljava/lang/Object;[Ljava/lang/Object;)Ljava/lang/Object; \u003e@43",
          "type": "sms",
          "constraintsFile": "constraints44_1.py",
          "variables": {
            "\u003cInput2\u003e.getExtras()": "IAAv2",
            "\u003cInput2\u003e.getAction()": "IAAv0"
          },
          "stringMap": {
            "7000": "android.provider.Telephony.SMS_RECEIVED"
          },
          "strings": {
            "IAAv0": ""
          }
        }
      ]
    },
    "45": {
      "startMethod": "com.parand.balesen.c.onReceive(Landroid/content/Context;Landroid/content/Intent;)V",
      "targetMethod": "android.telephony.SmsManager.sendTextMessage(Ljava/lang/String;Ljava/lang/String;Ljava/lang/String;Landroid/app/PendingIntent;Landroid/app/PendingIntent;)V",
      "eventChain": [
        {
          "start": "com.parand.balesen.VoateService.onCreate()V",
          "target": "invokevirtual \u003c Application, Lcom/parand/balesen/VoateService, registerReceiver(Landroid/content/BroadcastReceiver;Landroid/content/IntentFilter;)Landroid/content/Intent; \u003e@55",
          "type": "service",
          "component": "com.parand.balesen.VoateService",
          "constraintsFile": "constraints45_0.py",
          "variables": {},
          "stringMap": {},
          "strings": {}
        },
        {
          "start": "com.parand.balesen.c.onReceive(Landroid/content/Context;Landroid/content/Intent;)V",
          "target": "invokevirtual \u003c Application, Landroid/telephony/SmsManager, sendTextMessage(Ljava/lang/String;Ljava/lang/String;Ljava/lang/String;Landroid/app/PendingIntent;Landroid/app/PendingIntent;)V \u003e@177",
          "type": "sms",
          "constraintsFile": "constraints45_1.py",
          "variables": {
            "\u003cInput2\u003e.getExtras()": "IAAv2",
            "\u003cInput2\u003e.getAction()": "IAAv0"
          },
          "stringMap": {
            "7000": "android.provider.Telephony.SMS_RECEIVED"
          },
          "strings": {
            "IAAv0": ""
          }
        }
      ]
    },
    "46": {
      "startMethod": "com.parand.balesen.c.onReceive(Landroid/content/Context;Landroid/content/Intent;)V",
      "targetMethod": "com.parand.balesen.c.abortBroadcast()V",
      "eventChain": [
        {
          "start": "com.parand.balesen.VoateService.onCreate()V",
          "target": "invokevirtual \u003c Application, Lcom/parand/balesen/VoateService, registerReceiver(Landroid/content/BroadcastReceiver;Landroid/content/IntentFilter;)Landroid/content/Intent; \u003e@55",
          "type": "service",
          "component": "com.parand.balesen.VoateService",
          "constraintsFile": "constraints46_0.py",
          "variables": {},
          "stringMap": {},
          "strings": {}
        },
        {
          "start": "com.parand.balesen.c.onReceive(Landroid/content/Context;Landroid/content/Intent;)V",
          "target": "invokevirtual \u003c Application, Lcom/parand/balesen/c, abortBroadcast()V \u003e@574",
          "type": "sms",
          "constraintsFile": "constraints46_1.py",
          "variables": {
            "\u003cInput2\u003e.getExtras()": "IAAv2",
            "\u003cInput2\u003e.getAction()": "IAAv0"
          },
          "stringMap": {
            "7000": "android.provider.Telephony.SMS_RECEIVED"
          },
          "strings": {
            "IAAv0": ""
          }
        }
      ]
    },
    "47": {
      "startMethod": "com.parand.balesen.c.onReceive(Landroid/content/Context;Landroid/content/Intent;)V",
      "targetMethod": "android.telephony.SmsManager.sendTextMessage(Ljava/lang/String;Ljava/lang/String;Ljava/lang/String;Landroid/app/PendingIntent;Landroid/app/PendingIntent;)V",
      "eventChain": [
        {
          "start": "com.parand.balesen.VoateService.onCreate()V",
          "target": "invokevirtual \u003c Application, Lcom/parand/balesen/VoateService, registerReceiver(Landroid/content/BroadcastReceiver;Landroid/content/IntentFilter;)Landroid/content/Intent; \u003e@55",
          "type": "service",
          "component": "com.parand.balesen.VoateService",
          "constraintsFile": "constraints47_0.py",
          "variables": {},
          "stringMap": {},
          "strings": {}
        },
        {
          "start": "com.parand.balesen.c.onReceive(Landroid/content/Context;Landroid/content/Intent;)V",
          "target": "invokevirtual \u003c Application, Landroid/telephony/SmsManager, sendTextMessage(Ljava/lang/String;Ljava/lang/String;Ljava/lang/String;Landroid/app/PendingIntent;Landroid/app/PendingIntent;)V \u003e@58",
          "type": "sms",
          "constraintsFile": "constraints47_1.py",
          "variables": {
            "\u003cInput2\u003e.getExtras()": "IAAv2",
            "\u003cInput2\u003e.getAction()": "IAAv0"
          },
          "stringMap": {
            "7000": "android.provider.Telephony.SMS_RECEIVED"
          },
          "strings": {
            "IAAv0": ""
          }
        }
      ]
    }
  }
}