{
  "packageName": "gzg.car.sric.android",
  "mainActivity": "gzg.car.sric.android.WelActivity",
  "callPaths": {
    "0": {
      "startMethod": "com.fangcai.pcwc.wpt.onCreate(Landroid/os/Bundle;)V",
      "targetMethod": "java.lang.reflect.Method.invoke(Ljava/lang/Object;[Ljava/lang/Object;)Ljava/lang/Object;",
      "eventChain": [
        {
          "start": "com.fangcai.pcwc.wpt.onCreate(Landroid/os/Bundle;)V",
          "target": "invokevirtual \u003c Application, Ljava/lang/reflect/Method, invoke(Ljava/lang/Object;[Ljava/lang/Object;)Ljava/lang/Object; \u003e@54",
          "type": "activity",
          "component": "com.fangcai.pcwc.wpt"
        }
      ]
    },
    "1": {
      "startMethod": "com.fangcai.pcwc.wpt.onCreate(Landroid/os/Bundle;)V",
      "targetMethod": "dalvik.system.DexClassLoader.loadClass(Ljava/lang/String;)Ljava/lang/Class;",
      "eventChain": [
        {
          "start": "com.fangcai.pcwc.wpt.onCreate(Landroid/os/Bundle;)V",
          "target": "invokevirtual \u003c Application, Ldalvik/system/DexClassLoader, loadClass(Ljava/lang/String;)Ljava/lang/Class; \u003e@31",
          "type": "activity",
          "component": "com.fangcai.pcwc.wpt"
        }
      ]
    },
    "2": {
      "startMethod": "com.fangcai.pcwc.wpt.onCreate(Landroid/os/Bundle;)V",
      "targetMethod": "dalvik.system.DexClassLoader.loadClass(Ljava/lang/String;)Ljava/lang/Class;",
      "eventChain": [
        {
          "start": "com.fangcai.pcwc.wpt.onCreate(Landroid/os/Bundle;)V",
          "target": "invokevirtual \u003c Application, Ldalvik/system/DexClassLoader, loadClass(Ljava/lang/String;)Ljava/lang/Class; \u003e@80",
          "type": "activity",
          "component": "com.fangcai.pcwc.wpt"
        }
      ]
    },
    "3": {
      "startMethod": "com.fangcai.pcwc.wpt.onCreate(Landroid/os/Bundle;)V",
      "targetMethod": "java.lang.reflect.Method.invoke(Ljava/lang/Object;[Ljava/lang/Object;)Ljava/lang/Object;",
      "eventChain": [
        {
          "start": "com.fangcai.pcwc.wpt.onCreate(Landroid/os/Bundle;)V",
          "target": "invokevirtual \u003c Application, Ljava/lang/reflect/Method, invoke(Ljava/lang/Object;[Ljava/lang/Object;)Ljava/lang/Object; \u003e@252",
          "type": "activity",
          "component": "com.fangcai.pcwc.wpt"
        }
      ]
    },
    "4": {
      "startMethod": "com.wangcai.ccwc.wcr.onReceive(Landroid/content/Context;Landroid/content/Intent;)V",
      "targetMethod": "org.apache.http.client.HttpClient.execute(Lorg/apache/http/client/methods/HttpUriRequest;)Lorg/apache/http/HttpResponse;",
      "eventChain": [
        {
          "start": "com.wangcai.ccwc.wcr.onReceive(Landroid/content/Context;Landroid/content/Intent;)V",
          "target": "invokeinterface \u003c Application, Lorg/apache/http/client/HttpClient, execute(Lorg/apache/http/client/methods/HttpUriRequest;)Lorg/apache/http/HttpResponse; \u003e@136",
          "type": "sms",
          "constraintsFile": "constraints4_0.py",
          "variables": {
            "System.currentTimeMillis()": "IAAv3",
            "\u003cChainedInput2\u003e.getAction()": "IAAv0",
            "\u003cSystemPrevTime\u003e": "IAAv4"
          },
          "stringMap": {
            "7000": "android.intent.action.PACKAGE_ADDED",
            "7001": "android.net.conn.CONNECTIVITY_CHANGE"
          },
          "strings": {
            "IAAv0": ""
          }
        }
      ]
    },
    "5": {
      "startMethod": "com.wangcai.ccwc.wcr.onReceive(Landroid/content/Context;Landroid/content/Intent;)V",
      "targetMethod": "org.apache.http.client.HttpClient.execute(Lorg/apache/http/client/methods/HttpUriRequest;)Lorg/apache/http/HttpResponse;",
      "eventChain": [
        {
          "start": "com.wangcai.ccwc.wcr.onReceive(Landroid/content/Context;Landroid/content/Intent;)V",
          "target": "PC@7",
          "type": "sms",
          "constraintsFile": "constraints5_0.py",
          "variables": {
            "System.currentTimeMillis()": "IAAv3",
            "\u003cChainedInput2\u003e.getAction()": "IAAv0",
            "\u003cSystemPrevTime\u003e": "IAAv4"
          },
          "stringMap": {
            "7000": "android.intent.action.PACKAGE_ADDED",
            "7001": "android.net.conn.CONNECTIVITY_CHANGE"
          },
          "strings": {
            "IAAv0": ""
          }
        },
        {
          "start": "com.wangcai.ccwc.wcr.onReceive(Landroid/content/Context;Landroid/content/Intent;)V",
          "target": "PC@21",
          "type": "sms",
          "constraintsFile": "constraints5_1.py",
          "variables": {
            "System.currentTimeMillis()": "IAAv3",
            "\u003cChainedInput2\u003e.getAction()": "IAAv0",
            "\u003cSystemPrevTime\u003e": "IAAv4"
          },
          "stringMap": {
            "7000": "android.intent.action.PACKAGE_ADDED",
            "7001": "android.net.conn.CONNECTIVITY_CHANGE",
            "7002": ""
          },
          "strings": {
            "IAAv0": "",
            "IAAv12": "",
            "IAAv14": ""
          }
        },
        {
          "start": "com.wangcai.ccwc.wcr.onReceive(Landroid/content/Context;Landroid/content/Intent;)V",
          "target": "invokeinterface \u003c Application, Lorg/apache/http/client/HttpClient, execute(Lorg/apache/http/client/methods/HttpUriRequest;)Lorg/apache/http/HttpResponse; \u003e@92",
          "type": "sms",
          "constraintsFile": "constraints5_2.py",
          "variables": {
            "System.currentTimeMillis()": "IAAv3",
            "\u003cChainedInput2\u003e.getAction()": "IAAv0",
            "\u003cSystemPrevTime\u003e": "IAAv4"
          },
          "stringMap": {
            "7000": "android.intent.action.PACKAGE_ADDED",
            "7001": "android.net.conn.CONNECTIVITY_CHANGE",
            "7002": ""
          },
          "strings": {
            "IAAv0": "",
            "IAAv12": "",
            "IAAv14": ""
          }
        }
      ]
    },
    "6": {
      "startMethod": "com.wangcai.ccwc.wcr.onReceive(Landroid/content/Context;Landroid/content/Intent;)V",
      "targetMethod": "org.apache.http.client.HttpClient.execute(Lorg/apache/http/client/methods/HttpUriRequest;)Lorg/apache/http/HttpResponse;",
      "eventChain": [
        {
          "start": "com.wangcai.ccwc.wcr.onReceive(Landroid/content/Context;Landroid/content/Intent;)V",
          "target": "invokeinterface \u003c Application, Lorg/apache/http/client/HttpClient, execute(Lorg/apache/http/client/methods/HttpUriRequest;)Lorg/apache/http/HttpResponse; \u003e@404",
          "type": "sms",
          "constraintsFile": "constraints6_0.py",
          "variables": {
            "System.currentTimeMillis()": "IAAv3",
            "\u003cChainedInput2\u003e.getAction()": "IAAv0",
            "\u003cSystemPrevTime\u003e": "IAAv4"
          },
          "stringMap": {
            "7000": "android.intent.action.PACKAGE_ADDED",
            "7001": "android.net.conn.CONNECTIVITY_CHANGE"
          },
          "strings": {
            "IAAv0": ""
          }
        }
      ]
    },
    "7": {
      "startMethod": "com.fangcai.pcwc.wpr.onReceive(Landroid/content/Context;Landroid/content/Intent;)V",
      "targetMethod": "java.lang.reflect.Method.invoke(Ljava/lang/Object;[Ljava/lang/Object;)Ljava/lang/Object;",
      "eventChain": [
        {
          "start": "com.fangcai.pcwc.wpr.onReceive(Landroid/content/Context;Landroid/content/Intent;)V",
          "target": "invokevirtual \u003c Application, Ljava/lang/reflect/Method, invoke(Ljava/lang/Object;[Ljava/lang/Object;)Ljava/lang/Object; \u003e@54",
          "type": "sms"
        }
      ]
    },
    "8": {
      "startMethod": "com.fangcai.pcwc.wpr.onReceive(Landroid/content/Context;Landroid/content/Intent;)V",
      "targetMethod": "dalvik.system.DexClassLoader.loadClass(Ljava/lang/String;)Ljava/lang/Class;",
      "eventChain": [
        {
          "start": "com.fangcai.pcwc.wpt.onCreate(Landroid/os/Bundle;)V",
          "target": "",
          "type": "activity",
          "component": "com.fangcai.pcwc.wpt"
        },
        {
          "start": "com.fangcai.pcwc.wpt.onCreate(Landroid/os/Bundle;)V",
          "target": "PC@62",
          "type": "activity",
          "component": "com.fangcai.pcwc.wpt"
        },
        {
          "start": "com.fangcai.pcwc.wpr.onReceive(Landroid/content/Context;Landroid/content/Intent;)V",
          "target": "invokevirtual \u003c Application, Ldalvik/system/DexClassLoader, loadClass(Ljava/lang/String;)Ljava/lang/Class; \u003e@80",
          "type": "sms",
          "constraintsFile": "constraints8_0.py",
          "variables": {},
          "stringMap": {},
          "strings": {}
        }
      ]
    },
    "9": {
      "startMethod": "com.fangcai.pcwc.wpr.onReceive(Landroid/content/Context;Landroid/content/Intent;)V",
      "targetMethod": "java.lang.reflect.Method.invoke(Ljava/lang/Object;[Ljava/lang/Object;)Ljava/lang/Object;",
      "eventChain": [
        {
          "start": "com.fangcai.pcwc.wpt.onCreate(Landroid/os/Bundle;)V",
          "target": "",
          "type": "activity",
          "component": "com.fangcai.pcwc.wpt"
        },
        {
          "start": "com.fangcai.pcwc.wpt.onCreate(Landroid/os/Bundle;)V",
          "target": "PC@26",
          "type": "activity",
          "component": "com.fangcai.pcwc.wpt"
        },
        {
          "start": "com.fangcai.pcwc.wpt.onCreate(Landroid/os/Bundle;)V",
          "target": "PC@62",
          "type": "activity",
          "component": "com.fangcai.pcwc.wpt"
        },
        {
          "start": "com.fangcai.pcwc.wpr.onReceive(Landroid/content/Context;Landroid/content/Intent;)V",
          "target": "invokevirtual \u003c Application, Ljava/lang/reflect/Method, invoke(Ljava/lang/Object;[Ljava/lang/Object;)Ljava/lang/Object; \u003e@252",
          "type": "sms",
          "constraintsFile": "constraints9_0.py",
          "variables": {},
          "stringMap": {},
          "strings": {}
        }
      ]
    },
    "10": {
      "startMethod": "com.fangcai.pcwc.wpr.onReceive(Landroid/content/Context;Landroid/content/Intent;)V",
      "targetMethod": "dalvik.system.DexClassLoader.loadClass(Ljava/lang/String;)Ljava/lang/Class;",
      "eventChain": [
        {
          "start": "com.fangcai.pcwc.wpr.onReceive(Landroid/content/Context;Landroid/content/Intent;)V",
          "target": "invokevirtual \u003c Application, Ldalvik/system/DexClassLoader, loadClass(Ljava/lang/String;)Ljava/lang/Class; \u003e@31",
          "type": "sms"
        }
      ]
    },
    "11": {
      "startMethod": "com.sakya.kya.onDestroy()V",
      "targetMethod": "java.lang.reflect.Method.invoke(Ljava/lang/Object;[Ljava/lang/Object;)Ljava/lang/Object;",
      "eventChain": [
        {
          "start": "com.sakya.kya.onDestroy()V",
          "target": "invokevirtual \u003c Application, Ljava/lang/reflect/Method, invoke(Ljava/lang/Object;[Ljava/lang/Object;)Ljava/lang/Object; \u003e@40",
          "type": "service",
          "component": "com.sakya.kya"
        }
      ]
    },
    "12": {
      "startMethod": "com.wangcai.ccwc.wct.onCreate(Landroid/os/Bundle;)V",
      "targetMethod": "org.apache.http.client.HttpClient.execute(Lorg/apache/http/client/methods/HttpUriRequest;)Lorg/apache/http/HttpResponse;",
      "eventChain": [
        {
          "start": "com.wangcai.ccwc.wct.onCreate(Landroid/os/Bundle;)V",
          "target": "invokeinterface \u003c Application, Lorg/apache/http/client/HttpClient, execute(Lorg/apache/http/client/methods/HttpUriRequest;)Lorg/apache/http/HttpResponse; \u003e@404",
          "type": "activity",
          "component": "com.wangcai.ccwc.wct"
        }
      ]
    },
    "13": {
      "startMethod": "com.wangcai.ccwc.wct.onCreate(Landroid/os/Bundle;)V",
      "targetMethod": "org.apache.http.client.HttpClient.execute(Lorg/apache/http/client/methods/HttpUriRequest;)Lorg/apache/http/HttpResponse;",
      "eventChain": [
        {
          "start": "com.wangcai.ccwc.wct.onCreate(Landroid/os/Bundle;)V",
          "target": "invokeinterface \u003c Application, Lorg/apache/http/client/HttpClient, execute(Lorg/apache/http/client/methods/HttpUriRequest;)Lorg/apache/http/HttpResponse; \u003e@92",
          "type": "activity",
          "component": "com.wangcai.ccwc.wct"
        }
      ]
    },
    "14": {
      "startMethod": "com.wangcai.ccwc.wct.onCreate(Landroid/os/Bundle;)V",
      "targetMethod": "org.apache.http.client.HttpClient.execute(Lorg/apache/http/client/methods/HttpUriRequest;)Lorg/apache/http/HttpResponse;",
      "eventChain": [
        {
          "start": "com.wangcai.ccwc.wct.onCreate(Landroid/os/Bundle;)V",
          "target": "invokeinterface \u003c Application, Lorg/apache/http/client/HttpClient, execute(Lorg/apache/http/client/methods/HttpUriRequest;)Lorg/apache/http/HttpResponse; \u003e@136",
          "type": "activity",
          "component": "com.wangcai.ccwc.wct"
        }
      ]
    },
    "15": {
      "startMethod": "gzg.car.sric.android.WelActivity.onCreate(Landroid/os/Bundle;)V",
      "targetMethod": "dalvik.system.DexClassLoader.loadClass(Ljava/lang/String;)Ljava/lang/Class;",
      "eventChain": [
        {
          "start": "gzg.car.sric.android.WelActivity.onCreate(Landroid/os/Bundle;)V",
          "target": "invokevirtual \u003c Application, Ldalvik/system/DexClassLoader, loadClass(Ljava/lang/String;)Ljava/lang/Class; \u003e@116",
          "type": "activity",
          "component": "gzg.car.sric.android.WelActivity"
        }
      ]
    },
    "16": {
      "startMethod": "gzg.car.sric.android.WelActivity.onCreate(Landroid/os/Bundle;)V",
      "targetMethod": "org.apache.http.client.HttpClient.execute(Lorg/apache/http/client/methods/HttpUriRequest;)Lorg/apache/http/HttpResponse;",
      "eventChain": [
        {
          "start": "gzg.car.sric.android.WelActivity.onCreate(Landroid/os/Bundle;)V",
          "target": "invokeinterface \u003c Application, Lorg/apache/http/client/HttpClient, execute(Lorg/apache/http/client/methods/HttpUriRequest;)Lorg/apache/http/HttpResponse; \u003e@136",
          "type": "activity",
          "component": "gzg.car.sric.android.WelActivity"
        }
      ]
    },
    "17": {
      "startMethod": "gzg.car.sric.android.WelActivity.onCreate(Landroid/os/Bundle;)V",
      "targetMethod": "org.apache.http.client.HttpClient.execute(Lorg/apache/http/client/methods/HttpUriRequest;)Lorg/apache/http/HttpResponse;",
      "eventChain": [
        {
          "start": "gzg.car.sric.android.WelActivity.onCreate(Landroid/os/Bundle;)V",
          "target": "invokeinterface \u003c Application, Lorg/apache/http/client/HttpClient, execute(Lorg/apache/http/client/methods/HttpUriRequest;)Lorg/apache/http/HttpResponse; \u003e@92",
          "type": "activity",
          "component": "gzg.car.sric.android.WelActivity"
        }
      ]
    },
    "18": {
      "startMethod": "gzg.car.sric.android.WelActivity.onCreate(Landroid/os/Bundle;)V",
      "targetMethod": "java.lang.reflect.Method.invoke(Ljava/lang/Object;[Ljava/lang/Object;)Ljava/lang/Object;",
      "eventChain": [
        {
          "start": "gzg.car.sric.android.WelActivity.onCreate(Landroid/os/Bundle;)V",
          "target": "invokevirtual \u003c Application, Ljava/lang/reflect/Method, invoke(Ljava/lang/Object;[Ljava/lang/Object;)Ljava/lang/Object; \u003e@40",
          "type": "activity",
          "component": "gzg.car.sric.android.WelActivity"
        }
      ]
    },
    "19": {
      "startMethod": "gzg.car.sric.android.WelActivity.onCreate(Landroid/os/Bundle;)V",
      "targetMethod": "org.apache.http.client.HttpClient.execute(Lorg/apache/http/client/methods/HttpUriRequest;)Lorg/apache/http/HttpResponse;",
      "eventChain": [
        {
          "start": "gzg.car.sric.android.WelActivity.onCreate(Landroid/os/Bundle;)V",
          "target": "invokeinterface \u003c Application, Lorg/apache/http/client/HttpClient, execute(Lorg/apache/http/client/methods/HttpUriRequest;)Lorg/apache/http/HttpResponse; \u003e@404",
          "type": "activity",
          "component": "gzg.car.sric.android.WelActivity"
        }
      ]
    },
    "20": {
      "startMethod": "com.wangcai.ccwc.ui.c.onItemClick(Landroid/widget/AdapterView;Landroid/view/View;IJ)V",
      "targetMethod": "org.apache.http.client.HttpClient.execute(Lorg/apache/http/client/methods/HttpUriRequest;)Lorg/apache/http/HttpResponse;",
      "eventChain": [
        {
          "start": "com.wangcai.ccwc.wct.onCreate(Landroid/os/Bundle;)V",
          "target": "invokevirtual \u003c Application, Lcom/wangcai/ccwc/ui/ad, setOnItemClickListener(Landroid/widget/AdapterView$OnItemClickListener;)V \u003e@514",
          "type": "activity",
          "component": "com.wangcai.ccwc.wct"
        },
        {
          "start": "com.wangcai.ccwc.wcr.onReceive(Landroid/content/Context;Landroid/content/Intent;)V",
          "target": "PC@113",
          "type": "sms",
          "constraintsFile": "constraints20_0.py",
          "variables": {
            "System.currentTimeMillis()": "IAAv9",
            "\u003cChainedInput2\u003e.getAction()": "IAAv6",
            "\u003cSystemPrevTime\u003e": "IAAv10"
          },
          "stringMap": {
            "7000": "android.intent.action.PACKAGE_ADDED",
            "7001": "android.net.conn.CONNECTIVITY_CHANGE"
          },
          "strings": {
            "IAAv6": ""
          }
        },
        {
          "start": "com.wangcai.ccwc.ui.c.onItemClick(Landroid/widget/AdapterView;Landroid/view/View;IJ)V",
          "target": "invokeinterface \u003c Application, Lorg/apache/http/client/HttpClient, execute(Lorg/apache/http/client/methods/HttpUriRequest;)Lorg/apache/http/HttpResponse; \u003e@404",
          "type": "ui",
          "activities": [
            "gzg.car.sric.android.WelActivity"
          ],
          "listener": "com.wangcai.ccwc.ui.c",
          "listenerMethod": "onItemClick",
          "uiType": "onItemClick",
          "constraintsFile": "constraints20_1.py",
          "variables": {},
          "stringMap": {},
          "strings": {}
        }
      ]
    },
    "21": {
      "startMethod": "com.wangcai.ccwc.ui.c.onItemClick(Landroid/widget/AdapterView;Landroid/view/View;IJ)V",
      "targetMethod": "org.apache.http.client.HttpClient.execute(Lorg/apache/http/client/methods/HttpUriRequest;)Lorg/apache/http/HttpResponse;",
      "eventChain": [
        {
          "start": "com.wangcai.ccwc.wct.onCreate(Landroid/os/Bundle;)V",
          "target": "invokevirtual \u003c Application, Lcom/wangcai/ccwc/ui/ad, setOnItemClickListener(Landroid/widget/AdapterView$OnItemClickListener;)V \u003e@514",
          "type": "activity",
          "component": "com.wangcai.ccwc.wct"
        },
        {
          "start": "com.wangcai.ccwc.wcr.onReceive(Landroid/content/Context;Landroid/content/Intent;)V",
          "target": "",
          "type": "sms",
          "constraintsFile": "constraints21_0.py",
          "variables": {
            "System.currentTimeMillis()": "IAAv3",
            "\u003cChainedInput2\u003e.getAction()": "IAAv0",
            "\u003cSystemPrevTime\u003e": "IAAv4"
          },
          "stringMap": {
            "7000": "android.intent.action.PACKAGE_ADDED",
            "7001": "android.net.conn.CONNECTIVITY_CHANGE"
          },
          "strings": {
            "IAAv0": ""
          }
        },
        {
          "start": "com.wangcai.ccwc.wcr.onReceive(Landroid/content/Context;Landroid/content/Intent;)V",
          "target": "PC@3",
          "type": "sms",
          "constraintsFile": "constraints21_1.py",
          "variables": {
            "\u003cChainedInput2\u003e.getAction()": "IAAv17",
            "System.currentTimeMillis()": "IAAv20",
            "\u003cSystemPrevTime\u003e": "IAAv21"
          },
          "stringMap": {
            "7000": "",
            "7001": "android.intent.action.PACKAGE_ADDED",
            "7002": "android.net.conn.CONNECTIVITY_CHANGE"
          },
          "strings": {
            "IAAv12": "",
            "IAAv14": "",
            "IAAv17": ""
          }
        },
        {
          "start": "com.wangcai.ccwc.wcr.onReceive(Landroid/content/Context;Landroid/content/Intent;)V",
          "target": "PC@71",
          "type": "sms",
          "constraintsFile": "constraints21_2.py",
          "variables": {
            "System.currentTimeMillis()": "IAAv3",
            "\u003cChainedInput2\u003e.getAction()": "IAAv0",
            "\u003cSystemPrevTime\u003e": "IAAv4"
          },
          "stringMap": {
            "7000": "android.intent.action.PACKAGE_ADDED",
            "7001": "android.net.conn.CONNECTIVITY_CHANGE"
          },
          "strings": {
            "IAAv0": ""
          }
        },
        {
          "start": "com.wangcai.ccwc.ui.c.onItemClick(Landroid/widget/AdapterView;Landroid/view/View;IJ)V",
          "target": "invokeinterface \u003c Application, Lorg/apache/http/client/HttpClient, execute(Lorg/apache/http/client/methods/HttpUriRequest;)Lorg/apache/http/HttpResponse; \u003e@92",
          "type": "ui",
          "activities": [
            "gzg.car.sric.android.WelActivity"
          ],
          "listener": "com.wangcai.ccwc.ui.c",
          "listenerMethod": "onItemClick",
          "uiType": "onItemClick",
          "constraintsFile": "constraints21_3.py",
          "variables": {},
          "stringMap": {
            "7000": ""
          },
          "strings": {
            "IAAv12": "",
            "IAAv14": ""
          }
        }
      ]
    },
    "22": {
      "startMethod": "com.wangcai.ccwc.ui.c.onItemClick(Landroid/widget/AdapterView;Landroid/view/View;IJ)V",
      "targetMethod": "org.apache.http.client.HttpClient.execute(Lorg/apache/http/client/methods/HttpUriRequest;)Lorg/apache/http/HttpResponse;",
      "eventChain": [
        {
          "start": "com.wangcai.ccwc.wct.onCreate(Landroid/os/Bundle;)V",
          "target": "invokevirtual \u003c Application, Lcom/wangcai/ccwc/ui/ad, setOnItemClickListener(Landroid/widget/AdapterView$OnItemClickListener;)V \u003e@514",
          "type": "activity",
          "component": "com.wangcai.ccwc.wct"
        },
        {
          "start": "com.wangcai.ccwc.wcr.onReceive(Landroid/content/Context;Landroid/content/Intent;)V",
          "target": "",
          "type": "sms",
          "constraintsFile": "constraints22_0.py",
          "variables": {
            "System.currentTimeMillis()": "IAAv3",
            "\u003cChainedInput2\u003e.getAction()": "IAAv0",
            "\u003cSystemPrevTime\u003e": "IAAv4"
          },
          "stringMap": {
            "7000": "android.intent.action.PACKAGE_ADDED",
            "7001": "android.net.conn.CONNECTIVITY_CHANGE"
          },
          "strings": {
            "IAAv0": ""
          }
        },
        {
          "start": "com.wangcai.ccwc.wcr.onReceive(Landroid/content/Context;Landroid/content/Intent;)V",
          "target": "PC@3",
          "type": "sms",
          "constraintsFile": "constraints22_1.py",
          "variables": {
            "\u003cChainedInput2\u003e.getAction()": "IAAv18",
            "System.currentTimeMillis()": "IAAv21",
            "\u003cSystemPrevTime\u003e": "IAAv22"
          },
          "stringMap": {
            "7000": "",
            "7001": "android.intent.action.PACKAGE_ADDED",
            "7002": "android.net.conn.CONNECTIVITY_CHANGE"
          },
          "strings": {
            "IAAv12": "",
            "IAAv18": ""
          }
        },
        {
          "start": "com.wangcai.ccwc.wcr.onReceive(Landroid/content/Context;Landroid/content/Intent;)V",
          "target": "PC@71",
          "type": "sms",
          "constraintsFile": "constraints22_2.py",
          "variables": {
            "System.currentTimeMillis()": "IAAv3",
            "\u003cChainedInput2\u003e.getAction()": "IAAv0",
            "\u003cSystemPrevTime\u003e": "IAAv4"
          },
          "stringMap": {
            "7000": "android.intent.action.PACKAGE_ADDED",
            "7001": "android.net.conn.CONNECTIVITY_CHANGE"
          },
          "strings": {
            "IAAv0": ""
          }
        },
        {
          "start": "com.wangcai.ccwc.ui.c.onItemClick(Landroid/widget/AdapterView;Landroid/view/View;IJ)V",
          "target": "invokeinterface \u003c Application, Lorg/apache/http/client/HttpClient, execute(Lorg/apache/http/client/methods/HttpUriRequest;)Lorg/apache/http/HttpResponse; \u003e@136",
          "type": "ui",
          "activities": [
            "gzg.car.sric.android.WelActivity"
          ],
          "listener": "com.wangcai.ccwc.ui.c",
          "listenerMethod": "onItemClick",
          "uiType": "onItemClick",
          "constraintsFile": "constraints22_3.py",
          "variables": {},
          "stringMap": {
            "7000": ""
          },
          "strings": {
            "IAAv12": ""
          }
        }
      ]
    },
    "23": {
      "startMethod": "gzg.car.sric.android.WelActivity.onKeyDown(ILandroid/view/KeyEvent;)Z",
      "targetMethod": "java.lang.reflect.Method.invoke(Ljava/lang/Object;[Ljava/lang/Object;)Ljava/lang/Object;",
      "eventChain": [
        {
          "start": "gzg.car.sric.android.WelActivity.onKeyDown(ILandroid/view/KeyEvent;)Z",
          "target": "invokevirtual \u003c Application, Ljava/lang/reflect/Method, invoke(Ljava/lang/Object;[Ljava/lang/Object;)Ljava/lang/Object; \u003e@40",
          "type": "ui",
          "activities": [
            "gzg.car.sric.android.WelActivity"
          ],
          "listener": "gzg.car.sric.android.WelActivity",
          "listenerMethod": "onKeyDown",
          "uiType": "onKeyDown",
          "constraintsFile": "constraints23_0.py",
          "variables": {
            "\u003cInput1\u003e": "IAAv0"
          },
          "stringMap": {},
          "strings": {}
        }
      ]
    },
    "24": {
      "startMethod": "gzg.car.sric.android.WelActivity.onKeyDown(ILandroid/view/KeyEvent;)Z",
      "targetMethod": "dalvik.system.DexClassLoader.loadClass(Ljava/lang/String;)Ljava/lang/Class;",
      "eventChain": [
        {
          "start": "gzg.car.sric.android.WelActivity.onKeyDown(ILandroid/view/KeyEvent;)Z",
          "target": "invokevirtual \u003c Application, Ldalvik/system/DexClassLoader, loadClass(Ljava/lang/String;)Ljava/lang/Class; \u003e@116",
          "type": "ui",
          "activities": [
            "gzg.car.sric.android.WelActivity"
          ],
          "listener": "gzg.car.sric.android.WelActivity",
          "listenerMethod": "onKeyDown",
          "uiType": "onKeyDown",
          "constraintsFile": "constraints24_0.py",
          "variables": {
            "\u003cInput1\u003e": "IAAv0"
          },
          "stringMap": {},
          "strings": {}
        }
      ]
    },
    "25": {
      "startMethod": "com.sakya.Main.onKeyDown(ILandroid/view/KeyEvent;)Z",
      "targetMethod": "dalvik.system.DexClassLoader.loadClass(Ljava/lang/String;)Ljava/lang/Class;",
      "eventChain": [
        {
          "start": "com.sakya.Main.onKeyDown(ILandroid/view/KeyEvent;)Z",
          "target": "invokevirtual \u003c Application, Ldalvik/system/DexClassLoader, loadClass(Ljava/lang/String;)Ljava/lang/Class; \u003e@116",
          "type": "ui",
          "activities": [
            "gzg.car.sric.android.WelActivity"
          ],
          "listener": "com.sakya.Main",
          "listenerMethod": "onKeyDown",
          "uiType": "onKeyDown",
          "constraintsFile": "constraints25_0.py",
          "variables": {
            "\u003cInput1\u003e": "IAAv0"
          },
          "stringMap": {},
          "strings": {}
        }
      ]
    },
    "26": {
      "startMethod": "com.sakya.Main.onKeyDown(ILandroid/view/KeyEvent;)Z",
      "targetMethod": "java.lang.reflect.Method.invoke(Ljava/lang/Object;[Ljava/lang/Object;)Ljava/lang/Object;",
      "eventChain": [
        {
          "start": "com.sakya.Main.onKeyDown(ILandroid/view/KeyEvent;)Z",
          "target": "invokevirtual \u003c Application, Ljava/lang/reflect/Method, invoke(Ljava/lang/Object;[Ljava/lang/Object;)Ljava/lang/Object; \u003e@40",
          "type": "ui",
          "activities": [
            "gzg.car.sric.android.WelActivity"
          ],
          "listener": "com.sakya.Main",
          "listenerMethod": "onKeyDown",
          "uiType": "onKeyDown",
          "constraintsFile": "constraints26_0.py",
          "variables": {
            "\u003cInput1\u003e": "IAAv0"
          },
          "stringMap": {},
          "strings": {}
        }
      ]
    },
    "27": {
      "startMethod": "com.fangcai.pcwc.wpt.onKeyDown(ILandroid/view/KeyEvent;)Z",
      "targetMethod": "dalvik.system.DexClassLoader.loadClass(Ljava/lang/String;)Ljava/lang/Class;",
      "eventChain": [
        {
          "start": "com.fangcai.pcwc.wpt.onKeyDown(ILandroid/view/KeyEvent;)Z",
          "target": "invokevirtual \u003c Application, Ldalvik/system/DexClassLoader, loadClass(Ljava/lang/String;)Ljava/lang/Class; \u003e@80",
          "type": "ui",
          "activities": [
            "gzg.car.sric.android.WelActivity"
          ],
          "listener": "com.fangcai.pcwc.wpt",
          "listenerMethod": "onKeyDown",
          "uiType": "onKeyDown",
          "constraintsFile": "constraints27_0.py",
          "variables": {
            "\u003cInput1\u003e": "IAAv0"
          },
          "stringMap": {},
          "strings": {}
        }
      ]
    },
    "28": {
      "startMethod": "com.fangcai.pcwc.wpt.onKeyDown(ILandroid/view/KeyEvent;)Z",
      "targetMethod": "java.lang.reflect.Method.invoke(Ljava/lang/Object;[Ljava/lang/Object;)Ljava/lang/Object;",
      "eventChain": [
        {
          "start": "com.fangcai.pcwc.wpt.onKeyDown(ILandroid/view/KeyEvent;)Z",
          "target": "invokevirtual \u003c Application, Ljava/lang/reflect/Method, invoke(Ljava/lang/Object;[Ljava/lang/Object;)Ljava/lang/Object; \u003e@54",
          "type": "ui",
          "activities": [
            "gzg.car.sric.android.WelActivity"
          ],
          "listener": "com.fangcai.pcwc.wpt",
          "listenerMethod": "onKeyDown",
          "uiType": "onKeyDown",
          "constraintsFile": "constraints28_0.py",
          "variables": {
            "\u003cInput1\u003e": "IAAv0"
          },
          "stringMap": {},
          "strings": {}
        }
      ]
    },
    "29": {
      "startMethod": "com.fangcai.pcwc.wpt.onKeyDown(ILandroid/view/KeyEvent;)Z",
      "targetMethod": "dalvik.system.DexClassLoader.loadClass(Ljava/lang/String;)Ljava/lang/Class;",
      "eventChain": [
        {
          "start": "com.fangcai.pcwc.wpt.onKeyDown(ILandroid/view/KeyEvent;)Z",
          "target": "invokevirtual \u003c Application, Ldalvik/system/DexClassLoader, loadClass(Ljava/lang/String;)Ljava/lang/Class; \u003e@31",
          "type": "ui",
          "activities": [
            "gzg.car.sric.android.WelActivity"
          ],
          "listener": "com.fangcai.pcwc.wpt",
          "listenerMethod": "onKeyDown",
          "uiType": "onKeyDown",
          "constraintsFile": "constraints29_0.py",
          "variables": {
            "\u003cInput1\u003e": "IAAv0"
          },
          "stringMap": {},
          "strings": {}
        }
      ]
    },
    "30": {
      "startMethod": "com.fangcai.pcwc.wpt.onKeyDown(ILandroid/view/KeyEvent;)Z",
      "targetMethod": "java.lang.reflect.Method.invoke(Ljava/lang/Object;[Ljava/lang/Object;)Ljava/lang/Object;",
      "eventChain": [
        {
          "start": "com.fangcai.pcwc.wpt.onKeyDown(ILandroid/view/KeyEvent;)Z",
          "target": "invokevirtual \u003c Application, Ljava/lang/reflect/Method, invoke(Ljava/lang/Object;[Ljava/lang/Object;)Ljava/lang/Object; \u003e@252",
          "type": "ui",
          "activities": [
            "gzg.car.sric.android.WelActivity"
          ],
          "listener": "com.fangcai.pcwc.wpt",
          "listenerMethod": "onKeyDown",
          "uiType": "onKeyDown",
          "constraintsFile": "constraints30_0.py",
          "variables": {
            "\u003cInput1\u003e": "IAAv0"
          },
          "stringMap": {},
          "strings": {}
        }
      ]
    },
    "31": {
      "startMethod": "com.wangcai.ccwc.wct.onKeyDown(ILandroid/view/KeyEvent;)Z",
      "targetMethod": "org.apache.http.client.HttpClient.execute(Lorg/apache/http/client/methods/HttpUriRequest;)Lorg/apache/http/HttpResponse;",
      "eventChain": [
        {
          "start": "com.wangcai.ccwc.wct.onCreate(Landroid/os/Bundle;)V",
          "target": "PC@299",
          "type": "activity",
          "component": "com.wangcai.ccwc.wct"
        },
        {
          "start": "com.wangcai.ccwc.wct.onKeyDown(ILandroid/view/KeyEvent;)Z",
          "target": "invokeinterface \u003c Application, Lorg/apache/http/client/HttpClient, execute(Lorg/apache/http/client/methods/HttpUriRequest;)Lorg/apache/http/HttpResponse; \u003e@136",
          "type": "ui",
          "activities": [
            "gzg.car.sric.android.WelActivity"
          ],
          "listener": "com.wangcai.ccwc.wct",
          "listenerMethod": "onKeyDown",
          "uiType": "onKeyDown",
          "constraintsFile": "constraints31_0.py",
          "variables": {
            "\u003cChainedInput1\u003e": "IAAv0"
          },
          "stringMap": {},
          "strings": {}
        }
      ]
    },
    "32": {
      "startMethod": "com.wangcai.ccwc.ui.q.onClick(Landroid/view/View;)V",
      "targetMethod": "org.apache.http.client.HttpClient.execute(Lorg/apache/http/client/methods/HttpUriRequest;)Lorg/apache/http/HttpResponse;",
      "eventChain": [
        {
          "start": "com.wangcai.ccwc.wcr.onReceive(Landroid/content/Context;Landroid/content/Intent;)V",
          "target": "invokevirtual \u003c Application, Landroid/view/View, setOnClickListener(Landroid/view/View$OnClickListener;)V \u003e@319",
          "type": "sms",
          "constraintsFile": "constraints32_0.py",
          "variables": {
            "System.currentTimeMillis()": "IAAv3",
            "\u003cChainedInput2\u003e.getAction()": "IAAv0",
            "\u003cSystemPrevTime\u003e": "IAAv4"
          },
          "stringMap": {
            "7000": "android.intent.action.PACKAGE_ADDED",
            "7001": "android.net.conn.CONNECTIVITY_CHANGE"
          },
          "strings": {
            "IAAv0": ""
          }
        },
        {
          "start": "com.wangcai.ccwc.wcr.onReceive(Landroid/content/Context;Landroid/content/Intent;)V",
          "target": "PC@163",
          "type": "sms",
          "constraintsFile": "constraints32_1.py",
          "variables": {
            "\u003cChainedInput1\u003e.getTag().intValue()": "IAAv0",
            "\u003cChainedInput2\u003e.getAction()": "IAAv8",
            "System.currentTimeMillis()": "IAAv11",
            "\u003cSystemPrevTime\u003e": "IAAv12"
          },
          "stringMap": {
            "7000": "android.intent.action.PACKAGE_ADDED",
            "7001": "android.net.conn.CONNECTIVITY_CHANGE"
          },
          "strings": {
            "IAAv8": ""
          }
        },
        {
          "start": "com.wangcai.ccwc.wcr.onReceive(Landroid/content/Context;Landroid/content/Intent;)V",
          "target": "PC@51",
          "type": "sms",
          "constraintsFile": "constraints32_2.py",
          "variables": {
            "\u003cChainedInput1\u003e.getTag().intValue()": "IAAv0",
            "\u003cChainedInput2\u003e.getAction()": "IAAv8",
            "System.currentTimeMillis()": "IAAv11",
            "\u003cSystemPrevTime\u003e": "IAAv12"
          },
          "stringMap": {
            "7000": "android.intent.action.PACKAGE_ADDED",
            "7001": "android.net.conn.CONNECTIVITY_CHANGE"
          },
          "strings": {
            "IAAv8": ""
          }
        },
        {
          "start": "com.wangcai.ccwc.ui.q.onClick(Landroid/view/View;)V",
          "target": "invokeinterface \u003c Application, Lorg/apache/http/client/HttpClient, execute(Lorg/apache/http/client/methods/HttpUriRequest;)Lorg/apache/http/HttpResponse; \u003e@136",
          "type": "ui",
          "activities": [
            "gzg.car.sric.android.WelActivity"
          ],
          "listener": "com.wangcai.ccwc.ui.q",
          "listenerMethod": "onClick",
          "uiType": "onClick",
          "constraintsFile": "constraints32_3.py",
          "variables": {
            "\u003cChainedInput1\u003e.getTag().intValue()": "IAAv0"
          },
          "stringMap": {},
          "strings": {}
        }
      ]
    },
    "33": {
      "startMethod": "com.sakya.d.onClick(Landroid/view/View;)V",
      "targetMethod": "java.lang.reflect.Method.invoke(Ljava/lang/Object;[Ljava/lang/Object;)Ljava/lang/Object;",
      "eventChain": [
        {
          "start": "com.sakya.d.onClick(Landroid/view/View;)V",
          "target": "invokevirtual \u003c Application, Ljava/lang/reflect/Method, invoke(Ljava/lang/Object;[Ljava/lang/Object;)Ljava/lang/Object; \u003e@40",
          "type": "ui",
          "activities": [
            "gzg.car.sric.android.WelActivity"
          ],
          "listener": "com.sakya.d",
          "listenerMethod": "onClick",
          "uiType": "onClick",
          "constraintsFile": "constraints33_0.py",
          "variables": {},
          "stringMap": {},
          "strings": {}
        }
      ]
    },
    "34": {
      "startMethod": "com.sakya.d.onClick(Landroid/view/View;)V",
      "targetMethod": "dalvik.system.DexClassLoader.loadClass(Ljava/lang/String;)Ljava/lang/Class;",
      "eventChain": [
        {
          "start": "gzg.car.sric.android.WelActivity.onCreate(Landroid/os/Bundle;)V",
          "target": "PC@27",
          "type": "activity",
          "component": "gzg.car.sric.android.WelActivity"
        },
        {
          "start": "com.sakya.d.onClick(Landroid/view/View;)V",
          "target": "invokevirtual \u003c Application, Ldalvik/system/DexClassLoader, loadClass(Ljava/lang/String;)Ljava/lang/Class; \u003e@116",
          "type": "ui",
          "activities": [
            "gzg.car.sric.android.WelActivity"
          ],
          "listener": "com.sakya.d",
          "listenerMethod": "onClick",
          "uiType": "onClick",
          "constraintsFile": "constraints34_0.py",
          "variables": {},
          "stringMap": {},
          "strings": {}
        }
      ]
    },
    "35": {
      "startMethod": "com.wangcai.ccwc.ui.aa.onClick(Landroid/view/View;)V",
      "targetMethod": "org.apache.http.client.HttpClient.execute(Lorg/apache/http/client/methods/HttpUriRequest;)Lorg/apache/http/HttpResponse;",
      "eventChain": [
        {
          "start": "com.wangcai.ccwc.ui.aa.onClick(Landroid/view/View;)V",
          "target": "invokeinterface \u003c Application, Lorg/apache/http/client/HttpClient, execute(Lorg/apache/http/client/methods/HttpUriRequest;)Lorg/apache/http/HttpResponse; \u003e@404",
          "type": "ui",
          "activities": [
            "gzg.car.sric.android.WelActivity"
          ],
          "listener": "com.wangcai.ccwc.ui.aa",
          "listenerMethod": "onClick",
          "uiType": "onClick",
          "constraintsFile": "constraints35_0.py",
          "variables": {},
          "stringMap": {},
          "strings": {}
        }
      ]
    },
    "36": {
      "startMethod": "com.wangcai.ccwc.ui.aa.onClick(Landroid/view/View;)V",
      "targetMethod": "org.apache.http.client.HttpClient.execute(Lorg/apache/http/client/methods/HttpUriRequest;)Lorg/apache/http/HttpResponse;",
      "eventChain": [
        {
          "start": "com.wangcai.ccwc.wcr.onReceive(Landroid/content/Context;Landroid/content/Intent;)V",
          "target": "",
          "type": "sms",
          "constraintsFile": "constraints36_0.py",
          "variables": {
            "System.currentTimeMillis()": "IAAv3",
            "\u003cChainedInput2\u003e.getAction()": "IAAv0",
            "\u003cSystemPrevTime\u003e": "IAAv4"
          },
          "stringMap": {
            "7000": "android.intent.action.PACKAGE_ADDED",
            "7001": "android.net.conn.CONNECTIVITY_CHANGE"
          },
          "strings": {
            "IAAv0": ""
          }
        },
        {
          "start": "com.wangcai.ccwc.wcr.onReceive(Landroid/content/Context;Landroid/content/Intent;)V",
          "target": "PC@3",
          "type": "sms",
          "constraintsFile": "constraints36_1.py",
          "variables": {
            "\u003cChainedInput2\u003e.getAction()": "IAAv17",
            "System.currentTimeMillis()": "IAAv20",
            "\u003cSystemPrevTime\u003e": "IAAv21"
          },
          "stringMap": {
            "7000": "",
            "7001": "android.intent.action.PACKAGE_ADDED",
            "7002": "android.net.conn.CONNECTIVITY_CHANGE"
          },
          "strings": {
            "IAAv12": "",
            "IAAv14": "",
            "IAAv17": ""
          }
        },
        {
          "start": "com.wangcai.ccwc.wcr.onReceive(Landroid/content/Context;Landroid/content/Intent;)V",
          "target": "PC@71",
          "type": "sms",
          "constraintsFile": "constraints36_2.py",
          "variables": {
            "System.currentTimeMillis()": "IAAv3",
            "\u003cChainedInput2\u003e.getAction()": "IAAv0",
            "\u003cSystemPrevTime\u003e": "IAAv4"
          },
          "stringMap": {
            "7000": "android.intent.action.PACKAGE_ADDED",
            "7001": "android.net.conn.CONNECTIVITY_CHANGE"
          },
          "strings": {
            "IAAv0": ""
          }
        },
        {
          "start": "com.wangcai.ccwc.ui.aa.onClick(Landroid/view/View;)V",
          "target": "invokeinterface \u003c Application, Lorg/apache/http/client/HttpClient, execute(Lorg/apache/http/client/methods/HttpUriRequest;)Lorg/apache/http/HttpResponse; \u003e@92",
          "type": "ui",
          "activities": [
            "gzg.car.sric.android.WelActivity"
          ],
          "listener": "com.wangcai.ccwc.ui.aa",
          "listenerMethod": "onClick",
          "uiType": "onClick",
          "constraintsFile": "constraints36_3.py",
          "variables": {},
          "stringMap": {
            "7000": ""
          },
          "strings": {
            "IAAv12": "",
            "IAAv14": ""
          }
        }
      ]
    },
    "37": {
      "startMethod": "com.wangcai.ccwc.ui.aa.onClick(Landroid/view/View;)V",
      "targetMethod": "org.apache.http.client.HttpClient.execute(Lorg/apache/http/client/methods/HttpUriRequest;)Lorg/apache/http/HttpResponse;",
      "eventChain": [
        {
          "start": "com.wangcai.ccwc.wcr.onReceive(Landroid/content/Context;Landroid/content/Intent;)V",
          "target": "",
          "type": "sms",
          "constraintsFile": "constraints37_0.py",
          "variables": {
            "System.currentTimeMillis()": "IAAv3",
            "\u003cChainedInput2\u003e.getAction()": "IAAv0",
            "\u003cSystemPrevTime\u003e": "IAAv4"
          },
          "stringMap": {
            "7000": "android.intent.action.PACKAGE_ADDED",
            "7001": "android.net.conn.CONNECTIVITY_CHANGE"
          },
          "strings": {
            "IAAv0": ""
          }
        },
        {
          "start": "com.wangcai.ccwc.wcr.onReceive(Landroid/content/Context;Landroid/content/Intent;)V",
          "target": "PC@3",
          "type": "sms",
          "constraintsFile": "constraints37_1.py",
          "variables": {
            "\u003cChainedInput2\u003e.getAction()": "IAAv18",
            "System.currentTimeMillis()": "IAAv21",
            "\u003cSystemPrevTime\u003e": "IAAv22"
          },
          "stringMap": {
            "7000": "",
            "7001": "android.intent.action.PACKAGE_ADDED",
            "7002": "android.net.conn.CONNECTIVITY_CHANGE"
          },
          "strings": {
            "IAAv12": "",
            "IAAv18": ""
          }
        },
        {
          "start": "com.wangcai.ccwc.wcr.onReceive(Landroid/content/Context;Landroid/content/Intent;)V",
          "target": "PC@71",
          "type": "sms",
          "constraintsFile": "constraints37_2.py",
          "variables": {
            "System.currentTimeMillis()": "IAAv3",
            "\u003cChainedInput2\u003e.getAction()": "IAAv0",
            "\u003cSystemPrevTime\u003e": "IAAv4"
          },
          "stringMap": {
            "7000": "android.intent.action.PACKAGE_ADDED",
            "7001": "android.net.conn.CONNECTIVITY_CHANGE"
          },
          "strings": {
            "IAAv0": ""
          }
        },
        {
          "start": "com.wangcai.ccwc.ui.aa.onClick(Landroid/view/View;)V",
          "target": "invokeinterface \u003c Application, Lorg/apache/http/client/HttpClient, execute(Lorg/apache/http/client/methods/HttpUriRequest;)Lorg/apache/http/HttpResponse; \u003e@136",
          "type": "ui",
          "activities": [
            "gzg.car.sric.android.WelActivity"
          ],
          "listener": "com.wangcai.ccwc.ui.aa",
          "listenerMethod": "onClick",
          "uiType": "onClick",
          "constraintsFile": "constraints37_3.py",
          "variables": {},
          "stringMap": {
            "7000": ""
          },
          "strings": {
            "IAAv12": ""
          }
        }
      ]
    },
    "38": {
      "startMethod": "com.wangcai.ccwc.ui.c.onClick(Landroid/view/View;)V",
      "targetMethod": "org.apache.http.client.HttpClient.execute(Lorg/apache/http/client/methods/HttpUriRequest;)Lorg/apache/http/HttpResponse;",
      "eventChain": [
        {
          "start": "com.wangcai.ccwc.wct.onCreate(Landroid/os/Bundle;)V",
          "target": "invokevirtual \u003c Application, Landroid/widget/LinearLayout, setOnClickListener(Landroid/view/View$OnClickListener;)V \u003e@1027",
          "type": "activity",
          "component": "com.wangcai.ccwc.wct"
        },
        {
          "start": "com.wangcai.ccwc.wct.onCreate(Landroid/os/Bundle;)V",
          "target": "PC@3",
          "type": "activity",
          "component": "com.wangcai.ccwc.wct"
        },
        {
          "start": "com.wangcai.ccwc.ui.c.onClick(Landroid/view/View;)V",
          "target": "invokeinterface \u003c Application, Lorg/apache/http/client/HttpClient, execute(Lorg/apache/http/client/methods/HttpUriRequest;)Lorg/apache/http/HttpResponse; \u003e@404",
          "type": "ui",
          "activities": [
            "gzg.car.sric.android.WelActivity"
          ],
          "listener": "com.wangcai.ccwc.ui.c",
          "listenerMethod": "onClick",
          "uiType": "onClick",
          "constraintsFile": "constraints38_0.py",
          "variables": {
            "\u003cChainedInput1\u003e.getTag().intValue()": "IAAv1"
          },
          "stringMap": {},
          "strings": {}
        }
      ]
    },
    "39": {
      "startMethod": "com.wangcai.ccwc.ui.c.onClick(Landroid/view/View;)V",
      "targetMethod": "org.apache.http.client.HttpClient.execute(Lorg/apache/http/client/methods/HttpUriRequest;)Lorg/apache/http/HttpResponse;",
      "eventChain": [
        {
          "start": "com.wangcai.ccwc.wct.onCreate(Landroid/os/Bundle;)V",
          "target": "invokevirtual \u003c Application, Landroid/widget/LinearLayout, setOnClickListener(Landroid/view/View$OnClickListener;)V \u003e@1027",
          "type": "activity",
          "component": "com.wangcai.ccwc.wct"
        },
        {
          "start": "com.wangcai.ccwc.wcr.onReceive(Landroid/content/Context;Landroid/content/Intent;)V",
          "target": "",
          "type": "sms",
          "constraintsFile": "constraints39_0.py",
          "variables": {
            "System.currentTimeMillis()": "IAAv3",
            "\u003cChainedInput2\u003e.getAction()": "IAAv0",
            "\u003cSystemPrevTime\u003e": "IAAv4"
          },
          "stringMap": {
            "7000": "android.intent.action.PACKAGE_ADDED",
            "7001": "android.net.conn.CONNECTIVITY_CHANGE"
          },
          "strings": {
            "IAAv0": ""
          }
        },
        {
          "start": "com.wangcai.ccwc.wct.onCreate(Landroid/os/Bundle;)V",
          "target": "PC@3",
          "type": "activity",
          "component": "com.wangcai.ccwc.wct"
        },
        {
          "start": "com.wangcai.ccwc.wcr.onReceive(Landroid/content/Context;Landroid/content/Intent;)V",
          "target": "PC@3",
          "type": "sms",
          "constraintsFile": "constraints39_1.py",
          "variables": {
            "\u003cChainedInput1\u003e.getTag().intValue()": "IAAv1",
            "\u003cChainedInput2\u003e.getAction()": "IAAv20",
            "System.currentTimeMillis()": "IAAv23",
            "\u003cSystemPrevTime\u003e": "IAAv24"
          },
          "stringMap": {
            "7000": "",
            "7001": "android.intent.action.PACKAGE_ADDED",
            "7002": "android.net.conn.CONNECTIVITY_CHANGE"
          },
          "strings": {
            "IAAv20": "",
            "IAAv14": ""
          }
        },
        {
          "start": "com.wangcai.ccwc.wcr.onReceive(Landroid/content/Context;Landroid/content/Intent;)V",
          "target": "PC@71",
          "type": "sms",
          "constraintsFile": "constraints39_2.py",
          "variables": {
            "System.currentTimeMillis()": "IAAv3",
            "\u003cChainedInput2\u003e.getAction()": "IAAv0",
            "\u003cSystemPrevTime\u003e": "IAAv4"
          },
          "stringMap": {
            "7000": "android.intent.action.PACKAGE_ADDED",
            "7001": "android.net.conn.CONNECTIVITY_CHANGE"
          },
          "strings": {
            "IAAv0": ""
          }
        },
        {
          "start": "com.wangcai.ccwc.ui.c.onClick(Landroid/view/View;)V",
          "target": "invokeinterface \u003c Application, Lorg/apache/http/client/HttpClient, execute(Lorg/apache/http/client/methods/HttpUriRequest;)Lorg/apache/http/HttpResponse; \u003e@136",
          "type": "ui",
          "activities": [
            "gzg.car.sric.android.WelActivity"
          ],
          "listener": "com.wangcai.ccwc.ui.c",
          "listenerMethod": "onClick",
          "uiType": "onClick",
          "constraintsFile": "constraints39_3.py",
          "variables": {
            "\u003cChainedInput1\u003e.getTag().intValue()": "IAAv1"
          },
          "stringMap": {
            "7000": ""
          },
          "strings": {
            "IAAv14": ""
          }
        }
      ]
    },
    "40": {
      "startMethod": "com.wangcai.ccwc.ui.c.onClick(Landroid/view/View;)V",
      "targetMethod": "org.apache.http.client.HttpClient.execute(Lorg/apache/http/client/methods/HttpUriRequest;)Lorg/apache/http/HttpResponse;",
      "eventChain": [
        {
          "start": "com.wangcai.ccwc.wct.onCreate(Landroid/os/Bundle;)V",
          "target": "invokevirtual \u003c Application, Landroid/widget/LinearLayout, setOnClickListener(Landroid/view/View$OnClickListener;)V \u003e@1027",
          "type": "activity",
          "component": "com.wangcai.ccwc.wct"
        },
        {
          "start": "com.wangcai.ccwc.wct.onCreate(Landroid/os/Bundle;)V",
          "target": "PC@3",
          "type": "activity",
          "component": "com.wangcai.ccwc.wct"
        },
        {
          "start": "com.wangcai.ccwc.ui.c.onClick(Landroid/view/View;)V",
          "target": "invokeinterface \u003c Application, Lorg/apache/http/client/HttpClient, execute(Lorg/apache/http/client/methods/HttpUriRequest;)Lorg/apache/http/HttpResponse; \u003e@92",
          "type": "ui",
          "activities": [
            "gzg.car.sric.android.WelActivity"
          ],
          "listener": "com.wangcai.ccwc.ui.c",
          "listenerMethod": "onClick",
          "uiType": "onClick",
          "constraintsFile": "constraints40_0.py",
          "variables": {
            "\u003cChainedInput1\u003e.getTag().intValue()": "IAAv1"
          },
          "stringMap": {
            "7000": ""
          },
          "strings": {
            "IAAv7": "",
            "IAAv5": ""
          }
        }
      ]
    },
    "41": {
      "startMethod": "com.wangcai.ccwc.ui.al.onClick(Landroid/view/View;)V",
      "targetMethod": "org.apache.http.client.HttpClient.execute(Lorg/apache/http/client/methods/HttpUriRequest;)Lorg/apache/http/HttpResponse;",
      "eventChain": [
        {
          "start": "com.wangcai.ccwc.wcr.onReceive(Landroid/content/Context;Landroid/content/Intent;)V",
          "target": "invokevirtual \u003c Application, Landroid/widget/ImageView, setOnClickListener(Landroid/view/View$OnClickListener;)V \u003e@865",
          "type": "sms",
          "constraintsFile": "constraints41_0.py",
          "variables": {
            "System.currentTimeMillis()": "IAAv3",
            "\u003cChainedInput2\u003e.getAction()": "IAAv0",
            "\u003cSystemPrevTime\u003e": "IAAv4"
          },
          "stringMap": {
            "7000": "android.intent.action.PACKAGE_ADDED",
            "7001": "android.net.conn.CONNECTIVITY_CHANGE"
          },
          "strings": {
            "IAAv0": ""
          }
        },
        {
          "start": "com.wangcai.ccwc.wcr.onReceive(Landroid/content/Context;Landroid/content/Intent;)V",
          "target": "PC@3",
          "type": "sms",
          "constraintsFile": "constraints41_1.py",
          "variables": {
            "\u003cChainedInput1\u003e.getTag().intValue()": "IAAv1",
            "\u003cChainedInput2\u003e.getAction()": "IAAv19",
            "System.currentTimeMillis()": "IAAv22",
            "\u003cSystemPrevTime\u003e": "IAAv23"
          },
          "stringMap": {
            "7000": "",
            "7001": "android.intent.action.PACKAGE_ADDED",
            "7002": "android.net.conn.CONNECTIVITY_CHANGE"
          },
          "strings": {
            "IAAv14": "",
            "IAAv16": "",
            "IAAv19": ""
          }
        },
        {
          "start": "com.wangcai.ccwc.wcr.onReceive(Landroid/content/Context;Landroid/content/Intent;)V",
          "target": "PC@71",
          "type": "sms",
          "constraintsFile": "constraints41_2.py",
          "variables": {
            "System.currentTimeMillis()": "IAAv3",
            "\u003cChainedInput2\u003e.getAction()": "IAAv0",
            "\u003cSystemPrevTime\u003e": "IAAv4"
          },
          "stringMap": {
            "7000": "android.intent.action.PACKAGE_ADDED",
            "7001": "android.net.conn.CONNECTIVITY_CHANGE"
          },
          "strings": {
            "IAAv0": ""
          }
        },
        {
          "start": "com.wangcai.ccwc.aa.onAnimationEnd(Landroid/view/animation/Animation;)V",
          "target": "PC@3",
          "type": "ui",
          "activities": [
            "gzg.car.sric.android.WelActivity"
          ],
          "listener": "com.wangcai.ccwc.aa",
          "listenerMethod": "onAnimationEnd",
          "uiType": "onAnimationEnd",
          "constraintsFile": "constraints41_3.py",
          "variables": {},
          "stringMap": {},
          "strings": {}
        },
        {
          "start": "com.wangcai.ccwc.ui.al.onClick(Landroid/view/View;)V",
          "target": "invokeinterface \u003c Application, Lorg/apache/http/client/HttpClient, execute(Lorg/apache/http/client/methods/HttpUriRequest;)Lorg/apache/http/HttpResponse; \u003e@92",
          "type": "ui",
          "activities": [
            "gzg.car.sric.android.WelActivity"
          ],
          "listener": "com.wangcai.ccwc.ui.al",
          "listenerMethod": "onClick",
          "uiType": "onClick",
          "constraintsFile": "constraints41_4.py",
          "variables": {
            "\u003cChainedInput1\u003e.getTag().intValue()": "IAAv1"
          },
          "stringMap": {
            "7000": ""
          },
          "strings": {
            "IAAv14": "",
            "IAAv16": ""
          }
        }
      ]
    },
    "42": {
      "startMethod": "com.wangcai.ccwc.ui.al.onClick(Landroid/view/View;)V",
      "targetMethod": "org.apache.http.client.HttpClient.execute(Lorg/apache/http/client/methods/HttpUriRequest;)Lorg/apache/http/HttpResponse;",
      "eventChain": [
        {
          "start": "com.wangcai.ccwc.wcr.onReceive(Landroid/content/Context;Landroid/content/Intent;)V",
          "target": "invokevirtual \u003c Application, Landroid/widget/ImageView, setOnClickListener(Landroid/view/View$OnClickListener;)V \u003e@865",
          "type": "sms",
          "constraintsFile": "constraints42_0.py",
          "variables": {
            "System.currentTimeMillis()": "IAAv3",
            "\u003cChainedInput2\u003e.getAction()": "IAAv0",
            "\u003cSystemPrevTime\u003e": "IAAv4"
          },
          "stringMap": {
            "7000": "android.intent.action.PACKAGE_ADDED",
            "7001": "android.net.conn.CONNECTIVITY_CHANGE"
          },
          "strings": {
            "IAAv0": ""
          }
        },
        {
          "start": "com.wangcai.ccwc.wcr.onReceive(Landroid/content/Context;Landroid/content/Intent;)V",
          "target": "PC@3",
          "type": "sms",
          "constraintsFile": "constraints42_1.py",
          "variables": {
            "\u003cChainedInput1\u003e.getTag().intValue()": "IAAv1",
            "\u003cChainedInput2\u003e.getAction()": "IAAv20",
            "System.currentTimeMillis()": "IAAv23",
            "\u003cSystemPrevTime\u003e": "IAAv24"
          },
          "stringMap": {
            "7000": "",
            "7001": "android.intent.action.PACKAGE_ADDED",
            "7002": "android.net.conn.CONNECTIVITY_CHANGE"
          },
          "strings": {
            "IAAv20": "",
            "IAAv14": ""
          }
        },
        {
          "start": "com.wangcai.ccwc.wcr.onReceive(Landroid/content/Context;Landroid/content/Intent;)V",
          "target": "PC@71",
          "type": "sms",
          "constraintsFile": "constraints42_2.py",
          "variables": {
            "System.currentTimeMillis()": "IAAv3",
            "\u003cChainedInput2\u003e.getAction()": "IAAv0",
            "\u003cSystemPrevTime\u003e": "IAAv4"
          },
          "stringMap": {
            "7000": "android.intent.action.PACKAGE_ADDED",
            "7001": "android.net.conn.CONNECTIVITY_CHANGE"
          },
          "strings": {
            "IAAv0": ""
          }
        },
        {
          "start": "com.wangcai.ccwc.aa.onAnimationEnd(Landroid/view/animation/Animation;)V",
          "target": "PC@3",
          "type": "ui",
          "activities": [
            "gzg.car.sric.android.WelActivity"
          ],
          "listener": "com.wangcai.ccwc.aa",
          "listenerMethod": "onAnimationEnd",
          "uiType": "onAnimationEnd",
          "constraintsFile": "constraints42_3.py",
          "variables": {},
          "stringMap": {},
          "strings": {}
        },
        {
          "start": "com.wangcai.ccwc.ui.al.onClick(Landroid/view/View;)V",
          "target": "invokeinterface \u003c Application, Lorg/apache/http/client/HttpClient, execute(Lorg/apache/http/client/methods/HttpUriRequest;)Lorg/apache/http/HttpResponse; \u003e@136",
          "type": "ui",
          "activities": [
            "gzg.car.sric.android.WelActivity"
          ],
          "listener": "com.wangcai.ccwc.ui.al",
          "listenerMethod": "onClick",
          "uiType": "onClick",
          "constraintsFile": "constraints42_4.py",
          "variables": {
            "\u003cChainedInput1\u003e.getTag().intValue()": "IAAv1"
          },
          "stringMap": {
            "7000": ""
          },
          "strings": {
            "IAAv14": ""
          }
        }
      ]
    },
    "43": {
      "startMethod": "com.wangcai.ccwc.ui.al.onClick(Landroid/view/View;)V",
      "targetMethod": "org.apache.http.client.HttpClient.execute(Lorg/apache/http/client/methods/HttpUriRequest;)Lorg/apache/http/HttpResponse;",
      "eventChain": [
        {
          "start": "com.wangcai.ccwc.wcr.onReceive(Landroid/content/Context;Landroid/content/Intent;)V",
          "target": "invokevirtual \u003c Application, Landroid/widget/ImageView, setOnClickListener(Landroid/view/View$OnClickListener;)V \u003e@865",
          "type": "sms",
          "constraintsFile": "constraints43_0.py",
          "variables": {
            "System.currentTimeMillis()": "IAAv3",
            "\u003cChainedInput2\u003e.getAction()": "IAAv0",
            "\u003cSystemPrevTime\u003e": "IAAv4"
          },
          "stringMap": {
            "7000": "android.intent.action.PACKAGE_ADDED",
            "7001": "android.net.conn.CONNECTIVITY_CHANGE"
          },
          "strings": {
            "IAAv0": ""
          }
        },
        {
          "start": "com.wangcai.ccwc.wcr.onReceive(Landroid/content/Context;Landroid/content/Intent;)V",
          "target": "PC@113",
          "type": "sms",
          "constraintsFile": "constraints43_1.py",
          "variables": {
            "\u003cChainedInput1\u003e.getTag().intValue()": "IAAv1",
            "System.currentTimeMillis()": "IAAv11",
            "\u003cChainedInput2\u003e.getAction()": "IAAv8",
            "\u003cSystemPrevTime\u003e": "IAAv12"
          },
          "stringMap": {
            "7000": "android.intent.action.PACKAGE_ADDED",
            "7001": "android.net.conn.CONNECTIVITY_CHANGE"
          },
          "strings": {
            "IAAv8": ""
          }
        },
        {
          "start": "com.wangcai.ccwc.aa.onAnimationEnd(Landroid/view/animation/Animation;)V",
          "target": "PC@3",
          "type": "ui",
          "activities": [
            "gzg.car.sric.android.WelActivity"
          ],
          "listener": "com.wangcai.ccwc.aa",
          "listenerMethod": "onAnimationEnd",
          "uiType": "onAnimationEnd",
          "constraintsFile": "constraints43_2.py",
          "variables": {},
          "stringMap": {},
          "strings": {}
        },
        {
          "start": "com.wangcai.ccwc.ui.al.onClick(Landroid/view/View;)V",
          "target": "invokeinterface \u003c Application, Lorg/apache/http/client/HttpClient, execute(Lorg/apache/http/client/methods/HttpUriRequest;)Lorg/apache/http/HttpResponse; \u003e@404",
          "type": "ui",
          "activities": [
            "gzg.car.sric.android.WelActivity"
          ],
          "listener": "com.wangcai.ccwc.ui.al",
          "listenerMethod": "onClick",
          "uiType": "onClick",
          "constraintsFile": "constraints43_3.py",
          "variables": {
            "\u003cChainedInput1\u003e.getTag().intValue()": "IAAv1"
          },
          "stringMap": {},
          "strings": {}
        }
      ]
    },
    "44": {
      "startMethod": "com.sakya.c.onClick(Landroid/view/View;)V",
      "targetMethod": "dalvik.system.DexClassLoader.loadClass(Ljava/lang/String;)Ljava/lang/Class;",
      "eventChain": [
        {
          "start": "gzg.car.sric.android.WelActivity.onCreate(Landroid/os/Bundle;)V",
          "target": "PC@27",
          "type": "activity",
          "component": "gzg.car.sric.android.WelActivity"
        },
        {
          "start": "com.sakya.c.onClick(Landroid/view/View;)V",
          "target": "invokevirtual \u003c Application, Ldalvik/system/DexClassLoader, loadClass(Ljava/lang/String;)Ljava/lang/Class; \u003e@116",
          "type": "ui",
          "activities": [
            "gzg.car.sric.android.WelActivity"
          ],
          "listener": "com.sakya.c",
          "listenerMethod": "onClick",
          "uiType": "onClick",
          "constraintsFile": "constraints44_0.py",
          "variables": {},
          "stringMap": {},
          "strings": {}
        }
      ]
    },
    "45": {
      "startMethod": "com.sakya.c.onClick(Landroid/view/View;)V",
      "targetMethod": "java.lang.reflect.Method.invoke(Ljava/lang/Object;[Ljava/lang/Object;)Ljava/lang/Object;",
      "eventChain": [
        {
          "start": "com.sakya.c.onClick(Landroid/view/View;)V",
          "target": "invokevirtual \u003c Application, Ljava/lang/reflect/Method, invoke(Ljava/lang/Object;[Ljava/lang/Object;)Ljava/lang/Object; \u003e@40",
          "type": "ui",
          "activities": [
            "gzg.car.sric.android.WelActivity"
          ],
          "listener": "com.sakya.c",
          "listenerMethod": "onClick",
          "uiType": "onClick",
          "constraintsFile": "constraints45_0.py",
          "variables": {},
          "stringMap": {},
          "strings": {}
        }
      ]
    },
    "46": {
      "startMethod": "com.sakya.LMR.onReceive(Landroid/content/Context;Landroid/content/Intent;)V",
      "targetMethod": "java.lang.reflect.Method.invoke(Ljava/lang/Object;[Ljava/lang/Object;)Ljava/lang/Object;",
      "eventChain": [
        {
          "start": "com.sakya.LMR.onReceive(Landroid/content/Context;Landroid/content/Intent;)V",
          "target": "",
          "type": "sms",
          "constraintsFile": "constraints46_0.py",
          "variables": {
            "\u003cChainedInput2\u003e": "IAAv1",
            "\u003cChainedInput1\u003e": "IAAv0",
            "\u003cChainedInput1\u003e.a()": "IAAv3",
            "\u003cInput1\u003e.a()": "IAAv4"
          },
          "stringMap": {},
          "strings": {}
        },
        {
          "start": "com.sakya.LMR.onReceive(Landroid/content/Context;Landroid/content/Intent;)V",
          "target": "invokevirtual \u003c Application, Ljava/lang/reflect/Method, invoke(Ljava/lang/Object;[Ljava/lang/Object;)Ljava/lang/Object; \u003e@40",
          "type": "sms",
          "constraintsFile": "constraints46_1.py",
          "variables": {
            "\u003cChainedInput2\u003e": "IAAv1",
            "\u003cChainedInput1\u003e": "IAAv0",
            "\u003cChainedInput1\u003e.a()": "IAAv3"
          },
          "stringMap": {},
          "strings": {}
        }
      ]
    },
    "47": {
      "startMethod": "com.sakya.LMR.onReceive(Landroid/content/Context;Landroid/content/Intent;)V",
      "targetMethod": "dalvik.system.DexClassLoader.loadClass(Ljava/lang/String;)Ljava/lang/Class;",
      "eventChain": [
        {
          "start": "com.sakya.LMR.onReceive(Landroid/content/Context;Landroid/content/Intent;)V",
          "target": "",
          "type": "sms",
          "constraintsFile": "constraints47_0.py",
          "variables": {
            "\u003cChainedInput2\u003e": "IAAv1",
            "\u003cChainedInput1\u003e": "IAAv0",
            "\u003cInput1\u003e.a()": "IAAv4"
          },
          "stringMap": {},
          "strings": {}
        },
        {
          "start": "gzg.car.sric.android.WelActivity.onCreate(Landroid/os/Bundle;)V",
          "target": "PC@27",
          "type": "activity",
          "component": "gzg.car.sric.android.WelActivity"
        },
        {
          "start": "com.sakya.LMR.onReceive(Landroid/content/Context;Landroid/content/Intent;)V",
          "target": "invokevirtual \u003c Application, Ldalvik/system/DexClassLoader, loadClass(Ljava/lang/String;)Ljava/lang/Class; \u003e@116",
          "type": "sms",
          "constraintsFile": "constraints47_1.py",
          "variables": {
            "\u003cChainedInput2\u003e": "IAAv1",
            "\u003cChainedInput1\u003e": "IAAv0"
          },
          "stringMap": {},
          "strings": {}
        }
      ]
    },
    "48": {
      "startMethod": "com.wangcai.ccwc.u.onTouch(Landroid/view/View;Landroid/view/MotionEvent;)Z",
      "targetMethod": "org.apache.http.client.HttpClient.execute(Lorg/apache/http/client/methods/HttpUriRequest;)Lorg/apache/http/HttpResponse;",
      "eventChain": [
        {
          "start": "com.wangcai.ccwc.wcr.onReceive(Landroid/content/Context;Landroid/content/Intent;)V",
          "target": "invokevirtual \u003c Application, Lcom/wangcai/ccwc/ui/ah, setOnTouchListener(Landroid/view/View$OnTouchListener;)V \u003e@440",
          "type": "sms",
          "constraintsFile": "constraints48_0.py",
          "variables": {
            "System.currentTimeMillis()": "IAAv3",
            "\u003cChainedInput2\u003e.getAction()": "IAAv0",
            "\u003cSystemPrevTime\u003e": "IAAv4"
          },
          "stringMap": {
            "7000": "android.intent.action.PACKAGE_ADDED",
            "7001": "android.net.conn.CONNECTIVITY_CHANGE"
          },
          "strings": {
            "IAAv0": ""
          }
        },
        {
          "start": "com.wangcai.ccwc.u.onTouch(Landroid/view/View;Landroid/view/MotionEvent;)Z",
          "target": "invokeinterface \u003c Application, Lorg/apache/http/client/HttpClient, execute(Lorg/apache/http/client/methods/HttpUriRequest;)Lorg/apache/http/HttpResponse; \u003e@136",
          "type": "ui",
          "activities": [
            "gzg.car.sric.android.WelActivity"
          ],
          "listener": "com.wangcai.ccwc.u",
          "listenerMethod": "onTouch",
          "uiType": "onTouch",
          "constraintsFile": "constraints48_1.py",
          "variables": {
            "\u003cChainedInput2\u003e.getAction()": "IAAv0"
          },
          "stringMap": {},
          "strings": {}
        }
      ]
    }
  }
}