{
  "packageName": "com.zx.shengtainongye",
  "mainActivity": "com.zx.shengtainongye.StartActivity",
  "callPaths": {
    "0": {
      "startMethod": "com.zx.shengtainongye.ui.commonActivity.CityListSelectedActivity.onCreate(Landroid/os/Bundle;)V",
      "targetMethod": "org.apache.http.client.HttpClient.execute(Lorg/apache/http/client/methods/HttpUriRequest;)Lorg/apache/http/HttpResponse;",
      "eventChain": [
        {
          "start": "com.zx.shengtainongye.ui.commonActivity.CityListSelectedActivity.onCreate(Landroid/os/Bundle;)V",
          "target": "PC@29",
          "type": "activity",
          "component": "com.zx.shengtainongye.ui.commonActivity.CityListSelectedActivity",
          "constraintsFile": "constraints0_0.py",
          "variables": {
            "\u003cChainedInput1\u003e": "IAAv0"
          },
          "stringMap": {},
          "strings": {}
        },
        {
          "start": "com.zx.shengtainongye.ui.commonActivity.CityListSelectedActivity.onCreate(Landroid/os/Bundle;)V",
          "target": "invokeinterface \u003c Application, Lorg/apache/http/client/HttpClient, execute(Lorg/apache/http/client/methods/HttpUriRequest;)Lorg/apache/http/HttpResponse; \u003e@215",
          "type": "activity",
          "component": "com.zx.shengtainongye.ui.commonActivity.CityListSelectedActivity",
          "constraintsFile": "constraints0_1.py",
          "variables": {
            "\u003cChainedInput1\u003e": "IAAv0"
          },
          "stringMap": {},
          "strings": {}
        }
      ]
    },
    "1": {
      "startMethod": "com.zx.shengtainongye.RadicalService.onCreate()V",
      "targetMethod": "org.apache.http.client.HttpClient.execute(Lorg/apache/http/client/methods/HttpUriRequest;)Lorg/apache/http/HttpResponse;",
      "eventChain": [
        {
          "start": "com.zx.shengtainongye.RadicalService.onCreate()V",
          "target": "invokeinterface \u003c Application, Lorg/apache/http/client/HttpClient, execute(Lorg/apache/http/client/methods/HttpUriRequest;)Lorg/apache/http/HttpResponse; \u003e@215",
          "type": "service",
          "component": "com.zx.shengtainongye.RadicalService",
          "constraintsFile": "constraints1_0.py",
          "variables": {},
          "stringMap": {},
          "strings": {
            "IAAv1": ""
          }
        }
      ]
    },
    "2": {
      "startMethod": "com.zx.shengtainongye.ui.indexDS.SupplyToBuyActivity.onCreate(Landroid/os/Bundle;)V",
      "targetMethod": "org.apache.http.client.HttpClient.execute(Lorg/apache/http/client/methods/HttpUriRequest;)Lorg/apache/http/HttpResponse;",
      "eventChain": [
        {
          "start": "com.zx.shengtainongye.ui.indexDS.SupplyToBuyActivity.onCreate(Landroid/os/Bundle;)V",
          "target": "invokeinterface \u003c Application, Lorg/apache/http/client/HttpClient, execute(Lorg/apache/http/client/methods/HttpUriRequest;)Lorg/apache/http/HttpResponse; \u003e@215",
          "type": "activity",
          "component": "com.zx.shengtainongye.ui.indexDS.SupplyToBuyActivity"
        }
      ]
    },
    "3": {
      "startMethod": "com.zx.shengtainongye.ui.indexUser.UserWantListActivity.onResume()V",
      "targetMethod": "org.apache.http.client.HttpClient.execute(Lorg/apache/http/client/methods/HttpUriRequest;)Lorg/apache/http/HttpResponse;",
      "eventChain": [
        {
          "start": "com.zx.shengtainongye.ui.indexUser.UserWantListActivity.onResume()V",
          "target": "invokeinterface \u003c Application, Lorg/apache/http/client/HttpClient, execute(Lorg/apache/http/client/methods/HttpUriRequest;)Lorg/apache/http/HttpResponse; \u003e@215",
          "type": "activity",
          "component": "com.zx.shengtainongye.ui.indexUser.UserWantListActivity"
        }
      ]
    },
    "4": {
      "startMethod": "com.zx.shengtainongye.ui.commonActivity.MapActivity.onCreate(Landroid/os/Bundle;)V",
      "targetMethod": "java.lang.reflect.Method.invoke(Ljava/lang/Object;[Ljava/lang/Object;)Ljava/lang/Object;",
      "eventChain": [
        {
          "start": "com.zx.shengtainongye.ui.commonActivity.MapActivity.onCreate(Landroid/os/Bundle;)V",
          "target": "invokevirtual \u003c Application, Ljava/lang/reflect/Method, invoke(Ljava/lang/Object;[Ljava/lang/Object;)Ljava/lang/Object; \u003e@199",
          "type": "activity",
          "component": "com.zx.shengtainongye.ui.commonActivity.MapActivity",
          "constraintsFile": "constraints4_0.py",
          "variables": {},
          "stringMap": {},
          "strings": {}
        }
      ]
    },
    "5": {
      "startMethod": "com.zx.shengtainongye.ui.commonActivity.MapActivity.onCreate(Landroid/os/Bundle;)V",
      "targetMethod": "java.lang.reflect.Method.invoke(Ljava/lang/Object;[Ljava/lang/Object;)Ljava/lang/Object;",
      "eventChain": [
        {
          "start": "com.zx.shengtainongye.ui.commonActivity.MapActivity.onCreate(Landroid/os/Bundle;)V",
          "target": "invokevirtual \u003c Application, Ljava/lang/reflect/Method, invoke(Ljava/lang/Object;[Ljava/lang/Object;)Ljava/lang/Object; \u003e@278",
          "type": "activity",
          "component": "com.zx.shengtainongye.ui.commonActivity.MapActivity",
          "constraintsFile": "constraints5_0.py",
          "variables": {},
          "stringMap": {},
          "strings": {}
        }
      ]
    },
    "6": {
      "startMethod": "com.zx.shengtainongye.ui.commonActivity.MapActivity.onCreate(Landroid/os/Bundle;)V",
      "targetMethod": "java.lang.reflect.Method.invoke(Ljava/lang/Object;[Ljava/lang/Object;)Ljava/lang/Object;",
      "eventChain": [
        {
          "start": "com.zx.shengtainongye.ui.commonActivity.MapActivity.onCreate(Landroid/os/Bundle;)V",
          "target": "invokevirtual \u003c Application, Ljava/lang/reflect/Method, invoke(Ljava/lang/Object;[Ljava/lang/Object;)Ljava/lang/Object; \u003e@343",
          "type": "activity",
          "component": "com.zx.shengtainongye.ui.commonActivity.MapActivity",
          "constraintsFile": "constraints6_0.py",
          "variables": {},
          "stringMap": {},
          "strings": {}
        }
      ]
    },
    "7": {
      "startMethod": "com.zx.shengtainongye.ui.commonActivity.MapActivity.onCreate(Landroid/os/Bundle;)V",
      "targetMethod": "java.lang.reflect.Method.invoke(Ljava/lang/Object;[Ljava/lang/Object;)Ljava/lang/Object;",
      "eventChain": [
        {
          "start": "com.zx.shengtainongye.ui.commonActivity.MapActivity.onCreate(Landroid/os/Bundle;)V",
          "target": "invokevirtual \u003c Application, Ljava/lang/reflect/Method, invoke(Ljava/lang/Object;[Ljava/lang/Object;)Ljava/lang/Object; \u003e@247",
          "type": "activity",
          "component": "com.zx.shengtainongye.ui.commonActivity.MapActivity",
          "constraintsFile": "constraints7_0.py",
          "variables": {},
          "stringMap": {},
          "strings": {}
        }
      ]
    },
    "8": {
      "startMethod": "com.zx.shengtainongye.ui.indexDS.SupplyInfoActivity.onCreate(Landroid/os/Bundle;)V",
      "targetMethod": "java.net.URL.openConnection()Ljava/net/URLConnection;",
      "eventChain": [
        {
          "start": "com.zx.shengtainongye.ui.indexDS.SupplyInfoActivity.onCreate(Landroid/os/Bundle;)V",
          "target": "invokevirtual \u003c Application, Ljava/net/URL, openConnection()Ljava/net/URLConnection; \u003e@34",
          "type": "activity",
          "component": "com.zx.shengtainongye.ui.indexDS.SupplyInfoActivity"
        }
      ]
    },
    "9": {
      "startMethod": "com.zx.shengtainongye.ui.indexDS.SupplyInfoActivity.onCreate(Landroid/os/Bundle;)V",
      "targetMethod": "org.apache.http.client.HttpClient.execute(Lorg/apache/http/client/methods/HttpUriRequest;)Lorg/apache/http/HttpResponse;",
      "eventChain": [
        {
          "start": "com.zx.shengtainongye.ui.indexDS.SupplyInfoActivity.onCreate(Landroid/os/Bundle;)V",
          "target": "invokeinterface \u003c Application, Lorg/apache/http/client/HttpClient, execute(Lorg/apache/http/client/methods/HttpUriRequest;)Lorg/apache/http/HttpResponse; \u003e@215",
          "type": "activity",
          "component": "com.zx.shengtainongye.ui.indexDS.SupplyInfoActivity"
        }
      ]
    },
    "10": {
      "startMethod": "com.baidu.location.f.onCreate()V",
      "targetMethod": "org.apache.http.client.HttpClient.execute(Lorg/apache/http/client/methods/HttpUriRequest;)Lorg/apache/http/HttpResponse;",
      "eventChain": [
        {
          "start": "com.baidu.location.f.onCreate()V",
          "target": "invokeinterface \u003c Application, Lorg/apache/http/client/HttpClient, execute(Lorg/apache/http/client/methods/HttpUriRequest;)Lorg/apache/http/HttpResponse; \u003e@227",
          "type": "service",
          "component": "com.baidu.location.f"
        }
      ]
    },
    "11": {
      "startMethod": "com.zx.shengtainongye.ui.indexUser.IndexUserActivity.onCreate(Landroid/os/Bundle;)V",
      "targetMethod": "java.net.URL.openConnection()Ljava/net/URLConnection;",
      "eventChain": [
        {
          "start": "com.zx.shengtainongye.ui.indexUser.IndexUserActivity.onCreate(Landroid/os/Bundle;)V",
          "target": "invokevirtual \u003c Application, Ljava/net/URL, openConnection()Ljava/net/URLConnection; \u003e@34",
          "type": "activity",
          "component": "com.zx.shengtainongye.ui.indexUser.IndexUserActivity",
          "constraintsFile": "constraints11_0.py",
          "variables": {},
          "stringMap": {},
          "strings": {
            "IAAv0": ""
          }
        }
      ]
    },
    "12": {
      "startMethod": "com.zx.shengtainongye.ui.indexDS.BuyInfoActivity.onCreate(Landroid/os/Bundle;)V",
      "targetMethod": "org.apache.http.client.HttpClient.execute(Lorg/apache/http/client/methods/HttpUriRequest;)Lorg/apache/http/HttpResponse;",
      "eventChain": [
        {
          "start": "com.zx.shengtainongye.ui.indexDS.BuyInfoActivity.onCreate(Landroid/os/Bundle;)V",
          "target": "invokeinterface \u003c Application, Lorg/apache/http/client/HttpClient, execute(Lorg/apache/http/client/methods/HttpUriRequest;)Lorg/apache/http/HttpResponse; \u003e@215",
          "type": "activity",
          "component": "com.zx.shengtainongye.ui.indexDS.BuyInfoActivity"
        }
      ]
    },
    "13": {
      "startMethod": "com.zx.shengtainongye.ui.indexNews.NewsDetailActivity.onCreate(Landroid/os/Bundle;)V",
      "targetMethod": "org.apache.http.client.HttpClient.execute(Lorg/apache/http/client/methods/HttpUriRequest;)Lorg/apache/http/HttpResponse;",
      "eventChain": [
        {
          "start": "com.zx.shengtainongye.ui.indexNews.NewsDetailActivity.onCreate(Landroid/os/Bundle;)V",
          "target": "invokeinterface \u003c Application, Lorg/apache/http/client/HttpClient, execute(Lorg/apache/http/client/methods/HttpUriRequest;)Lorg/apache/http/HttpResponse; \u003e@215",
          "type": "activity",
          "component": "com.zx.shengtainongye.ui.indexNews.NewsDetailActivity",
          "constraintsFile": "constraints13_0.py",
          "variables": {},
          "stringMap": {},
          "strings": {}
        }
      ]
    },
    "14": {
      "startMethod": "com.zx.shengtainongye.ui.indexNews.NewsDetailActivity.onCreate(Landroid/os/Bundle;)V",
      "targetMethod": "java.net.URL.openConnection()Ljava/net/URLConnection;",
      "eventChain": [
        {
          "start": "com.zx.shengtainongye.ui.indexNews.NewsDetailActivity.onCreate(Landroid/os/Bundle;)V",
          "target": "invokevirtual \u003c Application, Ljava/net/URL, openConnection()Ljava/net/URLConnection; \u003e@34",
          "type": "activity",
          "component": "com.zx.shengtainongye.ui.indexNews.NewsDetailActivity",
          "constraintsFile": "constraints14_0.py",
          "variables": {},
          "stringMap": {},
          "strings": {}
        }
      ]
    },
    "15": {
      "startMethod": "com.zx.shengtainongye.ui.indexYellowPage.CompanyInfoActivity.onCreate(Landroid/os/Bundle;)V",
      "targetMethod": "org.apache.http.client.HttpClient.execute(Lorg/apache/http/client/methods/HttpUriRequest;)Lorg/apache/http/HttpResponse;",
      "eventChain": [
        {
          "start": "com.zx.shengtainongye.ui.indexYellowPage.CompanyInfoActivity.onCreate(Landroid/os/Bundle;)V",
          "target": "invokeinterface \u003c Application, Lorg/apache/http/client/HttpClient, execute(Lorg/apache/http/client/methods/HttpUriRequest;)Lorg/apache/http/HttpResponse; \u003e@215",
          "type": "activity",
          "component": "com.zx.shengtainongye.ui.indexYellowPage.CompanyInfoActivity"
        }
      ]
    },
    "16": {
      "startMethod": "com.zx.shengtainongye.ui.indexYellowPage.CompanyInfoActivity.onCreate(Landroid/os/Bundle;)V",
      "targetMethod": "java.net.URL.openConnection()Ljava/net/URLConnection;",
      "eventChain": [
        {
          "start": "com.zx.shengtainongye.ui.indexYellowPage.CompanyInfoActivity.onCreate(Landroid/os/Bundle;)V",
          "target": "invokevirtual \u003c Application, Ljava/net/URL, openConnection()Ljava/net/URLConnection; \u003e@34",
          "type": "activity",
          "component": "com.zx.shengtainongye.ui.indexYellowPage.CompanyInfoActivity"
        }
      ]
    },
    "17": {
      "startMethod": "com.zx.shengtainongye.MainActivity.onCreate(Landroid/os/Bundle;)V",
      "targetMethod": "org.apache.http.client.HttpClient.execute(Lorg/apache/http/client/methods/HttpUriRequest;)Lorg/apache/http/HttpResponse;",
      "eventChain": [
        {
          "start": "com.zx.shengtainongye.ui.commonActivity.CityListSelectedActivity.onCreate(Landroid/os/Bundle;)V",
          "target": "PC@49",
          "type": "activity",
          "component": "com.zx.shengtainongye.ui.commonActivity.CityListSelectedActivity",
          "constraintsFile": "constraints17_0.py",
          "variables": {
            "\u003cChainedInput1\u003e": "IAAv0"
          },
          "stringMap": {},
          "strings": {
            "IAAv2": ""
          }
        },
        {
          "start": "com.zx.shengtainongye.MainActivity.onCreate(Landroid/os/Bundle;)V",
          "target": "invokeinterface \u003c Application, Lorg/apache/http/client/HttpClient, execute(Lorg/apache/http/client/methods/HttpUriRequest;)Lorg/apache/http/HttpResponse; \u003e@215",
          "type": "activity",
          "component": "com.zx.shengtainongye.MainActivity",
          "constraintsFile": "constraints17_1.py",
          "variables": {
            "\u003cChainedInput1\u003e": "IAAv0"
          },
          "stringMap": {},
          "strings": {
            "IAAv2": ""
          }
        }
      ]
    },
    "18": {
      "startMethod": "com.zx.shengtainongye.ui.indexUser.UserAdvertiseListActivity.onCreate(Landroid/os/Bundle;)V",
      "targetMethod": "org.apache.http.client.HttpClient.execute(Lorg/apache/http/client/methods/HttpUriRequest;)Lorg/apache/http/HttpResponse;",
      "eventChain": [
        {
          "start": "com.zx.shengtainongye.ui.indexUser.UserAdvertiseListActivity.onCreate(Landroid/os/Bundle;)V",
          "target": "invokeinterface \u003c Application, Lorg/apache/http/client/HttpClient, execute(Lorg/apache/http/client/methods/HttpUriRequest;)Lorg/apache/http/HttpResponse; \u003e@215",
          "type": "activity",
          "component": "com.zx.shengtainongye.ui.indexUser.UserAdvertiseListActivity",
          "constraintsFile": "constraints18_0.py",
          "variables": {},
          "stringMap": {},
          "strings": {}
        }
      ]
    },
    "19": {
      "startMethod": "com.zx.shengtainongye.ui.setting.MessageShowActivity.onCreate(Landroid/os/Bundle;)V",
      "targetMethod": "org.apache.http.client.HttpClient.execute(Lorg/apache/http/client/methods/HttpUriRequest;)Lorg/apache/http/HttpResponse;",
      "eventChain": [
        {
          "start": "com.zx.shengtainongye.ui.setting.MessageShowActivity.onCreate(Landroid/os/Bundle;)V",
          "target": "invokeinterface \u003c Application, Lorg/apache/http/client/HttpClient, execute(Lorg/apache/http/client/methods/HttpUriRequest;)Lorg/apache/http/HttpResponse; \u003e@215",
          "type": "activity",
          "component": "com.zx.shengtainongye.ui.setting.MessageShowActivity",
          "constraintsFile": "constraints19_0.py",
          "variables": {},
          "stringMap": {},
          "strings": {}
        }
      ]
    },
    "20": {
      "startMethod": "com.zx.shengtainongye.ui.indexUser.UserWantListActivity.onCreate(Landroid/os/Bundle;)V",
      "targetMethod": "org.apache.http.client.HttpClient.execute(Lorg/apache/http/client/methods/HttpUriRequest;)Lorg/apache/http/HttpResponse;",
      "eventChain": [
        {
          "start": "com.zx.shengtainongye.ui.indexUser.UserWantListActivity.onCreate(Landroid/os/Bundle;)V",
          "target": "invokeinterface \u003c Application, Lorg/apache/http/client/HttpClient, execute(Lorg/apache/http/client/methods/HttpUriRequest;)Lorg/apache/http/HttpResponse; \u003e@215",
          "type": "activity",
          "component": "com.zx.shengtainongye.ui.indexUser.UserWantListActivity",
          "constraintsFile": "constraints20_0.py",
          "variables": {},
          "stringMap": {},
          "strings": {}
        }
      ]
    },
    "21": {
      "startMethod": "com.zx.shengtainongye.ui.commonActivity.BrowserBigPicActivity.onCreate(Landroid/os/Bundle;)V",
      "targetMethod": "java.net.URL.openConnection()Ljava/net/URLConnection;",
      "eventChain": [
        {
          "start": "com.zx.shengtainongye.ui.commonActivity.BrowserBigPicActivity.onCreate(Landroid/os/Bundle;)V",
          "target": "invokevirtual \u003c Application, Ljava/net/URL, openConnection()Ljava/net/URLConnection; \u003e@34",
          "type": "activity",
          "component": "com.zx.shengtainongye.ui.commonActivity.BrowserBigPicActivity",
          "constraintsFile": "constraints21_0.py",
          "variables": {},
          "stringMap": {},
          "strings": {}
        }
      ]
    },
    "22": {
      "startMethod": "com.zx.shengtainongye.ui.indexUser.MessageListActivity.onCreate(Landroid/os/Bundle;)V",
      "targetMethod": "org.apache.http.client.HttpClient.execute(Lorg/apache/http/client/methods/HttpUriRequest;)Lorg/apache/http/HttpResponse;",
      "eventChain": [
        {
          "start": "com.zx.shengtainongye.ui.indexUser.MessageListActivity.onCreate(Landroid/os/Bundle;)V",
          "target": "invokeinterface \u003c Application, Lorg/apache/http/client/HttpClient, execute(Lorg/apache/http/client/methods/HttpUriRequest;)Lorg/apache/http/HttpResponse; \u003e@215",
          "type": "activity",
          "component": "com.zx.shengtainongye.ui.indexUser.MessageListActivity",
          "constraintsFile": "constraints22_0.py",
          "variables": {},
          "stringMap": {},
          "strings": {}
        }
      ]
    },
    "23": {
      "startMethod": "com.zx.shengtainongye.ui.commonActivity.IndustryListSelectedActivity.onCreate(Landroid/os/Bundle;)V",
      "targetMethod": "org.apache.http.client.HttpClient.execute(Lorg/apache/http/client/methods/HttpUriRequest;)Lorg/apache/http/HttpResponse;",
      "eventChain": [
        {
          "start": "com.zx.shengtainongye.ui.commonActivity.IndustryListSelectedActivity.onCreate(Landroid/os/Bundle;)V",
          "target": "PC@29",
          "type": "activity",
          "component": "com.zx.shengtainongye.ui.commonActivity.IndustryListSelectedActivity",
          "constraintsFile": "constraints23_0.py",
          "variables": {
            "\u003cChainedInput1\u003e": "IAAv0"
          },
          "stringMap": {},
          "strings": {}
        },
        {
          "start": "com.zx.shengtainongye.ui.commonActivity.IndustryListSelectedActivity.onCreate(Landroid/os/Bundle;)V",
          "target": "invokeinterface \u003c Application, Lorg/apache/http/client/HttpClient, execute(Lorg/apache/http/client/methods/HttpUriRequest;)Lorg/apache/http/HttpResponse; \u003e@215",
          "type": "activity",
          "component": "com.zx.shengtainongye.ui.commonActivity.IndustryListSelectedActivity",
          "constraintsFile": "constraints23_1.py",
          "variables": {
            "\u003cChainedInput1\u003e": "IAAv0"
          },
          "stringMap": {},
          "strings": {}
        }
      ]
    },
    "24": {
      "startMethod": "com.zx.shengtainongye.ui.indexYellowPage.SummaryActivity.onCreate(Landroid/os/Bundle;)V",
      "targetMethod": "org.apache.http.client.HttpClient.execute(Lorg/apache/http/client/methods/HttpUriRequest;)Lorg/apache/http/HttpResponse;",
      "eventChain": [
        {
          "start": "com.zx.shengtainongye.ui.indexYellowPage.SummaryActivity.onCreate(Landroid/os/Bundle;)V",
          "target": "invokeinterface \u003c Application, Lorg/apache/http/client/HttpClient, execute(Lorg/apache/http/client/methods/HttpUriRequest;)Lorg/apache/http/HttpResponse; \u003e@215",
          "type": "activity",
          "component": "com.zx.shengtainongye.ui.indexYellowPage.SummaryActivity"
        }
      ]
    },
    "25": {
      "startMethod": "com.zx.shengtainongye.ui.indexUser.ProductEditActivity.onCreate(Landroid/os/Bundle;)V",
      "targetMethod": "org.apache.http.client.HttpClient.execute(Lorg/apache/http/client/methods/HttpUriRequest;)Lorg/apache/http/HttpResponse;",
      "eventChain": [
        {
          "start": "com.zx.shengtainongye.ui.indexUser.ProductEditActivity.onCreate(Landroid/os/Bundle;)V",
          "target": "PC@87",
          "type": "activity",
          "component": "com.zx.shengtainongye.ui.indexUser.ProductEditActivity"
        },
        {
          "start": "com.zx.shengtainongye.ui.indexUser.ProductEditActivity.onCreate(Landroid/os/Bundle;)V",
          "target": "invokeinterface \u003c Application, Lorg/apache/http/client/HttpClient, execute(Lorg/apache/http/client/methods/HttpUriRequest;)Lorg/apache/http/HttpResponse; \u003e@215",
          "type": "activity",
          "component": "com.zx.shengtainongye.ui.indexUser.ProductEditActivity",
          "constraintsFile": "constraints25_0.py",
          "variables": {},
          "stringMap": {
            "7000": ""
          },
          "strings": {}
        }
      ]
    },
    "26": {
      "startMethod": "com.zx.shengtainongye.ui.indexUser.ProductEditActivity.onCreate(Landroid/os/Bundle;)V",
      "targetMethod": "java.net.URL.openConnection()Ljava/net/URLConnection;",
      "eventChain": [
        {
          "start": "com.zx.shengtainongye.ui.indexUser.ProductEditActivity.onCreate(Landroid/os/Bundle;)V",
          "target": "PC@87",
          "type": "activity",
          "component": "com.zx.shengtainongye.ui.indexUser.ProductEditActivity"
        },
        {
          "start": "com.zx.shengtainongye.ui.indexUser.ProductEditActivity.onCreate(Landroid/os/Bundle;)V",
          "target": "invokevirtual \u003c Application, Ljava/net/URL, openConnection()Ljava/net/URLConnection; \u003e@34",
          "type": "activity",
          "component": "com.zx.shengtainongye.ui.indexUser.ProductEditActivity",
          "constraintsFile": "constraints26_0.py",
          "variables": {},
          "stringMap": {
            "7000": ""
          },
          "strings": {}
        }
      ]
    },
    "27": {
      "startMethod": "com.zx.shengtainongye.ui.indexUser.WantEditActivity.onCreate(Landroid/os/Bundle;)V",
      "targetMethod": "org.apache.http.client.HttpClient.execute(Lorg/apache/http/client/methods/HttpUriRequest;)Lorg/apache/http/HttpResponse;",
      "eventChain": [
        {
          "start": "com.zx.shengtainongye.ui.indexUser.WantEditActivity.onCreate(Landroid/os/Bundle;)V",
          "target": "PC@87",
          "type": "activity",
          "component": "com.zx.shengtainongye.ui.indexUser.WantEditActivity"
        },
        {
          "start": "com.zx.shengtainongye.ui.indexUser.WantEditActivity.onCreate(Landroid/os/Bundle;)V",
          "target": "invokeinterface \u003c Application, Lorg/apache/http/client/HttpClient, execute(Lorg/apache/http/client/methods/HttpUriRequest;)Lorg/apache/http/HttpResponse; \u003e@215",
          "type": "activity",
          "component": "com.zx.shengtainongye.ui.indexUser.WantEditActivity",
          "constraintsFile": "constraints27_0.py",
          "variables": {},
          "stringMap": {
            "7000": ""
          },
          "strings": {}
        }
      ]
    },
    "28": {
      "startMethod": "com.zx.shengtainongye.ui.indexYellowPage.ProductInfoActivity.onCreate(Landroid/os/Bundle;)V",
      "targetMethod": "org.apache.http.client.HttpClient.execute(Lorg/apache/http/client/methods/HttpUriRequest;)Lorg/apache/http/HttpResponse;",
      "eventChain": [
        {
          "start": "com.zx.shengtainongye.ui.indexYellowPage.ProductInfoActivity.onCreate(Landroid/os/Bundle;)V",
          "target": "invokeinterface \u003c Application, Lorg/apache/http/client/HttpClient, execute(Lorg/apache/http/client/methods/HttpUriRequest;)Lorg/apache/http/HttpResponse; \u003e@215",
          "type": "activity",
          "component": "com.zx.shengtainongye.ui.indexYellowPage.ProductInfoActivity"
        }
      ]
    },
    "29": {
      "startMethod": "com.zx.shengtainongye.ui.indexYellowPage.ProductInfoActivity.onCreate(Landroid/os/Bundle;)V",
      "targetMethod": "java.net.URL.openConnection()Ljava/net/URLConnection;",
      "eventChain": [
        {
          "start": "com.zx.shengtainongye.ui.indexYellowPage.ProductInfoActivity.onCreate(Landroid/os/Bundle;)V",
          "target": "invokevirtual \u003c Application, Ljava/net/URL, openConnection()Ljava/net/URLConnection; \u003e@34",
          "type": "activity",
          "component": "com.zx.shengtainongye.ui.indexYellowPage.ProductInfoActivity"
        }
      ]
    },
    "30": {
      "startMethod": "com.zx.shengtainongye.ui.indexDS.BuyToSupplyActivity.onCreate(Landroid/os/Bundle;)V",
      "targetMethod": "org.apache.http.client.HttpClient.execute(Lorg/apache/http/client/methods/HttpUriRequest;)Lorg/apache/http/HttpResponse;",
      "eventChain": [
        {
          "start": "com.zx.shengtainongye.ui.indexDS.BuyToSupplyActivity.onCreate(Landroid/os/Bundle;)V",
          "target": "invokeinterface \u003c Application, Lorg/apache/http/client/HttpClient, execute(Lorg/apache/http/client/methods/HttpUriRequest;)Lorg/apache/http/HttpResponse; \u003e@215",
          "type": "activity",
          "component": "com.zx.shengtainongye.ui.indexDS.BuyToSupplyActivity"
        }
      ]
    },
    "31": {
      "startMethod": "com.zx.shengtainongye.ui.indexUser.UserSupplyListActivity.onCreate(Landroid/os/Bundle;)V",
      "targetMethod": "org.apache.http.client.HttpClient.execute(Lorg/apache/http/client/methods/HttpUriRequest;)Lorg/apache/http/HttpResponse;",
      "eventChain": [
        {
          "start": "com.zx.shengtainongye.ui.indexUser.UserSupplyListActivity.onCreate(Landroid/os/Bundle;)V",
          "target": "invokeinterface \u003c Application, Lorg/apache/http/client/HttpClient, execute(Lorg/apache/http/client/methods/HttpUriRequest;)Lorg/apache/http/HttpResponse; \u003e@215",
          "type": "activity",
          "component": "com.zx.shengtainongye.ui.indexUser.UserSupplyListActivity",
          "constraintsFile": "constraints31_0.py",
          "variables": {},
          "stringMap": {},
          "strings": {}
        }
      ]
    },
    "32": {
      "startMethod": "com.zx.shengtainongye.StartActivity.onCreate(Landroid/os/Bundle;)V",
      "targetMethod": "org.apache.http.client.HttpClient.execute(Lorg/apache/http/client/methods/HttpUriRequest;)Lorg/apache/http/HttpResponse;",
      "eventChain": [
        {
          "start": "com.zx.shengtainongye.StartActivity.onCreate(Landroid/os/Bundle;)V",
          "target": "invokeinterface \u003c Application, Lorg/apache/http/client/HttpClient, execute(Lorg/apache/http/client/methods/HttpUriRequest;)Lorg/apache/http/HttpResponse; \u003e@215",
          "type": "activity",
          "component": "com.zx.shengtainongye.StartActivity",
          "constraintsFile": "constraints32_0.py",
          "variables": {},
          "stringMap": {},
          "strings": {}
        }
      ]
    },
    "33": {
      "startMethod": "com.zx.shengtainongye.ui.indexYellowPage.ProductListActivity.onCreate(Landroid/os/Bundle;)V",
      "targetMethod": "org.apache.http.client.HttpClient.execute(Lorg/apache/http/client/methods/HttpUriRequest;)Lorg/apache/http/HttpResponse;",
      "eventChain": [
        {
          "start": "com.zx.shengtainongye.ui.indexYellowPage.ProductListActivity.onCreate(Landroid/os/Bundle;)V",
          "target": "invokeinterface \u003c Application, Lorg/apache/http/client/HttpClient, execute(Lorg/apache/http/client/methods/HttpUriRequest;)Lorg/apache/http/HttpResponse; \u003e@215",
          "type": "activity",
          "component": "com.zx.shengtainongye.ui.indexYellowPage.ProductListActivity"
        }
      ]
    },
    "34": {
      "startMethod": "com.zx.shengtainongye.ui.indexUser.AboutBidbondActivity.onCreate(Landroid/os/Bundle;)V",
      "targetMethod": "org.apache.http.client.HttpClient.execute(Lorg/apache/http/client/methods/HttpUriRequest;)Lorg/apache/http/HttpResponse;",
      "eventChain": [
        {
          "start": "com.zx.shengtainongye.ui.indexUser.AboutBidbondActivity.onCreate(Landroid/os/Bundle;)V",
          "target": "invokeinterface \u003c Application, Lorg/apache/http/client/HttpClient, execute(Lorg/apache/http/client/methods/HttpUriRequest;)Lorg/apache/http/HttpResponse; \u003e@215",
          "type": "activity",
          "component": "com.zx.shengtainongye.ui.indexUser.AboutBidbondActivity",
          "constraintsFile": "constraints34_0.py",
          "variables": {},
          "stringMap": {},
          "strings": {}
        }
      ]
    },
    "35": {
      "startMethod": "com.zx.shengtainongye.support.c.a.onSensorChanged(Landroid/hardware/SensorEvent;)V",
      "targetMethod": "org.apache.http.client.HttpClient.execute(Lorg/apache/http/client/methods/HttpUriRequest;)Lorg/apache/http/HttpResponse;",
      "eventChain": [
        {
          "start": "com.zx.shengtainongye.ui.setting.ShakeActivity.onResume()V",
          "target": "invokevirtual \u003c Application, Landroid/hardware/SensorManager, registerListener(Landroid/hardware/SensorEventListener;Landroid/hardware/Sensor;I)Z \u003e@38",
          "type": "activity",
          "component": "com.zx.shengtainongye.ui.setting.ShakeActivity"
        },
        {
          "start": "com.zx.shengtainongye.ui.setting.ShakeActivity.onCreate(Landroid/os/Bundle;)V",
          "target": "PC@13",
          "type": "activity",
          "component": "com.zx.shengtainongye.ui.setting.ShakeActivity"
        },
        {
          "start": "com.zx.shengtainongye.ui.setting.ShakeActivity.onCreate(Landroid/os/Bundle;)V",
          "target": "PC@20",
          "type": "activity",
          "component": "com.zx.shengtainongye.ui.setting.ShakeActivity"
        },
        {
          "start": "com.zx.shengtainongye.support.c.a.onSensorChanged(Landroid/hardware/SensorEvent;)V",
          "target": "invokeinterface \u003c Application, Lorg/apache/http/client/HttpClient, execute(Lorg/apache/http/client/methods/HttpUriRequest;)Lorg/apache/http/HttpResponse; \u003e@215",
          "type": "",
          "constraintsFile": "constraints35_0.py",
          "variables": {
            "System.currentTimeMillis()": "IAAv2",
            "\u003cSystemPrevTime\u003e": "IAAv3"
          },
          "stringMap": {},
          "strings": {}
        }
      ]
    },
    "36": {
      "startMethod": "com.zx.shengtainongye.support.c.a.onSensorChanged(Landroid/hardware/SensorEvent;)V",
      "targetMethod": "java.net.URL.openConnection()Ljava/net/URLConnection;",
      "eventChain": [
        {
          "start": "com.zx.shengtainongye.ui.setting.ShakeActivity.onResume()V",
          "target": "invokevirtual \u003c Application, Landroid/hardware/SensorManager, registerListener(Landroid/hardware/SensorEventListener;Landroid/hardware/Sensor;I)Z \u003e@38",
          "type": "activity",
          "component": "com.zx.shengtainongye.ui.setting.ShakeActivity"
        },
        {
          "start": "com.zx.shengtainongye.ui.setting.ShakeActivity.onCreate(Landroid/os/Bundle;)V",
          "target": "PC@13",
          "type": "activity",
          "component": "com.zx.shengtainongye.ui.setting.ShakeActivity"
        },
        {
          "start": "com.zx.shengtainongye.ui.setting.ShakeActivity.onCreate(Landroid/os/Bundle;)V",
          "target": "PC@20",
          "type": "activity",
          "component": "com.zx.shengtainongye.ui.setting.ShakeActivity"
        },
        {
          "start": "com.zx.shengtainongye.support.c.a.onSensorChanged(Landroid/hardware/SensorEvent;)V",
          "target": "invokevirtual \u003c Application, Ljava/net/URL, openConnection()Ljava/net/URLConnection; \u003e@34",
          "type": "",
          "constraintsFile": "constraints36_0.py",
          "variables": {
            "System.currentTimeMillis()": "IAAv2",
            "\u003cSystemPrevTime\u003e": "IAAv3"
          },
          "stringMap": {},
          "strings": {}
        }
      ]
    },
    "37": {
      "startMethod": "com.zx.shengtainongye.support.crop.d.onCancel(Landroid/content/DialogInterface;)V",
      "targetMethod": "android.content.ContentResolver.delete(Landroid/net/Uri;Ljava/lang/String;[Ljava/lang/String;)I",
      "eventChain": [
        {
          "start": "com.zx.shengtainongye.support.crop.d.onCancel(Landroid/content/DialogInterface;)V",
          "target": "invokevirtual \u003c Application, Landroid/content/ContentResolver, delete(Landroid/net/Uri;Ljava/lang/String;[Ljava/lang/String;)I \u003e@49",
          "type": "ui",
          "activities": [
            "com.zx.shengtainongye.StartActivity"
          ],
          "listener": "com.zx.shengtainongye.support.crop.d",
          "listenerMethod": "onCancel",
          "uiType": "onCancel",
          "constraintsFile": "constraints37_0.py",
          "variables": {},
          "stringMap": {},
          "strings": {}
        }
      ]
    },
    "38": {
      "startMethod": "com.zx.shengtainongye.ui.indexUser.ag.onClick(Landroid/content/DialogInterface;I)V",
      "targetMethod": "org.apache.http.client.HttpClient.execute(Lorg/apache/http/client/methods/HttpUriRequest;)Lorg/apache/http/HttpResponse;",
      "eventChain": [
        {
          "start": "com.zx.shengtainongye.ui.indexUser.af.onClick(Landroid/view/View;)V",
          "target": "invokevirtual \u003c Application, Landroid/app/AlertDialog$Builder, setSingleChoiceItems([Ljava/lang/CharSequence;ILandroid/content/DialogInterface$OnClickListener;)Landroid/app/AlertDialog$Builder; \u003e@263",
          "type": "ui",
          "activities": [
            "com.zx.shengtainongye.StartActivity"
          ],
          "listener": "com.zx.shengtainongye.ui.indexUser.af",
          "listenerMethod": "onClick",
          "uiType": "onClick",
          "constraintsFile": "constraints38_0.py",
          "variables": {},
          "stringMap": {},
          "strings": {}
        },
        {
          "start": "com.zx.shengtainongye.ui.indexUser.ag.onClick(Landroid/content/DialogInterface;I)V",
          "target": "invokeinterface \u003c Application, Lorg/apache/http/client/HttpClient, execute(Lorg/apache/http/client/methods/HttpUriRequest;)Lorg/apache/http/HttpResponse; \u003e@215",
          "type": "ui",
          "activities": [
            "com.zx.shengtainongye.StartActivity"
          ],
          "listener": "com.zx.shengtainongye.ui.indexUser.ag",
          "listenerMethod": "onClick",
          "uiType": "onClick",
          "inDialog": "true"
        }
      ]
    },
    "39": {
      "startMethod": "com.zx.shengtainongye.ui.setting.h.onClick(Landroid/view/View;)V",
      "targetMethod": "org.apache.http.client.HttpClient.execute(Lorg/apache/http/client/methods/HttpUriRequest;)Lorg/apache/http/HttpResponse;",
      "eventChain": [
        {
          "start": "com.zx.shengtainongye.ui.setting.h.onClick(Landroid/view/View;)V",
          "target": "invokeinterface \u003c Application, Lorg/apache/http/client/HttpClient, execute(Lorg/apache/http/client/methods/HttpUriRequest;)Lorg/apache/http/HttpResponse; \u003e@215",
          "type": "ui",
          "activities": [
            "com.zx.shengtainongye.StartActivity"
          ],
          "listener": "com.zx.shengtainongye.ui.setting.h",
          "listenerMethod": "onClick",
          "uiType": "onClick",
          "constraintsFile": "constraints39_0.py",
          "variables": {
            "\u003cChainedInput1\u003e.getId()": "IAAv0"
          },
          "stringMap": {},
          "strings": {}
        }
      ]
    },
    "40": {
      "startMethod": "com.zx.shengtainongye.ui.setting.c.onClick(Landroid/view/View;)V",
      "targetMethod": "org.apache.http.client.HttpClient.execute(Lorg/apache/http/client/methods/HttpUriRequest;)Lorg/apache/http/HttpResponse;",
      "eventChain": [
        {
          "start": "com.zx.shengtainongye.ui.setting.LoginActivity.onCreate(Landroid/os/Bundle;)V",
          "target": "invokevirtual \u003c Application, Landroid/widget/Button, setOnClickListener(Landroid/view/View$OnClickListener;)V \u003e@419",
          "type": "activity",
          "component": "com.zx.shengtainongye.ui.setting.LoginActivity",
          "constraintsFile": "constraints40_0.py",
          "variables": {},
          "stringMap": {},
          "strings": {}
        },
        {
          "start": "com.zx.shengtainongye.ui.setting.c.onClick(Landroid/view/View;)V",
          "target": "invokeinterface \u003c Application, Lorg/apache/http/client/HttpClient, execute(Lorg/apache/http/client/methods/HttpUriRequest;)Lorg/apache/http/HttpResponse; \u003e@215",
          "type": "ui",
          "activities": [
            "com.zx.shengtainongye.ui.setting.LoginActivity"
          ],
          "listener": "com.zx.shengtainongye.ui.setting.c",
          "listenerMethod": "onClick",
          "uiType": "onClick",
          "constraintsFile": "constraints40_1.py",
          "variables": {
            "\u003cChainedInput1\u003e.getId()": "IAAv0"
          },
          "stringMap": {
            "7000": ""
          },
          "strings": {}
        }
      ]
    },
    "41": {
      "startMethod": "com.zx.shengtainongye.ui.indexHome.n.onClick(Landroid/view/View;)V",
      "targetMethod": "org.apache.http.client.HttpClient.execute(Lorg/apache/http/client/methods/HttpUriRequest;)Lorg/apache/http/HttpResponse;",
      "eventChain": [
        {
          "start": "com.zx.shengtainongye.ui.indexHome.JoinUsApplyActivity.onCreate(Landroid/os/Bundle;)V",
          "target": "invokevirtual \u003c Application, Landroid/widget/Button, setOnClickListener(Landroid/view/View$OnClickListener;)V \u003e@126",
          "type": "activity",
          "component": "com.zx.shengtainongye.ui.indexHome.JoinUsApplyActivity"
        },
        {
          "start": "com.zx.shengtainongye.ui.indexHome.n.onClick(Landroid/view/View;)V",
          "target": "invokeinterface \u003c Application, Lorg/apache/http/client/HttpClient, execute(Lorg/apache/http/client/methods/HttpUriRequest;)Lorg/apache/http/HttpResponse; \u003e@215",
          "type": "ui",
          "activities": [
            "com.zx.shengtainongye.ui.indexHome.JoinUsApplyActivity"
          ],
          "listener": "com.zx.shengtainongye.ui.indexHome.n",
          "listenerMethod": "onClick",
          "uiType": "onClick",
          "constraintsFile": "constraints41_0.py",
          "variables": {},
          "stringMap": {
            "7000": ""
          },
          "strings": {}
        }
      ]
    },
    "42": {
      "startMethod": "com.zx.shengtainongye.ui.indexHome.i.onClick(Landroid/view/View;)V",
      "targetMethod": "org.apache.http.client.HttpClient.execute(Lorg/apache/http/client/methods/HttpUriRequest;)Lorg/apache/http/HttpResponse;",
      "eventChain": [
        {
          "start": "com.zx.shengtainongye.ui.indexHome.ApplyAgentActivity.onCreate(Landroid/os/Bundle;)V",
          "target": "invokevirtual \u003c Application, Landroid/widget/Button, setOnClickListener(Landroid/view/View$OnClickListener;)V \u003e@164",
          "type": "activity",
          "component": "com.zx.shengtainongye.ui.indexHome.ApplyAgentActivity"
        },
        {
          "start": "com.zx.shengtainongye.ui.indexHome.i.onClick(Landroid/view/View;)V",
          "target": "invokeinterface \u003c Application, Lorg/apache/http/client/HttpClient, execute(Lorg/apache/http/client/methods/HttpUriRequest;)Lorg/apache/http/HttpResponse; \u003e@215",
          "type": "ui",
          "activities": [
            "com.zx.shengtainongye.ui.indexHome.ApplyAgentActivity"
          ],
          "listener": "com.zx.shengtainongye.ui.indexHome.i",
          "listenerMethod": "onClick",
          "uiType": "onClick",
          "constraintsFile": "constraints42_0.py",
          "variables": {},
          "stringMap": {
            "7000": ""
          },
          "strings": {
            "IAAv0": ""
          }
        }
      ]
    },
    "43": {
      "startMethod": "com.zx.shengtainongye.ui.indexNews.d.onClick(Landroid/view/View;)V",
      "targetMethod": "org.apache.http.client.HttpClient.execute(Lorg/apache/http/client/methods/HttpUriRequest;)Lorg/apache/http/HttpResponse;",
      "eventChain": [
        {
          "start": "com.zx.shengtainongye.ui.indexNews.NewsDetailActivity.onCreate(Landroid/os/Bundle;)V",
          "target": "invokevirtual \u003c Application, Landroid/widget/Button, setOnClickListener(Landroid/view/View$OnClickListener;)V \u003e@281",
          "type": "activity",
          "component": "com.zx.shengtainongye.ui.indexNews.NewsDetailActivity"
        },
        {
          "start": "com.zx.shengtainongye.ui.indexNews.d.onClick(Landroid/view/View;)V",
          "target": "invokeinterface \u003c Application, Lorg/apache/http/client/HttpClient, execute(Lorg/apache/http/client/methods/HttpUriRequest;)Lorg/apache/http/HttpResponse; \u003e@215",
          "type": "ui",
          "activities": [
            "com.zx.shengtainongye.ui.indexNews.NewsDetailActivity"
          ],
          "listener": "com.zx.shengtainongye.ui.indexNews.d",
          "listenerMethod": "onClick",
          "uiType": "onClick",
          "constraintsFile": "constraints43_0.py",
          "variables": {},
          "stringMap": {
            "7000": ""
          },
          "strings": {
            "IAAv0": ""
          }
        }
      ]
    },
    "44": {
      "startMethod": "com.zx.shengtainongye.ui.d.g.onClick(Landroid/view/View;)V",
      "targetMethod": "org.apache.http.client.HttpClient.execute(Lorg/apache/http/client/methods/HttpUriRequest;)Lorg/apache/http/HttpResponse;",
      "eventChain": [
        {
          "start": "com.zx.shengtainongye.ui.d.g.onClick(Landroid/view/View;)V",
          "target": "invokeinterface \u003c Application, Lorg/apache/http/client/HttpClient, execute(Lorg/apache/http/client/methods/HttpUriRequest;)Lorg/apache/http/HttpResponse; \u003e@215",
          "type": "ui",
          "activities": [
            "com.zx.shengtainongye.StartActivity"
          ],
          "listener": "com.zx.shengtainongye.ui.d.g",
          "listenerMethod": "onClick",
          "uiType": "onClick",
          "constraintsFile": "constraints44_0.py",
          "variables": {},
          "stringMap": {},
          "strings": {}
        }
      ]
    },
    "45": {
      "startMethod": "com.zx.shengtainongye.ui.indexDS.BuyToSupplyActivity.onClick(Landroid/view/View;)V",
      "targetMethod": "org.apache.http.client.HttpClient.execute(Lorg/apache/http/client/methods/HttpUriRequest;)Lorg/apache/http/HttpResponse;",
      "eventChain": [
        {
          "start": "com.zx.shengtainongye.ui.indexDS.BuyToSupplyActivity.onCreate(Landroid/os/Bundle;)V",
          "target": "invokevirtual \u003c Application, Landroid/widget/Button, setOnClickListener(Landroid/view/View$OnClickListener;)V \u003e@84",
          "type": "activity",
          "component": "com.zx.shengtainongye.ui.indexDS.BuyToSupplyActivity"
        },
        {
          "start": "com.zx.shengtainongye.ui.indexDS.BuyToSupplyActivity.onCreate(Landroid/os/Bundle;)V",
          "target": "PC@74",
          "type": "activity",
          "component": "com.zx.shengtainongye.ui.indexDS.BuyToSupplyActivity"
        },
        {
          "start": "com.zx.shengtainongye.ui.indexDS.BuyToSupplyActivity.onClick(Landroid/view/View;)V",
          "target": "invokeinterface \u003c Application, Lorg/apache/http/client/HttpClient, execute(Lorg/apache/http/client/methods/HttpUriRequest;)Lorg/apache/http/HttpResponse; \u003e@215",
          "type": "ui",
          "activities": [
            "com.zx.shengtainongye.ui.indexDS.BuyToSupplyActivity"
          ],
          "listener": "com.zx.shengtainongye.ui.indexDS.BuyToSupplyActivity",
          "listenerMethod": "onClick",
          "uiType": "onClick",
          "constraintsFile": "constraints45_0.py",
          "variables": {
            "\u003cChainedInput1\u003e": "IAAv0"
          },
          "stringMap": {},
          "strings": {}
        }
      ]
    },
    "46": {
      "startMethod": "com.zx.shengtainongye.ui.indexNews.l.onClick(Landroid/view/View;)V",
      "targetMethod": "org.apache.http.client.HttpClient.execute(Lorg/apache/http/client/methods/HttpUriRequest;)Lorg/apache/http/HttpResponse;",
      "eventChain": [
        {
          "start": "com.zx.shengtainongye.ui.indexNews.NewsReviewActivity.onCreate(Landroid/os/Bundle;)V",
          "target": "invokevirtual \u003c Application, Landroid/widget/Button, setOnClickListener(Landroid/view/View$OnClickListener;)V \u003e@184",
          "type": "activity",
          "component": "com.zx.shengtainongye.ui.indexNews.NewsReviewActivity",
          "constraintsFile": "constraints46_0.py",
          "variables": {
            "\u003cInput1\u003e": "IAAv0"
          },
          "stringMap": {},
          "strings": {}
        },
        {
          "start": "com.zx.shengtainongye.ui.indexNews.l.onClick(Landroid/view/View;)V",
          "target": "invokeinterface \u003c Application, Lorg/apache/http/client/HttpClient, execute(Lorg/apache/http/client/methods/HttpUriRequest;)Lorg/apache/http/HttpResponse; \u003e@215",
          "type": "ui",
          "activities": [
            "com.zx.shengtainongye.ui.indexNews.NewsReviewActivity"
          ],
          "listener": "com.zx.shengtainongye.ui.indexNews.l",
          "listenerMethod": "onClick",
          "uiType": "onClick",
          "constraintsFile": "constraints46_1.py",
          "variables": {},
          "stringMap": {
            "7000": ""
          },
          "strings": {
            "IAAv0": ""
          }
        }
      ]
    },
    "47": {
      "startMethod": "com.zx.shengtainongye.ui.indexDS.SupplyToBuyActivity.onClick(Landroid/view/View;)V",
      "targetMethod": "org.apache.http.client.HttpClient.execute(Lorg/apache/http/client/methods/HttpUriRequest;)Lorg/apache/http/HttpResponse;",
      "eventChain": [
        {
          "start": "com.zx.shengtainongye.ui.indexDS.SupplyToBuyActivity.onCreate(Landroid/os/Bundle;)V",
          "target": "invokevirtual \u003c Application, Landroid/widget/Button, setOnClickListener(Landroid/view/View$OnClickListener;)V \u003e@167",
          "type": "activity",
          "component": "com.zx.shengtainongye.ui.indexDS.SupplyToBuyActivity"
        },
        {
          "start": "com.zx.shengtainongye.ui.indexDS.SupplyToBuyActivity.onCreate(Landroid/os/Bundle;)V",
          "target": "PC@157",
          "type": "activity",
          "component": "com.zx.shengtainongye.ui.indexDS.SupplyToBuyActivity"
        },
        {
          "start": "com.zx.shengtainongye.ui.indexDS.SupplyToBuyActivity.\u003cinit\u003e()V",
          "target": "PC@56",
          "type": "",
          "constraintsFile": "constraints47_0.py",
          "variables": {
            "\u003cChainedInput1\u003e": "IAAv0"
          },
          "stringMap": {
            "7000": "pay_to_league"
          },
          "strings": {}
        },
        {
          "start": "com.zx.shengtainongye.ui.indexDS.SupplyToBuyActivity.onClick(Landroid/view/View;)V",
          "target": "invokeinterface \u003c Application, Lorg/apache/http/client/HttpClient, execute(Lorg/apache/http/client/methods/HttpUriRequest;)Lorg/apache/http/HttpResponse; \u003e@215",
          "type": "ui",
          "activities": [
            "com.zx.shengtainongye.ui.indexDS.SupplyToBuyActivity"
          ],
          "listener": "com.zx.shengtainongye.ui.indexDS.SupplyToBuyActivity",
          "listenerMethod": "onClick",
          "uiType": "onClick",
          "constraintsFile": "constraints47_1.py",
          "variables": {
            "\u003cChainedInput1\u003e": "IAAv0"
          },
          "stringMap": {
            "7000": "pay_to_league"
          },
          "strings": {}
        }
      ]
    },
    "48": {
      "startMethod": "com.zx.shengtainongye.ui.indexYellowPage.AssessActivity.onClick(Landroid/view/View;)V",
      "targetMethod": "org.apache.http.client.HttpClient.execute(Lorg/apache/http/client/methods/HttpUriRequest;)Lorg/apache/http/HttpResponse;",
      "eventChain": [
        {
          "start": "com.zx.shengtainongye.ui.indexYellowPage.AssessActivity.onCreate(Landroid/os/Bundle;)V",
          "target": "invokevirtual \u003c Application, Landroid/widget/Button, setOnClickListener(Landroid/view/View$OnClickListener;)V \u003e@65",
          "type": "activity",
          "component": "com.zx.shengtainongye.ui.indexYellowPage.AssessActivity"
        },
        {
          "start": "com.zx.shengtainongye.ui.indexYellowPage.AssessActivity.onCreate(Landroid/os/Bundle;)V",
          "target": "PC@55",
          "type": "activity",
          "component": "com.zx.shengtainongye.ui.indexYellowPage.AssessActivity"
        },
        {
          "start": "com.zx.shengtainongye.ui.indexYellowPage.AssessActivity.onClick(Landroid/view/View;)V",
          "target": "invokeinterface \u003c Application, Lorg/apache/http/client/HttpClient, execute(Lorg/apache/http/client/methods/HttpUriRequest;)Lorg/apache/http/HttpResponse; \u003e@215",
          "type": "ui",
          "activities": [
            "com.zx.shengtainongye.ui.indexYellowPage.AssessActivity"
          ],
          "listener": "com.zx.shengtainongye.ui.indexYellowPage.AssessActivity",
          "listenerMethod": "onClick",
          "uiType": "onClick",
          "constraintsFile": "constraints48_0.py",
          "variables": {
            "\u003cChainedInput1\u003e": "IAAv0"
          },
          "stringMap": {
            "7000": ""
          },
          "strings": {}
        }
      ]
    },
    "49": {
      "startMethod": "com.zx.shengtainongye.ui.setting.l.onClick(Landroid/view/View;)V",
      "targetMethod": "org.apache.http.client.HttpClient.execute(Lorg/apache/http/client/methods/HttpUriRequest;)Lorg/apache/http/HttpResponse;",
      "eventChain": [
        {
          "start": "com.zx.shengtainongye.ui.setting.RegisterActivity.onCreate(Landroid/os/Bundle;)V",
          "target": "invokevirtual \u003c Application, Landroid/widget/Button, setOnClickListener(Landroid/view/View$OnClickListener;)V \u003e@156",
          "type": "activity",
          "component": "com.zx.shengtainongye.ui.setting.RegisterActivity"
        },
        {
          "start": "com.zx.shengtainongye.ui.setting.l.onClick(Landroid/view/View;)V",
          "target": "invokeinterface \u003c Application, Lorg/apache/http/client/HttpClient, execute(Lorg/apache/http/client/methods/HttpUriRequest;)Lorg/apache/http/HttpResponse; \u003e@215",
          "type": "ui",
          "activities": [
            "com.zx.shengtainongye.ui.setting.RegisterActivity"
          ],
          "listener": "com.zx.shengtainongye.ui.setting.l",
          "listenerMethod": "onClick",
          "uiType": "onClick",
          "constraintsFile": "constraints49_0.py",
          "variables": {
            "\u003cChainedInput1\u003e.getId()": "IAAv0"
          },
          "stringMap": {
            "7000": ""
          },
          "strings": {
            "IAAv7": ""
          }
        }
      ]
    },
    "50": {
      "startMethod": "com.zx.shengtainongye.ui.setting.o.onClick(Landroid/view/View;)V",
      "targetMethod": "org.apache.http.client.HttpClient.execute(Lorg/apache/http/client/methods/HttpUriRequest;)Lorg/apache/http/HttpResponse;",
      "eventChain": [
        {
          "start": "com.zx.shengtainongye.ui.setting.o.onClick(Landroid/view/View;)V",
          "target": "invokeinterface \u003c Application, Lorg/apache/http/client/HttpClient, execute(Lorg/apache/http/client/methods/HttpUriRequest;)Lorg/apache/http/HttpResponse; \u003e@215",
          "type": "ui",
          "activities": [
            "com.zx.shengtainongye.StartActivity"
          ],
          "listener": "com.zx.shengtainongye.ui.setting.o",
          "listenerMethod": "onClick",
          "uiType": "onClick",
          "constraintsFile": "constraints50_0.py",
          "variables": {
            "\u003cChainedInput1\u003e.getId()": "IAAv0"
          },
          "stringMap": {
            "7000": ""
          },
          "strings": {}
        }
      ]
    },
    "51": {
      "startMethod": "com.zx.shengtainongye.ui.commonActivity.x.onClick(Landroid/view/View;)V",
      "targetMethod": "org.apache.http.client.HttpClient.execute(Lorg/apache/http/client/methods/HttpUriRequest;)Lorg/apache/http/HttpResponse;",
      "eventChain": [
        {
          "start": "com.zx.shengtainongye.ui.commonActivity.SearchActivity.onCreate(Landroid/os/Bundle;)V",
          "target": "invokevirtual \u003c Application, Landroid/widget/Button, setOnClickListener(Landroid/view/View$OnClickListener;)V \u003e@229",
          "type": "activity",
          "component": "com.zx.shengtainongye.ui.commonActivity.SearchActivity"
        },
        {
          "start": "com.zx.shengtainongye.ui.commonActivity.x.onClick(Landroid/view/View;)V",
          "target": "invokeinterface \u003c Application, Lorg/apache/http/client/HttpClient, execute(Lorg/apache/http/client/methods/HttpUriRequest;)Lorg/apache/http/HttpResponse; \u003e@215",
          "type": "ui",
          "activities": [
            "com.zx.shengtainongye.ui.commonActivity.SearchActivity"
          ],
          "listener": "com.zx.shengtainongye.ui.commonActivity.x",
          "listenerMethod": "onClick",
          "uiType": "onClick",
          "constraintsFile": "constraints51_0.py",
          "variables": {},
          "stringMap": {},
          "strings": {}
        }
      ]
    }
  }
}