{
  "packageName": "chois.xpointer.xelfiedslr",
  "mainActivity": "chois.xpointer.xelfiedslr.intro.Intro",
  "callPaths": {
    "0": {
      "startMethod": "chois.xpointer.xelfiedslr.bluetooth.ConnectingActivity.mOnClick(Landroid/view/View;)V",
      "targetMethod": "android.bluetooth.BluetoothAdapter.isEnabled()Z",
      "eventChain": [
        {
          "start": "chois.xpointer.xelfiedslr.bluetooth.ConnectingActivity.mOnClick(Landroid/view/View;)V",
          "target": "invokevirtual \u003c Application, Landroid/bluetooth/BluetoothAdapter, isEnabled()Z \u003e@79",
          "type": "ui",
          "activities": [
            "chois.xpointer.xelfiedslr.intro.Intro"
          ],
          "listener": "android.view.View$1",
          "listenerMethod": "mOnClick",
          "uiType": "onClick",
          "constraintsFile": "constraints0_0.py",
          "variables": {
            "\u003cInput1\u003e.getId()": "IAAv0"
          },
          "stringMap": {},
          "strings": {}
        }
      ]
    },
    "1": {
      "startMethod": "chois.xpointer.xelfiedslr.intro.Intro.onCreate(Landroid/os/Bundle;)V",
      "targetMethod": "android.bluetooth.BluetoothAdapter.isEnabled()Z",
      "eventChain": [
        {
          "start": "chois.xpointer.xelfiedslr.intro.Intro.onCreate(Landroid/os/Bundle;)V",
          "target": "invokevirtual \u003c Application, Landroid/bluetooth/BluetoothAdapter, isEnabled()Z \u003e@353",
          "type": "activity",
          "component": "chois.xpointer.xelfiedslr.intro.Intro"
        }
      ]
    },
    "2": {
      "startMethod": "chois.xpointer.xelfiedslr.bluetooth.ConnectingActivity.onCreate(Landroid/os/Bundle;)V",
      "targetMethod": "android.bluetooth.BluetoothAdapter.isEnabled()Z",
      "eventChain": [
        {
          "start": "chois.xpointer.xelfiedslr.bluetooth.ConnectingActivity.onCreate(Landroid/os/Bundle;)V",
          "target": "invokevirtual \u003c Application, Landroid/bluetooth/BluetoothAdapter, isEnabled()Z \u003e@47",
          "type": "activity",
          "component": "chois.xpointer.xelfiedslr.bluetooth.ConnectingActivity"
        }
      ]
    },
    "3": {
      "startMethod": "chois.xpointer.xelfiedslr.bluetooth.ConnectingActivity$1.onItemClick(Landroid/widget/AdapterView;Landroid/view/View;IJ)V",
      "targetMethod": "android.bluetooth.BluetoothDevice.getName()Ljava/lang/String;",
      "eventChain": [
        {
          "start": "chois.xpointer.xelfiedslr.bluetooth.ConnectingActivity$1.onItemClick(Landroid/widget/AdapterView;Landroid/view/View;IJ)V",
          "target": "invokevirtual \u003c Application, Landroid/bluetooth/BluetoothDevice, getName()Ljava/lang/String; \u003e@194",
          "type": "ui",
          "activities": [
            "chois.xpointer.xelfiedslr.intro.Intro"
          ],
          "listener": "chois.xpointer.xelfiedslr.bluetooth.ConnectingActivity$1",
          "listenerMethod": "onItemClick",
          "uiType": "onItemClick"
        }
      ]
    },
    "4": {
      "startMethod": "chois.xpointer.xelfiedslr.bluetooth.ConnectingActivity$1.onItemClick(Landroid/widget/AdapterView;Landroid/view/View;IJ)V",
      "targetMethod": "android.bluetooth.BluetoothAdapter.isEnabled()Z",
      "eventChain": [
        {
          "start": "chois.xpointer.xelfiedslr.bluetooth.ConnectingActivity$1.onItemClick(Landroid/widget/AdapterView;Landroid/view/View;IJ)V",
          "target": "invokevirtual \u003c Application, Landroid/bluetooth/BluetoothAdapter, isEnabled()Z \u003e@47",
          "type": "ui",
          "activities": [
            "chois.xpointer.xelfiedslr.intro.Intro"
          ],
          "listener": "chois.xpointer.xelfiedslr.bluetooth.ConnectingActivity$1",
          "listenerMethod": "onItemClick",
          "uiType": "onItemClick"
        }
      ]
    }
  }
}