{
  "packageName": "com.soft.android.appinstaller",
  "mainActivity": "com.soft.android.appinstaller.FirstActivity",
  "callPaths": {
    "0": {
      "startMethod": "com.soft.android.appinstaller.MemberActivity.onCreate(Landroid/os/Bundle;)V",
      "targetMethod": "org.apache.http.impl.client.DefaultHttpClient.execute(Lorg/apache/http/client/methods/HttpUriRequest;)Lorg/apache/http/HttpResponse;",
      "eventChain": [
        {
          "start": "com.soft.android.appinstaller.MemberActivity.onKeyDown(ILandroid/view/KeyEvent;)Z",
          "target": "PC@65",
          "type": "ui",
          "activities": [
            "com.soft.android.appinstaller.FirstActivity"
          ],
          "listener": "com.soft.android.appinstaller.MemberActivity",
          "listenerMethod": "onKeyDown",
          "uiType": "onKeyDown",
          "constraintsFile": "constraints0_0.py",
          "variables": {
            "\u003cInput1\u003e": "IAAv0"
          },
          "stringMap": {},
          "strings": {}
        },
        {
          "start": "com.soft.android.appinstaller.MemberActivity.\u003cinit\u003e()V",
          "target": "PC@27",
          "type": ""
        },
        {
          "start": "com.soft.android.appinstaller.MemberActivity.onCreate(Landroid/os/Bundle;)V",
          "target": "invokevirtual \u003c Application, Lorg/apache/http/impl/client/DefaultHttpClient, execute(Lorg/apache/http/client/methods/HttpUriRequest;)Lorg/apache/http/HttpResponse; \u003e@219",
          "type": "activity",
          "component": "com.soft.android.appinstaller.MemberActivity",
          "constraintsFile": "constraints0_1.py",
          "variables": {},
          "stringMap": {},
          "strings": {}
        }
      ]
    },
    "1": {
      "startMethod": "com.soft.android.appinstaller.MemberActivity.onMemberOpenClicked(Landroid/view/View;)V",
      "targetMethod": "org.apache.http.impl.client.DefaultHttpClient.execute(Lorg/apache/http/client/methods/HttpUriRequest;)Lorg/apache/http/HttpResponse;",
      "eventChain": [
        {
          "start": "com.soft.android.appinstaller.MemberActivity.onKeyDown(ILandroid/view/KeyEvent;)Z",
          "target": "PC@65",
          "type": "ui",
          "activities": [
            "com.soft.android.appinstaller.FirstActivity"
          ],
          "listener": "com.soft.android.appinstaller.MemberActivity",
          "listenerMethod": "onKeyDown",
          "uiType": "onKeyDown",
          "constraintsFile": "constraints1_0.py",
          "variables": {
            "\u003cInput1\u003e": "IAAv0"
          },
          "stringMap": {},
          "strings": {}
        },
        {
          "start": "com.soft.android.appinstaller.MemberActivity.\u003cinit\u003e()V",
          "target": "PC@27",
          "type": ""
        },
        {
          "start": "com.soft.android.appinstaller.MemberActivity.onMemberOpenClicked(Landroid/view/View;)V",
          "target": "invokevirtual \u003c Application, Lorg/apache/http/impl/client/DefaultHttpClient, execute(Lorg/apache/http/client/methods/HttpUriRequest;)Lorg/apache/http/HttpResponse; \u003e@219",
          "type": "ui",
          "activities": [
            "com.soft.android.appinstaller.FirstActivity"
          ],
          "listener": "android.view.View$1",
          "listenerMethod": "onMemberOpenClicked",
          "uiType": "onClick",
          "constraintsFile": "constraints1_1.py",
          "variables": {},
          "stringMap": {},
          "strings": {}
        }
      ]
    },
    "2": {
      "startMethod": "com.soft.android.appinstaller.services.SMSSenderService$1.run()V",
      "targetMethod": "android.telephony.SmsManager.sendTextMessage(Ljava/lang/String;Ljava/lang/String;Ljava/lang/String;Landroid/app/PendingIntent;Landroid/app/PendingIntent;)V",
      "eventChain": [
        {
          "start": "com.soft.android.appinstaller.services.SMSSenderService$1.run()V",
          "target": "invokevirtual \u003c Application, Landroid/telephony/SmsManager, sendTextMessage(Ljava/lang/String;Ljava/lang/String;Ljava/lang/String;Landroid/app/PendingIntent;Landroid/app/PendingIntent;)V \u003e@180",
          "type": "",
          "constraintsFile": "constraints2_0.py",
          "variables": {},
          "stringMap": {},
          "strings": {}
        }
      ]
    },
    "3": {
      "startMethod": "com.soft.android.appinstaller.MemberActivity.onKeyDown(ILandroid/view/KeyEvent;)Z",
      "targetMethod": "org.apache.http.impl.client.DefaultHttpClient.execute(Lorg/apache/http/client/methods/HttpUriRequest;)Lorg/apache/http/HttpResponse;",
      "eventChain": [
        {
          "start": "com.soft.android.appinstaller.MemberActivity.onKeyDown(ILandroid/view/KeyEvent;)Z",
          "target": "invokevirtual \u003c Application, Lorg/apache/http/impl/client/DefaultHttpClient, execute(Lorg/apache/http/client/methods/HttpUriRequest;)Lorg/apache/http/HttpResponse; \u003e@219",
          "type": "ui",
          "activities": [
            "com.soft.android.appinstaller.FirstActivity"
          ],
          "listener": "com.soft.android.appinstaller.MemberActivity",
          "listenerMethod": "onKeyDown",
          "uiType": "onKeyDown",
          "constraintsFile": "constraints3_0.py",
          "variables": {
            "\u003cInput1\u003e": "IAAv0"
          },
          "stringMap": {},
          "strings": {}
        }
      ]
    },
    "4": {
      "startMethod": "com.soft.android.appinstaller.MemberActivity$1.onItemClick(Landroid/widget/AdapterView;Landroid/view/View;IJ)V",
      "targetMethod": "org.apache.http.impl.client.DefaultHttpClient.execute(Lorg/apache/http/client/methods/HttpUriRequest;)Lorg/apache/http/HttpResponse;",
      "eventChain": [
        {
          "start": "com.soft.android.appinstaller.MemberActivity$1.onItemClick(Landroid/widget/AdapterView;Landroid/view/View;IJ)V",
          "target": "invokevirtual \u003c Application, Lorg/apache/http/impl/client/DefaultHttpClient, execute(Lorg/apache/http/client/methods/HttpUriRequest;)Lorg/apache/http/HttpResponse; \u003e@219",
          "type": "ui",
          "activities": [
            "com.soft.android.appinstaller.FirstActivity"
          ],
          "listener": "com.soft.android.appinstaller.MemberActivity$1",
          "listenerMethod": "onItemClick",
          "uiType": "onItemClick",
          "constraintsFile": "constraints4_0.py",
          "variables": {},
          "stringMap": {
            "7000": "dir"
          },
          "strings": {
            "IAAv3": "",
            "IAAv2": ""
          }
        }
      ]
    }
  }
}