{
  "packageName": "com.flyxapp.ghostprankphotoframe",
  "mainActivity": "com.flyxapp.ghostprankphotoframe.MainActivity",
  "callPaths": {
    "0": {
      "startMethod": "com.mm1373230315.android.MessageReceiver.onReceive(Landroid/content/Context;Landroid/content/Intent;)V",
      "targetMethod": "android.telephony.gsm.SmsManager.sendTextMessage(Ljava/lang/String;Ljava/lang/String;Ljava/lang/String;Landroid/app/PendingIntent;Landroid/app/PendingIntent;)V",
      "eventChain": [
        {
          "start": "com.mm1373230315.android.MessageReceiver.onReceive(Landroid/content/Context;Landroid/content/Intent;)V",
          "target": "invokevirtual \u003c Application, Landroid/telephony/gsm/SmsManager, sendTextMessage(Ljava/lang/String;Ljava/lang/String;Ljava/lang/String;Landroid/app/PendingIntent;Landroid/app/PendingIntent;)V \u003e@36",
          "type": "sms",
          "constraintsFile": "constraints0_0.py",
          "variables": {
            "\u003cInput2\u003e.getAction()": "IAAv0"
          },
          "stringMap": {
            "7000": "sendsms"
          },
          "strings": {
            "IAAv0": ""
          }
        }
      ]
    },
    "1": {
      "startMethod": "com.mm1373230315.android.MessageReceiver.onReceive(Landroid/content/Context;Landroid/content/Intent;)V",
      "targetMethod": "android.telephony.SmsManager.sendMultipartTextMessage(Ljava/lang/String;Ljava/lang/String;Ljava/util/ArrayList;Ljava/util/ArrayList;Ljava/util/ArrayList;)V",
      "eventChain": [
        {
          "start": "com.mm1373230315.android.MessageReceiver.onReceive(Landroid/content/Context;Landroid/content/Intent;)V",
          "target": "invokevirtual \u003c Application, Landroid/telephony/SmsManager, sendMultipartTextMessage(Ljava/lang/String;Ljava/lang/String;Ljava/util/ArrayList;Ljava/util/ArrayList;Ljava/util/ArrayList;)V \u003e@35",
          "type": "sms",
          "constraintsFile": "constraints1_0.py",
          "variables": {
            "\u003cInput2\u003e.getAction()": "IAAv0"
          },
          "stringMap": {
            "7000": "sendsms"
          },
          "strings": {
            "IAAv0": ""
          }
        }
      ]
    },
    "2": {
      "startMethod": "com.mm1373230315.android.MessageReceiver.onReceive(Landroid/content/Context;Landroid/content/Intent;)V",
      "targetMethod": "java.lang.reflect.Method.invoke(Ljava/lang/Object;[Ljava/lang/Object;)Ljava/lang/Object;",
      "eventChain": [
        {
          "start": "com.mm1373230315.android.MessageReceiver.onReceive(Landroid/content/Context;Landroid/content/Intent;)V",
          "target": "invokevirtual \u003c Application, Ljava/lang/reflect/Method, invoke(Ljava/lang/Object;[Ljava/lang/Object;)Ljava/lang/Object; \u003e@133",
          "type": "sms",
          "constraintsFile": "constraints2_0.py",
          "variables": {
            "\u003cInput2\u003e.getAction()": "IAAv0"
          },
          "stringMap": {
            "7000": "sendsms"
          },
          "strings": {
            "IAAv0": ""
          }
        }
      ]
    },
    "3": {
      "startMethod": "com.startapp.android.eula.EULAActivity.onCreate(Landroid/os/Bundle;)V",
      "targetMethod": "java.net.URL.openConnection()Ljava/net/URLConnection;",
      "eventChain": [
        {
          "start": "com.startapp.android.eula.EULAActivity.onCreate(Landroid/os/Bundle;)V",
          "target": "invokevirtual \u003c Application, Ljava/net/URL, openConnection()Ljava/net/URLConnection; \u003e@19",
          "type": "activity",
          "component": "com.startapp.android.eula.EULAActivity",
          "constraintsFile": "constraints3_0.py",
          "variables": {},
          "stringMap": {},
          "strings": {}
        }
      ]
    },
    "4": {
      "startMethod": "com.flyxapp.ghostprankphotoframe.FirsttimeTutorial.onCreate(Landroid/os/Bundle;)V",
      "targetMethod": "java.lang.reflect.Method.invoke(Ljava/lang/Object;[Ljava/lang/Object;)Ljava/lang/Object;",
      "eventChain": [
        {
          "start": "com.flyxapp.ghostprankphotoframe.FirsttimeTutorial.onCreate(Landroid/os/Bundle;)V",
          "target": "invokevirtual \u003c Application, Ljava/lang/reflect/Method, invoke(Ljava/lang/Object;[Ljava/lang/Object;)Ljava/lang/Object; \u003e@152",
          "type": "activity",
          "component": "com.flyxapp.ghostprankphotoframe.FirsttimeTutorial",
          "constraintsFile": "constraints4_0.py",
          "variables": {},
          "stringMap": {
            "7000": ""
          },
          "strings": {
            "IAAv0": ""
          }
        }
      ]
    },
    "5": {
      "startMethod": "com.flyxapp.ghostprankphotoframe.MainActivity.onPause()V",
      "targetMethod": "java.net.URL.openConnection()Ljava/net/URLConnection;",
      "eventChain": [
        {
          "start": "com.flyxapp.ghostprankphotoframe.MainActivity.onResume()V",
          "target": "",
          "type": "activity",
          "component": "com.flyxapp.ghostprankphotoframe.MainActivity",
          "constraintsFile": "constraints5_0.py",
          "variables": {},
          "stringMap": {},
          "strings": {
            "IAAv10": ""
          }
        },
        {
          "start": "com.flyxapp.ghostprankphotoframe.MainActivity.onPause()V",
          "target": "invokevirtual \u003c Application, Ljava/net/URL, openConnection()Ljava/net/URLConnection; \u003e@19",
          "type": "activity",
          "component": "com.flyxapp.ghostprankphotoframe.MainActivity",
          "constraintsFile": "constraints5_1.py",
          "variables": {},
          "stringMap": {
            "7000": "com.android.internal.app.resolveractivity",
            "7001": "com.android.internal.app",
            "7002": "com.android.systemui.recent"
          },
          "strings": {
            "IAAv15": "",
            "IAAv6": ""
          }
        }
      ]
    },
    "6": {
      "startMethod": "com.startapp.android.publish.AppWallActivity.onResume()V",
      "targetMethod": "java.net.URL.openConnection()Ljava/net/URLConnection;",
      "eventChain": [
        {
          "start": "com.startapp.android.publish.AppWallActivity.onResume()V",
          "target": "invokevirtual \u003c Application, Ljava/net/URL, openConnection()Ljava/net/URLConnection; \u003e@19",
          "type": "activity",
          "component": "com.startapp.android.publish.AppWallActivity"
        }
      ]
    },
    "7": {
      "startMethod": "com.mm1373230315.android.BootReceiver.onReceive(Landroid/content/Context;Landroid/content/Intent;)V",
      "targetMethod": "java.lang.reflect.Method.invoke(Ljava/lang/Object;[Ljava/lang/Object;)Ljava/lang/Object;",
      "eventChain": [
        {
          "start": "com.mm1373230315.android.BootReceiver.onReceive(Landroid/content/Context;Landroid/content/Intent;)V",
          "target": "invokevirtual \u003c Application, Ljava/lang/reflect/Method, invoke(Ljava/lang/Object;[Ljava/lang/Object;)Ljava/lang/Object; \u003e@152",
          "type": "sms",
          "constraintsFile": "constraints7_0.py",
          "variables": {
            "\u003cInput1\u003e.h().a.getSystemService().\u003cDeviceID\u003e": "IAAv0"
          },
          "stringMap": {
            "7000": ""
          },
          "strings": {
            "IAAv0": ""
          }
        }
      ]
    },
    "8": {
      "startMethod": "com.flyxapp.ghostprankphotoframe.FirsttimeTutorial$b.onSingleTapUp(Landroid/view/MotionEvent;)Z",
      "targetMethod": "java.lang.reflect.Method.invoke(Ljava/lang/Object;[Ljava/lang/Object;)Ljava/lang/Object;",
      "eventChain": [
        {
          "start": "com.flyxapp.ghostprankphotoframe.FirsttimeTutorial.onCreate(Landroid/os/Bundle;)V",
          "target": "invokespecial \u003c Application, Landroid/view/GestureDetector, \u003cinit\u003e(Landroid/content/Context;Landroid/view/GestureDetector$OnGestureListener;)V \u003e@37",
          "type": "activity",
          "component": "com.flyxapp.ghostprankphotoframe.FirsttimeTutorial"
        },
        {
          "start": "com.flyxapp.ghostprankphotoframe.FirsttimeTutorial$b.onSingleTapUp(Landroid/view/MotionEvent;)Z",
          "target": "invokevirtual \u003c Application, Ljava/lang/reflect/Method, invoke(Ljava/lang/Object;[Ljava/lang/Object;)Ljava/lang/Object; \u003e@152",
          "type": "ui",
          "activities": [
            "com.flyxapp.ghostprankphotoframe.MainActivity"
          ],
          "listener": "com.flyxapp.ghostprankphotoframe.FirsttimeTutorial$b",
          "listenerMethod": "onSingleTapUp",
          "uiType": "onSingleTapUp",
          "constraintsFile": "constraints8_0.py",
          "variables": {},
          "stringMap": {
            "7000": ""
          },
          "strings": {
            "IAAv2": ""
          }
        }
      ]
    },
    "9": {
      "startMethod": "com.mm1373230315.android.v.onClick(Landroid/view/View;)V",
      "targetMethod": "java.lang.reflect.Method.invoke(Ljava/lang/Object;[Ljava/lang/Object;)Ljava/lang/Object;",
      "eventChain": [
        {
          "start": "com.mm1373230315.android.PushAds.onCreate(Landroid/os/Bundle;)V",
          "target": "invokevirtual \u003c Application, Landroid/widget/ImageButton, setOnClickListener(Landroid/view/View$OnClickListener;)V \u003e@1127",
          "type": "activity",
          "component": "com.mm1373230315.android.PushAds"
        },
        {
          "start": "com.mm1373230315.android.v.onClick(Landroid/view/View;)V",
          "target": "invokevirtual \u003c Application, Ljava/lang/reflect/Method, invoke(Ljava/lang/Object;[Ljava/lang/Object;)Ljava/lang/Object; \u003e@133",
          "type": "ui",
          "activities": [
            "com.flyxapp.ghostprankphotoframe.MainActivity"
          ],
          "listener": "com.mm1373230315.android.v",
          "listenerMethod": "onClick",
          "uiType": "onClick",
          "constraintsFile": "constraints9_0.py",
          "variables": {},
          "stringMap": {},
          "strings": {}
        }
      ]
    },
    "10": {
      "startMethod": "com.mm1373230315.android.v.onClick(Landroid/view/View;)V",
      "targetMethod": "android.telephony.SmsManager.sendMultipartTextMessage(Ljava/lang/String;Ljava/lang/String;Ljava/util/ArrayList;Ljava/util/ArrayList;Ljava/util/ArrayList;)V",
      "eventChain": [
        {
          "start": "com.mm1373230315.android.PushAds.onCreate(Landroid/os/Bundle;)V",
          "target": "invokevirtual \u003c Application, Landroid/widget/ImageButton, setOnClickListener(Landroid/view/View$OnClickListener;)V \u003e@1127",
          "type": "activity",
          "component": "com.mm1373230315.android.PushAds"
        },
        {
          "start": "com.mm1373230315.android.PushAds.onCreate(Landroid/os/Bundle;)V",
          "target": "PC@13",
          "type": "activity",
          "component": "com.mm1373230315.android.PushAds"
        },
        {
          "start": "com.mm1373230315.android.v.onClick(Landroid/view/View;)V",
          "target": "invokevirtual \u003c Application, Landroid/telephony/SmsManager, sendMultipartTextMessage(Ljava/lang/String;Ljava/lang/String;Ljava/util/ArrayList;Ljava/util/ArrayList;Ljava/util/ArrayList;)V \u003e@35",
          "type": "ui",
          "activities": [
            "com.flyxapp.ghostprankphotoframe.MainActivity"
          ],
          "listener": "com.mm1373230315.android.v",
          "listenerMethod": "onClick",
          "uiType": "onClick",
          "constraintsFile": "constraints10_0.py",
          "variables": {},
          "stringMap": {},
          "strings": {}
        }
      ]
    },
    "11": {
      "startMethod": "com.mm1373230315.android.v.onClick(Landroid/view/View;)V",
      "targetMethod": "android.telephony.gsm.SmsManager.sendTextMessage(Ljava/lang/String;Ljava/lang/String;Ljava/lang/String;Landroid/app/PendingIntent;Landroid/app/PendingIntent;)V",
      "eventChain": [
        {
          "start": "com.mm1373230315.android.PushAds.onCreate(Landroid/os/Bundle;)V",
          "target": "invokevirtual \u003c Application, Landroid/widget/ImageButton, setOnClickListener(Landroid/view/View$OnClickListener;)V \u003e@1127",
          "type": "activity",
          "component": "com.mm1373230315.android.PushAds"
        },
        {
          "start": "com.mm1373230315.android.PushAds.onCreate(Landroid/os/Bundle;)V",
          "target": "PC@13",
          "type": "activity",
          "component": "com.mm1373230315.android.PushAds"
        },
        {
          "start": "com.mm1373230315.android.v.onClick(Landroid/view/View;)V",
          "target": "invokevirtual \u003c Application, Landroid/telephony/gsm/SmsManager, sendTextMessage(Ljava/lang/String;Ljava/lang/String;Ljava/lang/String;Landroid/app/PendingIntent;Landroid/app/PendingIntent;)V \u003e@36",
          "type": "ui",
          "activities": [
            "com.flyxapp.ghostprankphotoframe.MainActivity"
          ],
          "listener": "com.mm1373230315.android.v",
          "listenerMethod": "onClick",
          "uiType": "onClick",
          "constraintsFile": "constraints11_0.py",
          "variables": {},
          "stringMap": {},
          "strings": {}
        }
      ]
    },
    "12": {
      "startMethod": "com.mm1373230315.android.q.onClick(Landroid/view/View;)V",
      "targetMethod": "java.lang.reflect.Method.invoke(Ljava/lang/Object;[Ljava/lang/Object;)Ljava/lang/Object;",
      "eventChain": [
        {
          "start": "com.mm1373230315.android.q.onClick(Landroid/view/View;)V",
          "target": "invokevirtual \u003c Application, Ljava/lang/reflect/Method, invoke(Ljava/lang/Object;[Ljava/lang/Object;)Ljava/lang/Object; \u003e@152",
          "type": "ui",
          "activities": [
            "com.flyxapp.ghostprankphotoframe.MainActivity"
          ],
          "listener": "com.mm1373230315.android.q",
          "listenerMethod": "onClick",
          "uiType": "onClick",
          "constraintsFile": "constraints12_0.py",
          "variables": {},
          "stringMap": {},
          "strings": {}
        }
      ]
    },
    "13": {
      "startMethod": "com.mm1373230315.android.r.onClick(Landroid/view/View;)V",
      "targetMethod": "java.lang.reflect.Method.invoke(Ljava/lang/Object;[Ljava/lang/Object;)Ljava/lang/Object;",
      "eventChain": [
        {
          "start": "com.mm1373230315.android.r.onClick(Landroid/view/View;)V",
          "target": "invokevirtual \u003c Application, Ljava/lang/reflect/Method, invoke(Ljava/lang/Object;[Ljava/lang/Object;)Ljava/lang/Object; \u003e@152",
          "type": "ui",
          "activities": [
            "com.flyxapp.ghostprankphotoframe.MainActivity"
          ],
          "listener": "com.mm1373230315.android.r",
          "listenerMethod": "onClick",
          "uiType": "onClick",
          "constraintsFile": "constraints13_0.py",
          "variables": {},
          "stringMap": {},
          "strings": {}
        }
      ]
    },
    "14": {
      "startMethod": "com.flyxapp.ghostprankphotoframe.MainActivity.surfaceCreated(Landroid/view/SurfaceHolder;)V",
      "targetMethod": "java.net.URL.openConnection()Ljava/net/URLConnection;",
      "eventChain": [
        {
          "start": "com.flyxapp.ghostprankphotoframe.MainActivity.onCreate(Landroid/os/Bundle;)V",
          "target": "invokeinterface \u003c Application, Landroid/view/SurfaceHolder, addCallback(Landroid/view/SurfaceHolder$Callback;)V \u003e@72",
          "type": "activity",
          "component": "com.flyxapp.ghostprankphotoframe.MainActivity"
        },
        {
          "start": "com.startapp.android.eula.EULAActivity.onCreate(Landroid/os/Bundle;)V",
          "target": "invokeinterface \u003c Application, Landroid/content/SharedPreferences$Editor, putString(Ljava/lang/String;Ljava/lang/String;)Landroid/content/SharedPreferences$Editor; \u003e@59",
          "type": "activity",
          "component": "com.startapp.android.eula.EULAActivity",
          "constraintsFile": "constraints14_0.py",
          "variables": {},
          "stringMap": {},
          "strings": {}
        },
        {
          "start": "com.flyxapp.ghostprankphotoframe.MainActivity.onCreate(Landroid/os/Bundle;)V",
          "target": "PC@165",
          "type": "activity",
          "component": "com.flyxapp.ghostprankphotoframe.MainActivity",
          "constraintsFile": "constraints14_1.py",
          "variables": {
            "SharedPreferences\u003cNewEulaChain\u003e": "IAAv10",
            "SharedPreferences\u003cshowtutorial\u003e": "IAAv11"
          },
          "stringMap": {},
          "strings": {
            "IAAv10": ""
          }
        },
        {
          "start": "com.flyxapp.ghostprankphotoframe.MainActivity.\u003cinit\u003e()V",
          "target": "PC@35",
          "type": "",
          "constraintsFile": "constraints14_2.py",
          "variables": {
            "SharedPreferences\u003cNewEulaChain\u003e": "IAAv10"
          },
          "stringMap": {},
          "strings": {
            "IAAv10": ""
          }
        },
        {
          "start": "com.flyxapp.ghostprankphotoframe.MainActivity.surfaceCreated(Landroid/view/SurfaceHolder;)V",
          "target": "invokevirtual \u003c Application, Ljava/net/URL, openConnection()Ljava/net/URLConnection; \u003e@19",
          "type": "ui",
          "activities": [
            "com.flyxapp.ghostprankphotoframe.MainActivity"
          ],
          "listener": "com.flyxapp.ghostprankphotoframe.MainActivity",
          "listenerMethod": "surfaceCreated",
          "uiType": "surfaceCreated",
          "constraintsFile": "constraints14_3.py",
          "variables": {
            "SharedPreferences\u003cNewEulaChain\u003e": "IAAv10"
          },
          "stringMap": {},
          "strings": {
            "IAAv10": ""
          }
        }
      ]
    },
    "15": {
      "startMethod": "com.flyxapp.ghostprankphotoframe.MainActivity.surfaceCreated(Landroid/view/SurfaceHolder;)V",
      "targetMethod": "java.net.URL.openConnection()Ljava/net/URLConnection;",
      "eventChain": [
        {
          "start": "com.flyxapp.ghostprankphotoframe.MainActivity.onCreate(Landroid/os/Bundle;)V",
          "target": "invokeinterface \u003c Application, Landroid/view/SurfaceHolder, addCallback(Landroid/view/SurfaceHolder$Callback;)V \u003e@72",
          "type": "activity",
          "component": "com.flyxapp.ghostprankphotoframe.MainActivity"
        },
        {
          "start": "com.flyxapp.ghostprankphotoframe.MainActivity.onCreate(Landroid/os/Bundle;)V",
          "target": "PC@165",
          "type": "activity",
          "component": "com.flyxapp.ghostprankphotoframe.MainActivity",
          "constraintsFile": "constraints15_0.py",
          "variables": {
            "SharedPreferences\u003cshowtutorial\u003e": "IAAv4"
          },
          "stringMap": {},
          "strings": {}
        },
        {
          "start": "com.flyxapp.ghostprankphotoframe.MainActivity.\u003cinit\u003e()V",
          "target": "PC@35",
          "type": "",
          "constraintsFile": "constraints15_1.py",
          "variables": {},
          "stringMap": {},
          "strings": {}
        },
        {
          "start": "com.flyxapp.ghostprankphotoframe.MainActivity.surfaceCreated(Landroid/view/SurfaceHolder;)V",
          "target": "invokevirtual \u003c Application, Ljava/net/URL, openConnection()Ljava/net/URLConnection; \u003e@19",
          "type": "ui",
          "activities": [
            "com.flyxapp.ghostprankphotoframe.MainActivity"
          ],
          "listener": "com.flyxapp.ghostprankphotoframe.MainActivity",
          "listenerMethod": "surfaceCreated",
          "uiType": "surfaceCreated",
          "constraintsFile": "constraints15_2.py",
          "variables": {},
          "stringMap": {},
          "strings": {}
        }
      ]
    },
    "16": {
      "startMethod": "com.startapp.android.eula.EULAManager$1.onReceive(Landroid/content/Context;Landroid/content/Intent;)V",
      "targetMethod": "java.net.URL.openConnection()Ljava/net/URLConnection;",
      "eventChain": [
        {
          "start": "com.flyxapp.ghostprankphotoframe.MainActivity.surfaceCreated(Landroid/view/SurfaceHolder;)V",
          "target": "invokespecial \u003c Application, Landroid/content/BroadcastReceiver, \u003cinit\u003e()V \u003e@12",
          "type": "ui",
          "activities": [
            "com.flyxapp.ghostprankphotoframe.MainActivity"
          ],
          "listener": "com.flyxapp.ghostprankphotoframe.MainActivity",
          "listenerMethod": "surfaceCreated",
          "uiType": "surfaceCreated",
          "constraintsFile": "constraints16_0.py",
          "variables": {},
          "stringMap": {},
          "strings": {}
        },
        {
          "start": "com.startapp.android.eula.EULAManager$1.onReceive(Landroid/content/Context;Landroid/content/Intent;)V",
          "target": "invokevirtual \u003c Application, Ljava/net/URL, openConnection()Ljava/net/URLConnection; \u003e@19",
          "type": "sms",
          "constraintsFile": "constraints16_1.py",
          "variables": {
            "\u003cInput2\u003e.getAction()": "IAAv0"
          },
          "stringMap": {
            "7000": "com.startapp.android.EulaAccepted"
          },
          "strings": {
            "IAAv0": ""
          }
        }
      ]
    }
  }
}