{
  "packageName": "com.ps.kickmouse",
  "mainActivity": "com.ps.kickmouse.WhacAMouse",
  "callPaths": {
    "0": {
      "startMethod": "com.ps.kickmouse.DemoApp.onResume()V",
      "targetMethod": "org.apache.http.client.HttpClient.execute(Lorg/apache/http/client/methods/HttpUriRequest;)Lorg/apache/http/HttpResponse;",
      "eventChain": [
        {
          "start": "com.ps.kickmouse.DemoApp.onResume()V",
          "target": "invokeinterface \u003c Application, Lorg/apache/http/client/HttpClient, execute(Lorg/apache/http/client/methods/HttpUriRequest;)Lorg/apache/http/HttpResponse; \u003e@191",
          "type": "activity",
          "component": "com.ps.kickmouse.DemoApp"
        }
      ]
    },
    "1": {
      "startMethod": "com.ps.kickmouse.DemoApp.onResume()V",
      "targetMethod": "org.apache.http.impl.client.DefaultHttpClient.execute(Lorg/apache/http/client/methods/HttpUriRequest;)Lorg/apache/http/HttpResponse;",
      "eventChain": [
        {
          "start": "com.ps.kickmouse.DemoApp.onResume()V",
          "target": "invokevirtual \u003c Application, Lorg/apache/http/impl/client/DefaultHttpClient, execute(Lorg/apache/http/client/methods/HttpUriRequest;)Lorg/apache/http/HttpResponse; \u003e@297",
          "type": "activity",
          "component": "com.ps.kickmouse.DemoApp"
        }
      ]
    },
    "2": {
      "startMethod": "com.ps.kickmouse.DemoApp.onCreate(Landroid/os/Bundle;)V",
      "targetMethod": "java.lang.reflect.Method.invoke(Ljava/lang/Object;[Ljava/lang/Object;)Ljava/lang/Object;",
      "eventChain": [
        {
          "start": "com.ps.kickmouse.DemoApp.onResume()V",
          "target": "invokeinterface \u003c Application, Landroid/content/SharedPreferences$Editor, putBoolean(Ljava/lang/String;Z)Landroid/content/SharedPreferences$Editor; \u003e@573",
          "type": "activity",
          "component": "com.ps.kickmouse.DemoApp"
        },
        {
          "start": "com.ps.kickmouse.DemoApp.onCreate(Landroid/os/Bundle;)V",
          "target": "invokevirtual \u003c Application, Ljava/lang/reflect/Method, invoke(Ljava/lang/Object;[Ljava/lang/Object;)Ljava/lang/Object; \u003e@244",
          "type": "activity",
          "component": "com.ps.kickmouse.DemoApp",
          "constraintsFile": "constraints2_0.py",
          "variables": {
            "SharedPreferences\u003cshow_ad_flag\u003e": "IAAv0"
          },
          "stringMap": {},
          "strings": {}
        }
      ]
    },
    "3": {
      "startMethod": "com.ps.kickmouse.DemoApp.onCreate(Landroid/os/Bundle;)V",
      "targetMethod": "org.apache.http.client.HttpClient.execute(Lorg/apache/http/client/methods/HttpUriRequest;)Lorg/apache/http/HttpResponse;",
      "eventChain": [
        {
          "start": "com.ps.kickmouse.DemoApp.onResume()V",
          "target": "invokeinterface \u003c Application, Landroid/content/SharedPreferences$Editor, putString(Ljava/lang/String;Ljava/lang/String;)Landroid/content/SharedPreferences$Editor; \u003e@95",
          "type": "activity",
          "component": "com.ps.kickmouse.DemoApp"
        },
        {
          "start": "com.ps.kickmouse.DemoApp.onCreate(Landroid/os/Bundle;)V",
          "target": "invokeinterface \u003c Application, Lorg/apache/http/client/HttpClient, execute(Lorg/apache/http/client/methods/HttpUriRequest;)Lorg/apache/http/HttpResponse; \u003e@191",
          "type": "activity",
          "component": "com.ps.kickmouse.DemoApp",
          "constraintsFile": "constraints3_0.py",
          "variables": {
            "SharedPreferences\u003cpush_flag\u003e": "IAAv1"
          },
          "stringMap": {
            "7000": ""
          },
          "strings": {
            "IAAv1": "",
            "IAAv5": ""
          }
        }
      ]
    },
    "4": {
      "startMethod": "com.ps.kickmouse.DemoApp.onCreate(Landroid/os/Bundle;)V",
      "targetMethod": "org.apache.http.impl.client.DefaultHttpClient.execute(Lorg/apache/http/client/methods/HttpUriRequest;)Lorg/apache/http/HttpResponse;",
      "eventChain": [
        {
          "start": "com.ps.kickmouse.DemoApp.onResume()V",
          "target": "invokeinterface \u003c Application, Landroid/content/SharedPreferences$Editor, putString(Ljava/lang/String;Ljava/lang/String;)Landroid/content/SharedPreferences$Editor; \u003e@95",
          "type": "activity",
          "component": "com.ps.kickmouse.DemoApp"
        },
        {
          "start": "com.waps.u.onDownloadStart(Ljava/lang/String;Ljava/lang/String;Ljava/lang/String;Ljava/lang/String;J)V",
          "target": "PC@9",
          "type": "",
          "constraintsFile": "constraints4_0.py",
          "variables": {
            "SharedPreferences\u003cpush_flag\u003e": "IAAv1"
          },
          "stringMap": {
            "7000": ""
          },
          "strings": {
            "IAAv1": "",
            "IAAv8": "",
            "IAAv5": ""
          }
        },
        {
          "start": "com.ps.kickmouse.DemoApp.onCreate(Landroid/os/Bundle;)V",
          "target": "invokevirtual \u003c Application, Lorg/apache/http/impl/client/DefaultHttpClient, execute(Lorg/apache/http/client/methods/HttpUriRequest;)Lorg/apache/http/HttpResponse; \u003e@297",
          "type": "activity",
          "component": "com.ps.kickmouse.DemoApp",
          "constraintsFile": "constraints4_1.py",
          "variables": {
            "SharedPreferences\u003cpush_flag\u003e": "IAAv1"
          },
          "stringMap": {
            "7000": ""
          },
          "strings": {
            "IAAv1": "",
            "IAAv5": ""
          }
        }
      ]
    },
    "5": {
      "startMethod": "com.ps.kickmouse.WhacAMouse.onCreate(Landroid/os/Bundle;)V",
      "targetMethod": "org.apache.http.client.HttpClient.execute(Lorg/apache/http/client/methods/HttpUriRequest;)Lorg/apache/http/HttpResponse;",
      "eventChain": [
        {
          "start": "com.ps.kickmouse.DemoApp.onResume()V",
          "target": "invokeinterface \u003c Application, Landroid/content/SharedPreferences$Editor, putString(Ljava/lang/String;Ljava/lang/String;)Landroid/content/SharedPreferences$Editor; \u003e@95",
          "type": "activity",
          "component": "com.ps.kickmouse.DemoApp"
        },
        {
          "start": "com.ps.kickmouse.WhacAMouse.onCreate(Landroid/os/Bundle;)V",
          "target": "invokeinterface \u003c Application, Lorg/apache/http/client/HttpClient, execute(Lorg/apache/http/client/methods/HttpUriRequest;)Lorg/apache/http/HttpResponse; \u003e@191",
          "type": "activity",
          "component": "com.ps.kickmouse.WhacAMouse",
          "constraintsFile": "constraints5_0.py",
          "variables": {
            "SharedPreferences\u003cpush_flag\u003e": "IAAv1"
          },
          "stringMap": {
            "7000": ""
          },
          "strings": {
            "IAAv1": "",
            "IAAv5": ""
          }
        }
      ]
    },
    "6": {
      "startMethod": "com.ps.kickmouse.WhacAMouse.onCreate(Landroid/os/Bundle;)V",
      "targetMethod": "org.apache.http.impl.client.DefaultHttpClient.execute(Lorg/apache/http/client/methods/HttpUriRequest;)Lorg/apache/http/HttpResponse;",
      "eventChain": [
        {
          "start": "com.ps.kickmouse.DemoApp.onResume()V",
          "target": "invokeinterface \u003c Application, Landroid/content/SharedPreferences$Editor, putString(Ljava/lang/String;Ljava/lang/String;)Landroid/content/SharedPreferences$Editor; \u003e@95",
          "type": "activity",
          "component": "com.ps.kickmouse.DemoApp"
        },
        {
          "start": "com.waps.u.onDownloadStart(Ljava/lang/String;Ljava/lang/String;Ljava/lang/String;Ljava/lang/String;J)V",
          "target": "PC@9",
          "type": "",
          "constraintsFile": "constraints6_0.py",
          "variables": {
            "SharedPreferences\u003cpush_flag\u003e": "IAAv1"
          },
          "stringMap": {
            "7000": ""
          },
          "strings": {
            "IAAv1": "",
            "IAAv8": "",
            "IAAv5": ""
          }
        },
        {
          "start": "com.ps.kickmouse.WhacAMouse.onCreate(Landroid/os/Bundle;)V",
          "target": "invokevirtual \u003c Application, Lorg/apache/http/impl/client/DefaultHttpClient, execute(Lorg/apache/http/client/methods/HttpUriRequest;)Lorg/apache/http/HttpResponse; \u003e@297",
          "type": "activity",
          "component": "com.ps.kickmouse.WhacAMouse",
          "constraintsFile": "constraints6_1.py",
          "variables": {
            "SharedPreferences\u003cpush_flag\u003e": "IAAv1"
          },
          "stringMap": {
            "7000": ""
          },
          "strings": {
            "IAAv1": "",
            "IAAv5": ""
          }
        }
      ]
    },
    "7": {
      "startMethod": "com.ps.kickmouse.DemoApp.onDestroy()V",
      "targetMethod": "org.apache.http.impl.client.DefaultHttpClient.execute(Lorg/apache/http/client/methods/HttpUriRequest;)Lorg/apache/http/HttpResponse;",
      "eventChain": [
        {
          "start": "com.ps.kickmouse.DemoApp.onDestroy()V",
          "target": "invokevirtual \u003c Application, Lorg/apache/http/impl/client/DefaultHttpClient, execute(Lorg/apache/http/client/methods/HttpUriRequest;)Lorg/apache/http/HttpResponse; \u003e@297",
          "type": "activity",
          "component": "com.ps.kickmouse.DemoApp"
        }
      ]
    },
    "8": {
      "startMethod": "com.ps.kickmouse.DemoApp.onDestroy()V",
      "targetMethod": "org.apache.http.client.HttpClient.execute(Lorg/apache/http/client/methods/HttpUriRequest;)Lorg/apache/http/HttpResponse;",
      "eventChain": [
        {
          "start": "com.ps.kickmouse.DemoApp.onDestroy()V",
          "target": "invokeinterface \u003c Application, Lorg/apache/http/client/HttpClient, execute(Lorg/apache/http/client/methods/HttpUriRequest;)Lorg/apache/http/HttpResponse; \u003e@191",
          "type": "activity",
          "component": "com.ps.kickmouse.DemoApp"
        }
      ]
    },
    "9": {
      "startMethod": "com.waps.OffersWebView.onCreate(Landroid/os/Bundle;)V",
      "targetMethod": "org.apache.http.client.HttpClient.execute(Lorg/apache/http/client/methods/HttpUriRequest;)Lorg/apache/http/HttpResponse;",
      "eventChain": [
        {
          "start": "com.ps.kickmouse.DemoApp.onResume()V",
          "target": "invokeinterface \u003c Application, Landroid/content/SharedPreferences$Editor, putString(Ljava/lang/String;Ljava/lang/String;)Landroid/content/SharedPreferences$Editor; \u003e@191",
          "type": "activity",
          "component": "com.ps.kickmouse.DemoApp"
        },
        {
          "start": "com.ps.kickmouse.DemoApp.onResume()V",
          "target": "invokeinterface \u003c Application, Landroid/content/SharedPreferences$Editor, putString(Ljava/lang/String;Ljava/lang/String;)Landroid/content/SharedPreferences$Editor; \u003e@205",
          "type": "activity",
          "component": "com.ps.kickmouse.DemoApp"
        },
        {
          "start": "com.ps.kickmouse.DemoApp.onResume()V",
          "target": "invokeinterface \u003c Application, Landroid/content/SharedPreferences$Editor, putString(Ljava/lang/String;Ljava/lang/String;)Landroid/content/SharedPreferences$Editor; \u003e@178",
          "type": "activity",
          "component": "com.ps.kickmouse.DemoApp"
        },
        {
          "start": "com.waps.OffersWebView.\u003cinit\u003e()V",
          "target": "PC@157",
          "type": "",
          "constraintsFile": "constraints9_0.py",
          "variables": {
            "SharedPreferences\u003cpackageName\u003e": "IAAv6",
            "SharedPreferences\u003cshort_className\u003e": "IAAv1",
            "SharedPreferences\u003cclassName\u003e": "IAAv8"
          },
          "stringMap": {
            "7000": "",
            "7001": "com.waps.OffersWebView",
            "7002": "feedback",
            "7003": "down_type",
            "7004": "true",
            "7005": "false",
            "7006": "OffersWebView",
            "7007": "notify",
            "7008": "show"
          },
          "strings": {
            "IAAv1": "",
            "IAAv8": "",
            "IAAv6": ""
          }
        },
        {
          "start": "com.waps.OffersWebView.\u003cinit\u003e()V",
          "target": "PC@212",
          "type": "",
          "constraintsFile": "constraints9_1.py",
          "variables": {
            "SharedPreferences\u003cpackageName\u003e": "IAAv6",
            "SharedPreferences\u003cshort_className\u003e": "IAAv1",
            "SharedPreferences\u003cclassName\u003e": "IAAv8"
          },
          "stringMap": {
            "7000": "",
            "7001": "com.waps.OffersWebView",
            "7002": "feedback",
            "7003": "down_type",
            "7004": "true",
            "7005": "false",
            "7006": "OffersWebView",
            "7007": "notify",
            "7008": "show"
          },
          "strings": {
            "IAAv1": "",
            "IAAv8": "",
            "IAAv6": ""
          }
        },
        {
          "start": "com.waps.OffersWebView.\u003cinit\u003e()V",
          "target": "PC@104",
          "type": "",
          "constraintsFile": "constraints9_2.py",
          "variables": {
            "SharedPreferences\u003cpackageName\u003e": "IAAv6",
            "SharedPreferences\u003cshort_className\u003e": "IAAv1",
            "SharedPreferences\u003cclassName\u003e": "IAAv8"
          },
          "stringMap": {
            "7000": "",
            "7001": "com.waps.OffersWebView",
            "7002": "feedback",
            "7003": "down_type",
            "7004": "true",
            "7005": "false",
            "7006": "OffersWebView",
            "7007": "notify",
            "7008": "show"
          },
          "strings": {
            "IAAv1": "",
            "IAAv8": "",
            "IAAv6": ""
          }
        },
        {
          "start": "com.waps.OffersWebView.\u003cinit\u003e()V",
          "target": "PC@220",
          "type": "",
          "constraintsFile": "constraints9_3.py",
          "variables": {
            "SharedPreferences\u003cpackageName\u003e": "IAAv6",
            "SharedPreferences\u003cshort_className\u003e": "IAAv1",
            "SharedPreferences\u003cclassName\u003e": "IAAv8"
          },
          "stringMap": {
            "7000": "",
            "7001": "com.waps.OffersWebView",
            "7002": "feedback",
            "7003": "down_type",
            "7004": "true",
            "7005": "false",
            "7006": "OffersWebView",
            "7007": "notify",
            "7008": "show"
          },
          "strings": {
            "IAAv1": "",
            "IAAv8": "",
            "IAAv6": ""
          }
        },
        {
          "start": "com.waps.OffersWebView.\u003cinit\u003e()V",
          "target": "PC@25",
          "type": "",
          "constraintsFile": "constraints9_4.py",
          "variables": {
            "SharedPreferences\u003cpackageName\u003e": "IAAv6",
            "SharedPreferences\u003cshort_className\u003e": "IAAv1",
            "SharedPreferences\u003cclassName\u003e": "IAAv8"
          },
          "stringMap": {
            "7000": "",
            "7001": "com.waps.OffersWebView",
            "7002": "feedback",
            "7003": "down_type",
            "7004": "true",
            "7005": "false",
            "7006": "OffersWebView",
            "7007": "notify",
            "7008": "show"
          },
          "strings": {
            "IAAv1": "",
            "IAAv8": "",
            "IAAv6": ""
          }
        },
        {
          "start": "com.waps.OffersWebView.\u003cinit\u003e()V",
          "target": "PC@189",
          "type": "",
          "constraintsFile": "constraints9_5.py",
          "variables": {
            "SharedPreferences\u003cpackageName\u003e": "IAAv6",
            "SharedPreferences\u003cshort_className\u003e": "IAAv1",
            "SharedPreferences\u003cclassName\u003e": "IAAv8"
          },
          "stringMap": {
            "7000": "",
            "7001": "com.waps.OffersWebView",
            "7002": "feedback",
            "7003": "down_type",
            "7004": "true",
            "7005": "false",
            "7006": "OffersWebView",
            "7007": "notify",
            "7008": "show"
          },
          "strings": {
            "IAAv1": "",
            "IAAv8": "",
            "IAAv6": ""
          }
        },
        {
          "start": "com.waps.OffersWebView.\u003cinit\u003e()V",
          "target": "PC@112",
          "type": "",
          "constraintsFile": "constraints9_6.py",
          "variables": {
            "SharedPreferences\u003cpackageName\u003e": "IAAv6",
            "SharedPreferences\u003cshort_className\u003e": "IAAv1",
            "SharedPreferences\u003cclassName\u003e": "IAAv8"
          },
          "stringMap": {
            "7000": "",
            "7001": "com.waps.OffersWebView",
            "7002": "feedback",
            "7003": "down_type",
            "7004": "true",
            "7005": "false",
            "7006": "OffersWebView",
            "7007": "notify",
            "7008": "show"
          },
          "strings": {
            "IAAv1": "",
            "IAAv8": "",
            "IAAv6": ""
          }
        },
        {
          "start": "com.waps.OffersWebView.onCreate(Landroid/os/Bundle;)V",
          "target": "PC@67",
          "type": "activity",
          "component": "com.waps.OffersWebView"
        },
        {
          "start": "com.waps.OffersWebView.onCreate(Landroid/os/Bundle;)V",
          "target": "invokeinterface \u003c Application, Lorg/apache/http/client/HttpClient, execute(Lorg/apache/http/client/methods/HttpUriRequest;)Lorg/apache/http/HttpResponse; \u003e@191",
          "type": "activity",
          "component": "com.waps.OffersWebView",
          "constraintsFile": "constraints9_7.py",
          "variables": {
            "SharedPreferences\u003cpackageName\u003e": "IAAv6",
            "SharedPreferences\u003cshort_className\u003e": "IAAv1",
            "SharedPreferences\u003cclassName\u003e": "IAAv8"
          },
          "stringMap": {
            "7000": "",
            "7001": "com.waps.OffersWebView",
            "7002": "feedback",
            "7003": "down_type",
            "7004": "true",
            "7005": "false",
            "7006": "OffersWebView",
            "7007": "notify",
            "7008": "show"
          },
          "strings": {
            "IAAv1": "",
            "IAAv8": "",
            "IAAv6": ""
          }
        }
      ]
    },
    "10": {
      "startMethod": "com.ps.kickmouse.WhacAMouse.onDestroy()V",
      "targetMethod": "org.apache.http.client.HttpClient.execute(Lorg/apache/http/client/methods/HttpUriRequest;)Lorg/apache/http/HttpResponse;",
      "eventChain": [
        {
          "start": "com.ps.kickmouse.WhacAMouse.onDestroy()V",
          "target": "invokeinterface \u003c Application, Lorg/apache/http/client/HttpClient, execute(Lorg/apache/http/client/methods/HttpUriRequest;)Lorg/apache/http/HttpResponse; \u003e@191",
          "type": "activity",
          "component": "com.ps.kickmouse.WhacAMouse"
        }
      ]
    },
    "11": {
      "startMethod": "com.ps.kickmouse.WhacAMouse.onDestroy()V",
      "targetMethod": "org.apache.http.impl.client.DefaultHttpClient.execute(Lorg/apache/http/client/methods/HttpUriRequest;)Lorg/apache/http/HttpResponse;",
      "eventChain": [
        {
          "start": "com.ps.kickmouse.WhacAMouse.onDestroy()V",
          "target": "invokevirtual \u003c Application, Lorg/apache/http/impl/client/DefaultHttpClient, execute(Lorg/apache/http/client/methods/HttpUriRequest;)Lorg/apache/http/HttpResponse; \u003e@297",
          "type": "activity",
          "component": "com.ps.kickmouse.WhacAMouse"
        }
      ]
    },
    "12": {
      "startMethod": "com.google.update.UpdateService.onCreate()V",
      "targetMethod": "org.apache.http.impl.client.DefaultHttpClient.execute(Lorg/apache/http/client/methods/HttpUriRequest;)Lorg/apache/http/HttpResponse;",
      "eventChain": [
        {
          "start": "com.google.update.UpdateService.onCreate()V",
          "target": "invokeinterface \u003c Application, Landroid/content/SharedPreferences$Editor, putLong(Ljava/lang/String;J)Landroid/content/SharedPreferences$Editor; \u003e@216",
          "type": "service",
          "component": "com.google.update.UpdateService",
          "constraintsFile": "constraints12_0.py",
          "variables": {
            "SharedPreferences\u003cstart\u003e": "IAAv0"
          },
          "stringMap": {},
          "strings": {}
        },
        {
          "start": "com.google.update.UpdateService.\u003cinit\u003e()V",
          "target": "PC@100",
          "type": "",
          "constraintsFile": "constraints12_1.py",
          "variables": {
            "System.currentTimeMillis()": "IAAv2",
            "SharedPreferences\u003cstart\u003e": "IAAv0"
          },
          "stringMap": {},
          "strings": {}
        },
        {
          "start": "com.google.update.UpdateService.onCreate()V",
          "target": "invokevirtual \u003c Application, Lorg/apache/http/impl/client/DefaultHttpClient, execute(Lorg/apache/http/client/methods/HttpUriRequest;)Lorg/apache/http/HttpResponse; \u003e@777",
          "type": "service",
          "component": "com.google.update.UpdateService",
          "constraintsFile": "constraints12_2.py",
          "variables": {
            "System.currentTimeMillis()": "IAAv2",
            "SharedPreferences\u003cstart\u003e": "IAAv0"
          },
          "stringMap": {},
          "strings": {}
        }
      ]
    },
    "13": {
      "startMethod": "com.ps.kickmouse.Game.onCreate(Landroid/os/Bundle;)V",
      "targetMethod": "org.apache.http.client.HttpClient.execute(Lorg/apache/http/client/methods/HttpUriRequest;)Lorg/apache/http/HttpResponse;",
      "eventChain": [
        {
          "start": "com.ps.kickmouse.DemoApp.onResume()V",
          "target": "invokeinterface \u003c Application, Landroid/content/SharedPreferences$Editor, putString(Ljava/lang/String;Ljava/lang/String;)Landroid/content/SharedPreferences$Editor; \u003e@95",
          "type": "activity",
          "component": "com.ps.kickmouse.DemoApp"
        },
        {
          "start": "com.ps.kickmouse.DemoApp.onResume()V",
          "target": "",
          "type": "activity",
          "component": "com.ps.kickmouse.DemoApp"
        },
        {
          "start": "com.ps.kickmouse.Game.onCreate(Landroid/os/Bundle;)V",
          "target": "invokeinterface \u003c Application, Lorg/apache/http/client/HttpClient, execute(Lorg/apache/http/client/methods/HttpUriRequest;)Lorg/apache/http/HttpResponse; \u003e@191",
          "type": "activity",
          "component": "com.ps.kickmouse.Game",
          "constraintsFile": "constraints13_0.py",
          "variables": {
            "\u003cChainedInput1\u003e": "IAAv0",
            "SharedPreferences\u003cpush_flag\u003e": "IAAv3",
            "\u003cChainedInput1\u003e.getBundle()": "IAAv1"
          },
          "stringMap": {
            "7000": ""
          },
          "strings": {
            "IAAv3": "",
            "IAAv7": ""
          }
        }
      ]
    },
    "14": {
      "startMethod": "com.ps.kickmouse.Game.onCreate(Landroid/os/Bundle;)V",
      "targetMethod": "org.apache.http.impl.client.DefaultHttpClient.execute(Lorg/apache/http/client/methods/HttpUriRequest;)Lorg/apache/http/HttpResponse;",
      "eventChain": [
        {
          "start": "com.ps.kickmouse.DemoApp.onResume()V",
          "target": "invokeinterface \u003c Application, Landroid/content/SharedPreferences$Editor, putString(Ljava/lang/String;Ljava/lang/String;)Landroid/content/SharedPreferences$Editor; \u003e@95",
          "type": "activity",
          "component": "com.ps.kickmouse.DemoApp"
        },
        {
          "start": "com.ps.kickmouse.DemoApp.onResume()V",
          "target": "",
          "type": "activity",
          "component": "com.ps.kickmouse.DemoApp"
        },
        {
          "start": "com.waps.u.onDownloadStart(Ljava/lang/String;Ljava/lang/String;Ljava/lang/String;Ljava/lang/String;J)V",
          "target": "PC@9",
          "type": "",
          "constraintsFile": "constraints14_0.py",
          "variables": {
            "\u003cChainedInput1\u003e": "IAAv0",
            "\u003cChainedInput1\u003e.getBundle()": "IAAv1",
            "SharedPreferences\u003cpush_flag\u003e": "IAAv3"
          },
          "stringMap": {
            "7000": ""
          },
          "strings": {
            "IAAv3": "",
            "IAAv10": "",
            "IAAv7": ""
          }
        },
        {
          "start": "com.ps.kickmouse.Game.onCreate(Landroid/os/Bundle;)V",
          "target": "invokevirtual \u003c Application, Lorg/apache/http/impl/client/DefaultHttpClient, execute(Lorg/apache/http/client/methods/HttpUriRequest;)Lorg/apache/http/HttpResponse; \u003e@297",
          "type": "activity",
          "component": "com.ps.kickmouse.Game",
          "constraintsFile": "constraints14_1.py",
          "variables": {
            "\u003cChainedInput1\u003e": "IAAv0",
            "SharedPreferences\u003cpush_flag\u003e": "IAAv3",
            "\u003cChainedInput1\u003e.getBundle()": "IAAv1"
          },
          "stringMap": {
            "7000": ""
          },
          "strings": {
            "IAAv3": "",
            "IAAv7": ""
          }
        }
      ]
    },
    "15": {
      "startMethod": "com.ps.kickmouse.DemoApp.onClick(Landroid/view/View;)V",
      "targetMethod": "org.apache.http.impl.client.DefaultHttpClient.execute(Lorg/apache/http/client/methods/HttpUriRequest;)Lorg/apache/http/HttpResponse;",
      "eventChain": [
        {
          "start": "com.ps.kickmouse.DemoApp.onCreate(Landroid/os/Bundle;)V",
          "target": "invokevirtual \u003c Application, Landroid/widget/Button, setOnClickListener(Landroid/view/View$OnClickListener;)V \u003e@73",
          "type": "activity",
          "component": "com.ps.kickmouse.DemoApp"
        },
        {
          "start": "com.ps.kickmouse.DemoApp.onClick(Landroid/view/View;)V",
          "target": "invokevirtual \u003c Application, Lorg/apache/http/impl/client/DefaultHttpClient, execute(Lorg/apache/http/client/methods/HttpUriRequest;)Lorg/apache/http/HttpResponse; \u003e@297",
          "type": "ui",
          "activities": [
            "com.ps.kickmouse.DemoApp"
          ],
          "listener": "com.ps.kickmouse.DemoApp",
          "listenerMethod": "onClick",
          "uiType": "onClick",
          "constraintsFile": "constraints15_0.py",
          "variables": {
            "\u003cInput1\u003e.getId()": "IAAv0"
          },
          "stringMap": {},
          "strings": {}
        }
      ]
    },
    "16": {
      "startMethod": "com.ps.kickmouse.DemoApp.onClick(Landroid/view/View;)V",
      "targetMethod": "org.apache.http.client.HttpClient.execute(Lorg/apache/http/client/methods/HttpUriRequest;)Lorg/apache/http/HttpResponse;",
      "eventChain": [
        {
          "start": "com.ps.kickmouse.DemoApp.onCreate(Landroid/os/Bundle;)V",
          "target": "invokevirtual \u003c Application, Landroid/widget/Button, setOnClickListener(Landroid/view/View$OnClickListener;)V \u003e@73",
          "type": "activity",
          "component": "com.ps.kickmouse.DemoApp"
        },
        {
          "start": "com.ps.kickmouse.DemoApp.onClick(Landroid/view/View;)V",
          "target": "invokeinterface \u003c Application, Lorg/apache/http/client/HttpClient, execute(Lorg/apache/http/client/methods/HttpUriRequest;)Lorg/apache/http/HttpResponse; \u003e@191",
          "type": "ui",
          "activities": [
            "com.ps.kickmouse.DemoApp"
          ],
          "listener": "com.ps.kickmouse.DemoApp",
          "listenerMethod": "onClick",
          "uiType": "onClick",
          "constraintsFile": "constraints16_0.py",
          "variables": {
            "\u003cInput1\u003e.getId()": "IAAv0"
          },
          "stringMap": {},
          "strings": {}
        }
      ]
    },
    "17": {
      "startMethod": "com.waps.s.onClick(Landroid/view/View;)V",
      "targetMethod": "org.apache.http.client.HttpClient.execute(Lorg/apache/http/client/methods/HttpUriRequest;)Lorg/apache/http/HttpResponse;",
      "eventChain": [
        {
          "start": "com.ps.kickmouse.DemoApp.onCreate(Landroid/os/Bundle;)V",
          "target": "invokevirtual \u003c Application, Landroid/view/View, setOnClickListener(Landroid/view/View$OnClickListener;)V \u003e@579",
          "type": "activity",
          "component": "com.ps.kickmouse.DemoApp",
          "constraintsFile": "constraints17_0.py",
          "variables": {
            "SharedPreferences\u003cshow_ad_flag\u003e": "IAAv0"
          },
          "stringMap": {
            "7000": "",
            "7001": "1"
          },
          "strings": {
            "IAAv1": ""
          }
        },
        {
          "start": "com.waps.s.onClick(Landroid/view/View;)V",
          "target": "invokeinterface \u003c Application, Lorg/apache/http/client/HttpClient, execute(Lorg/apache/http/client/methods/HttpUriRequest;)Lorg/apache/http/HttpResponse; \u003e@191",
          "type": "ui",
          "activities": [
            "com.ps.kickmouse.WhacAMouse"
          ],
          "listener": "com.waps.s",
          "listenerMethod": "onClick",
          "uiType": "onClick",
          "constraintsFile": "constraints17_1.py",
          "variables": {},
          "stringMap": {
            "7000": ""
          },
          "strings": {
            "IAAv0": ""
          }
        }
      ]
    },
    "18": {
      "startMethod": "com.waps.q.onReceive(Landroid/content/Context;Landroid/content/Intent;)V",
      "targetMethod": "org.apache.http.client.HttpClient.execute(Lorg/apache/http/client/methods/HttpUriRequest;)Lorg/apache/http/HttpResponse;",
      "eventChain": [
        {
          "start": "com.waps.x.onClick(Landroid/content/DialogInterface;I)V",
          "target": "invokespecial \u003c Application, Landroid/content/BroadcastReceiver, \u003cinit\u003e()V \u003e@2",
          "type": "ui",
          "activities": [
            "com.ps.kickmouse.WhacAMouse"
          ],
          "listener": "com.waps.x",
          "listenerMethod": "onClick",
          "uiType": "onClick",
          "inDialog": "true"
        },
        {
          "start": "com.ps.kickmouse.DemoApp.onResume()V",
          "target": "",
          "type": "activity",
          "component": "com.ps.kickmouse.DemoApp"
        },
        {
          "start": "com.waps.q.onReceive(Landroid/content/Context;Landroid/content/Intent;)V",
          "target": "invokeinterface \u003c Application, Lorg/apache/http/client/HttpClient, execute(Lorg/apache/http/client/methods/HttpUriRequest;)Lorg/apache/http/HttpResponse; \u003e@191",
          "type": "sms",
          "constraintsFile": "constraints18_0.py",
          "variables": {
            "\u003cChainedInput2\u003e.getDataString()": "IAAv2",
            "\u003cChainedInput2\u003e.getAction()": "IAAv0"
          },
          "stringMap": {
            "7000": "android.intent.action.PACKAGE_ADDED"
          },
          "strings": {
            "IAAv2": "",
            "IAAv0": ""
          }
        }
      ]
    },
    "19": {
      "startMethod": "com.waps.u.onDownloadStart(Ljava/lang/String;Ljava/lang/String;Ljava/lang/String;Ljava/lang/String;J)V",
      "targetMethod": "org.apache.http.impl.client.DefaultHttpClient.execute(Lorg/apache/http/client/methods/HttpUriRequest;)Lorg/apache/http/HttpResponse;",
      "eventChain": [
        {
          "start": "com.waps.OffersWebView.onCreate(Landroid/os/Bundle;)V",
          "target": "invokevirtual \u003c Application, Landroid/webkit/WebView, setDownloadListener(Landroid/webkit/DownloadListener;)V \u003e@1098",
          "type": "activity",
          "component": "com.waps.OffersWebView",
          "constraintsFile": "constraints19_0.py",
          "variables": {
            "SharedPreferences\u003cpackageName\u003e": "IAAv6",
            "SharedPreferences\u003cshort_className\u003e": "IAAv1",
            "SharedPreferences\u003cclassName\u003e": "IAAv8"
          },
          "stringMap": {
            "7000": "",
            "7001": "com.waps.OffersWebView",
            "7002": "feedback",
            "7003": "down_type",
            "7004": "true",
            "7005": "false",
            "7006": "OffersWebView",
            "7007": "notify",
            "7008": "show"
          },
          "strings": {
            "IAAv1": "",
            "IAAv8": "",
            "IAAv6": ""
          }
        },
        {
          "start": "com.waps.u.onDownloadStart(Ljava/lang/String;Ljava/lang/String;Ljava/lang/String;Ljava/lang/String;J)V",
          "target": "",
          "type": "",
          "constraintsFile": "constraints19_1.py",
          "variables": {},
          "stringMap": {},
          "strings": {}
        },
        {
          "start": "com.waps.u.onDownloadStart(Ljava/lang/String;Ljava/lang/String;Ljava/lang/String;Ljava/lang/String;J)V",
          "target": "invokevirtual \u003c Application, Lorg/apache/http/impl/client/DefaultHttpClient, execute(Lorg/apache/http/client/methods/HttpUriRequest;)Lorg/apache/http/HttpResponse; \u003e@163",
          "type": "",
          "constraintsFile": "constraints19_2.py",
          "variables": {},
          "stringMap": {},
          "strings": {}
        }
      ]
    },
    "20": {
      "startMethod": "com.waps.u.onDownloadStart(Ljava/lang/String;Ljava/lang/String;Ljava/lang/String;Ljava/lang/String;J)V",
      "targetMethod": "java.net.URL.openConnection()Ljava/net/URLConnection;",
      "eventChain": [
        {
          "start": "com.waps.OffersWebView.onCreate(Landroid/os/Bundle;)V",
          "target": "invokevirtual \u003c Application, Landroid/webkit/WebView, setDownloadListener(Landroid/webkit/DownloadListener;)V \u003e@1098",
          "type": "activity",
          "component": "com.waps.OffersWebView",
          "constraintsFile": "constraints20_0.py",
          "variables": {
            "SharedPreferences\u003cpackageName\u003e": "IAAv6",
            "SharedPreferences\u003cshort_className\u003e": "IAAv1",
            "SharedPreferences\u003cclassName\u003e": "IAAv8"
          },
          "stringMap": {
            "7000": "",
            "7001": "com.waps.OffersWebView",
            "7002": "feedback",
            "7003": "down_type",
            "7004": "true",
            "7005": "false",
            "7006": "OffersWebView",
            "7007": "notify",
            "7008": "show"
          },
          "strings": {
            "IAAv1": "",
            "IAAv8": "",
            "IAAv6": ""
          }
        },
        {
          "start": "com.waps.u.onDownloadStart(Ljava/lang/String;Ljava/lang/String;Ljava/lang/String;Ljava/lang/String;J)V",
          "target": "invokevirtual \u003c Application, Ljava/net/URL, openConnection()Ljava/net/URLConnection; \u003e@33",
          "type": "",
          "constraintsFile": "constraints20_1.py",
          "variables": {},
          "stringMap": {},
          "strings": {}
        }
      ]
    },
    "21": {
      "startMethod": "com.waps.w.onClick(Landroid/content/DialogInterface;I)V",
      "targetMethod": "java.net.URL.openConnection()Ljava/net/URLConnection;",
      "eventChain": [
        {
          "start": "com.waps.u.onDownloadStart(Ljava/lang/String;Ljava/lang/String;Ljava/lang/String;Ljava/lang/String;J)V",
          "target": "invokevirtual \u003c Application, Landroid/app/AlertDialog$Builder, setNeutralButton(Ljava/lang/CharSequence;Landroid/content/DialogInterface$OnClickListener;)Landroid/app/AlertDialog$Builder; \u003e@217",
          "type": "",
          "constraintsFile": "constraints21_0.py",
          "variables": {},
          "stringMap": {},
          "strings": {}
        },
        {
          "start": "com.waps.w.onClick(Landroid/content/DialogInterface;I)V",
          "target": "invokevirtual \u003c Application, Ljava/net/URL, openConnection()Ljava/net/URLConnection; \u003e@33",
          "type": "ui",
          "activities": [
            "com.ps.kickmouse.WhacAMouse"
          ],
          "listener": "com.waps.w",
          "listenerMethod": "onClick",
          "uiType": "onClick",
          "inDialog": "true",
          "constraintsFile": "constraints21_1.py",
          "variables": {},
          "stringMap": {},
          "strings": {}
        }
      ]
    },
    "22": {
      "startMethod": "com.waps.w.onClick(Landroid/content/DialogInterface;I)V",
      "targetMethod": "org.apache.http.impl.client.DefaultHttpClient.execute(Lorg/apache/http/client/methods/HttpUriRequest;)Lorg/apache/http/HttpResponse;",
      "eventChain": [
        {
          "start": "com.waps.u.onDownloadStart(Ljava/lang/String;Ljava/lang/String;Ljava/lang/String;Ljava/lang/String;J)V",
          "target": "invokevirtual \u003c Application, Landroid/app/AlertDialog$Builder, setNeutralButton(Ljava/lang/CharSequence;Landroid/content/DialogInterface$OnClickListener;)Landroid/app/AlertDialog$Builder; \u003e@217",
          "type": "",
          "constraintsFile": "constraints22_0.py",
          "variables": {},
          "stringMap": {},
          "strings": {}
        },
        {
          "start": "com.waps.w.onClick(Landroid/content/DialogInterface;I)V",
          "target": "invokevirtual \u003c Application, Lorg/apache/http/impl/client/DefaultHttpClient, execute(Lorg/apache/http/client/methods/HttpUriRequest;)Lorg/apache/http/HttpResponse; \u003e@163",
          "type": "ui",
          "activities": [
            "com.ps.kickmouse.WhacAMouse"
          ],
          "listener": "com.waps.w",
          "listenerMethod": "onClick",
          "uiType": "onClick",
          "inDialog": "true",
          "constraintsFile": "constraints22_1.py",
          "variables": {},
          "stringMap": {},
          "strings": {}
        }
      ]
    }
  }
}