{
  "packageName": "com.probel.android.igogusdh",
  "mainActivity": "com.embarcadero.firemonkey.FMXNativeActivity",
  "callPaths": {
    "0": {
      "startMethod": "com.embarcadero.rtl.notifications.NotificationAlarm.onReceive(Landroid/content/Context;Landroid/content/Intent;)V",
      "targetMethod": "android.app.NotificationManager.notify(ILandroid/app/Notification;)V",
      "eventChain": [
        {
          "start": "com.embarcadero.rtl.notifications.NotificationAlarm.onReceive(Landroid/content/Context;Landroid/content/Intent;)V",
          "target": "invokevirtual \u003c Application, Landroid/app/NotificationManager, notify(ILandroid/app/Notification;)V \u003e@61",
          "type": "sms",
          "constraintsFile": "constraints0_0.py",
          "variables": {
            "\u003cChainedInput2\u003e.getAction()": "IAAv0"
          },
          "stringMap": {
            "7000": "ACTION_NOTIFICATION"
          },
          "strings": {
            "IAAv2": "",
            "IAAv0": ""
          }
        }
      ]
    },
    "1": {
      "startMethod": "com.embarcadero.rtl.notifications.NotificationAlarm.onReceive(Landroid/content/Context;Landroid/content/Intent;)V",
      "targetMethod": "android.app.NotificationManager.notify(Ljava/lang/String;ILandroid/app/Notification;)V",
      "eventChain": [
        {
          "start": "com.embarcadero.rtl.notifications.NotificationAlarm.onReceive(Landroid/content/Context;Landroid/content/Intent;)V",
          "target": "invokevirtual \u003c Application, Landroid/app/NotificationManager, notify(Ljava/lang/String;ILandroid/app/Notification;)V \u003e@74",
          "type": "sms",
          "constraintsFile": "constraints1_0.py",
          "variables": {
            "\u003cChainedInput2\u003e.getAction()": "IAAv0"
          },
          "stringMap": {
            "7000": "ACTION_NOTIFICATION"
          },
          "strings": {
            "IAAv2": "",
            "IAAv0": ""
          }
        }
      ]
    },
    "2": {
      "startMethod": "com.google.android.gms.maps.MapFragment.onResume()V",
      "targetMethod": "java.lang.ClassLoader.loadClass(Ljava/lang/String;)Ljava/lang/Class;",
      "eventChain": [
        {
          "start": "com.google.android.gms.maps.MapFragment.onDestroy()V",
          "target": "invokespecial \u003c Application, Landroid/app/Fragment, onDestroy()V \u003e@11",
          "type": ""
        },
        {
          "start": "com.google.android.gms.maps.MapFragment.onResume()V",
          "target": "invokevirtual \u003c Application, Ljava/lang/ClassLoader, loadClass(Ljava/lang/String;)Ljava/lang/Class; \u003e@13",
          "type": "",
          "constraintsFile": "constraints2_0.py",
          "variables": {},
          "stringMap": {},
          "strings": {}
        }
      ]
    },
    "3": {
      "startMethod": "com.google.android.gms.maps.MapFragment.onCreate(Landroid/os/Bundle;)V",
      "targetMethod": "java.lang.ClassLoader.loadClass(Ljava/lang/String;)Ljava/lang/Class;",
      "eventChain": [
        {
          "start": "com.google.android.gms.maps.MapFragment.onDestroy()V",
          "target": "invokespecial \u003c Application, Landroid/app/Fragment, onDestroy()V \u003e@11",
          "type": ""
        },
        {
          "start": "com.google.android.gms.maps.MapFragment.onCreate(Landroid/os/Bundle;)V",
          "target": "invokevirtual \u003c Application, Ljava/lang/ClassLoader, loadClass(Ljava/lang/String;)Ljava/lang/Class; \u003e@13",
          "type": "",
          "constraintsFile": "constraints3_0.py",
          "variables": {
            "\u003cChainedInput1\u003e": "IAAv2"
          },
          "stringMap": {},
          "strings": {}
        }
      ]
    },
    "4": {
      "startMethod": "com.google.android.gms.maps.MapFragment.onAttach(Landroid/app/Activity;)V",
      "targetMethod": "java.lang.ClassLoader.loadClass(Ljava/lang/String;)Ljava/lang/Class;",
      "eventChain": [
        {
          "start": "com.google.android.gms.maps.MapFragment.onDestroy()V",
          "target": "invokespecial \u003c Application, Landroid/app/Fragment, onDestroy()V \u003e@11",
          "type": ""
        },
        {
          "start": "com.google.android.gms.maps.MapFragment.onResume()V",
          "target": "",
          "type": "",
          "constraintsFile": "constraints4_0.py",
          "variables": {},
          "stringMap": {},
          "strings": {}
        },
        {
          "start": "com.google.android.gms.maps.MapFragment.onAttach(Landroid/app/Activity;)V",
          "target": "invokevirtual \u003c Application, Ljava/lang/ClassLoader, loadClass(Ljava/lang/String;)Ljava/lang/Class; \u003e@13",
          "type": "",
          "constraintsFile": "constraints4_1.py",
          "variables": {},
          "stringMap": {},
          "strings": {}
        }
      ]
    },
    "5": {
      "startMethod": "com.google.android.gms.maps.MapFragment.onCreateView(Landroid/view/LayoutInflater;Landroid/view/ViewGroup;Landroid/os/Bundle;)Landroid/view/View;",
      "targetMethod": "java.lang.ClassLoader.loadClass(Ljava/lang/String;)Ljava/lang/Class;",
      "eventChain": [
        {
          "start": "com.google.android.gms.maps.MapFragment.onDestroy()V",
          "target": "invokespecial \u003c Application, Landroid/app/Fragment, onDestroy()V \u003e@11",
          "type": ""
        },
        {
          "start": "com.google.android.gms.maps.MapFragment.onCreateView(Landroid/view/LayoutInflater;Landroid/view/ViewGroup;Landroid/os/Bundle;)Landroid/view/View;",
          "target": "invokevirtual \u003c Application, Ljava/lang/ClassLoader, loadClass(Ljava/lang/String;)Ljava/lang/Class; \u003e@13",
          "type": "",
          "constraintsFile": "constraints5_0.py",
          "variables": {
            "\u003cChainedInput3\u003e": "IAAv2"
          },
          "stringMap": {},
          "strings": {}
        }
      ]
    },
    "6": {
      "startMethod": "com.google.android.gms.maps.MapFragment.onInflate(Landroid/app/Activity;Landroid/util/AttributeSet;Landroid/os/Bundle;)V",
      "targetMethod": "java.lang.ClassLoader.loadClass(Ljava/lang/String;)Ljava/lang/Class;",
      "eventChain": [
        {
          "start": "com.google.android.gms.maps.MapFragment.onDestroy()V",
          "target": "invokespecial \u003c Application, Landroid/app/Fragment, onDestroy()V \u003e@11",
          "type": ""
        },
        {
          "start": "com.google.android.gms.maps.MapFragment.onResume()V",
          "target": "",
          "type": "",
          "constraintsFile": "constraints6_0.py",
          "variables": {},
          "stringMap": {},
          "strings": {}
        },
        {
          "start": "com.google.android.gms.maps.MapFragment.onInflate(Landroid/app/Activity;Landroid/util/AttributeSet;Landroid/os/Bundle;)V",
          "target": "invokevirtual \u003c Application, Ljava/lang/ClassLoader, loadClass(Ljava/lang/String;)Ljava/lang/Class; \u003e@13",
          "type": "",
          "constraintsFile": "constraints6_1.py",
          "variables": {},
          "stringMap": {},
          "strings": {}
        }
      ]
    },
    "7": {
      "startMethod": "com.embarcadero.firemonkey.FMXNativeActivity.onActivityResult(IILandroid/content/Intent;)V",
      "targetMethod": "java.net.URL.openStream()Ljava/io/InputStream;",
      "eventChain": [
        {
          "start": "com.embarcadero.firemonkey.FMXNativeActivity.onActivityResult(IILandroid/content/Intent;)V",
          "target": "invokevirtual \u003c Application, Ljava/net/URL, openStream()Ljava/io/InputStream; \u003e@125",
          "type": "activity",
          "component": "com.embarcadero.firemonkey.FMXNativeActivity",
          "constraintsFile": "constraints7_0.py",
          "variables": {
            "\u003cChainedInput1\u003e": "IAAv2",
            "\u003cChainedInput2\u003e": "IAAv1",
            "\u003cChainedInput1\u003e.isRequestForTakingImage()": "IAAv0",
            "\u003cChainedInput3\u003e.getData()": "IAAv3"
          },
          "stringMap": {},
          "strings": {}
        }
      ]
    },
    "8": {
      "startMethod": "com.google.android.gms.tagmanager.PreviewActivity.onCreate(Landroid/os/Bundle;)V",
      "targetMethod": "java.lang.reflect.Method.invoke(Ljava/lang/Object;[Ljava/lang/Object;)Ljava/lang/Object;",
      "eventChain": [
        {
          "start": "com.google.android.gms.tagmanager.PreviewActivity.onCreate(Landroid/os/Bundle;)V",
          "target": "invokevirtual \u003c Application, Ljava/lang/reflect/Method, invoke(Ljava/lang/Object;[Ljava/lang/Object;)Ljava/lang/Object; \u003e@580",
          "type": "activity",
          "component": "com.google.android.gms.tagmanager.PreviewActivity"
        }
      ]
    },
    "9": {
      "startMethod": "com.google.android.gms.tagmanager.PreviewActivity.onCreate(Landroid/os/Bundle;)V",
      "targetMethod": "java.lang.reflect.Method.invoke(Ljava/lang/Object;[Ljava/lang/Object;)Ljava/lang/Object;",
      "eventChain": [
        {
          "start": "com.google.android.gms.tagmanager.PreviewActivity.onCreate(Landroid/os/Bundle;)V",
          "target": "invokevirtual \u003c Application, Ljava/lang/reflect/Method, invoke(Ljava/lang/Object;[Ljava/lang/Object;)Ljava/lang/Object; \u003e@471",
          "type": "activity",
          "component": "com.google.android.gms.tagmanager.PreviewActivity"
        }
      ]
    },
    "10": {
      "startMethod": "com.google.android.gms.ads.AdActivity.onCreate(Landroid/os/Bundle;)V",
      "targetMethod": "java.lang.ClassLoader.loadClass(Ljava/lang/String;)Ljava/lang/Class;",
      "eventChain": [
        {
          "start": "com.google.android.gms.ads.AdActivity.onCreate(Landroid/os/Bundle;)V",
          "target": "invokevirtual \u003c Application, Ljava/lang/ClassLoader, loadClass(Ljava/lang/String;)Ljava/lang/Class; \u003e@50",
          "type": "activity",
          "component": "com.google.android.gms.ads.AdActivity"
        }
      ]
    },
    "11": {
      "startMethod": "com.google.android.gms.ads.AdActivity.onCreate(Landroid/os/Bundle;)V",
      "targetMethod": "android.webkit.WebView.\u003cinit\u003e(Landroid/content/Context;)V",
      "eventChain": [
        {
          "start": "com.google.android.gms.ads.AdActivity.onCreate(Landroid/os/Bundle;)V",
          "target": "PC@13",
          "type": "activity",
          "component": "com.google.android.gms.ads.AdActivity"
        },
        {
          "start": "com.google.android.gms.ads.AdActivity.onCreate(Landroid/os/Bundle;)V",
          "target": "invokespecial \u003c Application, Landroid/webkit/WebView, \u003cinit\u003e(Landroid/content/Context;)V \u003e@13",
          "type": "activity",
          "component": "com.google.android.gms.ads.AdActivity",
          "constraintsFile": "constraints11_0.py",
          "variables": {},
          "stringMap": {},
          "strings": {}
        }
      ]
    },
    "12": {
      "startMethod": "com.google.android.gms.ads.AdActivity.onCreate(Landroid/os/Bundle;)V",
      "targetMethod": "android.webkit.WebView.\u003cinit\u003e(Landroid/content/Context;)V",
      "eventChain": [
        {
          "start": "com.google.android.gms.ads.AdActivity.onCreate(Landroid/os/Bundle;)V",
          "target": "PC@13",
          "type": "activity",
          "component": "com.google.android.gms.ads.AdActivity"
        },
        {
          "start": "com.google.android.gms.ads.AdActivity.onCreate(Landroid/os/Bundle;)V",
          "target": "invokespecial \u003c Application, Landroid/webkit/WebView, \u003cinit\u003e(Landroid/content/Context;)V \u003e@7",
          "type": "activity",
          "component": "com.google.android.gms.ads.AdActivity",
          "constraintsFile": "constraints12_0.py",
          "variables": {},
          "stringMap": {},
          "strings": {
            "IAAv3": ""
          }
        }
      ]
    },
    "13": {
      "startMethod": "com.google.android.gms.ads.AdActivity.onPause()V",
      "targetMethod": "android.widget.VideoView.pause()V",
      "eventChain": [
        {
          "start": "com.google.android.gms.ads.AdActivity.onCreate(Landroid/os/Bundle;)V",
          "target": "PC@13",
          "type": "activity",
          "component": "com.google.android.gms.ads.AdActivity"
        },
        {
          "start": "com.google.android.gms.ads.AdActivity.onPause()V",
          "target": "invokevirtual \u003c Application, Landroid/widget/VideoView, pause()V \u003e@7",
          "type": "activity",
          "component": "com.google.android.gms.ads.AdActivity",
          "constraintsFile": "constraints13_0.py",
          "variables": {},
          "stringMap": {},
          "strings": {}
        }
      ]
    },
    "14": {
      "startMethod": "com.google.android.gms.ads.AdActivity.onDestroy()V",
      "targetMethod": "android.widget.VideoView.stopPlayback()V",
      "eventChain": [
        {
          "start": "com.google.android.gms.ads.AdActivity.onCreate(Landroid/os/Bundle;)V",
          "target": "PC@13",
          "type": "activity",
          "component": "com.google.android.gms.ads.AdActivity"
        },
        {
          "start": "com.google.android.gms.ads.AdActivity.onDestroy()V",
          "target": "invokevirtual \u003c Application, Landroid/widget/VideoView, stopPlayback()V \u003e@16",
          "type": "activity",
          "component": "com.google.android.gms.ads.AdActivity",
          "constraintsFile": "constraints14_0.py",
          "variables": {},
          "stringMap": {},
          "strings": {}
        }
      ]
    },
    "15": {
      "startMethod": "com.google.android.gms.internal.de.shouldOverrideUrlLoading(Landroid/webkit/WebView;Ljava/lang/String;)Z",
      "targetMethod": "android.widget.VideoView.pause()V",
      "eventChain": [
        {
          "start": "com.google.android.gms.ads.AdActivity.onCreate(Landroid/os/Bundle;)V",
          "target": "invokespecial \u003c Application, Landroid/webkit/WebViewClient, \u003cinit\u003e()V \u003e@2",
          "type": "activity",
          "component": "com.google.android.gms.ads.AdActivity",
          "constraintsFile": "constraints15_0.py",
          "variables": {},
          "stringMap": {},
          "strings": {}
        },
        {
          "start": "com.google.android.gms.internal.de.shouldOverrideUrlLoading(Landroid/webkit/WebView;Ljava/lang/String;)Z",
          "target": "invokevirtual \u003c Application, Landroid/widget/VideoView, pause()V \u003e@7",
          "type": "",
          "constraintsFile": "constraints15_1.py",
          "variables": {
            "\u003cChainedInput2\u003e.parse().getHost()": "IAAv2",
            "\u003cChainedInput2\u003e.parse().getScheme()": "IAAv0"
          },
          "stringMap": {
            "7000": "gmsg",
            "7001": "mobileads.google.com"
          },
          "strings": {
            "IAAv2": "",
            "IAAv0": ""
          }
        }
      ]
    },
    "16": {
      "startMethod": "com.google.android.gms.internal.de.shouldOverrideUrlLoading(Landroid/webkit/WebView;Ljava/lang/String;)Z",
      "targetMethod": "android.widget.VideoView.setVideoPath(Ljava/lang/String;)V",
      "eventChain": [
        {
          "start": "com.google.android.gms.ads.AdActivity.onCreate(Landroid/os/Bundle;)V",
          "target": "invokespecial \u003c Application, Landroid/webkit/WebViewClient, \u003cinit\u003e()V \u003e@2",
          "type": "activity",
          "component": "com.google.android.gms.ads.AdActivity",
          "constraintsFile": "constraints16_0.py",
          "variables": {},
          "stringMap": {},
          "strings": {}
        },
        {
          "start": "com.google.android.gms.internal.de.shouldOverrideUrlLoading(Landroid/webkit/WebView;Ljava/lang/String;)Z",
          "target": "invokevirtual \u003c Application, Landroid/widget/VideoView, setVideoPath(Ljava/lang/String;)V \u003e@27",
          "type": "",
          "constraintsFile": "constraints16_1.py",
          "variables": {
            "\u003cChainedInput2\u003e.parse().getHost()": "IAAv2",
            "\u003cChainedInput2\u003e.parse().getScheme()": "IAAv0"
          },
          "stringMap": {
            "7000": "gmsg",
            "7001": "mobileads.google.com"
          },
          "strings": {
            "IAAv2": "",
            "IAAv0": ""
          }
        }
      ]
    },
    "17": {
      "startMethod": "com.google.android.gms.internal.de.shouldOverrideUrlLoading(Landroid/webkit/WebView;Ljava/lang/String;)Z",
      "targetMethod": "android.widget.VideoView.start()V",
      "eventChain": [
        {
          "start": "com.google.android.gms.ads.AdActivity.onCreate(Landroid/os/Bundle;)V",
          "target": "invokespecial \u003c Application, Landroid/webkit/WebViewClient, \u003cinit\u003e()V \u003e@2",
          "type": "activity",
          "component": "com.google.android.gms.ads.AdActivity",
          "constraintsFile": "constraints17_0.py",
          "variables": {},
          "stringMap": {},
          "strings": {}
        },
        {
          "start": "com.google.android.gms.internal.de.shouldOverrideUrlLoading(Landroid/webkit/WebView;Ljava/lang/String;)Z",
          "target": "invokevirtual \u003c Application, Landroid/widget/VideoView, start()V \u003e@7",
          "type": "",
          "constraintsFile": "constraints17_1.py",
          "variables": {
            "\u003cChainedInput2\u003e.parse().getHost()": "IAAv2",
            "\u003cChainedInput2\u003e.parse().getScheme()": "IAAv0"
          },
          "stringMap": {
            "7000": "gmsg",
            "7001": "mobileads.google.com"
          },
          "strings": {
            "IAAv2": "",
            "IAAv0": ""
          }
        }
      ]
    },
    "18": {
      "startMethod": "com.google.android.gms.internal.dg.shouldInterceptRequest(Landroid/webkit/WebView;Ljava/lang/String;)Landroid/webkit/WebResourceResponse;",
      "targetMethod": "java.net.HttpURLConnection.connect()V",
      "eventChain": [
        {
          "start": "com.google.android.gms.internal.dg.shouldInterceptRequest(Landroid/webkit/WebView;Ljava/lang/String;)Landroid/webkit/WebResourceResponse;",
          "target": "invokespecial \u003c Application, Lcom/google/android/gms/internal/de, shouldInterceptRequest(Landroid/webkit/WebView;Ljava/lang/String;)Landroid/webkit/WebResourceResponse; \u003e@40",
          "type": ""
        },
        {
          "start": "com.google.android.gms.internal.dg.shouldInterceptRequest(Landroid/webkit/WebView;Ljava/lang/String;)Landroid/webkit/WebResourceResponse;",
          "target": "invokevirtual \u003c Application, Ljava/net/HttpURLConnection, connect()V \u003e@32",
          "type": "",
          "constraintsFile": "constraints18_0.py",
          "variables": {
            "\u003cInput1\u003e.Q().lo": "IAAv0"
          },
          "stringMap": {},
          "strings": {}
        }
      ]
    },
    "19": {
      "startMethod": "com.google.android.gms.internal.dg.shouldInterceptRequest(Landroid/webkit/WebView;Ljava/lang/String;)Landroid/webkit/WebResourceResponse;",
      "targetMethod": "java.net.URL.openConnection()Ljava/net/URLConnection;",
      "eventChain": [
        {
          "start": "com.google.android.gms.internal.dg.shouldInterceptRequest(Landroid/webkit/WebView;Ljava/lang/String;)Landroid/webkit/WebResourceResponse;",
          "target": "invokespecial \u003c Application, Lcom/google/android/gms/internal/de, shouldInterceptRequest(Landroid/webkit/WebView;Ljava/lang/String;)Landroid/webkit/WebResourceResponse; \u003e@40",
          "type": ""
        },
        {
          "start": "com.google.android.gms.internal.dg.shouldInterceptRequest(Landroid/webkit/WebView;Ljava/lang/String;)Landroid/webkit/WebResourceResponse;",
          "target": "invokevirtual \u003c Application, Ljava/net/URL, openConnection()Ljava/net/URLConnection; \u003e@11",
          "type": "",
          "constraintsFile": "constraints19_0.py",
          "variables": {
            "\u003cInput1\u003e.Q().lo": "IAAv0"
          },
          "stringMap": {},
          "strings": {}
        }
      ]
    },
    "20": {
      "startMethod": "com.google.android.gms.internal.dg.shouldInterceptRequest(Landroid/webkit/WebView;Ljava/lang/String;)Landroid/webkit/WebResourceResponse;",
      "targetMethod": "android.webkit.WebView.\u003cinit\u003e(Landroid/content/Context;)V",
      "eventChain": [
        {
          "start": "com.google.android.gms.internal.dg.shouldInterceptRequest(Landroid/webkit/WebView;Ljava/lang/String;)Landroid/webkit/WebResourceResponse;",
          "target": "invokespecial \u003c Application, Lcom/google/android/gms/internal/de, shouldInterceptRequest(Landroid/webkit/WebView;Ljava/lang/String;)Landroid/webkit/WebResourceResponse; \u003e@40",
          "type": ""
        },
        {
          "start": "com.google.android.gms.internal.dg.shouldInterceptRequest(Landroid/webkit/WebView;Ljava/lang/String;)Landroid/webkit/WebResourceResponse;",
          "target": "invokespecial \u003c Application, Landroid/webkit/WebView, \u003cinit\u003e(Landroid/content/Context;)V \u003e@7",
          "type": "",
          "constraintsFile": "constraints20_0.py",
          "variables": {
            "\u003cInput1\u003e.Q().lo": "IAAv0",
            "\u003cInput1\u003e.bb().ar().SDK_INT": "IAAv2",
            "\u003cInput1\u003e.bb().ar().pP": "IAAv1"
          },
          "stringMap": {},
          "strings": {
            "IAAv1": ""
          }
        }
      ]
    },
    "21": {
      "startMethod": "com.google.android.gms.internal.dg.shouldInterceptRequest(Landroid/webkit/WebView;Ljava/lang/String;)Landroid/webkit/WebResourceResponse;",
      "targetMethod": "java.net.HttpURLConnection.getInputStream()Ljava/io/InputStream;",
      "eventChain": [
        {
          "start": "com.google.android.gms.internal.dg.shouldInterceptRequest(Landroid/webkit/WebView;Ljava/lang/String;)Landroid/webkit/WebResourceResponse;",
          "target": "invokespecial \u003c Application, Lcom/google/android/gms/internal/de, shouldInterceptRequest(Landroid/webkit/WebView;Ljava/lang/String;)Landroid/webkit/WebResourceResponse; \u003e@40",
          "type": ""
        },
        {
          "start": "com.google.android.gms.internal.dg.shouldInterceptRequest(Landroid/webkit/WebView;Ljava/lang/String;)Landroid/webkit/WebResourceResponse;",
          "target": "invokevirtual \u003c Application, Ljava/net/HttpURLConnection, getInputStream()Ljava/io/InputStream; \u003e@41",
          "type": "",
          "constraintsFile": "constraints21_0.py",
          "variables": {
            "\u003cInput1\u003e.Q().lo": "IAAv0"
          },
          "stringMap": {},
          "strings": {}
        }
      ]
    },
    "22": {
      "startMethod": "com.google.android.gms.common.images.b.createFromParcel(Landroid/os/Parcel;)Ljava/lang/Object;",
      "targetMethod": "java.lang.ClassLoader.loadClass(Ljava/lang/String;)Ljava/lang/Class;",
      "eventChain": [
        {
          "start": "com.google.android.gms.common.images.b.createFromParcel(Landroid/os/Parcel;)Ljava/lang/Object;",
          "target": "invokevirtual \u003c Application, Ljava/lang/ClassLoader, loadClass(Ljava/lang/String;)Ljava/lang/Class; \u003e@15",
          "type": "",
          "constraintsFile": "constraints22_0.py",
          "variables": {
            "\u003cInput1\u003e.readString()": "IAAv2",
            "\u003cInput1\u003e.n().S()": "IAAv0",
            "\u003cInput1\u003e.readInt()": "IAAv3",
            "\u003cInput1\u003e.a(\u003cInput1\u003e.n())": "IAAv1"
          },
          "stringMap": {},
          "strings": {
            "IAAv2": ""
          }
        }
      ]
    },
    "23": {
      "startMethod": "com.google.android.gms.plus.internal.j.createFromParcel(Landroid/os/Parcel;)Ljava/lang/Object;",
      "targetMethod": "java.lang.ClassLoader.loadClass(Ljava/lang/String;)Ljava/lang/Class;",
      "eventChain": [
        {
          "start": "com.google.android.gms.plus.internal.j.createFromParcel(Landroid/os/Parcel;)Ljava/lang/Object;",
          "target": "invokevirtual \u003c Application, Ljava/lang/ClassLoader, loadClass(Ljava/lang/String;)Ljava/lang/Class; \u003e@15",
          "type": "",
          "constraintsFile": "constraints23_0.py",
          "variables": {
            "\u003cInput1\u003e.readString()": "IAAv2",
            "\u003cInput1\u003e.n().S()": "IAAv0",
            "\u003cInput1\u003e.readInt()": "IAAv3",
            "\u003cInput1\u003e.a(\u003cInput1\u003e.n())": "IAAv1"
          },
          "stringMap": {},
          "strings": {
            "IAAv2": ""
          }
        }
      ]
    },
    "24": {
      "startMethod": "com.google.android.gms.drive.internal.e.createFromParcel(Landroid/os/Parcel;)Ljava/lang/Object;",
      "targetMethod": "java.lang.ClassLoader.loadClass(Ljava/lang/String;)Ljava/lang/Class;",
      "eventChain": [
        {
          "start": "com.google.android.gms.drive.internal.e.createFromParcel(Landroid/os/Parcel;)Ljava/lang/Object;",
          "target": "invokevirtual \u003c Application, Ljava/lang/ClassLoader, loadClass(Ljava/lang/String;)Ljava/lang/Class; \u003e@15",
          "type": "",
          "constraintsFile": "constraints24_0.py",
          "variables": {
            "\u003cInput1\u003e.readString()": "IAAv2",
            "\u003cInput1\u003e.n().S()": "IAAv0",
            "\u003cInput1\u003e.readInt()": "IAAv3",
            "\u003cInput1\u003e.a(\u003cInput1\u003e.n())": "IAAv1"
          },
          "stringMap": {},
          "strings": {
            "IAAv2": ""
          }
        }
      ]
    },
    "25": {
      "startMethod": "com.google.android.gms.wallet.g.createFromParcel(Landroid/os/Parcel;)Ljava/lang/Object;",
      "targetMethod": "java.lang.ClassLoader.loadClass(Ljava/lang/String;)Ljava/lang/Class;",
      "eventChain": [
        {
          "start": "com.google.android.gms.wallet.g.createFromParcel(Landroid/os/Parcel;)Ljava/lang/Object;",
          "target": "invokevirtual \u003c Application, Ljava/lang/ClassLoader, loadClass(Ljava/lang/String;)Ljava/lang/Class; \u003e@15",
          "type": "",
          "constraintsFile": "constraints25_0.py",
          "variables": {
            "\u003cInput1\u003e.readString()": "IAAv2",
            "\u003cInput1\u003e.n().S()": "IAAv0",
            "\u003cInput1\u003e.readInt()": "IAAv3",
            "\u003cInput1\u003e.a(\u003cInput1\u003e.n())": "IAAv1"
          },
          "stringMap": {},
          "strings": {
            "IAAv2": ""
          }
        }
      ]
    },
    "26": {
      "startMethod": "com.google.android.gms.drive.internal.z.createFromParcel(Landroid/os/Parcel;)Ljava/lang/Object;",
      "targetMethod": "java.lang.ClassLoader.loadClass(Ljava/lang/String;)Ljava/lang/Class;",
      "eventChain": [
        {
          "start": "com.google.android.gms.drive.internal.z.createFromParcel(Landroid/os/Parcel;)Ljava/lang/Object;",
          "target": "invokevirtual \u003c Application, Ljava/lang/ClassLoader, loadClass(Ljava/lang/String;)Ljava/lang/Class; \u003e@15",
          "type": "",
          "constraintsFile": "constraints26_0.py",
          "variables": {
            "\u003cInput1\u003e.readString()": "IAAv2",
            "\u003cInput1\u003e.n().S()": "IAAv0",
            "\u003cInput1\u003e.readInt()": "IAAv3",
            "\u003cInput1\u003e.a(\u003cInput1\u003e.n())": "IAAv1"
          },
          "stringMap": {},
          "strings": {
            "IAAv2": ""
          }
        }
      ]
    },
    "27": {
      "startMethod": "com.google.android.gms.maps.model.CircleOptionsCreator.createFromParcel(Landroid/os/Parcel;)Ljava/lang/Object;",
      "targetMethod": "java.lang.ClassLoader.loadClass(Ljava/lang/String;)Ljava/lang/Class;",
      "eventChain": [
        {
          "start": "com.google.android.gms.maps.model.CircleOptionsCreator.createFromParcel(Landroid/os/Parcel;)Ljava/lang/Object;",
          "target": "invokevirtual \u003c Application, Ljava/lang/ClassLoader, loadClass(Ljava/lang/String;)Ljava/lang/Class; \u003e@15",
          "type": "",
          "constraintsFile": "constraints27_0.py",
          "variables": {
            "\u003cInput1\u003e.readString()": "IAAv2",
            "\u003cInput1\u003e.n().S()": "IAAv0",
            "\u003cInput1\u003e.readInt()": "IAAv3",
            "\u003cInput1\u003e.a(\u003cInput1\u003e.n())": "IAAv1"
          },
          "stringMap": {},
          "strings": {
            "IAAv2": ""
          }
        }
      ]
    },
    "28": {
      "startMethod": "com.google.android.gms.internal.hs.createFromParcel(Landroid/os/Parcel;)Ljava/lang/Object;",
      "targetMethod": "java.lang.ClassLoader.loadClass(Ljava/lang/String;)Ljava/lang/Class;",
      "eventChain": [
        {
          "start": "com.google.android.gms.internal.hs.createFromParcel(Landroid/os/Parcel;)Ljava/lang/Object;",
          "target": "invokevirtual \u003c Application, Ljava/lang/ClassLoader, loadClass(Ljava/lang/String;)Ljava/lang/Class; \u003e@15",
          "type": "",
          "constraintsFile": "constraints28_0.py",
          "variables": {
            "\u003cInput1\u003e.readString()": "IAAv2",
            "\u003cInput1\u003e.n().S()": "IAAv0",
            "\u003cInput1\u003e.readInt()": "IAAv3",
            "\u003cInput1\u003e.a(\u003cInput1\u003e.n())": "IAAv1"
          },
          "stringMap": {},
          "strings": {
            "IAAv2": ""
          }
        }
      ]
    },
    "29": {
      "startMethod": "com.google.android.gms.drive.internal.ai.createFromParcel(Landroid/os/Parcel;)Ljava/lang/Object;",
      "targetMethod": "java.lang.ClassLoader.loadClass(Ljava/lang/String;)Ljava/lang/Class;",
      "eventChain": [
        {
          "start": "com.google.android.gms.drive.internal.ai.createFromParcel(Landroid/os/Parcel;)Ljava/lang/Object;",
          "target": "invokevirtual \u003c Application, Ljava/lang/ClassLoader, loadClass(Ljava/lang/String;)Ljava/lang/Class; \u003e@15",
          "type": "",
          "constraintsFile": "constraints29_0.py",
          "variables": {
            "\u003cInput1\u003e.readString()": "IAAv2",
            "\u003cInput1\u003e.n().S()": "IAAv0",
            "\u003cInput1\u003e.readInt()": "IAAv3",
            "\u003cInput1\u003e.a(\u003cInput1\u003e.n())": "IAAv1"
          },
          "stringMap": {},
          "strings": {
            "IAAv2": ""
          }
        }
      ]
    },
    "30": {
      "startMethod": "com.google.android.gms.drive.internal.h.createFromParcel(Landroid/os/Parcel;)Ljava/lang/Object;",
      "targetMethod": "java.lang.ClassLoader.loadClass(Ljava/lang/String;)Ljava/lang/Class;",
      "eventChain": [
        {
          "start": "com.google.android.gms.drive.internal.h.createFromParcel(Landroid/os/Parcel;)Ljava/lang/Object;",
          "target": "invokevirtual \u003c Application, Ljava/lang/ClassLoader, loadClass(Ljava/lang/String;)Ljava/lang/Class; \u003e@15",
          "type": "",
          "constraintsFile": "constraints30_0.py",
          "variables": {
            "\u003cInput1\u003e.readString()": "IAAv2",
            "\u003cInput1\u003e.n().S()": "IAAv0",
            "\u003cInput1\u003e.readInt()": "IAAv3",
            "\u003cInput1\u003e.a(\u003cInput1\u003e.n())": "IAAv1"
          },
          "stringMap": {},
          "strings": {
            "IAAv2": ""
          }
        }
      ]
    },
    "31": {
      "startMethod": "com.google.android.gms.drive.internal.ad.createFromParcel(Landroid/os/Parcel;)Ljava/lang/Object;",
      "targetMethod": "java.lang.ClassLoader.loadClass(Ljava/lang/String;)Ljava/lang/Class;",
      "eventChain": [
        {
          "start": "com.google.android.gms.drive.internal.ad.createFromParcel(Landroid/os/Parcel;)Ljava/lang/Object;",
          "target": "invokevirtual \u003c Application, Ljava/lang/ClassLoader, loadClass(Ljava/lang/String;)Ljava/lang/Class; \u003e@15",
          "type": "",
          "constraintsFile": "constraints31_0.py",
          "variables": {
            "\u003cInput1\u003e.readString()": "IAAv2",
            "\u003cInput1\u003e.n().S()": "IAAv0",
            "\u003cInput1\u003e.readInt()": "IAAv3",
            "\u003cInput1\u003e.a(\u003cInput1\u003e.n())": "IAAv1"
          },
          "stringMap": {},
          "strings": {
            "IAAv2": ""
          }
        }
      ]
    },
    "32": {
      "startMethod": "com.google.android.gms.cast.a.createFromParcel(Landroid/os/Parcel;)Ljava/lang/Object;",
      "targetMethod": "java.lang.ClassLoader.loadClass(Ljava/lang/String;)Ljava/lang/Class;",
      "eventChain": [
        {
          "start": "com.google.android.gms.cast.a.createFromParcel(Landroid/os/Parcel;)Ljava/lang/Object;",
          "target": "invokevirtual \u003c Application, Ljava/lang/ClassLoader, loadClass(Ljava/lang/String;)Ljava/lang/Class; \u003e@15",
          "type": "",
          "constraintsFile": "constraints32_0.py",
          "variables": {
            "\u003cInput1\u003e.readString()": "IAAv2",
            "\u003cInput1\u003e.n().S()": "IAAv0",
            "\u003cInput1\u003e.readInt()": "IAAv3",
            "\u003cInput1\u003e.a(\u003cInput1\u003e.n())": "IAAv1"
          },
          "stringMap": {},
          "strings": {
            "IAAv2": ""
          }
        }
      ]
    },
    "33": {
      "startMethod": "com.google.android.gms.wallet.e.createFromParcel(Landroid/os/Parcel;)Ljava/lang/Object;",
      "targetMethod": "java.lang.ClassLoader.loadClass(Ljava/lang/String;)Ljava/lang/Class;",
      "eventChain": [
        {
          "start": "com.google.android.gms.wallet.e.createFromParcel(Landroid/os/Parcel;)Ljava/lang/Object;",
          "target": "invokevirtual \u003c Application, Ljava/lang/ClassLoader, loadClass(Ljava/lang/String;)Ljava/lang/Class; \u003e@15",
          "type": "",
          "constraintsFile": "constraints33_0.py",
          "variables": {
            "\u003cInput1\u003e.readString()": "IAAv2",
            "\u003cInput1\u003e.n().S()": "IAAv0",
            "\u003cInput1\u003e.readInt()": "IAAv3",
            "\u003cInput1\u003e.a(\u003cInput1\u003e.n())": "IAAv1"
          },
          "stringMap": {},
          "strings": {
            "IAAv2": ""
          }
        }
      ]
    },
    "34": {
      "startMethod": "com.google.android.gms.drive.internal.x.createFromParcel(Landroid/os/Parcel;)Ljava/lang/Object;",
      "targetMethod": "java.lang.ClassLoader.loadClass(Ljava/lang/String;)Ljava/lang/Class;",
      "eventChain": [
        {
          "start": "com.google.android.gms.drive.internal.x.createFromParcel(Landroid/os/Parcel;)Ljava/lang/Object;",
          "target": "invokevirtual \u003c Application, Ljava/lang/ClassLoader, loadClass(Ljava/lang/String;)Ljava/lang/Class; \u003e@15",
          "type": "",
          "constraintsFile": "constraints34_0.py",
          "variables": {
            "\u003cInput1\u003e.readString()": "IAAv2",
            "\u003cInput1\u003e.n().S()": "IAAv0",
            "\u003cInput1\u003e.readInt()": "IAAv3",
            "\u003cInput1\u003e.a(\u003cInput1\u003e.n())": "IAAv1"
          },
          "stringMap": {},
          "strings": {
            "IAAv2": ""
          }
        }
      ]
    },
    "35": {
      "startMethod": "com.google.android.gms.drive.internal.al.createFromParcel(Landroid/os/Parcel;)Ljava/lang/Object;",
      "targetMethod": "java.lang.ClassLoader.loadClass(Ljava/lang/String;)Ljava/lang/Class;",
      "eventChain": [
        {
          "start": "com.google.android.gms.drive.internal.al.createFromParcel(Landroid/os/Parcel;)Ljava/lang/Object;",
          "target": "invokevirtual \u003c Application, Ljava/lang/ClassLoader, loadClass(Ljava/lang/String;)Ljava/lang/Class; \u003e@15",
          "type": "",
          "constraintsFile": "constraints35_0.py",
          "variables": {
            "\u003cInput1\u003e.readString()": "IAAv2",
            "\u003cInput1\u003e.n().S()": "IAAv0",
            "\u003cInput1\u003e.readInt()": "IAAv3",
            "\u003cInput1\u003e.a(\u003cInput1\u003e.n())": "IAAv1"
          },
          "stringMap": {},
          "strings": {
            "IAAv2": ""
          }
        }
      ]
    },
    "36": {
      "startMethod": "com.google.android.gms.games.multiplayer.c.createFromParcel(Landroid/os/Parcel;)Ljava/lang/Object;",
      "targetMethod": "java.lang.ClassLoader.loadClass(Ljava/lang/String;)Ljava/lang/Class;",
      "eventChain": [
        {
          "start": "com.google.android.gms.games.multiplayer.c.createFromParcel(Landroid/os/Parcel;)Ljava/lang/Object;",
          "target": "invokevirtual \u003c Application, Ljava/lang/ClassLoader, loadClass(Ljava/lang/String;)Ljava/lang/Class; \u003e@15",
          "type": "",
          "constraintsFile": "constraints36_0.py",
          "variables": {
            "\u003cInput1\u003e.readString()": "IAAv2",
            "\u003cInput1\u003e.n().S()": "IAAv0",
            "\u003cInput1\u003e.readInt()": "IAAv3",
            "\u003cInput1\u003e.a(\u003cInput1\u003e.n())": "IAAv1"
          },
          "stringMap": {},
          "strings": {
            "IAAv2": ""
          }
        }
      ]
    },
    "37": {
      "startMethod": "com.google.android.gms.common.api.StatusCreator.createFromParcel(Landroid/os/Parcel;)Ljava/lang/Object;",
      "targetMethod": "java.lang.ClassLoader.loadClass(Ljava/lang/String;)Ljava/lang/Class;",
      "eventChain": [
        {
          "start": "com.google.android.gms.common.api.StatusCreator.createFromParcel(Landroid/os/Parcel;)Ljava/lang/Object;",
          "target": "invokevirtual \u003c Application, Ljava/lang/ClassLoader, loadClass(Ljava/lang/String;)Ljava/lang/Class; \u003e@15",
          "type": "",
          "constraintsFile": "constraints37_0.py",
          "variables": {
            "\u003cInput1\u003e.readString()": "IAAv2",
            "\u003cInput1\u003e.n().S()": "IAAv0",
            "\u003cInput1\u003e.readInt()": "IAAv3",
            "\u003cInput1\u003e.a(\u003cInput1\u003e.n())": "IAAv1"
          },
          "stringMap": {},
          "strings": {
            "IAAv2": ""
          }
        }
      ]
    },
    "38": {
      "startMethod": "com.google.android.gms.internal.jw.createFromParcel(Landroid/os/Parcel;)Ljava/lang/Object;",
      "targetMethod": "java.lang.ClassLoader.loadClass(Ljava/lang/String;)Ljava/lang/Class;",
      "eventChain": [
        {
          "start": "com.google.android.gms.internal.jw.createFromParcel(Landroid/os/Parcel;)Ljava/lang/Object;",
          "target": "invokevirtual \u003c Application, Ljava/lang/ClassLoader, loadClass(Ljava/lang/String;)Ljava/lang/Class; \u003e@15",
          "type": "",
          "constraintsFile": "constraints38_0.py",
          "variables": {
            "\u003cInput1\u003e.readString()": "IAAv2",
            "\u003cInput1\u003e.n().S()": "IAAv0",
            "\u003cInput1\u003e.readInt()": "IAAv3",
            "\u003cInput1\u003e.a(\u003cInput1\u003e.n())": "IAAv1"
          },
          "stringMap": {},
          "strings": {
            "IAAv2": ""
          }
        }
      ]
    },
    "39": {
      "startMethod": "com.google.android.gms.games.c.createFromParcel(Landroid/os/Parcel;)Ljava/lang/Object;",
      "targetMethod": "java.lang.ClassLoader.loadClass(Ljava/lang/String;)Ljava/lang/Class;",
      "eventChain": [
        {
          "start": "com.google.android.gms.games.c.createFromParcel(Landroid/os/Parcel;)Ljava/lang/Object;",
          "target": "invokevirtual \u003c Application, Ljava/lang/ClassLoader, loadClass(Ljava/lang/String;)Ljava/lang/Class; \u003e@15",
          "type": "",
          "constraintsFile": "constraints39_0.py",
          "variables": {
            "\u003cInput1\u003e.readString()": "IAAv2",
            "\u003cInput1\u003e.n().S()": "IAAv0",
            "\u003cInput1\u003e.readInt()": "IAAv3",
            "\u003cInput1\u003e.a(\u003cInput1\u003e.n())": "IAAv1"
          },
          "stringMap": {},
          "strings": {
            "IAAv2": ""
          }
        }
      ]
    },
    "40": {
      "startMethod": "com.google.android.gms.drive.internal.ag.createFromParcel(Landroid/os/Parcel;)Ljava/lang/Object;",
      "targetMethod": "java.lang.ClassLoader.loadClass(Ljava/lang/String;)Ljava/lang/Class;",
      "eventChain": [
        {
          "start": "com.google.android.gms.drive.internal.ag.createFromParcel(Landroid/os/Parcel;)Ljava/lang/Object;",
          "target": "invokevirtual \u003c Application, Ljava/lang/ClassLoader, loadClass(Ljava/lang/String;)Ljava/lang/Class; \u003e@15",
          "type": "",
          "constraintsFile": "constraints40_0.py",
          "variables": {
            "\u003cInput1\u003e.readString()": "IAAv2",
            "\u003cInput1\u003e.n().S()": "IAAv0",
            "\u003cInput1\u003e.readInt()": "IAAv3",
            "\u003cInput1\u003e.a(\u003cInput1\u003e.n())": "IAAv1"
          },
          "stringMap": {},
          "strings": {
            "IAAv2": ""
          }
        }
      ]
    },
    "41": {
      "startMethod": "com.google.android.gms.games.multiplayer.turnbased.TurnBasedMatchEntityCreator.createFromParcel(Landroid/os/Parcel;)Ljava/lang/Object;",
      "targetMethod": "java.lang.ClassLoader.loadClass(Ljava/lang/String;)Ljava/lang/Class;",
      "eventChain": [
        {
          "start": "com.google.android.gms.games.multiplayer.turnbased.TurnBasedMatchEntityCreator.createFromParcel(Landroid/os/Parcel;)Ljava/lang/Object;",
          "target": "invokevirtual \u003c Application, Ljava/lang/ClassLoader, loadClass(Ljava/lang/String;)Ljava/lang/Class; \u003e@15",
          "type": "",
          "constraintsFile": "constraints41_0.py",
          "variables": {
            "\u003cInput1\u003e.readString()": "IAAv2",
            "\u003cInput1\u003e.n().S()": "IAAv0",
            "\u003cInput1\u003e.readInt()": "IAAv3",
            "\u003cInput1\u003e.a(\u003cInput1\u003e.n())": "IAAv1"
          },
          "stringMap": {},
          "strings": {
            "IAAv2": ""
          }
        }
      ]
    },
    "42": {
      "startMethod": "com.google.android.gms.games.multiplayer.realtime.RoomEntity$a.createFromParcel(Landroid/os/Parcel;)Ljava/lang/Object;",
      "targetMethod": "java.lang.ClassLoader.loadClass(Ljava/lang/String;)Ljava/lang/Class;",
      "eventChain": [
        {
          "start": "com.google.android.gms.games.multiplayer.realtime.RoomEntity$a.createFromParcel(Landroid/os/Parcel;)Ljava/lang/Object;",
          "target": "invokevirtual \u003c Application, Ljava/lang/ClassLoader, loadClass(Ljava/lang/String;)Ljava/lang/Class; \u003e@15",
          "type": "",
          "constraintsFile": "constraints42_0.py",
          "variables": {
            "\u003cInput1\u003e.readString()": "IAAv0",
            "\u003cInput1\u003e.n().S()": "IAAv2",
            "\u003cInput1\u003e.readInt()": "IAAv1",
            "\u003cInput1\u003e.a(\u003cInput1\u003e.n())": "IAAv3"
          },
          "stringMap": {},
          "strings": {
            "IAAv0": ""
          }
        }
      ]
    },
    "43": {
      "startMethod": "com.google.android.gms.maps.model.MarkerOptionsCreator.createFromParcel(Landroid/os/Parcel;)Ljava/lang/Object;",
      "targetMethod": "java.lang.ClassLoader.loadClass(Ljava/lang/String;)Ljava/lang/Class;",
      "eventChain": [
        {
          "start": "com.google.android.gms.maps.model.MarkerOptionsCreator.createFromParcel(Landroid/os/Parcel;)Ljava/lang/Object;",
          "target": "invokevirtual \u003c Application, Ljava/lang/ClassLoader, loadClass(Ljava/lang/String;)Ljava/lang/Class; \u003e@15",
          "type": "",
          "constraintsFile": "constraints43_0.py",
          "variables": {
            "\u003cInput1\u003e.readString()": "IAAv2",
            "\u003cInput1\u003e.n().S()": "IAAv0",
            "\u003cInput1\u003e.readInt()": "IAAv3",
            "\u003cInput1\u003e.a(\u003cInput1\u003e.n())": "IAAv1"
          },
          "stringMap": {},
          "strings": {
            "IAAv2": ""
          }
        }
      ]
    },
    "44": {
      "startMethod": "com.google.android.gms.internal.hy.createFromParcel(Landroid/os/Parcel;)Ljava/lang/Object;",
      "targetMethod": "java.lang.ClassLoader.loadClass(Ljava/lang/String;)Ljava/lang/Class;",
      "eventChain": [
        {
          "start": "com.google.android.gms.internal.hy.createFromParcel(Landroid/os/Parcel;)Ljava/lang/Object;",
          "target": "invokevirtual \u003c Application, Ljava/lang/ClassLoader, loadClass(Ljava/lang/String;)Ljava/lang/Class; \u003e@15",
          "type": "",
          "constraintsFile": "constraints44_0.py",
          "variables": {
            "\u003cInput1\u003e.readString()": "IAAv2",
            "\u003cInput1\u003e.n().S()": "IAAv0",
            "\u003cInput1\u003e.readInt()": "IAAv3",
            "\u003cInput1\u003e.a(\u003cInput1\u003e.n())": "IAAv1"
          },
          "stringMap": {},
          "strings": {
            "IAAv2": ""
          }
        }
      ]
    },
    "45": {
      "startMethod": "com.google.android.gms.drive.internal.ab.createFromParcel(Landroid/os/Parcel;)Ljava/lang/Object;",
      "targetMethod": "java.lang.ClassLoader.loadClass(Ljava/lang/String;)Ljava/lang/Class;",
      "eventChain": [
        {
          "start": "com.google.android.gms.drive.internal.ab.createFromParcel(Landroid/os/Parcel;)Ljava/lang/Object;",
          "target": "invokevirtual \u003c Application, Ljava/lang/ClassLoader, loadClass(Ljava/lang/String;)Ljava/lang/Class; \u003e@15",
          "type": "",
          "constraintsFile": "constraints45_0.py",
          "variables": {
            "\u003cInput1\u003e.readString()": "IAAv2",
            "\u003cInput1\u003e.n().S()": "IAAv0",
            "\u003cInput1\u003e.readInt()": "IAAv3",
            "\u003cInput1\u003e.a(\u003cInput1\u003e.n())": "IAAv1"
          },
          "stringMap": {},
          "strings": {
            "IAAv2": ""
          }
        }
      ]
    },
    "46": {
      "startMethod": "com.google.android.gms.drive.internal.a.createFromParcel(Landroid/os/Parcel;)Ljava/lang/Object;",
      "targetMethod": "java.lang.ClassLoader.loadClass(Ljava/lang/String;)Ljava/lang/Class;",
      "eventChain": [
        {
          "start": "com.google.android.gms.drive.internal.a.createFromParcel(Landroid/os/Parcel;)Ljava/lang/Object;",
          "target": "invokevirtual \u003c Application, Ljava/lang/ClassLoader, loadClass(Ljava/lang/String;)Ljava/lang/Class; \u003e@15",
          "type": "",
          "constraintsFile": "constraints46_0.py",
          "variables": {
            "\u003cInput1\u003e.readString()": "IAAv2",
            "\u003cInput1\u003e.n().S()": "IAAv0",
            "\u003cInput1\u003e.readInt()": "IAAv3",
            "\u003cInput1\u003e.a(\u003cInput1\u003e.n())": "IAAv1"
          },
          "stringMap": {},
          "strings": {
            "IAAv2": ""
          }
        }
      ]
    },
    "47": {
      "startMethod": "com.google.android.gms.games.request.GameRequestEntityCreator.createFromParcel(Landroid/os/Parcel;)Ljava/lang/Object;",
      "targetMethod": "java.lang.ClassLoader.loadClass(Ljava/lang/String;)Ljava/lang/Class;",
      "eventChain": [
        {
          "start": "com.google.android.gms.games.request.GameRequestEntityCreator.createFromParcel(Landroid/os/Parcel;)Ljava/lang/Object;",
          "target": "invokevirtual \u003c Application, Ljava/lang/ClassLoader, loadClass(Ljava/lang/String;)Ljava/lang/Class; \u003e@15",
          "type": "",
          "constraintsFile": "constraints47_0.py",
          "variables": {
            "\u003cInput1\u003e.readString()": "IAAv2",
            "\u003cInput1\u003e.n().S()": "IAAv0",
            "\u003cInput1\u003e.readInt()": "IAAv3",
            "\u003cInput1\u003e.a(\u003cInput1\u003e.n())": "IAAv1"
          },
          "stringMap": {},
          "strings": {
            "IAAv2": ""
          }
        }
      ]
    },
    "48": {
      "startMethod": "com.google.android.gms.drive.internal.aj.createFromParcel(Landroid/os/Parcel;)Ljava/lang/Object;",
      "targetMethod": "java.lang.ClassLoader.loadClass(Ljava/lang/String;)Ljava/lang/Class;",
      "eventChain": [
        {
          "start": "com.google.android.gms.drive.internal.aj.createFromParcel(Landroid/os/Parcel;)Ljava/lang/Object;",
          "target": "invokevirtual \u003c Application, Ljava/lang/ClassLoader, loadClass(Ljava/lang/String;)Ljava/lang/Class; \u003e@15",
          "type": "",
          "constraintsFile": "constraints48_0.py",
          "variables": {
            "\u003cInput1\u003e.readString()": "IAAv2",
            "\u003cInput1\u003e.n().S()": "IAAv0",
            "\u003cInput1\u003e.readInt()": "IAAv3",
            "\u003cInput1\u003e.a(\u003cInput1\u003e.n())": "IAAv1"
          },
          "stringMap": {},
          "strings": {
            "IAAv2": ""
          }
        }
      ]
    },
    "49": {
      "startMethod": "com.google.android.gms.games.multiplayer.a.createFromParcel(Landroid/os/Parcel;)Ljava/lang/Object;",
      "targetMethod": "java.lang.ClassLoader.loadClass(Ljava/lang/String;)Ljava/lang/Class;",
      "eventChain": [
        {
          "start": "com.google.android.gms.games.multiplayer.a.createFromParcel(Landroid/os/Parcel;)Ljava/lang/Object;",
          "target": "invokevirtual \u003c Application, Ljava/lang/ClassLoader, loadClass(Ljava/lang/String;)Ljava/lang/Class; \u003e@15",
          "type": "",
          "constraintsFile": "constraints49_0.py",
          "variables": {
            "\u003cInput1\u003e.readString()": "IAAv2",
            "\u003cInput1\u003e.n().S()": "IAAv0",
            "\u003cInput1\u003e.readInt()": "IAAv3",
            "\u003cInput1\u003e.a(\u003cInput1\u003e.n())": "IAAv1"
          },
          "stringMap": {},
          "strings": {
            "IAAv2": ""
          }
        }
      ]
    },
    "50": {
      "startMethod": "com.google.android.gms.drive.internal.i.createFromParcel(Landroid/os/Parcel;)Ljava/lang/Object;",
      "targetMethod": "java.lang.ClassLoader.loadClass(Ljava/lang/String;)Ljava/lang/Class;",
      "eventChain": [
        {
          "start": "com.google.android.gms.drive.internal.i.createFromParcel(Landroid/os/Parcel;)Ljava/lang/Object;",
          "target": "invokevirtual \u003c Application, Ljava/lang/ClassLoader, loadClass(Ljava/lang/String;)Ljava/lang/Class; \u003e@15",
          "type": "",
          "constraintsFile": "constraints50_0.py",
          "variables": {
            "\u003cInput1\u003e.readString()": "IAAv2",
            "\u003cInput1\u003e.n().S()": "IAAv0",
            "\u003cInput1\u003e.readInt()": "IAAv3",
            "\u003cInput1\u003e.a(\u003cInput1\u003e.n())": "IAAv1"
          },
          "stringMap": {},
          "strings": {
            "IAAv2": ""
          }
        }
      ]
    },
    "51": {
      "startMethod": "com.google.android.gms.wallet.k.createFromParcel(Landroid/os/Parcel;)Ljava/lang/Object;",
      "targetMethod": "java.lang.ClassLoader.loadClass(Ljava/lang/String;)Ljava/lang/Class;",
      "eventChain": [
        {
          "start": "com.google.android.gms.wallet.k.createFromParcel(Landroid/os/Parcel;)Ljava/lang/Object;",
          "target": "invokevirtual \u003c Application, Ljava/lang/ClassLoader, loadClass(Ljava/lang/String;)Ljava/lang/Class; \u003e@15",
          "type": "",
          "constraintsFile": "constraints51_0.py",
          "variables": {
            "\u003cInput1\u003e.readString()": "IAAv2",
            "\u003cInput1\u003e.n().S()": "IAAv0",
            "\u003cInput1\u003e.readInt()": "IAAv3",
            "\u003cInput1\u003e.a(\u003cInput1\u003e.n())": "IAAv1"
          },
          "stringMap": {},
          "strings": {
            "IAAv2": ""
          }
        }
      ]
    },
    "52": {
      "startMethod": "com.google.android.gms.games.a.createFromParcel(Landroid/os/Parcel;)Ljava/lang/Object;",
      "targetMethod": "java.lang.ClassLoader.loadClass(Ljava/lang/String;)Ljava/lang/Class;",
      "eventChain": [
        {
          "start": "com.google.android.gms.games.a.createFromParcel(Landroid/os/Parcel;)Ljava/lang/Object;",
          "target": "invokevirtual \u003c Application, Ljava/lang/ClassLoader, loadClass(Ljava/lang/String;)Ljava/lang/Class; \u003e@15",
          "type": "",
          "constraintsFile": "constraints52_0.py",
          "variables": {
            "\u003cInput1\u003e.readString()": "IAAv2",
            "\u003cInput1\u003e.n().S()": "IAAv0",
            "\u003cInput1\u003e.readInt()": "IAAv3",
            "\u003cInput1\u003e.a(\u003cInput1\u003e.n())": "IAAv1"
          },
          "stringMap": {},
          "strings": {
            "IAAv2": ""
          }
        }
      ]
    },
    "53": {
      "startMethod": "com.google.android.gms.internal.ce.createFromParcel(Landroid/os/Parcel;)Ljava/lang/Object;",
      "targetMethod": "java.lang.ClassLoader.loadClass(Ljava/lang/String;)Ljava/lang/Class;",
      "eventChain": [
        {
          "start": "com.google.android.gms.internal.ce.createFromParcel(Landroid/os/Parcel;)Ljava/lang/Object;",
          "target": "invokevirtual \u003c Application, Ljava/lang/ClassLoader, loadClass(Ljava/lang/String;)Ljava/lang/Class; \u003e@15",
          "type": "",
          "constraintsFile": "constraints53_0.py",
          "variables": {
            "\u003cInput1\u003e.readString()": "IAAv2",
            "\u003cInput1\u003e.n().S()": "IAAv0",
            "\u003cInput1\u003e.readInt()": "IAAv3",
            "\u003cInput1\u003e.a(\u003cInput1\u003e.n())": "IAAv1"
          },
          "stringMap": {},
          "strings": {
            "IAAv2": ""
          }
        }
      ]
    },
    "54": {
      "startMethod": "com.google.android.gms.drive.internal.ae.createFromParcel(Landroid/os/Parcel;)Ljava/lang/Object;",
      "targetMethod": "java.lang.ClassLoader.loadClass(Ljava/lang/String;)Ljava/lang/Class;",
      "eventChain": [
        {
          "start": "com.google.android.gms.drive.internal.ae.createFromParcel(Landroid/os/Parcel;)Ljava/lang/Object;",
          "target": "invokevirtual \u003c Application, Ljava/lang/ClassLoader, loadClass(Ljava/lang/String;)Ljava/lang/Class; \u003e@15",
          "type": "",
          "constraintsFile": "constraints54_0.py",
          "variables": {
            "\u003cInput1\u003e.readString()": "IAAv2",
            "\u003cInput1\u003e.n().S()": "IAAv0",
            "\u003cInput1\u003e.readInt()": "IAAv3",
            "\u003cInput1\u003e.a(\u003cInput1\u003e.n())": "IAAv1"
          },
          "stringMap": {},
          "strings": {
            "IAAv2": ""
          }
        }
      ]
    },
    "55": {
      "startMethod": "com.google.android.gms.drive.internal.d.createFromParcel(Landroid/os/Parcel;)Ljava/lang/Object;",
      "targetMethod": "java.lang.ClassLoader.loadClass(Ljava/lang/String;)Ljava/lang/Class;",
      "eventChain": [
        {
          "start": "com.google.android.gms.drive.internal.d.createFromParcel(Landroid/os/Parcel;)Ljava/lang/Object;",
          "target": "invokevirtual \u003c Application, Ljava/lang/ClassLoader, loadClass(Ljava/lang/String;)Ljava/lang/Class; \u003e@15",
          "type": "",
          "constraintsFile": "constraints55_0.py",
          "variables": {
            "\u003cInput1\u003e.readString()": "IAAv2",
            "\u003cInput1\u003e.n().S()": "IAAv0",
            "\u003cInput1\u003e.readInt()": "IAAv3",
            "\u003cInput1\u003e.a(\u003cInput1\u003e.n())": "IAAv1"
          },
          "stringMap": {},
          "strings": {
            "IAAv2": ""
          }
        }
      ]
    },
    "56": {
      "startMethod": "com.google.android.gms.internal.fi.createFromParcel(Landroid/os/Parcel;)Ljava/lang/Object;",
      "targetMethod": "java.lang.ClassLoader.loadClass(Ljava/lang/String;)Ljava/lang/Class;",
      "eventChain": [
        {
          "start": "com.google.android.gms.internal.fi.createFromParcel(Landroid/os/Parcel;)Ljava/lang/Object;",
          "target": "invokevirtual \u003c Application, Ljava/lang/ClassLoader, loadClass(Ljava/lang/String;)Ljava/lang/Class; \u003e@15",
          "type": "",
          "constraintsFile": "constraints56_0.py",
          "variables": {
            "\u003cInput1\u003e.readString()": "IAAv2",
            "\u003cInput1\u003e.n().S()": "IAAv0",
            "\u003cInput1\u003e.readInt()": "IAAv3",
            "\u003cInput1\u003e.a(\u003cInput1\u003e.n())": "IAAv1"
          },
          "stringMap": {},
          "strings": {
            "IAAv2": ""
          }
        }
      ]
    },
    "57": {
      "startMethod": "com.google.android.gms.wallet.f.createFromParcel(Landroid/os/Parcel;)Ljava/lang/Object;",
      "targetMethod": "java.lang.ClassLoader.loadClass(Ljava/lang/String;)Ljava/lang/Class;",
      "eventChain": [
        {
          "start": "com.google.android.gms.wallet.f.createFromParcel(Landroid/os/Parcel;)Ljava/lang/Object;",
          "target": "invokevirtual \u003c Application, Ljava/lang/ClassLoader, loadClass(Ljava/lang/String;)Ljava/lang/Class; \u003e@15",
          "type": "",
          "constraintsFile": "constraints57_0.py",
          "variables": {
            "\u003cInput1\u003e.readString()": "IAAv2",
            "\u003cInput1\u003e.n().S()": "IAAv0",
            "\u003cInput1\u003e.readInt()": "IAAv3",
            "\u003cInput1\u003e.a(\u003cInput1\u003e.n())": "IAAv1"
          },
          "stringMap": {},
          "strings": {
            "IAAv2": ""
          }
        }
      ]
    },
    "58": {
      "startMethod": "com.google.android.gms.drive.internal.am.createFromParcel(Landroid/os/Parcel;)Ljava/lang/Object;",
      "targetMethod": "java.lang.ClassLoader.loadClass(Ljava/lang/String;)Ljava/lang/Class;",
      "eventChain": [
        {
          "start": "com.google.android.gms.drive.internal.am.createFromParcel(Landroid/os/Parcel;)Ljava/lang/Object;",
          "target": "invokevirtual \u003c Application, Ljava/lang/ClassLoader, loadClass(Ljava/lang/String;)Ljava/lang/Class; \u003e@15",
          "type": "",
          "constraintsFile": "constraints58_0.py",
          "variables": {
            "\u003cInput1\u003e.readString()": "IAAv2",
            "\u003cInput1\u003e.n().S()": "IAAv0",
            "\u003cInput1\u003e.readInt()": "IAAv3",
            "\u003cInput1\u003e.a(\u003cInput1\u003e.n())": "IAAv1"
          },
          "stringMap": {},
          "strings": {
            "IAAv2": ""
          }
        }
      ]
    },
    "59": {
      "startMethod": "com.google.android.gms.internal.fd.createFromParcel(Landroid/os/Parcel;)Ljava/lang/Object;",
      "targetMethod": "java.lang.ClassLoader.loadClass(Ljava/lang/String;)Ljava/lang/Class;",
      "eventChain": [
        {
          "start": "com.google.android.gms.internal.fd.createFromParcel(Landroid/os/Parcel;)Ljava/lang/Object;",
          "target": "invokevirtual \u003c Application, Ljava/lang/ClassLoader, loadClass(Ljava/lang/String;)Ljava/lang/Class; \u003e@15",
          "type": "",
          "constraintsFile": "constraints59_0.py",
          "variables": {
            "\u003cInput1\u003e.readString()": "IAAv2",
            "\u003cInput1\u003e.n().S()": "IAAv0",
            "\u003cInput1\u003e.readInt()": "IAAv3",
            "\u003cInput1\u003e.a(\u003cInput1\u003e.n())": "IAAv1"
          },
          "stringMap": {},
          "strings": {
            "IAAv2": ""
          }
        }
      ]
    },
    "60": {
      "startMethod": "com.google.android.gms.drive.internal.t.createFromParcel(Landroid/os/Parcel;)Ljava/lang/Object;",
      "targetMethod": "java.lang.ClassLoader.loadClass(Ljava/lang/String;)Ljava/lang/Class;",
      "eventChain": [
        {
          "start": "com.google.android.gms.drive.internal.t.createFromParcel(Landroid/os/Parcel;)Ljava/lang/Object;",
          "target": "invokevirtual \u003c Application, Ljava/lang/ClassLoader, loadClass(Ljava/lang/String;)Ljava/lang/Class; \u003e@15",
          "type": "",
          "constraintsFile": "constraints60_0.py",
          "variables": {
            "\u003cInput1\u003e.readString()": "IAAv2",
            "\u003cInput1\u003e.n().S()": "IAAv0",
            "\u003cInput1\u003e.readInt()": "IAAv3",
            "\u003cInput1\u003e.a(\u003cInput1\u003e.n())": "IAAv1"
          },
          "stringMap": {},
          "strings": {
            "IAAv2": ""
          }
        }
      ]
    },
    "61": {
      "startMethod": "com.google.android.gms.drive.internal.ah.createFromParcel(Landroid/os/Parcel;)Ljava/lang/Object;",
      "targetMethod": "java.lang.ClassLoader.loadClass(Ljava/lang/String;)Ljava/lang/Class;",
      "eventChain": [
        {
          "start": "com.google.android.gms.drive.internal.ah.createFromParcel(Landroid/os/Parcel;)Ljava/lang/Object;",
          "target": "invokevirtual \u003c Application, Ljava/lang/ClassLoader, loadClass(Ljava/lang/String;)Ljava/lang/Class; \u003e@15",
          "type": "",
          "constraintsFile": "constraints61_0.py",
          "variables": {
            "\u003cInput1\u003e.readString()": "IAAv2",
            "\u003cInput1\u003e.n().S()": "IAAv0",
            "\u003cInput1\u003e.readInt()": "IAAv3",
            "\u003cInput1\u003e.a(\u003cInput1\u003e.n())": "IAAv1"
          },
          "stringMap": {},
          "strings": {
            "IAAv2": ""
          }
        }
      ]
    },
    "62": {
      "startMethod": "com.google.android.gms.drive.internal.g.createFromParcel(Landroid/os/Parcel;)Ljava/lang/Object;",
      "targetMethod": "java.lang.ClassLoader.loadClass(Ljava/lang/String;)Ljava/lang/Class;",
      "eventChain": [
        {
          "start": "com.google.android.gms.drive.internal.g.createFromParcel(Landroid/os/Parcel;)Ljava/lang/Object;",
          "target": "invokevirtual \u003c Application, Ljava/lang/ClassLoader, loadClass(Ljava/lang/String;)Ljava/lang/Class; \u003e@15",
          "type": "",
          "constraintsFile": "constraints62_0.py",
          "variables": {
            "\u003cInput1\u003e.readString()": "IAAv2",
            "\u003cInput1\u003e.n().S()": "IAAv0",
            "\u003cInput1\u003e.readInt()": "IAAv3",
            "\u003cInput1\u003e.a(\u003cInput1\u003e.n())": "IAAv1"
          },
          "stringMap": {},
          "strings": {
            "IAAv2": ""
          }
        }
      ]
    },
    "63": {
      "startMethod": "com.google.android.gms.games.multiplayer.InvitationEntity$a.createFromParcel(Landroid/os/Parcel;)Ljava/lang/Object;",
      "targetMethod": "java.lang.ClassLoader.loadClass(Ljava/lang/String;)Ljava/lang/Class;",
      "eventChain": [
        {
          "start": "com.google.android.gms.games.multiplayer.InvitationEntity$a.createFromParcel(Landroid/os/Parcel;)Ljava/lang/Object;",
          "target": "invokevirtual \u003c Application, Ljava/lang/ClassLoader, loadClass(Ljava/lang/String;)Ljava/lang/Class; \u003e@15",
          "type": "",
          "constraintsFile": "constraints63_0.py",
          "variables": {
            "\u003cInput1\u003e.readString()": "IAAv2",
            "\u003cInput1\u003e.n().S()": "IAAv0",
            "\u003cInput1\u003e.readInt()": "IAAv3",
            "\u003cInput1\u003e.a(\u003cInput1\u003e.n())": "IAAv1"
          },
          "stringMap": {},
          "strings": {
            "IAAv2": ""
          }
        }
      ]
    },
    "64": {
      "startMethod": "com.google.android.gms.internal.ip.createFromParcel(Landroid/os/Parcel;)Ljava/lang/Object;",
      "targetMethod": "java.lang.ClassLoader.loadClass(Ljava/lang/String;)Ljava/lang/Class;",
      "eventChain": [
        {
          "start": "com.google.android.gms.internal.ip.createFromParcel(Landroid/os/Parcel;)Ljava/lang/Object;",
          "target": "invokevirtual \u003c Application, Ljava/lang/ClassLoader, loadClass(Ljava/lang/String;)Ljava/lang/Class; \u003e@15",
          "type": "",
          "constraintsFile": "constraints64_0.py",
          "variables": {
            "\u003cInput1\u003e.readString()": "IAAv2",
            "\u003cInput1\u003e.n().S()": "IAAv0",
            "\u003cInput1\u003e.readInt()": "IAAv3",
            "\u003cInput1\u003e.a(\u003cInput1\u003e.n())": "IAAv1"
          },
          "stringMap": {},
          "strings": {
            "IAAv2": ""
          }
        }
      ]
    },
    "65": {
      "startMethod": "com.google.android.gms.drive.internal.ac.createFromParcel(Landroid/os/Parcel;)Ljava/lang/Object;",
      "targetMethod": "java.lang.ClassLoader.loadClass(Ljava/lang/String;)Ljava/lang/Class;",
      "eventChain": [
        {
          "start": "com.google.android.gms.drive.internal.ac.createFromParcel(Landroid/os/Parcel;)Ljava/lang/Object;",
          "target": "invokevirtual \u003c Application, Ljava/lang/ClassLoader, loadClass(Ljava/lang/String;)Ljava/lang/Class; \u003e@15",
          "type": "",
          "constraintsFile": "constraints65_0.py",
          "variables": {
            "\u003cInput1\u003e.readString()": "IAAv2",
            "\u003cInput1\u003e.n().S()": "IAAv0",
            "\u003cInput1\u003e.readInt()": "IAAv3",
            "\u003cInput1\u003e.a(\u003cInput1\u003e.n())": "IAAv1"
          },
          "stringMap": {},
          "strings": {
            "IAAv2": ""
          }
        }
      ]
    },
    "66": {
      "startMethod": "com.google.android.gms.maps.model.VisibleRegionCreator.createFromParcel(Landroid/os/Parcel;)Ljava/lang/Object;",
      "targetMethod": "java.lang.ClassLoader.loadClass(Ljava/lang/String;)Ljava/lang/Class;",
      "eventChain": [
        {
          "start": "com.google.android.gms.maps.model.VisibleRegionCreator.createFromParcel(Landroid/os/Parcel;)Ljava/lang/Object;",
          "target": "invokevirtual \u003c Application, Ljava/lang/ClassLoader, loadClass(Ljava/lang/String;)Ljava/lang/Class; \u003e@15",
          "type": "",
          "constraintsFile": "constraints66_0.py",
          "variables": {
            "\u003cInput1\u003e.readString()": "IAAv2",
            "\u003cInput1\u003e.n().S()": "IAAv0",
            "\u003cInput1\u003e.readInt()": "IAAv3",
            "\u003cInput1\u003e.a(\u003cInput1\u003e.n())": "IAAv1"
          },
          "stringMap": {},
          "strings": {
            "IAAv2": ""
          }
        }
      ]
    },
    "67": {
      "startMethod": "com.google.android.gms.drive.internal.b.createFromParcel(Landroid/os/Parcel;)Ljava/lang/Object;",
      "targetMethod": "java.lang.ClassLoader.loadClass(Ljava/lang/String;)Ljava/lang/Class;",
      "eventChain": [
        {
          "start": "com.google.android.gms.drive.internal.b.createFromParcel(Landroid/os/Parcel;)Ljava/lang/Object;",
          "target": "invokevirtual \u003c Application, Ljava/lang/ClassLoader, loadClass(Ljava/lang/String;)Ljava/lang/Class; \u003e@15",
          "type": "",
          "constraintsFile": "constraints67_0.py",
          "variables": {
            "\u003cInput1\u003e.readString()": "IAAv2",
            "\u003cInput1\u003e.n().S()": "IAAv0",
            "\u003cInput1\u003e.readInt()": "IAAv3",
            "\u003cInput1\u003e.a(\u003cInput1\u003e.n())": "IAAv1"
          },
          "stringMap": {},
          "strings": {
            "IAAv2": ""
          }
        }
      ]
    },
    "68": {
      "startMethod": "com.google.android.gms.wallet.l.createFromParcel(Landroid/os/Parcel;)Ljava/lang/Object;",
      "targetMethod": "java.lang.ClassLoader.loadClass(Ljava/lang/String;)Ljava/lang/Class;",
      "eventChain": [
        {
          "start": "com.google.android.gms.wallet.l.createFromParcel(Landroid/os/Parcel;)Ljava/lang/Object;",
          "target": "invokevirtual \u003c Application, Ljava/lang/ClassLoader, loadClass(Ljava/lang/String;)Ljava/lang/Class; \u003e@15",
          "type": "",
          "constraintsFile": "constraints68_0.py",
          "variables": {
            "\u003cInput1\u003e.readString()": "IAAv2",
            "\u003cInput1\u003e.n().S()": "IAAv0",
            "\u003cInput1\u003e.readInt()": "IAAv3",
            "\u003cInput1\u003e.a(\u003cInput1\u003e.n())": "IAAv1"
          },
          "stringMap": {},
          "strings": {
            "IAAv2": ""
          }
        }
      ]
    },
    "69": {
      "startMethod": "com.google.android.gms.internal.bp.createFromParcel(Landroid/os/Parcel;)Ljava/lang/Object;",
      "targetMethod": "java.lang.ClassLoader.loadClass(Ljava/lang/String;)Ljava/lang/Class;",
      "eventChain": [
        {
          "start": "com.google.android.gms.internal.bp.createFromParcel(Landroid/os/Parcel;)Ljava/lang/Object;",
          "target": "invokevirtual \u003c Application, Ljava/lang/ClassLoader, loadClass(Ljava/lang/String;)Ljava/lang/Class; \u003e@15",
          "type": "",
          "constraintsFile": "constraints69_0.py",
          "variables": {
            "\u003cInput1\u003e.readString()": "IAAv2",
            "\u003cInput1\u003e.n().S()": "IAAv0",
            "\u003cInput1\u003e.readInt()": "IAAv3",
            "\u003cInput1\u003e.a(\u003cInput1\u003e.n())": "IAAv1"
          },
          "stringMap": {},
          "strings": {
            "IAAv2": ""
          }
        }
      ]
    },
    "70": {
      "startMethod": "com.google.android.gms.maps.GoogleMapOptionsCreator.createFromParcel(Landroid/os/Parcel;)Ljava/lang/Object;",
      "targetMethod": "java.lang.ClassLoader.loadClass(Ljava/lang/String;)Ljava/lang/Class;",
      "eventChain": [
        {
          "start": "com.google.android.gms.maps.GoogleMapOptionsCreator.createFromParcel(Landroid/os/Parcel;)Ljava/lang/Object;",
          "target": "invokevirtual \u003c Application, Ljava/lang/ClassLoader, loadClass(Ljava/lang/String;)Ljava/lang/Class; \u003e@15",
          "type": "",
          "constraintsFile": "constraints70_0.py",
          "variables": {
            "\u003cInput1\u003e.readString()": "IAAv2",
            "\u003cInput1\u003e.n().S()": "IAAv0",
            "\u003cInput1\u003e.readInt()": "IAAv3",
            "\u003cInput1\u003e.a(\u003cInput1\u003e.n())": "IAAv1"
          },
          "stringMap": {},
          "strings": {
            "IAAv2": ""
          }
        }
      ]
    },
    "71": {
      "startMethod": "com.google.android.gms.internal.is.createFromParcel(Landroid/os/Parcel;)Ljava/lang/Object;",
      "targetMethod": "java.lang.ClassLoader.loadClass(Ljava/lang/String;)Ljava/lang/Class;",
      "eventChain": [
        {
          "start": "com.google.android.gms.internal.is.createFromParcel(Landroid/os/Parcel;)Ljava/lang/Object;",
          "target": "invokevirtual \u003c Application, Ljava/lang/ClassLoader, loadClass(Ljava/lang/String;)Ljava/lang/Class; \u003e@15",
          "type": "",
          "constraintsFile": "constraints71_0.py",
          "variables": {
            "\u003cInput1\u003e.readString()": "IAAv2",
            "\u003cInput1\u003e.n().S()": "IAAv0",
            "\u003cInput1\u003e.readInt()": "IAAv3",
            "\u003cInput1\u003e.a(\u003cInput1\u003e.n())": "IAAv1"
          },
          "stringMap": {},
          "strings": {
            "IAAv2": ""
          }
        }
      ]
    },
    "72": {
      "startMethod": "com.google.android.gms.maps.model.GroundOverlayOptionsCreator.createFromParcel(Landroid/os/Parcel;)Ljava/lang/Object;",
      "targetMethod": "java.lang.ClassLoader.loadClass(Ljava/lang/String;)Ljava/lang/Class;",
      "eventChain": [
        {
          "start": "com.google.android.gms.maps.model.GroundOverlayOptionsCreator.createFromParcel(Landroid/os/Parcel;)Ljava/lang/Object;",
          "target": "invokevirtual \u003c Application, Ljava/lang/ClassLoader, loadClass(Ljava/lang/String;)Ljava/lang/Class; \u003e@15",
          "type": "",
          "constraintsFile": "constraints72_0.py",
          "variables": {
            "\u003cInput1\u003e.readString()": "IAAv2",
            "\u003cInput1\u003e.n().S()": "IAAv0",
            "\u003cInput1\u003e.readInt()": "IAAv3",
            "\u003cInput1\u003e.a(\u003cInput1\u003e.n())": "IAAv1"
          },
          "stringMap": {},
          "strings": {
            "IAAv2": ""
          }
        }
      ]
    },
    "73": {
      "startMethod": "com.google.android.gms.drive.internal.af.createFromParcel(Landroid/os/Parcel;)Ljava/lang/Object;",
      "targetMethod": "java.lang.ClassLoader.loadClass(Ljava/lang/String;)Ljava/lang/Class;",
      "eventChain": [
        {
          "start": "com.google.android.gms.drive.internal.af.createFromParcel(Landroid/os/Parcel;)Ljava/lang/Object;",
          "target": "invokevirtual \u003c Application, Ljava/lang/ClassLoader, loadClass(Ljava/lang/String;)Ljava/lang/Class; \u003e@15",
          "type": "",
          "constraintsFile": "constraints73_0.py",
          "variables": {
            "\u003cInput1\u003e.readString()": "IAAv2",
            "\u003cInput1\u003e.n().S()": "IAAv0",
            "\u003cInput1\u003e.readInt()": "IAAv3",
            "\u003cInput1\u003e.a(\u003cInput1\u003e.n())": "IAAv1"
          },
          "stringMap": {},
          "strings": {
            "IAAv2": ""
          }
        }
      ]
    },
    "74": {
      "startMethod": "com.google.android.gms.analytics.t$1.run()V",
      "targetMethod": "android.net.ConnectivityManager.getActiveNetworkInfo()Landroid/net/NetworkInfo;",
      "eventChain": [
        {
          "start": "com.google.android.gms.analytics.t$1.run()V",
          "target": "invokevirtual \u003c Application, Landroid/net/ConnectivityManager, getActiveNetworkInfo()Landroid/net/NetworkInfo; \u003e@22",
          "type": "",
          "constraintsFile": "constraints74_0.py",
          "variables": {},
          "stringMap": {},
          "strings": {}
        }
      ]
    },
    "75": {
      "startMethod": "com.google.analytics.tracking.android.GAThread$1.run()V",
      "targetMethod": "android.net.ConnectivityManager.getActiveNetworkInfo()Landroid/net/NetworkInfo;",
      "eventChain": [
        {
          "start": "com.google.analytics.tracking.android.GAThread$1.run()V",
          "target": "invokevirtual \u003c Application, Landroid/net/ConnectivityManager, getActiveNetworkInfo()Landroid/net/NetworkInfo; \u003e@24",
          "type": "",
          "constraintsFile": "constraints75_0.py",
          "variables": {},
          "stringMap": {},
          "strings": {}
        }
      ]
    },
    "76": {
      "startMethod": "com.google.android.gms.tagmanager.co.run()V",
      "targetMethod": "android.net.ConnectivityManager.getActiveNetworkInfo()Landroid/net/NetworkInfo;",
      "eventChain": [
        {
          "start": "com.google.android.gms.tagmanager.co.run()V",
          "target": "invokevirtual \u003c Application, Landroid/net/ConnectivityManager, getActiveNetworkInfo()Landroid/net/NetworkInfo; \u003e@21",
          "type": "",
          "constraintsFile": "constraints76_0.py",
          "variables": {},
          "stringMap": {},
          "strings": {}
        }
      ]
    },
    "77": {
      "startMethod": "com.google.android.gms.tagmanager.cy$3.run()V",
      "targetMethod": "android.net.ConnectivityManager.getActiveNetworkInfo()Landroid/net/NetworkInfo;",
      "eventChain": [
        {
          "start": "com.google.android.gms.tagmanager.cy$3.run()V",
          "target": "invokevirtual \u003c Application, Landroid/net/ConnectivityManager, getActiveNetworkInfo()Landroid/net/NetworkInfo; \u003e@22",
          "type": ""
        }
      ]
    },
    "78": {
      "startMethod": "com.google.android.gms.internal.w$1.run()V",
      "targetMethod": "android.webkit.WebView.\u003cinit\u003e(Landroid/content/Context;)V",
      "eventChain": [
        {
          "start": "com.google.android.gms.internal.w$1.run()V",
          "target": "invokespecial \u003c Application, Landroid/webkit/WebView, \u003cinit\u003e(Landroid/content/Context;)V \u003e@7",
          "type": "",
          "constraintsFile": "constraints78_0.py",
          "variables": {},
          "stringMap": {},
          "strings": {
            "IAAv6": ""
          }
        }
      ]
    },
    "79": {
      "startMethod": "com.google.android.gms.internal.w$1.run()V",
      "targetMethod": "android.webkit.WebView.\u003cinit\u003e(Landroid/content/Context;)V",
      "eventChain": [
        {
          "start": "com.google.android.gms.internal.w$1.run()V",
          "target": "invokespecial \u003c Application, Landroid/webkit/WebView, \u003cinit\u003e(Landroid/content/Context;)V \u003e@13",
          "type": "",
          "constraintsFile": "constraints79_0.py",
          "variables": {},
          "stringMap": {},
          "strings": {}
        }
      ]
    },
    "80": {
      "startMethod": "com.google.android.gms.internal.w$1.run()V",
      "targetMethod": "android.net.ConnectivityManager.getActiveNetworkInfo()Landroid/net/NetworkInfo;",
      "eventChain": [
        {
          "start": "com.google.android.gms.internal.w$1.run()V",
          "target": "invokevirtual \u003c Application, Landroid/net/ConnectivityManager, getActiveNetworkInfo()Landroid/net/NetworkInfo; \u003e@30",
          "type": "",
          "constraintsFile": "constraints80_0.py",
          "variables": {},
          "stringMap": {},
          "strings": {}
        }
      ]
    },
    "81": {
      "startMethod": "com.google.android.gms.internal.df.onCreateWindow(Landroid/webkit/WebView;ZZLandroid/os/Message;)Z",
      "targetMethod": "android.webkit.WebView.\u003cinit\u003e(Landroid/content/Context;)V",
      "eventChain": [
        {
          "start": "com.google.android.gms.ads.AdActivity.onCreate(Landroid/os/Bundle;)V",
          "target": "invokespecial \u003c Application, Landroid/webkit/WebChromeClient, \u003cinit\u003e()V \u003e@2",
          "type": "activity",
          "component": "com.google.android.gms.ads.AdActivity",
          "constraintsFile": "constraints81_0.py",
          "variables": {},
          "stringMap": {},
          "strings": {}
        },
        {
          "start": "com.google.android.gms.internal.df.onCreateWindow(Landroid/webkit/WebView;ZZLandroid/os/Message;)Z",
          "target": "invokespecial \u003c Application, Landroid/webkit/WebView, \u003cinit\u003e(Landroid/content/Context;)V \u003e@30",
          "type": ""
        }
      ]
    },
    "82": {
      "startMethod": "com.google.android.gms.internal.ct$1.run()V",
      "targetMethod": "android.net.ConnectivityManager.getActiveNetworkInfo()Landroid/net/NetworkInfo;",
      "eventChain": [
        {
          "start": "com.google.android.gms.internal.ct$1.run()V",
          "target": "invokevirtual \u003c Application, Landroid/net/ConnectivityManager, getActiveNetworkInfo()Landroid/net/NetworkInfo; \u003e@30",
          "type": "",
          "constraintsFile": "constraints82_0.py",
          "variables": {},
          "stringMap": {},
          "strings": {}
        }
      ]
    },
    "83": {
      "startMethod": "com.google.android.gms.internal.ct$1.run()V",
      "targetMethod": "android.webkit.WebView.\u003cinit\u003e(Landroid/content/Context;)V",
      "eventChain": [
        {
          "start": "com.google.android.gms.internal.w$1.run()V",
          "target": "PC@260",
          "type": "",
          "constraintsFile": "constraints83_0.py",
          "variables": {},
          "stringMap": {},
          "strings": {}
        },
        {
          "start": "com.google.android.gms.internal.ct$1.run()V",
          "target": "invokespecial \u003c Application, Landroid/webkit/WebView, \u003cinit\u003e(Landroid/content/Context;)V \u003e@13",
          "type": "",
          "constraintsFile": "constraints83_1.py",
          "variables": {},
          "stringMap": {},
          "strings": {}
        }
      ]
    },
    "84": {
      "startMethod": "com.google.android.gms.internal.ct$1.run()V",
      "targetMethod": "java.net.HttpURLConnection.getInputStream()Ljava/io/InputStream;",
      "eventChain": [
        {
          "start": "com.google.android.gms.internal.w$1.run()V",
          "target": "PC@260",
          "type": "",
          "constraintsFile": "constraints84_0.py",
          "variables": {},
          "stringMap": {},
          "strings": {}
        },
        {
          "start": "com.google.android.gms.internal.ct$1.run()V",
          "target": "invokevirtual \u003c Application, Ljava/net/HttpURLConnection, getInputStream()Ljava/io/InputStream; \u003e@107",
          "type": "",
          "constraintsFile": "constraints84_1.py",
          "variables": {},
          "stringMap": {},
          "strings": {}
        }
      ]
    },
    "85": {
      "startMethod": "com.google.android.gms.internal.ct$1.run()V",
      "targetMethod": "android.webkit.WebView.\u003cinit\u003e(Landroid/content/Context;)V",
      "eventChain": [
        {
          "start": "com.google.android.gms.internal.ct$1.run()V",
          "target": "invokespecial \u003c Application, Landroid/webkit/WebView, \u003cinit\u003e(Landroid/content/Context;)V \u003e@7",
          "type": "",
          "constraintsFile": "constraints85_0.py",
          "variables": {},
          "stringMap": {},
          "strings": {
            "IAAv0": ""
          }
        }
      ]
    },
    "86": {
      "startMethod": "com.google.android.gms.internal.ct$1.run()V",
      "targetMethod": "java.net.URL.openConnection()Ljava/net/URLConnection;",
      "eventChain": [
        {
          "start": "com.google.android.gms.internal.ct$1.run()V",
          "target": "invokevirtual \u003c Application, Ljava/net/URL, openConnection()Ljava/net/URLConnection; \u003e@53",
          "type": ""
        }
      ]
    },
    "87": {
      "startMethod": "com.google.android.gms.internal.ct$1.run()V",
      "targetMethod": "java.net.URL.openConnection()Ljava/net/URLConnection;",
      "eventChain": [
        {
          "start": "com.google.android.gms.internal.w$1.run()V",
          "target": "PC@260",
          "type": "",
          "constraintsFile": "constraints87_0.py",
          "variables": {},
          "stringMap": {},
          "strings": {}
        },
        {
          "start": "com.google.android.gms.internal.ct$1.run()V",
          "target": "invokevirtual \u003c Application, Ljava/net/URL, openConnection()Ljava/net/URLConnection; \u003e@43",
          "type": "",
          "constraintsFile": "constraints87_1.py",
          "variables": {},
          "stringMap": {},
          "strings": {}
        }
      ]
    },
    "88": {
      "startMethod": "com.google.analytics.tracking.android.AnalyticsGmsCoreClient$AnalyticsServiceConnection.onServiceConnected(Landroid/content/ComponentName;Landroid/os/IBinder;)V",
      "targetMethod": "android.net.ConnectivityManager.getActiveNetworkInfo()Landroid/net/NetworkInfo;",
      "eventChain": [
        {
          "start": "com.google.analytics.tracking.android.AnalyticsGmsCoreClient$AnalyticsServiceConnection.onServiceConnected(Landroid/content/ComponentName;Landroid/os/IBinder;)V",
          "target": "invokevirtual \u003c Application, Landroid/net/ConnectivityManager, getActiveNetworkInfo()Landroid/net/NetworkInfo; \u003e@24",
          "type": "",
          "constraintsFile": "constraints88_0.py",
          "variables": {
            "\u003cChainedInput2\u003e.getInterfaceDescriptor()": "IAAv0"
          },
          "stringMap": {
            "7000": "com.google.android.gms.analytics.internal.IAnalyticsService"
          },
          "strings": {
            "IAAv0": ""
          }
        }
      ]
    },
    "89": {
      "startMethod": "com.google.analytics.tracking.android.AnalyticsGmsCoreClient$AnalyticsServiceConnection.onServiceDisconnected(Landroid/content/ComponentName;)V",
      "targetMethod": "android.net.ConnectivityManager.getActiveNetworkInfo()Landroid/net/NetworkInfo;",
      "eventChain": [
        {
          "start": "com.google.analytics.tracking.android.GAServiceProxy$ConnectState.\u003cclinit\u003e()V",
          "target": "",
          "type": ""
        },
        {
          "start": "com.google.analytics.tracking.android.AnalyticsGmsCoreClient$AnalyticsServiceConnection.onServiceDisconnected(Landroid/content/ComponentName;)V",
          "target": "invokevirtual \u003c Application, Landroid/net/ConnectivityManager, getActiveNetworkInfo()Landroid/net/NetworkInfo; \u003e@24",
          "type": "",
          "constraintsFile": "constraints89_0.py",
          "variables": {},
          "stringMap": {},
          "strings": {}
        }
      ]
    },
    "90": {
      "startMethod": "com.google.android.gms.analytics.c$a.onServiceConnected(Landroid/content/ComponentName;Landroid/os/IBinder;)V",
      "targetMethod": "android.net.ConnectivityManager.getActiveNetworkInfo()Landroid/net/NetworkInfo;",
      "eventChain": [
        {
          "start": "com.google.android.gms.analytics.c$a.onServiceConnected(Landroid/content/ComponentName;Landroid/os/IBinder;)V",
          "target": "invokevirtual \u003c Application, Landroid/net/ConnectivityManager, getActiveNetworkInfo()Landroid/net/NetworkInfo; \u003e@22",
          "type": "",
          "constraintsFile": "constraints90_0.py",
          "variables": {
            "\u003cChainedInput2\u003e.getInterfaceDescriptor()": "IAAv0"
          },
          "stringMap": {
            "7000": "com.google.android.gms.analytics.internal.IAnalyticsService"
          },
          "strings": {
            "IAAv0": ""
          }
        }
      ]
    },
    "91": {
      "startMethod": "com.google.android.gms.analytics.c$a.onServiceDisconnected(Landroid/content/ComponentName;)V",
      "targetMethod": "android.net.ConnectivityManager.getActiveNetworkInfo()Landroid/net/NetworkInfo;",
      "eventChain": [
        {
          "start": "com.google.android.gms.analytics.c$a.onServiceDisconnected(Landroid/content/ComponentName;)V",
          "target": "invokevirtual \u003c Application, Landroid/net/ConnectivityManager, getActiveNetworkInfo()Landroid/net/NetworkInfo; \u003e@22",
          "type": "",
          "constraintsFile": "constraints91_0.py",
          "variables": {
            "\u003cChainedInput1\u003e.v().rS": "IAAv1",
            "\u003cChainedInput1\u003e.v().rP": "IAAv3"
          },
          "stringMap": {},
          "strings": {}
        }
      ]
    }
  }
}