{
  "packageName": "apps.refine.lptetsu",
  "mainActivity": "apps.refine.lptetsu.PhoneGapActivity",
  "callPaths": {
    "0": {
      "startMethod": "com.google.zxing.client.android.CaptureActivity.onPause()V",
      "targetMethod": "java.lang.reflect.Method.invoke(Ljava/lang/Object;[Ljava/lang/Object;)Ljava/lang/Object;",
      "eventChain": [
        {
          "start": "com.google.zxing.client.android.CaptureActivity.onResume()V",
          "target": "PC@19",
          "type": "activity",
          "component": "com.google.zxing.client.android.CaptureActivity",
          "constraintsFile": "constraints0_0.py",
          "variables": {},
          "stringMap": {},
          "strings": {}
        },
        {
          "start": "com.google.zxing.client.android.CaptureActivity.onPause()V",
          "target": "invokevirtual \u003c Application, Ljava/lang/reflect/Method, invoke(Ljava/lang/Object;[Ljava/lang/Object;)Ljava/lang/Object; \u003e@7",
          "type": "activity",
          "component": "com.google.zxing.client.android.CaptureActivity",
          "constraintsFile": "constraints0_1.py",
          "variables": {},
          "stringMap": {},
          "strings": {}
        }
      ]
    },
    "1": {
      "startMethod": "apps.refine.lptetsu.PhoneGapActivity.onCreate(Landroid/os/Bundle;)V",
      "targetMethod": "java.lang.reflect.Method.invoke(Ljava/lang/Object;[Ljava/lang/Object;)Ljava/lang/Object;",
      "eventChain": [
        {
          "start": "apps.refine.lptetsu.PhoneGapActivity.onCreate(Landroid/os/Bundle;)V",
          "target": "invokevirtual \u003c Application, Ljava/lang/reflect/Method, invoke(Ljava/lang/Object;[Ljava/lang/Object;)Ljava/lang/Object; \u003e@104",
          "type": "activity",
          "component": "apps.refine.lptetsu.PhoneGapActivity"
        }
      ]
    },
    "2": {
      "startMethod": "apps.refine.lptetsu.PhoneGapActivity.onCreate(Landroid/os/Bundle;)V",
      "targetMethod": "java.lang.reflect.Method.invoke(Ljava/lang/Object;[Ljava/lang/Object;)Ljava/lang/Object;",
      "eventChain": [
        {
          "start": "apps.refine.lptetsu.PhoneGapActivity.onCreate(Landroid/os/Bundle;)V",
          "target": "invokevirtual \u003c Application, Ljava/lang/reflect/Method, invoke(Ljava/lang/Object;[Ljava/lang/Object;)Ljava/lang/Object; \u003e@253",
          "type": "activity",
          "component": "apps.refine.lptetsu.PhoneGapActivity"
        }
      ]
    },
    "3": {
      "startMethod": "com.google.zxing.client.android.CaptureActivity.onResume()V",
      "targetMethod": "java.lang.reflect.Method.invoke(Ljava/lang/Object;[Ljava/lang/Object;)Ljava/lang/Object;",
      "eventChain": [
        {
          "start": "com.google.zxing.client.android.CaptureActivity.onResume()V",
          "target": "PC@19",
          "type": "activity",
          "component": "com.google.zxing.client.android.CaptureActivity",
          "constraintsFile": "constraints3_0.py",
          "variables": {},
          "stringMap": {},
          "strings": {}
        },
        {
          "start": "com.google.zxing.client.android.CaptureActivity.onResume()V",
          "target": "PC@64",
          "type": "activity",
          "component": "com.google.zxing.client.android.CaptureActivity",
          "constraintsFile": "constraints3_1.py",
          "variables": {
            "SharedPreferences\u003cpreferences_front_light\u003e": "IAAv3"
          },
          "stringMap": {},
          "strings": {}
        },
        {
          "start": "com.google.zxing.client.android.CaptureActivity.onResume()V",
          "target": "invokevirtual \u003c Application, Ljava/lang/reflect/Method, invoke(Ljava/lang/Object;[Ljava/lang/Object;)Ljava/lang/Object; \u003e@7",
          "type": "activity",
          "component": "com.google.zxing.client.android.CaptureActivity",
          "constraintsFile": "constraints3_2.py",
          "variables": {
            "SharedPreferences\u003cpreferences_front_light\u003e": "IAAv3"
          },
          "stringMap": {},
          "strings": {}
        }
      ]
    },
    "4": {
      "startMethod": "com.google.zxing.client.android.book.SearchBookContentsActivity$3.onKey(Landroid/view/View;ILandroid/view/KeyEvent;)Z",
      "targetMethod": "org.apache.http.client.HttpClient.execute(Lorg/apache/http/client/methods/HttpUriRequest;)Lorg/apache/http/HttpResponse;",
      "eventChain": [
        {
          "start": "com.google.zxing.client.android.book.SearchBookContentsActivity.onCreate(Landroid/os/Bundle;)V",
          "target": "invokevirtual \u003c Application, Landroid/widget/EditText, setOnKeyListener(Landroid/view/View$OnKeyListener;)V \u003e@211",
          "type": "activity",
          "component": "com.google.zxing.client.android.book.SearchBookContentsActivity",
          "constraintsFile": "constraints4_0.py",
          "variables": {},
          "stringMap": {},
          "strings": {}
        },
        {
          "start": "com.google.zxing.client.android.book.SearchBookContentsActivity$3.onKey(Landroid/view/View;ILandroid/view/KeyEvent;)Z",
          "target": "invokeinterface \u003c Application, Lorg/apache/http/client/HttpClient, execute(Lorg/apache/http/client/methods/HttpUriRequest;)Lorg/apache/http/HttpResponse; \u003e@8",
          "type": "ui",
          "activities": [
            "com.google.zxing.client.android.book.SearchBookContentsActivity"
          ],
          "listener": "com.google.zxing.client.android.book.SearchBookContentsActivity$3",
          "listenerMethod": "onKey",
          "uiType": "onKey",
          "constraintsFile": "constraints4_1.py",
          "variables": {
            "\u003cChainedInput2\u003e": "IAAv0",
            "\u003cChainedInput3\u003e.getAction()": "IAAv1"
          },
          "stringMap": {
            "7000": "http://google.com/books?id\u003d"
          },
          "strings": {
            "IAAv5": ""
          }
        }
      ]
    },
    "5": {
      "startMethod": "com.google.zxing.client.android.book.SearchBookContentsActivity$2.onClick(Landroid/view/View;)V",
      "targetMethod": "org.apache.http.client.HttpClient.execute(Lorg/apache/http/client/methods/HttpUriRequest;)Lorg/apache/http/HttpResponse;",
      "eventChain": [
        {
          "start": "com.google.zxing.client.android.book.SearchBookContentsActivity.onCreate(Landroid/os/Bundle;)V",
          "target": "invokevirtual \u003c Application, Landroid/widget/Button, setOnClickListener(Landroid/view/View$OnClickListener;)V \u003e@256",
          "type": "activity",
          "component": "com.google.zxing.client.android.book.SearchBookContentsActivity",
          "constraintsFile": "constraints5_0.py",
          "variables": {},
          "stringMap": {},
          "strings": {}
        },
        {
          "start": "com.google.zxing.client.android.book.SearchBookContentsActivity$2.onClick(Landroid/view/View;)V",
          "target": "invokeinterface \u003c Application, Lorg/apache/http/client/HttpClient, execute(Lorg/apache/http/client/methods/HttpUriRequest;)Lorg/apache/http/HttpResponse; \u003e@8",
          "type": "ui",
          "activities": [
            "com.google.zxing.client.android.book.SearchBookContentsActivity"
          ],
          "listener": "com.google.zxing.client.android.book.SearchBookContentsActivity$2",
          "listenerMethod": "onClick",
          "uiType": "onClick",
          "constraintsFile": "constraints5_1.py",
          "variables": {},
          "stringMap": {
            "7000": "http://google.com/books?id\u003d"
          },
          "strings": {
            "IAAv3": ""
          }
        }
      ]
    },
    "6": {
      "startMethod": "com.google.zxing.client.android.CaptureActivity.surfaceCreated(Landroid/view/SurfaceHolder;)V",
      "targetMethod": "java.lang.reflect.Method.invoke(Ljava/lang/Object;[Ljava/lang/Object;)Ljava/lang/Object;",
      "eventChain": [
        {
          "start": "com.google.zxing.client.android.CaptureActivity.onResume()V",
          "target": "invokeinterface \u003c Application, Landroid/view/SurfaceHolder, addCallback(Landroid/view/SurfaceHolder$Callback;)V \u003e@331",
          "type": "activity",
          "component": "com.google.zxing.client.android.CaptureActivity",
          "constraintsFile": "constraints6_0.py",
          "variables": {},
          "stringMap": {},
          "strings": {}
        },
        {
          "start": "com.google.zxing.client.android.CaptureActivity.onCreate(Landroid/os/Bundle;)V",
          "target": "PC@112",
          "type": "activity",
          "component": "com.google.zxing.client.android.CaptureActivity",
          "constraintsFile": "constraints6_1.py",
          "variables": {
            "SharedPreferences\u003cpreferences_front_light\u003e": "IAAv2"
          },
          "stringMap": {},
          "strings": {}
        },
        {
          "start": "com.google.zxing.client.android.CaptureActivity.onResume()V",
          "target": "PC@19",
          "type": "activity",
          "component": "com.google.zxing.client.android.CaptureActivity",
          "constraintsFile": "constraints6_2.py",
          "variables": {},
          "stringMap": {},
          "strings": {}
        },
        {
          "start": "com.google.zxing.client.android.CaptureActivity.onResume()V",
          "target": "PC@64",
          "type": "activity",
          "component": "com.google.zxing.client.android.CaptureActivity",
          "constraintsFile": "constraints6_3.py",
          "variables": {
            "SharedPreferences\u003cpreferences_front_light\u003e": "IAAv3"
          },
          "stringMap": {},
          "strings": {}
        },
        {
          "start": "com.google.zxing.client.android.CaptureActivity.surfaceCreated(Landroid/view/SurfaceHolder;)V",
          "target": "invokevirtual \u003c Application, Ljava/lang/reflect/Method, invoke(Ljava/lang/Object;[Ljava/lang/Object;)Ljava/lang/Object; \u003e@7",
          "type": "ui",
          "activities": [
            "apps.refine.lptetsu.PhoneGapActivity"
          ],
          "listener": "com.google.zxing.client.android.CaptureActivity",
          "listenerMethod": "surfaceCreated",
          "uiType": "surfaceCreated",
          "constraintsFile": "constraints6_4.py",
          "variables": {
            "SharedPreferences\u003cpreferences_front_light\u003e": "IAAv3"
          },
          "stringMap": {},
          "strings": {}
        }
      ]
    }
  }
}