{
  "packageName": "org.void1898.ss.agilebuddy",
  "mainActivity": "org.void1898.ss.agilebuddy.Splash",
  "callPaths": {
    "0": {
      "startMethod": "org.void1898.ss.agilebuddy.GlobalRankingActivity.onCreate(Landroid/os/Bundle;)V",
      "targetMethod": "java.net.URL.openConnection()Ljava/net/URLConnection;",
      "eventChain": [
        {
          "start": "org.void1898.ss.agilebuddy.GlobalRankingActivity.onCreate(Landroid/os/Bundle;)V",
          "target": "invokevirtual \u003c Application, Ljava/net/URL, openConnection()Ljava/net/URLConnection; \u003e@25",
          "type": "activity",
          "component": "org.void1898.ss.agilebuddy.GlobalRankingActivity"
        }
      ]
    },
    "1": {
      "startMethod": "com.madhouse.android.ads.eeee.onKeyUp(ILandroid/view/KeyEvent;)Z",
      "targetMethod": "java.net.URL.openConnection()Ljava/net/URLConnection;",
      "eventChain": [
        {
          "start": "com.madhouse.android.ads.eeee.onKeyUp(ILandroid/view/KeyEvent;)Z",
          "target": "invokevirtual \u003c Application, Ljava/net/URL, openConnection()Ljava/net/URLConnection; \u003e@18",
          "type": "ui",
          "activities": [
            "org.void1898.ss.agilebuddy.Splash"
          ],
          "listener": "com.madhouse.android.ads.eeee",
          "listenerMethod": "onKeyUp",
          "uiType": "onKeyUp",
          "constraintsFile": "constraints1_0.py",
          "variables": {
            "\u003cInput1\u003e": "IAAv0"
          },
          "stringMap": {},
          "strings": {}
        }
      ]
    },
    "2": {
      "startMethod": "com.madhouse.android.ads.eeee.onKeyUp(ILandroid/view/KeyEvent;)Z",
      "targetMethod": "java.lang.reflect.Method.invoke(Ljava/lang/Object;[Ljava/lang/Object;)Ljava/lang/Object;",
      "eventChain": [
        {
          "start": "com.madhouse.android.ads.eeee.onKeyUp(ILandroid/view/KeyEvent;)Z",
          "target": "invokevirtual \u003c Application, Ljava/lang/reflect/Method, invoke(Ljava/lang/Object;[Ljava/lang/Object;)Ljava/lang/Object; \u003e@95",
          "type": "ui",
          "activities": [
            "org.void1898.ss.agilebuddy.Splash"
          ],
          "listener": "com.madhouse.android.ads.eeee",
          "listenerMethod": "onKeyUp",
          "uiType": "onKeyUp",
          "constraintsFile": "constraints2_0.py",
          "variables": {
            "\u003cInput1\u003e": "IAAv0"
          },
          "stringMap": {},
          "strings": {}
        }
      ]
    },
    "3": {
      "startMethod": "com.madhouse.android.ads.____.onKeyUp(ILandroid/view/KeyEvent;)Z",
      "targetMethod": "java.net.URL.openConnection()Ljava/net/URLConnection;",
      "eventChain": [
        {
          "start": "com.madhouse.android.ads.____.onKeyUp(ILandroid/view/KeyEvent;)Z",
          "target": "invokevirtual \u003c Application, Ljava/net/URL, openConnection()Ljava/net/URLConnection; \u003e@18",
          "type": "ui",
          "activities": [
            "org.void1898.ss.agilebuddy.Splash"
          ],
          "listener": "com.madhouse.android.ads.____",
          "listenerMethod": "onKeyUp",
          "uiType": "onKeyUp",
          "constraintsFile": "constraints3_0.py",
          "variables": {
            "\u003cInput1\u003e": "IAAv0"
          },
          "stringMap": {},
          "strings": {}
        }
      ]
    },
    "4": {
      "startMethod": "com.madhouse.android.ads.____.onKeyUp(ILandroid/view/KeyEvent;)Z",
      "targetMethod": "java.lang.reflect.Method.invoke(Ljava/lang/Object;[Ljava/lang/Object;)Ljava/lang/Object;",
      "eventChain": [
        {
          "start": "com.madhouse.android.ads.____.onKeyUp(ILandroid/view/KeyEvent;)Z",
          "target": "invokevirtual \u003c Application, Ljava/lang/reflect/Method, invoke(Ljava/lang/Object;[Ljava/lang/Object;)Ljava/lang/Object; \u003e@95",
          "type": "ui",
          "activities": [
            "org.void1898.ss.agilebuddy.Splash"
          ],
          "listener": "com.madhouse.android.ads.____",
          "listenerMethod": "onKeyUp",
          "uiType": "onKeyUp",
          "constraintsFile": "constraints4_0.py",
          "variables": {
            "\u003cInput1\u003e": "IAAv0"
          },
          "stringMap": {},
          "strings": {}
        }
      ]
    },
    "5": {
      "startMethod": "cn.domob.android.ads.g$4.onClick(Landroid/content/DialogInterface;I)V",
      "targetMethod": "java.net.URL.openConnection()Ljava/net/URLConnection;",
      "eventChain": [
        {
          "start": "cn.domob.android.ads.o$10.onDownloadStart(Ljava/lang/String;Ljava/lang/String;Ljava/lang/String;Ljava/lang/String;J)V",
          "target": "PC@64",
          "type": ""
        },
        {
          "start": "cn.domob.android.ads.o$10.onDownloadStart(Ljava/lang/String;Ljava/lang/String;Ljava/lang/String;Ljava/lang/String;J)V",
          "target": "PC@133",
          "type": ""
        },
        {
          "start": "cn.domob.android.ads.g$4.onClick(Landroid/content/DialogInterface;I)V",
          "target": "invokevirtual \u003c Application, Ljava/net/URL, openConnection()Ljava/net/URLConnection; \u003e@291",
          "type": "ui",
          "activities": [
            "org.void1898.ss.agilebuddy.Splash"
          ],
          "listener": "cn.domob.android.ads.g$4",
          "listenerMethod": "onClick",
          "uiType": "onClick",
          "inDialog": "true",
          "constraintsFile": "constraints5_0.py",
          "variables": {},
          "stringMap": {},
          "strings": {}
        }
      ]
    },
    "6": {
      "startMethod": "cn.domob.android.ads.g$4.onClick(Landroid/content/DialogInterface;I)V",
      "targetMethod": "java.net.URL.openConnection(Ljava/net/Proxy;)Ljava/net/URLConnection;",
      "eventChain": [
        {
          "start": "cn.domob.android.ads.o$10.onDownloadStart(Ljava/lang/String;Ljava/lang/String;Ljava/lang/String;Ljava/lang/String;J)V",
          "target": "PC@489",
          "type": ""
        },
        {
          "start": "cn.domob.android.ads.o$10.onDownloadStart(Ljava/lang/String;Ljava/lang/String;Ljava/lang/String;Ljava/lang/String;J)V",
          "target": "PC@133",
          "type": ""
        },
        {
          "start": "cn.domob.android.ads.g$4.onClick(Landroid/content/DialogInterface;I)V",
          "target": "invokevirtual \u003c Application, Ljava/net/URL, openConnection(Ljava/net/Proxy;)Ljava/net/URLConnection; \u003e@80",
          "type": "ui",
          "activities": [
            "org.void1898.ss.agilebuddy.Splash"
          ],
          "listener": "cn.domob.android.ads.g$4",
          "listenerMethod": "onClick",
          "uiType": "onClick",
          "inDialog": "true",
          "constraintsFile": "constraints6_0.py",
          "variables": {},
          "stringMap": {},
          "strings": {}
        }
      ]
    },
    "7": {
      "startMethod": "cn.domob.android.ads.DomobActivity$2.onClick(Landroid/content/DialogInterface;I)V",
      "targetMethod": "java.net.URL.openConnection()Ljava/net/URLConnection;",
      "eventChain": [
        {
          "start": "cn.domob.android.ads.DomobActivity.onCreate(Landroid/os/Bundle;)V",
          "target": "invokevirtual \u003c Application, Landroid/app/AlertDialog$Builder, setNegativeButton(Ljava/lang/CharSequence;Landroid/content/DialogInterface$OnClickListener;)Landroid/app/AlertDialog$Builder; \u003e@289",
          "type": "activity",
          "component": "cn.domob.android.ads.DomobActivity"
        },
        {
          "start": "cn.domob.android.ads.o$10.onDownloadStart(Ljava/lang/String;Ljava/lang/String;Ljava/lang/String;Ljava/lang/String;J)V",
          "target": "PC@64",
          "type": ""
        },
        {
          "start": "cn.domob.android.ads.o$10.onDownloadStart(Ljava/lang/String;Ljava/lang/String;Ljava/lang/String;Ljava/lang/String;J)V",
          "target": "PC@133",
          "type": ""
        },
        {
          "start": "cn.domob.android.ads.DomobActivity$2.onClick(Landroid/content/DialogInterface;I)V",
          "target": "invokevirtual \u003c Application, Ljava/net/URL, openConnection()Ljava/net/URLConnection; \u003e@291",
          "type": "ui",
          "activities": [
            "org.void1898.ss.agilebuddy.Splash"
          ],
          "listener": "cn.domob.android.ads.DomobActivity$2",
          "listenerMethod": "onClick",
          "uiType": "onClick",
          "inDialog": "true",
          "constraintsFile": "constraints7_0.py",
          "variables": {},
          "stringMap": {},
          "strings": {}
        }
      ]
    },
    "8": {
      "startMethod": "cn.domob.android.ads.DomobActivity$2.onClick(Landroid/content/DialogInterface;I)V",
      "targetMethod": "java.net.URL.openConnection(Ljava/net/Proxy;)Ljava/net/URLConnection;",
      "eventChain": [
        {
          "start": "cn.domob.android.ads.DomobActivity.onCreate(Landroid/os/Bundle;)V",
          "target": "invokevirtual \u003c Application, Landroid/app/AlertDialog$Builder, setNegativeButton(Ljava/lang/CharSequence;Landroid/content/DialogInterface$OnClickListener;)Landroid/app/AlertDialog$Builder; \u003e@289",
          "type": "activity",
          "component": "cn.domob.android.ads.DomobActivity"
        },
        {
          "start": "cn.domob.android.ads.o$10.onDownloadStart(Ljava/lang/String;Ljava/lang/String;Ljava/lang/String;Ljava/lang/String;J)V",
          "target": "PC@489",
          "type": ""
        },
        {
          "start": "cn.domob.android.ads.o$10.onDownloadStart(Ljava/lang/String;Ljava/lang/String;Ljava/lang/String;Ljava/lang/String;J)V",
          "target": "PC@133",
          "type": ""
        },
        {
          "start": "cn.domob.android.ads.DomobActivity$2.onClick(Landroid/content/DialogInterface;I)V",
          "target": "invokevirtual \u003c Application, Ljava/net/URL, openConnection(Ljava/net/Proxy;)Ljava/net/URLConnection; \u003e@80",
          "type": "ui",
          "activities": [
            "org.void1898.ss.agilebuddy.Splash"
          ],
          "listener": "cn.domob.android.ads.DomobActivity$2",
          "listenerMethod": "onClick",
          "uiType": "onClick",
          "inDialog": "true",
          "constraintsFile": "constraints8_0.py",
          "variables": {},
          "stringMap": {},
          "strings": {}
        }
      ]
    },
    "9": {
      "startMethod": "org.void1898.ss.agilebuddy.ScoreUpgrateService.onSharedPreferenceChanged(Landroid/content/SharedPreferences;Ljava/lang/String;)V",
      "targetMethod": "java.net.URL.openConnection()Ljava/net/URLConnection;",
      "eventChain": [
        {
          "start": "org.void1898.ss.agilebuddy.ScoreUpgrateService.onCreate()V",
          "target": "invokeinterface \u003c Application, Landroid/content/SharedPreferences, registerOnSharedPreferenceChangeListener(Landroid/content/SharedPreferences$OnSharedPreferenceChangeListener;)V \u003e@137",
          "type": "service",
          "component": "org.void1898.ss.agilebuddy.ScoreUpgrateService",
          "constraintsFile": "constraints9_0.py",
          "variables": {
            "SharedPreferences\u003corg.void1898.agilebuddy.ranking.uid\u003e": "IAAv0"
          },
          "stringMap": {
            "7000": "",
            "7001": "\u003cDeviceID\u003e"
          },
          "strings": {
            "IAAv0": ""
          }
        },
        {
          "start": "org.void1898.ss.agilebuddy.ScoreUpgrateService.onCreate()V",
          "target": "invokeinterface \u003c Application, Landroid/content/SharedPreferences$Editor, putInt(Ljava/lang/String;I)Landroid/content/SharedPreferences$Editor; \u003e@122",
          "type": "service",
          "component": "org.void1898.ss.agilebuddy.ScoreUpgrateService",
          "constraintsFile": "constraints9_1.py",
          "variables": {
            "SharedPreferences\u003corg.void1898.agilebuddy.ranking.uid\u003e": "IAAv0"
          },
          "stringMap": {
            "7000": "",
            "7001": "\u003cDeviceID\u003e"
          },
          "strings": {
            "IAAv0": ""
          }
        },
        {
          "start": "org.void1898.ss.agilebuddy.ScoreUpgrateService.onSharedPreferenceChanged(Landroid/content/SharedPreferences;Ljava/lang/String;)V",
          "target": "invokevirtual \u003c Application, Ljava/net/URL, openConnection()Ljava/net/URLConnection; \u003e@29",
          "type": "",
          "constraintsFile": "constraints9_2.py",
          "variables": {
            "\u003cInput2\u003e": "IAAv0",
            "SharedPreferences\u003corg.void1898.agilebuddy.ranking.score\u003e": "IAAv2"
          },
          "stringMap": {
            "7000": "org.void1898.agilebuddy.ranking.flag"
          },
          "strings": {
            "IAAv0": ""
          }
        }
      ]
    },
    "10": {
      "startMethod": "cn.domob.android.ads.e.onReceive(Landroid/content/Context;Landroid/content/Intent;)V",
      "targetMethod": "java.net.URL.openConnection(Ljava/net/Proxy;)Ljava/net/URLConnection;",
      "eventChain": [
        {
          "start": "cn.domob.android.ads.o$5.onClick(Landroid/content/DialogInterface;I)V",
          "target": "invokespecial \u003c Application, Landroid/content/BroadcastReceiver, \u003cinit\u003e()V \u003e@2",
          "type": "ui",
          "activities": [
            "org.void1898.ss.agilebuddy.Splash"
          ],
          "listener": "cn.domob.android.ads.o$5",
          "listenerMethod": "onClick",
          "uiType": "onClick",
          "inDialog": "true",
          "constraintsFile": "constraints10_0.py",
          "variables": {},
          "stringMap": {},
          "strings": {}
        },
        {
          "start": "cn.domob.android.ads.o$10.onDownloadStart(Ljava/lang/String;Ljava/lang/String;Ljava/lang/String;Ljava/lang/String;J)V",
          "target": "PC@489",
          "type": ""
        },
        {
          "start": "cn.domob.android.ads.o$10.onDownloadStart(Ljava/lang/String;Ljava/lang/String;Ljava/lang/String;Ljava/lang/String;J)V",
          "target": "PC@133",
          "type": ""
        },
        {
          "start": "cn.domob.android.ads.e.onReceive(Landroid/content/Context;Landroid/content/Intent;)V",
          "target": "invokevirtual \u003c Application, Ljava/net/URL, openConnection(Ljava/net/Proxy;)Ljava/net/URLConnection; \u003e@80",
          "type": "sms",
          "constraintsFile": "constraints10_1.py",
          "variables": {
            "\u003cChainedInput2\u003e.getDataString()": "IAAv2",
            "\u003cChainedInput2\u003e.getAction()": "IAAv0"
          },
          "stringMap": {
            "7000": "android.intent.action.PACKAGE_ADDED"
          },
          "strings": {
            "IAAv2": "",
            "IAAv0": ""
          }
        }
      ]
    },
    "11": {
      "startMethod": "cn.domob.android.ads.e.onReceive(Landroid/content/Context;Landroid/content/Intent;)V",
      "targetMethod": "java.net.URL.openConnection()Ljava/net/URLConnection;",
      "eventChain": [
        {
          "start": "cn.domob.android.ads.o$5.onClick(Landroid/content/DialogInterface;I)V",
          "target": "invokespecial \u003c Application, Landroid/content/BroadcastReceiver, \u003cinit\u003e()V \u003e@2",
          "type": "ui",
          "activities": [
            "org.void1898.ss.agilebuddy.Splash"
          ],
          "listener": "cn.domob.android.ads.o$5",
          "listenerMethod": "onClick",
          "uiType": "onClick",
          "inDialog": "true",
          "constraintsFile": "constraints11_0.py",
          "variables": {},
          "stringMap": {},
          "strings": {}
        },
        {
          "start": "cn.domob.android.ads.o$10.onDownloadStart(Ljava/lang/String;Ljava/lang/String;Ljava/lang/String;Ljava/lang/String;J)V",
          "target": "PC@64",
          "type": ""
        },
        {
          "start": "cn.domob.android.ads.o$10.onDownloadStart(Ljava/lang/String;Ljava/lang/String;Ljava/lang/String;Ljava/lang/String;J)V",
          "target": "PC@133",
          "type": ""
        },
        {
          "start": "cn.domob.android.ads.e.onReceive(Landroid/content/Context;Landroid/content/Intent;)V",
          "target": "invokevirtual \u003c Application, Ljava/net/URL, openConnection()Ljava/net/URLConnection; \u003e@291",
          "type": "sms",
          "constraintsFile": "constraints11_1.py",
          "variables": {
            "\u003cChainedInput2\u003e.getDataString()": "IAAv2",
            "\u003cChainedInput2\u003e.getAction()": "IAAv0"
          },
          "stringMap": {
            "7000": "android.intent.action.PACKAGE_ADDED"
          },
          "strings": {
            "IAAv2": "",
            "IAAv0": ""
          }
        }
      ]
    },
    "12": {
      "startMethod": "cn.domob.android.ads.o$10.onDownloadStart(Ljava/lang/String;Ljava/lang/String;Ljava/lang/String;Ljava/lang/String;J)V",
      "targetMethod": "java.net.URL.openConnection(Ljava/net/Proxy;)Ljava/net/URLConnection;",
      "eventChain": [
        {
          "start": "cn.domob.android.ads.o$10.onDownloadStart(Ljava/lang/String;Ljava/lang/String;Ljava/lang/String;Ljava/lang/String;J)V",
          "target": "invokevirtual \u003c Application, Ljava/net/URL, openConnection(Ljava/net/Proxy;)Ljava/net/URLConnection; \u003e@57",
          "type": "",
          "constraintsFile": "constraints12_0.py",
          "variables": {},
          "stringMap": {},
          "strings": {}
        }
      ]
    },
    "13": {
      "startMethod": "cn.domob.android.ads.o$10.onDownloadStart(Ljava/lang/String;Ljava/lang/String;Ljava/lang/String;Ljava/lang/String;J)V",
      "targetMethod": "java.net.URL.openConnection()Ljava/net/URLConnection;",
      "eventChain": [
        {
          "start": "cn.domob.android.ads.o$10.onDownloadStart(Ljava/lang/String;Ljava/lang/String;Ljava/lang/String;Ljava/lang/String;J)V",
          "target": "invokevirtual \u003c Application, Ljava/net/URL, openConnection()Ljava/net/URLConnection; \u003e@493",
          "type": "",
          "constraintsFile": "constraints13_0.py",
          "variables": {},
          "stringMap": {},
          "strings": {}
        }
      ]
    },
    "14": {
      "startMethod": "cn.domob.android.ads.o$10.onDownloadStart(Ljava/lang/String;Ljava/lang/String;Ljava/lang/String;Ljava/lang/String;J)V",
      "targetMethod": "java.net.URL.openConnection()Ljava/net/URLConnection;",
      "eventChain": [
        {
          "start": "cn.domob.android.ads.o$10.onDownloadStart(Ljava/lang/String;Ljava/lang/String;Ljava/lang/String;Ljava/lang/String;J)V",
          "target": "invokevirtual \u003c Application, Ljava/net/URL, openConnection()Ljava/net/URLConnection; \u003e@465",
          "type": ""
        }
      ]
    },
    "15": {
      "startMethod": "cn.domob.android.ads.o$10.onDownloadStart(Ljava/lang/String;Ljava/lang/String;Ljava/lang/String;Ljava/lang/String;J)V",
      "targetMethod": "java.net.URL.openConnection(Ljava/net/Proxy;)Ljava/net/URLConnection;",
      "eventChain": [
        {
          "start": "cn.domob.android.ads.o$10.onDownloadStart(Ljava/lang/String;Ljava/lang/String;Ljava/lang/String;Ljava/lang/String;J)V",
          "target": "invokevirtual \u003c Application, Ljava/net/URL, openConnection(Ljava/net/Proxy;)Ljava/net/URLConnection; \u003e@42",
          "type": ""
        }
      ]
    },
    "16": {
      "startMethod": "cn.domob.android.ads.o$10.onDownloadStart(Ljava/lang/String;Ljava/lang/String;Ljava/lang/String;Ljava/lang/String;J)V",
      "targetMethod": "java.net.URL.openConnection(Ljava/net/Proxy;)Ljava/net/URLConnection;",
      "eventChain": [
        {
          "start": "cn.domob.android.ads.o$10.onDownloadStart(Ljava/lang/String;Ljava/lang/String;Ljava/lang/String;Ljava/lang/String;J)V",
          "target": "invokevirtual \u003c Application, Ljava/net/URL, openConnection(Ljava/net/Proxy;)Ljava/net/URLConnection; \u003e@80",
          "type": ""
        }
      ]
    },
    "17": {
      "startMethod": "cn.domob.android.ads.o$10.onDownloadStart(Ljava/lang/String;Ljava/lang/String;Ljava/lang/String;Ljava/lang/String;J)V",
      "targetMethod": "java.net.URL.openConnection()Ljava/net/URLConnection;",
      "eventChain": [
        {
          "start": "cn.domob.android.ads.o$10.onDownloadStart(Ljava/lang/String;Ljava/lang/String;Ljava/lang/String;Ljava/lang/String;J)V",
          "target": "invokevirtual \u003c Application, Ljava/net/URL, openConnection()Ljava/net/URLConnection; \u003e@291",
          "type": ""
        }
      ]
    },
    "18": {
      "startMethod": "cn.domob.android.ads.o$10.onDownloadStart(Ljava/lang/String;Ljava/lang/String;Ljava/lang/String;Ljava/lang/String;J)V",
      "targetMethod": "java.net.URL.openConnection(Ljava/net/Proxy;)Ljava/net/URLConnection;",
      "eventChain": [
        {
          "start": "cn.domob.android.ads.o$10.onDownloadStart(Ljava/lang/String;Ljava/lang/String;Ljava/lang/String;Ljava/lang/String;J)V",
          "target": "invokevirtual \u003c Application, Ljava/net/URL, openConnection(Ljava/net/Proxy;)Ljava/net/URLConnection; \u003e@38",
          "type": ""
        }
      ]
    },
    "19": {
      "startMethod": "cn.domob.android.ads.o$10.onDownloadStart(Ljava/lang/String;Ljava/lang/String;Ljava/lang/String;Ljava/lang/String;J)V",
      "targetMethod": "java.net.URL.openConnection()Ljava/net/URLConnection;",
      "eventChain": [
        {
          "start": "cn.domob.android.ads.o$10.onDownloadStart(Ljava/lang/String;Ljava/lang/String;Ljava/lang/String;Ljava/lang/String;J)V",
          "target": "invokevirtual \u003c Application, Ljava/net/URL, openConnection()Ljava/net/URLConnection; \u003e@93",
          "type": ""
        }
      ]
    }
  }
}