{
  "packageName": "com.interdenshi.android.CoffeeTime",
  "mainActivity": "com.interdenshi.android.CoffeeTime.Main",
  "callPaths": {
    "0": {
      "startMethod": "com.interdenshi.android.CoffeeTime.Receive.onReceive(Landroid/content/Context;Landroid/content/Intent;)V",
      "targetMethod": "android.os.PowerManager$WakeLock.acquire(J)V",
      "eventChain": [
        {
          "start": "com.interdenshi.android.CoffeeTime.Main$12.onClick(Landroid/view/View;)V",
          "target": "invokeinterface \u003c Application, Landroid/content/SharedPreferences$Editor, putBoolean(Ljava/lang/String;Z)Landroid/content/SharedPreferences$Editor; \u003e@145",
          "type": "ui",
          "activities": [
            "com.interdenshi.android.CoffeeTime.Main"
          ],
          "listener": "com.interdenshi.android.CoffeeTime.Main$12",
          "listenerMethod": "onClick",
          "uiType": "onClick",
          "constraintsFile": "constraints0_0.py",
          "variables": {
            "SharedPreferences\u003cNotificationWakeup\u003e": "IAAv0"
          },
          "stringMap": {},
          "strings": {}
        },
        {
          "start": "com.interdenshi.android.CoffeeTime.Receive.onReceive(Landroid/content/Context;Landroid/content/Intent;)V",
          "target": "invokevirtual \u003c Application, Landroid/os/PowerManager$WakeLock, acquire(J)V \u003e@217",
          "type": "sms",
          "constraintsFile": "constraints0_1.py",
          "variables": {
            "SharedPreferences\u003cNotificationWakeup\u003e": "IAAv2",
            "\u003cInput1\u003e.startActivity().SDK_INT": "IAAv3",
            "\u003cInput2\u003e.getType()": "IAAv0"
          },
          "stringMap": {
            "7000": "ALARM_START_WORK"
          },
          "strings": {
            "IAAv0": ""
          }
        }
      ]
    },
    "1": {
      "startMethod": "com.interdenshi.android.CoffeeTime.Main.onCreate(Landroid/os/Bundle;)V",
      "targetMethod": "android.media.MediaPlayer.reset()V",
      "eventChain": [
        {
          "start": "com.interdenshi.android.CoffeeTime.Main.onCreate(Landroid/os/Bundle;)V",
          "target": "invokevirtual \u003c Application, Landroid/media/MediaPlayer, reset()V \u003e@22",
          "type": "activity",
          "component": "com.interdenshi.android.CoffeeTime.Main"
        }
      ]
    },
    "2": {
      "startMethod": "com.interdenshi.android.CoffeeTime.Main.onCreate(Landroid/os/Bundle;)V",
      "targetMethod": "android.os.Vibrator.vibrate([JI)V",
      "eventChain": [
        {
          "start": "com.interdenshi.android.CoffeeTime.Main.onCreate(Landroid/os/Bundle;)V",
          "target": "invokevirtual \u003c Application, Landroid/os/Vibrator, vibrate([JI)V \u003e@298",
          "type": "activity",
          "component": "com.interdenshi.android.CoffeeTime.Main"
        }
      ]
    },
    "3": {
      "startMethod": "com.interdenshi.android.CoffeeTime.Main.onCreate(Landroid/os/Bundle;)V",
      "targetMethod": "android.media.MediaPlayer.start()V",
      "eventChain": [
        {
          "start": "com.interdenshi.android.CoffeeTime.Main.onCreate(Landroid/os/Bundle;)V",
          "target": "invokevirtual \u003c Application, Landroid/media/MediaPlayer, start()V \u003e@120",
          "type": "activity",
          "component": "com.interdenshi.android.CoffeeTime.Main"
        }
      ]
    },
    "4": {
      "startMethod": "com.interdenshi.android.CoffeeTime.Main.onCreate(Landroid/os/Bundle;)V",
      "targetMethod": "android.media.MediaPlayer.stop()V",
      "eventChain": [
        {
          "start": "com.interdenshi.android.CoffeeTime.Main.onCreate(Landroid/os/Bundle;)V",
          "target": "invokevirtual \u003c Application, Landroid/media/MediaPlayer, stop()V \u003e@14",
          "type": "activity",
          "component": "com.interdenshi.android.CoffeeTime.Main"
        }
      ]
    },
    "5": {
      "startMethod": "com.interdenshi.android.CoffeeTime.Main.onCreate(Landroid/os/Bundle;)V",
      "targetMethod": "android.media.MediaPlayer.start()V",
      "eventChain": [
        {
          "start": "com.interdenshi.android.CoffeeTime.Main.onCreate(Landroid/os/Bundle;)V",
          "target": "invokevirtual \u003c Application, Landroid/media/MediaPlayer, start()V \u003e@177",
          "type": "activity",
          "component": "com.interdenshi.android.CoffeeTime.Main"
        }
      ]
    },
    "6": {
      "startMethod": "com.interdenshi.android.CoffeeTime.Main.onCreate(Landroid/os/Bundle;)V",
      "targetMethod": "android.app.NotificationManager.notify(ILandroid/app/Notification;)V",
      "eventChain": [
        {
          "start": "com.interdenshi.android.CoffeeTime.Main.onCreate(Landroid/os/Bundle;)V",
          "target": "invokevirtual \u003c Application, Landroid/app/NotificationManager, notify(ILandroid/app/Notification;)V \u003e@720",
          "type": "activity",
          "component": "com.interdenshi.android.CoffeeTime.Main"
        }
      ]
    },
    "7": {
      "startMethod": "com.interdenshi.android.CoffeeTime.Main.onCreate(Landroid/os/Bundle;)V",
      "targetMethod": "android.media.MediaPlayer.release()V",
      "eventChain": [
        {
          "start": "com.interdenshi.android.CoffeeTime.Main.onCreate(Landroid/os/Bundle;)V",
          "target": "invokevirtual \u003c Application, Landroid/media/MediaPlayer, release()V \u003e@30",
          "type": "activity",
          "component": "com.interdenshi.android.CoffeeTime.Main"
        }
      ]
    },
    "8": {
      "startMethod": "com.interdenshi.android.CoffeeTime.Main$21.onCompletion(Landroid/media/MediaPlayer;)V",
      "targetMethod": "android.media.MediaPlayer.reset()V",
      "eventChain": [
        {
          "start": "com.interdenshi.android.CoffeeTime.Main$21.onCompletion(Landroid/media/MediaPlayer;)V",
          "target": "invokevirtual \u003c Application, Landroid/media/MediaPlayer, reset()V \u003e@6",
          "type": ""
        }
      ]
    },
    "9": {
      "startMethod": "com.interdenshi.android.CoffeeTime.Main$21.onCompletion(Landroid/media/MediaPlayer;)V",
      "targetMethod": "android.media.MediaPlayer.release()V",
      "eventChain": [
        {
          "start": "com.interdenshi.android.CoffeeTime.Main$21.onCompletion(Landroid/media/MediaPlayer;)V",
          "target": "invokevirtual \u003c Application, Landroid/media/MediaPlayer, release()V \u003e@10",
          "type": ""
        }
      ]
    },
    "10": {
      "startMethod": "com.interdenshi.android.CoffeeTime.Main$21.onCompletion(Landroid/media/MediaPlayer;)V",
      "targetMethod": "android.media.MediaPlayer.stop()V",
      "eventChain": [
        {
          "start": "com.interdenshi.android.CoffeeTime.Main$21.onCompletion(Landroid/media/MediaPlayer;)V",
          "target": "invokevirtual \u003c Application, Landroid/media/MediaPlayer, stop()V \u003e@2",
          "type": ""
        }
      ]
    },
    "11": {
      "startMethod": "com.interdenshi.android.CoffeeTime.Main$8.onItemClick(Landroid/widget/AdapterView;Landroid/view/View;IJ)V",
      "targetMethod": "android.media.MediaPlayer.reset()V",
      "eventChain": [
        {
          "start": "com.interdenshi.android.CoffeeTime.Main$8.onItemClick(Landroid/widget/AdapterView;Landroid/view/View;IJ)V",
          "target": "invokevirtual \u003c Application, Landroid/media/MediaPlayer, reset()V \u003e@22",
          "type": "ui",
          "activities": [
            "com.interdenshi.android.CoffeeTime.Main"
          ],
          "listener": "com.interdenshi.android.CoffeeTime.Main$8",
          "listenerMethod": "onItemClick",
          "uiType": "onItemClick",
          "constraintsFile": "constraints11_0.py",
          "variables": {
            "\u003cChainedInput4\u003e": "IAAv1"
          },
          "stringMap": {},
          "strings": {}
        }
      ]
    },
    "12": {
      "startMethod": "com.interdenshi.android.CoffeeTime.Main$8.onItemClick(Landroid/widget/AdapterView;Landroid/view/View;IJ)V",
      "targetMethod": "android.media.MediaPlayer.release()V",
      "eventChain": [
        {
          "start": "com.interdenshi.android.CoffeeTime.Main$8.onItemClick(Landroid/widget/AdapterView;Landroid/view/View;IJ)V",
          "target": "invokevirtual \u003c Application, Landroid/media/MediaPlayer, release()V \u003e@30",
          "type": "ui",
          "activities": [
            "com.interdenshi.android.CoffeeTime.Main"
          ],
          "listener": "com.interdenshi.android.CoffeeTime.Main$8",
          "listenerMethod": "onItemClick",
          "uiType": "onItemClick",
          "constraintsFile": "constraints12_0.py",
          "variables": {
            "\u003cChainedInput4\u003e": "IAAv1"
          },
          "stringMap": {},
          "strings": {}
        }
      ]
    },
    "13": {
      "startMethod": "com.interdenshi.android.CoffeeTime.Main$8.onItemClick(Landroid/widget/AdapterView;Landroid/view/View;IJ)V",
      "targetMethod": "android.media.MediaPlayer.start()V",
      "eventChain": [
        {
          "start": "com.interdenshi.android.CoffeeTime.Main$8.onItemClick(Landroid/widget/AdapterView;Landroid/view/View;IJ)V",
          "target": "invokeinterface \u003c Application, Landroid/content/SharedPreferences$Editor, putString(Ljava/lang/String;Ljava/lang/String;)Landroid/content/SharedPreferences$Editor; \u003e@339",
          "type": "ui",
          "activities": [
            "com.interdenshi.android.CoffeeTime.Main"
          ],
          "listener": "com.interdenshi.android.CoffeeTime.Main$8",
          "listenerMethod": "onItemClick",
          "uiType": "onItemClick",
          "constraintsFile": "constraints13_0.py",
          "variables": {
            "\u003cChainedInput4\u003e": "IAAv1"
          },
          "stringMap": {},
          "strings": {}
        },
        {
          "start": "com.interdenshi.android.CoffeeTime.Main$8.onItemClick(Landroid/widget/AdapterView;Landroid/view/View;IJ)V",
          "target": "invokevirtual \u003c Application, Landroid/media/MediaPlayer, start()V \u003e@120",
          "type": "ui",
          "activities": [
            "com.interdenshi.android.CoffeeTime.Main"
          ],
          "listener": "com.interdenshi.android.CoffeeTime.Main$8",
          "listenerMethod": "onItemClick",
          "uiType": "onItemClick",
          "constraintsFile": "constraints13_1.py",
          "variables": {
            "\u003cChainedInput4\u003e": "IAAv1",
            "SharedPreferences\u003cMelodyUriTemp\u003e": "IAAv2"
          },
          "stringMap": {
            "7000": ""
          },
          "strings": {
            "IAAv2": ""
          }
        }
      ]
    },
    "14": {
      "startMethod": "com.interdenshi.android.CoffeeTime.Main$8.onItemClick(Landroid/widget/AdapterView;Landroid/view/View;IJ)V",
      "targetMethod": "android.media.MediaPlayer.stop()V",
      "eventChain": [
        {
          "start": "com.interdenshi.android.CoffeeTime.Main$8.onItemClick(Landroid/widget/AdapterView;Landroid/view/View;IJ)V",
          "target": "invokevirtual \u003c Application, Landroid/media/MediaPlayer, stop()V \u003e@14",
          "type": "ui",
          "activities": [
            "com.interdenshi.android.CoffeeTime.Main"
          ],
          "listener": "com.interdenshi.android.CoffeeTime.Main$8",
          "listenerMethod": "onItemClick",
          "uiType": "onItemClick",
          "constraintsFile": "constraints14_0.py",
          "variables": {
            "\u003cChainedInput4\u003e": "IAAv1"
          },
          "stringMap": {},
          "strings": {}
        }
      ]
    },
    "15": {
      "startMethod": "com.interdenshi.android.CoffeeTime.Main$15.onClick(Landroid/view/View;)V",
      "targetMethod": "android.provider.Settings$System.putInt(Landroid/content/ContentResolver;Ljava/lang/String;I)Z",
      "eventChain": [
        {
          "start": "com.interdenshi.android.CoffeeTime.Main$15.onClick(Landroid/view/View;)V",
          "target": "invokestatic \u003c Application, Landroid/provider/Settings$System, putInt(Landroid/content/ContentResolver;Ljava/lang/String;I)Z \u003e@151",
          "type": "ui",
          "activities": [
            "com.interdenshi.android.CoffeeTime.Main"
          ],
          "listener": "com.interdenshi.android.CoffeeTime.Main$15",
          "listenerMethod": "onClick",
          "uiType": "onClick",
          "constraintsFile": "constraints15_0.py",
          "variables": {},
          "stringMap": {},
          "strings": {}
        }
      ]
    },
    "16": {
      "startMethod": "android.support.v7.internal.app.AppCompatViewInflater$DeclaredOnClickListener.onClick(Landroid/view/View;)V",
      "targetMethod": "java.lang.reflect.Method.invoke(Ljava/lang/Object;[Ljava/lang/Object;)Ljava/lang/Object;",
      "eventChain": [
        {
          "start": "android.support.v7.internal.app.AppCompatViewInflater$DeclaredOnClickListener.onClick(Landroid/view/View;)V",
          "target": "invokevirtual \u003c Application, Ljava/lang/reflect/Method, invoke(Ljava/lang/Object;[Ljava/lang/Object;)Ljava/lang/Object; \u003e@68",
          "type": "ui",
          "activities": [
            "com.interdenshi.android.CoffeeTime.Main"
          ],
          "listener": "android.support.v7.internal.app.AppCompatViewInflater$DeclaredOnClickListener",
          "listenerMethod": "onClick",
          "uiType": "onClick",
          "constraintsFile": "constraints16_0.py",
          "variables": {},
          "stringMap": {},
          "strings": {}
        }
      ]
    },
    "17": {
      "startMethod": "com.interdenshi.android.CoffeeTime.Main$10.onClick(Landroid/view/View;)V",
      "targetMethod": "android.media.MediaPlayer.stop()V",
      "eventChain": [
        {
          "start": "com.interdenshi.android.CoffeeTime.Main$10.onClick(Landroid/view/View;)V",
          "target": "invokevirtual \u003c Application, Landroid/media/MediaPlayer, stop()V \u003e@14",
          "type": "ui",
          "activities": [
            "com.interdenshi.android.CoffeeTime.Main"
          ],
          "listener": "com.interdenshi.android.CoffeeTime.Main$10",
          "listenerMethod": "onClick",
          "uiType": "onClick",
          "constraintsFile": "constraints17_0.py",
          "variables": {},
          "stringMap": {},
          "strings": {}
        }
      ]
    },
    "18": {
      "startMethod": "com.interdenshi.android.CoffeeTime.Main$10.onClick(Landroid/view/View;)V",
      "targetMethod": "android.media.MediaPlayer.reset()V",
      "eventChain": [
        {
          "start": "com.interdenshi.android.CoffeeTime.Main$10.onClick(Landroid/view/View;)V",
          "target": "invokevirtual \u003c Application, Landroid/media/MediaPlayer, reset()V \u003e@22",
          "type": "ui",
          "activities": [
            "com.interdenshi.android.CoffeeTime.Main"
          ],
          "listener": "com.interdenshi.android.CoffeeTime.Main$10",
          "listenerMethod": "onClick",
          "uiType": "onClick",
          "constraintsFile": "constraints18_0.py",
          "variables": {},
          "stringMap": {},
          "strings": {}
        }
      ]
    },
    "19": {
      "startMethod": "com.interdenshi.android.CoffeeTime.Main$10.onClick(Landroid/view/View;)V",
      "targetMethod": "android.media.MediaPlayer.release()V",
      "eventChain": [
        {
          "start": "com.interdenshi.android.CoffeeTime.Main$10.onClick(Landroid/view/View;)V",
          "target": "invokevirtual \u003c Application, Landroid/media/MediaPlayer, release()V \u003e@30",
          "type": "ui",
          "activities": [
            "com.interdenshi.android.CoffeeTime.Main"
          ],
          "listener": "com.interdenshi.android.CoffeeTime.Main$10",
          "listenerMethod": "onClick",
          "uiType": "onClick",
          "constraintsFile": "constraints19_0.py",
          "variables": {},
          "stringMap": {},
          "strings": {}
        }
      ]
    },
    "20": {
      "startMethod": "com.interdenshi.android.CoffeeTime.Main$1.onClick(Landroid/view/View;)V",
      "targetMethod": "android.media.MediaPlayer.stop()V",
      "eventChain": [
        {
          "start": "com.interdenshi.android.CoffeeTime.Main.onCreate(Landroid/os/Bundle;)V",
          "target": "invokeinterface \u003c Application, Landroid/content/SharedPreferences$Editor, putInt(Ljava/lang/String;I)Landroid/content/SharedPreferences$Editor; \u003e@75",
          "type": "activity",
          "component": "com.interdenshi.android.CoffeeTime.Main"
        },
        {
          "start": "com.interdenshi.android.CoffeeTime.Main$1.onClick(Landroid/view/View;)V",
          "target": "invokevirtual \u003c Application, Landroid/media/MediaPlayer, stop()V \u003e@14",
          "type": "ui",
          "activities": [
            "com.interdenshi.android.CoffeeTime.Main"
          ],
          "listener": "com.interdenshi.android.CoffeeTime.Main$1",
          "listenerMethod": "onClick",
          "uiType": "onClick",
          "constraintsFile": "constraints20_0.py",
          "variables": {
            "SharedPreferences\u003cOperationState\u003e": "IAAv0"
          },
          "stringMap": {},
          "strings": {}
        }
      ]
    },
    "21": {
      "startMethod": "com.interdenshi.android.CoffeeTime.Main$1.onClick(Landroid/view/View;)V",
      "targetMethod": "android.media.MediaPlayer.reset()V",
      "eventChain": [
        {
          "start": "com.interdenshi.android.CoffeeTime.Main.onCreate(Landroid/os/Bundle;)V",
          "target": "invokeinterface \u003c Application, Landroid/content/SharedPreferences$Editor, putInt(Ljava/lang/String;I)Landroid/content/SharedPreferences$Editor; \u003e@75",
          "type": "activity",
          "component": "com.interdenshi.android.CoffeeTime.Main"
        },
        {
          "start": "com.interdenshi.android.CoffeeTime.Main$1.onClick(Landroid/view/View;)V",
          "target": "invokevirtual \u003c Application, Landroid/media/MediaPlayer, reset()V \u003e@22",
          "type": "ui",
          "activities": [
            "com.interdenshi.android.CoffeeTime.Main"
          ],
          "listener": "com.interdenshi.android.CoffeeTime.Main$1",
          "listenerMethod": "onClick",
          "uiType": "onClick",
          "constraintsFile": "constraints21_0.py",
          "variables": {
            "SharedPreferences\u003cOperationState\u003e": "IAAv0"
          },
          "stringMap": {},
          "strings": {}
        }
      ]
    },
    "22": {
      "startMethod": "com.interdenshi.android.CoffeeTime.Main$1.onClick(Landroid/view/View;)V",
      "targetMethod": "android.media.MediaPlayer.start()V",
      "eventChain": [
        {
          "start": "com.interdenshi.android.CoffeeTime.Main.onCreate(Landroid/os/Bundle;)V",
          "target": "invokeinterface \u003c Application, Landroid/content/SharedPreferences$Editor, putInt(Ljava/lang/String;I)Landroid/content/SharedPreferences$Editor; \u003e@75",
          "type": "activity",
          "component": "com.interdenshi.android.CoffeeTime.Main"
        },
        {
          "start": "com.interdenshi.android.CoffeeTime.Main$9.onClick(Landroid/view/View;)V",
          "target": "invokeinterface \u003c Application, Landroid/content/SharedPreferences$Editor, putString(Ljava/lang/String;Ljava/lang/String;)Landroid/content/SharedPreferences$Editor; \u003e@821",
          "type": "ui",
          "activities": [
            "com.interdenshi.android.CoffeeTime.Main"
          ],
          "listener": "com.interdenshi.android.CoffeeTime.Main$9",
          "listenerMethod": "onClick",
          "uiType": "onClick",
          "constraintsFile": "constraints22_0.py",
          "variables": {},
          "stringMap": {},
          "strings": {}
        },
        {
          "start": "com.interdenshi.android.CoffeeTime.Main$1.onClick(Landroid/view/View;)V",
          "target": "invokevirtual \u003c Application, Landroid/media/MediaPlayer, start()V \u003e@177",
          "type": "ui",
          "activities": [
            "com.interdenshi.android.CoffeeTime.Main"
          ],
          "listener": "com.interdenshi.android.CoffeeTime.Main$1",
          "listenerMethod": "onClick",
          "uiType": "onClick",
          "constraintsFile": "constraints22_1.py",
          "variables": {
            "SharedPreferences\u003cSoundUri\u003e": "IAAv1",
            "SharedPreferences\u003cOperationState\u003e": "IAAv0"
          },
          "stringMap": {
            "7000": "",
            "7001": "default"
          },
          "strings": {
            "IAAv1": ""
          }
        }
      ]
    },
    "23": {
      "startMethod": "com.interdenshi.android.CoffeeTime.Main$1.onClick(Landroid/view/View;)V",
      "targetMethod": "android.app.NotificationManager.notify(ILandroid/app/Notification;)V",
      "eventChain": [
        {
          "start": "com.interdenshi.android.CoffeeTime.Main$9.onClick(Landroid/view/View;)V",
          "target": "invokeinterface \u003c Application, Landroid/content/SharedPreferences$Editor, putInt(Ljava/lang/String;I)Landroid/content/SharedPreferences$Editor; \u003e@351",
          "type": "ui",
          "activities": [
            "com.interdenshi.android.CoffeeTime.Main"
          ],
          "listener": "com.interdenshi.android.CoffeeTime.Main$9",
          "listenerMethod": "onClick",
          "uiType": "onClick",
          "constraintsFile": "constraints23_0.py",
          "variables": {},
          "stringMap": {
            "7000": ""
          },
          "strings": {}
        },
        {
          "start": "com.interdenshi.android.CoffeeTime.Main.onCreate(Landroid/os/Bundle;)V",
          "target": "invokeinterface \u003c Application, Landroid/content/SharedPreferences$Editor, putInt(Ljava/lang/String;I)Landroid/content/SharedPreferences$Editor; \u003e@75",
          "type": "activity",
          "component": "com.interdenshi.android.CoffeeTime.Main"
        },
        {
          "start": "com.interdenshi.android.CoffeeTime.Main$13.onClick(Landroid/view/View;)V",
          "target": "invokeinterface \u003c Application, Landroid/content/SharedPreferences$Editor, putBoolean(Ljava/lang/String;Z)Landroid/content/SharedPreferences$Editor; \u003e@154",
          "type": "ui",
          "activities": [
            "com.interdenshi.android.CoffeeTime.Main"
          ],
          "listener": "com.interdenshi.android.CoffeeTime.Main$13",
          "listenerMethod": "onClick",
          "uiType": "onClick",
          "constraintsFile": "constraints23_1.py",
          "variables": {
            "SharedPreferences\u003cNotificationPopup\u003e": "IAAv0"
          },
          "stringMap": {},
          "strings": {}
        },
        {
          "start": "com.interdenshi.android.CoffeeTime.Main$1.onClick(Landroid/view/View;)V",
          "target": "invokevirtual \u003c Application, Landroid/app/NotificationManager, notify(ILandroid/app/Notification;)V \u003e@720",
          "type": "ui",
          "activities": [
            "com.interdenshi.android.CoffeeTime.Main"
          ],
          "listener": "com.interdenshi.android.CoffeeTime.Main$1",
          "listenerMethod": "onClick",
          "uiType": "onClick",
          "constraintsFile": "constraints23_2.py",
          "variables": {
            "SharedPreferences\u003cNotificationPopup\u003e": "IAAv2",
            "SharedPreferences\u003cBreakInterval\u003e": "IAAv1",
            "SharedPreferences\u003cOperationState\u003e": "IAAv0"
          },
          "stringMap": {},
          "strings": {}
        }
      ]
    },
    "24": {
      "startMethod": "com.interdenshi.android.CoffeeTime.Main$1.onClick(Landroid/view/View;)V",
      "targetMethod": "android.media.MediaPlayer.release()V",
      "eventChain": [
        {
          "start": "com.interdenshi.android.CoffeeTime.Main.onCreate(Landroid/os/Bundle;)V",
          "target": "invokeinterface \u003c Application, Landroid/content/SharedPreferences$Editor, putInt(Ljava/lang/String;I)Landroid/content/SharedPreferences$Editor; \u003e@75",
          "type": "activity",
          "component": "com.interdenshi.android.CoffeeTime.Main"
        },
        {
          "start": "com.interdenshi.android.CoffeeTime.Main$1.onClick(Landroid/view/View;)V",
          "target": "invokevirtual \u003c Application, Landroid/media/MediaPlayer, release()V \u003e@30",
          "type": "ui",
          "activities": [
            "com.interdenshi.android.CoffeeTime.Main"
          ],
          "listener": "com.interdenshi.android.CoffeeTime.Main$1",
          "listenerMethod": "onClick",
          "uiType": "onClick",
          "constraintsFile": "constraints24_0.py",
          "variables": {
            "SharedPreferences\u003cOperationState\u003e": "IAAv0"
          },
          "stringMap": {},
          "strings": {}
        }
      ]
    },
    "25": {
      "startMethod": "com.interdenshi.android.CoffeeTime.Main$1.onClick(Landroid/view/View;)V",
      "targetMethod": "android.os.Vibrator.vibrate([JI)V",
      "eventChain": [
        {
          "start": "com.interdenshi.android.CoffeeTime.Main$11.onClick(Landroid/view/View;)V",
          "target": "invokeinterface \u003c Application, Landroid/content/SharedPreferences$Editor, putBoolean(Ljava/lang/String;Z)Landroid/content/SharedPreferences$Editor; \u003e@145",
          "type": "ui",
          "activities": [
            "com.interdenshi.android.CoffeeTime.Main"
          ],
          "listener": "com.interdenshi.android.CoffeeTime.Main$11",
          "listenerMethod": "onClick",
          "uiType": "onClick",
          "constraintsFile": "constraints25_0.py",
          "variables": {
            "SharedPreferences\u003cNotificationVibe\u003e": "IAAv0"
          },
          "stringMap": {},
          "strings": {}
        },
        {
          "start": "com.interdenshi.android.CoffeeTime.Main.onCreate(Landroid/os/Bundle;)V",
          "target": "invokeinterface \u003c Application, Landroid/content/SharedPreferences$Editor, putInt(Ljava/lang/String;I)Landroid/content/SharedPreferences$Editor; \u003e@75",
          "type": "activity",
          "component": "com.interdenshi.android.CoffeeTime.Main"
        },
        {
          "start": "com.interdenshi.android.CoffeeTime.Main$9.onClick(Landroid/view/View;)V",
          "target": "invokeinterface \u003c Application, Landroid/content/SharedPreferences$Editor, putString(Ljava/lang/String;Ljava/lang/String;)Landroid/content/SharedPreferences$Editor; \u003e@821",
          "type": "ui",
          "activities": [
            "com.interdenshi.android.CoffeeTime.Main"
          ],
          "listener": "com.interdenshi.android.CoffeeTime.Main$9",
          "listenerMethod": "onClick",
          "uiType": "onClick",
          "constraintsFile": "constraints25_1.py",
          "variables": {},
          "stringMap": {},
          "strings": {}
        },
        {
          "start": "com.interdenshi.android.CoffeeTime.Main$1.onClick(Landroid/view/View;)V",
          "target": "invokevirtual \u003c Application, Landroid/os/Vibrator, vibrate([JI)V \u003e@298",
          "type": "ui",
          "activities": [
            "com.interdenshi.android.CoffeeTime.Main"
          ],
          "listener": "com.interdenshi.android.CoffeeTime.Main$1",
          "listenerMethod": "onClick",
          "uiType": "onClick",
          "constraintsFile": "constraints25_2.py",
          "variables": {
            "SharedPreferences\u003cSoundUri\u003e": "IAAv1",
            "SharedPreferences\u003cOperationState\u003e": "IAAv0",
            "SharedPreferences\u003cNotificationVibe\u003e": "IAAv4"
          },
          "stringMap": {
            "7000": "",
            "7001": "default"
          },
          "strings": {
            "IAAv1": ""
          }
        }
      ]
    },
    "26": {
      "startMethod": "com.interdenshi.android.CoffeeTime.Main$9.onClick(Landroid/view/View;)V",
      "targetMethod": "android.media.MediaPlayer.release()V",
      "eventChain": [
        {
          "start": "com.interdenshi.android.CoffeeTime.Main$9.onClick(Landroid/view/View;)V",
          "target": "invokevirtual \u003c Application, Landroid/media/MediaPlayer, release()V \u003e@30",
          "type": "ui",
          "activities": [
            "com.interdenshi.android.CoffeeTime.Main"
          ],
          "listener": "com.interdenshi.android.CoffeeTime.Main$9",
          "listenerMethod": "onClick",
          "uiType": "onClick",
          "constraintsFile": "constraints26_0.py",
          "variables": {},
          "stringMap": {},
          "strings": {}
        }
      ]
    },
    "27": {
      "startMethod": "com.interdenshi.android.CoffeeTime.Main$9.onClick(Landroid/view/View;)V",
      "targetMethod": "android.media.MediaPlayer.reset()V",
      "eventChain": [
        {
          "start": "com.interdenshi.android.CoffeeTime.Main$9.onClick(Landroid/view/View;)V",
          "target": "invokevirtual \u003c Application, Landroid/media/MediaPlayer, reset()V \u003e@22",
          "type": "ui",
          "activities": [
            "com.interdenshi.android.CoffeeTime.Main"
          ],
          "listener": "com.interdenshi.android.CoffeeTime.Main$9",
          "listenerMethod": "onClick",
          "uiType": "onClick",
          "constraintsFile": "constraints27_0.py",
          "variables": {},
          "stringMap": {},
          "strings": {}
        }
      ]
    },
    "28": {
      "startMethod": "com.interdenshi.android.CoffeeTime.Main$9.onClick(Landroid/view/View;)V",
      "targetMethod": "android.media.MediaPlayer.stop()V",
      "eventChain": [
        {
          "start": "com.interdenshi.android.CoffeeTime.Main$9.onClick(Landroid/view/View;)V",
          "target": "invokevirtual \u003c Application, Landroid/media/MediaPlayer, stop()V \u003e@14",
          "type": "ui",
          "activities": [
            "com.interdenshi.android.CoffeeTime.Main"
          ],
          "listener": "com.interdenshi.android.CoffeeTime.Main$9",
          "listenerMethod": "onClick",
          "uiType": "onClick",
          "constraintsFile": "constraints28_0.py",
          "variables": {},
          "stringMap": {},
          "strings": {}
        }
      ]
    },
    "29": {
      "startMethod": "com.interdenshi.android.CoffeeTime.Main$17.onLongClick(Landroid/view/View;)Z",
      "targetMethod": "android.media.MediaPlayer.start()V",
      "eventChain": [
        {
          "start": "com.interdenshi.android.CoffeeTime.Main$9.onClick(Landroid/view/View;)V",
          "target": "invokeinterface \u003c Application, Landroid/content/SharedPreferences$Editor, putString(Ljava/lang/String;Ljava/lang/String;)Landroid/content/SharedPreferences$Editor; \u003e@821",
          "type": "ui",
          "activities": [
            "com.interdenshi.android.CoffeeTime.Main"
          ],
          "listener": "com.interdenshi.android.CoffeeTime.Main$9",
          "listenerMethod": "onClick",
          "uiType": "onClick",
          "constraintsFile": "constraints29_0.py",
          "variables": {},
          "stringMap": {},
          "strings": {}
        },
        {
          "start": "com.interdenshi.android.CoffeeTime.Main$17.onLongClick(Landroid/view/View;)Z",
          "target": "invokevirtual \u003c Application, Landroid/media/MediaPlayer, start()V \u003e@177",
          "type": "ui",
          "activities": [
            "com.interdenshi.android.CoffeeTime.Main"
          ],
          "listener": "com.interdenshi.android.CoffeeTime.Main$17",
          "listenerMethod": "onLongClick",
          "uiType": "onLongClick",
          "constraintsFile": "constraints29_1.py",
          "variables": {
            "SharedPreferences\u003cSoundUri\u003e": "IAAv0"
          },
          "stringMap": {
            "7000": "",
            "7001": "default"
          },
          "strings": {
            "IAAv0": ""
          }
        }
      ]
    },
    "30": {
      "startMethod": "com.interdenshi.android.CoffeeTime.Main$17.onLongClick(Landroid/view/View;)Z",
      "targetMethod": "android.os.Vibrator.vibrate([JI)V",
      "eventChain": [
        {
          "start": "com.interdenshi.android.CoffeeTime.Main$11.onClick(Landroid/view/View;)V",
          "target": "invokeinterface \u003c Application, Landroid/content/SharedPreferences$Editor, putBoolean(Ljava/lang/String;Z)Landroid/content/SharedPreferences$Editor; \u003e@145",
          "type": "ui",
          "activities": [
            "com.interdenshi.android.CoffeeTime.Main"
          ],
          "listener": "com.interdenshi.android.CoffeeTime.Main$11",
          "listenerMethod": "onClick",
          "uiType": "onClick",
          "constraintsFile": "constraints30_0.py",
          "variables": {
            "SharedPreferences\u003cNotificationVibe\u003e": "IAAv0"
          },
          "stringMap": {},
          "strings": {}
        },
        {
          "start": "com.interdenshi.android.CoffeeTime.Main$9.onClick(Landroid/view/View;)V",
          "target": "invokeinterface \u003c Application, Landroid/content/SharedPreferences$Editor, putString(Ljava/lang/String;Ljava/lang/String;)Landroid/content/SharedPreferences$Editor; \u003e@821",
          "type": "ui",
          "activities": [
            "com.interdenshi.android.CoffeeTime.Main"
          ],
          "listener": "com.interdenshi.android.CoffeeTime.Main$9",
          "listenerMethod": "onClick",
          "uiType": "onClick",
          "constraintsFile": "constraints30_1.py",
          "variables": {},
          "stringMap": {},
          "strings": {}
        },
        {
          "start": "com.interdenshi.android.CoffeeTime.Main$17.onLongClick(Landroid/view/View;)Z",
          "target": "invokevirtual \u003c Application, Landroid/os/Vibrator, vibrate([JI)V \u003e@298",
          "type": "ui",
          "activities": [
            "com.interdenshi.android.CoffeeTime.Main"
          ],
          "listener": "com.interdenshi.android.CoffeeTime.Main$17",
          "listenerMethod": "onLongClick",
          "uiType": "onLongClick",
          "constraintsFile": "constraints30_2.py",
          "variables": {
            "SharedPreferences\u003cSoundUri\u003e": "IAAv0",
            "SharedPreferences\u003cNotificationVibe\u003e": "IAAv3"
          },
          "stringMap": {
            "7000": "",
            "7001": "default"
          },
          "strings": {
            "IAAv0": ""
          }
        }
      ]
    },
    "31": {
      "startMethod": "com.interdenshi.android.CoffeeTime.Main$17.onLongClick(Landroid/view/View;)Z",
      "targetMethod": "android.media.MediaPlayer.stop()V",
      "eventChain": [
        {
          "start": "com.interdenshi.android.CoffeeTime.Main$17.onLongClick(Landroid/view/View;)Z",
          "target": "invokevirtual \u003c Application, Landroid/media/MediaPlayer, stop()V \u003e@14",
          "type": "ui",
          "activities": [
            "com.interdenshi.android.CoffeeTime.Main"
          ],
          "listener": "com.interdenshi.android.CoffeeTime.Main$17",
          "listenerMethod": "onLongClick",
          "uiType": "onLongClick"
        }
      ]
    },
    "32": {
      "startMethod": "com.interdenshi.android.CoffeeTime.Main$17.onLongClick(Landroid/view/View;)Z",
      "targetMethod": "android.media.MediaPlayer.release()V",
      "eventChain": [
        {
          "start": "com.interdenshi.android.CoffeeTime.Main$17.onLongClick(Landroid/view/View;)Z",
          "target": "invokevirtual \u003c Application, Landroid/media/MediaPlayer, release()V \u003e@30",
          "type": "ui",
          "activities": [
            "com.interdenshi.android.CoffeeTime.Main"
          ],
          "listener": "com.interdenshi.android.CoffeeTime.Main$17",
          "listenerMethod": "onLongClick",
          "uiType": "onLongClick"
        }
      ]
    },
    "33": {
      "startMethod": "com.interdenshi.android.CoffeeTime.Main$17.onLongClick(Landroid/view/View;)Z",
      "targetMethod": "android.media.MediaPlayer.reset()V",
      "eventChain": [
        {
          "start": "com.interdenshi.android.CoffeeTime.Main$17.onLongClick(Landroid/view/View;)Z",
          "target": "invokevirtual \u003c Application, Landroid/media/MediaPlayer, reset()V \u003e@22",
          "type": "ui",
          "activities": [
            "com.interdenshi.android.CoffeeTime.Main"
          ],
          "listener": "com.interdenshi.android.CoffeeTime.Main$17",
          "listenerMethod": "onLongClick",
          "uiType": "onLongClick"
        }
      ]
    },
    "34": {
      "startMethod": "com.interdenshi.android.CoffeeTime.Main.onNewIntent(Landroid/content/Intent;)V",
      "targetMethod": "android.os.Vibrator.vibrate([JI)V",
      "eventChain": [
        {
          "start": "com.interdenshi.android.CoffeeTime.Main.onNewIntent(Landroid/content/Intent;)V",
          "target": "invokevirtual \u003c Application, Landroid/os/Vibrator, vibrate([JI)V \u003e@298",
          "type": "activity",
          "component": "com.interdenshi.android.CoffeeTime.Main",
          "constraintsFile": "constraints34_0.py",
          "variables": {
            "\u003cInput1\u003e.getStringExtra()": "IAAv0"
          },
          "stringMap": {
            "7000": "",
            "7001": "ALARM_START_WORK",
            "7002": "ALARM_START_BREAK"
          },
          "strings": {
            "IAAv0": ""
          }
        }
      ]
    },
    "35": {
      "startMethod": "com.interdenshi.android.CoffeeTime.Main.onNewIntent(Landroid/content/Intent;)V",
      "targetMethod": "android.media.MediaPlayer.stop()V",
      "eventChain": [
        {
          "start": "com.interdenshi.android.CoffeeTime.Main.onNewIntent(Landroid/content/Intent;)V",
          "target": "invokevirtual \u003c Application, Landroid/media/MediaPlayer, stop()V \u003e@14",
          "type": "activity",
          "component": "com.interdenshi.android.CoffeeTime.Main",
          "constraintsFile": "constraints35_0.py",
          "variables": {
            "\u003cInput1\u003e.getStringExtra()": "IAAv0"
          },
          "stringMap": {
            "7000": "",
            "7001": "ALARM_START_WORK"
          },
          "strings": {
            "IAAv0": ""
          }
        }
      ]
    },
    "36": {
      "startMethod": "com.interdenshi.android.CoffeeTime.Main.onNewIntent(Landroid/content/Intent;)V",
      "targetMethod": "android.media.MediaPlayer.start()V",
      "eventChain": [
        {
          "start": "com.interdenshi.android.CoffeeTime.Main.onNewIntent(Landroid/content/Intent;)V",
          "target": "invokevirtual \u003c Application, Landroid/media/MediaPlayer, start()V \u003e@177",
          "type": "activity",
          "component": "com.interdenshi.android.CoffeeTime.Main",
          "constraintsFile": "constraints36_0.py",
          "variables": {
            "\u003cInput1\u003e.getStringExtra()": "IAAv0"
          },
          "stringMap": {
            "7000": "",
            "7001": "ALARM_START_WORK",
            "7002": "ALARM_START_BREAK"
          },
          "strings": {
            "IAAv0": ""
          }
        }
      ]
    },
    "37": {
      "startMethod": "com.interdenshi.android.CoffeeTime.Main.onNewIntent(Landroid/content/Intent;)V",
      "targetMethod": "android.media.MediaPlayer.release()V",
      "eventChain": [
        {
          "start": "com.interdenshi.android.CoffeeTime.Main.onNewIntent(Landroid/content/Intent;)V",
          "target": "invokevirtual \u003c Application, Landroid/media/MediaPlayer, release()V \u003e@30",
          "type": "activity",
          "component": "com.interdenshi.android.CoffeeTime.Main",
          "constraintsFile": "constraints37_0.py",
          "variables": {
            "\u003cInput1\u003e.getStringExtra()": "IAAv0"
          },
          "stringMap": {
            "7000": "",
            "7001": "ALARM_START_WORK"
          },
          "strings": {
            "IAAv0": ""
          }
        }
      ]
    },
    "38": {
      "startMethod": "com.interdenshi.android.CoffeeTime.Main.onNewIntent(Landroid/content/Intent;)V",
      "targetMethod": "android.media.MediaPlayer.reset()V",
      "eventChain": [
        {
          "start": "com.interdenshi.android.CoffeeTime.Main.onNewIntent(Landroid/content/Intent;)V",
          "target": "invokevirtual \u003c Application, Landroid/media/MediaPlayer, reset()V \u003e@22",
          "type": "activity",
          "component": "com.interdenshi.android.CoffeeTime.Main",
          "constraintsFile": "constraints38_0.py",
          "variables": {
            "\u003cInput1\u003e.getStringExtra()": "IAAv0"
          },
          "stringMap": {
            "7000": "",
            "7001": "ALARM_START_WORK"
          },
          "strings": {
            "IAAv0": ""
          }
        }
      ]
    },
    "39": {
      "startMethod": "com.interdenshi.android.CoffeeTime.Main.onNewIntent(Landroid/content/Intent;)V",
      "targetMethod": "android.media.MediaPlayer.start()V",
      "eventChain": [
        {
          "start": "com.interdenshi.android.CoffeeTime.Main$9.onClick(Landroid/view/View;)V",
          "target": "invokeinterface \u003c Application, Landroid/content/SharedPreferences$Editor, putString(Ljava/lang/String;Ljava/lang/String;)Landroid/content/SharedPreferences$Editor; \u003e@550",
          "type": "ui",
          "activities": [
            "com.interdenshi.android.CoffeeTime.Main"
          ],
          "listener": "com.interdenshi.android.CoffeeTime.Main$9",
          "listenerMethod": "onClick",
          "uiType": "onClick",
          "constraintsFile": "constraints39_0.py",
          "variables": {},
          "stringMap": {},
          "strings": {}
        },
        {
          "start": "com.interdenshi.android.CoffeeTime.Main.onNewIntent(Landroid/content/Intent;)V",
          "target": "invokevirtual \u003c Application, Landroid/media/MediaPlayer, start()V \u003e@120",
          "type": "activity",
          "component": "com.interdenshi.android.CoffeeTime.Main",
          "constraintsFile": "constraints39_1.py",
          "variables": {
            "\u003cInput1\u003e.getStringExtra()": "IAAv0",
            "SharedPreferences\u003cMelodyUri\u003e": "IAAv4"
          },
          "stringMap": {
            "7000": "",
            "7001": "ALARM_START_WORK",
            "7002": "ALARM_START_BREAK"
          },
          "strings": {
            "IAAv4": "",
            "IAAv0": ""
          }
        }
      ]
    },
    "40": {
      "startMethod": "com.interdenshi.android.CoffeeTime.Main.onNewIntent(Landroid/content/Intent;)V",
      "targetMethod": "android.app.NotificationManager.notify(ILandroid/app/Notification;)V",
      "eventChain": [
        {
          "start": "com.interdenshi.android.CoffeeTime.Main.onNewIntent(Landroid/content/Intent;)V",
          "target": "invokevirtual \u003c Application, Landroid/app/NotificationManager, notify(ILandroid/app/Notification;)V \u003e@720",
          "type": "activity",
          "component": "com.interdenshi.android.CoffeeTime.Main",
          "constraintsFile": "constraints40_0.py",
          "variables": {
            "\u003cInput1\u003e.getStringExtra()": "IAAv0"
          },
          "stringMap": {
            "7000": "",
            "7001": "ALARM_START_WORK",
            "7002": "ALARM_START_BREAK"
          },
          "strings": {
            "IAAv0": ""
          }
        }
      ]
    }
  }
}