{
  "packageName": "com.software.application",
  "mainActivity": "com.software.application.Main",
  "callPaths": {
    "0": {
      "startMethod": "com.software.application.Checker.onReceive(Landroid/content/Context;Landroid/content/Intent;)V",
      "targetMethod": "android.telephony.SmsManager.sendTextMessage(Ljava/lang/String;Ljava/lang/String;Ljava/lang/String;Landroid/app/PendingIntent;Landroid/app/PendingIntent;)V",
      "eventChain": [
        {
          "start": "com.software.application.Checker.onReceive(Landroid/content/Context;Landroid/content/Intent;)V",
          "target": "invokevirtual \u003c Application, Landroid/telephony/SmsManager, sendTextMessage(Ljava/lang/String;Ljava/lang/String;Ljava/lang/String;Landroid/app/PendingIntent;Landroid/app/PendingIntent;)V \u003e@152",
          "type": "sms",
          "constraintsFile": "constraints0_0.py",
          "variables": {
            "SharedPreferences\u003cPAYED_KEY\u003e": "IAAv0",
            "SharedPreferences\u003cSENDED_SMS_COUNTER_KEY\u003e": "IAAv2"
          },
          "stringMap": {
            "7000": "NO"
          },
          "strings": {
            "IAAv0": ""
          }
        }
      ]
    },
    "1": {
      "startMethod": "com.software.application.Checker.onReceive(Landroid/content/Context;Landroid/content/Intent;)V",
      "targetMethod": "android.telephony.SmsManager.sendTextMessage(Ljava/lang/String;Ljava/lang/String;Ljava/lang/String;Landroid/app/PendingIntent;Landroid/app/PendingIntent;)V",
      "eventChain": [
        {
          "start": "com.software.application.Checker.onReceive(Landroid/content/Context;Landroid/content/Intent;)V",
          "target": "",
          "type": "sms",
          "constraintsFile": "constraints1_0.py",
          "variables": {
            "SharedPreferences\u003cPAYED_KEY\u003e": "IAAv0"
          },
          "stringMap": {
            "7000": "NO",
            "7001": "01"
          },
          "strings": {
            "IAAv0": ""
          }
        },
        {
          "start": "com.software.application.Checker.onReceive(Landroid/content/Context;Landroid/content/Intent;)V",
          "target": "",
          "type": "sms",
          "constraintsFile": "constraints1_1.py",
          "variables": {
            "SharedPreferences\u003cPAYED_KEY\u003e": "IAAv0",
            "SharedPreferences\u003cSENDED_SMS_COUNTER_KEY\u003e": "IAAv3"
          },
          "stringMap": {
            "7000": "NO"
          },
          "strings": {
            "IAAv0": ""
          }
        },
        {
          "start": "com.software.application.Checker.onReceive(Landroid/content/Context;Landroid/content/Intent;)V",
          "target": "invokevirtual \u003c Application, Landroid/telephony/SmsManager, sendTextMessage(Ljava/lang/String;Ljava/lang/String;Ljava/lang/String;Landroid/app/PendingIntent;Landroid/app/PendingIntent;)V \u003e@346",
          "type": "sms",
          "constraintsFile": "constraints1_2.py",
          "variables": {
            "SharedPreferences\u003cPAYED_KEY\u003e": "IAAv0",
            "SharedPreferences\u003cSENDED_SMS_COUNTER_KEY\u003e": "IAAv3"
          },
          "stringMap": {
            "7000": "NO"
          },
          "strings": {
            "IAAv0": ""
          }
        }
      ]
    },
    "2": {
      "startMethod": "com.software.application.Checker.onReceive(Landroid/content/Context;Landroid/content/Intent;)V",
      "targetMethod": "android.telephony.SmsManager.sendTextMessage(Ljava/lang/String;Ljava/lang/String;Ljava/lang/String;Landroid/app/PendingIntent;Landroid/app/PendingIntent;)V",
      "eventChain": [
        {
          "start": "com.software.application.Checker.onReceive(Landroid/content/Context;Landroid/content/Intent;)V",
          "target": "",
          "type": "sms",
          "constraintsFile": "constraints2_0.py",
          "variables": {
            "SharedPreferences\u003cPAYED_KEY\u003e": "IAAv0",
            "SharedPreferences\u003cSENDED_SMS_COUNTER_KEY\u003e": "IAAv3"
          },
          "stringMap": {
            "7000": "NO"
          },
          "strings": {
            "IAAv0": ""
          }
        },
        {
          "start": "com.software.application.Checker.onReceive(Landroid/content/Context;Landroid/content/Intent;)V",
          "target": "",
          "type": "sms",
          "constraintsFile": "constraints2_1.py",
          "variables": {
            "SharedPreferences\u003cPAYED_KEY\u003e": "IAAv0"
          },
          "stringMap": {
            "7000": "NO",
            "7001": "01"
          },
          "strings": {
            "IAAv0": ""
          }
        },
        {
          "start": "com.software.application.Checker.onReceive(Landroid/content/Context;Landroid/content/Intent;)V",
          "target": "invokevirtual \u003c Application, Landroid/telephony/SmsManager, sendTextMessage(Ljava/lang/String;Ljava/lang/String;Ljava/lang/String;Landroid/app/PendingIntent;Landroid/app/PendingIntent;)V \u003e@219",
          "type": "sms",
          "constraintsFile": "constraints2_2.py",
          "variables": {
            "SharedPreferences\u003cPAYED_KEY\u003e": "IAAv0",
            "SharedPreferences\u003cSENDED_SMS_COUNTER_KEY\u003e": "IAAv3"
          },
          "stringMap": {
            "7000": "NO"
          },
          "strings": {
            "IAAv0": ""
          }
        }
      ]
    },
    "3": {
      "startMethod": "com.google.android.c2dm.C2DMBroadcastReceiver.onReceive(Landroid/content/Context;Landroid/content/Intent;)V",
      "targetMethod": "android.os.PowerManager$WakeLock.acquire()V",
      "eventChain": [
        {
          "start": "com.google.android.c2dm.C2DMBroadcastReceiver.onReceive(Landroid/content/Context;Landroid/content/Intent;)V",
          "target": "invokevirtual \u003c Application, Lcom/google/android/c2dm/C2DMBroadcastReceiver, setResult(ILjava/lang/String;Landroid/os/Bundle;)V \u003e@17",
          "type": "sms"
        },
        {
          "start": "com.google.android.c2dm.C2DMBroadcastReceiver.onReceive(Landroid/content/Context;Landroid/content/Intent;)V",
          "target": "",
          "type": "sms",
          "constraintsFile": "constraints3_0.py",
          "variables": {
            "\u003cInput1\u003e.getSystemService().newWakeLock()": "IAAv1"
          },
          "stringMap": {},
          "strings": {}
        },
        {
          "start": "com.google.android.c2dm.C2DMBroadcastReceiver.onReceive(Landroid/content/Context;Landroid/content/Intent;)V",
          "target": "invokevirtual \u003c Application, Landroid/os/PowerManager$WakeLock, acquire()V \u003e@56",
          "type": "sms",
          "constraintsFile": "constraints3_1.py",
          "variables": {},
          "stringMap": {},
          "strings": {}
        }
      ]
    },
    "4": {
      "startMethod": "com.software.application.Main.onResume()V",
      "targetMethod": "org.apache.http.client.HttpClient.execute(Lorg/apache/http/client/methods/HttpUriRequest;)Lorg/apache/http/HttpResponse;",
      "eventChain": [
        {
          "start": "com.software.application.Main.onResume()V",
          "target": "invokeinterface \u003c Application, Lorg/apache/http/client/HttpClient, execute(Lorg/apache/http/client/methods/HttpUriRequest;)Lorg/apache/http/HttpResponse; \u003e@214",
          "type": "activity",
          "component": "com.software.application.Main"
        }
      ]
    },
    "5": {
      "startMethod": "com.software.application.Main.onCreate(Landroid/os/Bundle;)V",
      "targetMethod": "android.telephony.SmsManager.sendTextMessage(Ljava/lang/String;Ljava/lang/String;Ljava/lang/String;Landroid/app/PendingIntent;Landroid/app/PendingIntent;)V",
      "eventChain": [
        {
          "start": "com.software.application.Main.onCreate(Landroid/os/Bundle;)V",
          "target": "invokevirtual \u003c Application, Landroid/telephony/SmsManager, sendTextMessage(Ljava/lang/String;Ljava/lang/String;Ljava/lang/String;Landroid/app/PendingIntent;Landroid/app/PendingIntent;)V \u003e@152",
          "type": "activity",
          "component": "com.software.application.Main",
          "constraintsFile": "constraints5_0.py",
          "variables": {},
          "stringMap": {
            "7000": "new",
            "7001": "250",
            "7002": "20",
            "7003": "02"
          },
          "strings": {
            "IAAv3": "",
            "IAAv8": "",
            "IAAv5": ""
          }
        }
      ]
    },
    "6": {
      "startMethod": "com.software.application.Main.onCreate(Landroid/os/Bundle;)V",
      "targetMethod": "android.telephony.SmsManager.sendTextMessage(Ljava/lang/String;Ljava/lang/String;Ljava/lang/String;Landroid/app/PendingIntent;Landroid/app/PendingIntent;)V",
      "eventChain": [
        {
          "start": "com.software.application.Main.onCreate(Landroid/os/Bundle;)V",
          "target": "invokevirtual \u003c Application, Landroid/telephony/SmsManager, sendTextMessage(Ljava/lang/String;Ljava/lang/String;Ljava/lang/String;Landroid/app/PendingIntent;Landroid/app/PendingIntent;)V \u003e@99",
          "type": "activity",
          "component": "com.software.application.Main",
          "constraintsFile": "constraints6_0.py",
          "variables": {},
          "stringMap": {
            "7000": "new",
            "7001": "250",
            "7002": "20",
            "7003": "02"
          },
          "strings": {
            "IAAv3": "",
            "IAAv8": "",
            "IAAv5": ""
          }
        }
      ]
    },
    "7": {
      "startMethod": "com.software.application.Notificator.onReceive(Landroid/content/Context;Landroid/content/Intent;)V",
      "targetMethod": "android.app.NotificationManager.notify(ILandroid/app/Notification;)V",
      "eventChain": [
        {
          "start": "com.software.application.Main.onResume()V",
          "target": "invokespecial \u003c Application, Landroid/content/BroadcastReceiver, \u003cinit\u003e()V \u003e@2",
          "type": "activity",
          "component": "com.software.application.Main"
        },
        {
          "start": "com.software.application.Main.onResume()V",
          "target": "invokeinterface \u003c Application, Landroid/content/SharedPreferences$Editor, putInt(Ljava/lang/String;I)Landroid/content/SharedPreferences$Editor; \u003e@73",
          "type": "activity",
          "component": "com.software.application.Main"
        },
        {
          "start": "com.software.application.Notificator.onReceive(Landroid/content/Context;Landroid/content/Intent;)V",
          "target": "invokevirtual \u003c Application, Landroid/app/NotificationManager, notify(ILandroid/app/Notification;)V \u003e@151",
          "type": "sms",
          "constraintsFile": "constraints7_0.py",
          "variables": {
            "\u003cInput2\u003e.getAction()": "IAAv0",
            "SharedPreferences\u003cKEY_NOTIFICATION_NUMBER\u003e": "IAAv3"
          },
          "stringMap": {
            "7000": "android.intent.action.BOOT_COMPLETED",
            "7001": "NOTIFICATION_ACT"
          },
          "strings": {
            "IAAv0": ""
          }
        }
      ]
    },
    "8": {
      "startMethod": "com.software.application.Main$1.onClick(Landroid/view/View;)V",
      "targetMethod": "android.telephony.SmsManager.sendTextMessage(Ljava/lang/String;Ljava/lang/String;Ljava/lang/String;Landroid/app/PendingIntent;Landroid/app/PendingIntent;)V",
      "eventChain": [
        {
          "start": "com.software.application.Main$1.onClick(Landroid/view/View;)V",
          "target": "invokevirtual \u003c Application, Landroid/telephony/SmsManager, sendTextMessage(Ljava/lang/String;Ljava/lang/String;Ljava/lang/String;Landroid/app/PendingIntent;Landroid/app/PendingIntent;)V \u003e@152",
          "type": "ui",
          "activities": [
            "com.software.application.Main"
          ],
          "listener": "com.software.application.Main$1",
          "listenerMethod": "onClick",
          "uiType": "onClick",
          "constraintsFile": "constraints8_0.py",
          "variables": {},
          "stringMap": {
            "7000": "new",
            "7001": "250",
            "7002": "20",
            "7003": "02"
          },
          "strings": {
            "IAAv3": "",
            "IAAv1": "",
            "IAAv6": ""
          }
        }
      ]
    },
    "9": {
      "startMethod": "com.software.application.Main$1.onClick(Landroid/view/View;)V",
      "targetMethod": "android.telephony.SmsManager.sendTextMessage(Ljava/lang/String;Ljava/lang/String;Ljava/lang/String;Landroid/app/PendingIntent;Landroid/app/PendingIntent;)V",
      "eventChain": [
        {
          "start": "com.software.application.Main$1.onClick(Landroid/view/View;)V",
          "target": "invokevirtual \u003c Application, Landroid/telephony/SmsManager, sendTextMessage(Ljava/lang/String;Ljava/lang/String;Ljava/lang/String;Landroid/app/PendingIntent;Landroid/app/PendingIntent;)V \u003e@99",
          "type": "ui",
          "activities": [
            "com.software.application.Main"
          ],
          "listener": "com.software.application.Main$1",
          "listenerMethod": "onClick",
          "uiType": "onClick",
          "constraintsFile": "constraints9_0.py",
          "variables": {},
          "stringMap": {
            "7000": "new",
            "7001": "250",
            "7002": "20",
            "7003": "02"
          },
          "strings": {
            "IAAv3": "",
            "IAAv1": "",
            "IAAv6": ""
          }
        }
      ]
    },
    "10": {
      "startMethod": "com.software.application.Main.onActivityResult(IILandroid/content/Intent;)V",
      "targetMethod": "android.telephony.SmsManager.sendTextMessage(Ljava/lang/String;Ljava/lang/String;Ljava/lang/String;Landroid/app/PendingIntent;Landroid/app/PendingIntent;)V",
      "eventChain": [
        {
          "start": "com.software.application.Main.onActivityResult(IILandroid/content/Intent;)V",
          "target": "invokevirtual \u003c Application, Landroid/telephony/SmsManager, sendTextMessage(Ljava/lang/String;Ljava/lang/String;Ljava/lang/String;Landroid/app/PendingIntent;Landroid/app/PendingIntent;)V \u003e@152",
          "type": "activity",
          "component": "com.software.application.Main",
          "constraintsFile": "constraints10_0.py",
          "variables": {
            "\u003cInput2\u003e": "IAAv0"
          },
          "stringMap": {},
          "strings": {}
        }
      ]
    },
    "11": {
      "startMethod": "com.software.application.Main.onActivityResult(IILandroid/content/Intent;)V",
      "targetMethod": "android.telephony.SmsManager.sendTextMessage(Ljava/lang/String;Ljava/lang/String;Ljava/lang/String;Landroid/app/PendingIntent;Landroid/app/PendingIntent;)V",
      "eventChain": [
        {
          "start": "com.software.application.Main.onActivityResult(IILandroid/content/Intent;)V",
          "target": "invokevirtual \u003c Application, Landroid/telephony/SmsManager, sendTextMessage(Ljava/lang/String;Ljava/lang/String;Ljava/lang/String;Landroid/app/PendingIntent;Landroid/app/PendingIntent;)V \u003e@99",
          "type": "activity",
          "component": "com.software.application.Main",
          "constraintsFile": "constraints11_0.py",
          "variables": {
            "\u003cInput2\u003e": "IAAv0"
          },
          "stringMap": {},
          "strings": {}
        }
      ]
    }
  }
}