{
  "packageName": "ru.jabox.android.smsbox.jokebox",
  "mainActivity": "ru.jabox.android.smsbox.activity.StartupActivity",
  "callPaths": {
    "0": {
      "startMethod": "ru.jabox.android.smsbox.activity.StartupActivity.onCreate(Landroid/os/Bundle;)V",
      "targetMethod": "org.apache.http.client.HttpClient.execute(Lorg/apache/http/client/methods/HttpUriRequest;)Lorg/apache/http/HttpResponse;",
      "eventChain": [
        {
          "start": "ru.jabox.android.smsbox.activity.u.onClick(Landroid/content/DialogInterface;I)V",
          "target": "invokeinterface \u003c Application, Landroid/content/SharedPreferences$Editor, putBoolean(Ljava/lang/String;Z)Landroid/content/SharedPreferences$Editor; \u003e@59",
          "type": "ui",
          "activities": [
            "ru.jabox.android.smsbox.activity.StartupActivity"
          ],
          "listener": "ru.jabox.android.smsbox.activity.u",
          "listenerMethod": "onClick",
          "uiType": "onClick",
          "inDialog": "true"
        },
        {
          "start": "ru.jabox.android.smsbox.activity.StartupActivity.onCreate(Landroid/os/Bundle;)V",
          "target": "PC@142",
          "type": "activity",
          "component": "ru.jabox.android.smsbox.activity.StartupActivity"
        },
        {
          "start": "ru.jabox.android.smsbox.activity.StartupActivity.onCreate(Landroid/os/Bundle;)V",
          "target": "invokeinterface \u003c Application, Lorg/apache/http/client/HttpClient, execute(Lorg/apache/http/client/methods/HttpUriRequest;)Lorg/apache/http/HttpResponse; \u003e@82",
          "type": "activity",
          "component": "ru.jabox.android.smsbox.activity.StartupActivity",
          "constraintsFile": "constraints0_0.py",
          "variables": {
            "SharedPreferences\u003cupdate_enabled\u003e": "IAAv1"
          },
          "stringMap": {
            "7000": "update_last_check_time"
          },
          "strings": {}
        }
      ]
    },
    "1": {
      "startMethod": "ru.jabox.android.smsbox.activity.q.onPreferenceClick(Landroid/preference/Preference;)Z",
      "targetMethod": "org.apache.http.client.HttpClient.execute(Lorg/apache/http/client/methods/HttpUriRequest;)Lorg/apache/http/HttpResponse;",
      "eventChain": [
        {
          "start": "ru.jabox.android.smsbox.activity.q.onPreferenceClick(Landroid/preference/Preference;)Z",
          "target": "invokeinterface \u003c Application, Lorg/apache/http/client/HttpClient, execute(Lorg/apache/http/client/methods/HttpUriRequest;)Lorg/apache/http/HttpResponse; \u003e@82",
          "type": ""
        }
      ]
    },
    "2": {
      "startMethod": "ru.jabox.android.smsbox.activity.b.onClick(Landroid/content/DialogInterface;I)V",
      "targetMethod": "java.lang.reflect.Method.invoke(Ljava/lang/Object;[Ljava/lang/Object;)Ljava/lang/Object;",
      "eventChain": [
        {
          "start": "ru.jabox.android.smsbox.activity.b.onClick(Landroid/content/DialogInterface;I)V",
          "target": "invokevirtual \u003c Application, Ljava/lang/reflect/Method, invoke(Ljava/lang/Object;[Ljava/lang/Object;)Ljava/lang/Object; \u003e@130",
          "type": "ui",
          "activities": [
            "ru.jabox.android.smsbox.activity.StartupActivity"
          ],
          "listener": "ru.jabox.android.smsbox.activity.b",
          "listenerMethod": "onClick",
          "uiType": "onClick",
          "inDialog": "true",
          "constraintsFile": "constraints2_0.py",
          "variables": {},
          "stringMap": {},
          "strings": {}
        }
      ]
    },
    "3": {
      "startMethod": "ru.jabox.android.smsbox.activity.b.onClick(Landroid/content/DialogInterface;I)V",
      "targetMethod": "java.lang.reflect.Method.invoke(Ljava/lang/Object;[Ljava/lang/Object;)Ljava/lang/Object;",
      "eventChain": [
        {
          "start": "ru.jabox.android.smsbox.activity.b.onClick(Landroid/content/DialogInterface;I)V",
          "target": "invokevirtual \u003c Application, Ljava/lang/reflect/Method, invoke(Ljava/lang/Object;[Ljava/lang/Object;)Ljava/lang/Object; \u003e@60",
          "type": "ui",
          "activities": [
            "ru.jabox.android.smsbox.activity.StartupActivity"
          ],
          "listener": "ru.jabox.android.smsbox.activity.b",
          "listenerMethod": "onClick",
          "uiType": "onClick",
          "inDialog": "true",
          "constraintsFile": "constraints3_0.py",
          "variables": {},
          "stringMap": {},
          "strings": {}
        }
      ]
    },
    "4": {
      "startMethod": "ru.jabox.android.smsbox.activity.b.onClick(Landroid/content/DialogInterface;I)V",
      "targetMethod": "java.lang.reflect.Method.invoke(Ljava/lang/Object;[Ljava/lang/Object;)Ljava/lang/Object;",
      "eventChain": [
        {
          "start": "ru.jabox.android.smsbox.activity.b.onClick(Landroid/content/DialogInterface;I)V",
          "target": "PC@18",
          "type": "ui",
          "activities": [
            "ru.jabox.android.smsbox.activity.StartupActivity"
          ],
          "listener": "ru.jabox.android.smsbox.activity.b",
          "listenerMethod": "onClick",
          "uiType": "onClick",
          "inDialog": "true",
          "constraintsFile": "constraints4_0.py",
          "variables": {},
          "stringMap": {},
          "strings": {}
        },
        {
          "start": "ru.jabox.android.smsbox.activity.b.onClick(Landroid/content/DialogInterface;I)V",
          "target": "invokevirtual \u003c Application, Ljava/lang/reflect/Method, invoke(Ljava/lang/Object;[Ljava/lang/Object;)Ljava/lang/Object; \u003e@696",
          "type": "ui",
          "activities": [
            "ru.jabox.android.smsbox.activity.StartupActivity"
          ],
          "listener": "ru.jabox.android.smsbox.activity.b",
          "listenerMethod": "onClick",
          "uiType": "onClick",
          "inDialog": "true",
          "constraintsFile": "constraints4_1.py",
          "variables": {},
          "stringMap": {},
          "strings": {}
        }
      ]
    }
  }
}