{
  "packageName": "com.myquan.aajizhang",
  "mainActivity": "com.myquan.aajizhang.activity.Welcome",
  "callPaths": {
    "0": {
      "startMethod": "com.myquan.aajizhang.activity.MainActivity.onRestart()V",
      "targetMethod": "org.apache.http.client.HttpClient.execute(Lorg/apache/http/client/methods/HttpUriRequest;)Lorg/apache/http/HttpResponse;",
      "eventChain": [
        {
          "start": "com.myquan.aajizhang.activity.MainActivity.onRestart()V",
          "target": "",
          "type": "activity",
          "component": "com.myquan.aajizhang.activity.MainActivity",
          "constraintsFile": "constraints0_0.py",
          "variables": {},
          "stringMap": {},
          "strings": {}
        },
        {
          "start": "com.myquan.aajizhang.activity.MainActivity.onRestart()V",
          "target": "invokeinterface \u003c Application, Lorg/apache/http/client/HttpClient, execute(Lorg/apache/http/client/methods/HttpUriRequest;)Lorg/apache/http/HttpResponse; \u003e@75",
          "type": "activity",
          "component": "com.myquan.aajizhang.activity.MainActivity",
          "constraintsFile": "constraints0_1.py",
          "variables": {},
          "stringMap": {},
          "strings": {}
        }
      ]
    },
    "1": {
      "startMethod": "com.myquan.aajizhang.activity.BrowseOtherBill.onClick(Landroid/view/View;)V",
      "targetMethod": "org.apache.http.client.HttpClient.execute(Lorg/apache/http/client/methods/HttpUriRequest;)Lorg/apache/http/HttpResponse;",
      "eventChain": [
        {
          "start": "com.myquan.aajizhang.activity.BrowseOtherBill.onClick(Landroid/view/View;)V",
          "target": "invokeinterface \u003c Application, Lorg/apache/http/client/HttpClient, execute(Lorg/apache/http/client/methods/HttpUriRequest;)Lorg/apache/http/HttpResponse; \u003e@75",
          "type": "ui",
          "activities": [
            "com.myquan.aajizhang.activity.Welcome"
          ],
          "listener": "android.view.View$1",
          "listenerMethod": "onClick",
          "uiType": "onClick",
          "constraintsFile": "constraints1_0.py",
          "variables": {
            "\u003cChainedInput1\u003e.getId()": "IAAv0"
          },
          "stringMap": {
            "7000": ""
          },
          "strings": {
            "IAAv1": ""
          }
        }
      ]
    },
    "2": {
      "startMethod": "com.umeng.api.activity.UpdateStatusActivity.onCreate(Landroid/os/Bundle;)V",
      "targetMethod": "org.apache.http.impl.client.DefaultHttpClient.execute(Lorg/apache/http/client/methods/HttpUriRequest;)Lorg/apache/http/HttpResponse;",
      "eventChain": [
        {
          "start": "com.umeng.api.activity.UpdateStatusActivity.onCreate(Landroid/os/Bundle;)V",
          "target": "",
          "type": "activity",
          "component": "com.umeng.api.activity.UpdateStatusActivity",
          "constraintsFile": "constraints2_0.py",
          "variables": {},
          "stringMap": {},
          "strings": {}
        },
        {
          "start": "com.umeng.api.activity.UpdateStatusActivity.onCreate(Landroid/os/Bundle;)V",
          "target": "invokevirtual \u003c Application, Lorg/apache/http/impl/client/DefaultHttpClient, execute(Lorg/apache/http/client/methods/HttpUriRequest;)Lorg/apache/http/HttpResponse; \u003e@432",
          "type": "activity",
          "component": "com.umeng.api.activity.UpdateStatusActivity",
          "constraintsFile": "constraints2_1.py",
          "variables": {},
          "stringMap": {},
          "strings": {}
        }
      ]
    },
    "3": {
      "startMethod": "com.umeng.api.activity.UpdateStatusActivity.onCreate(Landroid/os/Bundle;)V",
      "targetMethod": "org.apache.http.impl.client.DefaultHttpClient.execute(Lorg/apache/http/client/methods/HttpUriRequest;)Lorg/apache/http/HttpResponse;",
      "eventChain": [
        {
          "start": "com.umeng.api.activity.UpdateStatusActivity.onCreate(Landroid/os/Bundle;)V",
          "target": "invokevirtual \u003c Application, Lorg/apache/http/impl/client/DefaultHttpClient, execute(Lorg/apache/http/client/methods/HttpUriRequest;)Lorg/apache/http/HttpResponse; \u003e@29",
          "type": "activity",
          "component": "com.umeng.api.activity.UpdateStatusActivity",
          "constraintsFile": "constraints3_0.py",
          "variables": {},
          "stringMap": {},
          "strings": {}
        }
      ]
    },
    "4": {
      "startMethod": "com.umeng.api.activity.UpdateStatusActivity.onCreate(Landroid/os/Bundle;)V",
      "targetMethod": "org.apache.http.impl.client.DefaultHttpClient.execute(Lorg/apache/http/client/methods/HttpUriRequest;)Lorg/apache/http/HttpResponse;",
      "eventChain": [
        {
          "start": "com.umeng.api.activity.UpdateStatusActivity.onCreate(Landroid/os/Bundle;)V",
          "target": "",
          "type": "activity",
          "component": "com.umeng.api.activity.UpdateStatusActivity",
          "constraintsFile": "constraints4_0.py",
          "variables": {},
          "stringMap": {},
          "strings": {}
        },
        {
          "start": "com.myquan.aajizhang.activity.MainActivity$16.onClick(Landroid/view/View;)V",
          "target": "",
          "type": "ui",
          "activities": [
            "com.myquan.aajizhang.activity.Welcome"
          ],
          "listener": "android.view.View$1",
          "listenerMethod": "onClick",
          "uiType": "onClick",
          "constraintsFile": "constraints4_1.py",
          "variables": {},
          "stringMap": {},
          "strings": {}
        },
        {
          "start": "com.umeng.api.activity.UpdateStatusActivity.onCreate(Landroid/os/Bundle;)V",
          "target": "invokevirtual \u003c Application, Lorg/apache/http/impl/client/DefaultHttpClient, execute(Lorg/apache/http/client/methods/HttpUriRequest;)Lorg/apache/http/HttpResponse; \u003e@567",
          "type": "activity",
          "component": "com.umeng.api.activity.UpdateStatusActivity",
          "constraintsFile": "constraints4_2.py",
          "variables": {},
          "stringMap": {},
          "strings": {}
        }
      ]
    },
    "5": {
      "startMethod": "com.myquan.aajizhang.activity.MainActivity.onClick(Landroid/view/View;)V",
      "targetMethod": "org.apache.http.client.HttpClient.execute(Lorg/apache/http/client/methods/HttpUriRequest;)Lorg/apache/http/HttpResponse;",
      "eventChain": [
        {
          "start": "com.myquan.aajizhang.activity.MainActivity.onClick(Landroid/view/View;)V",
          "target": "invokeinterface \u003c Application, Lorg/apache/http/client/HttpClient, execute(Lorg/apache/http/client/methods/HttpUriRequest;)Lorg/apache/http/HttpResponse; \u003e@75",
          "type": "ui",
          "activities": [
            "com.myquan.aajizhang.activity.Welcome"
          ],
          "listener": "android.view.View$1",
          "listenerMethod": "onClick",
          "uiType": "onClick",
          "constraintsFile": "constraints5_0.py",
          "variables": {
            "\u003cInput1\u003e.getId()": "IAAv0"
          },
          "stringMap": {},
          "strings": {}
        }
      ]
    },
    "6": {
      "startMethod": "com.umeng.api.activity.UpdateStatusActivity.onStart()V",
      "targetMethod": "org.apache.http.impl.client.DefaultHttpClient.execute(Lorg/apache/http/client/methods/HttpUriRequest;)Lorg/apache/http/HttpResponse;",
      "eventChain": [
        {
          "start": "com.umeng.api.activity.UpdateStatusActivity.onStart()V",
          "target": "PC@26",
          "type": "activity",
          "component": "com.umeng.api.activity.UpdateStatusActivity",
          "constraintsFile": "constraints6_0.py",
          "variables": {
            "System.currentTimeMillis()": "IAAv10"
          },
          "stringMap": {},
          "strings": {}
        },
        {
          "start": "com.umeng.api.activity.UpdateStatusActivity.\u003cinit\u003e()V",
          "target": "PC@26",
          "type": "",
          "constraintsFile": "constraints6_1.py",
          "variables": {
            "System.currentTimeMillis()": "IAAv9"
          },
          "stringMap": {},
          "strings": {}
        },
        {
          "start": "com.umeng.api.activity.UpdateStatusActivity.onStart()V",
          "target": "PC@20",
          "type": "activity",
          "component": "com.umeng.api.activity.UpdateStatusActivity",
          "constraintsFile": "constraints6_2.py",
          "variables": {
            "System.currentTimeMillis()": "IAAv10"
          },
          "stringMap": {},
          "strings": {}
        },
        {
          "start": "com.umeng.api.activity.UpdateStatusActivity.onStart()V",
          "target": "invokevirtual \u003c Application, Lorg/apache/http/impl/client/DefaultHttpClient, execute(Lorg/apache/http/client/methods/HttpUriRequest;)Lorg/apache/http/HttpResponse; \u003e@279",
          "type": "activity",
          "component": "com.umeng.api.activity.UpdateStatusActivity",
          "constraintsFile": "constraints6_3.py",
          "variables": {
            "System.currentTimeMillis()": "IAAv11"
          },
          "stringMap": {},
          "strings": {}
        }
      ]
    },
    "7": {
      "startMethod": "com.umeng.api.activity.UpdateStatusActivity.onStart()V",
      "targetMethod": "org.apache.http.impl.client.DefaultHttpClient.execute(Lorg/apache/http/client/methods/HttpUriRequest;)Lorg/apache/http/HttpResponse;",
      "eventChain": [
        {
          "start": "com.umeng.api.activity.UpdateStatusActivity.\u003cinit\u003e()V",
          "target": "PC@26",
          "type": "",
          "constraintsFile": "constraints7_0.py",
          "variables": {},
          "stringMap": {},
          "strings": {}
        },
        {
          "start": "com.umeng.api.activity.UpdateStatusActivity.onStart()V",
          "target": "invokevirtual \u003c Application, Lorg/apache/http/impl/client/DefaultHttpClient, execute(Lorg/apache/http/client/methods/HttpUriRequest;)Lorg/apache/http/HttpResponse; \u003e@567",
          "type": "activity",
          "component": "com.umeng.api.activity.UpdateStatusActivity",
          "constraintsFile": "constraints7_1.py",
          "variables": {},
          "stringMap": {},
          "strings": {}
        }
      ]
    },
    "8": {
      "startMethod": "com.umeng.api.activity.UpdateStatusActivity.onStart()V",
      "targetMethod": "org.apache.http.impl.client.DefaultHttpClient.execute(Lorg/apache/http/client/methods/HttpUriRequest;)Lorg/apache/http/HttpResponse;",
      "eventChain": [
        {
          "start": "com.umeng.api.activity.UpdateStatusActivity.\u003cinit\u003e()V",
          "target": "PC@26",
          "type": "",
          "constraintsFile": "constraints8_0.py",
          "variables": {},
          "stringMap": {},
          "strings": {}
        },
        {
          "start": "com.umeng.api.activity.UpdateStatusActivity.onStart()V",
          "target": "invokevirtual \u003c Application, Lorg/apache/http/impl/client/DefaultHttpClient, execute(Lorg/apache/http/client/methods/HttpUriRequest;)Lorg/apache/http/HttpResponse; \u003e@432",
          "type": "activity",
          "component": "com.umeng.api.activity.UpdateStatusActivity",
          "constraintsFile": "constraints8_1.py",
          "variables": {},
          "stringMap": {},
          "strings": {}
        }
      ]
    },
    "9": {
      "startMethod": "com.umeng.api.activity.UpdateStatusActivity.onStart()V",
      "targetMethod": "org.apache.http.impl.client.DefaultHttpClient.execute(Lorg/apache/http/client/methods/HttpUriRequest;)Lorg/apache/http/HttpResponse;",
      "eventChain": [
        {
          "start": "com.umeng.api.activity.UpdateStatusActivity.\u003cinit\u003e()V",
          "target": "PC@26",
          "type": "",
          "constraintsFile": "constraints9_0.py",
          "variables": {},
          "stringMap": {},
          "strings": {}
        },
        {
          "start": "com.umeng.api.activity.UpdateStatusActivity.onStart()V",
          "target": "invokevirtual \u003c Application, Lorg/apache/http/impl/client/DefaultHttpClient, execute(Lorg/apache/http/client/methods/HttpUriRequest;)Lorg/apache/http/HttpResponse; \u003e@29",
          "type": "activity",
          "component": "com.umeng.api.activity.UpdateStatusActivity",
          "constraintsFile": "constraints9_1.py",
          "variables": {},
          "stringMap": {},
          "strings": {}
        }
      ]
    },
    "10": {
      "startMethod": "com.myquan.aajizhang.activity.Cloud.onCreate(Landroid/os/Bundle;)V",
      "targetMethod": "org.apache.http.client.HttpClient.execute(Lorg/apache/http/client/methods/HttpUriRequest;)Lorg/apache/http/HttpResponse;",
      "eventChain": [
        {
          "start": "com.myquan.aajizhang.activity.Cloud.onCreate(Landroid/os/Bundle;)V",
          "target": "invokeinterface \u003c Application, Lorg/apache/http/client/HttpClient, execute(Lorg/apache/http/client/methods/HttpUriRequest;)Lorg/apache/http/HttpResponse; \u003e@75",
          "type": "activity",
          "component": "com.myquan.aajizhang.activity.Cloud"
        }
      ]
    },
    "11": {
      "startMethod": "com.myquan.aajizhang.activity.MainActivity.onResume()V",
      "targetMethod": "java.lang.reflect.Method.invoke(Ljava/lang/Object;[Ljava/lang/Object;)Ljava/lang/Object;",
      "eventChain": [
        {
          "start": "com.myquan.aajizhang.activity.MainActivity.onResume()V",
          "target": "invokevirtual \u003c Application, Ljava/lang/reflect/Method, invoke(Ljava/lang/Object;[Ljava/lang/Object;)Ljava/lang/Object; \u003e@166",
          "type": "activity",
          "component": "com.myquan.aajizhang.activity.MainActivity"
        }
      ]
    },
    "12": {
      "startMethod": "com.myquan.aajizhang.activity.MainActivity.onResume()V",
      "targetMethod": "org.apache.http.client.HttpClient.execute(Lorg/apache/http/client/methods/HttpUriRequest;)Lorg/apache/http/HttpResponse;",
      "eventChain": [
        {
          "start": "com.myquan.aajizhang.activity.MainActivity.onResume()V",
          "target": "invokeinterface \u003c Application, Lorg/apache/http/client/HttpClient, execute(Lorg/apache/http/client/methods/HttpUriRequest;)Lorg/apache/http/HttpResponse; \u003e@309",
          "type": "activity",
          "component": "com.myquan.aajizhang.activity.MainActivity"
        }
      ]
    },
    "13": {
      "startMethod": "com.myquan.aajizhang.activity.MainActivity.onResume()V",
      "targetMethod": "java.lang.reflect.Method.invoke(Ljava/lang/Object;[Ljava/lang/Object;)Ljava/lang/Object;",
      "eventChain": [
        {
          "start": "com.myquan.aajizhang.activity.MainActivity.onResume()V",
          "target": "invokevirtual \u003c Application, Ljava/lang/reflect/Method, invoke(Ljava/lang/Object;[Ljava/lang/Object;)Ljava/lang/Object; \u003e@225",
          "type": "activity",
          "component": "com.myquan.aajizhang.activity.MainActivity"
        }
      ]
    },
    "14": {
      "startMethod": "com.myquan.aajizhang.activity.MainActivity.onCreate(Landroid/os/Bundle;)V",
      "targetMethod": "org.apache.http.client.HttpClient.execute(Lorg/apache/http/client/methods/HttpUriRequest;)Lorg/apache/http/HttpResponse;",
      "eventChain": [
        {
          "start": "com.myquan.aajizhang.activity.MainActivity.onCreate(Landroid/os/Bundle;)V",
          "target": "invokeinterface \u003c Application, Lorg/apache/http/client/HttpClient, execute(Lorg/apache/http/client/methods/HttpUriRequest;)Lorg/apache/http/HttpResponse; \u003e@128",
          "type": "activity",
          "component": "com.myquan.aajizhang.activity.MainActivity"
        }
      ]
    },
    "15": {
      "startMethod": "com.myquan.aajizhang.activity.MainActivity.onCreate(Landroid/os/Bundle;)V",
      "targetMethod": "org.apache.http.client.HttpClient.execute(Lorg/apache/http/client/methods/HttpUriRequest;)Lorg/apache/http/HttpResponse;",
      "eventChain": [
        {
          "start": "com.myquan.aajizhang.activity.MainActivity.onCreate(Landroid/os/Bundle;)V",
          "target": "invokeinterface \u003c Application, Lorg/apache/http/client/HttpClient, execute(Lorg/apache/http/client/methods/HttpUriRequest;)Lorg/apache/http/HttpResponse; \u003e@309",
          "type": "activity",
          "component": "com.myquan.aajizhang.activity.MainActivity"
        }
      ]
    },
    "16": {
      "startMethod": "com.myquan.aajizhang.activity.MainActivity.onCreate(Landroid/os/Bundle;)V",
      "targetMethod": "org.apache.http.client.HttpClient.execute(Lorg/apache/http/client/methods/HttpUriRequest;)Lorg/apache/http/HttpResponse;",
      "eventChain": [
        {
          "start": "com.myquan.aajizhang.activity.Login$2.onClick(Landroid/view/View;)V",
          "target": "invokeinterface \u003c Application, Landroid/content/SharedPreferences$Editor, putString(Ljava/lang/String;Ljava/lang/String;)Landroid/content/SharedPreferences$Editor; \u003e@114",
          "type": "ui",
          "activities": [
            "com.myquan.aajizhang.activity.Login"
          ],
          "listener": "android.view.View$1",
          "listenerMethod": "onClick",
          "uiType": "onClick",
          "constraintsFile": "constraints16_0.py",
          "variables": {},
          "stringMap": {},
          "strings": {}
        },
        {
          "start": "com.myquan.aajizhang.activity.MainActivity.onCreate(Landroid/os/Bundle;)V",
          "target": "invokeinterface \u003c Application, Lorg/apache/http/client/HttpClient, execute(Lorg/apache/http/client/methods/HttpUriRequest;)Lorg/apache/http/HttpResponse; \u003e@75",
          "type": "activity",
          "component": "com.myquan.aajizhang.activity.MainActivity",
          "constraintsFile": "constraints16_1.py",
          "variables": {
            "SharedPreferences\u003cToken\u003e": "IAAv0"
          },
          "stringMap": {
            "7000": ""
          },
          "strings": {
            "IAAv0": ""
          }
        }
      ]
    },
    "17": {
      "startMethod": "com.myquan.aajizhang.activity.MainActivity.onPause()V",
      "targetMethod": "java.lang.reflect.Method.invoke(Ljava/lang/Object;[Ljava/lang/Object;)Ljava/lang/Object;",
      "eventChain": [
        {
          "start": "com.myquan.aajizhang.activity.MainActivity.onPause()V",
          "target": "invokevirtual \u003c Application, Ljava/lang/reflect/Method, invoke(Ljava/lang/Object;[Ljava/lang/Object;)Ljava/lang/Object; \u003e@166",
          "type": "activity",
          "component": "com.myquan.aajizhang.activity.MainActivity"
        }
      ]
    },
    "18": {
      "startMethod": "com.myquan.aajizhang.activity.MainActivity.onPause()V",
      "targetMethod": "org.apache.http.client.HttpClient.execute(Lorg/apache/http/client/methods/HttpUriRequest;)Lorg/apache/http/HttpResponse;",
      "eventChain": [
        {
          "start": "com.myquan.aajizhang.activity.MainActivity.onPause()V",
          "target": "invokeinterface \u003c Application, Lorg/apache/http/client/HttpClient, execute(Lorg/apache/http/client/methods/HttpUriRequest;)Lorg/apache/http/HttpResponse; \u003e@309",
          "type": "activity",
          "component": "com.myquan.aajizhang.activity.MainActivity"
        }
      ]
    },
    "19": {
      "startMethod": "com.myquan.aajizhang.activity.MainActivity.onPause()V",
      "targetMethod": "java.lang.reflect.Method.invoke(Ljava/lang/Object;[Ljava/lang/Object;)Ljava/lang/Object;",
      "eventChain": [
        {
          "start": "com.myquan.aajizhang.activity.MainActivity.onPause()V",
          "target": "invokevirtual \u003c Application, Ljava/lang/reflect/Method, invoke(Ljava/lang/Object;[Ljava/lang/Object;)Ljava/lang/Object; \u003e@225",
          "type": "activity",
          "component": "com.myquan.aajizhang.activity.MainActivity"
        }
      ]
    },
    "20": {
      "startMethod": "com.mobclick.android.j.onClick(Landroid/content/DialogInterface;I)V",
      "targetMethod": "org.apache.http.client.HttpClient.execute(Lorg/apache/http/client/methods/HttpUriRequest;)Lorg/apache/http/HttpResponse;",
      "eventChain": [
        {
          "start": "com.myquan.aajizhang.activity.MainActivity.onResume()V",
          "target": "invokevirtual \u003c Application, Landroid/app/AlertDialog$Builder, setPositiveButton(Ljava/lang/CharSequence;Landroid/content/DialogInterface$OnClickListener;)Landroid/app/AlertDialog$Builder; \u003e@368",
          "type": "activity",
          "component": "com.myquan.aajizhang.activity.MainActivity"
        },
        {
          "start": "com.mobclick.android.j.onClick(Landroid/content/DialogInterface;I)V",
          "target": "invokeinterface \u003c Application, Lorg/apache/http/client/HttpClient, execute(Lorg/apache/http/client/methods/HttpUriRequest;)Lorg/apache/http/HttpResponse; \u003e@8",
          "type": "ui",
          "activities": [
            "com.myquan.aajizhang.activity.Welcome"
          ],
          "listener": "android.view.View$1",
          "listenerMethod": "onClick",
          "uiType": "onClick",
          "inDialog": "true"
        }
      ]
    },
    "21": {
      "startMethod": "com.myquan.aajizhang.activity.Setting$1.onClick(Landroid/content/DialogInterface;I)V",
      "targetMethod": "org.apache.http.client.HttpClient.execute(Lorg/apache/http/client/methods/HttpUriRequest;)Lorg/apache/http/HttpResponse;",
      "eventChain": [
        {
          "start": "com.myquan.aajizhang.activity.Setting.onClick(Landroid/view/View;)V",
          "target": "invokevirtual \u003c Application, Landroid/app/AlertDialog$Builder, setPositiveButton(Ljava/lang/CharSequence;Landroid/content/DialogInterface$OnClickListener;)Landroid/app/AlertDialog$Builder; \u003e@60",
          "type": "ui",
          "activities": [
            "com.myquan.aajizhang.activity.Welcome"
          ],
          "listener": "android.view.View$1",
          "listenerMethod": "onClick",
          "uiType": "onClick",
          "constraintsFile": "constraints21_0.py",
          "variables": {
            "\u003cInput1\u003e.getId()": "IAAv0"
          },
          "stringMap": {},
          "strings": {}
        },
        {
          "start": "com.myquan.aajizhang.activity.Setting$1.onClick(Landroid/content/DialogInterface;I)V",
          "target": "invokeinterface \u003c Application, Lorg/apache/http/client/HttpClient, execute(Lorg/apache/http/client/methods/HttpUriRequest;)Lorg/apache/http/HttpResponse; \u003e@75",
          "type": "ui",
          "activities": [
            "com.myquan.aajizhang.activity.Welcome"
          ],
          "listener": "android.view.View$1",
          "listenerMethod": "onClick",
          "uiType": "onClick",
          "inDialog": "true"
        }
      ]
    },
    "22": {
      "startMethod": "com.myquan.aajizhang.activity.MainActivity$12.onClick(Landroid/content/DialogInterface;I)V",
      "targetMethod": "org.apache.http.client.HttpClient.execute(Lorg/apache/http/client/methods/HttpUriRequest;)Lorg/apache/http/HttpResponse;",
      "eventChain": [
        {
          "start": "com.myquan.aajizhang.activity.MainActivity.onClick(Landroid/view/View;)V",
          "target": "invokevirtual \u003c Application, Landroid/app/AlertDialog$Builder, setPositiveButton(Ljava/lang/CharSequence;Landroid/content/DialogInterface$OnClickListener;)Landroid/app/AlertDialog$Builder; \u003e@783",
          "type": "ui",
          "activities": [
            "com.myquan.aajizhang.activity.Welcome"
          ],
          "listener": "android.view.View$1",
          "listenerMethod": "onClick",
          "uiType": "onClick",
          "constraintsFile": "constraints22_0.py",
          "variables": {
            "\u003cInput1\u003e.getId()": "IAAv0"
          },
          "stringMap": {},
          "strings": {}
        },
        {
          "start": "com.myquan.aajizhang.activity.MainActivity$12.onClick(Landroid/content/DialogInterface;I)V",
          "target": "invokeinterface \u003c Application, Lorg/apache/http/client/HttpClient, execute(Lorg/apache/http/client/methods/HttpUriRequest;)Lorg/apache/http/HttpResponse; \u003e@75",
          "type": "ui",
          "activities": [
            "com.myquan.aajizhang.activity.Welcome"
          ],
          "listener": "android.view.View$1",
          "listenerMethod": "onClick",
          "uiType": "onClick",
          "inDialog": "true",
          "constraintsFile": "constraints22_1.py",
          "variables": {},
          "stringMap": {},
          "strings": {}
        }
      ]
    },
    "23": {
      "startMethod": "com.myquan.aajizhang.activity.MainActivity$13.onClick(Landroid/content/DialogInterface;I)V",
      "targetMethod": "org.apache.http.client.HttpClient.execute(Lorg/apache/http/client/methods/HttpUriRequest;)Lorg/apache/http/HttpResponse;",
      "eventChain": [
        {
          "start": "com.myquan.aajizhang.activity.MainActivity.onClick(Landroid/view/View;)V",
          "target": "invokevirtual \u003c Application, Landroid/app/AlertDialog$Builder, setPositiveButton(Ljava/lang/CharSequence;Landroid/content/DialogInterface$OnClickListener;)Landroid/app/AlertDialog$Builder; \u003e@932",
          "type": "ui",
          "activities": [
            "com.myquan.aajizhang.activity.Welcome"
          ],
          "listener": "android.view.View$1",
          "listenerMethod": "onClick",
          "uiType": "onClick",
          "constraintsFile": "constraints23_0.py",
          "variables": {
            "\u003cInput1\u003e.getId()": "IAAv0"
          },
          "stringMap": {},
          "strings": {}
        },
        {
          "start": "com.myquan.aajizhang.activity.Login$2.onClick(Landroid/view/View;)V",
          "target": "invokeinterface \u003c Application, Landroid/content/SharedPreferences$Editor, putString(Ljava/lang/String;Ljava/lang/String;)Landroid/content/SharedPreferences$Editor; \u003e@114",
          "type": "ui",
          "activities": [
            "com.myquan.aajizhang.activity.Login"
          ],
          "listener": "android.view.View$1",
          "listenerMethod": "onClick",
          "uiType": "onClick",
          "constraintsFile": "constraints23_1.py",
          "variables": {},
          "stringMap": {},
          "strings": {}
        },
        {
          "start": "com.myquan.aajizhang.activity.MainActivity$13.onClick(Landroid/content/DialogInterface;I)V",
          "target": "invokeinterface \u003c Application, Lorg/apache/http/client/HttpClient, execute(Lorg/apache/http/client/methods/HttpUriRequest;)Lorg/apache/http/HttpResponse; \u003e@75",
          "type": "ui",
          "activities": [
            "com.myquan.aajizhang.activity.Welcome"
          ],
          "listener": "android.view.View$1",
          "listenerMethod": "onClick",
          "uiType": "onClick",
          "inDialog": "true",
          "constraintsFile": "constraints23_2.py",
          "variables": {
            "SharedPreferences\u003cToken\u003e": "IAAv0"
          },
          "stringMap": {
            "7000": ""
          },
          "strings": {
            "IAAv0": ""
          }
        }
      ]
    },
    "24": {
      "startMethod": "com.myquan.aajizhang.activity.Register$2.onClick(Landroid/view/View;)V",
      "targetMethod": "org.apache.http.client.HttpClient.execute(Lorg/apache/http/client/methods/HttpUriRequest;)Lorg/apache/http/HttpResponse;",
      "eventChain": [
        {
          "start": "com.myquan.aajizhang.activity.Register.onCreate(Landroid/os/Bundle;)V",
          "target": "invokevirtual \u003c Application, Landroid/widget/Button, setOnClickListener(Landroid/view/View$OnClickListener;)V \u003e@112",
          "type": "activity",
          "component": "com.myquan.aajizhang.activity.Register"
        },
        {
          "start": "com.myquan.aajizhang.activity.Register$2.onClick(Landroid/view/View;)V",
          "target": "invokeinterface \u003c Application, Lorg/apache/http/client/HttpClient, execute(Lorg/apache/http/client/methods/HttpUriRequest;)Lorg/apache/http/HttpResponse; \u003e@75",
          "type": "ui",
          "activities": [
            "com.myquan.aajizhang.activity.Register"
          ],
          "listener": "android.view.View$1",
          "listenerMethod": "onClick",
          "uiType": "onClick",
          "constraintsFile": "constraints24_0.py",
          "variables": {},
          "stringMap": {},
          "strings": {}
        }
      ]
    },
    "25": {
      "startMethod": "com.umeng.api.activity.UpdateStatusActivity$13.onClick(Landroid/view/View;)V",
      "targetMethod": "org.apache.http.impl.client.DefaultHttpClient.execute(Lorg/apache/http/client/methods/HttpUriRequest;)Lorg/apache/http/HttpResponse;",
      "eventChain": [
        {
          "start": "com.umeng.api.activity.UpdateStatusActivity.onCreate(Landroid/os/Bundle;)V",
          "target": "invokevirtual \u003c Application, Landroid/view/View, setOnClickListener(Landroid/view/View$OnClickListener;)V \u003e@1121",
          "type": "activity",
          "component": "com.umeng.api.activity.UpdateStatusActivity",
          "constraintsFile": "constraints25_0.py",
          "variables": {},
          "stringMap": {},
          "strings": {}
        },
        {
          "start": "com.umeng.api.activity.UpdateStatusActivity.onStart()V",
          "target": "PC@26",
          "type": "activity",
          "component": "com.umeng.api.activity.UpdateStatusActivity",
          "constraintsFile": "constraints25_1.py",
          "variables": {
            "System.currentTimeMillis()": "IAAv4"
          },
          "stringMap": {},
          "strings": {}
        },
        {
          "start": "com.umeng.api.activity.UpdateStatusActivity.onStart()V",
          "target": "PC@20",
          "type": "activity",
          "component": "com.umeng.api.activity.UpdateStatusActivity",
          "constraintsFile": "constraints25_2.py",
          "variables": {
            "System.currentTimeMillis()": "IAAv4"
          },
          "stringMap": {},
          "strings": {}
        },
        {
          "start": "com.umeng.api.activity.UpdateStatusActivity$13.onClick(Landroid/view/View;)V",
          "target": "invokevirtual \u003c Application, Lorg/apache/http/impl/client/DefaultHttpClient, execute(Lorg/apache/http/client/methods/HttpUriRequest;)Lorg/apache/http/HttpResponse; \u003e@279",
          "type": "ui",
          "activities": [
            "com.umeng.api.activity.UpdateStatusActivity"
          ],
          "listener": "android.view.View$1",
          "listenerMethod": "onClick",
          "uiType": "onClick",
          "constraintsFile": "constraints25_3.py",
          "variables": {
            "System.currentTimeMillis()": "IAAv5"
          },
          "stringMap": {},
          "strings": {}
        }
      ]
    },
    "26": {
      "startMethod": "com.umeng.api.sns.UMSnsService$ClickListener.onClick(Landroid/view/View;)V",
      "targetMethod": "org.apache.http.impl.client.DefaultHttpClient.execute(Lorg/apache/http/client/methods/HttpUriRequest;)Lorg/apache/http/HttpResponse;",
      "eventChain": [
        {
          "start": "com.umeng.api.sns.UMSnsService$ClickListener.onClick(Landroid/view/View;)V",
          "target": "invokevirtual \u003c Application, Lorg/apache/http/impl/client/DefaultHttpClient, execute(Lorg/apache/http/client/methods/HttpUriRequest;)Lorg/apache/http/HttpResponse; \u003e@251",
          "type": "ui",
          "activities": [
            "com.myquan.aajizhang.activity.Welcome"
          ],
          "listener": "android.view.View$1",
          "listenerMethod": "onClick",
          "uiType": "onClick",
          "constraintsFile": "constraints26_0.py",
          "variables": {
            "\u003cInput1\u003e.getId()": "IAAv0"
          },
          "stringMap": {},
          "strings": {}
        }
      ]
    },
    "27": {
      "startMethod": "com.umeng.api.activity.UpdateStatusActivity$11.onClick(Landroid/view/View;)V",
      "targetMethod": "org.apache.http.impl.client.DefaultHttpClient.execute(Lorg/apache/http/client/methods/HttpUriRequest;)Lorg/apache/http/HttpResponse;",
      "eventChain": [
        {
          "start": "com.umeng.api.activity.UpdateStatusActivity.onCreate(Landroid/os/Bundle;)V",
          "target": "invokevirtual \u003c Application, Landroid/widget/Button, setOnClickListener(Landroid/view/View$OnClickListener;)V \u003e@1080",
          "type": "activity",
          "component": "com.umeng.api.activity.UpdateStatusActivity",
          "constraintsFile": "constraints27_0.py",
          "variables": {},
          "stringMap": {},
          "strings": {}
        },
        {
          "start": "com.myquan.aajizhang.activity.MainActivity$16.onClick(Landroid/view/View;)V",
          "target": "",
          "type": "ui",
          "activities": [
            "com.myquan.aajizhang.activity.Welcome"
          ],
          "listener": "android.view.View$1",
          "listenerMethod": "onClick",
          "uiType": "onClick",
          "constraintsFile": "constraints27_1.py",
          "variables": {},
          "stringMap": {},
          "strings": {}
        },
        {
          "start": "com.umeng.api.activity.UpdateStatusActivity$11.onClick(Landroid/view/View;)V",
          "target": "invokevirtual \u003c Application, Lorg/apache/http/impl/client/DefaultHttpClient, execute(Lorg/apache/http/client/methods/HttpUriRequest;)Lorg/apache/http/HttpResponse; \u003e@29",
          "type": "ui",
          "activities": [
            "com.umeng.api.activity.UpdateStatusActivity"
          ],
          "listener": "android.view.View$1",
          "listenerMethod": "onClick",
          "uiType": "onClick",
          "constraintsFile": "constraints27_2.py",
          "variables": {},
          "stringMap": {},
          "strings": {}
        }
      ]
    },
    "28": {
      "startMethod": "com.umeng.api.activity.UpdateStatusActivity$11.onClick(Landroid/view/View;)V",
      "targetMethod": "org.apache.http.impl.client.DefaultHttpClient.execute(Lorg/apache/http/client/methods/HttpUriRequest;)Lorg/apache/http/HttpResponse;",
      "eventChain": [
        {
          "start": "com.umeng.api.activity.UpdateStatusActivity.onCreate(Landroid/os/Bundle;)V",
          "target": "invokevirtual \u003c Application, Landroid/widget/Button, setOnClickListener(Landroid/view/View$OnClickListener;)V \u003e@1080",
          "type": "activity",
          "component": "com.umeng.api.activity.UpdateStatusActivity",
          "constraintsFile": "constraints28_0.py",
          "variables": {},
          "stringMap": {},
          "strings": {}
        },
        {
          "start": "com.umeng.api.activity.UpdateStatusActivity.onCreate(Landroid/os/Bundle;)V",
          "target": "",
          "type": "activity",
          "component": "com.umeng.api.activity.UpdateStatusActivity",
          "constraintsFile": "constraints28_1.py",
          "variables": {},
          "stringMap": {},
          "strings": {}
        },
        {
          "start": "com.umeng.api.activity.UpdateStatusActivity$11.onClick(Landroid/view/View;)V",
          "target": "invokevirtual \u003c Application, Lorg/apache/http/impl/client/DefaultHttpClient, execute(Lorg/apache/http/client/methods/HttpUriRequest;)Lorg/apache/http/HttpResponse; \u003e@432",
          "type": "ui",
          "activities": [
            "com.umeng.api.activity.UpdateStatusActivity"
          ],
          "listener": "android.view.View$1",
          "listenerMethod": "onClick",
          "uiType": "onClick",
          "constraintsFile": "constraints28_2.py",
          "variables": {},
          "stringMap": {},
          "strings": {}
        }
      ]
    },
    "29": {
      "startMethod": "com.umeng.api.activity.UpdateStatusActivity$11.onClick(Landroid/view/View;)V",
      "targetMethod": "org.apache.http.impl.client.DefaultHttpClient.execute(Lorg/apache/http/client/methods/HttpUriRequest;)Lorg/apache/http/HttpResponse;",
      "eventChain": [
        {
          "start": "com.umeng.api.activity.UpdateStatusActivity.onCreate(Landroid/os/Bundle;)V",
          "target": "invokevirtual \u003c Application, Landroid/widget/Button, setOnClickListener(Landroid/view/View$OnClickListener;)V \u003e@1080",
          "type": "activity",
          "component": "com.umeng.api.activity.UpdateStatusActivity",
          "constraintsFile": "constraints29_0.py",
          "variables": {},
          "stringMap": {},
          "strings": {}
        },
        {
          "start": "com.umeng.api.activity.UpdateStatusActivity.onCreate(Landroid/os/Bundle;)V",
          "target": "",
          "type": "activity",
          "component": "com.umeng.api.activity.UpdateStatusActivity",
          "constraintsFile": "constraints29_1.py",
          "variables": {},
          "stringMap": {},
          "strings": {}
        },
        {
          "start": "com.myquan.aajizhang.activity.MainActivity$16.onClick(Landroid/view/View;)V",
          "target": "",
          "type": "ui",
          "activities": [
            "com.myquan.aajizhang.activity.Welcome"
          ],
          "listener": "android.view.View$1",
          "listenerMethod": "onClick",
          "uiType": "onClick",
          "constraintsFile": "constraints29_2.py",
          "variables": {},
          "stringMap": {},
          "strings": {}
        },
        {
          "start": "com.umeng.api.activity.UpdateStatusActivity$11.onClick(Landroid/view/View;)V",
          "target": "invokevirtual \u003c Application, Lorg/apache/http/impl/client/DefaultHttpClient, execute(Lorg/apache/http/client/methods/HttpUriRequest;)Lorg/apache/http/HttpResponse; \u003e@567",
          "type": "ui",
          "activities": [
            "com.umeng.api.activity.UpdateStatusActivity"
          ],
          "listener": "android.view.View$1",
          "listenerMethod": "onClick",
          "uiType": "onClick",
          "constraintsFile": "constraints29_3.py",
          "variables": {},
          "stringMap": {},
          "strings": {}
        }
      ]
    },
    "30": {
      "startMethod": "com.myquan.aajizhang.activity.Login$2.onClick(Landroid/view/View;)V",
      "targetMethod": "org.apache.http.client.HttpClient.execute(Lorg/apache/http/client/methods/HttpUriRequest;)Lorg/apache/http/HttpResponse;",
      "eventChain": [
        {
          "start": "com.myquan.aajizhang.activity.Login.onCreate(Landroid/os/Bundle;)V",
          "target": "invokevirtual \u003c Application, Landroid/widget/Button, setOnClickListener(Landroid/view/View$OnClickListener;)V \u003e@112",
          "type": "activity",
          "component": "com.myquan.aajizhang.activity.Login"
        },
        {
          "start": "com.myquan.aajizhang.activity.Login$2.onClick(Landroid/view/View;)V",
          "target": "invokeinterface \u003c Application, Lorg/apache/http/client/HttpClient, execute(Lorg/apache/http/client/methods/HttpUriRequest;)Lorg/apache/http/HttpResponse; \u003e@75",
          "type": "ui",
          "activities": [
            "com.myquan.aajizhang.activity.Login"
          ],
          "listener": "android.view.View$1",
          "listenerMethod": "onClick",
          "uiType": "onClick",
          "constraintsFile": "constraints30_0.py",
          "variables": {},
          "stringMap": {},
          "strings": {}
        }
      ]
    },
    "31": {
      "startMethod": "com.umeng.api.sns.LocationAgent$1.onLocationChanged(Landroid/location/Location;)V",
      "targetMethod": "org.apache.http.impl.client.DefaultHttpClient.execute(Lorg/apache/http/client/methods/HttpUriRequest;)Lorg/apache/http/HttpResponse;",
      "eventChain": [
        {
          "start": "com.umeng.api.activity.UpdateStatusActivity.onStart()V",
          "target": "invokevirtual \u003c Application, Landroid/location/LocationManager, requestLocationUpdates(Ljava/lang/String;JFLandroid/location/LocationListener;)V \u003e@374",
          "type": "activity",
          "component": "com.umeng.api.activity.UpdateStatusActivity",
          "constraintsFile": "constraints31_0.py",
          "variables": {
            "System.currentTimeMillis()": "IAAv11"
          },
          "stringMap": {},
          "strings": {}
        },
        {
          "start": "com.umeng.api.sns.LocationAgent$1.onLocationChanged(Landroid/location/Location;)V",
          "target": "invokevirtual \u003c Application, Lorg/apache/http/impl/client/DefaultHttpClient, execute(Lorg/apache/http/client/methods/HttpUriRequest;)Lorg/apache/http/HttpResponse; \u003e@279",
          "type": "location",
          "constraintsFile": "constraints31_1.py",
          "variables": {
            "\u003cInput1\u003e": "IAAv0"
          },
          "stringMap": {},
          "strings": {}
        }
      ]
    }
  }
}