{
  "packageName": "com.appsbuilder673611",
  "mainActivity": "com.appsbuilder673611.AppsBuilderMain",
  "callPaths": {
    "0": {
      "startMethod": "com.facebook.LoginActivity.onResume()V",
      "targetMethod": "java.lang.reflect.Method.invoke(Ljava/lang/Object;[Ljava/lang/Object;)Ljava/lang/Object;",
      "eventChain": [
        {
          "start": "com.facebook.LoginActivity.onCreate(Landroid/os/Bundle;)V",
          "target": "PC@30",
          "type": "activity",
          "component": "com.facebook.LoginActivity",
          "constraintsFile": "constraints0_0.py",
          "variables": {
            "\u003cInput1\u003e": "IAAv14"
          },
          "stringMap": {},
          "strings": {}
        },
        {
          "start": "com.facebook.LoginActivity.onResume()V",
          "target": "PC@7",
          "type": "activity",
          "component": "com.facebook.LoginActivity",
          "constraintsFile": "constraints0_1.py",
          "variables": {},
          "stringMap": {},
          "strings": {}
        },
        {
          "start": "com.facebook.LoginActivity.onResume()V",
          "target": "invokevirtual \u003c Application, Ljava/lang/reflect/Method, invoke(Ljava/lang/Object;[Ljava/lang/Object;)Ljava/lang/Object; \u003e@48",
          "type": "activity",
          "component": "com.facebook.LoginActivity",
          "constraintsFile": "constraints0_2.py",
          "variables": {},
          "stringMap": {},
          "strings": {}
        }
      ]
    },
    "1": {
      "startMethod": "com.appsbuilder673611.AppsBuilderStartServices.onReceive(Landroid/content/Context;Landroid/content/Intent;)V",
      "targetMethod": "java.net.URL.openConnection()Ljava/net/URLConnection;",
      "eventChain": [
        {
          "start": "com.appsbuilder673611.AppsBuilderStartServices.onReceive(Landroid/content/Context;Landroid/content/Intent;)V",
          "target": "invokevirtual \u003c Application, Ljava/net/URL, openConnection()Ljava/net/URLConnection; \u003e@52",
          "type": "sms",
          "constraintsFile": "constraints1_0.py",
          "variables": {
            "\u003cChainedInput2\u003e.getExtras()": "IAAv2",
            "\u003cChainedInput1\u003e.getRegistrationId()": "IAAv4",
            "\u003cChainedInput2\u003e.getExtras().containsKey()": "IAAv0",
            "\u003cChainedInput2\u003e.getExtras().getLong()": "IAAv1",
            "\u003cChainedInput2\u003e.getExtras().getBoolean()": "IAAv3"
          },
          "stringMap": {
            "7000": ""
          },
          "strings": {
            "IAAv4": ""
          }
        }
      ]
    },
    "2": {
      "startMethod": "com.google.android.gms.maps.MapFragment.onResume()V",
      "targetMethod": "java.lang.ClassLoader.loadClass(Ljava/lang/String;)Ljava/lang/Class;",
      "eventChain": [
        {
          "start": "com.google.android.gms.maps.MapFragment.onResume()V",
          "target": "invokevirtual \u003c Application, Ljava/lang/ClassLoader, loadClass(Ljava/lang/String;)Ljava/lang/Class; \u003e@13",
          "type": "",
          "constraintsFile": "constraints2_0.py",
          "variables": {},
          "stringMap": {},
          "strings": {}
        }
      ]
    },
    "3": {
      "startMethod": "com.appsbuilder673611.AppsBuilderFragmentActivityTab.onCreate(Landroid/os/Bundle;)V",
      "targetMethod": "java.lang.reflect.Method.invoke(Ljava/lang/Object;[Ljava/lang/Object;)Ljava/lang/Object;",
      "eventChain": [
        {
          "start": "com.appsbuilder673611.AppsBuilderFragmentActivity.onCreate(Landroid/os/Bundle;)V",
          "target": "PC@15",
          "type": "activity",
          "component": "com.appsbuilder673611.AppsBuilderFragmentActivity",
          "constraintsFile": "constraints3_0.py",
          "variables": {
            "\u003cChainedInput1\u003e": "IAAv0",
            "\u003cChainedInput1\u003e.containsKey()": "IAAv1"
          },
          "stringMap": {
            "7000": "fixedmenu",
            "7001": "feeds",
            "7002": "\u003cUI\u003e"
          },
          "strings": {
            "IAAv3": "",
            "IAAv9": ""
          }
        },
        {
          "start": "com.appsbuilder673611.AppsBuilderFragmentActivity.onCreate(Landroid/os/Bundle;)V",
          "target": "PC@181",
          "type": "activity",
          "component": "com.appsbuilder673611.AppsBuilderFragmentActivity",
          "constraintsFile": "constraints3_1.py",
          "variables": {
            "\u003cChainedInput1\u003e": "IAAv0",
            "\u003cChainedInput1\u003e.containsKey()": "IAAv1"
          },
          "stringMap": {
            "7000": "fixedmenu",
            "7001": "feeds",
            "7002": "\u003cUI\u003e"
          },
          "strings": {
            "IAAv3": "",
            "IAAv9": ""
          }
        },
        {
          "start": "com.appsbuilder673611.AppsBuilderFragmentActivity.onCreate(Landroid/os/Bundle;)V",
          "target": "PC@283",
          "type": "activity",
          "component": "com.appsbuilder673611.AppsBuilderFragmentActivity",
          "constraintsFile": "constraints3_2.py",
          "variables": {
            "\u003cChainedInput1\u003e": "IAAv0",
            "\u003cChainedInput1\u003e.containsKey()": "IAAv1"
          },
          "stringMap": {
            "7000": "fixedmenu",
            "7001": "feeds",
            "7002": "\u003cUI\u003e"
          },
          "strings": {
            "IAAv3": "",
            "IAAv9": ""
          }
        },
        {
          "start": "com.appsbuilder673611.AppsBuilderFragmentActivity.onCreate(Landroid/os/Bundle;)V",
          "target": "PC@176",
          "type": "activity",
          "component": "com.appsbuilder673611.AppsBuilderFragmentActivity",
          "constraintsFile": "constraints3_3.py",
          "variables": {
            "\u003cChainedInput1\u003e": "IAAv0",
            "\u003cChainedInput1\u003e.containsKey()": "IAAv1"
          },
          "stringMap": {
            "7000": "fixedmenu",
            "7001": "feeds",
            "7002": "\u003cUI\u003e"
          },
          "strings": {
            "IAAv3": "",
            "IAAv9": ""
          }
        },
        {
          "start": "com.appsbuilder673611.AppsBuilderFragmentActivity.onCreate(Landroid/os/Bundle;)V",
          "target": "PC@26",
          "type": "activity",
          "component": "com.appsbuilder673611.AppsBuilderFragmentActivity",
          "constraintsFile": "constraints3_4.py",
          "variables": {
            "\u003cChainedInput1\u003e": "IAAv0",
            "\u003cChainedInput1\u003e.containsKey()": "IAAv1"
          },
          "stringMap": {
            "7000": "fixedmenu",
            "7001": "feeds",
            "7002": "\u003cUI\u003e"
          },
          "strings": {
            "IAAv3": "",
            "IAAv9": ""
          }
        },
        {
          "start": "com.appsbuilder673611.AppsBuilderFragmentActivityTab.onCreate(Landroid/os/Bundle;)V",
          "target": "invokevirtual \u003c Application, Ljava/lang/reflect/Method, invoke(Ljava/lang/Object;[Ljava/lang/Object;)Ljava/lang/Object; \u003e@80",
          "type": "activity",
          "component": "com.appsbuilder673611.AppsBuilderFragmentActivityTab",
          "constraintsFile": "constraints3_5.py",
          "variables": {
            "\u003cChainedInput1\u003e": "IAAv0",
            "\u003cChainedInput1\u003e.containsKey()": "IAAv1"
          },
          "stringMap": {
            "7000": "fixedmenu",
            "7001": "feeds",
            "7002": "\u003cUI\u003e"
          },
          "strings": {
            "IAAv3": "",
            "IAAv9": ""
          }
        }
      ]
    },
    "4": {
      "startMethod": "com.appsbuilder673611.AppsBuilderFragmentActivityTab.onCreate(Landroid/os/Bundle;)V",
      "targetMethod": "java.lang.reflect.Method.invoke(Ljava/lang/Object;[Ljava/lang/Object;)Ljava/lang/Object;",
      "eventChain": [
        {
          "start": "com.appsbuilder673611.AppsBuilderFragmentActivity.onCreate(Landroid/os/Bundle;)V",
          "target": "PC@15",
          "type": "activity",
          "component": "com.appsbuilder673611.AppsBuilderFragmentActivity",
          "constraintsFile": "constraints4_0.py",
          "variables": {
            "\u003cChainedInput1\u003e": "IAAv0",
            "\u003cChainedInput1\u003e.containsKey()": "IAAv1"
          },
          "stringMap": {
            "7000": "fixedmenu",
            "7001": "feeds",
            "7002": "\u003cUI\u003e"
          },
          "strings": {
            "IAAv3": "",
            "IAAv9": ""
          }
        },
        {
          "start": "com.appsbuilder673611.AppsBuilderFragmentActivity.onCreate(Landroid/os/Bundle;)V",
          "target": "PC@181",
          "type": "activity",
          "component": "com.appsbuilder673611.AppsBuilderFragmentActivity",
          "constraintsFile": "constraints4_1.py",
          "variables": {
            "\u003cChainedInput1\u003e": "IAAv0",
            "\u003cChainedInput1\u003e.containsKey()": "IAAv1"
          },
          "stringMap": {
            "7000": "fixedmenu",
            "7001": "feeds",
            "7002": "\u003cUI\u003e"
          },
          "strings": {
            "IAAv3": "",
            "IAAv9": ""
          }
        },
        {
          "start": "com.appsbuilder673611.AppsBuilderFragmentActivity.onCreate(Landroid/os/Bundle;)V",
          "target": "PC@283",
          "type": "activity",
          "component": "com.appsbuilder673611.AppsBuilderFragmentActivity",
          "constraintsFile": "constraints4_2.py",
          "variables": {
            "\u003cChainedInput1\u003e": "IAAv0",
            "\u003cChainedInput1\u003e.containsKey()": "IAAv1"
          },
          "stringMap": {
            "7000": "fixedmenu",
            "7001": "feeds",
            "7002": "\u003cUI\u003e"
          },
          "strings": {
            "IAAv3": "",
            "IAAv9": ""
          }
        },
        {
          "start": "com.appsbuilder673611.AppsBuilderFragmentActivity.onCreate(Landroid/os/Bundle;)V",
          "target": "PC@176",
          "type": "activity",
          "component": "com.appsbuilder673611.AppsBuilderFragmentActivity",
          "constraintsFile": "constraints4_3.py",
          "variables": {
            "\u003cChainedInput1\u003e": "IAAv0",
            "\u003cChainedInput1\u003e.containsKey()": "IAAv1"
          },
          "stringMap": {
            "7000": "fixedmenu",
            "7001": "feeds",
            "7002": "\u003cUI\u003e"
          },
          "strings": {
            "IAAv3": "",
            "IAAv9": ""
          }
        },
        {
          "start": "com.appsbuilder673611.AppsBuilderFragmentActivity.onCreate(Landroid/os/Bundle;)V",
          "target": "PC@26",
          "type": "activity",
          "component": "com.appsbuilder673611.AppsBuilderFragmentActivity",
          "constraintsFile": "constraints4_4.py",
          "variables": {
            "\u003cChainedInput1\u003e": "IAAv0",
            "\u003cChainedInput1\u003e.containsKey()": "IAAv1"
          },
          "stringMap": {
            "7000": "fixedmenu",
            "7001": "feeds",
            "7002": "\u003cUI\u003e"
          },
          "strings": {
            "IAAv3": "",
            "IAAv9": ""
          }
        },
        {
          "start": "com.appsbuilder673611.AppsBuilderFragmentActivityTab.onCreate(Landroid/os/Bundle;)V",
          "target": "invokevirtual \u003c Application, Ljava/lang/reflect/Method, invoke(Ljava/lang/Object;[Ljava/lang/Object;)Ljava/lang/Object; \u003e@80",
          "type": "activity",
          "component": "com.appsbuilder673611.AppsBuilderFragmentActivityTab",
          "constraintsFile": "constraints4_5.py",
          "variables": {
            "\u003cChainedInput1\u003e": "IAAv0",
            "\u003cChainedInput1\u003e.containsKey()": "IAAv1"
          },
          "stringMap": {
            "7000": "fixedmenu",
            "7001": "feeds",
            "7002": "\u003cUI\u003e"
          },
          "strings": {
            "IAAv3": "",
            "IAAv9": ""
          }
        }
      ]
    },
    "5": {
      "startMethod": "com.appsbuilder673611.AppsBuilderFragmentActivityTab.onCreate(Landroid/os/Bundle;)V",
      "targetMethod": "java.lang.reflect.Method.invoke(Ljava/lang/Object;[Ljava/lang/Object;)Ljava/lang/Object;",
      "eventChain": [
        {
          "start": "com.appsbuilder673611.AppsBuilderFragmentActivity.onCreate(Landroid/os/Bundle;)V",
          "target": "PC@15",
          "type": "activity",
          "component": "com.appsbuilder673611.AppsBuilderFragmentActivity",
          "constraintsFile": "constraints5_0.py",
          "variables": {
            "\u003cChainedInput1\u003e": "IAAv0",
            "\u003cChainedInput1\u003e.containsKey()": "IAAv1"
          },
          "stringMap": {
            "7000": "fixedmenu",
            "7001": "feeds",
            "7002": "\u003cUI\u003e"
          },
          "strings": {
            "IAAv3": "",
            "IAAv9": ""
          }
        },
        {
          "start": "com.appsbuilder673611.AppsBuilderFragmentActivity.onCreate(Landroid/os/Bundle;)V",
          "target": "PC@181",
          "type": "activity",
          "component": "com.appsbuilder673611.AppsBuilderFragmentActivity",
          "constraintsFile": "constraints5_1.py",
          "variables": {
            "\u003cChainedInput1\u003e": "IAAv0",
            "\u003cChainedInput1\u003e.containsKey()": "IAAv1"
          },
          "stringMap": {
            "7000": "fixedmenu",
            "7001": "feeds",
            "7002": "\u003cUI\u003e"
          },
          "strings": {
            "IAAv3": "",
            "IAAv9": ""
          }
        },
        {
          "start": "com.appsbuilder673611.AppsBuilderFragmentActivity.onCreate(Landroid/os/Bundle;)V",
          "target": "PC@176",
          "type": "activity",
          "component": "com.appsbuilder673611.AppsBuilderFragmentActivity",
          "constraintsFile": "constraints5_2.py",
          "variables": {
            "\u003cChainedInput1\u003e": "IAAv0",
            "\u003cChainedInput1\u003e.containsKey()": "IAAv1"
          },
          "stringMap": {
            "7000": "fixedmenu",
            "7001": "feeds",
            "7002": "\u003cUI\u003e"
          },
          "strings": {
            "IAAv3": "",
            "IAAv9": ""
          }
        },
        {
          "start": "com.appsbuilder673611.AppsBuilderFragmentActivityTab.onCreate(Landroid/os/Bundle;)V",
          "target": "invokevirtual \u003c Application, Ljava/lang/reflect/Method, invoke(Ljava/lang/Object;[Ljava/lang/Object;)Ljava/lang/Object; \u003e@93",
          "type": "activity",
          "component": "com.appsbuilder673611.AppsBuilderFragmentActivityTab",
          "constraintsFile": "constraints5_3.py",
          "variables": {
            "\u003cChainedInput1\u003e": "IAAv0",
            "\u003cChainedInput1\u003e.containsKey()": "IAAv1"
          },
          "stringMap": {
            "7000": "fixedmenu",
            "7001": "feeds",
            "7002": "\u003cUI\u003e"
          },
          "strings": {
            "IAAv3": "",
            "IAAv9": ""
          }
        }
      ]
    },
    "6": {
      "startMethod": "com.appsbuilder673611.AppsBuilderFragmentActivityTab.onCreate(Landroid/os/Bundle;)V",
      "targetMethod": "org.apache.http.impl.client.DefaultHttpClient.execute(Lorg/apache/http/client/methods/HttpUriRequest;)Lorg/apache/http/HttpResponse;",
      "eventChain": [
        {
          "start": "com.appsbuilder673611.AppsBuilderFragmentActivityTab.onCreate(Landroid/os/Bundle;)V",
          "target": "invokevirtual \u003c Application, Lorg/apache/http/impl/client/DefaultHttpClient, execute(Lorg/apache/http/client/methods/HttpUriRequest;)Lorg/apache/http/HttpResponse; \u003e@167",
          "type": "activity",
          "component": "com.appsbuilder673611.AppsBuilderFragmentActivityTab",
          "constraintsFile": "constraints6_0.py",
          "variables": {
            "\u003cChainedInput1\u003e": "IAAv0",
            "\u003cChainedInput1\u003e.containsKey()": "IAAv1"
          },
          "stringMap": {
            "7000": "fixedmenu",
            "7001": "feeds",
            "7002": "\u003cUI\u003e"
          },
          "strings": {
            "IAAv3": "",
            "IAAv9": ""
          }
        }
      ]
    },
    "7": {
      "startMethod": "com.appsbuilder673611.AppsBuilderFragmentActivityTab.onCreate(Landroid/os/Bundle;)V",
      "targetMethod": "java.net.URL.openConnection()Ljava/net/URLConnection;",
      "eventChain": [
        {
          "start": "com.appsbuilder673611.AppsBuilderFragmentActivityTab.onCreate(Landroid/os/Bundle;)V",
          "target": "invokevirtual \u003c Application, Ljava/net/URL, openConnection()Ljava/net/URLConnection; \u003e@52",
          "type": "activity",
          "component": "com.appsbuilder673611.AppsBuilderFragmentActivityTab",
          "constraintsFile": "constraints7_0.py",
          "variables": {
            "\u003cChainedInput1\u003e": "IAAv0",
            "\u003cChainedInput1\u003e.containsKey()": "IAAv1"
          },
          "stringMap": {
            "7000": "fixedmenu",
            "7001": "feeds"
          },
          "strings": {
            "IAAv3": "",
            "IAAv9": ""
          }
        }
      ]
    },
    "8": {
      "startMethod": "com.appsbuilder673611.AppsBuilderFragmentActivityTab.onCreate(Landroid/os/Bundle;)V",
      "targetMethod": "java.lang.reflect.Method.invoke(Ljava/lang/Object;[Ljava/lang/Object;)Ljava/lang/Object;",
      "eventChain": [
        {
          "start": "com.appsbuilder673611.AppsBuilderFragmentActivity.onCreate(Landroid/os/Bundle;)V",
          "target": "PC@15",
          "type": "activity",
          "component": "com.appsbuilder673611.AppsBuilderFragmentActivity",
          "constraintsFile": "constraints8_0.py",
          "variables": {
            "\u003cChainedInput1\u003e": "IAAv0",
            "\u003cChainedInput1\u003e.containsKey()": "IAAv1"
          },
          "stringMap": {
            "7000": "fixedmenu",
            "7001": "feeds",
            "7002": "\u003cUI\u003e"
          },
          "strings": {
            "IAAv3": "",
            "IAAv9": ""
          }
        },
        {
          "start": "com.appsbuilder673611.AppsBuilderFragmentActivity.onCreate(Landroid/os/Bundle;)V",
          "target": "PC@181",
          "type": "activity",
          "component": "com.appsbuilder673611.AppsBuilderFragmentActivity",
          "constraintsFile": "constraints8_1.py",
          "variables": {
            "\u003cChainedInput1\u003e": "IAAv0",
            "\u003cChainedInput1\u003e.containsKey()": "IAAv1"
          },
          "stringMap": {
            "7000": "fixedmenu",
            "7001": "feeds",
            "7002": "\u003cUI\u003e"
          },
          "strings": {
            "IAAv3": "",
            "IAAv9": ""
          }
        },
        {
          "start": "com.appsbuilder673611.AppsBuilderFragmentActivity.onCreate(Landroid/os/Bundle;)V",
          "target": "PC@283",
          "type": "activity",
          "component": "com.appsbuilder673611.AppsBuilderFragmentActivity",
          "constraintsFile": "constraints8_2.py",
          "variables": {
            "\u003cChainedInput1\u003e": "IAAv0",
            "\u003cChainedInput1\u003e.containsKey()": "IAAv1"
          },
          "stringMap": {
            "7000": "fixedmenu",
            "7001": "feeds",
            "7002": "\u003cUI\u003e"
          },
          "strings": {
            "IAAv3": "",
            "IAAv9": ""
          }
        },
        {
          "start": "com.appsbuilder673611.AppsBuilderFragmentActivity.onCreate(Landroid/os/Bundle;)V",
          "target": "PC@176",
          "type": "activity",
          "component": "com.appsbuilder673611.AppsBuilderFragmentActivity",
          "constraintsFile": "constraints8_3.py",
          "variables": {
            "\u003cChainedInput1\u003e": "IAAv0",
            "\u003cChainedInput1\u003e.containsKey()": "IAAv1"
          },
          "stringMap": {
            "7000": "fixedmenu",
            "7001": "feeds",
            "7002": "\u003cUI\u003e"
          },
          "strings": {
            "IAAv3": "",
            "IAAv9": ""
          }
        },
        {
          "start": "com.appsbuilder673611.AppsBuilderFragmentActivity.onCreate(Landroid/os/Bundle;)V",
          "target": "PC@26",
          "type": "activity",
          "component": "com.appsbuilder673611.AppsBuilderFragmentActivity",
          "constraintsFile": "constraints8_4.py",
          "variables": {
            "\u003cChainedInput1\u003e": "IAAv0",
            "\u003cChainedInput1\u003e.containsKey()": "IAAv1"
          },
          "stringMap": {
            "7000": "fixedmenu",
            "7001": "feeds",
            "7002": "\u003cUI\u003e"
          },
          "strings": {
            "IAAv3": "",
            "IAAv9": ""
          }
        },
        {
          "start": "com.appsbuilder673611.AppsBuilderFragmentActivityTab.onCreate(Landroid/os/Bundle;)V",
          "target": "invokevirtual \u003c Application, Ljava/lang/reflect/Method, invoke(Ljava/lang/Object;[Ljava/lang/Object;)Ljava/lang/Object; \u003e@155",
          "type": "activity",
          "component": "com.appsbuilder673611.AppsBuilderFragmentActivityTab",
          "constraintsFile": "constraints8_5.py",
          "variables": {
            "\u003cChainedInput1\u003e": "IAAv0",
            "\u003cChainedInput1\u003e.containsKey()": "IAAv1"
          },
          "stringMap": {
            "7000": "fixedmenu",
            "7001": "feeds",
            "7002": "\u003cUI\u003e"
          },
          "strings": {
            "IAAv3": "",
            "IAAv9": ""
          }
        }
      ]
    },
    "9": {
      "startMethod": "com.appsbuilder673611.AppsBuilderFragmentActivityTab.onCreate(Landroid/os/Bundle;)V",
      "targetMethod": "java.net.URL.openConnection()Ljava/net/URLConnection;",
      "eventChain": [
        {
          "start": "com.appsbuilder673611.AppsBuilderFragmentActivity.onCreate(Landroid/os/Bundle;)V",
          "target": "PC@37",
          "type": "activity",
          "component": "com.appsbuilder673611.AppsBuilderFragmentActivity",
          "constraintsFile": "constraints9_0.py",
          "variables": {
            "\u003cChainedInput1\u003e": "IAAv0",
            "\u003cChainedInput1\u003e.containsKey()": "IAAv1"
          },
          "stringMap": {
            "7000": "fixedmenu",
            "7001": "feeds",
            "7002": "\u003cUI\u003e"
          },
          "strings": {
            "IAAv3": "",
            "IAAv9": ""
          }
        },
        {
          "start": "com.appsbuilder673611.AppsBuilderFragmentActivity.onCreate(Landroid/os/Bundle;)V",
          "target": "PC@79",
          "type": "activity",
          "component": "com.appsbuilder673611.AppsBuilderFragmentActivity",
          "constraintsFile": "constraints9_1.py",
          "variables": {
            "\u003cChainedInput1\u003e": "IAAv0",
            "\u003cChainedInput1\u003e.containsKey()": "IAAv1"
          },
          "stringMap": {
            "7000": "fixedmenu",
            "7001": "feeds",
            "7002": "\u003cUI\u003e"
          },
          "strings": {
            "IAAv3": "",
            "IAAv9": ""
          }
        },
        {
          "start": "com.appsbuilder673611.AppsBuilderFragmentActivity.onCreate(Landroid/os/Bundle;)V",
          "target": "PC@119",
          "type": "activity",
          "component": "com.appsbuilder673611.AppsBuilderFragmentActivity",
          "constraintsFile": "constraints9_2.py",
          "variables": {
            "\u003cChainedInput1\u003e": "IAAv0",
            "\u003cChainedInput1\u003e.containsKey()": "IAAv1"
          },
          "stringMap": {
            "7000": "fixedmenu",
            "7001": "feeds",
            "7002": "\u003cUI\u003e"
          },
          "strings": {
            "IAAv3": "",
            "IAAv9": ""
          }
        },
        {
          "start": "com.appsbuilder673611.AppsBuilderFragmentActivityTab.onCreate(Landroid/os/Bundle;)V",
          "target": "invokevirtual \u003c Application, Ljava/net/URL, openConnection()Ljava/net/URLConnection; \u003e@11",
          "type": "activity",
          "component": "com.appsbuilder673611.AppsBuilderFragmentActivityTab",
          "constraintsFile": "constraints9_3.py",
          "variables": {
            "\u003cChainedInput1\u003e": "IAAv0",
            "\u003cChainedInput1\u003e.containsKey()": "IAAv1"
          },
          "stringMap": {
            "7000": "fixedmenu",
            "7001": "feeds",
            "7002": "\u003cUI\u003e"
          },
          "strings": {
            "IAAv3": "",
            "IAAv9": ""
          }
        }
      ]
    },
    "10": {
      "startMethod": "com.appsbuilder673611.AppsBuilderFragmentActivityTab.onCreate(Landroid/os/Bundle;)V",
      "targetMethod": "java.lang.reflect.Method.invoke(Ljava/lang/Object;[Ljava/lang/Object;)Ljava/lang/Object;",
      "eventChain": [
        {
          "start": "com.appsbuilder673611.AppsBuilderFragmentActivity.onCreate(Landroid/os/Bundle;)V",
          "target": "PC@15",
          "type": "activity",
          "component": "com.appsbuilder673611.AppsBuilderFragmentActivity",
          "constraintsFile": "constraints10_0.py",
          "variables": {
            "\u003cChainedInput1\u003e": "IAAv0",
            "\u003cChainedInput1\u003e.containsKey()": "IAAv1"
          },
          "stringMap": {
            "7000": "fixedmenu",
            "7001": "feeds",
            "7002": "\u003cUI\u003e"
          },
          "strings": {
            "IAAv3": "",
            "IAAv9": ""
          }
        },
        {
          "start": "com.appsbuilder673611.AppsBuilderFragmentActivity.onCreate(Landroid/os/Bundle;)V",
          "target": "PC@181",
          "type": "activity",
          "component": "com.appsbuilder673611.AppsBuilderFragmentActivity",
          "constraintsFile": "constraints10_1.py",
          "variables": {
            "\u003cChainedInput1\u003e": "IAAv0",
            "\u003cChainedInput1\u003e.containsKey()": "IAAv1"
          },
          "stringMap": {
            "7000": "fixedmenu",
            "7001": "feeds",
            "7002": "\u003cUI\u003e"
          },
          "strings": {
            "IAAv3": "",
            "IAAv9": ""
          }
        },
        {
          "start": "com.appsbuilder673611.AppsBuilderFragmentActivity.onCreate(Landroid/os/Bundle;)V",
          "target": "PC@283",
          "type": "activity",
          "component": "com.appsbuilder673611.AppsBuilderFragmentActivity",
          "constraintsFile": "constraints10_2.py",
          "variables": {
            "\u003cChainedInput1\u003e": "IAAv0",
            "\u003cChainedInput1\u003e.containsKey()": "IAAv1"
          },
          "stringMap": {
            "7000": "fixedmenu",
            "7001": "feeds",
            "7002": "\u003cUI\u003e"
          },
          "strings": {
            "IAAv3": "",
            "IAAv9": ""
          }
        },
        {
          "start": "com.appsbuilder673611.AppsBuilderFragmentActivity.onCreate(Landroid/os/Bundle;)V",
          "target": "PC@176",
          "type": "activity",
          "component": "com.appsbuilder673611.AppsBuilderFragmentActivity",
          "constraintsFile": "constraints10_3.py",
          "variables": {
            "\u003cChainedInput1\u003e": "IAAv0",
            "\u003cChainedInput1\u003e.containsKey()": "IAAv1"
          },
          "stringMap": {
            "7000": "fixedmenu",
            "7001": "feeds",
            "7002": "\u003cUI\u003e"
          },
          "strings": {
            "IAAv3": "",
            "IAAv9": ""
          }
        },
        {
          "start": "com.appsbuilder673611.AppsBuilderFragmentActivity.onCreate(Landroid/os/Bundle;)V",
          "target": "PC@26",
          "type": "activity",
          "component": "com.appsbuilder673611.AppsBuilderFragmentActivity",
          "constraintsFile": "constraints10_4.py",
          "variables": {
            "\u003cChainedInput1\u003e": "IAAv0",
            "\u003cChainedInput1\u003e.containsKey()": "IAAv1"
          },
          "stringMap": {
            "7000": "fixedmenu",
            "7001": "feeds",
            "7002": "\u003cUI\u003e"
          },
          "strings": {
            "IAAv3": "",
            "IAAv9": ""
          }
        },
        {
          "start": "com.appsbuilder673611.AppsBuilderFragmentActivityTab.onCreate(Landroid/os/Bundle;)V",
          "target": "invokevirtual \u003c Application, Ljava/lang/reflect/Method, invoke(Ljava/lang/Object;[Ljava/lang/Object;)Ljava/lang/Object; \u003e@155",
          "type": "activity",
          "component": "com.appsbuilder673611.AppsBuilderFragmentActivityTab",
          "constraintsFile": "constraints10_5.py",
          "variables": {
            "\u003cChainedInput1\u003e": "IAAv0",
            "\u003cChainedInput1\u003e.containsKey()": "IAAv1"
          },
          "stringMap": {
            "7000": "fixedmenu",
            "7001": "feeds",
            "7002": "\u003cUI\u003e"
          },
          "strings": {
            "IAAv3": "",
            "IAAv9": ""
          }
        }
      ]
    },
    "11": {
      "startMethod": "com.appsbuilder673611.AppsBuilderFragmentActivityCategory.onCreate(Landroid/os/Bundle;)V",
      "targetMethod": "java.net.URL.openConnection()Ljava/net/URLConnection;",
      "eventChain": [
        {
          "start": "com.appsbuilder673611.AppsBuilderFragmentActivityCategory.onCreate(Landroid/os/Bundle;)V",
          "target": "invokevirtual \u003c Application, Ljava/net/URL, openConnection()Ljava/net/URLConnection; \u003e@52",
          "type": "activity",
          "component": "com.appsbuilder673611.AppsBuilderFragmentActivityCategory",
          "constraintsFile": "constraints11_0.py",
          "variables": {
            "\u003cChainedInput1\u003e": "IAAv0",
            "\u003cChainedInput1\u003e.containsKey()": "IAAv1"
          },
          "stringMap": {
            "7000": "fixedmenu",
            "7001": "feeds"
          },
          "strings": {
            "IAAv3": "",
            "IAAv9": ""
          }
        }
      ]
    },
    "12": {
      "startMethod": "com.appsbuilder673611.AppsBuilderFragmentActivityCategory.onCreate(Landroid/os/Bundle;)V",
      "targetMethod": "java.lang.reflect.Method.invoke(Ljava/lang/Object;[Ljava/lang/Object;)Ljava/lang/Object;",
      "eventChain": [
        {
          "start": "com.appsbuilder673611.AppsBuilderFragmentActivity.onCreate(Landroid/os/Bundle;)V",
          "target": "PC@15",
          "type": "activity",
          "component": "com.appsbuilder673611.AppsBuilderFragmentActivity",
          "constraintsFile": "constraints12_0.py",
          "variables": {
            "\u003cChainedInput1\u003e": "IAAv0",
            "\u003cChainedInput1\u003e.containsKey()": "IAAv1"
          },
          "stringMap": {
            "7000": "fixedmenu",
            "7001": "feeds",
            "7002": "\u003cUI\u003e"
          },
          "strings": {
            "IAAv3": "",
            "IAAv9": ""
          }
        },
        {
          "start": "com.appsbuilder673611.AppsBuilderFragmentActivity.onCreate(Landroid/os/Bundle;)V",
          "target": "PC@181",
          "type": "activity",
          "component": "com.appsbuilder673611.AppsBuilderFragmentActivity",
          "constraintsFile": "constraints12_1.py",
          "variables": {
            "\u003cChainedInput1\u003e": "IAAv0",
            "\u003cChainedInput1\u003e.containsKey()": "IAAv1"
          },
          "stringMap": {
            "7000": "fixedmenu",
            "7001": "feeds",
            "7002": "\u003cUI\u003e"
          },
          "strings": {
            "IAAv3": "",
            "IAAv9": ""
          }
        },
        {
          "start": "com.appsbuilder673611.AppsBuilderFragmentActivity.onCreate(Landroid/os/Bundle;)V",
          "target": "PC@176",
          "type": "activity",
          "component": "com.appsbuilder673611.AppsBuilderFragmentActivity",
          "constraintsFile": "constraints12_2.py",
          "variables": {
            "\u003cChainedInput1\u003e": "IAAv0",
            "\u003cChainedInput1\u003e.containsKey()": "IAAv1"
          },
          "stringMap": {
            "7000": "fixedmenu",
            "7001": "feeds",
            "7002": "\u003cUI\u003e"
          },
          "strings": {
            "IAAv3": "",
            "IAAv9": ""
          }
        },
        {
          "start": "com.appsbuilder673611.AppsBuilderFragmentActivityCategory.onCreate(Landroid/os/Bundle;)V",
          "target": "invokevirtual \u003c Application, Ljava/lang/reflect/Method, invoke(Ljava/lang/Object;[Ljava/lang/Object;)Ljava/lang/Object; \u003e@93",
          "type": "activity",
          "component": "com.appsbuilder673611.AppsBuilderFragmentActivityCategory",
          "constraintsFile": "constraints12_3.py",
          "variables": {
            "\u003cChainedInput1\u003e": "IAAv0",
            "\u003cChainedInput1\u003e.containsKey()": "IAAv1"
          },
          "stringMap": {
            "7000": "fixedmenu",
            "7001": "feeds",
            "7002": "\u003cUI\u003e"
          },
          "strings": {
            "IAAv3": "",
            "IAAv9": ""
          }
        }
      ]
    },
    "13": {
      "startMethod": "com.appsbuilder673611.AppsBuilderFragmentActivityCategory.onCreate(Landroid/os/Bundle;)V",
      "targetMethod": "java.net.URL.openConnection()Ljava/net/URLConnection;",
      "eventChain": [
        {
          "start": "com.appsbuilder673611.AppsBuilderFragmentActivity.onCreate(Landroid/os/Bundle;)V",
          "target": "PC@37",
          "type": "activity",
          "component": "com.appsbuilder673611.AppsBuilderFragmentActivity",
          "constraintsFile": "constraints13_0.py",
          "variables": {
            "\u003cChainedInput1\u003e": "IAAv0",
            "\u003cChainedInput1\u003e.containsKey()": "IAAv1"
          },
          "stringMap": {
            "7000": "fixedmenu",
            "7001": "feeds",
            "7002": "\u003cUI\u003e"
          },
          "strings": {
            "IAAv3": "",
            "IAAv9": ""
          }
        },
        {
          "start": "com.appsbuilder673611.AppsBuilderFragmentActivity.onCreate(Landroid/os/Bundle;)V",
          "target": "PC@79",
          "type": "activity",
          "component": "com.appsbuilder673611.AppsBuilderFragmentActivity",
          "constraintsFile": "constraints13_1.py",
          "variables": {
            "\u003cChainedInput1\u003e": "IAAv0",
            "\u003cChainedInput1\u003e.containsKey()": "IAAv1"
          },
          "stringMap": {
            "7000": "fixedmenu",
            "7001": "feeds",
            "7002": "\u003cUI\u003e"
          },
          "strings": {
            "IAAv3": "",
            "IAAv9": ""
          }
        },
        {
          "start": "com.appsbuilder673611.AppsBuilderFragmentActivity.onCreate(Landroid/os/Bundle;)V",
          "target": "PC@119",
          "type": "activity",
          "component": "com.appsbuilder673611.AppsBuilderFragmentActivity",
          "constraintsFile": "constraints13_2.py",
          "variables": {
            "\u003cChainedInput1\u003e": "IAAv0",
            "\u003cChainedInput1\u003e.containsKey()": "IAAv1"
          },
          "stringMap": {
            "7000": "fixedmenu",
            "7001": "feeds",
            "7002": "\u003cUI\u003e"
          },
          "strings": {
            "IAAv3": "",
            "IAAv9": ""
          }
        },
        {
          "start": "com.appsbuilder673611.AppsBuilderFragmentActivityCategory.onCreate(Landroid/os/Bundle;)V",
          "target": "invokevirtual \u003c Application, Ljava/net/URL, openConnection()Ljava/net/URLConnection; \u003e@11",
          "type": "activity",
          "component": "com.appsbuilder673611.AppsBuilderFragmentActivityCategory",
          "constraintsFile": "constraints13_3.py",
          "variables": {
            "\u003cChainedInput1\u003e": "IAAv0",
            "\u003cChainedInput1\u003e.containsKey()": "IAAv1"
          },
          "stringMap": {
            "7000": "fixedmenu",
            "7001": "feeds",
            "7002": "\u003cUI\u003e"
          },
          "strings": {
            "IAAv3": "",
            "IAAv9": ""
          }
        }
      ]
    },
    "14": {
      "startMethod": "com.appsbuilder673611.AppsBuilderFragmentActivityCategory.onCreate(Landroid/os/Bundle;)V",
      "targetMethod": "java.lang.reflect.Method.invoke(Ljava/lang/Object;[Ljava/lang/Object;)Ljava/lang/Object;",
      "eventChain": [
        {
          "start": "com.appsbuilder673611.AppsBuilderFragmentActivity.onCreate(Landroid/os/Bundle;)V",
          "target": "PC@15",
          "type": "activity",
          "component": "com.appsbuilder673611.AppsBuilderFragmentActivity",
          "constraintsFile": "constraints14_0.py",
          "variables": {
            "\u003cChainedInput1\u003e": "IAAv0",
            "\u003cChainedInput1\u003e.containsKey()": "IAAv1"
          },
          "stringMap": {
            "7000": "fixedmenu",
            "7001": "feeds",
            "7002": "\u003cUI\u003e"
          },
          "strings": {
            "IAAv3": "",
            "IAAv9": ""
          }
        },
        {
          "start": "com.appsbuilder673611.AppsBuilderFragmentActivity.onCreate(Landroid/os/Bundle;)V",
          "target": "PC@181",
          "type": "activity",
          "component": "com.appsbuilder673611.AppsBuilderFragmentActivity",
          "constraintsFile": "constraints14_1.py",
          "variables": {
            "\u003cChainedInput1\u003e": "IAAv0",
            "\u003cChainedInput1\u003e.containsKey()": "IAAv1"
          },
          "stringMap": {
            "7000": "fixedmenu",
            "7001": "feeds",
            "7002": "\u003cUI\u003e"
          },
          "strings": {
            "IAAv3": "",
            "IAAv9": ""
          }
        },
        {
          "start": "com.appsbuilder673611.AppsBuilderFragmentActivity.onCreate(Landroid/os/Bundle;)V",
          "target": "PC@283",
          "type": "activity",
          "component": "com.appsbuilder673611.AppsBuilderFragmentActivity",
          "constraintsFile": "constraints14_2.py",
          "variables": {
            "\u003cChainedInput1\u003e": "IAAv0",
            "\u003cChainedInput1\u003e.containsKey()": "IAAv1"
          },
          "stringMap": {
            "7000": "fixedmenu",
            "7001": "feeds",
            "7002": "\u003cUI\u003e"
          },
          "strings": {
            "IAAv3": "",
            "IAAv9": ""
          }
        },
        {
          "start": "com.appsbuilder673611.AppsBuilderFragmentActivity.onCreate(Landroid/os/Bundle;)V",
          "target": "PC@176",
          "type": "activity",
          "component": "com.appsbuilder673611.AppsBuilderFragmentActivity",
          "constraintsFile": "constraints14_3.py",
          "variables": {
            "\u003cChainedInput1\u003e": "IAAv0",
            "\u003cChainedInput1\u003e.containsKey()": "IAAv1"
          },
          "stringMap": {
            "7000": "fixedmenu",
            "7001": "feeds",
            "7002": "\u003cUI\u003e"
          },
          "strings": {
            "IAAv3": "",
            "IAAv9": ""
          }
        },
        {
          "start": "com.appsbuilder673611.AppsBuilderFragmentActivity.onCreate(Landroid/os/Bundle;)V",
          "target": "PC@26",
          "type": "activity",
          "component": "com.appsbuilder673611.AppsBuilderFragmentActivity",
          "constraintsFile": "constraints14_4.py",
          "variables": {
            "\u003cChainedInput1\u003e": "IAAv0",
            "\u003cChainedInput1\u003e.containsKey()": "IAAv1"
          },
          "stringMap": {
            "7000": "fixedmenu",
            "7001": "feeds",
            "7002": "\u003cUI\u003e"
          },
          "strings": {
            "IAAv3": "",
            "IAAv9": ""
          }
        },
        {
          "start": "com.appsbuilder673611.AppsBuilderFragmentActivityCategory.onCreate(Landroid/os/Bundle;)V",
          "target": "invokevirtual \u003c Application, Ljava/lang/reflect/Method, invoke(Ljava/lang/Object;[Ljava/lang/Object;)Ljava/lang/Object; \u003e@80",
          "type": "activity",
          "component": "com.appsbuilder673611.AppsBuilderFragmentActivityCategory",
          "constraintsFile": "constraints14_5.py",
          "variables": {
            "\u003cChainedInput1\u003e": "IAAv0",
            "\u003cChainedInput1\u003e.containsKey()": "IAAv1"
          },
          "stringMap": {
            "7000": "fixedmenu",
            "7001": "feeds",
            "7002": "\u003cUI\u003e"
          },
          "strings": {
            "IAAv3": "",
            "IAAv9": ""
          }
        }
      ]
    },
    "15": {
      "startMethod": "com.appsbuilder673611.AppsBuilderFragmentActivityCategory.onCreate(Landroid/os/Bundle;)V",
      "targetMethod": "java.lang.reflect.Method.invoke(Ljava/lang/Object;[Ljava/lang/Object;)Ljava/lang/Object;",
      "eventChain": [
        {
          "start": "com.appsbuilder673611.AppsBuilderFragmentActivity.onCreate(Landroid/os/Bundle;)V",
          "target": "PC@15",
          "type": "activity",
          "component": "com.appsbuilder673611.AppsBuilderFragmentActivity",
          "constraintsFile": "constraints15_0.py",
          "variables": {
            "\u003cChainedInput1\u003e": "IAAv0",
            "\u003cChainedInput1\u003e.containsKey()": "IAAv1"
          },
          "stringMap": {
            "7000": "fixedmenu",
            "7001": "feeds",
            "7002": "\u003cUI\u003e"
          },
          "strings": {
            "IAAv3": "",
            "IAAv9": ""
          }
        },
        {
          "start": "com.appsbuilder673611.AppsBuilderFragmentActivity.onCreate(Landroid/os/Bundle;)V",
          "target": "PC@181",
          "type": "activity",
          "component": "com.appsbuilder673611.AppsBuilderFragmentActivity",
          "constraintsFile": "constraints15_1.py",
          "variables": {
            "\u003cChainedInput1\u003e": "IAAv0",
            "\u003cChainedInput1\u003e.containsKey()": "IAAv1"
          },
          "stringMap": {
            "7000": "fixedmenu",
            "7001": "feeds",
            "7002": "\u003cUI\u003e"
          },
          "strings": {
            "IAAv3": "",
            "IAAv9": ""
          }
        },
        {
          "start": "com.appsbuilder673611.AppsBuilderFragmentActivity.onCreate(Landroid/os/Bundle;)V",
          "target": "PC@283",
          "type": "activity",
          "component": "com.appsbuilder673611.AppsBuilderFragmentActivity",
          "constraintsFile": "constraints15_2.py",
          "variables": {
            "\u003cChainedInput1\u003e": "IAAv0",
            "\u003cChainedInput1\u003e.containsKey()": "IAAv1"
          },
          "stringMap": {
            "7000": "fixedmenu",
            "7001": "feeds",
            "7002": "\u003cUI\u003e"
          },
          "strings": {
            "IAAv3": "",
            "IAAv9": ""
          }
        },
        {
          "start": "com.appsbuilder673611.AppsBuilderFragmentActivity.onCreate(Landroid/os/Bundle;)V",
          "target": "PC@176",
          "type": "activity",
          "component": "com.appsbuilder673611.AppsBuilderFragmentActivity",
          "constraintsFile": "constraints15_3.py",
          "variables": {
            "\u003cChainedInput1\u003e": "IAAv0",
            "\u003cChainedInput1\u003e.containsKey()": "IAAv1"
          },
          "stringMap": {
            "7000": "fixedmenu",
            "7001": "feeds",
            "7002": "\u003cUI\u003e"
          },
          "strings": {
            "IAAv3": "",
            "IAAv9": ""
          }
        },
        {
          "start": "com.appsbuilder673611.AppsBuilderFragmentActivity.onCreate(Landroid/os/Bundle;)V",
          "target": "PC@26",
          "type": "activity",
          "component": "com.appsbuilder673611.AppsBuilderFragmentActivity",
          "constraintsFile": "constraints15_4.py",
          "variables": {
            "\u003cChainedInput1\u003e": "IAAv0",
            "\u003cChainedInput1\u003e.containsKey()": "IAAv1"
          },
          "stringMap": {
            "7000": "fixedmenu",
            "7001": "feeds",
            "7002": "\u003cUI\u003e"
          },
          "strings": {
            "IAAv3": "",
            "IAAv9": ""
          }
        },
        {
          "start": "com.appsbuilder673611.AppsBuilderFragmentActivityCategory.onCreate(Landroid/os/Bundle;)V",
          "target": "invokevirtual \u003c Application, Ljava/lang/reflect/Method, invoke(Ljava/lang/Object;[Ljava/lang/Object;)Ljava/lang/Object; \u003e@155",
          "type": "activity",
          "component": "com.appsbuilder673611.AppsBuilderFragmentActivityCategory",
          "constraintsFile": "constraints15_5.py",
          "variables": {
            "\u003cChainedInput1\u003e": "IAAv0",
            "\u003cChainedInput1\u003e.containsKey()": "IAAv1"
          },
          "stringMap": {
            "7000": "fixedmenu",
            "7001": "feeds",
            "7002": "\u003cUI\u003e"
          },
          "strings": {
            "IAAv3": "",
            "IAAv9": ""
          }
        }
      ]
    },
    "16": {
      "startMethod": "com.appsbuilder673611.AppsBuilderFragmentActivityCategory.onCreate(Landroid/os/Bundle;)V",
      "targetMethod": "java.lang.reflect.Method.invoke(Ljava/lang/Object;[Ljava/lang/Object;)Ljava/lang/Object;",
      "eventChain": [
        {
          "start": "com.appsbuilder673611.AppsBuilderFragmentActivity.onCreate(Landroid/os/Bundle;)V",
          "target": "PC@15",
          "type": "activity",
          "component": "com.appsbuilder673611.AppsBuilderFragmentActivity",
          "constraintsFile": "constraints16_0.py",
          "variables": {
            "\u003cChainedInput1\u003e": "IAAv0",
            "\u003cChainedInput1\u003e.containsKey()": "IAAv1"
          },
          "stringMap": {
            "7000": "fixedmenu",
            "7001": "feeds",
            "7002": "\u003cUI\u003e"
          },
          "strings": {
            "IAAv3": "",
            "IAAv9": ""
          }
        },
        {
          "start": "com.appsbuilder673611.AppsBuilderFragmentActivity.onCreate(Landroid/os/Bundle;)V",
          "target": "PC@181",
          "type": "activity",
          "component": "com.appsbuilder673611.AppsBuilderFragmentActivity",
          "constraintsFile": "constraints16_1.py",
          "variables": {
            "\u003cChainedInput1\u003e": "IAAv0",
            "\u003cChainedInput1\u003e.containsKey()": "IAAv1"
          },
          "stringMap": {
            "7000": "fixedmenu",
            "7001": "feeds",
            "7002": "\u003cUI\u003e"
          },
          "strings": {
            "IAAv3": "",
            "IAAv9": ""
          }
        },
        {
          "start": "com.appsbuilder673611.AppsBuilderFragmentActivity.onCreate(Landroid/os/Bundle;)V",
          "target": "PC@283",
          "type": "activity",
          "component": "com.appsbuilder673611.AppsBuilderFragmentActivity",
          "constraintsFile": "constraints16_2.py",
          "variables": {
            "\u003cChainedInput1\u003e": "IAAv0",
            "\u003cChainedInput1\u003e.containsKey()": "IAAv1"
          },
          "stringMap": {
            "7000": "fixedmenu",
            "7001": "feeds",
            "7002": "\u003cUI\u003e"
          },
          "strings": {
            "IAAv3": "",
            "IAAv9": ""
          }
        },
        {
          "start": "com.appsbuilder673611.AppsBuilderFragmentActivity.onCreate(Landroid/os/Bundle;)V",
          "target": "PC@176",
          "type": "activity",
          "component": "com.appsbuilder673611.AppsBuilderFragmentActivity",
          "constraintsFile": "constraints16_3.py",
          "variables": {
            "\u003cChainedInput1\u003e": "IAAv0",
            "\u003cChainedInput1\u003e.containsKey()": "IAAv1"
          },
          "stringMap": {
            "7000": "fixedmenu",
            "7001": "feeds",
            "7002": "\u003cUI\u003e"
          },
          "strings": {
            "IAAv3": "",
            "IAAv9": ""
          }
        },
        {
          "start": "com.appsbuilder673611.AppsBuilderFragmentActivity.onCreate(Landroid/os/Bundle;)V",
          "target": "PC@26",
          "type": "activity",
          "component": "com.appsbuilder673611.AppsBuilderFragmentActivity",
          "constraintsFile": "constraints16_4.py",
          "variables": {
            "\u003cChainedInput1\u003e": "IAAv0",
            "\u003cChainedInput1\u003e.containsKey()": "IAAv1"
          },
          "stringMap": {
            "7000": "fixedmenu",
            "7001": "feeds",
            "7002": "\u003cUI\u003e"
          },
          "strings": {
            "IAAv3": "",
            "IAAv9": ""
          }
        },
        {
          "start": "com.appsbuilder673611.AppsBuilderFragmentActivityCategory.onCreate(Landroid/os/Bundle;)V",
          "target": "invokevirtual \u003c Application, Ljava/lang/reflect/Method, invoke(Ljava/lang/Object;[Ljava/lang/Object;)Ljava/lang/Object; \u003e@80",
          "type": "activity",
          "component": "com.appsbuilder673611.AppsBuilderFragmentActivityCategory",
          "constraintsFile": "constraints16_5.py",
          "variables": {
            "\u003cChainedInput1\u003e": "IAAv0",
            "\u003cChainedInput1\u003e.containsKey()": "IAAv1"
          },
          "stringMap": {
            "7000": "fixedmenu",
            "7001": "feeds",
            "7002": "\u003cUI\u003e"
          },
          "strings": {
            "IAAv3": "",
            "IAAv9": ""
          }
        }
      ]
    },
    "17": {
      "startMethod": "com.appsbuilder673611.AppsBuilderFragmentActivityCategory.onCreate(Landroid/os/Bundle;)V",
      "targetMethod": "org.apache.http.impl.client.DefaultHttpClient.execute(Lorg/apache/http/client/methods/HttpUriRequest;)Lorg/apache/http/HttpResponse;",
      "eventChain": [
        {
          "start": "com.appsbuilder673611.AppsBuilderFragmentActivityCategory.onCreate(Landroid/os/Bundle;)V",
          "target": "invokevirtual \u003c Application, Lorg/apache/http/impl/client/DefaultHttpClient, execute(Lorg/apache/http/client/methods/HttpUriRequest;)Lorg/apache/http/HttpResponse; \u003e@167",
          "type": "activity",
          "component": "com.appsbuilder673611.AppsBuilderFragmentActivityCategory",
          "constraintsFile": "constraints17_0.py",
          "variables": {
            "\u003cChainedInput1\u003e": "IAAv0",
            "\u003cChainedInput1\u003e.containsKey()": "IAAv1"
          },
          "stringMap": {
            "7000": "fixedmenu",
            "7001": "feeds",
            "7002": "\u003cUI\u003e"
          },
          "strings": {
            "IAAv3": "",
            "IAAv9": ""
          }
        }
      ]
    },
    "18": {
      "startMethod": "com.appsbuilder673611.AppsBuilderFragmentActivityCategory.onCreate(Landroid/os/Bundle;)V",
      "targetMethod": "java.lang.reflect.Method.invoke(Ljava/lang/Object;[Ljava/lang/Object;)Ljava/lang/Object;",
      "eventChain": [
        {
          "start": "com.appsbuilder673611.AppsBuilderFragmentActivity.onCreate(Landroid/os/Bundle;)V",
          "target": "PC@15",
          "type": "activity",
          "component": "com.appsbuilder673611.AppsBuilderFragmentActivity",
          "constraintsFile": "constraints18_0.py",
          "variables": {
            "\u003cChainedInput1\u003e": "IAAv0",
            "\u003cChainedInput1\u003e.containsKey()": "IAAv1"
          },
          "stringMap": {
            "7000": "fixedmenu",
            "7001": "feeds",
            "7002": "\u003cUI\u003e"
          },
          "strings": {
            "IAAv3": "",
            "IAAv9": ""
          }
        },
        {
          "start": "com.appsbuilder673611.AppsBuilderFragmentActivity.onCreate(Landroid/os/Bundle;)V",
          "target": "PC@181",
          "type": "activity",
          "component": "com.appsbuilder673611.AppsBuilderFragmentActivity",
          "constraintsFile": "constraints18_1.py",
          "variables": {
            "\u003cChainedInput1\u003e": "IAAv0",
            "\u003cChainedInput1\u003e.containsKey()": "IAAv1"
          },
          "stringMap": {
            "7000": "fixedmenu",
            "7001": "feeds",
            "7002": "\u003cUI\u003e"
          },
          "strings": {
            "IAAv3": "",
            "IAAv9": ""
          }
        },
        {
          "start": "com.appsbuilder673611.AppsBuilderFragmentActivity.onCreate(Landroid/os/Bundle;)V",
          "target": "PC@283",
          "type": "activity",
          "component": "com.appsbuilder673611.AppsBuilderFragmentActivity",
          "constraintsFile": "constraints18_2.py",
          "variables": {
            "\u003cChainedInput1\u003e": "IAAv0",
            "\u003cChainedInput1\u003e.containsKey()": "IAAv1"
          },
          "stringMap": {
            "7000": "fixedmenu",
            "7001": "feeds",
            "7002": "\u003cUI\u003e"
          },
          "strings": {
            "IAAv3": "",
            "IAAv9": ""
          }
        },
        {
          "start": "com.appsbuilder673611.AppsBuilderFragmentActivity.onCreate(Landroid/os/Bundle;)V",
          "target": "PC@176",
          "type": "activity",
          "component": "com.appsbuilder673611.AppsBuilderFragmentActivity",
          "constraintsFile": "constraints18_3.py",
          "variables": {
            "\u003cChainedInput1\u003e": "IAAv0",
            "\u003cChainedInput1\u003e.containsKey()": "IAAv1"
          },
          "stringMap": {
            "7000": "fixedmenu",
            "7001": "feeds",
            "7002": "\u003cUI\u003e"
          },
          "strings": {
            "IAAv3": "",
            "IAAv9": ""
          }
        },
        {
          "start": "com.appsbuilder673611.AppsBuilderFragmentActivity.onCreate(Landroid/os/Bundle;)V",
          "target": "PC@26",
          "type": "activity",
          "component": "com.appsbuilder673611.AppsBuilderFragmentActivity",
          "constraintsFile": "constraints18_4.py",
          "variables": {
            "\u003cChainedInput1\u003e": "IAAv0",
            "\u003cChainedInput1\u003e.containsKey()": "IAAv1"
          },
          "stringMap": {
            "7000": "fixedmenu",
            "7001": "feeds",
            "7002": "\u003cUI\u003e"
          },
          "strings": {
            "IAAv3": "",
            "IAAv9": ""
          }
        },
        {
          "start": "com.appsbuilder673611.AppsBuilderFragmentActivityCategory.onCreate(Landroid/os/Bundle;)V",
          "target": "invokevirtual \u003c Application, Ljava/lang/reflect/Method, invoke(Ljava/lang/Object;[Ljava/lang/Object;)Ljava/lang/Object; \u003e@155",
          "type": "activity",
          "component": "com.appsbuilder673611.AppsBuilderFragmentActivityCategory",
          "constraintsFile": "constraints18_5.py",
          "variables": {
            "\u003cChainedInput1\u003e": "IAAv0",
            "\u003cChainedInput1\u003e.containsKey()": "IAAv1"
          },
          "stringMap": {
            "7000": "fixedmenu",
            "7001": "feeds",
            "7002": "\u003cUI\u003e"
          },
          "strings": {
            "IAAv3": "",
            "IAAv9": ""
          }
        }
      ]
    },
    "19": {
      "startMethod": "com.appsbuilder673611.AppsBuilderFragmentActivityFixed.onCreate(Landroid/os/Bundle;)V",
      "targetMethod": "org.apache.http.impl.client.DefaultHttpClient.execute(Lorg/apache/http/client/methods/HttpUriRequest;)Lorg/apache/http/HttpResponse;",
      "eventChain": [
        {
          "start": "com.appsbuilder673611.AppsBuilderFragmentActivityFixed.onCreate(Landroid/os/Bundle;)V",
          "target": "invokevirtual \u003c Application, Lorg/apache/http/impl/client/DefaultHttpClient, execute(Lorg/apache/http/client/methods/HttpUriRequest;)Lorg/apache/http/HttpResponse; \u003e@167",
          "type": "activity",
          "component": "com.appsbuilder673611.AppsBuilderFragmentActivityFixed",
          "constraintsFile": "constraints19_0.py",
          "variables": {
            "\u003cChainedInput1\u003e": "IAAv0",
            "\u003cChainedInput1\u003e.containsKey()": "IAAv1"
          },
          "stringMap": {
            "7000": "fixedmenu",
            "7001": "feeds",
            "7002": "\u003cUI\u003e"
          },
          "strings": {
            "IAAv3": "",
            "IAAv9": ""
          }
        }
      ]
    },
    "20": {
      "startMethod": "com.appsbuilder673611.AppsBuilderFragmentActivityFixed.onCreate(Landroid/os/Bundle;)V",
      "targetMethod": "java.lang.reflect.Method.invoke(Ljava/lang/Object;[Ljava/lang/Object;)Ljava/lang/Object;",
      "eventChain": [
        {
          "start": "com.appsbuilder673611.AppsBuilderFragmentActivity.onCreate(Landroid/os/Bundle;)V",
          "target": "PC@15",
          "type": "activity",
          "component": "com.appsbuilder673611.AppsBuilderFragmentActivity",
          "constraintsFile": "constraints20_0.py",
          "variables": {
            "\u003cChainedInput1\u003e": "IAAv0",
            "\u003cChainedInput1\u003e.containsKey()": "IAAv1"
          },
          "stringMap": {
            "7000": "fixedmenu",
            "7001": "feeds",
            "7002": "\u003cUI\u003e"
          },
          "strings": {
            "IAAv3": "",
            "IAAv9": ""
          }
        },
        {
          "start": "com.appsbuilder673611.AppsBuilderFragmentActivity.onCreate(Landroid/os/Bundle;)V",
          "target": "PC@181",
          "type": "activity",
          "component": "com.appsbuilder673611.AppsBuilderFragmentActivity",
          "constraintsFile": "constraints20_1.py",
          "variables": {
            "\u003cChainedInput1\u003e": "IAAv0",
            "\u003cChainedInput1\u003e.containsKey()": "IAAv1"
          },
          "stringMap": {
            "7000": "fixedmenu",
            "7001": "feeds",
            "7002": "\u003cUI\u003e"
          },
          "strings": {
            "IAAv3": "",
            "IAAv9": ""
          }
        },
        {
          "start": "com.appsbuilder673611.AppsBuilderFragmentActivity.onCreate(Landroid/os/Bundle;)V",
          "target": "PC@283",
          "type": "activity",
          "component": "com.appsbuilder673611.AppsBuilderFragmentActivity",
          "constraintsFile": "constraints20_2.py",
          "variables": {
            "\u003cChainedInput1\u003e": "IAAv0",
            "\u003cChainedInput1\u003e.containsKey()": "IAAv1"
          },
          "stringMap": {
            "7000": "fixedmenu",
            "7001": "feeds",
            "7002": "\u003cUI\u003e"
          },
          "strings": {
            "IAAv3": "",
            "IAAv9": ""
          }
        },
        {
          "start": "com.appsbuilder673611.AppsBuilderFragmentActivity.onCreate(Landroid/os/Bundle;)V",
          "target": "PC@176",
          "type": "activity",
          "component": "com.appsbuilder673611.AppsBuilderFragmentActivity",
          "constraintsFile": "constraints20_3.py",
          "variables": {
            "\u003cChainedInput1\u003e": "IAAv0",
            "\u003cChainedInput1\u003e.containsKey()": "IAAv1"
          },
          "stringMap": {
            "7000": "fixedmenu",
            "7001": "feeds",
            "7002": "\u003cUI\u003e"
          },
          "strings": {
            "IAAv3": "",
            "IAAv9": ""
          }
        },
        {
          "start": "com.appsbuilder673611.AppsBuilderFragmentActivity.onCreate(Landroid/os/Bundle;)V",
          "target": "PC@26",
          "type": "activity",
          "component": "com.appsbuilder673611.AppsBuilderFragmentActivity",
          "constraintsFile": "constraints20_4.py",
          "variables": {
            "\u003cChainedInput1\u003e": "IAAv0",
            "\u003cChainedInput1\u003e.containsKey()": "IAAv1"
          },
          "stringMap": {
            "7000": "fixedmenu",
            "7001": "feeds",
            "7002": "\u003cUI\u003e"
          },
          "strings": {
            "IAAv3": "",
            "IAAv9": ""
          }
        },
        {
          "start": "com.appsbuilder673611.AppsBuilderFragmentActivityFixed.onCreate(Landroid/os/Bundle;)V",
          "target": "invokevirtual \u003c Application, Ljava/lang/reflect/Method, invoke(Ljava/lang/Object;[Ljava/lang/Object;)Ljava/lang/Object; \u003e@155",
          "type": "activity",
          "component": "com.appsbuilder673611.AppsBuilderFragmentActivityFixed",
          "constraintsFile": "constraints20_5.py",
          "variables": {
            "\u003cChainedInput1\u003e": "IAAv0",
            "\u003cChainedInput1\u003e.containsKey()": "IAAv1"
          },
          "stringMap": {
            "7000": "fixedmenu",
            "7001": "feeds",
            "7002": "\u003cUI\u003e"
          },
          "strings": {
            "IAAv3": "",
            "IAAv9": ""
          }
        }
      ]
    },
    "21": {
      "startMethod": "com.appsbuilder673611.AppsBuilderFragmentActivityFixed.onCreate(Landroid/os/Bundle;)V",
      "targetMethod": "java.lang.reflect.Method.invoke(Ljava/lang/Object;[Ljava/lang/Object;)Ljava/lang/Object;",
      "eventChain": [
        {
          "start": "com.appsbuilder673611.AppsBuilderFragmentActivity.onCreate(Landroid/os/Bundle;)V",
          "target": "PC@15",
          "type": "activity",
          "component": "com.appsbuilder673611.AppsBuilderFragmentActivity",
          "constraintsFile": "constraints21_0.py",
          "variables": {
            "\u003cChainedInput1\u003e": "IAAv0",
            "\u003cChainedInput1\u003e.containsKey()": "IAAv1"
          },
          "stringMap": {
            "7000": "fixedmenu",
            "7001": "feeds",
            "7002": "\u003cUI\u003e"
          },
          "strings": {
            "IAAv3": "",
            "IAAv9": ""
          }
        },
        {
          "start": "com.appsbuilder673611.AppsBuilderFragmentActivity.onCreate(Landroid/os/Bundle;)V",
          "target": "PC@181",
          "type": "activity",
          "component": "com.appsbuilder673611.AppsBuilderFragmentActivity",
          "constraintsFile": "constraints21_1.py",
          "variables": {
            "\u003cChainedInput1\u003e": "IAAv0",
            "\u003cChainedInput1\u003e.containsKey()": "IAAv1"
          },
          "stringMap": {
            "7000": "fixedmenu",
            "7001": "feeds",
            "7002": "\u003cUI\u003e"
          },
          "strings": {
            "IAAv3": "",
            "IAAv9": ""
          }
        },
        {
          "start": "com.appsbuilder673611.AppsBuilderFragmentActivity.onCreate(Landroid/os/Bundle;)V",
          "target": "PC@283",
          "type": "activity",
          "component": "com.appsbuilder673611.AppsBuilderFragmentActivity",
          "constraintsFile": "constraints21_2.py",
          "variables": {
            "\u003cChainedInput1\u003e": "IAAv0",
            "\u003cChainedInput1\u003e.containsKey()": "IAAv1"
          },
          "stringMap": {
            "7000": "fixedmenu",
            "7001": "feeds",
            "7002": "\u003cUI\u003e"
          },
          "strings": {
            "IAAv3": "",
            "IAAv9": ""
          }
        },
        {
          "start": "com.appsbuilder673611.AppsBuilderFragmentActivity.onCreate(Landroid/os/Bundle;)V",
          "target": "PC@176",
          "type": "activity",
          "component": "com.appsbuilder673611.AppsBuilderFragmentActivity",
          "constraintsFile": "constraints21_3.py",
          "variables": {
            "\u003cChainedInput1\u003e": "IAAv0",
            "\u003cChainedInput1\u003e.containsKey()": "IAAv1"
          },
          "stringMap": {
            "7000": "fixedmenu",
            "7001": "feeds",
            "7002": "\u003cUI\u003e"
          },
          "strings": {
            "IAAv3": "",
            "IAAv9": ""
          }
        },
        {
          "start": "com.appsbuilder673611.AppsBuilderFragmentActivity.onCreate(Landroid/os/Bundle;)V",
          "target": "PC@26",
          "type": "activity",
          "component": "com.appsbuilder673611.AppsBuilderFragmentActivity",
          "constraintsFile": "constraints21_4.py",
          "variables": {
            "\u003cChainedInput1\u003e": "IAAv0",
            "\u003cChainedInput1\u003e.containsKey()": "IAAv1"
          },
          "stringMap": {
            "7000": "fixedmenu",
            "7001": "feeds",
            "7002": "\u003cUI\u003e"
          },
          "strings": {
            "IAAv3": "",
            "IAAv9": ""
          }
        },
        {
          "start": "com.appsbuilder673611.AppsBuilderFragmentActivityFixed.onCreate(Landroid/os/Bundle;)V",
          "target": "invokevirtual \u003c Application, Ljava/lang/reflect/Method, invoke(Ljava/lang/Object;[Ljava/lang/Object;)Ljava/lang/Object; \u003e@80",
          "type": "activity",
          "component": "com.appsbuilder673611.AppsBuilderFragmentActivityFixed",
          "constraintsFile": "constraints21_5.py",
          "variables": {
            "\u003cChainedInput1\u003e": "IAAv0",
            "\u003cChainedInput1\u003e.containsKey()": "IAAv1"
          },
          "stringMap": {
            "7000": "fixedmenu",
            "7001": "feeds",
            "7002": "\u003cUI\u003e"
          },
          "strings": {
            "IAAv3": "",
            "IAAv9": ""
          }
        }
      ]
    },
    "22": {
      "startMethod": "com.appsbuilder673611.AppsBuilderFragmentActivityFixed.onCreate(Landroid/os/Bundle;)V",
      "targetMethod": "java.net.URL.openConnection()Ljava/net/URLConnection;",
      "eventChain": [
        {
          "start": "com.appsbuilder673611.AppsBuilderFragmentActivityFixed.onCreate(Landroid/os/Bundle;)V",
          "target": "invokevirtual \u003c Application, Ljava/net/URL, openConnection()Ljava/net/URLConnection; \u003e@52",
          "type": "activity",
          "component": "com.appsbuilder673611.AppsBuilderFragmentActivityFixed",
          "constraintsFile": "constraints22_0.py",
          "variables": {
            "\u003cChainedInput1\u003e": "IAAv0",
            "\u003cChainedInput1\u003e.containsKey()": "IAAv1"
          },
          "stringMap": {
            "7000": "fixedmenu",
            "7001": "feeds"
          },
          "strings": {
            "IAAv3": "",
            "IAAv9": ""
          }
        }
      ]
    },
    "23": {
      "startMethod": "com.appsbuilder673611.AppsBuilderFragmentActivityFixed.onCreate(Landroid/os/Bundle;)V",
      "targetMethod": "java.lang.reflect.Method.invoke(Ljava/lang/Object;[Ljava/lang/Object;)Ljava/lang/Object;",
      "eventChain": [
        {
          "start": "com.appsbuilder673611.AppsBuilderFragmentActivity.onCreate(Landroid/os/Bundle;)V",
          "target": "PC@15",
          "type": "activity",
          "component": "com.appsbuilder673611.AppsBuilderFragmentActivity",
          "constraintsFile": "constraints23_0.py",
          "variables": {
            "\u003cChainedInput1\u003e": "IAAv0",
            "\u003cChainedInput1\u003e.containsKey()": "IAAv1"
          },
          "stringMap": {
            "7000": "fixedmenu",
            "7001": "feeds",
            "7002": "\u003cUI\u003e"
          },
          "strings": {
            "IAAv3": "",
            "IAAv9": ""
          }
        },
        {
          "start": "com.appsbuilder673611.AppsBuilderFragmentActivity.onCreate(Landroid/os/Bundle;)V",
          "target": "PC@181",
          "type": "activity",
          "component": "com.appsbuilder673611.AppsBuilderFragmentActivity",
          "constraintsFile": "constraints23_1.py",
          "variables": {
            "\u003cChainedInput1\u003e": "IAAv0",
            "\u003cChainedInput1\u003e.containsKey()": "IAAv1"
          },
          "stringMap": {
            "7000": "fixedmenu",
            "7001": "feeds",
            "7002": "\u003cUI\u003e"
          },
          "strings": {
            "IAAv3": "",
            "IAAv9": ""
          }
        },
        {
          "start": "com.appsbuilder673611.AppsBuilderFragmentActivity.onCreate(Landroid/os/Bundle;)V",
          "target": "PC@283",
          "type": "activity",
          "component": "com.appsbuilder673611.AppsBuilderFragmentActivity",
          "constraintsFile": "constraints23_2.py",
          "variables": {
            "\u003cChainedInput1\u003e": "IAAv0",
            "\u003cChainedInput1\u003e.containsKey()": "IAAv1"
          },
          "stringMap": {
            "7000": "fixedmenu",
            "7001": "feeds",
            "7002": "\u003cUI\u003e"
          },
          "strings": {
            "IAAv3": "",
            "IAAv9": ""
          }
        },
        {
          "start": "com.appsbuilder673611.AppsBuilderFragmentActivity.onCreate(Landroid/os/Bundle;)V",
          "target": "PC@176",
          "type": "activity",
          "component": "com.appsbuilder673611.AppsBuilderFragmentActivity",
          "constraintsFile": "constraints23_3.py",
          "variables": {
            "\u003cChainedInput1\u003e": "IAAv0",
            "\u003cChainedInput1\u003e.containsKey()": "IAAv1"
          },
          "stringMap": {
            "7000": "fixedmenu",
            "7001": "feeds",
            "7002": "\u003cUI\u003e"
          },
          "strings": {
            "IAAv3": "",
            "IAAv9": ""
          }
        },
        {
          "start": "com.appsbuilder673611.AppsBuilderFragmentActivity.onCreate(Landroid/os/Bundle;)V",
          "target": "PC@26",
          "type": "activity",
          "component": "com.appsbuilder673611.AppsBuilderFragmentActivity",
          "constraintsFile": "constraints23_4.py",
          "variables": {
            "\u003cChainedInput1\u003e": "IAAv0",
            "\u003cChainedInput1\u003e.containsKey()": "IAAv1"
          },
          "stringMap": {
            "7000": "fixedmenu",
            "7001": "feeds",
            "7002": "\u003cUI\u003e"
          },
          "strings": {
            "IAAv3": "",
            "IAAv9": ""
          }
        },
        {
          "start": "com.appsbuilder673611.AppsBuilderFragmentActivityFixed.onCreate(Landroid/os/Bundle;)V",
          "target": "invokevirtual \u003c Application, Ljava/lang/reflect/Method, invoke(Ljava/lang/Object;[Ljava/lang/Object;)Ljava/lang/Object; \u003e@155",
          "type": "activity",
          "component": "com.appsbuilder673611.AppsBuilderFragmentActivityFixed",
          "constraintsFile": "constraints23_5.py",
          "variables": {
            "\u003cChainedInput1\u003e": "IAAv0",
            "\u003cChainedInput1\u003e.containsKey()": "IAAv1"
          },
          "stringMap": {
            "7000": "fixedmenu",
            "7001": "feeds",
            "7002": "\u003cUI\u003e"
          },
          "strings": {
            "IAAv3": "",
            "IAAv9": ""
          }
        }
      ]
    },
    "24": {
      "startMethod": "com.appsbuilder673611.AppsBuilderFragmentActivityFixed.onCreate(Landroid/os/Bundle;)V",
      "targetMethod": "java.lang.reflect.Method.invoke(Ljava/lang/Object;[Ljava/lang/Object;)Ljava/lang/Object;",
      "eventChain": [
        {
          "start": "com.appsbuilder673611.AppsBuilderFragmentActivity.onCreate(Landroid/os/Bundle;)V",
          "target": "PC@15",
          "type": "activity",
          "component": "com.appsbuilder673611.AppsBuilderFragmentActivity",
          "constraintsFile": "constraints24_0.py",
          "variables": {
            "\u003cChainedInput1\u003e": "IAAv0",
            "\u003cChainedInput1\u003e.containsKey()": "IAAv1"
          },
          "stringMap": {
            "7000": "fixedmenu",
            "7001": "feeds",
            "7002": "\u003cUI\u003e"
          },
          "strings": {
            "IAAv3": "",
            "IAAv9": ""
          }
        },
        {
          "start": "com.appsbuilder673611.AppsBuilderFragmentActivity.onCreate(Landroid/os/Bundle;)V",
          "target": "PC@181",
          "type": "activity",
          "component": "com.appsbuilder673611.AppsBuilderFragmentActivity",
          "constraintsFile": "constraints24_1.py",
          "variables": {
            "\u003cChainedInput1\u003e": "IAAv0",
            "\u003cChainedInput1\u003e.containsKey()": "IAAv1"
          },
          "stringMap": {
            "7000": "fixedmenu",
            "7001": "feeds",
            "7002": "\u003cUI\u003e"
          },
          "strings": {
            "IAAv3": "",
            "IAAv9": ""
          }
        },
        {
          "start": "com.appsbuilder673611.AppsBuilderFragmentActivity.onCreate(Landroid/os/Bundle;)V",
          "target": "PC@176",
          "type": "activity",
          "component": "com.appsbuilder673611.AppsBuilderFragmentActivity",
          "constraintsFile": "constraints24_2.py",
          "variables": {
            "\u003cChainedInput1\u003e": "IAAv0",
            "\u003cChainedInput1\u003e.containsKey()": "IAAv1"
          },
          "stringMap": {
            "7000": "fixedmenu",
            "7001": "feeds",
            "7002": "\u003cUI\u003e"
          },
          "strings": {
            "IAAv3": "",
            "IAAv9": ""
          }
        },
        {
          "start": "com.appsbuilder673611.AppsBuilderFragmentActivityFixed.onCreate(Landroid/os/Bundle;)V",
          "target": "invokevirtual \u003c Application, Ljava/lang/reflect/Method, invoke(Ljava/lang/Object;[Ljava/lang/Object;)Ljava/lang/Object; \u003e@93",
          "type": "activity",
          "component": "com.appsbuilder673611.AppsBuilderFragmentActivityFixed",
          "constraintsFile": "constraints24_3.py",
          "variables": {
            "\u003cChainedInput1\u003e": "IAAv0",
            "\u003cChainedInput1\u003e.containsKey()": "IAAv1"
          },
          "stringMap": {
            "7000": "fixedmenu",
            "7001": "feeds",
            "7002": "\u003cUI\u003e"
          },
          "strings": {
            "IAAv3": "",
            "IAAv9": ""
          }
        }
      ]
    },
    "25": {
      "startMethod": "com.appsbuilder673611.AppsBuilderFragmentActivityFixed.onCreate(Landroid/os/Bundle;)V",
      "targetMethod": "java.net.URL.openConnection()Ljava/net/URLConnection;",
      "eventChain": [
        {
          "start": "com.appsbuilder673611.AppsBuilderFragmentActivity.onCreate(Landroid/os/Bundle;)V",
          "target": "PC@37",
          "type": "activity",
          "component": "com.appsbuilder673611.AppsBuilderFragmentActivity",
          "constraintsFile": "constraints25_0.py",
          "variables": {
            "\u003cChainedInput1\u003e": "IAAv0",
            "\u003cChainedInput1\u003e.containsKey()": "IAAv1"
          },
          "stringMap": {
            "7000": "fixedmenu",
            "7001": "feeds",
            "7002": "\u003cUI\u003e"
          },
          "strings": {
            "IAAv3": "",
            "IAAv9": ""
          }
        },
        {
          "start": "com.appsbuilder673611.AppsBuilderFragmentActivity.onCreate(Landroid/os/Bundle;)V",
          "target": "PC@79",
          "type": "activity",
          "component": "com.appsbuilder673611.AppsBuilderFragmentActivity",
          "constraintsFile": "constraints25_1.py",
          "variables": {
            "\u003cChainedInput1\u003e": "IAAv0",
            "\u003cChainedInput1\u003e.containsKey()": "IAAv1"
          },
          "stringMap": {
            "7000": "fixedmenu",
            "7001": "feeds",
            "7002": "\u003cUI\u003e"
          },
          "strings": {
            "IAAv3": "",
            "IAAv9": ""
          }
        },
        {
          "start": "com.appsbuilder673611.AppsBuilderFragmentActivity.onCreate(Landroid/os/Bundle;)V",
          "target": "PC@119",
          "type": "activity",
          "component": "com.appsbuilder673611.AppsBuilderFragmentActivity",
          "constraintsFile": "constraints25_2.py",
          "variables": {
            "\u003cChainedInput1\u003e": "IAAv0",
            "\u003cChainedInput1\u003e.containsKey()": "IAAv1"
          },
          "stringMap": {
            "7000": "fixedmenu",
            "7001": "feeds",
            "7002": "\u003cUI\u003e"
          },
          "strings": {
            "IAAv3": "",
            "IAAv9": ""
          }
        },
        {
          "start": "com.appsbuilder673611.AppsBuilderFragmentActivityFixed.onCreate(Landroid/os/Bundle;)V",
          "target": "invokevirtual \u003c Application, Ljava/net/URL, openConnection()Ljava/net/URLConnection; \u003e@11",
          "type": "activity",
          "component": "com.appsbuilder673611.AppsBuilderFragmentActivityFixed",
          "constraintsFile": "constraints25_3.py",
          "variables": {
            "\u003cChainedInput1\u003e": "IAAv0",
            "\u003cChainedInput1\u003e.containsKey()": "IAAv1"
          },
          "stringMap": {
            "7000": "fixedmenu",
            "7001": "feeds",
            "7002": "\u003cUI\u003e"
          },
          "strings": {
            "IAAv3": "",
            "IAAv9": ""
          }
        }
      ]
    },
    "26": {
      "startMethod": "com.appsbuilder673611.AppsBuilderFragmentActivityFixed.onCreate(Landroid/os/Bundle;)V",
      "targetMethod": "java.lang.reflect.Method.invoke(Ljava/lang/Object;[Ljava/lang/Object;)Ljava/lang/Object;",
      "eventChain": [
        {
          "start": "com.appsbuilder673611.AppsBuilderFragmentActivity.onCreate(Landroid/os/Bundle;)V",
          "target": "PC@15",
          "type": "activity",
          "component": "com.appsbuilder673611.AppsBuilderFragmentActivity",
          "constraintsFile": "constraints26_0.py",
          "variables": {
            "\u003cChainedInput1\u003e": "IAAv0",
            "\u003cChainedInput1\u003e.containsKey()": "IAAv1"
          },
          "stringMap": {
            "7000": "fixedmenu",
            "7001": "feeds",
            "7002": "\u003cUI\u003e"
          },
          "strings": {
            "IAAv3": "",
            "IAAv9": ""
          }
        },
        {
          "start": "com.appsbuilder673611.AppsBuilderFragmentActivity.onCreate(Landroid/os/Bundle;)V",
          "target": "PC@181",
          "type": "activity",
          "component": "com.appsbuilder673611.AppsBuilderFragmentActivity",
          "constraintsFile": "constraints26_1.py",
          "variables": {
            "\u003cChainedInput1\u003e": "IAAv0",
            "\u003cChainedInput1\u003e.containsKey()": "IAAv1"
          },
          "stringMap": {
            "7000": "fixedmenu",
            "7001": "feeds",
            "7002": "\u003cUI\u003e"
          },
          "strings": {
            "IAAv3": "",
            "IAAv9": ""
          }
        },
        {
          "start": "com.appsbuilder673611.AppsBuilderFragmentActivity.onCreate(Landroid/os/Bundle;)V",
          "target": "PC@283",
          "type": "activity",
          "component": "com.appsbuilder673611.AppsBuilderFragmentActivity",
          "constraintsFile": "constraints26_2.py",
          "variables": {
            "\u003cChainedInput1\u003e": "IAAv0",
            "\u003cChainedInput1\u003e.containsKey()": "IAAv1"
          },
          "stringMap": {
            "7000": "fixedmenu",
            "7001": "feeds",
            "7002": "\u003cUI\u003e"
          },
          "strings": {
            "IAAv3": "",
            "IAAv9": ""
          }
        },
        {
          "start": "com.appsbuilder673611.AppsBuilderFragmentActivity.onCreate(Landroid/os/Bundle;)V",
          "target": "PC@176",
          "type": "activity",
          "component": "com.appsbuilder673611.AppsBuilderFragmentActivity",
          "constraintsFile": "constraints26_3.py",
          "variables": {
            "\u003cChainedInput1\u003e": "IAAv0",
            "\u003cChainedInput1\u003e.containsKey()": "IAAv1"
          },
          "stringMap": {
            "7000": "fixedmenu",
            "7001": "feeds",
            "7002": "\u003cUI\u003e"
          },
          "strings": {
            "IAAv3": "",
            "IAAv9": ""
          }
        },
        {
          "start": "com.appsbuilder673611.AppsBuilderFragmentActivity.onCreate(Landroid/os/Bundle;)V",
          "target": "PC@26",
          "type": "activity",
          "component": "com.appsbuilder673611.AppsBuilderFragmentActivity",
          "constraintsFile": "constraints26_4.py",
          "variables": {
            "\u003cChainedInput1\u003e": "IAAv0",
            "\u003cChainedInput1\u003e.containsKey()": "IAAv1"
          },
          "stringMap": {
            "7000": "fixedmenu",
            "7001": "feeds",
            "7002": "\u003cUI\u003e"
          },
          "strings": {
            "IAAv3": "",
            "IAAv9": ""
          }
        },
        {
          "start": "com.appsbuilder673611.AppsBuilderFragmentActivityFixed.onCreate(Landroid/os/Bundle;)V",
          "target": "invokevirtual \u003c Application, Ljava/lang/reflect/Method, invoke(Ljava/lang/Object;[Ljava/lang/Object;)Ljava/lang/Object; \u003e@80",
          "type": "activity",
          "component": "com.appsbuilder673611.AppsBuilderFragmentActivityFixed",
          "constraintsFile": "constraints26_5.py",
          "variables": {
            "\u003cChainedInput1\u003e": "IAAv0",
            "\u003cChainedInput1\u003e.containsKey()": "IAAv1"
          },
          "stringMap": {
            "7000": "fixedmenu",
            "7001": "feeds",
            "7002": "\u003cUI\u003e"
          },
          "strings": {
            "IAAv3": "",
            "IAAv9": ""
          }
        }
      ]
    },
    "27": {
      "startMethod": "com.google.android.gms.maps.MapFragment.onCreate(Landroid/os/Bundle;)V",
      "targetMethod": "java.lang.ClassLoader.loadClass(Ljava/lang/String;)Ljava/lang/Class;",
      "eventChain": [
        {
          "start": "com.google.android.gms.maps.MapFragment.onCreate(Landroid/os/Bundle;)V",
          "target": "invokevirtual \u003c Application, Ljava/lang/ClassLoader, loadClass(Ljava/lang/String;)Ljava/lang/Class; \u003e@13",
          "type": "",
          "constraintsFile": "constraints27_0.py",
          "variables": {
            "\u003cChainedInput1\u003e": "IAAv2"
          },
          "stringMap": {},
          "strings": {}
        }
      ]
    },
    "28": {
      "startMethod": "com.google.android.gms.maps.MapFragment.onAttach(Landroid/app/Activity;)V",
      "targetMethod": "java.lang.ClassLoader.loadClass(Ljava/lang/String;)Ljava/lang/Class;",
      "eventChain": [
        {
          "start": "com.google.android.gms.maps.MapFragment.onAttach(Landroid/app/Activity;)V",
          "target": "invokevirtual \u003c Application, Ljava/lang/ClassLoader, loadClass(Ljava/lang/String;)Ljava/lang/Class; \u003e@13",
          "type": "",
          "constraintsFile": "constraints28_0.py",
          "variables": {},
          "stringMap": {},
          "strings": {}
        }
      ]
    },
    "29": {
      "startMethod": "com.google.android.gms.maps.MapFragment.onCreateView(Landroid/view/LayoutInflater;Landroid/view/ViewGroup;Landroid/os/Bundle;)Landroid/view/View;",
      "targetMethod": "java.lang.ClassLoader.loadClass(Ljava/lang/String;)Ljava/lang/Class;",
      "eventChain": [
        {
          "start": "com.google.android.gms.maps.MapFragment.onCreateView(Landroid/view/LayoutInflater;Landroid/view/ViewGroup;Landroid/os/Bundle;)Landroid/view/View;",
          "target": "invokevirtual \u003c Application, Ljava/lang/ClassLoader, loadClass(Ljava/lang/String;)Ljava/lang/Class; \u003e@13",
          "type": "",
          "constraintsFile": "constraints29_0.py",
          "variables": {
            "\u003cChainedInput3\u003e": "IAAv2"
          },
          "stringMap": {},
          "strings": {}
        }
      ]
    },
    "30": {
      "startMethod": "com.facebook.widget.LoginButton$LoginClickListener.onClick(Landroid/view/View;)V",
      "targetMethod": "java.lang.reflect.Method.invoke(Ljava/lang/Object;[Ljava/lang/Object;)Ljava/lang/Object;",
      "eventChain": [
        {
          "start": "com.facebook.LoginActivity.onResume()V",
          "target": "PC@7",
          "type": "activity",
          "component": "com.facebook.LoginActivity",
          "constraintsFile": "constraints30_0.py",
          "variables": {},
          "stringMap": {},
          "strings": {}
        },
        {
          "start": "com.facebook.widget.LoginButton$LoginClickListener.onClick(Landroid/view/View;)V",
          "target": "invokevirtual \u003c Application, Ljava/lang/reflect/Method, invoke(Ljava/lang/Object;[Ljava/lang/Object;)Ljava/lang/Object; \u003e@48",
          "type": "ui",
          "activities": [
            "com.appsbuilder673611.AppsBuilderMain"
          ],
          "listener": "com.facebook.widget.LoginButton$LoginClickListener",
          "listenerMethod": "onClick",
          "uiType": "onClick",
          "constraintsFile": "constraints30_1.py",
          "variables": {},
          "stringMap": {},
          "strings": {}
        }
      ]
    },
    "31": {
      "startMethod": "com.facebook.widget.LoginButton$LoginClickListener.onClick(Landroid/view/View;)V",
      "targetMethod": "java.net.URL.openConnection()Ljava/net/URLConnection;",
      "eventChain": [
        {
          "start": "com.facebook.widget.LoginButton$LoginClickListener.onClick(Landroid/view/View;)V",
          "target": "PC@24",
          "type": "ui",
          "activities": [
            "com.appsbuilder673611.AppsBuilderMain"
          ],
          "listener": "com.facebook.widget.LoginButton$LoginClickListener",
          "listenerMethod": "onClick",
          "uiType": "onClick",
          "constraintsFile": "constraints31_0.py",
          "variables": {},
          "stringMap": {},
          "strings": {
            "IAAv14": "",
            "IAAv18": "",
            "IAAv19": ""
          }
        },
        {
          "start": "com.facebook.widget.LoginButton$LoginClickListener.onClick(Landroid/view/View;)V",
          "target": "PC@12",
          "type": "ui",
          "activities": [
            "com.appsbuilder673611.AppsBuilderMain"
          ],
          "listener": "com.facebook.widget.LoginButton$LoginClickListener",
          "listenerMethod": "onClick",
          "uiType": "onClick",
          "constraintsFile": "constraints31_1.py",
          "variables": {},
          "stringMap": {},
          "strings": {
            "IAAv14": "",
            "IAAv18": "",
            "IAAv19": ""
          }
        },
        {
          "start": "com.facebook.widget.LoginButton$LoginClickListener.onClick(Landroid/view/View;)V",
          "target": "invokevirtual \u003c Application, Ljava/net/URL, openConnection()Ljava/net/URLConnection; \u003e@2",
          "type": "ui",
          "activities": [
            "com.appsbuilder673611.AppsBuilderMain"
          ],
          "listener": "com.facebook.widget.LoginButton$LoginClickListener",
          "listenerMethod": "onClick",
          "uiType": "onClick",
          "constraintsFile": "constraints31_2.py",
          "variables": {},
          "stringMap": {},
          "strings": {
            "IAAv14": "",
            "IAAv18": "",
            "IAAv19": ""
          }
        }
      ]
    },
    "32": {
      "startMethod": "com.inmobi.re.container.IMWebView$b.onClick(Landroid/content/DialogInterface;I)V",
      "targetMethod": "java.lang.reflect.Method.invoke(Ljava/lang/Object;[Ljava/lang/Object;)Ljava/lang/Object;",
      "eventChain": [
        {
          "start": "com.inmobi.re.container.IMWebView$b.\u003cinit\u003e(Lcom/inmobi/re/container/IMWebView;Landroid/net/http/SslError;)V",
          "target": "PC@8",
          "type": "",
          "constraintsFile": "constraints32_0.py",
          "variables": {
            "\u003cInput2\u003e": "IAAv1"
          },
          "stringMap": {},
          "strings": {}
        },
        {
          "start": "com.inmobi.re.container.IMWebView$b.onClick(Landroid/content/DialogInterface;I)V",
          "target": "invokevirtual \u003c Application, Ljava/lang/reflect/Method, invoke(Ljava/lang/Object;[Ljava/lang/Object;)Ljava/lang/Object; \u003e@36",
          "type": "ui",
          "activities": [
            "com.appsbuilder673611.AppsBuilderMain"
          ],
          "listener": "com.inmobi.re.container.IMWebView$b",
          "listenerMethod": "onClick",
          "uiType": "onClick",
          "inDialog": "true"
        }
      ]
    }
  }
}