{
  "packageName": "coy.kamusofflineeng_ind",
  "mainActivity": "coy.kamusofflineeng_ind.MainActivity",
  "callPaths": {
    "0": {
      "startMethod": "com.google.ads.AdActivity.onCreate(Landroid/os/Bundle;)V",
      "targetMethod": "android.webkit.WebView.\u003cinit\u003e(Landroid/content/Context;)V",
      "eventChain": [
        {
          "start": "com.google.ads.AdActivity.\u003cinit\u003e()V",
          "target": "PC@14",
          "type": "",
          "constraintsFile": "constraints0_0.py",
          "variables": {},
          "stringMap": {},
          "strings": {
            "IAAv10": ""
          }
        },
        {
          "start": "com.google.ads.AdActivity.\u003cclinit\u003e()V",
          "target": "",
          "type": "",
          "constraintsFile": "constraints0_1.py",
          "variables": {},
          "stringMap": {},
          "strings": {
            "IAAv9": ""
          }
        },
        {
          "start": "com.google.ads.AdActivity.onCreate(Landroid/os/Bundle;)V",
          "target": "invokespecial \u003c Application, Landroid/webkit/WebView, \u003cinit\u003e(Landroid/content/Context;)V \u003e@15",
          "type": "activity",
          "component": "com.google.ads.AdActivity",
          "constraintsFile": "constraints0_2.py",
          "variables": {},
          "stringMap": {},
          "strings": {
            "IAAv10": ""
          }
        }
      ]
    },
    "1": {
      "startMethod": "com.google.ads.AdActivity.onCreate(Landroid/os/Bundle;)V",
      "targetMethod": "android.webkit.WebView.\u003cinit\u003e(Landroid/content/Context;)V",
      "eventChain": [
        {
          "start": "com.google.ads.AdActivity.\u003cinit\u003e()V",
          "target": "PC@14",
          "type": "",
          "constraintsFile": "constraints1_0.py",
          "variables": {},
          "stringMap": {},
          "strings": {}
        },
        {
          "start": "com.google.ads.AdActivity.\u003cclinit\u003e()V",
          "target": "",
          "type": "",
          "constraintsFile": "constraints1_1.py",
          "variables": {},
          "stringMap": {},
          "strings": {}
        },
        {
          "start": "com.google.ads.AdActivity.onCreate(Landroid/os/Bundle;)V",
          "target": "invokespecial \u003c Application, Landroid/webkit/WebView, \u003cinit\u003e(Landroid/content/Context;)V \u003e@25",
          "type": "activity",
          "component": "com.google.ads.AdActivity",
          "constraintsFile": "constraints1_2.py",
          "variables": {},
          "stringMap": {},
          "strings": {}
        }
      ]
    },
    "2": {
      "startMethod": "coy.kamusofflineeng_ind.MainActivity.onCreate(Landroid/os/Bundle;)V",
      "targetMethod": "android.net.ConnectivityManager.getActiveNetworkInfo()Landroid/net/NetworkInfo;",
      "eventChain": [
        {
          "start": "coy.kamusofflineeng_ind.MainActivity.onCreate(Landroid/os/Bundle;)V",
          "target": "invokevirtual \u003c Application, Landroid/net/ConnectivityManager, getActiveNetworkInfo()Landroid/net/NetworkInfo; \u003e@17",
          "type": "activity",
          "component": "coy.kamusofflineeng_ind.MainActivity"
        }
      ]
    },
    "3": {
      "startMethod": "com.google.ads.util.g$b.shouldInterceptRequest(Landroid/webkit/WebView;Ljava/lang/String;)Landroid/webkit/WebResourceResponse;",
      "targetMethod": "java.net.HttpURLConnection.getInputStream()Ljava/io/InputStream;",
      "eventChain": [
        {
          "start": "com.google.ads.util.g$b.shouldInterceptRequest(Landroid/webkit/WebView;Ljava/lang/String;)Landroid/webkit/WebResourceResponse;",
          "target": "invokespecial \u003c Application, Lcom/google/ads/internal/i, shouldInterceptRequest(Landroid/webkit/WebView;Ljava/lang/String;)Landroid/webkit/WebResourceResponse; \u003e@246",
          "type": ""
        },
        {
          "start": "com.google.ads.util.g$b.shouldInterceptRequest(Landroid/webkit/WebView;Ljava/lang/String;)Landroid/webkit/WebResourceResponse;",
          "target": "invokevirtual \u003c Application, Ljava/net/HttpURLConnection, getInputStream()Ljava/io/InputStream; \u003e@39",
          "type": "",
          "constraintsFile": "constraints3_0.py",
          "variables": {},
          "stringMap": {},
          "strings": {}
        }
      ]
    },
    "4": {
      "startMethod": "com.google.ads.util.g$b.shouldInterceptRequest(Landroid/webkit/WebView;Ljava/lang/String;)Landroid/webkit/WebResourceResponse;",
      "targetMethod": "java.net.URL.openConnection()Ljava/net/URLConnection;",
      "eventChain": [
        {
          "start": "com.google.ads.util.g$b.shouldInterceptRequest(Landroid/webkit/WebView;Ljava/lang/String;)Landroid/webkit/WebResourceResponse;",
          "target": "invokespecial \u003c Application, Lcom/google/ads/internal/i, shouldInterceptRequest(Landroid/webkit/WebView;Ljava/lang/String;)Landroid/webkit/WebResourceResponse; \u003e@246",
          "type": ""
        },
        {
          "start": "com.google.ads.util.g$b.shouldInterceptRequest(Landroid/webkit/WebView;Ljava/lang/String;)Landroid/webkit/WebResourceResponse;",
          "target": "invokevirtual \u003c Application, Ljava/net/URL, openConnection()Ljava/net/URLConnection; \u003e@11",
          "type": "",
          "constraintsFile": "constraints4_0.py",
          "variables": {},
          "stringMap": {},
          "strings": {}
        }
      ]
    },
    "5": {
      "startMethod": "com.google.ads.util.g$b.shouldInterceptRequest(Landroid/webkit/WebView;Ljava/lang/String;)Landroid/webkit/WebResourceResponse;",
      "targetMethod": "java.net.HttpURLConnection.connect()V",
      "eventChain": [
        {
          "start": "com.google.ads.util.g$b.shouldInterceptRequest(Landroid/webkit/WebView;Ljava/lang/String;)Landroid/webkit/WebResourceResponse;",
          "target": "invokespecial \u003c Application, Lcom/google/ads/internal/i, shouldInterceptRequest(Landroid/webkit/WebView;Ljava/lang/String;)Landroid/webkit/WebResourceResponse; \u003e@246",
          "type": ""
        },
        {
          "start": "com.google.ads.util.g$b.shouldInterceptRequest(Landroid/webkit/WebView;Ljava/lang/String;)Landroid/webkit/WebResourceResponse;",
          "target": "invokevirtual \u003c Application, Ljava/net/HttpURLConnection, connect()V \u003e@31",
          "type": "",
          "constraintsFile": "constraints5_0.py",
          "variables": {},
          "stringMap": {},
          "strings": {}
        }
      ]
    },
    "6": {
      "startMethod": "com.google.ads.util.g$b.shouldInterceptRequest(Landroid/webkit/WebView;Ljava/lang/String;)Landroid/webkit/WebResourceResponse;",
      "targetMethod": "android.webkit.WebView.\u003cinit\u003e(Landroid/content/Context;)V",
      "eventChain": [
        {
          "start": "com.google.ads.util.g$b.shouldInterceptRequest(Landroid/webkit/WebView;Ljava/lang/String;)Landroid/webkit/WebResourceResponse;",
          "target": "invokespecial \u003c Application, Lcom/google/ads/internal/i, shouldInterceptRequest(Landroid/webkit/WebView;Ljava/lang/String;)Landroid/webkit/WebResourceResponse; \u003e@246",
          "type": ""
        },
        {
          "start": "com.google.ads.util.g$b.shouldInterceptRequest(Landroid/webkit/WebView;Ljava/lang/String;)Landroid/webkit/WebResourceResponse;",
          "target": "invokespecial \u003c Application, Landroid/webkit/WebView, \u003cinit\u003e(Landroid/content/Context;)V \u003e@15",
          "type": "",
          "constraintsFile": "constraints6_0.py",
          "variables": {},
          "stringMap": {},
          "strings": {
            "IAAv3": ""
          }
        }
      ]
    },
    "7": {
      "startMethod": "com.google.ads.internal.j.run()V",
      "targetMethod": "android.webkit.WebView.\u003cinit\u003e(Landroid/content/Context;)V",
      "eventChain": [
        {
          "start": "com.google.ads.internal.j.run()V",
          "target": "invokespecial \u003c Application, Landroid/webkit/WebView, \u003cinit\u003e(Landroid/content/Context;)V \u003e@15",
          "type": "",
          "constraintsFile": "constraints7_0.py",
          "variables": {},
          "stringMap": {},
          "strings": {
            "IAAv0": ""
          }
        }
      ]
    },
    "8": {
      "startMethod": "com.google.ads.internal.j.run()V",
      "targetMethod": "java.net.URL.openConnection()Ljava/net/URLConnection;",
      "eventChain": [
        {
          "start": "com.google.ads.internal.j.run()V",
          "target": "invokevirtual \u003c Application, Ljava/net/URL, openConnection()Ljava/net/URLConnection; \u003e@4",
          "type": ""
        }
      ]
    },
    "9": {
      "startMethod": "com.google.ads.ae.run()V",
      "targetMethod": "java.net.HttpURLConnection.connect()V",
      "eventChain": [
        {
          "start": "com.google.ads.ae.run()V",
          "target": "invokevirtual \u003c Application, Ljava/net/HttpURLConnection, connect()V \u003e@76",
          "type": ""
        }
      ]
    },
    "10": {
      "startMethod": "com.google.ads.ae.run()V",
      "targetMethod": "java.net.URL.openConnection()Ljava/net/URLConnection;",
      "eventChain": [
        {
          "start": "com.google.ads.ae.run()V",
          "target": "invokevirtual \u003c Application, Ljava/net/URL, openConnection()Ljava/net/URLConnection; \u003e@2",
          "type": ""
        }
      ]
    },
    "11": {
      "startMethod": "com.google.ads.ae.run()V",
      "targetMethod": "android.webkit.WebView.\u003cinit\u003e(Landroid/content/Context;)V",
      "eventChain": [
        {
          "start": "com.google.ads.ae.run()V",
          "target": "invokespecial \u003c Application, Landroid/webkit/WebView, \u003cinit\u003e(Landroid/content/Context;)V \u003e@15",
          "type": "",
          "constraintsFile": "constraints11_0.py",
          "variables": {},
          "stringMap": {},
          "strings": {
            "IAAv0": ""
          }
        }
      ]
    },
    "12": {
      "startMethod": "com.google.ads.internal.c.run()V",
      "targetMethod": "java.lang.reflect.Method.invoke(Ljava/lang/Object;[Ljava/lang/Object;)Ljava/lang/Object;",
      "eventChain": [
        {
          "start": "com.google.ads.internal.c.run()V",
          "target": "invokevirtual \u003c Application, Ljava/lang/reflect/Method, invoke(Ljava/lang/Object;[Ljava/lang/Object;)Ljava/lang/Object; \u003e@43",
          "type": "",
          "constraintsFile": "constraints12_0.py",
          "variables": {},
          "stringMap": {
            "7000": "p",
            "7001": "l",
            "7002": "t"
          },
          "strings": {
            "IAAv24": "",
            "IAAv11": "",
            "IAAv23": "",
            "IAAv12": "",
            "IAAv16": ""
          }
        }
      ]
    },
    "13": {
      "startMethod": "com.google.ads.internal.c.run()V",
      "targetMethod": "java.lang.reflect.Method.invoke(Ljava/lang/Object;[Ljava/lang/Object;)Ljava/lang/Object;",
      "eventChain": [
        {
          "start": "com.google.ads.internal.c.run()V",
          "target": "invokevirtual \u003c Application, Ljava/lang/reflect/Method, invoke(Ljava/lang/Object;[Ljava/lang/Object;)Ljava/lang/Object; \u003e@35",
          "type": "",
          "constraintsFile": "constraints13_0.py",
          "variables": {},
          "stringMap": {
            "7000": "p",
            "7001": "l",
            "7002": "t"
          },
          "strings": {
            "IAAv24": "",
            "IAAv11": "",
            "IAAv23": "",
            "IAAv12": "",
            "IAAv16": ""
          }
        }
      ]
    },
    "14": {
      "startMethod": "com.google.ads.internal.c.run()V",
      "targetMethod": "dalvik.system.DexClassLoader.loadClass(Ljava/lang/String;)Ljava/lang/Class;",
      "eventChain": [
        {
          "start": "com.google.ads.internal.c.run()V",
          "target": "invokevirtual \u003c Application, Ldalvik/system/DexClassLoader, loadClass(Ljava/lang/String;)Ljava/lang/Class; \u003e@238",
          "type": "",
          "constraintsFile": "constraints14_0.py",
          "variables": {},
          "stringMap": {
            "7000": "p",
            "7001": "l",
            "7002": "t"
          },
          "strings": {
            "IAAv24": "",
            "IAAv11": "",
            "IAAv23": "",
            "IAAv12": "",
            "IAAv16": ""
          }
        }
      ]
    },
    "15": {
      "startMethod": "com.google.ads.internal.c.run()V",
      "targetMethod": "dalvik.system.DexClassLoader.loadClass(Ljava/lang/String;)Ljava/lang/Class;",
      "eventChain": [
        {
          "start": "com.google.ads.internal.c.run()V",
          "target": "invokevirtual \u003c Application, Ldalvik/system/DexClassLoader, loadClass(Ljava/lang/String;)Ljava/lang/Class; \u003e@196",
          "type": "",
          "constraintsFile": "constraints15_0.py",
          "variables": {},
          "stringMap": {
            "7000": "p",
            "7001": "l",
            "7002": "t"
          },
          "strings": {
            "IAAv24": "",
            "IAAv11": "",
            "IAAv23": "",
            "IAAv12": "",
            "IAAv16": ""
          }
        }
      ]
    },
    "16": {
      "startMethod": "com.google.ads.internal.c.run()V",
      "targetMethod": "java.lang.reflect.Method.invoke(Ljava/lang/Object;[Ljava/lang/Object;)Ljava/lang/Object;",
      "eventChain": [
        {
          "start": "com.google.ads.internal.c.run()V",
          "target": "invokevirtual \u003c Application, Ljava/lang/reflect/Method, invoke(Ljava/lang/Object;[Ljava/lang/Object;)Ljava/lang/Object; \u003e@43",
          "type": "",
          "constraintsFile": "constraints16_0.py",
          "variables": {},
          "stringMap": {
            "7000": "p",
            "7001": "l",
            "7002": "t"
          },
          "strings": {
            "IAAv24": "",
            "IAAv11": "",
            "IAAv23": "",
            "IAAv12": "",
            "IAAv16": ""
          }
        }
      ]
    },
    "17": {
      "startMethod": "com.google.ads.internal.c.run()V",
      "targetMethod": "java.lang.reflect.Method.invoke(Ljava/lang/Object;[Ljava/lang/Object;)Ljava/lang/Object;",
      "eventChain": [
        {
          "start": "com.google.ads.internal.c.run()V",
          "target": "invokevirtual \u003c Application, Ljava/lang/reflect/Method, invoke(Ljava/lang/Object;[Ljava/lang/Object;)Ljava/lang/Object; \u003e@61",
          "type": "",
          "constraintsFile": "constraints17_0.py",
          "variables": {},
          "stringMap": {
            "7000": "p",
            "7001": "l",
            "7002": "t"
          },
          "strings": {
            "IAAv24": "",
            "IAAv11": "",
            "IAAv23": "",
            "IAAv12": "",
            "IAAv16": ""
          }
        }
      ]
    },
    "18": {
      "startMethod": "com.google.ads.internal.c.run()V",
      "targetMethod": "dalvik.system.DexClassLoader.loadClass(Ljava/lang/String;)Ljava/lang/Class;",
      "eventChain": [
        {
          "start": "com.google.ads.internal.c.run()V",
          "target": "invokevirtual \u003c Application, Ldalvik/system/DexClassLoader, loadClass(Ljava/lang/String;)Ljava/lang/Class; \u003e@175",
          "type": "",
          "constraintsFile": "constraints18_0.py",
          "variables": {},
          "stringMap": {
            "7000": "p",
            "7001": "l",
            "7002": "t"
          },
          "strings": {
            "IAAv24": "",
            "IAAv11": "",
            "IAAv23": "",
            "IAAv12": "",
            "IAAv16": ""
          }
        }
      ]
    },
    "19": {
      "startMethod": "com.google.ads.internal.c.run()V",
      "targetMethod": "android.net.ConnectivityManager.getActiveNetworkInfo()Landroid/net/NetworkInfo;",
      "eventChain": [
        {
          "start": "com.google.ads.internal.c.run()V",
          "target": "invokevirtual \u003c Application, Landroid/net/ConnectivityManager, getActiveNetworkInfo()Landroid/net/NetworkInfo; \u003e@17",
          "type": "",
          "constraintsFile": "constraints19_0.py",
          "variables": {},
          "stringMap": {
            "7000": "p",
            "7001": "l",
            "7002": "t"
          },
          "strings": {
            "IAAv11": "",
            "IAAv12": "",
            "IAAv16": ""
          }
        }
      ]
    },
    "20": {
      "startMethod": "com.google.ads.internal.c.run()V",
      "targetMethod": "dalvik.system.DexClassLoader.loadClass(Ljava/lang/String;)Ljava/lang/Class;",
      "eventChain": [
        {
          "start": "com.google.ads.internal.c.run()V",
          "target": "invokevirtual \u003c Application, Ldalvik/system/DexClassLoader, loadClass(Ljava/lang/String;)Ljava/lang/Class; \u003e@217",
          "type": "",
          "constraintsFile": "constraints20_0.py",
          "variables": {},
          "stringMap": {
            "7000": "p",
            "7001": "l",
            "7002": "t"
          },
          "strings": {
            "IAAv24": "",
            "IAAv11": "",
            "IAAv23": "",
            "IAAv12": "",
            "IAAv16": ""
          }
        }
      ]
    },
    "21": {
      "startMethod": "com.google.ads.internal.c.run()V",
      "targetMethod": "java.lang.reflect.Method.invoke(Ljava/lang/Object;[Ljava/lang/Object;)Ljava/lang/Object;",
      "eventChain": [
        {
          "start": "com.google.ads.internal.c.run()V",
          "target": "invokevirtual \u003c Application, Ljava/lang/reflect/Method, invoke(Ljava/lang/Object;[Ljava/lang/Object;)Ljava/lang/Object; \u003e@35",
          "type": "",
          "constraintsFile": "constraints21_0.py",
          "variables": {},
          "stringMap": {
            "7000": "p",
            "7001": "l",
            "7002": "t"
          },
          "strings": {
            "IAAv24": "",
            "IAAv11": "",
            "IAAv23": "",
            "IAAv12": "",
            "IAAv16": ""
          }
        }
      ]
    },
    "22": {
      "startMethod": "com.google.ads.internal.c.run()V",
      "targetMethod": "dalvik.system.DexClassLoader.loadClass(Ljava/lang/String;)Ljava/lang/Class;",
      "eventChain": [
        {
          "start": "com.google.ads.internal.c.run()V",
          "target": "invokevirtual \u003c Application, Ldalvik/system/DexClassLoader, loadClass(Ljava/lang/String;)Ljava/lang/Class; \u003e@259",
          "type": "",
          "constraintsFile": "constraints22_0.py",
          "variables": {},
          "stringMap": {
            "7000": "p",
            "7001": "l",
            "7002": "t"
          },
          "strings": {
            "IAAv24": "",
            "IAAv11": "",
            "IAAv23": "",
            "IAAv12": "",
            "IAAv16": ""
          }
        }
      ]
    },
    "23": {
      "startMethod": "com.google.ads.internal.f.run()V",
      "targetMethod": "java.net.HttpURLConnection.connect()V",
      "eventChain": [
        {
          "start": "com.google.ads.internal.f.run()V",
          "target": "invokevirtual \u003c Application, Ljava/net/HttpURLConnection, connect()V \u003e@126",
          "type": ""
        }
      ]
    },
    "24": {
      "startMethod": "com.google.ads.internal.f.run()V",
      "targetMethod": "android.webkit.WebView.\u003cinit\u003e(Landroid/content/Context;)V",
      "eventChain": [
        {
          "start": "com.google.ads.internal.f.run()V",
          "target": "invokespecial \u003c Application, Landroid/webkit/WebView, \u003cinit\u003e(Landroid/content/Context;)V \u003e@15",
          "type": ""
        }
      ]
    },
    "25": {
      "startMethod": "com.google.ads.internal.f.run()V",
      "targetMethod": "java.net.HttpURLConnection.getInputStream()Ljava/io/InputStream;",
      "eventChain": [
        {
          "start": "com.google.ads.internal.f.run()V",
          "target": "invokevirtual \u003c Application, Ljava/net/HttpURLConnection, getInputStream()Ljava/io/InputStream; \u003e@148",
          "type": ""
        }
      ]
    }
  }
}