{
  "packageName": "com.shere.assistivetouch",
  "mainActivity": "com.shere.assistivetouch.SettingActivity",
  "callPaths": {
    "0": {
      "startMethod": "com.shere.assistivetouch.AssistiveTouchActivity.onCreate(Landroid/os/Bundle;)V",
      "targetMethod": "org.apache.http.client.HttpClient.execute(Lorg/apache/http/client/methods/HttpUriRequest;)Lorg/apache/http/HttpResponse;",
      "eventChain": [
        {
          "start": "com.shere.assistivetouch.AssistiveTouchActivity.onCreate(Landroid/os/Bundle;)V",
          "target": "invokeinterface \u003c Application, Lorg/apache/http/client/HttpClient, execute(Lorg/apache/http/client/methods/HttpUriRequest;)Lorg/apache/http/HttpResponse; \u003e@312",
          "type": "activity",
          "component": "com.shere.assistivetouch.AssistiveTouchActivity"
        }
      ]
    },
    "1": {
      "startMethod": "com.shere.assistivetouch.AssistiveTouchActivity.onCreate(Landroid/os/Bundle;)V",
      "targetMethod": "java.lang.reflect.Method.invoke(Ljava/lang/Object;[Ljava/lang/Object;)Ljava/lang/Object;",
      "eventChain": [
        {
          "start": "com.shere.assistivetouch.AssistiveTouchActivity.onCreate(Landroid/os/Bundle;)V",
          "target": "invokevirtual \u003c Application, Ljava/lang/reflect/Method, invoke(Ljava/lang/Object;[Ljava/lang/Object;)Ljava/lang/Object; \u003e@224",
          "type": "activity",
          "component": "com.shere.assistivetouch.AssistiveTouchActivity"
        }
      ]
    },
    "2": {
      "startMethod": "com.shere.assistivetouch.AssistiveTouchActivity.onCreate(Landroid/os/Bundle;)V",
      "targetMethod": "java.lang.reflect.Method.invoke(Ljava/lang/Object;[Ljava/lang/Object;)Ljava/lang/Object;",
      "eventChain": [
        {
          "start": "com.shere.assistivetouch.AssistiveTouchActivity.onCreate(Landroid/os/Bundle;)V",
          "target": "invokevirtual \u003c Application, Ljava/lang/reflect/Method, invoke(Ljava/lang/Object;[Ljava/lang/Object;)Ljava/lang/Object; \u003e@165",
          "type": "activity",
          "component": "com.shere.assistivetouch.AssistiveTouchActivity"
        }
      ]
    },
    "3": {
      "startMethod": "com.shere.assistivetouch.AssistiveTouchActivity.onCreate(Landroid/os/Bundle;)V",
      "targetMethod": "org.apache.http.client.HttpClient.execute(Lorg/apache/http/client/methods/HttpUriRequest;)Lorg/apache/http/HttpResponse;",
      "eventChain": [
        {
          "start": "com.shere.assistivetouch.AssistiveTouchActivity.onCreate(Landroid/os/Bundle;)V",
          "target": "PC@63",
          "type": "activity",
          "component": "com.shere.assistivetouch.AssistiveTouchActivity",
          "constraintsFile": "constraints3_0.py",
          "variables": {},
          "stringMap": {},
          "strings": {}
        },
        {
          "start": "com.shere.assistivetouch.AssistiveTouchActivity.onCreate(Landroid/os/Bundle;)V",
          "target": "PC@8",
          "type": "activity",
          "component": "com.shere.assistivetouch.AssistiveTouchActivity",
          "constraintsFile": "constraints3_1.py",
          "variables": {},
          "stringMap": {},
          "strings": {}
        },
        {
          "start": "com.shere.assistivetouch.AssistiveTouchActivity.onCreate(Landroid/os/Bundle;)V",
          "target": "invokeinterface \u003c Application, Lorg/apache/http/client/HttpClient, execute(Lorg/apache/http/client/methods/HttpUriRequest;)Lorg/apache/http/HttpResponse; \u003e@6",
          "type": "activity",
          "component": "com.shere.assistivetouch.AssistiveTouchActivity",
          "constraintsFile": "constraints3_2.py",
          "variables": {},
          "stringMap": {},
          "strings": {}
        }
      ]
    },
    "4": {
      "startMethod": "com.shere.assistivetouch.SettingActivity.onStart()V",
      "targetMethod": "org.apache.http.client.HttpClient.execute(Lorg/apache/http/client/methods/HttpUriRequest;)Lorg/apache/http/HttpResponse;",
      "eventChain": [
        {
          "start": "com.shere.assistivetouch.SettingActivity.onStart()V",
          "target": "invokeinterface \u003c Application, Lorg/apache/http/client/HttpClient, execute(Lorg/apache/http/client/methods/HttpUriRequest;)Lorg/apache/http/HttpResponse; \u003e@130",
          "type": "activity",
          "component": "com.shere.assistivetouch.SettingActivity"
        }
      ]
    },
    "5": {
      "startMethod": "com.shere.assistivetouch.SettingActivity.onStart()V",
      "targetMethod": "org.apache.http.impl.client.DefaultHttpClient.execute(Lorg/apache/http/client/methods/HttpUriRequest;)Lorg/apache/http/HttpResponse;",
      "eventChain": [
        {
          "start": "com.shere.assistivetouch.SettingActivity.onStart()V",
          "target": "invokevirtual \u003c Application, Lorg/apache/http/impl/client/DefaultHttpClient, execute(Lorg/apache/http/client/methods/HttpUriRequest;)Lorg/apache/http/HttpResponse; \u003e@446",
          "type": "activity",
          "component": "com.shere.assistivetouch.SettingActivity"
        }
      ]
    },
    "6": {
      "startMethod": "com.shere.assistivetouch.SettingActivity.onStart()V",
      "targetMethod": "org.apache.http.client.HttpClient.execute(Lorg/apache/http/client/methods/HttpUriRequest;)Lorg/apache/http/HttpResponse;",
      "eventChain": [
        {
          "start": "com.shere.assistivetouch.SettingActivity.onStart()V",
          "target": "invokeinterface \u003c Application, Lorg/apache/http/client/HttpClient, execute(Lorg/apache/http/client/methods/HttpUriRequest;)Lorg/apache/http/HttpResponse; \u003e@432",
          "type": "activity",
          "component": "com.shere.assistivetouch.SettingActivity"
        }
      ]
    },
    "7": {
      "startMethod": "com.shere.assistivetouch.SettingActivity.onStart()V",
      "targetMethod": "java.net.URL.openConnection()Ljava/net/URLConnection;",
      "eventChain": [
        {
          "start": "com.shere.assistivetouch.SettingActivity.onStart()V",
          "target": "invokevirtual \u003c Application, Ljava/net/URL, openConnection()Ljava/net/URLConnection; \u003e@85",
          "type": "activity",
          "component": "com.shere.assistivetouch.SettingActivity"
        }
      ]
    },
    "8": {
      "startMethod": "com.shere.assistivetouch.QuestionAndAnswerActivity.onCreate(Landroid/os/Bundle;)V",
      "targetMethod": "java.lang.reflect.Method.invoke(Ljava/lang/Object;[Ljava/lang/Object;)Ljava/lang/Object;",
      "eventChain": [
        {
          "start": "com.shere.assistivetouch.QuestionAndAnswerActivity.onCreate(Landroid/os/Bundle;)V",
          "target": "invokevirtual \u003c Application, Ljava/lang/reflect/Method, invoke(Ljava/lang/Object;[Ljava/lang/Object;)Ljava/lang/Object; \u003e@224",
          "type": "activity",
          "component": "com.shere.assistivetouch.QuestionAndAnswerActivity"
        }
      ]
    },
    "9": {
      "startMethod": "com.shere.assistivetouch.QuestionAndAnswerActivity.onCreate(Landroid/os/Bundle;)V",
      "targetMethod": "java.lang.reflect.Method.invoke(Ljava/lang/Object;[Ljava/lang/Object;)Ljava/lang/Object;",
      "eventChain": [
        {
          "start": "com.shere.assistivetouch.QuestionAndAnswerActivity.onCreate(Landroid/os/Bundle;)V",
          "target": "invokevirtual \u003c Application, Ljava/lang/reflect/Method, invoke(Ljava/lang/Object;[Ljava/lang/Object;)Ljava/lang/Object; \u003e@165",
          "type": "activity",
          "component": "com.shere.assistivetouch.QuestionAndAnswerActivity"
        }
      ]
    },
    "10": {
      "startMethod": "com.shere.assistivetouch.QuestionAndAnswerActivity.onCreate(Landroid/os/Bundle;)V",
      "targetMethod": "org.apache.http.client.HttpClient.execute(Lorg/apache/http/client/methods/HttpUriRequest;)Lorg/apache/http/HttpResponse;",
      "eventChain": [
        {
          "start": "com.shere.assistivetouch.QuestionAndAnswerActivity.onCreate(Landroid/os/Bundle;)V",
          "target": "invokeinterface \u003c Application, Lorg/apache/http/client/HttpClient, execute(Lorg/apache/http/client/methods/HttpUriRequest;)Lorg/apache/http/HttpResponse; \u003e@312",
          "type": "activity",
          "component": "com.shere.assistivetouch.QuestionAndAnswerActivity"
        }
      ]
    },
    "11": {
      "startMethod": "com.shere.assistivetouch.EasyTouchService.onCreate()V",
      "targetMethod": "java.lang.reflect.Method.invoke(Ljava/lang/Object;[Ljava/lang/Object;)Ljava/lang/Object;",
      "eventChain": [
        {
          "start": "com.shere.assistivetouch.EasyTouchService.onCreate()V",
          "target": "invokevirtual \u003c Application, Ljava/lang/reflect/Method, invoke(Ljava/lang/Object;[Ljava/lang/Object;)Ljava/lang/Object; \u003e@73",
          "type": "service",
          "component": "com.shere.assistivetouch.EasyTouchService"
        }
      ]
    },
    "12": {
      "startMethod": "com.shere.assistivetouch.EasyTouchService.onCreate()V",
      "targetMethod": "java.lang.reflect.Method.invoke(Ljava/lang/Object;[Ljava/lang/Object;)Ljava/lang/Object;",
      "eventChain": [
        {
          "start": "com.shere.assistivetouch.EasyTouchService.onCreate()V",
          "target": "invokevirtual \u003c Application, Ljava/lang/reflect/Method, invoke(Ljava/lang/Object;[Ljava/lang/Object;)Ljava/lang/Object; \u003e@141",
          "type": "service",
          "component": "com.shere.assistivetouch.EasyTouchService"
        }
      ]
    },
    "13": {
      "startMethod": "com.kuguo.ad.MainActivity.onCreate(Landroid/os/Bundle;)V",
      "targetMethod": "org.apache.http.client.HttpClient.execute(Lorg/apache/http/client/methods/HttpUriRequest;)Lorg/apache/http/HttpResponse;",
      "eventChain": [
        {
          "start": "com.kuguo.ad.MainActivity.onCreate(Landroid/os/Bundle;)V",
          "target": "invokeinterface \u003c Application, Lorg/apache/http/client/HttpClient, execute(Lorg/apache/http/client/methods/HttpUriRequest;)Lorg/apache/http/HttpResponse; \u003e@432",
          "type": "activity",
          "component": "com.kuguo.ad.MainActivity"
        }
      ]
    },
    "14": {
      "startMethod": "com.shere.simpletools.common.BaseApplication.onCreate()V",
      "targetMethod": "org.apache.http.client.HttpClient.execute(Lorg/apache/http/client/methods/HttpUriRequest;)Lorg/apache/http/HttpResponse;",
      "eventChain": [
        {
          "start": "com.shere.simpletools.common.BaseApplication.onCreate()V",
          "target": "invokeinterface \u003c Application, Lorg/apache/http/client/HttpClient, execute(Lorg/apache/http/client/methods/HttpUriRequest;)Lorg/apache/http/HttpResponse; \u003e@6",
          "type": ""
        }
      ]
    },
    "15": {
      "startMethod": "com.shere.simpletools.common.BaseApplication.onCreate()V",
      "targetMethod": "org.apache.http.client.HttpClient.execute(Lorg/apache/http/client/methods/HttpUriRequest;)Lorg/apache/http/HttpResponse;",
      "eventChain": [
        {
          "start": "com.shere.simpletools.common.BaseApplication.onCreate()V",
          "target": "invokeinterface \u003c Application, Lorg/apache/http/client/HttpClient, execute(Lorg/apache/http/client/methods/HttpUriRequest;)Lorg/apache/http/HttpResponse; \u003e@197",
          "type": ""
        }
      ]
    },
    "16": {
      "startMethod": "com.shere.assistivetouch.SettingActivity.onCreate(Landroid/os/Bundle;)V",
      "targetMethod": "java.lang.reflect.Method.invoke(Ljava/lang/Object;[Ljava/lang/Object;)Ljava/lang/Object;",
      "eventChain": [
        {
          "start": "com.shere.assistivetouch.SettingActivity.onCreate(Landroid/os/Bundle;)V",
          "target": "invokevirtual \u003c Application, Ljava/lang/reflect/Method, invoke(Ljava/lang/Object;[Ljava/lang/Object;)Ljava/lang/Object; \u003e@224",
          "type": "activity",
          "component": "com.shere.assistivetouch.SettingActivity"
        }
      ]
    },
    "17": {
      "startMethod": "com.shere.assistivetouch.SettingActivity.onCreate(Landroid/os/Bundle;)V",
      "targetMethod": "java.lang.reflect.Method.invoke(Ljava/lang/Object;[Ljava/lang/Object;)Ljava/lang/Object;",
      "eventChain": [
        {
          "start": "com.shere.assistivetouch.SettingActivity.onCreate(Landroid/os/Bundle;)V",
          "target": "invokevirtual \u003c Application, Ljava/lang/reflect/Method, invoke(Ljava/lang/Object;[Ljava/lang/Object;)Ljava/lang/Object; \u003e@165",
          "type": "activity",
          "component": "com.shere.assistivetouch.SettingActivity"
        }
      ]
    },
    "18": {
      "startMethod": "com.shere.assistivetouch.SettingActivity.onCreate(Landroid/os/Bundle;)V",
      "targetMethod": "org.apache.http.client.HttpClient.execute(Lorg/apache/http/client/methods/HttpUriRequest;)Lorg/apache/http/HttpResponse;",
      "eventChain": [
        {
          "start": "com.shere.assistivetouch.SettingActivity.onCreate(Landroid/os/Bundle;)V",
          "target": "invokeinterface \u003c Application, Lorg/apache/http/client/HttpClient, execute(Lorg/apache/http/client/methods/HttpUriRequest;)Lorg/apache/http/HttpResponse; \u003e@312",
          "type": "activity",
          "component": "com.shere.assistivetouch.SettingActivity"
        }
      ]
    },
    "19": {
      "startMethod": "com.shere.assistivetouch.SettingActivity.onCreate(Landroid/os/Bundle;)V",
      "targetMethod": "java.net.URL.openConnection()Ljava/net/URLConnection;",
      "eventChain": [
        {
          "start": "com.shere.assistivetouch.SettingActivity.onCreate(Landroid/os/Bundle;)V",
          "target": "PC@209",
          "type": "activity",
          "component": "com.shere.assistivetouch.SettingActivity",
          "constraintsFile": "constraints19_0.py",
          "variables": {},
          "stringMap": {},
          "strings": {}
        },
        {
          "start": "com.shere.assistivetouch.SettingActivity.onCreate(Landroid/os/Bundle;)V",
          "target": "PC@44",
          "type": "activity",
          "component": "com.shere.assistivetouch.SettingActivity",
          "constraintsFile": "constraints19_1.py",
          "variables": {},
          "stringMap": {},
          "strings": {}
        },
        {
          "start": "com.shere.assistivetouch.SettingActivity.onCreate(Landroid/os/Bundle;)V",
          "target": "invokevirtual \u003c Application, Ljava/net/URL, openConnection()Ljava/net/URLConnection; \u003e@28",
          "type": "activity",
          "component": "com.shere.assistivetouch.SettingActivity",
          "constraintsFile": "constraints19_2.py",
          "variables": {},
          "stringMap": {},
          "strings": {}
        }
      ]
    },
    "20": {
      "startMethod": "com.shere.assistivetouch.SettingActivity.onCreate(Landroid/os/Bundle;)V",
      "targetMethod": "org.apache.http.client.HttpClient.execute(Lorg/apache/http/client/methods/HttpUriRequest;)Lorg/apache/http/HttpResponse;",
      "eventChain": [
        {
          "start": "com.shere.assistivetouch.AssistiveTouchActivity.onCreate(Landroid/os/Bundle;)V",
          "target": "PC@63",
          "type": "activity",
          "component": "com.shere.assistivetouch.AssistiveTouchActivity",
          "constraintsFile": "constraints20_0.py",
          "variables": {
            "\u003cUI\u003e.setVisibility().IGNORE_CACHE": "IAAv4"
          },
          "stringMap": {},
          "strings": {}
        },
        {
          "start": "com.shere.assistivetouch.AssistiveTouchActivity.onCreate(Landroid/os/Bundle;)V",
          "target": "PC@8",
          "type": "activity",
          "component": "com.shere.assistivetouch.AssistiveTouchActivity",
          "constraintsFile": "constraints20_1.py",
          "variables": {},
          "stringMap": {},
          "strings": {}
        },
        {
          "start": "com.shere.assistivetouch.SettingActivity.onCreate(Landroid/os/Bundle;)V",
          "target": "PC@44",
          "type": "activity",
          "component": "com.shere.assistivetouch.SettingActivity",
          "constraintsFile": "constraints20_2.py",
          "variables": {},
          "stringMap": {},
          "strings": {}
        },
        {
          "start": "com.shere.assistivetouch.SettingActivity.onCreate(Landroid/os/Bundle;)V",
          "target": "invokeinterface \u003c Application, Lorg/apache/http/client/HttpClient, execute(Lorg/apache/http/client/methods/HttpUriRequest;)Lorg/apache/http/HttpResponse; \u003e@6",
          "type": "activity",
          "component": "com.shere.assistivetouch.SettingActivity",
          "constraintsFile": "constraints20_3.py",
          "variables": {
            "\u003cUI\u003e.setVisibility().IGNORE_CACHE": "IAAv4"
          },
          "stringMap": {},
          "strings": {}
        }
      ]
    },
    "21": {
      "startMethod": "com.shere.assistivetouch.AppLauncherActivity.onCreate(Landroid/os/Bundle;)V",
      "targetMethod": "java.lang.reflect.Method.invoke(Ljava/lang/Object;[Ljava/lang/Object;)Ljava/lang/Object;",
      "eventChain": [
        {
          "start": "com.shere.assistivetouch.AppLauncherActivity.onCreate(Landroid/os/Bundle;)V",
          "target": "invokevirtual \u003c Application, Ljava/lang/reflect/Method, invoke(Ljava/lang/Object;[Ljava/lang/Object;)Ljava/lang/Object; \u003e@165",
          "type": "activity",
          "component": "com.shere.assistivetouch.AppLauncherActivity"
        }
      ]
    },
    "22": {
      "startMethod": "com.shere.assistivetouch.AppLauncherActivity.onCreate(Landroid/os/Bundle;)V",
      "targetMethod": "org.apache.http.client.HttpClient.execute(Lorg/apache/http/client/methods/HttpUriRequest;)Lorg/apache/http/HttpResponse;",
      "eventChain": [
        {
          "start": "com.shere.assistivetouch.AppLauncherActivity.onCreate(Landroid/os/Bundle;)V",
          "target": "invokeinterface \u003c Application, Lorg/apache/http/client/HttpClient, execute(Lorg/apache/http/client/methods/HttpUriRequest;)Lorg/apache/http/HttpResponse; \u003e@312",
          "type": "activity",
          "component": "com.shere.assistivetouch.AppLauncherActivity"
        }
      ]
    },
    "23": {
      "startMethod": "com.shere.assistivetouch.AppLauncherActivity.onCreate(Landroid/os/Bundle;)V",
      "targetMethod": "java.lang.reflect.Method.invoke(Ljava/lang/Object;[Ljava/lang/Object;)Ljava/lang/Object;",
      "eventChain": [
        {
          "start": "com.shere.assistivetouch.AppLauncherActivity.onCreate(Landroid/os/Bundle;)V",
          "target": "invokevirtual \u003c Application, Ljava/lang/reflect/Method, invoke(Ljava/lang/Object;[Ljava/lang/Object;)Ljava/lang/Object; \u003e@224",
          "type": "activity",
          "component": "com.shere.assistivetouch.AppLauncherActivity"
        }
      ]
    },
    "24": {
      "startMethod": "com.shere.assistivetouch.SettingListActivity.onCreate(Landroid/os/Bundle;)V",
      "targetMethod": "java.lang.reflect.Method.invoke(Ljava/lang/Object;[Ljava/lang/Object;)Ljava/lang/Object;",
      "eventChain": [
        {
          "start": "com.shere.assistivetouch.SettingListActivity.onCreate(Landroid/os/Bundle;)V",
          "target": "invokevirtual \u003c Application, Ljava/lang/reflect/Method, invoke(Ljava/lang/Object;[Ljava/lang/Object;)Ljava/lang/Object; \u003e@165",
          "type": "activity",
          "component": "com.shere.assistivetouch.SettingListActivity"
        }
      ]
    },
    "25": {
      "startMethod": "com.shere.assistivetouch.SettingListActivity.onCreate(Landroid/os/Bundle;)V",
      "targetMethod": "java.lang.reflect.Method.invoke(Ljava/lang/Object;[Ljava/lang/Object;)Ljava/lang/Object;",
      "eventChain": [
        {
          "start": "com.shere.assistivetouch.SettingListActivity.onCreate(Landroid/os/Bundle;)V",
          "target": "invokevirtual \u003c Application, Ljava/lang/reflect/Method, invoke(Ljava/lang/Object;[Ljava/lang/Object;)Ljava/lang/Object; \u003e@224",
          "type": "activity",
          "component": "com.shere.assistivetouch.SettingListActivity"
        }
      ]
    },
    "26": {
      "startMethod": "com.shere.assistivetouch.SettingListActivity.onCreate(Landroid/os/Bundle;)V",
      "targetMethod": "org.apache.http.client.HttpClient.execute(Lorg/apache/http/client/methods/HttpUriRequest;)Lorg/apache/http/HttpResponse;",
      "eventChain": [
        {
          "start": "com.shere.assistivetouch.SettingListActivity.onCreate(Landroid/os/Bundle;)V",
          "target": "invokeinterface \u003c Application, Lorg/apache/http/client/HttpClient, execute(Lorg/apache/http/client/methods/HttpUriRequest;)Lorg/apache/http/HttpResponse; \u003e@312",
          "type": "activity",
          "component": "com.shere.assistivetouch.SettingListActivity"
        }
      ]
    },
    "27": {
      "startMethod": "com.kuguo.ad.MainService.onCreate()V",
      "targetMethod": "org.apache.http.client.HttpClient.execute(Lorg/apache/http/client/methods/HttpUriRequest;)Lorg/apache/http/HttpResponse;",
      "eventChain": [
        {
          "start": "com.shere.assistivetouch.SettingActivity.onStart()V",
          "target": "PC@3",
          "type": "activity",
          "component": "com.shere.assistivetouch.SettingActivity"
        },
        {
          "start": "com.shere.assistivetouch.SettingActivity.onStart()V",
          "target": "PC@68",
          "type": "activity",
          "component": "com.shere.assistivetouch.SettingActivity"
        },
        {
          "start": "com.shere.assistivetouch.SettingActivity.onStart()V",
          "target": "PC@24",
          "type": "activity",
          "component": "com.shere.assistivetouch.SettingActivity"
        },
        {
          "start": "com.shere.assistivetouch.SettingActivity.onStart()V",
          "target": "PC@9",
          "type": "activity",
          "component": "com.shere.assistivetouch.SettingActivity"
        },
        {
          "start": "com.shere.assistivetouch.SettingActivity.onStart()V",
          "target": "",
          "type": "activity",
          "component": "com.shere.assistivetouch.SettingActivity"
        },
        {
          "start": "com.kuguo.ad.MainService.onCreate()V",
          "target": "invokeinterface \u003c Application, Lorg/apache/http/client/HttpClient, execute(Lorg/apache/http/client/methods/HttpUriRequest;)Lorg/apache/http/HttpResponse; \u003e@432",
          "type": "service",
          "component": "com.kuguo.ad.MainService",
          "constraintsFile": "constraints27_0.py",
          "variables": {},
          "stringMap": {},
          "strings": {}
        }
      ]
    },
    "28": {
      "startMethod": "com.shere.simpletools.common.DownloadService.onStart(Landroid/content/Intent;I)V",
      "targetMethod": "java.net.URL.openConnection()Ljava/net/URLConnection;",
      "eventChain": [
        {
          "start": "com.shere.simpletools.common.DownloadService.onStart(Landroid/content/Intent;I)V",
          "target": "invokevirtual \u003c Application, Ljava/net/URL, openConnection()Ljava/net/URLConnection; \u003e@281",
          "type": "service",
          "component": "com.shere.simpletools.common.DownloadService",
          "constraintsFile": "constraints28_0.py",
          "variables": {},
          "stringMap": {},
          "strings": {}
        }
      ]
    },
    "29": {
      "startMethod": "com.shere.assistivetouch.RecentTasksActivity.onCreate(Landroid/os/Bundle;)V",
      "targetMethod": "java.lang.reflect.Method.invoke(Ljava/lang/Object;[Ljava/lang/Object;)Ljava/lang/Object;",
      "eventChain": [
        {
          "start": "com.shere.assistivetouch.RecentTasksActivity.onCreate(Landroid/os/Bundle;)V",
          "target": "invokevirtual \u003c Application, Ljava/lang/reflect/Method, invoke(Ljava/lang/Object;[Ljava/lang/Object;)Ljava/lang/Object; \u003e@165",
          "type": "activity",
          "component": "com.shere.assistivetouch.RecentTasksActivity"
        }
      ]
    },
    "30": {
      "startMethod": "com.shere.assistivetouch.RecentTasksActivity.onCreate(Landroid/os/Bundle;)V",
      "targetMethod": "org.apache.http.client.HttpClient.execute(Lorg/apache/http/client/methods/HttpUriRequest;)Lorg/apache/http/HttpResponse;",
      "eventChain": [
        {
          "start": "com.shere.assistivetouch.RecentTasksActivity.onCreate(Landroid/os/Bundle;)V",
          "target": "invokeinterface \u003c Application, Lorg/apache/http/client/HttpClient, execute(Lorg/apache/http/client/methods/HttpUriRequest;)Lorg/apache/http/HttpResponse; \u003e@312",
          "type": "activity",
          "component": "com.shere.assistivetouch.RecentTasksActivity"
        }
      ]
    },
    "31": {
      "startMethod": "com.shere.assistivetouch.RecentTasksActivity.onCreate(Landroid/os/Bundle;)V",
      "targetMethod": "java.lang.reflect.Method.invoke(Ljava/lang/Object;[Ljava/lang/Object;)Ljava/lang/Object;",
      "eventChain": [
        {
          "start": "com.shere.assistivetouch.RecentTasksActivity.onCreate(Landroid/os/Bundle;)V",
          "target": "invokevirtual \u003c Application, Ljava/lang/reflect/Method, invoke(Ljava/lang/Object;[Ljava/lang/Object;)Ljava/lang/Object; \u003e@224",
          "type": "activity",
          "component": "com.shere.assistivetouch.RecentTasksActivity"
        }
      ]
    },
    "32": {
      "startMethod": "com.kuguo.ad.BoutiqueActivity.onCreate(Landroid/os/Bundle;)V",
      "targetMethod": "org.apache.http.impl.client.DefaultHttpClient.execute(Lorg/apache/http/client/methods/HttpUriRequest;)Lorg/apache/http/HttpResponse;",
      "eventChain": [
        {
          "start": "com.kuguo.ad.BoutiqueActivity.onCreate(Landroid/os/Bundle;)V",
          "target": "invokevirtual \u003c Application, Lorg/apache/http/impl/client/DefaultHttpClient, execute(Lorg/apache/http/client/methods/HttpUriRequest;)Lorg/apache/http/HttpResponse; \u003e@446",
          "type": "activity",
          "component": "com.kuguo.ad.BoutiqueActivity",
          "constraintsFile": "constraints32_0.py",
          "variables": {},
          "stringMap": {},
          "strings": {
            "IAAv4": "",
            "IAAv2": "",
            "IAAv1": ""
          }
        }
      ]
    },
    "33": {
      "startMethod": "com.kuguo.ad.BoutiqueActivity.onCreate(Landroid/os/Bundle;)V",
      "targetMethod": "org.apache.http.client.HttpClient.execute(Lorg/apache/http/client/methods/HttpUriRequest;)Lorg/apache/http/HttpResponse;",
      "eventChain": [
        {
          "start": "com.kuguo.ad.BoutiqueActivity.onCreate(Landroid/os/Bundle;)V",
          "target": "invokeinterface \u003c Application, Lorg/apache/http/client/HttpClient, execute(Lorg/apache/http/client/methods/HttpUriRequest;)Lorg/apache/http/HttpResponse; \u003e@130",
          "type": "activity",
          "component": "com.kuguo.ad.BoutiqueActivity",
          "constraintsFile": "constraints33_0.py",
          "variables": {},
          "stringMap": {},
          "strings": {}
        }
      ]
    },
    "34": {
      "startMethod": "com.kuguo.ad.BoutiqueActivity.onCreate(Landroid/os/Bundle;)V",
      "targetMethod": "org.apache.http.client.HttpClient.execute(Lorg/apache/http/client/methods/HttpUriRequest;)Lorg/apache/http/HttpResponse;",
      "eventChain": [
        {
          "start": "com.kuguo.ad.BoutiqueActivity.onCreate(Landroid/os/Bundle;)V",
          "target": "invokeinterface \u003c Application, Lorg/apache/http/client/HttpClient, execute(Lorg/apache/http/client/methods/HttpUriRequest;)Lorg/apache/http/HttpResponse; \u003e@432",
          "type": "activity",
          "component": "com.kuguo.ad.BoutiqueActivity",
          "constraintsFile": "constraints34_0.py",
          "variables": {},
          "stringMap": {},
          "strings": {}
        }
      ]
    },
    "35": {
      "startMethod": "com.kuguo.ad.BoutiqueActivity.onCreate(Landroid/os/Bundle;)V",
      "targetMethod": "java.net.URL.openConnection()Ljava/net/URLConnection;",
      "eventChain": [
        {
          "start": "com.kuguo.ad.BoutiqueActivity.onCreate(Landroid/os/Bundle;)V",
          "target": "invokevirtual \u003c Application, Ljava/net/URL, openConnection()Ljava/net/URLConnection; \u003e@85",
          "type": "activity",
          "component": "com.kuguo.ad.BoutiqueActivity",
          "constraintsFile": "constraints35_0.py",
          "variables": {},
          "stringMap": {},
          "strings": {
            "IAAv2": "",
            "IAAv1": ""
          }
        }
      ]
    },
    "36": {
      "startMethod": "com.shere.simpletools.common.BaseOperatingPushExecutor.onReceive(Landroid/content/Context;Landroid/content/Intent;)V",
      "targetMethod": "java.lang.reflect.Method.invoke(Ljava/lang/Object;[Ljava/lang/Object;)Ljava/lang/Object;",
      "eventChain": [
        {
          "start": "com.shere.simpletools.common.BaseOperatingPushExecutor.onReceive(Landroid/content/Context;Landroid/content/Intent;)V",
          "target": "invokeinterface \u003c Application, Landroid/content/SharedPreferences$Editor, putLong(Ljava/lang/String;J)Landroid/content/SharedPreferences$Editor; \u003e@133",
          "type": "sms",
          "constraintsFile": "constraints36_0.py",
          "variables": {
            "\u003cInput1\u003e.isNetworkAvailable()": "IAAv0",
            "SharedPreferences\u003clast_push_time\u003e": "IAAv1",
            "System.currentTimeMillis()": "IAAv2"
          },
          "stringMap": {},
          "strings": {}
        },
        {
          "start": "com.shere.simpletools.common.BaseOperatingPushExecutor.onReceive(Landroid/content/Context;Landroid/content/Intent;)V",
          "target": "invokevirtual \u003c Application, Ljava/lang/reflect/Method, invoke(Ljava/lang/Object;[Ljava/lang/Object;)Ljava/lang/Object; \u003e@165",
          "type": "sms",
          "constraintsFile": "constraints36_1.py",
          "variables": {
            "\u003cInput1\u003e.isNetworkAvailable()": "IAAv0",
            "SharedPreferences\u003clast_push_time\u003e": "IAAv1",
            "System.currentTimeMillis()": "IAAv2"
          },
          "stringMap": {},
          "strings": {}
        }
      ]
    },
    "37": {
      "startMethod": "com.shere.simpletools.common.BaseOperatingPushExecutor.onReceive(Landroid/content/Context;Landroid/content/Intent;)V",
      "targetMethod": "org.apache.http.client.HttpClient.execute(Lorg/apache/http/client/methods/HttpUriRequest;)Lorg/apache/http/HttpResponse;",
      "eventChain": [
        {
          "start": "com.shere.simpletools.common.BaseOperatingPushExecutor.onReceive(Landroid/content/Context;Landroid/content/Intent;)V",
          "target": "invokeinterface \u003c Application, Landroid/content/SharedPreferences$Editor, putLong(Ljava/lang/String;J)Landroid/content/SharedPreferences$Editor; \u003e@133",
          "type": "sms",
          "constraintsFile": "constraints37_0.py",
          "variables": {
            "\u003cInput1\u003e.isNetworkAvailable()": "IAAv0",
            "SharedPreferences\u003clast_push_time\u003e": "IAAv1",
            "System.currentTimeMillis()": "IAAv2"
          },
          "stringMap": {},
          "strings": {}
        },
        {
          "start": "com.shere.simpletools.common.BaseOperatingPushExecutor.onReceive(Landroid/content/Context;Landroid/content/Intent;)V",
          "target": "invokeinterface \u003c Application, Lorg/apache/http/client/HttpClient, execute(Lorg/apache/http/client/methods/HttpUriRequest;)Lorg/apache/http/HttpResponse; \u003e@312",
          "type": "sms",
          "constraintsFile": "constraints37_1.py",
          "variables": {
            "\u003cInput1\u003e.isNetworkAvailable()": "IAAv0",
            "SharedPreferences\u003clast_push_time\u003e": "IAAv1",
            "System.currentTimeMillis()": "IAAv2"
          },
          "stringMap": {},
          "strings": {}
        }
      ]
    },
    "38": {
      "startMethod": "com.shere.simpletools.common.BaseOperatingPushExecutor.onReceive(Landroid/content/Context;Landroid/content/Intent;)V",
      "targetMethod": "java.lang.reflect.Method.invoke(Ljava/lang/Object;[Ljava/lang/Object;)Ljava/lang/Object;",
      "eventChain": [
        {
          "start": "com.shere.simpletools.common.BaseOperatingPushExecutor.onReceive(Landroid/content/Context;Landroid/content/Intent;)V",
          "target": "invokeinterface \u003c Application, Landroid/content/SharedPreferences$Editor, putLong(Ljava/lang/String;J)Landroid/content/SharedPreferences$Editor; \u003e@133",
          "type": "sms",
          "constraintsFile": "constraints38_0.py",
          "variables": {
            "\u003cInput1\u003e.isNetworkAvailable()": "IAAv0",
            "SharedPreferences\u003clast_push_time\u003e": "IAAv1",
            "System.currentTimeMillis()": "IAAv2"
          },
          "stringMap": {},
          "strings": {}
        },
        {
          "start": "com.shere.simpletools.common.BaseOperatingPushExecutor.onReceive(Landroid/content/Context;Landroid/content/Intent;)V",
          "target": "invokevirtual \u003c Application, Ljava/lang/reflect/Method, invoke(Ljava/lang/Object;[Ljava/lang/Object;)Ljava/lang/Object; \u003e@224",
          "type": "sms",
          "constraintsFile": "constraints38_1.py",
          "variables": {
            "\u003cInput1\u003e.isNetworkAvailable()": "IAAv0",
            "SharedPreferences\u003clast_push_time\u003e": "IAAv1",
            "System.currentTimeMillis()": "IAAv2"
          },
          "stringMap": {},
          "strings": {}
        }
      ]
    },
    "39": {
      "startMethod": "com.shere.simpletools.common.BaseOperatingPushExecutor.onReceive(Landroid/content/Context;Landroid/content/Intent;)V",
      "targetMethod": "org.apache.http.client.HttpClient.execute(Lorg/apache/http/client/methods/HttpUriRequest;)Lorg/apache/http/HttpResponse;",
      "eventChain": [
        {
          "start": "com.shere.simpletools.common.BaseOperatingPushExecutor.onReceive(Landroid/content/Context;Landroid/content/Intent;)V",
          "target": "invokeinterface \u003c Application, Landroid/content/SharedPreferences$Editor, putLong(Ljava/lang/String;J)Landroid/content/SharedPreferences$Editor; \u003e@133",
          "type": "sms",
          "constraintsFile": "constraints39_0.py",
          "variables": {
            "\u003cInput1\u003e.isNetworkAvailable()": "IAAv0",
            "SharedPreferences\u003clast_push_time\u003e": "IAAv1",
            "System.currentTimeMillis()": "IAAv2"
          },
          "stringMap": {},
          "strings": {}
        },
        {
          "start": "com.shere.simpletools.common.BaseOperatingPushExecutor.onReceive(Landroid/content/Context;Landroid/content/Intent;)V",
          "target": "invokeinterface \u003c Application, Lorg/apache/http/client/HttpClient, execute(Lorg/apache/http/client/methods/HttpUriRequest;)Lorg/apache/http/HttpResponse; \u003e@6",
          "type": "sms",
          "constraintsFile": "constraints39_1.py",
          "variables": {
            "\u003cInput1\u003e.isNetworkAvailable()": "IAAv0",
            "SharedPreferences\u003clast_push_time\u003e": "IAAv1",
            "System.currentTimeMillis()": "IAAv2"
          },
          "stringMap": {},
          "strings": {}
        }
      ]
    },
    "40": {
      "startMethod": "com.shere.assistivetouch.AssistiveTouchActivity.onResume()V",
      "targetMethod": "java.lang.reflect.Method.invoke(Ljava/lang/Object;[Ljava/lang/Object;)Ljava/lang/Object;",
      "eventChain": [
        {
          "start": "com.shere.assistivetouch.AssistiveTouchActivity.onResume()V",
          "target": "invokevirtual \u003c Application, Ljava/lang/reflect/Method, invoke(Ljava/lang/Object;[Ljava/lang/Object;)Ljava/lang/Object; \u003e@165",
          "type": "activity",
          "component": "com.shere.assistivetouch.AssistiveTouchActivity"
        }
      ]
    },
    "41": {
      "startMethod": "com.shere.assistivetouch.AssistiveTouchActivity.onResume()V",
      "targetMethod": "java.lang.reflect.Method.invoke(Ljava/lang/Object;[Ljava/lang/Object;)Ljava/lang/Object;",
      "eventChain": [
        {
          "start": "com.shere.assistivetouch.AssistiveTouchActivity.onResume()V",
          "target": "invokevirtual \u003c Application, Ljava/lang/reflect/Method, invoke(Ljava/lang/Object;[Ljava/lang/Object;)Ljava/lang/Object; \u003e@224",
          "type": "activity",
          "component": "com.shere.assistivetouch.AssistiveTouchActivity"
        }
      ]
    },
    "42": {
      "startMethod": "com.shere.assistivetouch.AssistiveTouchActivity.onResume()V",
      "targetMethod": "org.apache.http.client.HttpClient.execute(Lorg/apache/http/client/methods/HttpUriRequest;)Lorg/apache/http/HttpResponse;",
      "eventChain": [
        {
          "start": "com.shere.assistivetouch.AssistiveTouchActivity.onResume()V",
          "target": "invokeinterface \u003c Application, Lorg/apache/http/client/HttpClient, execute(Lorg/apache/http/client/methods/HttpUriRequest;)Lorg/apache/http/HttpResponse; \u003e@312",
          "type": "activity",
          "component": "com.shere.assistivetouch.AssistiveTouchActivity"
        }
      ]
    },
    "43": {
      "startMethod": "com.shere.assistivetouch.AboutActivity.onCreate(Landroid/os/Bundle;)V",
      "targetMethod": "org.apache.http.client.HttpClient.execute(Lorg/apache/http/client/methods/HttpUriRequest;)Lorg/apache/http/HttpResponse;",
      "eventChain": [
        {
          "start": "com.shere.assistivetouch.AboutActivity.onCreate(Landroid/os/Bundle;)V",
          "target": "invokeinterface \u003c Application, Lorg/apache/http/client/HttpClient, execute(Lorg/apache/http/client/methods/HttpUriRequest;)Lorg/apache/http/HttpResponse; \u003e@312",
          "type": "activity",
          "component": "com.shere.assistivetouch.AboutActivity"
        }
      ]
    },
    "44": {
      "startMethod": "com.shere.assistivetouch.AboutActivity.onCreate(Landroid/os/Bundle;)V",
      "targetMethod": "java.lang.reflect.Method.invoke(Ljava/lang/Object;[Ljava/lang/Object;)Ljava/lang/Object;",
      "eventChain": [
        {
          "start": "com.shere.assistivetouch.AboutActivity.onCreate(Landroid/os/Bundle;)V",
          "target": "invokevirtual \u003c Application, Ljava/lang/reflect/Method, invoke(Ljava/lang/Object;[Ljava/lang/Object;)Ljava/lang/Object; \u003e@165",
          "type": "activity",
          "component": "com.shere.assistivetouch.AboutActivity"
        }
      ]
    },
    "45": {
      "startMethod": "com.shere.assistivetouch.AboutActivity.onCreate(Landroid/os/Bundle;)V",
      "targetMethod": "java.lang.reflect.Method.invoke(Ljava/lang/Object;[Ljava/lang/Object;)Ljava/lang/Object;",
      "eventChain": [
        {
          "start": "com.shere.assistivetouch.AboutActivity.onCreate(Landroid/os/Bundle;)V",
          "target": "invokevirtual \u003c Application, Ljava/lang/reflect/Method, invoke(Ljava/lang/Object;[Ljava/lang/Object;)Ljava/lang/Object; \u003e@224",
          "type": "activity",
          "component": "com.shere.assistivetouch.AboutActivity"
        }
      ]
    },
    "46": {
      "startMethod": "com.shere.assistivetouch.SettingChooseActivity.onCreate(Landroid/os/Bundle;)V",
      "targetMethod": "java.lang.reflect.Method.invoke(Ljava/lang/Object;[Ljava/lang/Object;)Ljava/lang/Object;",
      "eventChain": [
        {
          "start": "com.shere.assistivetouch.SettingChooseActivity.onCreate(Landroid/os/Bundle;)V",
          "target": "invokevirtual \u003c Application, Ljava/lang/reflect/Method, invoke(Ljava/lang/Object;[Ljava/lang/Object;)Ljava/lang/Object; \u003e@224",
          "type": "activity",
          "component": "com.shere.assistivetouch.SettingChooseActivity"
        }
      ]
    },
    "47": {
      "startMethod": "com.shere.assistivetouch.SettingChooseActivity.onCreate(Landroid/os/Bundle;)V",
      "targetMethod": "java.lang.reflect.Method.invoke(Ljava/lang/Object;[Ljava/lang/Object;)Ljava/lang/Object;",
      "eventChain": [
        {
          "start": "com.shere.assistivetouch.SettingChooseActivity.onCreate(Landroid/os/Bundle;)V",
          "target": "invokevirtual \u003c Application, Ljava/lang/reflect/Method, invoke(Ljava/lang/Object;[Ljava/lang/Object;)Ljava/lang/Object; \u003e@165",
          "type": "activity",
          "component": "com.shere.assistivetouch.SettingChooseActivity"
        }
      ]
    },
    "48": {
      "startMethod": "com.shere.assistivetouch.SettingChooseActivity.onCreate(Landroid/os/Bundle;)V",
      "targetMethod": "org.apache.http.client.HttpClient.execute(Lorg/apache/http/client/methods/HttpUriRequest;)Lorg/apache/http/HttpResponse;",
      "eventChain": [
        {
          "start": "com.shere.assistivetouch.SettingChooseActivity.onCreate(Landroid/os/Bundle;)V",
          "target": "invokeinterface \u003c Application, Lorg/apache/http/client/HttpClient, execute(Lorg/apache/http/client/methods/HttpUriRequest;)Lorg/apache/http/HttpResponse; \u003e@312",
          "type": "activity",
          "component": "com.shere.assistivetouch.SettingChooseActivity"
        }
      ]
    },
    "49": {
      "startMethod": "com.shere.assistivetouch.ui.FloatImageButton$OnGestureListener.onLongPress(Landroid/view/MotionEvent;)V",
      "targetMethod": "java.lang.reflect.Method.invoke(Ljava/lang/Object;[Ljava/lang/Object;)Ljava/lang/Object;",
      "eventChain": [
        {
          "start": "com.shere.assistivetouch.EasyTouchService.onCreate()V",
          "target": "invokespecial \u003c Application, Landroid/view/GestureDetector, \u003cinit\u003e(Landroid/content/Context;Landroid/view/GestureDetector$OnGestureListener;)V \u003e@44",
          "type": "service",
          "component": "com.shere.assistivetouch.EasyTouchService"
        },
        {
          "start": "com.shere.assistivetouch.ui.FloatImageButton$OnGestureListener.onLongPress(Landroid/view/MotionEvent;)V",
          "target": "invokevirtual \u003c Application, Ljava/lang/reflect/Method, invoke(Ljava/lang/Object;[Ljava/lang/Object;)Ljava/lang/Object; \u003e@73",
          "type": "ui",
          "activities": [
            "com.shere.assistivetouch.SettingActivity"
          ],
          "listener": "com.shere.assistivetouch.ui.FloatImageButton$OnGestureListener",
          "listenerMethod": "onLongPress",
          "uiType": "onLongPress",
          "constraintsFile": "constraints49_0.py",
          "variables": {},
          "stringMap": {},
          "strings": {}
        }
      ]
    },
    "50": {
      "startMethod": "com.shere.assistivetouch.ui.FloatImageButton$OnGestureListener.onLongPress(Landroid/view/MotionEvent;)V",
      "targetMethod": "java.lang.reflect.Method.invoke(Ljava/lang/Object;[Ljava/lang/Object;)Ljava/lang/Object;",
      "eventChain": [
        {
          "start": "com.shere.assistivetouch.EasyTouchService.onCreate()V",
          "target": "invokespecial \u003c Application, Landroid/view/GestureDetector, \u003cinit\u003e(Landroid/content/Context;Landroid/view/GestureDetector$OnGestureListener;)V \u003e@44",
          "type": "service",
          "component": "com.shere.assistivetouch.EasyTouchService"
        },
        {
          "start": "com.shere.assistivetouch.ui.FloatImageButton$OnGestureListener.onLongPress(Landroid/view/MotionEvent;)V",
          "target": "invokevirtual \u003c Application, Ljava/lang/reflect/Method, invoke(Ljava/lang/Object;[Ljava/lang/Object;)Ljava/lang/Object; \u003e@141",
          "type": "ui",
          "activities": [
            "com.shere.assistivetouch.SettingActivity"
          ],
          "listener": "com.shere.assistivetouch.ui.FloatImageButton$OnGestureListener",
          "listenerMethod": "onLongPress",
          "uiType": "onLongPress",
          "constraintsFile": "constraints50_0.py",
          "variables": {},
          "stringMap": {},
          "strings": {}
        }
      ]
    },
    "51": {
      "startMethod": "com.shere.simpletools.common.BaseSettingActivity$4.onClick(Landroid/view/View;)V",
      "targetMethod": "org.apache.http.client.HttpClient.execute(Lorg/apache/http/client/methods/HttpUriRequest;)Lorg/apache/http/HttpResponse;",
      "eventChain": [
        {
          "start": "com.shere.assistivetouch.SettingActivity.onCreate(Landroid/os/Bundle;)V",
          "target": "invokevirtual \u003c Application, Landroid/view/View, setOnClickListener(Landroid/view/View$OnClickListener;)V \u003e@202",
          "type": "activity",
          "component": "com.shere.assistivetouch.SettingActivity",
          "constraintsFile": "constraints51_0.py",
          "variables": {},
          "stringMap": {},
          "strings": {}
        },
        {
          "start": "com.shere.assistivetouch.AssistiveTouchActivity.onCreate(Landroid/os/Bundle;)V",
          "target": "PC@170",
          "type": "activity",
          "component": "com.shere.assistivetouch.AssistiveTouchActivity",
          "constraintsFile": "constraints51_1.py",
          "variables": {},
          "stringMap": {},
          "strings": {}
        },
        {
          "start": "com.shere.simpletools.common.BaseSettingActivity$4.onClick(Landroid/view/View;)V",
          "target": "invokeinterface \u003c Application, Lorg/apache/http/client/HttpClient, execute(Lorg/apache/http/client/methods/HttpUriRequest;)Lorg/apache/http/HttpResponse; \u003e@6",
          "type": "ui",
          "activities": [
            "com.shere.simpletools.common.BaseSettingActivity"
          ],
          "listener": "com.shere.simpletools.common.BaseSettingActivity$4",
          "listenerMethod": "onClick",
          "uiType": "onClick",
          "constraintsFile": "constraints51_2.py",
          "variables": {},
          "stringMap": {
            "7000": "\u003cUI\u003e"
          },
          "strings": {
            "IAAv1": ""
          }
        }
      ]
    },
    "52": {
      "startMethod": "com.shere.assistivetouch.EasyTouchService.onClick(Landroid/view/View;)V",
      "targetMethod": "java.lang.reflect.Method.invoke(Ljava/lang/Object;[Ljava/lang/Object;)Ljava/lang/Object;",
      "eventChain": [
        {
          "start": "com.shere.assistivetouch.EasyTouchService.onCreate()V",
          "target": "invokevirtual \u003c Application, Landroid/view/View, setOnClickListener(Landroid/view/View$OnClickListener;)V \u003e@234",
          "type": "service",
          "component": "com.shere.assistivetouch.EasyTouchService"
        },
        {
          "start": "com.shere.assistivetouch.EasyTouchService.onClick(Landroid/view/View;)V",
          "target": "invokevirtual \u003c Application, Ljava/lang/reflect/Method, invoke(Ljava/lang/Object;[Ljava/lang/Object;)Ljava/lang/Object; \u003e@95",
          "type": "ui",
          "activities": [
            "com.shere.assistivetouch.SettingActivity"
          ],
          "listener": "com.shere.assistivetouch.EasyTouchService",
          "listenerMethod": "onClick",
          "uiType": "onClick",
          "constraintsFile": "constraints52_0.py",
          "variables": {
            "\u003cChainedInput1\u003e.getId()": "IAAv0"
          },
          "stringMap": {},
          "strings": {}
        }
      ]
    },
    "53": {
      "startMethod": "com.shere.assistivetouch.AssistiveTouchActivity.onClick(Landroid/view/View;)V",
      "targetMethod": "java.lang.reflect.Method.invoke(Ljava/lang/Object;[Ljava/lang/Object;)Ljava/lang/Object;",
      "eventChain": [
        {
          "start": "com.shere.assistivetouch.AssistiveTouchActivity.onCreate(Landroid/os/Bundle;)V",
          "target": "invokevirtual \u003c Application, Landroid/view/View, setOnClickListener(Landroid/view/View$OnClickListener;)V \u003e@147",
          "type": "activity",
          "component": "com.shere.assistivetouch.AssistiveTouchActivity"
        },
        {
          "start": "com.shere.assistivetouch.AssistiveTouchActivity.onClick(Landroid/view/View;)V",
          "target": "invokevirtual \u003c Application, Ljava/lang/reflect/Method, invoke(Ljava/lang/Object;[Ljava/lang/Object;)Ljava/lang/Object; \u003e@95",
          "type": "ui",
          "activities": [
            "com.shere.assistivetouch.AssistiveTouchActivity"
          ],
          "listener": "com.shere.assistivetouch.AssistiveTouchActivity",
          "listenerMethod": "onClick",
          "uiType": "onClick",
          "constraintsFile": "constraints53_0.py",
          "variables": {
            "\u003cChainedInput1\u003e.getId()": "IAAv0"
          },
          "stringMap": {},
          "strings": {}
        }
      ]
    },
    "54": {
      "startMethod": "com.kuguo.ad.j.onClick(Landroid/view/View;)V",
      "targetMethod": "org.apache.http.client.HttpClient.execute(Lorg/apache/http/client/methods/HttpUriRequest;)Lorg/apache/http/HttpResponse;",
      "eventChain": [
        {
          "start": "com.kuguo.ad.MainActivity.onCreate(Landroid/os/Bundle;)V",
          "target": "invokevirtual \u003c Application, Landroid/widget/ImageView, setOnClickListener(Landroid/view/View$OnClickListener;)V \u003e@1833",
          "type": "activity",
          "component": "com.kuguo.ad.MainActivity",
          "constraintsFile": "constraints54_0.py",
          "variables": {},
          "stringMap": {},
          "strings": {}
        },
        {
          "start": "com.shere.assistivetouch.SettingActivity.onStart()V",
          "target": "PC@3",
          "type": "activity",
          "component": "com.shere.assistivetouch.SettingActivity"
        },
        {
          "start": "com.shere.assistivetouch.SettingActivity.onStart()V",
          "target": "PC@68",
          "type": "activity",
          "component": "com.shere.assistivetouch.SettingActivity"
        },
        {
          "start": "com.kuguo.ad.MainActivity.onCreate(Landroid/os/Bundle;)V",
          "target": "PC@3",
          "type": "activity",
          "component": "com.kuguo.ad.MainActivity",
          "constraintsFile": "constraints54_1.py",
          "variables": {
            "\u003cChainedInput1\u003e.getTag().intValue()": "IAAv1"
          },
          "stringMap": {
            "7000": ""
          },
          "strings": {
            "IAAv2": ""
          }
        },
        {
          "start": "com.shere.assistivetouch.SettingActivity.onStart()V",
          "target": "PC@24",
          "type": "activity",
          "component": "com.shere.assistivetouch.SettingActivity"
        },
        {
          "start": "com.shere.assistivetouch.SettingActivity.onStart()V",
          "target": "PC@9",
          "type": "activity",
          "component": "com.shere.assistivetouch.SettingActivity"
        },
        {
          "start": "com.shere.assistivetouch.SettingActivity.onStart()V",
          "target": "",
          "type": "activity",
          "component": "com.shere.assistivetouch.SettingActivity"
        },
        {
          "start": "com.kuguo.ad.j.onClick(Landroid/view/View;)V",
          "target": "invokeinterface \u003c Application, Lorg/apache/http/client/HttpClient, execute(Lorg/apache/http/client/methods/HttpUriRequest;)Lorg/apache/http/HttpResponse; \u003e@432",
          "type": "ui",
          "activities": [
            "com.shere.assistivetouch.SettingActivity"
          ],
          "listener": "com.kuguo.ad.j",
          "listenerMethod": "onClick",
          "uiType": "onClick",
          "constraintsFile": "constraints54_2.py",
          "variables": {
            "\u003cChainedInput1\u003e.getTag().intValue()": "IAAv1"
          },
          "stringMap": {
            "7000": ""
          },
          "strings": {
            "IAAv2": ""
          }
        }
      ]
    },
    "55": {
      "startMethod": "com.shere.simpletools.common.BaseSettingActivity$9.onClick(Landroid/view/View;)V",
      "targetMethod": "org.apache.http.client.HttpClient.execute(Lorg/apache/http/client/methods/HttpUriRequest;)Lorg/apache/http/HttpResponse;",
      "eventChain": [
        {
          "start": "com.shere.assistivetouch.SettingActivity.onCreate(Landroid/os/Bundle;)V",
          "target": "invokevirtual \u003c Application, Landroid/view/View, setOnClickListener(Landroid/view/View$OnClickListener;)V \u003e@636",
          "type": "activity",
          "component": "com.shere.assistivetouch.SettingActivity",
          "constraintsFile": "constraints55_0.py",
          "variables": {},
          "stringMap": {},
          "strings": {}
        },
        {
          "start": "com.shere.simpletools.common.BaseSettingActivity$9.onClick(Landroid/view/View;)V",
          "target": "invokeinterface \u003c Application, Lorg/apache/http/client/HttpClient, execute(Lorg/apache/http/client/methods/HttpUriRequest;)Lorg/apache/http/HttpResponse; \u003e@6",
          "type": "ui",
          "activities": [
            "com.shere.simpletools.common.BaseSettingActivity"
          ],
          "listener": "com.shere.simpletools.common.BaseSettingActivity$9",
          "listenerMethod": "onClick",
          "uiType": "onClick"
        }
      ]
    },
    "56": {
      "startMethod": "com.shere.simpletools.common.logic.OperatingLogic$2.onClick(Landroid/view/View;)V",
      "targetMethod": "java.lang.reflect.Method.invoke(Ljava/lang/Object;[Ljava/lang/Object;)Ljava/lang/Object;",
      "eventChain": [
        {
          "start": "com.shere.assistivetouch.SettingActivity.onKeyDown(ILandroid/view/KeyEvent;)Z",
          "target": "invokevirtual \u003c Application, Landroid/view/View, setOnClickListener(Landroid/view/View$OnClickListener;)V \u003e@462",
          "type": "ui",
          "activities": [
            "com.shere.assistivetouch.SettingActivity"
          ],
          "listener": "com.shere.assistivetouch.SettingActivity",
          "listenerMethod": "onKeyDown",
          "uiType": "onKeyDown",
          "constraintsFile": "constraints56_0.py",
          "variables": {
            "\u003cChainedInput1\u003e": "IAAv0"
          },
          "stringMap": {},
          "strings": {}
        },
        {
          "start": "com.shere.assistivetouch.SettingActivity.onKeyDown(ILandroid/view/KeyEvent;)Z",
          "target": "PC@8",
          "type": "ui",
          "activities": [
            "com.shere.assistivetouch.SettingActivity"
          ],
          "listener": "com.shere.assistivetouch.SettingActivity",
          "listenerMethod": "onKeyDown",
          "uiType": "onKeyDown",
          "constraintsFile": "constraints56_1.py",
          "variables": {
            "\u003cChainedInput1\u003e": "IAAv0"
          },
          "stringMap": {},
          "strings": {}
        },
        {
          "start": "com.shere.simpletools.common.logic.OperatingLogic$2.onClick(Landroid/view/View;)V",
          "target": "invokevirtual \u003c Application, Ljava/lang/reflect/Method, invoke(Ljava/lang/Object;[Ljava/lang/Object;)Ljava/lang/Object; \u003e@224",
          "type": "ui",
          "activities": [
            "com.shere.assistivetouch.SettingActivity"
          ],
          "listener": "com.shere.simpletools.common.logic.OperatingLogic$2",
          "listenerMethod": "onClick",
          "uiType": "onClick",
          "constraintsFile": "constraints56_2.py",
          "variables": {},
          "stringMap": {},
          "strings": {}
        }
      ]
    },
    "57": {
      "startMethod": "com.shere.simpletools.common.logic.OperatingLogic$2.onClick(Landroid/view/View;)V",
      "targetMethod": "java.lang.reflect.Method.invoke(Ljava/lang/Object;[Ljava/lang/Object;)Ljava/lang/Object;",
      "eventChain": [
        {
          "start": "com.shere.assistivetouch.SettingActivity.onKeyDown(ILandroid/view/KeyEvent;)Z",
          "target": "invokevirtual \u003c Application, Landroid/view/View, setOnClickListener(Landroid/view/View$OnClickListener;)V \u003e@462",
          "type": "ui",
          "activities": [
            "com.shere.assistivetouch.SettingActivity"
          ],
          "listener": "com.shere.assistivetouch.SettingActivity",
          "listenerMethod": "onKeyDown",
          "uiType": "onKeyDown",
          "constraintsFile": "constraints57_0.py",
          "variables": {
            "\u003cChainedInput1\u003e": "IAAv0"
          },
          "stringMap": {},
          "strings": {}
        },
        {
          "start": "com.shere.assistivetouch.SettingActivity.onKeyDown(ILandroid/view/KeyEvent;)Z",
          "target": "PC@8",
          "type": "ui",
          "activities": [
            "com.shere.assistivetouch.SettingActivity"
          ],
          "listener": "com.shere.assistivetouch.SettingActivity",
          "listenerMethod": "onKeyDown",
          "uiType": "onKeyDown",
          "constraintsFile": "constraints57_1.py",
          "variables": {
            "\u003cChainedInput1\u003e": "IAAv0"
          },
          "stringMap": {},
          "strings": {}
        },
        {
          "start": "com.shere.simpletools.common.logic.OperatingLogic$2.onClick(Landroid/view/View;)V",
          "target": "invokevirtual \u003c Application, Ljava/lang/reflect/Method, invoke(Ljava/lang/Object;[Ljava/lang/Object;)Ljava/lang/Object; \u003e@165",
          "type": "ui",
          "activities": [
            "com.shere.assistivetouch.SettingActivity"
          ],
          "listener": "com.shere.simpletools.common.logic.OperatingLogic$2",
          "listenerMethod": "onClick",
          "uiType": "onClick",
          "constraintsFile": "constraints57_2.py",
          "variables": {},
          "stringMap": {},
          "strings": {}
        }
      ]
    },
    "58": {
      "startMethod": "com.shere.simpletools.common.logic.OperatingLogic$2.onClick(Landroid/view/View;)V",
      "targetMethod": "org.apache.http.client.HttpClient.execute(Lorg/apache/http/client/methods/HttpUriRequest;)Lorg/apache/http/HttpResponse;",
      "eventChain": [
        {
          "start": "com.shere.assistivetouch.SettingActivity.onKeyDown(ILandroid/view/KeyEvent;)Z",
          "target": "invokevirtual \u003c Application, Landroid/view/View, setOnClickListener(Landroid/view/View$OnClickListener;)V \u003e@462",
          "type": "ui",
          "activities": [
            "com.shere.assistivetouch.SettingActivity"
          ],
          "listener": "com.shere.assistivetouch.SettingActivity",
          "listenerMethod": "onKeyDown",
          "uiType": "onKeyDown",
          "constraintsFile": "constraints58_0.py",
          "variables": {
            "\u003cChainedInput1\u003e": "IAAv0"
          },
          "stringMap": {},
          "strings": {}
        },
        {
          "start": "com.shere.assistivetouch.SettingActivity.onKeyDown(ILandroid/view/KeyEvent;)Z",
          "target": "PC@8",
          "type": "ui",
          "activities": [
            "com.shere.assistivetouch.SettingActivity"
          ],
          "listener": "com.shere.assistivetouch.SettingActivity",
          "listenerMethod": "onKeyDown",
          "uiType": "onKeyDown",
          "constraintsFile": "constraints58_1.py",
          "variables": {
            "\u003cChainedInput1\u003e": "IAAv0"
          },
          "stringMap": {},
          "strings": {}
        },
        {
          "start": "com.shere.simpletools.common.logic.OperatingLogic$2.onClick(Landroid/view/View;)V",
          "target": "invokeinterface \u003c Application, Lorg/apache/http/client/HttpClient, execute(Lorg/apache/http/client/methods/HttpUriRequest;)Lorg/apache/http/HttpResponse; \u003e@312",
          "type": "ui",
          "activities": [
            "com.shere.assistivetouch.SettingActivity"
          ],
          "listener": "com.shere.simpletools.common.logic.OperatingLogic$2",
          "listenerMethod": "onClick",
          "uiType": "onClick",
          "constraintsFile": "constraints58_2.py",
          "variables": {},
          "stringMap": {},
          "strings": {}
        }
      ]
    },
    "59": {
      "startMethod": "com.shere.assistivetouch.EasyTouchService$2.onReceive(Landroid/content/Context;Landroid/content/Intent;)V",
      "targetMethod": "java.lang.reflect.Method.invoke(Ljava/lang/Object;[Ljava/lang/Object;)Ljava/lang/Object;",
      "eventChain": [
        {
          "start": "com.shere.assistivetouch.EasyTouchService.onCreate()V",
          "target": "invokevirtual \u003c Application, Lcom/shere/assistivetouch/EasyTouchService, registerReceiver(Landroid/content/BroadcastReceiver;Landroid/content/IntentFilter;)Landroid/content/Intent; \u003e@108",
          "type": "service",
          "component": "com.shere.assistivetouch.EasyTouchService"
        },
        {
          "start": "com.shere.assistivetouch.EasyTouchService.\u003cinit\u003e()V",
          "target": "PC@3",
          "type": ""
        },
        {
          "start": "com.shere.assistivetouch.EasyTouchService$2.onReceive(Landroid/content/Context;Landroid/content/Intent;)V",
          "target": "invokevirtual \u003c Application, Ljava/lang/reflect/Method, invoke(Ljava/lang/Object;[Ljava/lang/Object;)Ljava/lang/Object; \u003e@48",
          "type": "sms",
          "constraintsFile": "constraints59_0.py",
          "variables": {
            "\u003cChainedInput2\u003e.getAction()": "IAAv0"
          },
          "stringMap": {},
          "strings": {
            "IAAv1": "",
            "IAAv0": ""
          }
        }
      ]
    },
    "60": {
      "startMethod": "com.shere.assistivetouch.EasyTouchService$2.onReceive(Landroid/content/Context;Landroid/content/Intent;)V",
      "targetMethod": "java.lang.reflect.Method.invoke(Ljava/lang/Object;[Ljava/lang/Object;)Ljava/lang/Object;",
      "eventChain": [
        {
          "start": "com.shere.assistivetouch.EasyTouchService.onCreate()V",
          "target": "invokevirtual \u003c Application, Lcom/shere/assistivetouch/EasyTouchService, registerReceiver(Landroid/content/BroadcastReceiver;Landroid/content/IntentFilter;)Landroid/content/Intent; \u003e@108",
          "type": "service",
          "component": "com.shere.assistivetouch.EasyTouchService"
        },
        {
          "start": "com.shere.assistivetouch.EasyTouchService.\u003cinit\u003e()V",
          "target": "PC@3",
          "type": ""
        },
        {
          "start": "com.shere.assistivetouch.EasyTouchService$2.onReceive(Landroid/content/Context;Landroid/content/Intent;)V",
          "target": "invokevirtual \u003c Application, Ljava/lang/reflect/Method, invoke(Ljava/lang/Object;[Ljava/lang/Object;)Ljava/lang/Object; \u003e@73",
          "type": "sms",
          "constraintsFile": "constraints60_0.py",
          "variables": {
            "\u003cChainedInput2\u003e.getAction()": "IAAv0"
          },
          "stringMap": {},
          "strings": {
            "IAAv1": "",
            "IAAv0": ""
          }
        }
      ]
    },
    "61": {
      "startMethod": "com.shere.assistivetouch.EasyTouchService$2.onReceive(Landroid/content/Context;Landroid/content/Intent;)V",
      "targetMethod": "java.lang.reflect.Method.invoke(Ljava/lang/Object;[Ljava/lang/Object;)Ljava/lang/Object;",
      "eventChain": [
        {
          "start": "com.shere.assistivetouch.EasyTouchService.onCreate()V",
          "target": "invokevirtual \u003c Application, Lcom/shere/assistivetouch/EasyTouchService, registerReceiver(Landroid/content/BroadcastReceiver;Landroid/content/IntentFilter;)Landroid/content/Intent; \u003e@108",
          "type": "service",
          "component": "com.shere.assistivetouch.EasyTouchService"
        },
        {
          "start": "com.shere.assistivetouch.EasyTouchService.\u003cinit\u003e()V",
          "target": "PC@3",
          "type": ""
        },
        {
          "start": "com.shere.assistivetouch.EasyTouchService$2.onReceive(Landroid/content/Context;Landroid/content/Intent;)V",
          "target": "invokevirtual \u003c Application, Ljava/lang/reflect/Method, invoke(Ljava/lang/Object;[Ljava/lang/Object;)Ljava/lang/Object; \u003e@129",
          "type": "sms",
          "constraintsFile": "constraints61_0.py",
          "variables": {
            "\u003cChainedInput2\u003e.getAction()": "IAAv0"
          },
          "stringMap": {},
          "strings": {
            "IAAv1": "",
            "IAAv0": ""
          }
        }
      ]
    },
    "62": {
      "startMethod": "com.shere.assistivetouch.EasyTouchService$2.onReceive(Landroid/content/Context;Landroid/content/Intent;)V",
      "targetMethod": "java.lang.reflect.Method.invoke(Ljava/lang/Object;[Ljava/lang/Object;)Ljava/lang/Object;",
      "eventChain": [
        {
          "start": "com.shere.assistivetouch.EasyTouchService.onCreate()V",
          "target": "invokevirtual \u003c Application, Lcom/shere/assistivetouch/EasyTouchService, registerReceiver(Landroid/content/BroadcastReceiver;Landroid/content/IntentFilter;)Landroid/content/Intent; \u003e@108",
          "type": "service",
          "component": "com.shere.assistivetouch.EasyTouchService"
        },
        {
          "start": "com.shere.assistivetouch.EasyTouchService.\u003cinit\u003e()V",
          "target": "PC@3",
          "type": ""
        },
        {
          "start": "com.shere.assistivetouch.EasyTouchService$2.onReceive(Landroid/content/Context;Landroid/content/Intent;)V",
          "target": "invokevirtual \u003c Application, Ljava/lang/reflect/Method, invoke(Ljava/lang/Object;[Ljava/lang/Object;)Ljava/lang/Object; \u003e@141",
          "type": "sms",
          "constraintsFile": "constraints62_0.py",
          "variables": {
            "\u003cChainedInput2\u003e.getAction()": "IAAv0"
          },
          "stringMap": {},
          "strings": {
            "IAAv1": "",
            "IAAv0": ""
          }
        }
      ]
    }
  }
}