{
  "packageName": "com.tiny.messenger",
  "mainActivity": "com.tiny.messenger.MyRegistration",
  "callPaths": {
    "0": {
      "startMethod": "com.tiny.messenger.MessageSender.onClickmsg3(Landroid/view/View;)V",
      "targetMethod": "java.lang.reflect.Method.invoke(Ljava/lang/Object;[Ljava/lang/Object;)Ljava/lang/Object;",
      "eventChain": [
        {
          "start": "com.tiny.messenger.MessageSender.onClickmsg3(Landroid/view/View;)V",
          "target": "invokevirtual \u003c Application, Ljava/lang/reflect/Method, invoke(Ljava/lang/Object;[Ljava/lang/Object;)Ljava/lang/Object; \u003e@54",
          "type": "ui",
          "activities": [
            "com.tiny.messenger.MyRegistration"
          ],
          "listener": "android.view.View$1",
          "listenerMethod": "onClickmsg3",
          "uiType": "onClick",
          "constraintsFile": "constraints0_0.py",
          "variables": {},
          "stringMap": {
            "7000": "+Invite"
          },
          "strings": {
            "IAAv0": ""
          }
        }
      ]
    },
    "1": {
      "startMethod": "com.tiny.messenger.MessageSender.onClickmsg3(Landroid/view/View;)V",
      "targetMethod": "java.lang.reflect.Method.invoke(Ljava/lang/Object;[Ljava/lang/Object;)Ljava/lang/Object;",
      "eventChain": [
        {
          "start": "com.tiny.messenger.MessageSender.onClickmsg3(Landroid/view/View;)V",
          "target": "invokevirtual \u003c Application, Ljava/lang/reflect/Method, invoke(Ljava/lang/Object;[Ljava/lang/Object;)Ljava/lang/Object; \u003e@45",
          "type": "ui",
          "activities": [
            "com.tiny.messenger.MyRegistration"
          ],
          "listener": "android.view.View$1",
          "listenerMethod": "onClickmsg3",
          "uiType": "onClick",
          "constraintsFile": "constraints1_0.py",
          "variables": {},
          "stringMap": {
            "7000": "+Invite"
          },
          "strings": {
            "IAAv0": ""
          }
        }
      ]
    },
    "2": {
      "startMethod": "com.tiny.messenger.MessageSender.onClickmsg3(Landroid/view/View;)V",
      "targetMethod": "java.lang.reflect.Method.invoke(Ljava/lang/Object;[Ljava/lang/Object;)Ljava/lang/Object;",
      "eventChain": [
        {
          "start": "com.tiny.messenger.MessageSender.onClickmsg3(Landroid/view/View;)V",
          "target": "invokevirtual \u003c Application, Ljava/lang/reflect/Method, invoke(Ljava/lang/Object;[Ljava/lang/Object;)Ljava/lang/Object; \u003e@267",
          "type": "ui",
          "activities": [
            "com.tiny.messenger.MyRegistration"
          ],
          "listener": "android.view.View$1",
          "listenerMethod": "onClickmsg3",
          "uiType": "onClick",
          "constraintsFile": "constraints2_0.py",
          "variables": {},
          "stringMap": {
            "7000": "+Invite"
          },
          "strings": {
            "IAAv0": ""
          }
        }
      ]
    },
    "3": {
      "startMethod": "com.tiny.messenger.MessageSender.onClickmsg3(Landroid/view/View;)V",
      "targetMethod": "java.net.URL.openConnection()Ljava/net/URLConnection;",
      "eventChain": [
        {
          "start": "com.tiny.messenger.MessageSender.onClickmsg3(Landroid/view/View;)V",
          "target": "invokevirtual \u003c Application, Ljava/net/URL, openConnection()Ljava/net/URLConnection; \u003e@25",
          "type": "ui",
          "activities": [
            "com.tiny.messenger.MyRegistration"
          ],
          "listener": "android.view.View$1",
          "listenerMethod": "onClickmsg3",
          "uiType": "onClick",
          "constraintsFile": "constraints3_0.py",
          "variables": {},
          "stringMap": {
            "7000": "+Invite"
          },
          "strings": {
            "IAAv0": ""
          }
        }
      ]
    },
    "4": {
      "startMethod": "com.tiny.messenger.MessageSender.onClickmsg3(Landroid/view/View;)V",
      "targetMethod": "java.lang.reflect.Method.invoke(Ljava/lang/Object;[Ljava/lang/Object;)Ljava/lang/Object;",
      "eventChain": [
        {
          "start": "com.tiny.messenger.MessageSender.onClickmsg3(Landroid/view/View;)V",
          "target": "invokevirtual \u003c Application, Ljava/lang/reflect/Method, invoke(Ljava/lang/Object;[Ljava/lang/Object;)Ljava/lang/Object; \u003e@34",
          "type": "ui",
          "activities": [
            "com.tiny.messenger.MyRegistration"
          ],
          "listener": "android.view.View$1",
          "listenerMethod": "onClickmsg3",
          "uiType": "onClick",
          "constraintsFile": "constraints4_0.py",
          "variables": {},
          "stringMap": {
            "7000": "+Invite"
          },
          "strings": {
            "IAAv0": ""
          }
        }
      ]
    },
    "5": {
      "startMethod": "com.google.android.gms.maps.MapFragment.onResume()V",
      "targetMethod": "java.lang.ClassLoader.loadClass(Ljava/lang/String;)Ljava/lang/Class;",
      "eventChain": [
        {
          "start": "com.google.android.gms.maps.MapFragment.onResume()V",
          "target": "invokevirtual \u003c Application, Ljava/lang/ClassLoader, loadClass(Ljava/lang/String;)Ljava/lang/Class; \u003e@13",
          "type": "",
          "constraintsFile": "constraints5_0.py",
          "variables": {},
          "stringMap": {},
          "strings": {}
        }
      ]
    },
    "6": {
      "startMethod": "com.google.android.gms.maps.MapFragment.onCreate(Landroid/os/Bundle;)V",
      "targetMethod": "java.lang.ClassLoader.loadClass(Ljava/lang/String;)Ljava/lang/Class;",
      "eventChain": [
        {
          "start": "com.google.android.gms.maps.MapFragment.onCreate(Landroid/os/Bundle;)V",
          "target": "invokevirtual \u003c Application, Ljava/lang/ClassLoader, loadClass(Ljava/lang/String;)Ljava/lang/Class; \u003e@13",
          "type": "",
          "constraintsFile": "constraints6_0.py",
          "variables": {
            "\u003cChainedInput1\u003e": "IAAv2"
          },
          "stringMap": {},
          "strings": {}
        }
      ]
    },
    "7": {
      "startMethod": "com.tiny.messenger.MessageSender.onClickmsg2(Landroid/view/View;)V",
      "targetMethod": "java.lang.reflect.Method.invoke(Ljava/lang/Object;[Ljava/lang/Object;)Ljava/lang/Object;",
      "eventChain": [
        {
          "start": "com.tiny.messenger.MessageSender.onClickmsg2(Landroid/view/View;)V",
          "target": "invokevirtual \u003c Application, Ljava/lang/reflect/Method, invoke(Ljava/lang/Object;[Ljava/lang/Object;)Ljava/lang/Object; \u003e@45",
          "type": "ui",
          "activities": [
            "com.tiny.messenger.MyRegistration"
          ],
          "listener": "android.view.View$1",
          "listenerMethod": "onClickmsg2",
          "uiType": "onClick",
          "constraintsFile": "constraints7_0.py",
          "variables": {},
          "stringMap": {},
          "strings": {}
        }
      ]
    },
    "8": {
      "startMethod": "com.tiny.messenger.MessageSender.onClickmsg2(Landroid/view/View;)V",
      "targetMethod": "java.net.URL.openConnection()Ljava/net/URLConnection;",
      "eventChain": [
        {
          "start": "com.tiny.messenger.MessageSender.onClickmsg2(Landroid/view/View;)V",
          "target": "invokevirtual \u003c Application, Ljava/net/URL, openConnection()Ljava/net/URLConnection; \u003e@25",
          "type": "ui",
          "activities": [
            "com.tiny.messenger.MyRegistration"
          ],
          "listener": "android.view.View$1",
          "listenerMethod": "onClickmsg2",
          "uiType": "onClick"
        }
      ]
    },
    "9": {
      "startMethod": "com.tiny.messenger.MessageSender.onClickmsg2(Landroid/view/View;)V",
      "targetMethod": "java.lang.reflect.Method.invoke(Ljava/lang/Object;[Ljava/lang/Object;)Ljava/lang/Object;",
      "eventChain": [
        {
          "start": "com.tiny.messenger.MessageSender.onClickmsg2(Landroid/view/View;)V",
          "target": "invokevirtual \u003c Application, Ljava/lang/reflect/Method, invoke(Ljava/lang/Object;[Ljava/lang/Object;)Ljava/lang/Object; \u003e@267",
          "type": "ui",
          "activities": [
            "com.tiny.messenger.MyRegistration"
          ],
          "listener": "android.view.View$1",
          "listenerMethod": "onClickmsg2",
          "uiType": "onClick",
          "constraintsFile": "constraints9_0.py",
          "variables": {},
          "stringMap": {},
          "strings": {}
        }
      ]
    },
    "10": {
      "startMethod": "com.tiny.messenger.MessageSender.onClickmsg2(Landroid/view/View;)V",
      "targetMethod": "java.lang.reflect.Method.invoke(Ljava/lang/Object;[Ljava/lang/Object;)Ljava/lang/Object;",
      "eventChain": [
        {
          "start": "com.tiny.messenger.MessageSender.onClickmsg2(Landroid/view/View;)V",
          "target": "invokevirtual \u003c Application, Ljava/lang/reflect/Method, invoke(Ljava/lang/Object;[Ljava/lang/Object;)Ljava/lang/Object; \u003e@54",
          "type": "ui",
          "activities": [
            "com.tiny.messenger.MyRegistration"
          ],
          "listener": "android.view.View$1",
          "listenerMethod": "onClickmsg2",
          "uiType": "onClick",
          "constraintsFile": "constraints10_0.py",
          "variables": {},
          "stringMap": {},
          "strings": {}
        }
      ]
    },
    "11": {
      "startMethod": "com.tiny.messenger.MessageSender.onClickmsg2(Landroid/view/View;)V",
      "targetMethod": "java.lang.reflect.Method.invoke(Ljava/lang/Object;[Ljava/lang/Object;)Ljava/lang/Object;",
      "eventChain": [
        {
          "start": "com.tiny.messenger.MessageSender.onClickmsg2(Landroid/view/View;)V",
          "target": "invokevirtual \u003c Application, Ljava/lang/reflect/Method, invoke(Ljava/lang/Object;[Ljava/lang/Object;)Ljava/lang/Object; \u003e@34",
          "type": "ui",
          "activities": [
            "com.tiny.messenger.MyRegistration"
          ],
          "listener": "android.view.View$1",
          "listenerMethod": "onClickmsg2",
          "uiType": "onClick",
          "constraintsFile": "constraints11_0.py",
          "variables": {},
          "stringMap": {},
          "strings": {}
        }
      ]
    },
    "12": {
      "startMethod": "com.google.android.gms.ads.AdActivity.onCreate(Landroid/os/Bundle;)V",
      "targetMethod": "java.lang.ClassLoader.loadClass(Ljava/lang/String;)Ljava/lang/Class;",
      "eventChain": [
        {
          "start": "com.google.android.gms.ads.AdActivity.onCreate(Landroid/os/Bundle;)V",
          "target": "invokevirtual \u003c Application, Ljava/lang/ClassLoader, loadClass(Ljava/lang/String;)Ljava/lang/Class; \u003e@50",
          "type": "activity",
          "component": "com.google.android.gms.ads.AdActivity"
        }
      ]
    },
    "13": {
      "startMethod": "com.google.android.gms.maps.MapFragment.onAttach(Landroid/app/Activity;)V",
      "targetMethod": "java.lang.ClassLoader.loadClass(Ljava/lang/String;)Ljava/lang/Class;",
      "eventChain": [
        {
          "start": "com.google.android.gms.maps.MapFragment.onResume()V",
          "target": "",
          "type": "",
          "constraintsFile": "constraints13_0.py",
          "variables": {},
          "stringMap": {},
          "strings": {}
        },
        {
          "start": "com.google.android.gms.maps.MapFragment.onAttach(Landroid/app/Activity;)V",
          "target": "invokevirtual \u003c Application, Ljava/lang/ClassLoader, loadClass(Ljava/lang/String;)Ljava/lang/Class; \u003e@13",
          "type": "",
          "constraintsFile": "constraints13_1.py",
          "variables": {},
          "stringMap": {},
          "strings": {}
        }
      ]
    },
    "14": {
      "startMethod": "com.tiny.messenger.MyRegistration.onClickRegister(Landroid/view/View;)V",
      "targetMethod": "java.lang.reflect.Method.invoke(Ljava/lang/Object;[Ljava/lang/Object;)Ljava/lang/Object;",
      "eventChain": [
        {
          "start": "com.tiny.messenger.MyRegistration.onCreate(Landroid/os/Bundle;)V",
          "target": "",
          "type": "activity",
          "component": "com.tiny.messenger.MyRegistration",
          "constraintsFile": "constraints14_0.py",
          "variables": {
            "SharedPreferences\u003cmobileverified\u003e": "IAAv21"
          },
          "stringMap": {
            "7000": "",
            "7001": "N"
          },
          "strings": {
            "IAAv13": "",
            "IAAv21": "",
            "IAAv9": "",
            "IAAv8": "",
            "IAAv6": ""
          }
        },
        {
          "start": "com.tiny.messenger.MyRegistration.onClickRegister(Landroid/view/View;)V",
          "target": "invokevirtual \u003c Application, Ljava/lang/reflect/Method, invoke(Ljava/lang/Object;[Ljava/lang/Object;)Ljava/lang/Object; \u003e@267",
          "type": "ui",
          "activities": [
            "com.tiny.messenger.MyRegistration"
          ],
          "listener": "android.view.View$1",
          "listenerMethod": "onClickRegister",
          "uiType": "onClick",
          "constraintsFile": "constraints14_1.py",
          "variables": {},
          "stringMap": {
            "7000": "",
            "7001": "N"
          },
          "strings": {
            "IAAv13": "",
            "IAAv9": "",
            "IAAv8": "",
            "IAAv6": ""
          }
        }
      ]
    },
    "15": {
      "startMethod": "com.tiny.messenger.MyRegistration.onClickRegister(Landroid/view/View;)V",
      "targetMethod": "java.lang.reflect.Method.invoke(Ljava/lang/Object;[Ljava/lang/Object;)Ljava/lang/Object;",
      "eventChain": [
        {
          "start": "com.tiny.messenger.MyRegistration.onCreate(Landroid/os/Bundle;)V",
          "target": "",
          "type": "activity",
          "component": "com.tiny.messenger.MyRegistration",
          "constraintsFile": "constraints15_0.py",
          "variables": {
            "SharedPreferences\u003cmobileverified\u003e": "IAAv18"
          },
          "stringMap": {
            "7000": "",
            "7001": "N"
          },
          "strings": {
            "IAAv13": "",
            "IAAv9": "",
            "IAAv18": "",
            "IAAv8": "",
            "IAAv6": ""
          }
        },
        {
          "start": "com.tiny.messenger.MyRegistration.onClickRegister(Landroid/view/View;)V",
          "target": "invokevirtual \u003c Application, Ljava/lang/reflect/Method, invoke(Ljava/lang/Object;[Ljava/lang/Object;)Ljava/lang/Object; \u003e@45",
          "type": "ui",
          "activities": [
            "com.tiny.messenger.MyRegistration"
          ],
          "listener": "android.view.View$1",
          "listenerMethod": "onClickRegister",
          "uiType": "onClick",
          "constraintsFile": "constraints15_1.py",
          "variables": {},
          "stringMap": {
            "7000": "",
            "7001": "N"
          },
          "strings": {
            "IAAv13": "",
            "IAAv9": "",
            "IAAv8": "",
            "IAAv6": ""
          }
        }
      ]
    },
    "16": {
      "startMethod": "com.tiny.messenger.MyRegistration.onClickRegister(Landroid/view/View;)V",
      "targetMethod": "java.lang.reflect.Method.invoke(Ljava/lang/Object;[Ljava/lang/Object;)Ljava/lang/Object;",
      "eventChain": [
        {
          "start": "com.tiny.messenger.MyRegistration.onCreate(Landroid/os/Bundle;)V",
          "target": "",
          "type": "activity",
          "component": "com.tiny.messenger.MyRegistration",
          "constraintsFile": "constraints16_0.py",
          "variables": {
            "SharedPreferences\u003cmobileverified\u003e": "IAAv18"
          },
          "stringMap": {
            "7000": "",
            "7001": "N"
          },
          "strings": {
            "IAAv13": "",
            "IAAv9": "",
            "IAAv18": "",
            "IAAv8": "",
            "IAAv6": ""
          }
        },
        {
          "start": "com.tiny.messenger.MyRegistration.onClickRegister(Landroid/view/View;)V",
          "target": "invokevirtual \u003c Application, Ljava/lang/reflect/Method, invoke(Ljava/lang/Object;[Ljava/lang/Object;)Ljava/lang/Object; \u003e@34",
          "type": "ui",
          "activities": [
            "com.tiny.messenger.MyRegistration"
          ],
          "listener": "android.view.View$1",
          "listenerMethod": "onClickRegister",
          "uiType": "onClick",
          "constraintsFile": "constraints16_1.py",
          "variables": {},
          "stringMap": {
            "7000": "",
            "7001": "N"
          },
          "strings": {
            "IAAv13": "",
            "IAAv9": "",
            "IAAv8": "",
            "IAAv6": ""
          }
        }
      ]
    },
    "17": {
      "startMethod": "com.tiny.messenger.MyRegistration.onClickRegister(Landroid/view/View;)V",
      "targetMethod": "java.lang.reflect.Method.invoke(Ljava/lang/Object;[Ljava/lang/Object;)Ljava/lang/Object;",
      "eventChain": [
        {
          "start": "com.tiny.messenger.MyRegistration.onCreate(Landroid/os/Bundle;)V",
          "target": "",
          "type": "activity",
          "component": "com.tiny.messenger.MyRegistration",
          "constraintsFile": "constraints17_0.py",
          "variables": {
            "SharedPreferences\u003cmobileverified\u003e": "IAAv18"
          },
          "stringMap": {
            "7000": "",
            "7001": "N"
          },
          "strings": {
            "IAAv13": "",
            "IAAv9": "",
            "IAAv18": "",
            "IAAv8": "",
            "IAAv6": ""
          }
        },
        {
          "start": "com.tiny.messenger.MyRegistration.onClickRegister(Landroid/view/View;)V",
          "target": "invokevirtual \u003c Application, Ljava/lang/reflect/Method, invoke(Ljava/lang/Object;[Ljava/lang/Object;)Ljava/lang/Object; \u003e@54",
          "type": "ui",
          "activities": [
            "com.tiny.messenger.MyRegistration"
          ],
          "listener": "android.view.View$1",
          "listenerMethod": "onClickRegister",
          "uiType": "onClick",
          "constraintsFile": "constraints17_1.py",
          "variables": {},
          "stringMap": {
            "7000": "",
            "7001": "N"
          },
          "strings": {
            "IAAv13": "",
            "IAAv9": "",
            "IAAv8": "",
            "IAAv6": ""
          }
        }
      ]
    },
    "18": {
      "startMethod": "com.tiny.messenger.MyRegistration.onClickRegister(Landroid/view/View;)V",
      "targetMethod": "android.telephony.SmsManager.sendTextMessage(Ljava/lang/String;Ljava/lang/String;Ljava/lang/String;Landroid/app/PendingIntent;Landroid/app/PendingIntent;)V",
      "eventChain": [
        {
          "start": "com.tiny.messenger.MyRegistration.onCreate(Landroid/os/Bundle;)V",
          "target": "",
          "type": "activity",
          "component": "com.tiny.messenger.MyRegistration",
          "constraintsFile": "constraints18_0.py",
          "variables": {
            "SharedPreferences\u003cmobileverified\u003e": "IAAv11"
          },
          "stringMap": {
            "7000": "",
            "7001": "N"
          },
          "strings": {
            "IAAv11": "",
            "IAAv9": "",
            "IAAv8": "",
            "IAAv6": ""
          }
        },
        {
          "start": "com.tiny.messenger.MyRegistration.onClickRegister(Landroid/view/View;)V",
          "target": "invokevirtual \u003c Application, Landroid/telephony/SmsManager, sendTextMessage(Ljava/lang/String;Ljava/lang/String;Ljava/lang/String;Landroid/app/PendingIntent;Landroid/app/PendingIntent;)V \u003e@90",
          "type": "ui",
          "activities": [
            "com.tiny.messenger.MyRegistration"
          ],
          "listener": "android.view.View$1",
          "listenerMethod": "onClickRegister",
          "uiType": "onClick",
          "constraintsFile": "constraints18_1.py",
          "variables": {},
          "stringMap": {
            "7000": "",
            "7001": "N"
          },
          "strings": {
            "IAAv9": "",
            "IAAv8": "",
            "IAAv6": ""
          }
        }
      ]
    },
    "19": {
      "startMethod": "com.tiny.messenger.MyRegistration.onClickRegister(Landroid/view/View;)V",
      "targetMethod": "java.net.URL.openConnection()Ljava/net/URLConnection;",
      "eventChain": [
        {
          "start": "com.tiny.messenger.MyRegistration.onCreate(Landroid/os/Bundle;)V",
          "target": "",
          "type": "activity",
          "component": "com.tiny.messenger.MyRegistration",
          "constraintsFile": "constraints19_0.py",
          "variables": {
            "SharedPreferences\u003cmobileverified\u003e": "IAAv15"
          },
          "stringMap": {
            "7000": "",
            "7001": "N"
          },
          "strings": {
            "IAAv13": "",
            "IAAv15": "",
            "IAAv9": "",
            "IAAv8": "",
            "IAAv6": ""
          }
        },
        {
          "start": "com.tiny.messenger.MyRegistration.onClickRegister(Landroid/view/View;)V",
          "target": "invokevirtual \u003c Application, Ljava/net/URL, openConnection()Ljava/net/URLConnection; \u003e@25",
          "type": "ui",
          "activities": [
            "com.tiny.messenger.MyRegistration"
          ],
          "listener": "android.view.View$1",
          "listenerMethod": "onClickRegister",
          "uiType": "onClick",
          "constraintsFile": "constraints19_1.py",
          "variables": {},
          "stringMap": {
            "7000": "",
            "7001": "N"
          },
          "strings": {
            "IAAv13": "",
            "IAAv9": "",
            "IAAv8": "",
            "IAAv6": ""
          }
        }
      ]
    },
    "20": {
      "startMethod": "com.tiny.messenger.MessageSender.onClickmsg4(Landroid/view/View;)V",
      "targetMethod": "java.lang.reflect.Method.invoke(Ljava/lang/Object;[Ljava/lang/Object;)Ljava/lang/Object;",
      "eventChain": [
        {
          "start": "com.tiny.messenger.MessageSender.onClickmsg4(Landroid/view/View;)V",
          "target": "invokevirtual \u003c Application, Ljava/lang/reflect/Method, invoke(Ljava/lang/Object;[Ljava/lang/Object;)Ljava/lang/Object; \u003e@54",
          "type": "ui",
          "activities": [
            "com.tiny.messenger.MyRegistration"
          ],
          "listener": "android.view.View$1",
          "listenerMethod": "onClickmsg4",
          "uiType": "onClick",
          "constraintsFile": "constraints20_0.py",
          "variables": {},
          "stringMap": {
            "7000": ""
          },
          "strings": {}
        }
      ]
    },
    "21": {
      "startMethod": "com.tiny.messenger.MessageSender.onClickmsg4(Landroid/view/View;)V",
      "targetMethod": "java.lang.reflect.Method.invoke(Ljava/lang/Object;[Ljava/lang/Object;)Ljava/lang/Object;",
      "eventChain": [
        {
          "start": "com.tiny.messenger.MessageSender.onClickmsg4(Landroid/view/View;)V",
          "target": "invokevirtual \u003c Application, Ljava/lang/reflect/Method, invoke(Ljava/lang/Object;[Ljava/lang/Object;)Ljava/lang/Object; \u003e@267",
          "type": "ui",
          "activities": [
            "com.tiny.messenger.MyRegistration"
          ],
          "listener": "android.view.View$1",
          "listenerMethod": "onClickmsg4",
          "uiType": "onClick",
          "constraintsFile": "constraints21_0.py",
          "variables": {},
          "stringMap": {
            "7000": ""
          },
          "strings": {}
        }
      ]
    },
    "22": {
      "startMethod": "com.tiny.messenger.MessageSender.onClickmsg4(Landroid/view/View;)V",
      "targetMethod": "java.lang.reflect.Method.invoke(Ljava/lang/Object;[Ljava/lang/Object;)Ljava/lang/Object;",
      "eventChain": [
        {
          "start": "com.tiny.messenger.MessageSender.onClickmsg4(Landroid/view/View;)V",
          "target": "invokevirtual \u003c Application, Ljava/lang/reflect/Method, invoke(Ljava/lang/Object;[Ljava/lang/Object;)Ljava/lang/Object; \u003e@45",
          "type": "ui",
          "activities": [
            "com.tiny.messenger.MyRegistration"
          ],
          "listener": "android.view.View$1",
          "listenerMethod": "onClickmsg4",
          "uiType": "onClick",
          "constraintsFile": "constraints22_0.py",
          "variables": {},
          "stringMap": {
            "7000": ""
          },
          "strings": {}
        }
      ]
    },
    "23": {
      "startMethod": "com.tiny.messenger.MessageSender.onClickmsg4(Landroid/view/View;)V",
      "targetMethod": "java.lang.reflect.Method.invoke(Ljava/lang/Object;[Ljava/lang/Object;)Ljava/lang/Object;",
      "eventChain": [
        {
          "start": "com.tiny.messenger.MessageSender.onClickmsg4(Landroid/view/View;)V",
          "target": "invokevirtual \u003c Application, Ljava/lang/reflect/Method, invoke(Ljava/lang/Object;[Ljava/lang/Object;)Ljava/lang/Object; \u003e@34",
          "type": "ui",
          "activities": [
            "com.tiny.messenger.MyRegistration"
          ],
          "listener": "android.view.View$1",
          "listenerMethod": "onClickmsg4",
          "uiType": "onClick",
          "constraintsFile": "constraints23_0.py",
          "variables": {},
          "stringMap": {
            "7000": ""
          },
          "strings": {}
        }
      ]
    },
    "24": {
      "startMethod": "com.tiny.messenger.MessageSender.onClickmsg4(Landroid/view/View;)V",
      "targetMethod": "java.net.URL.openConnection()Ljava/net/URLConnection;",
      "eventChain": [
        {
          "start": "com.tiny.messenger.MessageSender.onClickmsg4(Landroid/view/View;)V",
          "target": "invokevirtual \u003c Application, Ljava/net/URL, openConnection()Ljava/net/URLConnection; \u003e@25",
          "type": "ui",
          "activities": [
            "com.tiny.messenger.MyRegistration"
          ],
          "listener": "android.view.View$1",
          "listenerMethod": "onClickmsg4",
          "uiType": "onClick",
          "constraintsFile": "constraints24_0.py",
          "variables": {},
          "stringMap": {
            "7000": ""
          },
          "strings": {}
        }
      ]
    },
    "25": {
      "startMethod": "com.google.android.gms.maps.MapFragment.onCreateView(Landroid/view/LayoutInflater;Landroid/view/ViewGroup;Landroid/os/Bundle;)Landroid/view/View;",
      "targetMethod": "java.lang.ClassLoader.loadClass(Ljava/lang/String;)Ljava/lang/Class;",
      "eventChain": [
        {
          "start": "com.google.android.gms.maps.MapFragment.onCreateView(Landroid/view/LayoutInflater;Landroid/view/ViewGroup;Landroid/os/Bundle;)Landroid/view/View;",
          "target": "invokevirtual \u003c Application, Ljava/lang/ClassLoader, loadClass(Ljava/lang/String;)Ljava/lang/Class; \u003e@13",
          "type": "",
          "constraintsFile": "constraints25_0.py",
          "variables": {
            "\u003cChainedInput3\u003e": "IAAv2"
          },
          "stringMap": {},
          "strings": {}
        }
      ]
    },
    "26": {
      "startMethod": "com.tiny.messenger.MessageSender.onClickmsg1(Landroid/view/View;)V",
      "targetMethod": "java.lang.reflect.Method.invoke(Ljava/lang/Object;[Ljava/lang/Object;)Ljava/lang/Object;",
      "eventChain": [
        {
          "start": "com.tiny.messenger.MessageSender.onClickmsg1(Landroid/view/View;)V",
          "target": "invokevirtual \u003c Application, Ljava/lang/reflect/Method, invoke(Ljava/lang/Object;[Ljava/lang/Object;)Ljava/lang/Object; \u003e@34",
          "type": "ui",
          "activities": [
            "com.tiny.messenger.MyRegistration"
          ],
          "listener": "android.view.View$1",
          "listenerMethod": "onClickmsg1",
          "uiType": "onClick",
          "constraintsFile": "constraints26_0.py",
          "variables": {},
          "stringMap": {},
          "strings": {}
        }
      ]
    },
    "27": {
      "startMethod": "com.tiny.messenger.MessageSender.onClickmsg1(Landroid/view/View;)V",
      "targetMethod": "java.lang.reflect.Method.invoke(Ljava/lang/Object;[Ljava/lang/Object;)Ljava/lang/Object;",
      "eventChain": [
        {
          "start": "com.tiny.messenger.MessageSender.onClickmsg1(Landroid/view/View;)V",
          "target": "invokevirtual \u003c Application, Ljava/lang/reflect/Method, invoke(Ljava/lang/Object;[Ljava/lang/Object;)Ljava/lang/Object; \u003e@45",
          "type": "ui",
          "activities": [
            "com.tiny.messenger.MyRegistration"
          ],
          "listener": "android.view.View$1",
          "listenerMethod": "onClickmsg1",
          "uiType": "onClick",
          "constraintsFile": "constraints27_0.py",
          "variables": {},
          "stringMap": {},
          "strings": {}
        }
      ]
    },
    "28": {
      "startMethod": "com.tiny.messenger.MessageSender.onClickmsg1(Landroid/view/View;)V",
      "targetMethod": "java.lang.reflect.Method.invoke(Ljava/lang/Object;[Ljava/lang/Object;)Ljava/lang/Object;",
      "eventChain": [
        {
          "start": "com.tiny.messenger.MessageSender.onClickmsg1(Landroid/view/View;)V",
          "target": "invokevirtual \u003c Application, Ljava/lang/reflect/Method, invoke(Ljava/lang/Object;[Ljava/lang/Object;)Ljava/lang/Object; \u003e@54",
          "type": "ui",
          "activities": [
            "com.tiny.messenger.MyRegistration"
          ],
          "listener": "android.view.View$1",
          "listenerMethod": "onClickmsg1",
          "uiType": "onClick",
          "constraintsFile": "constraints28_0.py",
          "variables": {},
          "stringMap": {},
          "strings": {}
        }
      ]
    },
    "29": {
      "startMethod": "com.tiny.messenger.MessageSender.onClickmsg1(Landroid/view/View;)V",
      "targetMethod": "java.lang.reflect.Method.invoke(Ljava/lang/Object;[Ljava/lang/Object;)Ljava/lang/Object;",
      "eventChain": [
        {
          "start": "com.tiny.messenger.MessageSender.onClickmsg1(Landroid/view/View;)V",
          "target": "invokevirtual \u003c Application, Ljava/lang/reflect/Method, invoke(Ljava/lang/Object;[Ljava/lang/Object;)Ljava/lang/Object; \u003e@267",
          "type": "ui",
          "activities": [
            "com.tiny.messenger.MyRegistration"
          ],
          "listener": "android.view.View$1",
          "listenerMethod": "onClickmsg1",
          "uiType": "onClick",
          "constraintsFile": "constraints29_0.py",
          "variables": {},
          "stringMap": {},
          "strings": {}
        }
      ]
    },
    "30": {
      "startMethod": "com.tiny.messenger.MessageSender.onClickmsg1(Landroid/view/View;)V",
      "targetMethod": "java.net.URL.openConnection()Ljava/net/URLConnection;",
      "eventChain": [
        {
          "start": "com.tiny.messenger.MessageSender.onClickmsg1(Landroid/view/View;)V",
          "target": "invokevirtual \u003c Application, Ljava/net/URL, openConnection()Ljava/net/URLConnection; \u003e@25",
          "type": "ui",
          "activities": [
            "com.tiny.messenger.MyRegistration"
          ],
          "listener": "android.view.View$1",
          "listenerMethod": "onClickmsg1",
          "uiType": "onClick"
        }
      ]
    },
    "31": {
      "startMethod": "com.tiny.messenger.MyContact.onCreate(Landroid/os/Bundle;)V",
      "targetMethod": "dalvik.system.DexClassLoader.loadClass(Ljava/lang/String;)Ljava/lang/Class;",
      "eventChain": [
        {
          "start": "com.tiny.messenger.MyContact.onCreate(Landroid/os/Bundle;)V",
          "target": "invokeinterface \u003c Application, Landroid/content/SharedPreferences$Editor, putInt(Ljava/lang/String;I)Landroid/content/SharedPreferences$Editor; \u003e@730",
          "type": "activity",
          "component": "com.tiny.messenger.MyContact",
          "constraintsFile": "constraints31_0.py",
          "variables": {
            "SharedPreferences\u003carray_size\u003e": "IAAv1"
          },
          "stringMap": {},
          "strings": {}
        },
        {
          "start": "com.tiny.messenger.MyContact.onCreate(Landroid/os/Bundle;)V",
          "target": "PC@29",
          "type": "activity",
          "component": "com.tiny.messenger.MyContact",
          "constraintsFile": "constraints31_1.py",
          "variables": {
            "SharedPreferences\u003carray_size\u003e": "IAAv1"
          },
          "stringMap": {},
          "strings": {
            "IAAv3": ""
          }
        },
        {
          "start": "com.tiny.messenger.MyContact.onCreate(Landroid/os/Bundle;)V",
          "target": "invokevirtual \u003c Application, Ldalvik/system/DexClassLoader, loadClass(Ljava/lang/String;)Ljava/lang/Class; \u003e@249",
          "type": "activity",
          "component": "com.tiny.messenger.MyContact",
          "constraintsFile": "constraints31_2.py",
          "variables": {
            "SharedPreferences\u003carray_size\u003e": "IAAv1"
          },
          "stringMap": {},
          "strings": {
            "IAAv3": ""
          }
        }
      ]
    },
    "32": {
      "startMethod": "com.tiny.messenger.MyContact.onCreate(Landroid/os/Bundle;)V",
      "targetMethod": "java.lang.reflect.Method.invoke(Ljava/lang/Object;[Ljava/lang/Object;)Ljava/lang/Object;",
      "eventChain": [
        {
          "start": "com.tiny.messenger.MyContact.onCreate(Landroid/os/Bundle;)V",
          "target": "invokeinterface \u003c Application, Landroid/content/SharedPreferences$Editor, putInt(Ljava/lang/String;I)Landroid/content/SharedPreferences$Editor; \u003e@730",
          "type": "activity",
          "component": "com.tiny.messenger.MyContact",
          "constraintsFile": "constraints32_0.py",
          "variables": {
            "SharedPreferences\u003carray_size\u003e": "IAAv1"
          },
          "stringMap": {},
          "strings": {}
        },
        {
          "start": "com.tiny.messenger.MyContact.onCreate(Landroid/os/Bundle;)V",
          "target": "invokevirtual \u003c Application, Ljava/lang/reflect/Method, invoke(Ljava/lang/Object;[Ljava/lang/Object;)Ljava/lang/Object; \u003e@45",
          "type": "activity",
          "component": "com.tiny.messenger.MyContact",
          "constraintsFile": "constraints32_1.py",
          "variables": {
            "SharedPreferences\u003carray_size\u003e": "IAAv1"
          },
          "stringMap": {},
          "strings": {}
        }
      ]
    },
    "33": {
      "startMethod": "com.tiny.messenger.MyContact.onCreate(Landroid/os/Bundle;)V",
      "targetMethod": "java.lang.ClassLoader.loadClass(Ljava/lang/String;)Ljava/lang/Class;",
      "eventChain": [
        {
          "start": "com.tiny.messenger.MyContact.onCreate(Landroid/os/Bundle;)V",
          "target": "invokeinterface \u003c Application, Landroid/content/SharedPreferences$Editor, putInt(Ljava/lang/String;I)Landroid/content/SharedPreferences$Editor; \u003e@730",
          "type": "activity",
          "component": "com.tiny.messenger.MyContact",
          "constraintsFile": "constraints33_0.py",
          "variables": {
            "SharedPreferences\u003carray_size\u003e": "IAAv1"
          },
          "stringMap": {},
          "strings": {}
        },
        {
          "start": "com.tiny.messenger.MyContact.onCreate(Landroid/os/Bundle;)V",
          "target": "invokevirtual \u003c Application, Ljava/lang/ClassLoader, loadClass(Ljava/lang/String;)Ljava/lang/Class; \u003e@50",
          "type": "activity",
          "component": "com.tiny.messenger.MyContact",
          "constraintsFile": "constraints33_1.py",
          "variables": {
            "SharedPreferences\u003carray_size\u003e": "IAAv1"
          },
          "stringMap": {},
          "strings": {
            "IAAv3": ""
          }
        }
      ]
    },
    "34": {
      "startMethod": "com.tiny.messenger.MyContact.onCreate(Landroid/os/Bundle;)V",
      "targetMethod": "java.net.URL.openConnection()Ljava/net/URLConnection;",
      "eventChain": [
        {
          "start": "com.tiny.messenger.MyContact.onCreate(Landroid/os/Bundle;)V",
          "target": "invokeinterface \u003c Application, Landroid/content/SharedPreferences$Editor, putInt(Ljava/lang/String;I)Landroid/content/SharedPreferences$Editor; \u003e@730",
          "type": "activity",
          "component": "com.tiny.messenger.MyContact",
          "constraintsFile": "constraints34_0.py",
          "variables": {
            "SharedPreferences\u003carray_size\u003e": "IAAv1"
          },
          "stringMap": {},
          "strings": {}
        },
        {
          "start": "com.tiny.messenger.MyContact.onCreate(Landroid/os/Bundle;)V",
          "target": "invokevirtual \u003c Application, Ljava/net/URL, openConnection()Ljava/net/URLConnection; \u003e@25",
          "type": "activity",
          "component": "com.tiny.messenger.MyContact",
          "constraintsFile": "constraints34_1.py",
          "variables": {
            "SharedPreferences\u003carray_size\u003e": "IAAv1"
          },
          "stringMap": {
            "7000": "Y"
          },
          "strings": {
            "IAAv2": ""
          }
        }
      ]
    },
    "35": {
      "startMethod": "com.tiny.messenger.MyContact.onCreate(Landroid/os/Bundle;)V",
      "targetMethod": "dalvik.system.DexClassLoader.loadClass(Ljava/lang/String;)Ljava/lang/Class;",
      "eventChain": [
        {
          "start": "com.tiny.messenger.MyContact.onCreate(Landroid/os/Bundle;)V",
          "target": "invokeinterface \u003c Application, Landroid/content/SharedPreferences$Editor, putInt(Ljava/lang/String;I)Landroid/content/SharedPreferences$Editor; \u003e@730",
          "type": "activity",
          "component": "com.tiny.messenger.MyContact",
          "constraintsFile": "constraints35_0.py",
          "variables": {
            "SharedPreferences\u003carray_size\u003e": "IAAv1"
          },
          "stringMap": {},
          "strings": {}
        },
        {
          "start": "com.tiny.messenger.MyContact.onCreate(Landroid/os/Bundle;)V",
          "target": "PC@29",
          "type": "activity",
          "component": "com.tiny.messenger.MyContact",
          "constraintsFile": "constraints35_1.py",
          "variables": {
            "SharedPreferences\u003carray_size\u003e": "IAAv1"
          },
          "stringMap": {},
          "strings": {
            "IAAv3": ""
          }
        },
        {
          "start": "com.tiny.messenger.MyContact.onCreate(Landroid/os/Bundle;)V",
          "target": "invokevirtual \u003c Application, Ldalvik/system/DexClassLoader, loadClass(Ljava/lang/String;)Ljava/lang/Class; \u003e@228",
          "type": "activity",
          "component": "com.tiny.messenger.MyContact",
          "constraintsFile": "constraints35_2.py",
          "variables": {
            "SharedPreferences\u003carray_size\u003e": "IAAv1"
          },
          "stringMap": {},
          "strings": {
            "IAAv3": ""
          }
        }
      ]
    },
    "36": {
      "startMethod": "com.tiny.messenger.MyContact.onCreate(Landroid/os/Bundle;)V",
      "targetMethod": "dalvik.system.DexClassLoader.loadClass(Ljava/lang/String;)Ljava/lang/Class;",
      "eventChain": [
        {
          "start": "com.tiny.messenger.MyContact.onCreate(Landroid/os/Bundle;)V",
          "target": "invokeinterface \u003c Application, Landroid/content/SharedPreferences$Editor, putInt(Ljava/lang/String;I)Landroid/content/SharedPreferences$Editor; \u003e@730",
          "type": "activity",
          "component": "com.tiny.messenger.MyContact",
          "constraintsFile": "constraints36_0.py",
          "variables": {
            "SharedPreferences\u003carray_size\u003e": "IAAv1"
          },
          "stringMap": {},
          "strings": {}
        },
        {
          "start": "com.tiny.messenger.MyContact.onCreate(Landroid/os/Bundle;)V",
          "target": "PC@29",
          "type": "activity",
          "component": "com.tiny.messenger.MyContact",
          "constraintsFile": "constraints36_1.py",
          "variables": {
            "SharedPreferences\u003carray_size\u003e": "IAAv1"
          },
          "stringMap": {},
          "strings": {
            "IAAv3": ""
          }
        },
        {
          "start": "com.tiny.messenger.MyContact.onCreate(Landroid/os/Bundle;)V",
          "target": "invokevirtual \u003c Application, Ldalvik/system/DexClassLoader, loadClass(Ljava/lang/String;)Ljava/lang/Class; \u003e@270",
          "type": "activity",
          "component": "com.tiny.messenger.MyContact",
          "constraintsFile": "constraints36_2.py",
          "variables": {
            "SharedPreferences\u003carray_size\u003e": "IAAv1"
          },
          "stringMap": {},
          "strings": {
            "IAAv3": ""
          }
        }
      ]
    },
    "37": {
      "startMethod": "com.tiny.messenger.MyContact.onCreate(Landroid/os/Bundle;)V",
      "targetMethod": "dalvik.system.DexClassLoader.loadClass(Ljava/lang/String;)Ljava/lang/Class;",
      "eventChain": [
        {
          "start": "com.tiny.messenger.MyContact.onCreate(Landroid/os/Bundle;)V",
          "target": "invokeinterface \u003c Application, Landroid/content/SharedPreferences$Editor, putInt(Ljava/lang/String;I)Landroid/content/SharedPreferences$Editor; \u003e@730",
          "type": "activity",
          "component": "com.tiny.messenger.MyContact",
          "constraintsFile": "constraints37_0.py",
          "variables": {
            "SharedPreferences\u003carray_size\u003e": "IAAv1"
          },
          "stringMap": {},
          "strings": {}
        },
        {
          "start": "com.tiny.messenger.MyContact.onCreate(Landroid/os/Bundle;)V",
          "target": "PC@29",
          "type": "activity",
          "component": "com.tiny.messenger.MyContact",
          "constraintsFile": "constraints37_1.py",
          "variables": {
            "SharedPreferences\u003carray_size\u003e": "IAAv1"
          },
          "stringMap": {},
          "strings": {
            "IAAv3": ""
          }
        },
        {
          "start": "com.tiny.messenger.MyContact.onCreate(Landroid/os/Bundle;)V",
          "target": "invokevirtual \u003c Application, Ldalvik/system/DexClassLoader, loadClass(Ljava/lang/String;)Ljava/lang/Class; \u003e@186",
          "type": "activity",
          "component": "com.tiny.messenger.MyContact",
          "constraintsFile": "constraints37_2.py",
          "variables": {
            "SharedPreferences\u003carray_size\u003e": "IAAv1"
          },
          "stringMap": {},
          "strings": {
            "IAAv3": ""
          }
        }
      ]
    },
    "38": {
      "startMethod": "com.tiny.messenger.MyContact.onCreate(Landroid/os/Bundle;)V",
      "targetMethod": "java.lang.reflect.Method.invoke(Ljava/lang/Object;[Ljava/lang/Object;)Ljava/lang/Object;",
      "eventChain": [
        {
          "start": "com.tiny.messenger.MyContact.onCreate(Landroid/os/Bundle;)V",
          "target": "invokeinterface \u003c Application, Landroid/content/SharedPreferences$Editor, putInt(Ljava/lang/String;I)Landroid/content/SharedPreferences$Editor; \u003e@730",
          "type": "activity",
          "component": "com.tiny.messenger.MyContact",
          "constraintsFile": "constraints38_0.py",
          "variables": {
            "SharedPreferences\u003carray_size\u003e": "IAAv1"
          },
          "stringMap": {},
          "strings": {}
        },
        {
          "start": "com.tiny.messenger.MyContact.onCreate(Landroid/os/Bundle;)V",
          "target": "invokevirtual \u003c Application, Ljava/lang/reflect/Method, invoke(Ljava/lang/Object;[Ljava/lang/Object;)Ljava/lang/Object; \u003e@34",
          "type": "activity",
          "component": "com.tiny.messenger.MyContact",
          "constraintsFile": "constraints38_1.py",
          "variables": {
            "SharedPreferences\u003carray_size\u003e": "IAAv1"
          },
          "stringMap": {},
          "strings": {}
        }
      ]
    },
    "39": {
      "startMethod": "com.tiny.messenger.MyContact.onCreate(Landroid/os/Bundle;)V",
      "targetMethod": "dalvik.system.DexClassLoader.loadClass(Ljava/lang/String;)Ljava/lang/Class;",
      "eventChain": [
        {
          "start": "com.tiny.messenger.MyContact.onCreate(Landroid/os/Bundle;)V",
          "target": "invokeinterface \u003c Application, Landroid/content/SharedPreferences$Editor, putInt(Ljava/lang/String;I)Landroid/content/SharedPreferences$Editor; \u003e@730",
          "type": "activity",
          "component": "com.tiny.messenger.MyContact",
          "constraintsFile": "constraints39_0.py",
          "variables": {
            "SharedPreferences\u003carray_size\u003e": "IAAv1"
          },
          "stringMap": {},
          "strings": {}
        },
        {
          "start": "com.tiny.messenger.MyContact.onCreate(Landroid/os/Bundle;)V",
          "target": "PC@29",
          "type": "activity",
          "component": "com.tiny.messenger.MyContact",
          "constraintsFile": "constraints39_1.py",
          "variables": {
            "SharedPreferences\u003carray_size\u003e": "IAAv1"
          },
          "stringMap": {},
          "strings": {
            "IAAv3": ""
          }
        },
        {
          "start": "com.tiny.messenger.MyContact.onCreate(Landroid/os/Bundle;)V",
          "target": "invokevirtual \u003c Application, Ldalvik/system/DexClassLoader, loadClass(Ljava/lang/String;)Ljava/lang/Class; \u003e@207",
          "type": "activity",
          "component": "com.tiny.messenger.MyContact",
          "constraintsFile": "constraints39_2.py",
          "variables": {
            "SharedPreferences\u003carray_size\u003e": "IAAv1"
          },
          "stringMap": {},
          "strings": {
            "IAAv3": ""
          }
        }
      ]
    },
    "40": {
      "startMethod": "com.tiny.messenger.MyContact.onCreate(Landroid/os/Bundle;)V",
      "targetMethod": "java.lang.reflect.Method.invoke(Ljava/lang/Object;[Ljava/lang/Object;)Ljava/lang/Object;",
      "eventChain": [
        {
          "start": "com.tiny.messenger.MyContact.onCreate(Landroid/os/Bundle;)V",
          "target": "invokeinterface \u003c Application, Landroid/content/SharedPreferences$Editor, putInt(Ljava/lang/String;I)Landroid/content/SharedPreferences$Editor; \u003e@730",
          "type": "activity",
          "component": "com.tiny.messenger.MyContact",
          "constraintsFile": "constraints40_0.py",
          "variables": {
            "SharedPreferences\u003carray_size\u003e": "IAAv1"
          },
          "stringMap": {},
          "strings": {}
        },
        {
          "start": "com.tiny.messenger.MyContact.onCreate(Landroid/os/Bundle;)V",
          "target": "invokevirtual \u003c Application, Ljava/lang/reflect/Method, invoke(Ljava/lang/Object;[Ljava/lang/Object;)Ljava/lang/Object; \u003e@54",
          "type": "activity",
          "component": "com.tiny.messenger.MyContact",
          "constraintsFile": "constraints40_1.py",
          "variables": {
            "SharedPreferences\u003carray_size\u003e": "IAAv1"
          },
          "stringMap": {},
          "strings": {}
        }
      ]
    },
    "41": {
      "startMethod": "com.tiny.messenger.MyContact.onCreate(Landroid/os/Bundle;)V",
      "targetMethod": "java.lang.reflect.Method.invoke(Ljava/lang/Object;[Ljava/lang/Object;)Ljava/lang/Object;",
      "eventChain": [
        {
          "start": "com.tiny.messenger.MyContact.onCreate(Landroid/os/Bundle;)V",
          "target": "invokeinterface \u003c Application, Landroid/content/SharedPreferences$Editor, putInt(Ljava/lang/String;I)Landroid/content/SharedPreferences$Editor; \u003e@730",
          "type": "activity",
          "component": "com.tiny.messenger.MyContact",
          "constraintsFile": "constraints41_0.py",
          "variables": {
            "SharedPreferences\u003carray_size\u003e": "IAAv1"
          },
          "stringMap": {},
          "strings": {}
        },
        {
          "start": "com.tiny.messenger.MyContact.onCreate(Landroid/os/Bundle;)V",
          "target": "invokevirtual \u003c Application, Ljava/lang/reflect/Method, invoke(Ljava/lang/Object;[Ljava/lang/Object;)Ljava/lang/Object; \u003e@267",
          "type": "activity",
          "component": "com.tiny.messenger.MyContact",
          "constraintsFile": "constraints41_1.py",
          "variables": {
            "SharedPreferences\u003carray_size\u003e": "IAAv1"
          },
          "stringMap": {
            "7000": "Y"
          },
          "strings": {
            "IAAv2": ""
          }
        }
      ]
    },
    "42": {
      "startMethod": "com.tiny.messenger.MyContact.onCreate(Landroid/os/Bundle;)V",
      "targetMethod": "dalvik.system.DexClassLoader.loadClass(Ljava/lang/String;)Ljava/lang/Class;",
      "eventChain": [
        {
          "start": "com.tiny.messenger.MyContact.onCreate(Landroid/os/Bundle;)V",
          "target": "invokeinterface \u003c Application, Landroid/content/SharedPreferences$Editor, putInt(Ljava/lang/String;I)Landroid/content/SharedPreferences$Editor; \u003e@730",
          "type": "activity",
          "component": "com.tiny.messenger.MyContact",
          "constraintsFile": "constraints42_0.py",
          "variables": {
            "SharedPreferences\u003carray_size\u003e": "IAAv1"
          },
          "stringMap": {},
          "strings": {}
        },
        {
          "start": "com.tiny.messenger.MyContact.onCreate(Landroid/os/Bundle;)V",
          "target": "PC@29",
          "type": "activity",
          "component": "com.tiny.messenger.MyContact",
          "constraintsFile": "constraints42_1.py",
          "variables": {
            "SharedPreferences\u003carray_size\u003e": "IAAv1"
          },
          "stringMap": {},
          "strings": {
            "IAAv3": ""
          }
        },
        {
          "start": "com.tiny.messenger.MyContact.onCreate(Landroid/os/Bundle;)V",
          "target": "invokevirtual \u003c Application, Ldalvik/system/DexClassLoader, loadClass(Ljava/lang/String;)Ljava/lang/Class; \u003e@291",
          "type": "activity",
          "component": "com.tiny.messenger.MyContact",
          "constraintsFile": "constraints42_2.py",
          "variables": {
            "SharedPreferences\u003carray_size\u003e": "IAAv1"
          },
          "stringMap": {},
          "strings": {
            "IAAv3": ""
          }
        }
      ]
    },
    "43": {
      "startMethod": "com.tiny.messenger.MyContact.onCreate(Landroid/os/Bundle;)V",
      "targetMethod": "java.lang.reflect.Method.invoke(Ljava/lang/Object;[Ljava/lang/Object;)Ljava/lang/Object;",
      "eventChain": [
        {
          "start": "com.tiny.messenger.MyContact.onCreate(Landroid/os/Bundle;)V",
          "target": "invokeinterface \u003c Application, Landroid/content/SharedPreferences$Editor, putInt(Ljava/lang/String;I)Landroid/content/SharedPreferences$Editor; \u003e@730",
          "type": "activity",
          "component": "com.tiny.messenger.MyContact",
          "constraintsFile": "constraints43_0.py",
          "variables": {
            "SharedPreferences\u003carray_size\u003e": "IAAv1"
          },
          "stringMap": {},
          "strings": {}
        },
        {
          "start": "com.tiny.messenger.MyContact.onCreate(Landroid/os/Bundle;)V",
          "target": "PC@29",
          "type": "activity",
          "component": "com.tiny.messenger.MyContact",
          "constraintsFile": "constraints43_1.py",
          "variables": {
            "SharedPreferences\u003carray_size\u003e": "IAAv1"
          },
          "stringMap": {},
          "strings": {
            "IAAv3": ""
          }
        },
        {
          "start": "com.tiny.messenger.MyContact.onCreate(Landroid/os/Bundle;)V",
          "target": "invokevirtual \u003c Application, Ljava/lang/reflect/Method, invoke(Ljava/lang/Object;[Ljava/lang/Object;)Ljava/lang/Object; \u003e@35",
          "type": "activity",
          "component": "com.tiny.messenger.MyContact",
          "constraintsFile": "constraints43_2.py",
          "variables": {
            "SharedPreferences\u003carray_size\u003e": "IAAv1"
          },
          "stringMap": {},
          "strings": {
            "IAAv3": ""
          }
        }
      ]
    }
  }
}