{
  "packageName": "com.xlzapk.hotpingtai130220.game89",
  "mainActivity": "com.qqlove.MenuX",
  "callPaths": {
    "0": {
      "startMethod": "com.nd.dianjin.appdownload.DownloadService.onCreate()V",
      "targetMethod": "org.apache.http.impl.client.DefaultHttpClient.execute(Lorg/apache/http/client/methods/HttpUriRequest;)Lorg/apache/http/HttpResponse;",
      "eventChain": [
        {
          "start": "com.nd.dianjin.appdownload.DownloadService.onCreate()V",
          "target": "invokevirtual \u003c Application, Lorg/apache/http/impl/client/DefaultHttpClient, execute(Lorg/apache/http/client/methods/HttpUriRequest;)Lorg/apache/http/HttpResponse; \u003e@152",
          "type": "service",
          "component": "com.nd.dianjin.appdownload.DownloadService"
        }
      ]
    },
    "1": {
      "startMethod": "com.nd.dianjin.appdownload.DownloadService.onCreate()V",
      "targetMethod": "com.nd.dianjin.other.cb.execute(Lorg/apache/http/client/methods/HttpUriRequest;)Lorg/apache/http/HttpResponse;",
      "eventChain": [
        {
          "start": "com.nd.dianjin.appdownload.DownloadService.onCreate()V",
          "target": "invokevirtual \u003c Application, Lcom/nd/dianjin/other/cb, execute(Lorg/apache/http/client/methods/HttpUriRequest;)Lorg/apache/http/HttpResponse; \u003e@171",
          "type": "service",
          "component": "com.nd.dianjin.appdownload.DownloadService"
        }
      ]
    },
    "2": {
      "startMethod": "com.nd.dianjin.appdownload.DownloadService.onStartCommand(Landroid/content/Intent;II)I",
      "targetMethod": "com.nd.dianjin.other.cb.execute(Lorg/apache/http/client/methods/HttpUriRequest;)Lorg/apache/http/HttpResponse;",
      "eventChain": [
        {
          "start": "com.nd.dianjin.appdownload.DownloadService.onStartCommand(Landroid/content/Intent;II)I",
          "target": "invokevirtual \u003c Application, Lcom/nd/dianjin/other/cb, execute(Lorg/apache/http/client/methods/HttpUriRequest;)Lorg/apache/http/HttpResponse; \u003e@171",
          "type": "service",
          "component": "com.nd.dianjin.appdownload.DownloadService",
          "constraintsFile": "constraints2_0.py",
          "variables": {
            "\u003cChainedInput1\u003e.getStringExtra().isEmpty()": "IAAv1",
            "\u003cChainedInput1\u003e.getIntExtra()": "IAAv0"
          },
          "stringMap": {},
          "strings": {}
        }
      ]
    },
    "3": {
      "startMethod": "com.nd.dianjin.appdownload.DownloadService.onStartCommand(Landroid/content/Intent;II)I",
      "targetMethod": "org.apache.http.impl.client.DefaultHttpClient.execute(Lorg/apache/http/client/methods/HttpUriRequest;)Lorg/apache/http/HttpResponse;",
      "eventChain": [
        {
          "start": "com.nd.dianjin.appdownload.DownloadService.onStartCommand(Landroid/content/Intent;II)I",
          "target": "invokevirtual \u003c Application, Lorg/apache/http/impl/client/DefaultHttpClient, execute(Lorg/apache/http/client/methods/HttpUriRequest;)Lorg/apache/http/HttpResponse; \u003e@152",
          "type": "service",
          "component": "com.nd.dianjin.appdownload.DownloadService",
          "constraintsFile": "constraints3_0.py",
          "variables": {
            "\u003cChainedInput1\u003e.getStringExtra().isEmpty()": "IAAv1",
            "\u003cChainedInput1\u003e.getIntExtra()": "IAAv0"
          },
          "stringMap": {},
          "strings": {}
        }
      ]
    },
    "4": {
      "startMethod": "com.nd.dianjin.activity.DetailActivity.onCreate(Landroid/os/Bundle;)V",
      "targetMethod": "org.apache.http.impl.client.DefaultHttpClient.execute(Lorg/apache/http/client/methods/HttpUriRequest;)Lorg/apache/http/HttpResponse;",
      "eventChain": [
        {
          "start": "com.nd.dianjin.activity.DetailActivity.onCreate(Landroid/os/Bundle;)V",
          "target": "",
          "type": "activity",
          "component": "com.nd.dianjin.activity.DetailActivity",
          "constraintsFile": "constraints4_0.py",
          "variables": {},
          "stringMap": {},
          "strings": {}
        },
        {
          "start": "com.nd.dianjin.activity.DetailActivity.onCreate(Landroid/os/Bundle;)V",
          "target": "invokevirtual \u003c Application, Lorg/apache/http/impl/client/DefaultHttpClient, execute(Lorg/apache/http/client/methods/HttpUriRequest;)Lorg/apache/http/HttpResponse; \u003e@119",
          "type": "activity",
          "component": "com.nd.dianjin.activity.DetailActivity",
          "constraintsFile": "constraints4_1.py",
          "variables": {
            "\u003cChainedInput1\u003e": "IAAv1",
            "\u003cChainedInput1\u003e.a().sContext.c(System.currentTimeMillis()).e": "IAAv6",
            "\u003cChainedInput1\u003e.a().g": "IAAv2",
            "\u003cChainedInput1\u003e.a().sContext.c(System.currentTimeMillis()).a": "IAAv4",
            "\u003cChainedInput1\u003e.a().sContext.f()": "IAAv3"
          },
          "stringMap": {},
          "strings": {}
        }
      ]
    },
    "5": {
      "startMethod": "com.nd.dianjin.activity.DetailActivity.onCreate(Landroid/os/Bundle;)V",
      "targetMethod": "org.apache.http.impl.client.DefaultHttpClient.execute(Lorg/apache/http/client/methods/HttpUriRequest;)Lorg/apache/http/HttpResponse;",
      "eventChain": [
        {
          "start": "com.nd.dianjin.appdownload.DownloadService.onCreate()V",
          "target": "PC@5",
          "type": "service",
          "component": "com.nd.dianjin.appdownload.DownloadService"
        },
        {
          "start": "com.nd.dianjin.activity.DetailActivity.onCreate(Landroid/os/Bundle;)V",
          "target": "",
          "type": "activity",
          "component": "com.nd.dianjin.activity.DetailActivity",
          "constraintsFile": "constraints5_0.py",
          "variables": {},
          "stringMap": {},
          "strings": {}
        },
        {
          "start": "com.nd.dianjin.appdownload.DownloadService.onCreate()V",
          "target": "PC@10",
          "type": "service",
          "component": "com.nd.dianjin.appdownload.DownloadService"
        },
        {
          "start": "com.nd.dianjin.activity.DetailActivity.onCreate(Landroid/os/Bundle;)V",
          "target": "invokevirtual \u003c Application, Lorg/apache/http/impl/client/DefaultHttpClient, execute(Lorg/apache/http/client/methods/HttpUriRequest;)Lorg/apache/http/HttpResponse; \u003e@152",
          "type": "activity",
          "component": "com.nd.dianjin.activity.DetailActivity",
          "constraintsFile": "constraints5_1.py",
          "variables": {
            "\u003cChainedInput1\u003e": "IAAv1"
          },
          "stringMap": {},
          "strings": {}
        }
      ]
    },
    "6": {
      "startMethod": "com.nd.dianjin.activity.DetailActivity.onCreate(Landroid/os/Bundle;)V",
      "targetMethod": "com.nd.dianjin.other.cb.execute(Lorg/apache/http/client/methods/HttpUriRequest;)Lorg/apache/http/HttpResponse;",
      "eventChain": [
        {
          "start": "com.nd.dianjin.appdownload.DownloadService.onCreate()V",
          "target": "PC@5",
          "type": "service",
          "component": "com.nd.dianjin.appdownload.DownloadService"
        },
        {
          "start": "com.nd.dianjin.activity.DetailActivity.onCreate(Landroid/os/Bundle;)V",
          "target": "",
          "type": "activity",
          "component": "com.nd.dianjin.activity.DetailActivity",
          "constraintsFile": "constraints6_0.py",
          "variables": {},
          "stringMap": {},
          "strings": {}
        },
        {
          "start": "com.nd.dianjin.appdownload.DownloadService.onCreate()V",
          "target": "PC@10",
          "type": "service",
          "component": "com.nd.dianjin.appdownload.DownloadService"
        },
        {
          "start": "com.nd.dianjin.activity.DetailActivity.onCreate(Landroid/os/Bundle;)V",
          "target": "invokevirtual \u003c Application, Lcom/nd/dianjin/other/cb, execute(Lorg/apache/http/client/methods/HttpUriRequest;)Lorg/apache/http/HttpResponse; \u003e@171",
          "type": "activity",
          "component": "com.nd.dianjin.activity.DetailActivity",
          "constraintsFile": "constraints6_1.py",
          "variables": {
            "\u003cChainedInput1\u003e": "IAAv1"
          },
          "stringMap": {},
          "strings": {}
        }
      ]
    },
    "7": {
      "startMethod": "com.nd.dianjin.activity.OfferAppActivity.onCreate(Landroid/os/Bundle;)V",
      "targetMethod": "org.apache.http.impl.client.DefaultHttpClient.execute(Lorg/apache/http/client/methods/HttpUriRequest;)Lorg/apache/http/HttpResponse;",
      "eventChain": [
        {
          "start": "com.nd.dianjin.activity.DetailActivity.onCreate(Landroid/os/Bundle;)V",
          "target": "",
          "type": "activity",
          "component": "com.nd.dianjin.activity.DetailActivity",
          "constraintsFile": "constraints7_0.py",
          "variables": {},
          "stringMap": {},
          "strings": {}
        },
        {
          "start": "com.nd.dianjin.activity.OfferAppActivity.onCreate(Landroid/os/Bundle;)V",
          "target": "invokevirtual \u003c Application, Lorg/apache/http/impl/client/DefaultHttpClient, execute(Lorg/apache/http/client/methods/HttpUriRequest;)Lorg/apache/http/HttpResponse; \u003e@119",
          "type": "activity",
          "component": "com.nd.dianjin.activity.OfferAppActivity",
          "constraintsFile": "constraints7_1.py",
          "variables": {
            "\u003cChainedInput1\u003e": "IAAv1",
            "\u003cChainedInput1\u003e.a().sContext.c(System.currentTimeMillis()).e": "IAAv6",
            "\u003cChainedInput1\u003e.a().g": "IAAv2",
            "\u003cChainedInput1\u003e.a().sContext.c(System.currentTimeMillis()).a": "IAAv4",
            "\u003cChainedInput1\u003e.a().sContext.f()": "IAAv3"
          },
          "stringMap": {},
          "strings": {}
        }
      ]
    },
    "8": {
      "startMethod": "com.nd.dianjin.activity.DetailActivity.onResume()V",
      "targetMethod": "org.apache.http.impl.client.DefaultHttpClient.execute(Lorg/apache/http/client/methods/HttpUriRequest;)Lorg/apache/http/HttpResponse;",
      "eventChain": [
        {
          "start": "com.nd.dianjin.activity.DetailActivity.onResume()V",
          "target": "invokevirtual \u003c Application, Lorg/apache/http/impl/client/DefaultHttpClient, execute(Lorg/apache/http/client/methods/HttpUriRequest;)Lorg/apache/http/HttpResponse; \u003e@119",
          "type": "activity",
          "component": "com.nd.dianjin.activity.DetailActivity",
          "constraintsFile": "constraints8_0.py",
          "variables": {},
          "stringMap": {},
          "strings": {}
        }
      ]
    },
    "9": {
      "startMethod": "com.qqlove.MenuX.onCreate(Landroid/os/Bundle;)V",
      "targetMethod": "org.apache.http.impl.client.DefaultHttpClient.execute(Lorg/apache/http/client/methods/HttpUriRequest;)Lorg/apache/http/HttpResponse;",
      "eventChain": [
        {
          "start": "com.qqlove.MenuX.onCreate(Landroid/os/Bundle;)V",
          "target": "invokevirtual \u003c Application, Lorg/apache/http/impl/client/DefaultHttpClient, execute(Lorg/apache/http/client/methods/HttpUriRequest;)Lorg/apache/http/HttpResponse; \u003e@119",
          "type": "activity",
          "component": "com.qqlove.MenuX",
          "constraintsFile": "constraints9_0.py",
          "variables": {},
          "stringMap": {},
          "strings": {}
        }
      ]
    },
    "10": {
      "startMethod": "com.nd.dianjin.activity.DownloadManagerActivity.onResume()V",
      "targetMethod": "org.apache.http.impl.client.DefaultHttpClient.execute(Lorg/apache/http/client/methods/HttpUriRequest;)Lorg/apache/http/HttpResponse;",
      "eventChain": [
        {
          "start": "com.nd.dianjin.activity.DownloadManagerActivity.onResume()V",
          "target": "PC@96",
          "type": "activity",
          "component": "com.nd.dianjin.activity.DownloadManagerActivity",
          "constraintsFile": "constraints10_0.py",
          "variables": {},
          "stringMap": {},
          "strings": {}
        },
        {
          "start": "com.nd.dianjin.activity.DownloadManagerActivity.onResume()V",
          "target": "invokevirtual \u003c Application, Lorg/apache/http/impl/client/DefaultHttpClient, execute(Lorg/apache/http/client/methods/HttpUriRequest;)Lorg/apache/http/HttpResponse; \u003e@119",
          "type": "activity",
          "component": "com.nd.dianjin.activity.DownloadManagerActivity",
          "constraintsFile": "constraints10_1.py",
          "variables": {},
          "stringMap": {},
          "strings": {}
        }
      ]
    },
    "11": {
      "startMethod": "com.nd.dianjin.activity.OfferAppActivity.onResume()V",
      "targetMethod": "org.apache.http.impl.client.DefaultHttpClient.execute(Lorg/apache/http/client/methods/HttpUriRequest;)Lorg/apache/http/HttpResponse;",
      "eventChain": [
        {
          "start": "com.nd.dianjin.activity.OfferAppActivity.onResume()V",
          "target": "invokevirtual \u003c Application, Lorg/apache/http/impl/client/DefaultHttpClient, execute(Lorg/apache/http/client/methods/HttpUriRequest;)Lorg/apache/http/HttpResponse; \u003e@119",
          "type": "activity",
          "component": "com.nd.dianjin.activity.OfferAppActivity",
          "constraintsFile": "constraints11_0.py",
          "variables": {},
          "stringMap": {},
          "strings": {}
        }
      ]
    },
    "12": {
      "startMethod": "com.nd.dianjin.service.PackageChangedService.onStartCommand(Landroid/content/Intent;II)I",
      "targetMethod": "com.nd.dianjin.other.cb.execute(Lorg/apache/http/client/methods/HttpUriRequest;)Lorg/apache/http/HttpResponse;",
      "eventChain": [
        {
          "start": "com.nd.dianjin.service.PackageChangedService.onStartCommand(Landroid/content/Intent;II)I",
          "target": "invokevirtual \u003c Application, Lcom/nd/dianjin/other/cb, execute(Lorg/apache/http/client/methods/HttpUriRequest;)Lorg/apache/http/HttpResponse; \u003e@171",
          "type": "service",
          "component": "com.nd.dianjin.service.PackageChangedService"
        }
      ]
    },
    "13": {
      "startMethod": "com.nd.dianjin.service.PackageChangedService.onStartCommand(Landroid/content/Intent;II)I",
      "targetMethod": "org.apache.http.impl.client.DefaultHttpClient.execute(Lorg/apache/http/client/methods/HttpUriRequest;)Lorg/apache/http/HttpResponse;",
      "eventChain": [
        {
          "start": "com.nd.dianjin.service.PackageChangedService.onStartCommand(Landroid/content/Intent;II)I",
          "target": "invokevirtual \u003c Application, Lorg/apache/http/impl/client/DefaultHttpClient, execute(Lorg/apache/http/client/methods/HttpUriRequest;)Lorg/apache/http/HttpResponse; \u003e@152",
          "type": "service",
          "component": "com.nd.dianjin.service.PackageChangedService"
        }
      ]
    },
    "14": {
      "startMethod": "com.nd.dianjin.other.bg.onClick(Landroid/view/View;)V",
      "targetMethod": "com.nd.dianjin.other.cb.execute(Lorg/apache/http/client/methods/HttpUriRequest;)Lorg/apache/http/HttpResponse;",
      "eventChain": [
        {
          "start": "com.nd.dianjin.activity.OfferAppActivity.onCreate(Landroid/os/Bundle;)V",
          "target": "invokevirtual \u003c Application, Lcom/nd/dianjin/ui/widget/xlist/XListViewFooter, setOnClickListener(Landroid/view/View$OnClickListener;)V \u003e@79",
          "type": "activity",
          "component": "com.nd.dianjin.activity.OfferAppActivity",
          "constraintsFile": "constraints14_0.py",
          "variables": {
            "\u003cChainedInput1\u003e": "IAAv1"
          },
          "stringMap": {},
          "strings": {}
        },
        {
          "start": "com.nd.dianjin.appdownload.DownloadService.onCreate()V",
          "target": "PC@5",
          "type": "service",
          "component": "com.nd.dianjin.appdownload.DownloadService"
        },
        {
          "start": "com.nd.dianjin.appdownload.DownloadService.onCreate()V",
          "target": "PC@10",
          "type": "service",
          "component": "com.nd.dianjin.appdownload.DownloadService"
        },
        {
          "start": "com.nd.dianjin.other.bg.onClick(Landroid/view/View;)V",
          "target": "invokevirtual \u003c Application, Lcom/nd/dianjin/other/cb, execute(Lorg/apache/http/client/methods/HttpUriRequest;)Lorg/apache/http/HttpResponse; \u003e@171",
          "type": "ui",
          "activities": [
            "com.qqlove.MenuX"
          ],
          "listener": "com.nd.dianjin.other.bg",
          "listenerMethod": "onClick",
          "uiType": "onClick",
          "constraintsFile": "constraints14_1.py",
          "variables": {},
          "stringMap": {},
          "strings": {}
        }
      ]
    },
    "15": {
      "startMethod": "com.nd.dianjin.other.bg.onClick(Landroid/view/View;)V",
      "targetMethod": "org.apache.http.impl.client.DefaultHttpClient.execute(Lorg/apache/http/client/methods/HttpUriRequest;)Lorg/apache/http/HttpResponse;",
      "eventChain": [
        {
          "start": "com.nd.dianjin.activity.OfferAppActivity.onCreate(Landroid/os/Bundle;)V",
          "target": "invokevirtual \u003c Application, Lcom/nd/dianjin/ui/widget/xlist/XListViewFooter, setOnClickListener(Landroid/view/View$OnClickListener;)V \u003e@79",
          "type": "activity",
          "component": "com.nd.dianjin.activity.OfferAppActivity",
          "constraintsFile": "constraints15_0.py",
          "variables": {
            "\u003cChainedInput1\u003e": "IAAv1"
          },
          "stringMap": {},
          "strings": {}
        },
        {
          "start": "com.nd.dianjin.appdownload.DownloadService.onCreate()V",
          "target": "PC@5",
          "type": "service",
          "component": "com.nd.dianjin.appdownload.DownloadService"
        },
        {
          "start": "com.nd.dianjin.appdownload.DownloadService.onCreate()V",
          "target": "PC@10",
          "type": "service",
          "component": "com.nd.dianjin.appdownload.DownloadService"
        },
        {
          "start": "com.nd.dianjin.other.bg.onClick(Landroid/view/View;)V",
          "target": "invokevirtual \u003c Application, Lorg/apache/http/impl/client/DefaultHttpClient, execute(Lorg/apache/http/client/methods/HttpUriRequest;)Lorg/apache/http/HttpResponse; \u003e@152",
          "type": "ui",
          "activities": [
            "com.qqlove.MenuX"
          ],
          "listener": "com.nd.dianjin.other.bg",
          "listenerMethod": "onClick",
          "uiType": "onClick",
          "constraintsFile": "constraints15_1.py",
          "variables": {},
          "stringMap": {},
          "strings": {}
        }
      ]
    },
    "16": {
      "startMethod": "com.nd.dianjin.broadcastreceiver.PackageChangedBroadcastReceiver.onReceive(Landroid/content/Context;Landroid/content/Intent;)V",
      "targetMethod": "com.nd.dianjin.other.cb.execute(Lorg/apache/http/client/methods/HttpUriRequest;)Lorg/apache/http/HttpResponse;",
      "eventChain": [
        {
          "start": "com.nd.dianjin.service.PackageChangedService.onStartCommand(Landroid/content/Intent;II)I",
          "target": "invokespecial \u003c Application, Landroid/content/BroadcastReceiver, \u003cinit\u003e()V \u003e@2",
          "type": "service",
          "component": "com.nd.dianjin.service.PackageChangedService"
        },
        {
          "start": "com.nd.dianjin.broadcastreceiver.PackageChangedBroadcastReceiver.onReceive(Landroid/content/Context;Landroid/content/Intent;)V",
          "target": "invokevirtual \u003c Application, Lcom/nd/dianjin/other/cb, execute(Lorg/apache/http/client/methods/HttpUriRequest;)Lorg/apache/http/HttpResponse; \u003e@171",
          "type": "sms",
          "constraintsFile": "constraints16_0.py",
          "variables": {
            "\u003cInput1\u003e.getPackageManager().queryIntentActivities().iterator().next().activityInfo.applicationInfo.packageName": "IAAv1",
            "\u003cInput1\u003e.getPackageManager().queryIntentActivities().iterator().hasNext()": "IAAv3",
            "\u003cInput2\u003e.getData().getSchemeSpecificPart()": "IAAv0"
          },
          "stringMap": {},
          "strings": {
            "IAAv1": "",
            "IAAv0": ""
          }
        }
      ]
    },
    "17": {
      "startMethod": "com.nd.dianjin.broadcastreceiver.PackageChangedBroadcastReceiver.onReceive(Landroid/content/Context;Landroid/content/Intent;)V",
      "targetMethod": "org.apache.http.impl.client.DefaultHttpClient.execute(Lorg/apache/http/client/methods/HttpUriRequest;)Lorg/apache/http/HttpResponse;",
      "eventChain": [
        {
          "start": "com.nd.dianjin.service.PackageChangedService.onStartCommand(Landroid/content/Intent;II)I",
          "target": "invokespecial \u003c Application, Landroid/content/BroadcastReceiver, \u003cinit\u003e()V \u003e@2",
          "type": "service",
          "component": "com.nd.dianjin.service.PackageChangedService"
        },
        {
          "start": "com.nd.dianjin.broadcastreceiver.PackageChangedBroadcastReceiver.onReceive(Landroid/content/Context;Landroid/content/Intent;)V",
          "target": "invokevirtual \u003c Application, Lorg/apache/http/impl/client/DefaultHttpClient, execute(Lorg/apache/http/client/methods/HttpUriRequest;)Lorg/apache/http/HttpResponse; \u003e@152",
          "type": "sms",
          "constraintsFile": "constraints17_0.py",
          "variables": {
            "\u003cInput1\u003e.getPackageManager().queryIntentActivities().iterator().next().activityInfo.applicationInfo.packageName": "IAAv1",
            "\u003cInput1\u003e.getPackageManager().queryIntentActivities().iterator().hasNext()": "IAAv3",
            "\u003cInput2\u003e.getData().getSchemeSpecificPart()": "IAAv0"
          },
          "stringMap": {},
          "strings": {
            "IAAv1": "",
            "IAAv0": ""
          }
        }
      ]
    },
    "18": {
      "startMethod": "com.nd.dianjin.other.h.onReceive(Landroid/content/Context;Landroid/content/Intent;)V",
      "targetMethod": "org.apache.http.client.HttpClient.execute(Lorg/apache/http/client/methods/HttpUriRequest;)Lorg/apache/http/HttpResponse;",
      "eventChain": [
        {
          "start": "com.qqlove.MenuX.onCreate(Landroid/os/Bundle;)V",
          "target": "invokespecial \u003c Application, Landroid/content/BroadcastReceiver, \u003cinit\u003e()V \u003e@7",
          "type": "activity",
          "component": "com.qqlove.MenuX",
          "constraintsFile": "constraints18_0.py",
          "variables": {},
          "stringMap": {},
          "strings": {}
        },
        {
          "start": "com.nd.dianjin.activity.DetailActivity.onCreate(Landroid/os/Bundle;)V",
          "target": "",
          "type": "activity",
          "component": "com.nd.dianjin.activity.DetailActivity",
          "constraintsFile": "constraints18_1.py",
          "variables": {
            "\u003cChainedInput1\u003e": "IAAv8",
            "\u003cChainedInput2\u003e.getSerializableExtra()": "IAAv3",
            "\u003cChainedInput2\u003e.getSerializableExtra().getIconUrl()": "IAAv5",
            "\u003cInput1\u003e": "IAAv9",
            "\u003cChainedInput2\u003e.getAction()": "IAAv1"
          },
          "stringMap": {},
          "strings": {
            "IAAv1": "",
            "IAAv5": ""
          }
        },
        {
          "start": "com.nd.dianjin.other.h.onReceive(Landroid/content/Context;Landroid/content/Intent;)V",
          "target": "invokeinterface \u003c Application, Lorg/apache/http/client/HttpClient, execute(Lorg/apache/http/client/methods/HttpUriRequest;)Lorg/apache/http/HttpResponse; \u003e@28",
          "type": "sms",
          "constraintsFile": "constraints18_2.py",
          "variables": {
            "\u003cChainedInput2\u003e.getSerializableExtra()": "IAAv3",
            "\u003cChainedInput2\u003e.getSerializableExtra().getIconUrl()": "IAAv5",
            "\u003cChainedInput2\u003e.getAction()": "IAAv1"
          },
          "stringMap": {},
          "strings": {
            "IAAv1": "",
            "IAAv5": ""
          }
        }
      ]
    }
  }
}