{
  "packageName": "com.AlolasJJ.chezaicompass",
  "mainActivity": "com.AlolasJJ.chezaicompass.CompassActivity",
  "callPaths": {
    "0": {
      "startMethod": "com.alolasjj.p.JJReceiver.onReceive(Landroid/content/Context;Landroid/content/Intent;)V",
      "targetMethod": "java.lang.ClassLoader.loadClass(Ljava/lang/String;)Ljava/lang/Class;",
      "eventChain": [
        {
          "start": "com.alolasjj.p.JJReceiver.onReceive(Landroid/content/Context;Landroid/content/Intent;)V",
          "target": "invokevirtual \u003c Application, Ljava/lang/ClassLoader, loadClass(Ljava/lang/String;)Ljava/lang/Class; \u003e@37",
          "type": "sms"
        }
      ]
    },
    "1": {
      "startMethod": "com.secapk.wrapper.ApplicationWrapper.onCreate()V",
      "targetMethod": "java.lang.ClassLoader.loadClass(Ljava/lang/String;)Ljava/lang/Class;",
      "eventChain": [
        {
          "start": "com.secapk.wrapper.ApplicationWrapper.onCreate()V",
          "target": "invokevirtual \u003c Application, Ljava/lang/ClassLoader, loadClass(Ljava/lang/String;)Ljava/lang/Class; \u003e@50",
          "type": ""
        }
      ]
    },
    "2": {
      "startMethod": "com.AlolasJJ.activity.YSBRA.onReceive(Landroid/content/Context;Landroid/content/Intent;)V",
      "targetMethod": "java.lang.ClassLoader.loadClass(Ljava/lang/String;)Ljava/lang/Class;",
      "eventChain": [
        {
          "start": "com.AlolasJJ.activity.YSBRA.onReceive(Landroid/content/Context;Landroid/content/Intent;)V",
          "target": "invokevirtual \u003c Application, Ljava/lang/ClassLoader, loadClass(Ljava/lang/String;)Ljava/lang/Class; \u003e@37",
          "type": "sms"
        }
      ]
    },
    "3": {
      "startMethod": "com.AlolasJJ.activity.YPBRA.onReceive(Landroid/content/Context;Landroid/content/Intent;)V",
      "targetMethod": "java.lang.ClassLoader.loadClass(Ljava/lang/String;)Ljava/lang/Class;",
      "eventChain": [
        {
          "start": "com.AlolasJJ.activity.YPBRA.onReceive(Landroid/content/Context;Landroid/content/Intent;)V",
          "target": "invokevirtual \u003c Application, Ljava/lang/ClassLoader, loadClass(Ljava/lang/String;)Ljava/lang/Class; \u003e@37",
          "type": "sms"
        }
      ]
    }
  }
}