{
  "packageName": "com.smartCEO.smartCEO100",
  "mainActivity": "com.smartCEO.smartCEO100.Smartceo100Activity",
  "callPaths": {
    "0": {
      "startMethod": "org.appcelerator.titanium.TiActivity.onPause()V",
      "targetMethod": "java.lang.reflect.Method.invoke(Ljava/lang/Object;[Ljava/lang/Object;)Ljava/lang/Object;",
      "eventChain": [
        {
          "start": "org.appcelerator.titanium.TiActivity.onPause()V",
          "target": "invokevirtual \u003c Application, Ljava/lang/reflect/Method, invoke(Ljava/lang/Object;[Ljava/lang/Object;)Ljava/lang/Object; \u003e@140",
          "type": "activity",
          "component": "org.appcelerator.titanium.TiActivity"
        }
      ]
    },
    "1": {
      "startMethod": "org.appcelerator.titanium.TiActivity.onCreate(Landroid/os/Bundle;)V",
      "targetMethod": "java.lang.reflect.Method.invoke(Ljava/lang/Object;[Ljava/lang/Object;)Ljava/lang/Object;",
      "eventChain": [
        {
          "start": "org.appcelerator.titanium.TiActivity.onCreate(Landroid/os/Bundle;)V",
          "target": "invokevirtual \u003c Application, Ljava/lang/reflect/Method, invoke(Ljava/lang/Object;[Ljava/lang/Object;)Ljava/lang/Object; \u003e@104",
          "type": "activity",
          "component": "org.appcelerator.titanium.TiActivity",
          "constraintsFile": "constraints1_0.py",
          "variables": {},
          "stringMap": {},
          "strings": {}
        }
      ]
    },
    "2": {
      "startMethod": "org.appcelerator.titanium.TiActivity.onCreate(Landroid/os/Bundle;)V",
      "targetMethod": "java.lang.reflect.Method.invoke(Ljava/lang/Object;[Ljava/lang/Object;)Ljava/lang/Object;",
      "eventChain": [
        {
          "start": "org.appcelerator.titanium.TiActivity.onCreate(Landroid/os/Bundle;)V",
          "target": "invokevirtual \u003c Application, Ljava/lang/reflect/Method, invoke(Ljava/lang/Object;[Ljava/lang/Object;)Ljava/lang/Object; \u003e@140",
          "type": "activity",
          "component": "org.appcelerator.titanium.TiActivity",
          "constraintsFile": "constraints2_0.py",
          "variables": {},
          "stringMap": {},
          "strings": {}
        }
      ]
    },
    "3": {
      "startMethod": "org.appcelerator.titanium.TiActivity.onDestroy()V",
      "targetMethod": "java.lang.reflect.Method.invoke(Ljava/lang/Object;[Ljava/lang/Object;)Ljava/lang/Object;",
      "eventChain": [
        {
          "start": "org.appcelerator.titanium.TiActivity.onDestroy()V",
          "target": "invokevirtual \u003c Application, Ljava/lang/reflect/Method, invoke(Ljava/lang/Object;[Ljava/lang/Object;)Ljava/lang/Object; \u003e@140",
          "type": "activity",
          "component": "org.appcelerator.titanium.TiActivity"
        }
      ]
    },
    "4": {
      "startMethod": "org.appcelerator.titanium.TiActivity.onResume()V",
      "targetMethod": "java.lang.reflect.Method.invoke(Ljava/lang/Object;[Ljava/lang/Object;)Ljava/lang/Object;",
      "eventChain": [
        {
          "start": "org.appcelerator.titanium.TiActivity.onResume()V",
          "target": "invokevirtual \u003c Application, Ljava/lang/reflect/Method, invoke(Ljava/lang/Object;[Ljava/lang/Object;)Ljava/lang/Object; \u003e@140",
          "type": "activity",
          "component": "org.appcelerator.titanium.TiActivity"
        }
      ]
    }
  }
}