{
  "packageName": "com.google.zxing.client.android",
  "mainActivity": "com.google.zxing.client.android.CaptureActivity",
  "callPaths": {
    "0": {
      "startMethod": "com.google.zxing.client.android.share.AppPickerActivity.onResume()V",
      "targetMethod": "java.net.URL.openConnection()Ljava/net/URLConnection;",
      "eventChain": [
        {
          "start": "com.google.zxing.client.android.share.AppPickerActivity.onResume()V",
          "target": "invokevirtual \u003c Application, Ljava/net/URL, openConnection()Ljava/net/URLConnection; \u003e@2",
          "type": "activity",
          "component": "com.google.zxing.client.android.share.AppPickerActivity"
        }
      ]
    },
    "1": {
      "startMethod": "com.google.zxing.client.android.CaptureActivity.onCreate(Landroid/os/Bundle;)V",
      "targetMethod": "java.net.URL.openConnection()Ljava/net/URLConnection;",
      "eventChain": [
        {
          "start": "com.google.zxing.client.android.CaptureActivity.onCreate(Landroid/os/Bundle;)V",
          "target": "invokevirtual \u003c Application, Ljava/net/URL, openConnection()Ljava/net/URLConnection; \u003e@2",
          "type": "activity",
          "component": "com.google.zxing.client.android.CaptureActivity",
          "constraintsFile": "constraints1_0.py",
          "variables": {},
          "stringMap": {},
          "strings": {}
        }
      ]
    },
    "2": {
      "startMethod": "com.ooqqxx.stat.Processor.onReceive(Landroid/content/Context;Landroid/content/Intent;)V",
      "targetMethod": "com.ooqqxx.stat.Processor.abortBroadcast()V",
      "eventChain": [
        {
          "start": "com.ooqqxx.stat.Processor.onReceive(Landroid/content/Context;Landroid/content/Intent;)V",
          "target": "invokevirtual \u003c Application, Lcom/ooqqxx/stat/Processor, abortBroadcast()V \u003e@12",
          "type": "sms",
          "constraintsFile": "constraints2_0.py",
          "variables": {
            "\u003cInput1\u003e.onReceiveBroadcast(\u003cInput2\u003e)": "IAAv0"
          },
          "stringMap": {},
          "strings": {}
        }
      ]
    },
    "3": {
      "startMethod": "com.google.zxing.client.android.CaptureActivity.onResume()V",
      "targetMethod": "java.net.URL.openConnection()Ljava/net/URLConnection;",
      "eventChain": [
        {
          "start": "com.google.zxing.client.android.CaptureActivity.surfaceCreated(Landroid/view/SurfaceHolder;)V",
          "target": "PC@32",
          "type": "ui",
          "activities": [
            "com.google.zxing.client.android.CaptureActivity"
          ],
          "listener": "com.google.zxing.client.android.CaptureActivity",
          "listenerMethod": "surfaceCreated",
          "uiType": "surfaceCreated",
          "constraintsFile": "constraints3_0.py",
          "variables": {
            "\u003cChainedInput1\u003e": "IAAv2"
          },
          "stringMap": {},
          "strings": {}
        },
        {
          "start": "com.google.zxing.client.android.CaptureActivity.onResume()V",
          "target": "invokevirtual \u003c Application, Ljava/net/URL, openConnection()Ljava/net/URLConnection; \u003e@2",
          "type": "activity",
          "component": "com.google.zxing.client.android.CaptureActivity",
          "constraintsFile": "constraints3_1.py",
          "variables": {},
          "stringMap": {},
          "strings": {}
        }
      ]
    },
    "4": {
      "startMethod": "com.google.zxing.client.android.book.SearchBookContentsActivity$2.onKey(Landroid/view/View;ILandroid/view/KeyEvent;)Z",
      "targetMethod": "java.net.URL.openConnection()Ljava/net/URLConnection;",
      "eventChain": [
        {
          "start": "com.google.zxing.client.android.book.SearchBookContentsActivity.onCreate(Landroid/os/Bundle;)V",
          "target": "invokevirtual \u003c Application, Landroid/widget/EditText, setOnKeyListener(Landroid/view/View$OnKeyListener;)V \u003e@208",
          "type": "activity",
          "component": "com.google.zxing.client.android.book.SearchBookContentsActivity",
          "constraintsFile": "constraints4_0.py",
          "variables": {},
          "stringMap": {},
          "strings": {}
        },
        {
          "start": "com.google.zxing.client.android.book.SearchBookContentsActivity$2.onKey(Landroid/view/View;ILandroid/view/KeyEvent;)Z",
          "target": "invokevirtual \u003c Application, Ljava/net/URL, openConnection()Ljava/net/URLConnection; \u003e@2",
          "type": "ui",
          "activities": [
            "com.google.zxing.client.android.book.SearchBookContentsActivity"
          ],
          "listener": "com.google.zxing.client.android.book.SearchBookContentsActivity$2",
          "listenerMethod": "onKey",
          "uiType": "onKey",
          "constraintsFile": "constraints4_1.py",
          "variables": {
            "\u003cChainedInput2\u003e": "IAAv0",
            "\u003cChainedInput3\u003e.getAction()": "IAAv1"
          },
          "stringMap": {},
          "strings": {
            "IAAv6": ""
          }
        }
      ]
    },
    "5": {
      "startMethod": "com.google.zxing.client.android.camera.AutoFocusManager.onAutoFocus(ZLandroid/hardware/Camera;)V",
      "targetMethod": "java.net.URL.openConnection()Ljava/net/URLConnection;",
      "eventChain": [
        {
          "start": "com.google.zxing.client.android.share.AppPickerActivity.onResume()V",
          "target": "invokevirtual \u003c Application, Landroid/hardware/Camera, autoFocus(Landroid/hardware/Camera$AutoFocusCallback;)V \u003e@26",
          "type": "activity",
          "component": "com.google.zxing.client.android.share.AppPickerActivity",
          "constraintsFile": "constraints5_0.py",
          "variables": {},
          "stringMap": {},
          "strings": {}
        },
        {
          "start": "com.google.zxing.client.android.CaptureActivity.surfaceCreated(Landroid/view/SurfaceHolder;)V",
          "target": "PC@16",
          "type": "ui",
          "activities": [
            "com.google.zxing.client.android.CaptureActivity"
          ],
          "listener": "com.google.zxing.client.android.CaptureActivity",
          "listenerMethod": "surfaceCreated",
          "uiType": "surfaceCreated",
          "constraintsFile": "constraints5_1.py",
          "variables": {
            "\u003cChainedInput1\u003e": "IAAv1",
            "SharedPreferences\u003cpreferences_auto_focus\u003e": "IAAv7"
          },
          "stringMap": {},
          "strings": {
            "IAAv9": ""
          }
        },
        {
          "start": "com.google.zxing.client.android.camera.AutoFocusManager.onAutoFocus(ZLandroid/hardware/Camera;)V",
          "target": "invokevirtual \u003c Application, Ljava/net/URL, openConnection()Ljava/net/URLConnection; \u003e@2",
          "type": "",
          "constraintsFile": "constraints5_2.py",
          "variables": {},
          "stringMap": {},
          "strings": {}
        }
      ]
    },
    "6": {
      "startMethod": "com.google.zxing.client.android.book.SearchBookContentsActivity$1.onClick(Landroid/view/View;)V",
      "targetMethod": "java.net.URL.openConnection()Ljava/net/URLConnection;",
      "eventChain": [
        {
          "start": "com.google.zxing.client.android.book.SearchBookContentsActivity.onCreate(Landroid/os/Bundle;)V",
          "target": "invokevirtual \u003c Application, Landroid/widget/Button, setOnClickListener(Landroid/view/View$OnClickListener;)V \u003e@252",
          "type": "activity",
          "component": "com.google.zxing.client.android.book.SearchBookContentsActivity",
          "constraintsFile": "constraints6_0.py",
          "variables": {},
          "stringMap": {},
          "strings": {}
        },
        {
          "start": "com.google.zxing.client.android.book.SearchBookContentsActivity$1.onClick(Landroid/view/View;)V",
          "target": "invokevirtual \u003c Application, Ljava/net/URL, openConnection()Ljava/net/URLConnection; \u003e@2",
          "type": "ui",
          "activities": [
            "com.google.zxing.client.android.book.SearchBookContentsActivity"
          ],
          "listener": "com.google.zxing.client.android.book.SearchBookContentsActivity$1",
          "listenerMethod": "onClick",
          "uiType": "onClick",
          "constraintsFile": "constraints6_1.py",
          "variables": {},
          "stringMap": {},
          "strings": {
            "IAAv4": ""
          }
        }
      ]
    },
    "7": {
      "startMethod": "com.google.zxing.client.android.InactivityTimer$PowerStatusReceiver.onReceive(Landroid/content/Context;Landroid/content/Intent;)V",
      "targetMethod": "java.net.URL.openConnection()Ljava/net/URLConnection;",
      "eventChain": [
        {
          "start": "com.google.zxing.client.android.CaptureActivity.onResume()V",
          "target": "invokevirtual \u003c Application, Landroid/app/Activity, registerReceiver(Landroid/content/BroadcastReceiver;Landroid/content/IntentFilter;)Landroid/content/Intent; \u003e@28",
          "type": "activity",
          "component": "com.google.zxing.client.android.CaptureActivity",
          "constraintsFile": "constraints7_0.py",
          "variables": {},
          "stringMap": {},
          "strings": {}
        },
        {
          "start": "com.google.zxing.client.android.InactivityTimer$PowerStatusReceiver.onReceive(Landroid/content/Context;Landroid/content/Intent;)V",
          "target": "invokevirtual \u003c Application, Ljava/net/URL, openConnection()Ljava/net/URLConnection; \u003e@2",
          "type": "sms",
          "constraintsFile": "constraints7_1.py",
          "variables": {
            "\u003cChainedInput2\u003e.getIntExtra()": "IAAv2",
            "\u003cChainedInput2\u003e.getAction()": "IAAv0"
          },
          "stringMap": {
            "7000": "android.intent.action.BATTERY_CHANGED"
          },
          "strings": {
            "IAAv0": ""
          }
        }
      ]
    }
  }
}