{
  "packageName": "com.safetest.tractor",
  "mainActivity": "com.safetest.tractor.android.CreditActivity",
  "callPaths": {
    "0": {
      "startMethod": "com.winad.android.push.PushContentActivity.onCreate(Landroid/os/Bundle;)V",
      "targetMethod": "org.apache.http.client.HttpClient.execute(Lorg/apache/http/client/methods/HttpUriRequest;)Lorg/apache/http/HttpResponse;",
      "eventChain": [
        {
          "start": "com.winad.android.push.PushContentActivity.onCreate(Landroid/os/Bundle;)V",
          "target": "invokeinterface \u003c Application, Lorg/apache/http/client/HttpClient, execute(Lorg/apache/http/client/methods/HttpUriRequest;)Lorg/apache/http/HttpResponse; \u003e@429",
          "type": "activity",
          "component": "com.winad.android.push.PushContentActivity",
          "constraintsFile": "constraints0_0.py",
          "variables": {},
          "stringMap": {
            "7000": "0"
          },
          "strings": {
            "IAAv3": "",
            "IAAv0": ""
          }
        }
      ]
    },
    "1": {
      "startMethod": "com.winad.android.push.PushContentActivity.onCreate(Landroid/os/Bundle;)V",
      "targetMethod": "org.apache.http.client.HttpClient.execute(Lorg/apache/http/client/methods/HttpUriRequest;)Lorg/apache/http/HttpResponse;",
      "eventChain": [
        {
          "start": "com.winad.android.push.PushContentActivity.onCreate(Landroid/os/Bundle;)V",
          "target": "PC@3",
          "type": "activity",
          "component": "com.winad.android.push.PushContentActivity",
          "constraintsFile": "constraints1_0.py",
          "variables": {},
          "stringMap": {
            "7000": "0"
          },
          "strings": {
            "IAAv3": "",
            "IAAv0": ""
          }
        },
        {
          "start": "com.winad.android.push.PushContentActivity.onCreate(Landroid/os/Bundle;)V",
          "target": "invokeinterface \u003c Application, Lorg/apache/http/client/HttpClient, execute(Lorg/apache/http/client/methods/HttpUriRequest;)Lorg/apache/http/HttpResponse; \u003e@294",
          "type": "activity",
          "component": "com.winad.android.push.PushContentActivity",
          "constraintsFile": "constraints1_1.py",
          "variables": {},
          "stringMap": {
            "7000": "0",
            "7001": "000000000000000",
            "7002": "sdk",
            "7003": "",
            "7004": "null",
            "7005": "wifi",
            "7006": "#777",
            "7007": "cmwap",
            "7008": "uniwap"
          },
          "strings": {
            "IAAv3": "",
            "IAAv11": "",
            "IAAv0": "",
            "IAAv16": "",
            "IAAv18": "",
            "IAAv8": "",
            "IAAv6": ""
          }
        }
      ]
    },
    "2": {
      "startMethod": "com.winad.android.push.PushContentActivity.onCreate(Landroid/os/Bundle;)V",
      "targetMethod": "org.apache.http.impl.client.DefaultHttpClient.execute(Lorg/apache/http/client/methods/HttpUriRequest;)Lorg/apache/http/HttpResponse;",
      "eventChain": [
        {
          "start": "com.winad.android.push.PushContentActivity.onCreate(Landroid/os/Bundle;)V",
          "target": "PC@3",
          "type": "activity",
          "component": "com.winad.android.push.PushContentActivity",
          "constraintsFile": "constraints2_0.py",
          "variables": {},
          "stringMap": {
            "7000": "0"
          },
          "strings": {
            "IAAv3": "",
            "IAAv0": ""
          }
        },
        {
          "start": "com.winad.android.push.PushContentActivity.onCreate(Landroid/os/Bundle;)V",
          "target": "invokevirtual \u003c Application, Lorg/apache/http/impl/client/DefaultHttpClient, execute(Lorg/apache/http/client/methods/HttpUriRequest;)Lorg/apache/http/HttpResponse; \u003e@441",
          "type": "activity",
          "component": "com.winad.android.push.PushContentActivity",
          "constraintsFile": "constraints2_1.py",
          "variables": {},
          "stringMap": {
            "7000": "0",
            "7001": "000000000000000",
            "7002": "sdk",
            "7003": "",
            "7004": "null",
            "7005": "wifi"
          },
          "strings": {
            "IAAv3": "",
            "IAAv11": "",
            "IAAv0": "",
            "IAAv16": "",
            "IAAv8": "",
            "IAAv6": ""
          }
        }
      ]
    },
    "3": {
      "startMethod": "com.winad.android.push.PushContentActivity.onCreate(Landroid/os/Bundle;)V",
      "targetMethod": "java.net.URL.openConnection()Ljava/net/URLConnection;",
      "eventChain": [
        {
          "start": "com.winad.android.push.PushContentActivity.onCreate(Landroid/os/Bundle;)V",
          "target": "PC@3",
          "type": "activity",
          "component": "com.winad.android.push.PushContentActivity",
          "constraintsFile": "constraints3_0.py",
          "variables": {},
          "stringMap": {
            "7000": "0"
          },
          "strings": {
            "IAAv0": ""
          }
        },
        {
          "start": "com.winad.android.push.PushContentActivity.onCreate(Landroid/os/Bundle;)V",
          "target": "invokevirtual \u003c Application, Ljava/net/URL, openConnection()Ljava/net/URLConnection; \u003e@338",
          "type": "activity",
          "component": "com.winad.android.push.PushContentActivity",
          "constraintsFile": "constraints3_1.py",
          "variables": {},
          "stringMap": {
            "7000": "0"
          },
          "strings": {
            "IAAv0": ""
          }
        }
      ]
    },
    "4": {
      "startMethod": "com.winad.android.push.PushContentActivity.onCreate(Landroid/os/Bundle;)V",
      "targetMethod": "org.apache.http.client.HttpClient.execute(Lorg/apache/http/client/methods/HttpUriRequest;)Lorg/apache/http/HttpResponse;",
      "eventChain": [
        {
          "start": "com.winad.android.push.PushContentActivity.onCreate(Landroid/os/Bundle;)V",
          "target": "PC@3",
          "type": "activity",
          "component": "com.winad.android.push.PushContentActivity",
          "constraintsFile": "constraints4_0.py",
          "variables": {},
          "stringMap": {
            "7000": "0"
          },
          "strings": {
            "IAAv3": "",
            "IAAv0": ""
          }
        },
        {
          "start": "com.winad.android.push.PushContentActivity.onCreate(Landroid/os/Bundle;)V",
          "target": "invokeinterface \u003c Application, Lorg/apache/http/client/HttpClient, execute(Lorg/apache/http/client/methods/HttpUriRequest;)Lorg/apache/http/HttpResponse; \u003e@138",
          "type": "activity",
          "component": "com.winad.android.push.PushContentActivity",
          "constraintsFile": "constraints4_1.py",
          "variables": {},
          "stringMap": {
            "7000": "0"
          },
          "strings": {
            "IAAv3": "",
            "IAAv0": ""
          }
        }
      ]
    },
    "5": {
      "startMethod": "com.winad.android.push.PushContentActivity.onCreate(Landroid/os/Bundle;)V",
      "targetMethod": "org.apache.http.client.HttpClient.execute(Lorg/apache/http/client/methods/HttpUriRequest;)Lorg/apache/http/HttpResponse;",
      "eventChain": [
        {
          "start": "com.winad.android.push.PushContentActivity.onCreate(Landroid/os/Bundle;)V",
          "target": "PC@3",
          "type": "activity",
          "component": "com.winad.android.push.PushContentActivity",
          "constraintsFile": "constraints5_0.py",
          "variables": {},
          "stringMap": {
            "7000": "0"
          },
          "strings": {
            "IAAv3": "",
            "IAAv0": ""
          }
        },
        {
          "start": "com.winad.android.push.PushContentActivity.onCreate(Landroid/os/Bundle;)V",
          "target": "invokeinterface \u003c Application, Lorg/apache/http/client/HttpClient, execute(Lorg/apache/http/client/methods/HttpUriRequest;)Lorg/apache/http/HttpResponse; \u003e@330",
          "type": "activity",
          "component": "com.winad.android.push.PushContentActivity",
          "constraintsFile": "constraints5_1.py",
          "variables": {},
          "stringMap": {
            "7000": "0",
            "7001": "000000000000000",
            "7002": "sdk",
            "7003": "",
            "7004": "null",
            "7005": "wifi",
            "7006": "#777",
            "7007": "cmwap",
            "7008": "uniwap"
          },
          "strings": {
            "IAAv3": "",
            "IAAv11": "",
            "IAAv0": "",
            "IAAv16": "",
            "IAAv18": "",
            "IAAv8": "",
            "IAAv6": ""
          }
        }
      ]
    },
    "6": {
      "startMethod": "com.winad.android.push.PushContentActivity.onCreate(Landroid/os/Bundle;)V",
      "targetMethod": "java.net.URL.openConnection()Ljava/net/URLConnection;",
      "eventChain": [
        {
          "start": "com.winad.android.push.PushContentActivity.onCreate(Landroid/os/Bundle;)V",
          "target": "invokevirtual \u003c Application, Ljava/net/URL, openConnection()Ljava/net/URLConnection; \u003e@117",
          "type": "activity",
          "component": "com.winad.android.push.PushContentActivity",
          "constraintsFile": "constraints6_0.py",
          "variables": {},
          "stringMap": {
            "7000": "0"
          },
          "strings": {
            "IAAv3": "",
            "IAAv0": ""
          }
        }
      ]
    },
    "7": {
      "startMethod": "com.winad.android.push.MyService.onCreate()V",
      "targetMethod": "org.apache.http.impl.client.DefaultHttpClient.execute(Lorg/apache/http/client/methods/HttpUriRequest;)Lorg/apache/http/HttpResponse;",
      "eventChain": [
        {
          "start": "com.winad.android.push.MyService.onCreate()V",
          "target": "invokevirtual \u003c Application, Lorg/apache/http/impl/client/DefaultHttpClient, execute(Lorg/apache/http/client/methods/HttpUriRequest;)Lorg/apache/http/HttpResponse; \u003e@441",
          "type": "service",
          "component": "com.winad.android.push.MyService"
        }
      ]
    },
    "8": {
      "startMethod": "com.winad.android.push.MyService.onCreate()V",
      "targetMethod": "org.apache.http.client.HttpClient.execute(Lorg/apache/http/client/methods/HttpUriRequest;)Lorg/apache/http/HttpResponse;",
      "eventChain": [
        {
          "start": "com.winad.android.push.MyService.onCreate()V",
          "target": "invokeinterface \u003c Application, Lorg/apache/http/client/HttpClient, execute(Lorg/apache/http/client/methods/HttpUriRequest;)Lorg/apache/http/HttpResponse; \u003e@330",
          "type": "service",
          "component": "com.winad.android.push.MyService"
        }
      ]
    },
    "9": {
      "startMethod": "com.winad.android.push.MyService.onCreate()V",
      "targetMethod": "org.apache.http.client.HttpClient.execute(Lorg/apache/http/client/methods/HttpUriRequest;)Lorg/apache/http/HttpResponse;",
      "eventChain": [
        {
          "start": "com.winad.android.push.MyService.onCreate()V",
          "target": "invokeinterface \u003c Application, Lorg/apache/http/client/HttpClient, execute(Lorg/apache/http/client/methods/HttpUriRequest;)Lorg/apache/http/HttpResponse; \u003e@294",
          "type": "service",
          "component": "com.winad.android.push.MyService"
        }
      ]
    },
    "10": {
      "startMethod": "com.winad.android.push.MyService.onCreate()V",
      "targetMethod": "org.apache.http.client.HttpClient.execute(Lorg/apache/http/client/methods/HttpUriRequest;)Lorg/apache/http/HttpResponse;",
      "eventChain": [
        {
          "start": "com.winad.android.push.MyService.onCreate()V",
          "target": "invokeinterface \u003c Application, Lorg/apache/http/client/HttpClient, execute(Lorg/apache/http/client/methods/HttpUriRequest;)Lorg/apache/http/HttpResponse; \u003e@138",
          "type": "service",
          "component": "com.winad.android.push.MyService"
        }
      ]
    },
    "11": {
      "startMethod": "com.winad.android.push.MyService.onCreate()V",
      "targetMethod": "java.net.URL.openConnection()Ljava/net/URLConnection;",
      "eventChain": [
        {
          "start": "com.winad.android.push.MyService.onCreate()V",
          "target": "invokevirtual \u003c Application, Ljava/net/URL, openConnection()Ljava/net/URLConnection; \u003e@222",
          "type": "service",
          "component": "com.winad.android.push.MyService"
        }
      ]
    },
    "12": {
      "startMethod": "com.winad.android.push.PushContentActivity.onClick(Landroid/view/View;)V",
      "targetMethod": "org.apache.http.impl.client.DefaultHttpClient.execute(Lorg/apache/http/client/methods/HttpUriRequest;)Lorg/apache/http/HttpResponse;",
      "eventChain": [
        {
          "start": "com.winad.android.push.PushContentActivity.onCreate(Landroid/os/Bundle;)V",
          "target": "invokevirtual \u003c Application, Landroid/widget/Button, setOnClickListener(Landroid/view/View$OnClickListener;)V \u003e@515",
          "type": "activity",
          "component": "com.winad.android.push.PushContentActivity",
          "constraintsFile": "constraints12_0.py",
          "variables": {},
          "stringMap": {
            "7000": "0"
          },
          "strings": {
            "IAAv0": ""
          }
        },
        {
          "start": "com.winad.android.push.PushContentActivity.onCreate(Landroid/os/Bundle;)V",
          "target": "PC@3",
          "type": "activity",
          "component": "com.winad.android.push.PushContentActivity",
          "constraintsFile": "constraints12_1.py",
          "variables": {},
          "stringMap": {
            "7000": "0"
          },
          "strings": {
            "IAAv3": "",
            "IAAv0": ""
          }
        },
        {
          "start": "com.winad.android.push.PushContentActivity.onClick(Landroid/view/View;)V",
          "target": "invokevirtual \u003c Application, Lorg/apache/http/impl/client/DefaultHttpClient, execute(Lorg/apache/http/client/methods/HttpUriRequest;)Lorg/apache/http/HttpResponse; \u003e@441",
          "type": "ui",
          "activities": [
            "com.winad.android.push.PushContentActivity"
          ],
          "listener": "com.winad.android.push.PushContentActivity",
          "listenerMethod": "onClick",
          "uiType": "onClick",
          "constraintsFile": "constraints12_2.py",
          "variables": {},
          "stringMap": {
            "7000": "000000000000000",
            "7001": "sdk",
            "7002": "",
            "7003": "null",
            "7004": "wifi"
          },
          "strings": {
            "IAAv4": "",
            "IAAv1": "",
            "IAAv14": "",
            "IAAv9": "",
            "IAAv6": ""
          }
        }
      ]
    },
    "13": {
      "startMethod": "com.winad.android.push.PushContentActivity.onClick(Landroid/view/View;)V",
      "targetMethod": "org.apache.http.client.HttpClient.execute(Lorg/apache/http/client/methods/HttpUriRequest;)Lorg/apache/http/HttpResponse;",
      "eventChain": [
        {
          "start": "com.winad.android.push.PushContentActivity.onCreate(Landroid/os/Bundle;)V",
          "target": "invokevirtual \u003c Application, Landroid/widget/Button, setOnClickListener(Landroid/view/View$OnClickListener;)V \u003e@515",
          "type": "activity",
          "component": "com.winad.android.push.PushContentActivity",
          "constraintsFile": "constraints13_0.py",
          "variables": {},
          "stringMap": {
            "7000": "0"
          },
          "strings": {
            "IAAv0": ""
          }
        },
        {
          "start": "com.winad.android.push.PushContentActivity.onCreate(Landroid/os/Bundle;)V",
          "target": "PC@3",
          "type": "activity",
          "component": "com.winad.android.push.PushContentActivity",
          "constraintsFile": "constraints13_1.py",
          "variables": {},
          "stringMap": {
            "7000": "0"
          },
          "strings": {
            "IAAv3": "",
            "IAAv0": ""
          }
        },
        {
          "start": "com.winad.android.push.PushContentActivity.onClick(Landroid/view/View;)V",
          "target": "invokeinterface \u003c Application, Lorg/apache/http/client/HttpClient, execute(Lorg/apache/http/client/methods/HttpUriRequest;)Lorg/apache/http/HttpResponse; \u003e@138",
          "type": "ui",
          "activities": [
            "com.winad.android.push.PushContentActivity"
          ],
          "listener": "com.winad.android.push.PushContentActivity",
          "listenerMethod": "onClick",
          "uiType": "onClick",
          "constraintsFile": "constraints13_2.py",
          "variables": {},
          "stringMap": {},
          "strings": {
            "IAAv1": ""
          }
        }
      ]
    },
    "14": {
      "startMethod": "com.winad.android.push.PushContentActivity.onClick(Landroid/view/View;)V",
      "targetMethod": "org.apache.http.client.HttpClient.execute(Lorg/apache/http/client/methods/HttpUriRequest;)Lorg/apache/http/HttpResponse;",
      "eventChain": [
        {
          "start": "com.winad.android.push.PushContentActivity.onCreate(Landroid/os/Bundle;)V",
          "target": "invokevirtual \u003c Application, Landroid/widget/Button, setOnClickListener(Landroid/view/View$OnClickListener;)V \u003e@515",
          "type": "activity",
          "component": "com.winad.android.push.PushContentActivity",
          "constraintsFile": "constraints14_0.py",
          "variables": {},
          "stringMap": {
            "7000": "0"
          },
          "strings": {
            "IAAv0": ""
          }
        },
        {
          "start": "com.winad.android.push.PushContentActivity.onCreate(Landroid/os/Bundle;)V",
          "target": "PC@3",
          "type": "activity",
          "component": "com.winad.android.push.PushContentActivity",
          "constraintsFile": "constraints14_1.py",
          "variables": {},
          "stringMap": {
            "7000": "0"
          },
          "strings": {
            "IAAv3": "",
            "IAAv0": ""
          }
        },
        {
          "start": "com.winad.android.push.PushContentActivity.onClick(Landroid/view/View;)V",
          "target": "invokeinterface \u003c Application, Lorg/apache/http/client/HttpClient, execute(Lorg/apache/http/client/methods/HttpUriRequest;)Lorg/apache/http/HttpResponse; \u003e@294",
          "type": "ui",
          "activities": [
            "com.winad.android.push.PushContentActivity"
          ],
          "listener": "com.winad.android.push.PushContentActivity",
          "listenerMethod": "onClick",
          "uiType": "onClick",
          "constraintsFile": "constraints14_2.py",
          "variables": {},
          "stringMap": {
            "7000": "000000000000000",
            "7001": "sdk",
            "7002": "",
            "7003": "null",
            "7004": "wifi",
            "7005": "#777",
            "7006": "cmwap",
            "7007": "uniwap"
          },
          "strings": {
            "IAAv4": "",
            "IAAv1": "",
            "IAAv14": "",
            "IAAv16": "",
            "IAAv9": "",
            "IAAv6": ""
          }
        }
      ]
    },
    "15": {
      "startMethod": "com.winad.android.push.PushContentActivity.onClick(Landroid/view/View;)V",
      "targetMethod": "java.net.URL.openConnection()Ljava/net/URLConnection;",
      "eventChain": [
        {
          "start": "com.winad.android.push.PushContentActivity.onCreate(Landroid/os/Bundle;)V",
          "target": "invokevirtual \u003c Application, Landroid/widget/Button, setOnClickListener(Landroid/view/View$OnClickListener;)V \u003e@515",
          "type": "activity",
          "component": "com.winad.android.push.PushContentActivity",
          "constraintsFile": "constraints15_0.py",
          "variables": {},
          "stringMap": {
            "7000": "0"
          },
          "strings": {
            "IAAv0": ""
          }
        },
        {
          "start": "com.winad.android.push.PushContentActivity.onClick(Landroid/view/View;)V",
          "target": "invokevirtual \u003c Application, Ljava/net/URL, openConnection()Ljava/net/URLConnection; \u003e@117",
          "type": "ui",
          "activities": [
            "com.winad.android.push.PushContentActivity"
          ],
          "listener": "com.winad.android.push.PushContentActivity",
          "listenerMethod": "onClick",
          "uiType": "onClick",
          "constraintsFile": "constraints15_1.py",
          "variables": {},
          "stringMap": {},
          "strings": {
            "IAAv1": ""
          }
        }
      ]
    },
    "16": {
      "startMethod": "com.winad.android.push.PushContentActivity.onClick(Landroid/view/View;)V",
      "targetMethod": "java.net.URL.openConnection()Ljava/net/URLConnection;",
      "eventChain": [
        {
          "start": "com.winad.android.push.PushContentActivity.onCreate(Landroid/os/Bundle;)V",
          "target": "invokevirtual \u003c Application, Landroid/widget/Button, setOnClickListener(Landroid/view/View$OnClickListener;)V \u003e@515",
          "type": "activity",
          "component": "com.winad.android.push.PushContentActivity",
          "constraintsFile": "constraints16_0.py",
          "variables": {},
          "stringMap": {
            "7000": "0"
          },
          "strings": {
            "IAAv0": ""
          }
        },
        {
          "start": "com.winad.android.push.PushContentActivity.onCreate(Landroid/os/Bundle;)V",
          "target": "PC@3",
          "type": "activity",
          "component": "com.winad.android.push.PushContentActivity",
          "constraintsFile": "constraints16_1.py",
          "variables": {},
          "stringMap": {
            "7000": "0"
          },
          "strings": {
            "IAAv0": ""
          }
        },
        {
          "start": "com.winad.android.push.PushContentActivity.onClick(Landroid/view/View;)V",
          "target": "invokevirtual \u003c Application, Ljava/net/URL, openConnection()Ljava/net/URLConnection; \u003e@338",
          "type": "ui",
          "activities": [
            "com.winad.android.push.PushContentActivity"
          ],
          "listener": "com.winad.android.push.PushContentActivity",
          "listenerMethod": "onClick",
          "uiType": "onClick",
          "constraintsFile": "constraints16_2.py",
          "variables": {},
          "stringMap": {},
          "strings": {}
        }
      ]
    },
    "17": {
      "startMethod": "com.winad.android.push.PushContentActivity.onClick(Landroid/view/View;)V",
      "targetMethod": "org.apache.http.client.HttpClient.execute(Lorg/apache/http/client/methods/HttpUriRequest;)Lorg/apache/http/HttpResponse;",
      "eventChain": [
        {
          "start": "com.winad.android.push.PushContentActivity.onCreate(Landroid/os/Bundle;)V",
          "target": "invokevirtual \u003c Application, Landroid/widget/Button, setOnClickListener(Landroid/view/View$OnClickListener;)V \u003e@515",
          "type": "activity",
          "component": "com.winad.android.push.PushContentActivity",
          "constraintsFile": "constraints17_0.py",
          "variables": {},
          "stringMap": {
            "7000": "0"
          },
          "strings": {
            "IAAv0": ""
          }
        },
        {
          "start": "com.winad.android.push.PushContentActivity.onCreate(Landroid/os/Bundle;)V",
          "target": "PC@3",
          "type": "activity",
          "component": "com.winad.android.push.PushContentActivity",
          "constraintsFile": "constraints17_1.py",
          "variables": {},
          "stringMap": {
            "7000": "0"
          },
          "strings": {
            "IAAv3": "",
            "IAAv0": ""
          }
        },
        {
          "start": "com.winad.android.push.PushContentActivity.onClick(Landroid/view/View;)V",
          "target": "invokeinterface \u003c Application, Lorg/apache/http/client/HttpClient, execute(Lorg/apache/http/client/methods/HttpUriRequest;)Lorg/apache/http/HttpResponse; \u003e@330",
          "type": "ui",
          "activities": [
            "com.winad.android.push.PushContentActivity"
          ],
          "listener": "com.winad.android.push.PushContentActivity",
          "listenerMethod": "onClick",
          "uiType": "onClick",
          "constraintsFile": "constraints17_2.py",
          "variables": {},
          "stringMap": {
            "7000": "000000000000000",
            "7001": "sdk",
            "7002": "",
            "7003": "null",
            "7004": "wifi",
            "7005": "#777",
            "7006": "cmwap",
            "7007": "uniwap"
          },
          "strings": {
            "IAAv4": "",
            "IAAv1": "",
            "IAAv14": "",
            "IAAv16": "",
            "IAAv9": "",
            "IAAv6": ""
          }
        }
      ]
    },
    "18": {
      "startMethod": "com.winad.android.push.PushContentActivity.onClick(Landroid/view/View;)V",
      "targetMethod": "org.apache.http.client.HttpClient.execute(Lorg/apache/http/client/methods/HttpUriRequest;)Lorg/apache/http/HttpResponse;",
      "eventChain": [
        {
          "start": "com.winad.android.push.PushContentActivity.onCreate(Landroid/os/Bundle;)V",
          "target": "invokevirtual \u003c Application, Landroid/widget/Button, setOnClickListener(Landroid/view/View$OnClickListener;)V \u003e@515",
          "type": "activity",
          "component": "com.winad.android.push.PushContentActivity",
          "constraintsFile": "constraints18_0.py",
          "variables": {},
          "stringMap": {
            "7000": "0"
          },
          "strings": {
            "IAAv0": ""
          }
        },
        {
          "start": "com.winad.android.push.PushContentActivity.onClick(Landroid/view/View;)V",
          "target": "invokeinterface \u003c Application, Lorg/apache/http/client/HttpClient, execute(Lorg/apache/http/client/methods/HttpUriRequest;)Lorg/apache/http/HttpResponse; \u003e@429",
          "type": "ui",
          "activities": [
            "com.winad.android.push.PushContentActivity"
          ],
          "listener": "com.winad.android.push.PushContentActivity",
          "listenerMethod": "onClick",
          "uiType": "onClick",
          "constraintsFile": "constraints18_1.py",
          "variables": {},
          "stringMap": {},
          "strings": {
            "IAAv1": ""
          }
        }
      ]
    },
    "19": {
      "startMethod": "com.winad.android.push.d.onReceive(Landroid/content/Context;Landroid/content/Intent;)V",
      "targetMethod": "org.apache.http.client.HttpClient.execute(Lorg/apache/http/client/methods/HttpUriRequest;)Lorg/apache/http/HttpResponse;",
      "eventChain": [
        {
          "start": "com.winad.android.push.MyService.onCreate()V",
          "target": "invokevirtual \u003c Application, Lcom/winad/android/push/MyService, registerReceiver(Landroid/content/BroadcastReceiver;Landroid/content/IntentFilter;)Landroid/content/Intent; \u003e@118",
          "type": "service",
          "component": "com.winad.android.push.MyService"
        },
        {
          "start": "com.winad.android.push.d.onReceive(Landroid/content/Context;Landroid/content/Intent;)V",
          "target": "invokeinterface \u003c Application, Lorg/apache/http/client/HttpClient, execute(Lorg/apache/http/client/methods/HttpUriRequest;)Lorg/apache/http/HttpResponse; \u003e@294",
          "type": "sms",
          "constraintsFile": "constraints19_0.py",
          "variables": {
            "\u003cChainedInput2\u003e.getAction()": "IAAv0"
          },
          "stringMap": {
            "7000": "android.intent.action.PACKAGE_ADDED"
          },
          "strings": {
            "IAAv3": "",
            "IAAv0": ""
          }
        }
      ]
    },
    "20": {
      "startMethod": "com.winad.android.push.d.onReceive(Landroid/content/Context;Landroid/content/Intent;)V",
      "targetMethod": "org.apache.http.client.HttpClient.execute(Lorg/apache/http/client/methods/HttpUriRequest;)Lorg/apache/http/HttpResponse;",
      "eventChain": [
        {
          "start": "com.winad.android.push.MyService.onCreate()V",
          "target": "invokevirtual \u003c Application, Lcom/winad/android/push/MyService, registerReceiver(Landroid/content/BroadcastReceiver;Landroid/content/IntentFilter;)Landroid/content/Intent; \u003e@118",
          "type": "service",
          "component": "com.winad.android.push.MyService"
        },
        {
          "start": "com.winad.android.push.d.onReceive(Landroid/content/Context;Landroid/content/Intent;)V",
          "target": "invokeinterface \u003c Application, Lorg/apache/http/client/HttpClient, execute(Lorg/apache/http/client/methods/HttpUriRequest;)Lorg/apache/http/HttpResponse; \u003e@330",
          "type": "sms",
          "constraintsFile": "constraints20_0.py",
          "variables": {
            "\u003cChainedInput2\u003e.getAction()": "IAAv0"
          },
          "stringMap": {
            "7000": "android.intent.action.PACKAGE_ADDED"
          },
          "strings": {
            "IAAv3": "",
            "IAAv0": ""
          }
        }
      ]
    },
    "21": {
      "startMethod": "com.winad.android.push.d.onReceive(Landroid/content/Context;Landroid/content/Intent;)V",
      "targetMethod": "org.apache.http.impl.client.DefaultHttpClient.execute(Lorg/apache/http/client/methods/HttpUriRequest;)Lorg/apache/http/HttpResponse;",
      "eventChain": [
        {
          "start": "com.winad.android.push.MyService.onCreate()V",
          "target": "invokevirtual \u003c Application, Lcom/winad/android/push/MyService, registerReceiver(Landroid/content/BroadcastReceiver;Landroid/content/IntentFilter;)Landroid/content/Intent; \u003e@118",
          "type": "service",
          "component": "com.winad.android.push.MyService"
        },
        {
          "start": "com.winad.android.push.d.onReceive(Landroid/content/Context;Landroid/content/Intent;)V",
          "target": "invokevirtual \u003c Application, Lorg/apache/http/impl/client/DefaultHttpClient, execute(Lorg/apache/http/client/methods/HttpUriRequest;)Lorg/apache/http/HttpResponse; \u003e@441",
          "type": "sms",
          "constraintsFile": "constraints21_0.py",
          "variables": {
            "\u003cChainedInput2\u003e.getAction()": "IAAv0"
          },
          "stringMap": {
            "7000": "android.intent.action.PACKAGE_ADDED"
          },
          "strings": {
            "IAAv3": "",
            "IAAv0": ""
          }
        }
      ]
    },
    "22": {
      "startMethod": "com.winad.android.push.d.onReceive(Landroid/content/Context;Landroid/content/Intent;)V",
      "targetMethod": "org.apache.http.client.HttpClient.execute(Lorg/apache/http/client/methods/HttpUriRequest;)Lorg/apache/http/HttpResponse;",
      "eventChain": [
        {
          "start": "com.winad.android.push.MyService.onCreate()V",
          "target": "invokevirtual \u003c Application, Lcom/winad/android/push/MyService, registerReceiver(Landroid/content/BroadcastReceiver;Landroid/content/IntentFilter;)Landroid/content/Intent; \u003e@118",
          "type": "service",
          "component": "com.winad.android.push.MyService"
        },
        {
          "start": "com.winad.android.push.d.onReceive(Landroid/content/Context;Landroid/content/Intent;)V",
          "target": "invokeinterface \u003c Application, Lorg/apache/http/client/HttpClient, execute(Lorg/apache/http/client/methods/HttpUriRequest;)Lorg/apache/http/HttpResponse; \u003e@138",
          "type": "sms",
          "constraintsFile": "constraints22_0.py",
          "variables": {
            "\u003cChainedInput2\u003e.getAction()": "IAAv0"
          },
          "stringMap": {
            "7000": "android.intent.action.PACKAGE_ADDED"
          },
          "strings": {
            "IAAv3": "",
            "IAAv0": ""
          }
        }
      ]
    },
    "23": {
      "startMethod": "com.winad.android.ads.ReciveInstallPackage.onReceive(Landroid/content/Context;Landroid/content/Intent;)V",
      "targetMethod": "org.apache.http.impl.client.DefaultHttpClient.execute(Lorg/apache/http/client/methods/HttpUriRequest;)Lorg/apache/http/HttpResponse;",
      "eventChain": [
        {
          "start": "com.winad.android.ads.ReciveInstallPackage.onReceive(Landroid/content/Context;Landroid/content/Intent;)V",
          "target": "PC@8",
          "type": "sms",
          "constraintsFile": "constraints23_0.py",
          "variables": {
            "\u003cChainedInput2\u003e.getDataString()": "IAAv4",
            "\u003cInput1\u003e": "IAAv24",
            "\u003cChainedInput2\u003e.getAction()": "IAAv0",
            "\u003cChainedInput2\u003e.getDataString().indexOf()": "IAAv2"
          },
          "stringMap": {
            "7000": "android.intent.action.PACKAGE_ADDED",
            "7001": "000000000000000",
            "7002": "sdk",
            "7003": "",
            "7004": "null",
            "7005": "wifi"
          },
          "strings": {
            "IAAv4": "",
            "IAAv0": "",
            "IAAv22": "",
            "IAAv12": "",
            "IAAv14": "",
            "IAAv17": "",
            "IAAv9": ""
          }
        },
        {
          "start": "com.winad.android.ads.ReciveInstallPackage.onReceive(Landroid/content/Context;Landroid/content/Intent;)V",
          "target": "invokevirtual \u003c Application, Lorg/apache/http/impl/client/DefaultHttpClient, execute(Lorg/apache/http/client/methods/HttpUriRequest;)Lorg/apache/http/HttpResponse; \u003e@441",
          "type": "sms",
          "constraintsFile": "constraints23_1.py",
          "variables": {
            "\u003cChainedInput2\u003e.getDataString()": "IAAv4",
            "\u003cChainedInput2\u003e.getAction()": "IAAv0",
            "\u003cChainedInput2\u003e.getDataString().indexOf()": "IAAv2"
          },
          "stringMap": {
            "7000": "android.intent.action.PACKAGE_ADDED",
            "7001": "000000000000000",
            "7002": "sdk",
            "7003": "",
            "7004": "null",
            "7005": "wifi"
          },
          "strings": {
            "IAAv4": "",
            "IAAv0": "",
            "IAAv22": "",
            "IAAv12": "",
            "IAAv14": "",
            "IAAv17": "",
            "IAAv9": ""
          }
        }
      ]
    },
    "24": {
      "startMethod": "com.winad.android.ads.ReciveInstallPackage.onReceive(Landroid/content/Context;Landroid/content/Intent;)V",
      "targetMethod": "org.apache.http.client.HttpClient.execute(Lorg/apache/http/client/methods/HttpUriRequest;)Lorg/apache/http/HttpResponse;",
      "eventChain": [
        {
          "start": "com.winad.android.ads.ReciveInstallPackage.onReceive(Landroid/content/Context;Landroid/content/Intent;)V",
          "target": "PC@8",
          "type": "sms",
          "constraintsFile": "constraints24_0.py",
          "variables": {
            "\u003cChainedInput2\u003e.getDataString()": "IAAv4",
            "\u003cInput1\u003e": "IAAv29",
            "\u003cChainedInput2\u003e.getAction()": "IAAv0",
            "\u003cChainedInput2\u003e.getDataString().indexOf()": "IAAv2"
          },
          "stringMap": {
            "7000": "android.intent.action.PACKAGE_ADDED",
            "7001": "000000000000000",
            "7002": "sdk",
            "7003": "",
            "7004": "null",
            "7005": "wifi",
            "7006": "#777",
            "7007": "cmwap",
            "7008": "uniwap"
          },
          "strings": {
            "IAAv4": "",
            "IAAv24": "",
            "IAAv0": "",
            "IAAv22": "",
            "IAAv12": "",
            "IAAv14": "",
            "IAAv17": "",
            "IAAv9": ""
          }
        },
        {
          "start": "com.winad.android.ads.ReciveInstallPackage.onReceive(Landroid/content/Context;Landroid/content/Intent;)V",
          "target": "invokeinterface \u003c Application, Lorg/apache/http/client/HttpClient, execute(Lorg/apache/http/client/methods/HttpUriRequest;)Lorg/apache/http/HttpResponse; \u003e@294",
          "type": "sms",
          "constraintsFile": "constraints24_1.py",
          "variables": {
            "\u003cChainedInput2\u003e.getDataString()": "IAAv4",
            "\u003cChainedInput2\u003e.getAction()": "IAAv0",
            "\u003cChainedInput2\u003e.getDataString().indexOf()": "IAAv2"
          },
          "stringMap": {
            "7000": "android.intent.action.PACKAGE_ADDED",
            "7001": "000000000000000",
            "7002": "sdk",
            "7003": "",
            "7004": "null",
            "7005": "wifi",
            "7006": "#777",
            "7007": "cmwap",
            "7008": "uniwap"
          },
          "strings": {
            "IAAv4": "",
            "IAAv24": "",
            "IAAv0": "",
            "IAAv22": "",
            "IAAv12": "",
            "IAAv14": "",
            "IAAv17": "",
            "IAAv9": ""
          }
        }
      ]
    },
    "25": {
      "startMethod": "com.winad.android.ads.ReciveInstallPackage.onReceive(Landroid/content/Context;Landroid/content/Intent;)V",
      "targetMethod": "org.apache.http.client.HttpClient.execute(Lorg/apache/http/client/methods/HttpUriRequest;)Lorg/apache/http/HttpResponse;",
      "eventChain": [
        {
          "start": "com.winad.android.ads.ReciveInstallPackage.onReceive(Landroid/content/Context;Landroid/content/Intent;)V",
          "target": "invokeinterface \u003c Application, Lorg/apache/http/client/HttpClient, execute(Lorg/apache/http/client/methods/HttpUriRequest;)Lorg/apache/http/HttpResponse; \u003e@185",
          "type": "sms",
          "constraintsFile": "constraints25_0.py",
          "variables": {
            "\u003cChainedInput2\u003e.getDataString().indexOf()": "IAAv2",
            "\u003cChainedInput2\u003e.getDataString()": "IAAv4",
            "\u003cChainedInput2\u003e.getAction()": "IAAv0"
          },
          "stringMap": {
            "7000": "android.intent.action.PACKAGE_ADDED"
          },
          "strings": {
            "IAAv4": "",
            "IAAv0": "",
            "IAAv9": ""
          }
        }
      ]
    },
    "26": {
      "startMethod": "com.winad.android.ads.ReciveInstallPackage.onReceive(Landroid/content/Context;Landroid/content/Intent;)V",
      "targetMethod": "org.apache.http.client.HttpClient.execute(Lorg/apache/http/client/methods/HttpUriRequest;)Lorg/apache/http/HttpResponse;",
      "eventChain": [
        {
          "start": "com.winad.android.ads.ReciveInstallPackage.onReceive(Landroid/content/Context;Landroid/content/Intent;)V",
          "target": "PC@8",
          "type": "sms",
          "constraintsFile": "constraints26_0.py",
          "variables": {
            "\u003cChainedInput2\u003e.getDataString()": "IAAv4",
            "\u003cInput1\u003e": "IAAv29",
            "\u003cChainedInput2\u003e.getAction()": "IAAv0",
            "\u003cChainedInput2\u003e.getDataString().indexOf()": "IAAv2"
          },
          "stringMap": {
            "7000": "android.intent.action.PACKAGE_ADDED",
            "7001": "000000000000000",
            "7002": "sdk",
            "7003": "",
            "7004": "null",
            "7005": "wifi",
            "7006": "#777",
            "7007": "cmwap",
            "7008": "uniwap"
          },
          "strings": {
            "IAAv4": "",
            "IAAv24": "",
            "IAAv0": "",
            "IAAv22": "",
            "IAAv12": "",
            "IAAv14": "",
            "IAAv17": "",
            "IAAv9": ""
          }
        },
        {
          "start": "com.winad.android.ads.ReciveInstallPackage.onReceive(Landroid/content/Context;Landroid/content/Intent;)V",
          "target": "invokeinterface \u003c Application, Lorg/apache/http/client/HttpClient, execute(Lorg/apache/http/client/methods/HttpUriRequest;)Lorg/apache/http/HttpResponse; \u003e@330",
          "type": "sms",
          "constraintsFile": "constraints26_1.py",
          "variables": {
            "\u003cChainedInput2\u003e.getDataString()": "IAAv4",
            "\u003cChainedInput2\u003e.getAction()": "IAAv0",
            "\u003cChainedInput2\u003e.getDataString().indexOf()": "IAAv2"
          },
          "stringMap": {
            "7000": "android.intent.action.PACKAGE_ADDED",
            "7001": "000000000000000",
            "7002": "sdk",
            "7003": "",
            "7004": "null",
            "7005": "wifi",
            "7006": "#777",
            "7007": "cmwap",
            "7008": "uniwap"
          },
          "strings": {
            "IAAv4": "",
            "IAAv24": "",
            "IAAv0": "",
            "IAAv22": "",
            "IAAv12": "",
            "IAAv14": "",
            "IAAv17": "",
            "IAAv9": ""
          }
        }
      ]
    }
  }
}