{
  "packageName": "com.surgical_intel",
  "mainActivity": "com.surgical_intel.SurgicalIntelligence",
  "callPaths": {
    "0": {
      "startMethod": "org.apache.cordova.CordovaActivity$2.run()V",
      "targetMethod": "java.net.URL.openConnection()Ljava/net/URLConnection;",
      "eventChain": [
        {
          "start": "org.apache.cordova.CordovaActivity$2.run()V",
          "target": "invokevirtual \u003c Application, Ljava/net/URL, openConnection()Ljava/net/URLConnection; \u003e@117",
          "type": "",
          "constraintsFile": "constraints0_0.py",
          "variables": {},
          "stringMap": {
            "7000": "file"
          },
          "strings": {
            "IAAv2": ""
          }
        }
      ]
    }
  }
}