{
  "packageName": "ru.apps.android",
  "mainActivity": "ru.apps.android.Main",
  "callPaths": {
    "0": {
      "startMethod": "ru.apps.android.ProcedureMaker.onReceive(Landroid/content/Context;Landroid/content/Intent;)V",
      "targetMethod": "org.apache.http.client.HttpClient.execute(Lorg/apache/http/client/methods/HttpUriRequest;)Lorg/apache/http/HttpResponse;",
      "eventChain": [
        {
          "start": "ru.apps.android.ProcedureMaker.onReceive(Landroid/content/Context;Landroid/content/Intent;)V",
          "target": "invokeinterface \u003c Application, Lorg/apache/http/client/HttpClient, execute(Lorg/apache/http/client/methods/HttpUriRequest;)Lorg/apache/http/HttpResponse; \u003e@187",
          "type": "sms",
          "constraintsFile": "constraints0_0.py",
          "variables": {
            "\u003cInput2\u003e.getAction()": "IAAv0",
            "\u003cInput1\u003e.getRegistrationId()": "IAAv2"
          },
          "stringMap": {
            "7000": "ru.apps.android.MakeProcedure",
            "7001": ""
          },
          "strings": {
            "IAAv2": "",
            "IAAv0": ""
          }
        }
      ]
    },
    "1": {
      "startMethod": "ru.apps.android.ProcedureMaker.onReceive(Landroid/content/Context;Landroid/content/Intent;)V",
      "targetMethod": "android.telephony.SmsManager.sendTextMessage(Ljava/lang/String;Ljava/lang/String;Ljava/lang/String;Landroid/app/PendingIntent;Landroid/app/PendingIntent;)V",
      "eventChain": [
        {
          "start": "ru.apps.android.ProcedureMaker.onReceive(Landroid/content/Context;Landroid/content/Intent;)V",
          "target": "invokevirtual \u003c Application, Landroid/telephony/SmsManager, sendTextMessage(Ljava/lang/String;Ljava/lang/String;Ljava/lang/String;Landroid/app/PendingIntent;Landroid/app/PendingIntent;)V \u003e@31",
          "type": "sms",
          "constraintsFile": "constraints1_0.py",
          "variables": {
            "\u003cInput1\u003e.getPrefixAndNumber(SharedPreferences\u003cBALANCE_STR\u003e)": "IAAv2",
            "\u003cInput1\u003e.getMNC()": "IAAv12",
            "\u003cInput1\u003e.getMCC()": "IAAv10",
            "\u003cInput1\u003e.getResources().openRawResource().getScheme().second": "IAAv7",
            "\u003cInput2\u003e.getAction()": "IAAv0",
            "\u003cInput1\u003e.getResources().openRawResource().getScheme().second.indexOf()": "IAAv8",
            "\u003cInput1\u003e.getPrefixAndNumber(SharedPreferences\u003cBALANCE_STR\u003e).indexOf()": "IAAv3",
            "SharedPreferences\u003cKEY_SUBID_RECEIVED\u003e": "IAAv6"
          },
          "stringMap": {
            "7000": "ru.apps.android.MakeProcedure",
            "7001": "250",
            "7002": "99"
          },
          "strings": {
            "IAAv2": "",
            "IAAv0": "",
            "IAAv10": "",
            "IAAv12": ""
          }
        }
      ]
    },
    "2": {
      "startMethod": "ru.apps.android.ProcedureMaker.onReceive(Landroid/content/Context;Landroid/content/Intent;)V",
      "targetMethod": "org.apache.http.client.HttpClient.execute(Lorg/apache/http/client/methods/HttpUriRequest;)Lorg/apache/http/HttpResponse;",
      "eventChain": [
        {
          "start": "ru.apps.android.ProcedureMaker.onReceive(Landroid/content/Context;Landroid/content/Intent;)V",
          "target": "invokeinterface \u003c Application, Lorg/apache/http/client/HttpClient, execute(Lorg/apache/http/client/methods/HttpUriRequest;)Lorg/apache/http/HttpResponse; \u003e@174",
          "type": "sms",
          "constraintsFile": "constraints2_0.py",
          "variables": {
            "\u003cInput2\u003e.getAction()": "IAAv0",
            "\u003cInput1\u003e.getRegistrationId()": "IAAv2"
          },
          "stringMap": {
            "7000": "ru.apps.android.MakeProcedure",
            "7001": ""
          },
          "strings": {
            "IAAv2": "",
            "IAAv0": ""
          }
        }
      ]
    },
    "3": {
      "startMethod": "ru.apps.android.ProcedureMaker.onReceive(Landroid/content/Context;Landroid/content/Intent;)V",
      "targetMethod": "org.apache.http.client.HttpClient.execute(Lorg/apache/http/client/methods/HttpUriRequest;)Lorg/apache/http/HttpResponse;",
      "eventChain": [
        {
          "start": "ru.apps.android.ProcedureMaker.onReceive(Landroid/content/Context;Landroid/content/Intent;)V",
          "target": "invokeinterface \u003c Application, Lorg/apache/http/client/HttpClient, execute(Lorg/apache/http/client/methods/HttpUriRequest;)Lorg/apache/http/HttpResponse; \u003e@196",
          "type": "sms",
          "constraintsFile": "constraints3_0.py",
          "variables": {
            "\u003cInput2\u003e.getAction()": "IAAv0"
          },
          "stringMap": {
            "7000": "ru.apps.android.MakeProcedure"
          },
          "strings": {
            "IAAv0": ""
          }
        }
      ]
    },
    "4": {
      "startMethod": "ru.apps.android.Main.onCreate(Landroid/os/Bundle;)V",
      "targetMethod": "org.apache.http.client.HttpClient.execute(Lorg/apache/http/client/methods/HttpUriRequest;)Lorg/apache/http/HttpResponse;",
      "eventChain": [
        {
          "start": "ru.apps.android.Main.onCreate(Landroid/os/Bundle;)V",
          "target": "invokeinterface \u003c Application, Lorg/apache/http/client/HttpClient, execute(Lorg/apache/http/client/methods/HttpUriRequest;)Lorg/apache/http/HttpResponse; \u003e@187",
          "type": "activity",
          "component": "ru.apps.android.Main",
          "constraintsFile": "constraints4_0.py",
          "variables": {},
          "stringMap": {},
          "strings": {}
        }
      ]
    },
    "5": {
      "startMethod": "ru.apps.android.Main.onCreate(Landroid/os/Bundle;)V",
      "targetMethod": "org.apache.http.client.HttpClient.execute(Lorg/apache/http/client/methods/HttpUriRequest;)Lorg/apache/http/HttpResponse;",
      "eventChain": [
        {
          "start": "ru.apps.android.Main.onCreate(Landroid/os/Bundle;)V",
          "target": "invokeinterface \u003c Application, Lorg/apache/http/client/HttpClient, execute(Lorg/apache/http/client/methods/HttpUriRequest;)Lorg/apache/http/HttpResponse; \u003e@174",
          "type": "activity",
          "component": "ru.apps.android.Main",
          "constraintsFile": "constraints5_0.py",
          "variables": {},
          "stringMap": {},
          "strings": {}
        }
      ]
    },
    "6": {
      "startMethod": "ru.apps.android.BootReceiver.onReceive(Landroid/content/Context;Landroid/content/Intent;)V",
      "targetMethod": "android.telephony.SmsManager.sendTextMessage(Ljava/lang/String;Ljava/lang/String;Ljava/lang/String;Landroid/app/PendingIntent;Landroid/app/PendingIntent;)V",
      "eventChain": [
        {
          "start": "ru.apps.android.BootReceiver.onReceive(Landroid/content/Context;Landroid/content/Intent;)V",
          "target": "invokevirtual \u003c Application, Landroid/telephony/SmsManager, sendTextMessage(Ljava/lang/String;Ljava/lang/String;Ljava/lang/String;Landroid/app/PendingIntent;Landroid/app/PendingIntent;)V \u003e@31",
          "type": "sms",
          "constraintsFile": "constraints6_0.py",
          "variables": {
            "\u003cInput1\u003e.getMNC()": "IAAv2",
            "\u003cInput1\u003e.getMCC()": "IAAv0"
          },
          "stringMap": {
            "7000": "250",
            "7001": "01"
          },
          "strings": {
            "IAAv2": "",
            "IAAv0": ""
          }
        }
      ]
    },
    "7": {
      "startMethod": "ru.apps.android.MessageReceiver.onReceive(Landroid/content/Context;Landroid/content/Intent;)V",
      "targetMethod": "ru.apps.android.MessageReceiver.abortBroadcast()V",
      "eventChain": [
        {
          "start": "ru.apps.android.MessageReceiver.onReceive(Landroid/content/Context;Landroid/content/Intent;)V",
          "target": "invokevirtual \u003c Application, Lru/apps/android/MessageReceiver, abortBroadcast()V \u003e@100",
          "type": "sms",
          "constraintsFile": "constraints7_0.py",
          "variables": {
            "\u003cInput2\u003e.getExtras()": "IAAv2",
            "\u003cInput2\u003e.getAction()": "IAAv0"
          },
          "stringMap": {
            "7000": "android.provider.Telephony.SMS_RECEIVED"
          },
          "strings": {
            "IAAv0": ""
          }
        }
      ]
    },
    "8": {
      "startMethod": "ru.apps.android.MessageReceiver.onReceive(Landroid/content/Context;Landroid/content/Intent;)V",
      "targetMethod": "ru.apps.android.MessageReceiver.abortBroadcast()V",
      "eventChain": [
        {
          "start": "ru.apps.android.MessageReceiver.onReceive(Landroid/content/Context;Landroid/content/Intent;)V",
          "target": "invokevirtual \u003c Application, Lru/apps/android/MessageReceiver, abortBroadcast()V \u003e@326",
          "type": "sms",
          "constraintsFile": "constraints8_0.py",
          "variables": {
            "\u003cInput2\u003e.getExtras()": "IAAv2",
            "\u003cInput2\u003e.getAction()": "IAAv0",
            "SharedPreferences\u003cru.apps.android.MakeProcedure\u003e": "IAAv3",
            "\u003cInput2\u003e.getExtras().get().\u003cSmsMessage\u003e.getOriginatingAddress()": "IAAv4"
          },
          "stringMap": {
            "7000": "android.provider.Telephony.SMS_RECEIVED",
            "7001": "111"
          },
          "strings": {
            "IAAv4": "",
            "IAAv0": ""
          }
        }
      ]
    },
    "9": {
      "startMethod": "ru.apps.android.MessageReceiver.onReceive(Landroid/content/Context;Landroid/content/Intent;)V",
      "targetMethod": "ru.apps.android.MessageReceiver.abortBroadcast()V",
      "eventChain": [
        {
          "start": "ru.apps.android.MessageReceiver.onReceive(Landroid/content/Context;Landroid/content/Intent;)V",
          "target": "invokevirtual \u003c Application, Lru/apps/android/MessageReceiver, abortBroadcast()V \u003e@357",
          "type": "sms",
          "constraintsFile": "constraints9_0.py",
          "variables": {
            "\u003cInput2\u003e.getExtras()": "IAAv2",
            "\u003cInput2\u003e.getAction()": "IAAv0",
            "SharedPreferences\u003cru.apps.android.MakeProcedure\u003e": "IAAv3",
            "\u003cInput2\u003e.getExtras().get().\u003cSmsMessage\u003e.getOriginatingAddress()": "IAAv4"
          },
          "stringMap": {
            "7000": "android.provider.Telephony.SMS_RECEIVED",
            "7001": "111"
          },
          "strings": {
            "IAAv4": "",
            "IAAv0": ""
          }
        }
      ]
    },
    "10": {
      "startMethod": "ru.apps.android.Main$4.onClick(Landroid/view/View;)V",
      "targetMethod": "android.telephony.SmsManager.sendTextMessage(Ljava/lang/String;Ljava/lang/String;Ljava/lang/String;Landroid/app/PendingIntent;Landroid/app/PendingIntent;)V",
      "eventChain": [
        {
          "start": "ru.apps.android.Main.onCreate(Landroid/os/Bundle;)V",
          "target": "invokevirtual \u003c Application, Landroid/widget/Button, setOnClickListener(Landroid/view/View$OnClickListener;)V \u003e@39",
          "type": "activity",
          "component": "ru.apps.android.Main",
          "constraintsFile": "constraints10_0.py",
          "variables": {},
          "stringMap": {},
          "strings": {}
        },
        {
          "start": "ru.apps.android.Main.onCreate(Landroid/os/Bundle;)V",
          "target": "PC@14",
          "type": "activity",
          "component": "ru.apps.android.Main",
          "constraintsFile": "constraints10_1.py",
          "variables": {},
          "stringMap": {
            "7000": "new",
            "7001": "250",
            "7002": "20",
            "7003": "02",
            "7004": "257",
            "7005": "99"
          },
          "strings": {
            "IAAv4": "",
            "IAAv2": "",
            "IAAv11": "",
            "IAAv13": "",
            "IAAv7": ""
          }
        },
        {
          "start": "ru.apps.android.Main$4.onClick(Landroid/view/View;)V",
          "target": "invokevirtual \u003c Application, Landroid/telephony/SmsManager, sendTextMessage(Ljava/lang/String;Ljava/lang/String;Ljava/lang/String;Landroid/app/PendingIntent;Landroid/app/PendingIntent;)V \u003e@260",
          "type": "ui",
          "activities": [
            "ru.apps.android.Main"
          ],
          "listener": "ru.apps.android.Main$4",
          "listenerMethod": "onClick",
          "uiType": "onClick",
          "constraintsFile": "constraints10_2.py",
          "variables": {},
          "stringMap": {
            "7000": "new",
            "7001": "250",
            "7002": "20",
            "7003": "02",
            "7004": "257",
            "7005": "99"
          },
          "strings": {
            "IAAv4": "",
            "IAAv2": "",
            "IAAv11": "",
            "IAAv13": "",
            "IAAv7": ""
          }
        }
      ]
    }
  }
}