{
  "packageName": "com.locomote.peacehealth.bellingham",
  "mainActivity": "com.locomote.peacehealth.bellingham.ServicesActivity",
  "callPaths": {
    "0": {
      "startMethod": "com.locomote.peacehealth.bellingham.InstallActivity.onCreate(Landroid/os/Bundle;)V",
      "targetMethod": "org.apache.http.client.HttpClient.execute(Lorg/apache/http/client/methods/HttpUriRequest;)Lorg/apache/http/HttpResponse;",
      "eventChain": [
        {
          "start": "com.locomote.peacehealth.bellingham.InstallActivity.onClick(Landroid/content/DialogInterface;I)V",
          "target": "invokeinterface \u003c Application, Landroid/content/SharedPreferences$Editor, putBoolean(Ljava/lang/String;Z)Landroid/content/SharedPreferences$Editor; \u003e@25",
          "type": "ui",
          "activities": [
            "com.locomote.peacehealth.bellingham.ServicesActivity"
          ],
          "listener": "com.locomote.peacehealth.bellingham.InstallActivity",
          "listenerMethod": "onClick",
          "uiType": "onClick",
          "inDialog": "true",
          "constraintsFile": "constraints0_0.py",
          "variables": {
            "\u003cInput2\u003e": "IAAv0"
          },
          "stringMap": {},
          "strings": {}
        },
        {
          "start": "com.locomote.peacehealth.bellingham.InstallActivity.onCreate(Landroid/os/Bundle;)V",
          "target": "invokeinterface \u003c Application, Lorg/apache/http/client/HttpClient, execute(Lorg/apache/http/client/methods/HttpUriRequest;)Lorg/apache/http/HttpResponse; \u003e@56",
          "type": "activity",
          "component": "com.locomote.peacehealth.bellingham.InstallActivity",
          "constraintsFile": "constraints0_1.py",
          "variables": {
            "SharedPreferences\u003cLicenseAccepted\u003e": "IAAv0"
          },
          "stringMap": {},
          "strings": {}
        }
      ]
    },
    "1": {
      "startMethod": "com.locomote.peacehealth.bellingham.InstallActivity.onCreate(Landroid/os/Bundle;)V",
      "targetMethod": "org.apache.http.client.HttpClient.execute(Lorg/apache/http/client/methods/HttpUriRequest;)Lorg/apache/http/HttpResponse;",
      "eventChain": [
        {
          "start": "com.locomote.peacehealth.bellingham.InstallActivity.onClick(Landroid/content/DialogInterface;I)V",
          "target": "invokeinterface \u003c Application, Landroid/content/SharedPreferences$Editor, putBoolean(Ljava/lang/String;Z)Landroid/content/SharedPreferences$Editor; \u003e@25",
          "type": "ui",
          "activities": [
            "com.locomote.peacehealth.bellingham.ServicesActivity"
          ],
          "listener": "com.locomote.peacehealth.bellingham.InstallActivity",
          "listenerMethod": "onClick",
          "uiType": "onClick",
          "inDialog": "true",
          "constraintsFile": "constraints1_0.py",
          "variables": {
            "\u003cInput2\u003e": "IAAv0"
          },
          "stringMap": {},
          "strings": {}
        },
        {
          "start": "com.locomote.peacehealth.bellingham.InstallActivity.onCreate(Landroid/os/Bundle;)V",
          "target": "invokeinterface \u003c Application, Lorg/apache/http/client/HttpClient, execute(Lorg/apache/http/client/methods/HttpUriRequest;)Lorg/apache/http/HttpResponse; \u003e@79",
          "type": "activity",
          "component": "com.locomote.peacehealth.bellingham.InstallActivity",
          "constraintsFile": "constraints1_1.py",
          "variables": {
            "SharedPreferences\u003cLicenseAccepted\u003e": "IAAv0"
          },
          "stringMap": {},
          "strings": {}
        }
      ]
    },
    "2": {
      "startMethod": "com.locomote.peacehealth.bellingham.Home.onResume()V",
      "targetMethod": "org.apache.http.client.HttpClient.execute(Lorg/apache/http/client/methods/HttpUriRequest;)Lorg/apache/http/HttpResponse;",
      "eventChain": [
        {
          "start": "com.locomote.peacehealth.bellingham.Home.onResume()V",
          "target": "invokeinterface \u003c Application, Lorg/apache/http/client/HttpClient, execute(Lorg/apache/http/client/methods/HttpUriRequest;)Lorg/apache/http/HttpResponse; \u003e@56",
          "type": "activity",
          "component": "com.locomote.peacehealth.bellingham.Home"
        }
      ]
    },
    "3": {
      "startMethod": "com.locomote.peacehealth.bellingham.Home.onResume()V",
      "targetMethod": "org.apache.http.client.HttpClient.execute(Lorg/apache/http/client/methods/HttpUriRequest;)Lorg/apache/http/HttpResponse;",
      "eventChain": [
        {
          "start": "com.locomote.peacehealth.bellingham.Home.onResume()V",
          "target": "invokeinterface \u003c Application, Lorg/apache/http/client/HttpClient, execute(Lorg/apache/http/client/methods/HttpUriRequest;)Lorg/apache/http/HttpResponse; \u003e@79",
          "type": "activity",
          "component": "com.locomote.peacehealth.bellingham.Home"
        }
      ]
    },
    "4": {
      "startMethod": "com.locomote.peacehealth.bellingham.routing.RouteMapActivity.onCreate(Landroid/os/Bundle;)V",
      "targetMethod": "java.net.URL.openConnection()Ljava/net/URLConnection;",
      "eventChain": [
        {
          "start": "com.locomote.peacehealth.bellingham.routing.RouteMapActivity.onCreate(Landroid/os/Bundle;)V",
          "target": "PC@52",
          "type": "activity",
          "component": "com.locomote.peacehealth.bellingham.routing.RouteMapActivity"
        },
        {
          "start": "com.locomote.peacehealth.bellingham.routing.RouteMapActivity.\u003cinit\u003e()V",
          "target": "PC@9",
          "type": "",
          "constraintsFile": "constraints4_0.py",
          "variables": {},
          "stringMap": {},
          "strings": {}
        },
        {
          "start": "com.locomote.peacehealth.bellingham.routing.RouteMapActivity.onCreate(Landroid/os/Bundle;)V",
          "target": "invokevirtual \u003c Application, Ljava/net/URL, openConnection()Ljava/net/URLConnection; \u003e@43",
          "type": "activity",
          "component": "com.locomote.peacehealth.bellingham.routing.RouteMapActivity",
          "constraintsFile": "constraints4_1.py",
          "variables": {},
          "stringMap": {},
          "strings": {}
        }
      ]
    },
    "5": {
      "startMethod": "com.locomote.peacehealth.bellingham.erwait.ERWaitActivity.onCreate(Landroid/os/Bundle;)V",
      "targetMethod": "org.apache.http.client.HttpClient.execute(Lorg/apache/http/client/methods/HttpUriRequest;)Lorg/apache/http/HttpResponse;",
      "eventChain": [
        {
          "start": "com.locomote.peacehealth.bellingham.erwait.ERWaitActivity.\u003cinit\u003e()V",
          "target": "PC@9",
          "type": "",
          "constraintsFile": "constraints5_0.py",
          "variables": {},
          "stringMap": {
            "7000": "\u003cUI\u003e"
          },
          "strings": {}
        },
        {
          "start": "com.locomote.peacehealth.bellingham.erwait.ERWaitActivity.onCreate(Landroid/os/Bundle;)V",
          "target": "invokeinterface \u003c Application, Lorg/apache/http/client/HttpClient, execute(Lorg/apache/http/client/methods/HttpUriRequest;)Lorg/apache/http/HttpResponse; \u003e@32",
          "type": "activity",
          "component": "com.locomote.peacehealth.bellingham.erwait.ERWaitActivity",
          "constraintsFile": "constraints5_1.py",
          "variables": {
            "\u003cUI\u003e.setOnItemClickListener().FINISHED": "IAAv3"
          },
          "stringMap": {
            "7000": "\u003cUI\u003e"
          },
          "strings": {}
        }
      ]
    },
    "6": {
      "startMethod": "com.locomote.peacehealth.bellingham.DoctorDetailsActivity.onCreate(Landroid/os/Bundle;)V",
      "targetMethod": "java.net.URL.openConnection()Ljava/net/URLConnection;",
      "eventChain": [
        {
          "start": "com.locomote.peacehealth.bellingham.DoctorDetailsActivity.onCreate(Landroid/os/Bundle;)V",
          "target": "invokevirtual \u003c Application, Ljava/net/URL, openConnection()Ljava/net/URLConnection; \u003e@42",
          "type": "activity",
          "component": "com.locomote.peacehealth.bellingham.DoctorDetailsActivity",
          "constraintsFile": "constraints6_0.py",
          "variables": {},
          "stringMap": {},
          "strings": {
            "IAAv3": "",
            "IAAv2": ""
          }
        }
      ]
    },
    "7": {
      "startMethod": "com.locomote.peacehealth.bellingham.InstallActivity.onClick(Landroid/content/DialogInterface;I)V",
      "targetMethod": "org.apache.http.client.HttpClient.execute(Lorg/apache/http/client/methods/HttpUriRequest;)Lorg/apache/http/HttpResponse;",
      "eventChain": [
        {
          "start": "com.locomote.peacehealth.bellingham.InstallActivity.onClick(Landroid/content/DialogInterface;I)V",
          "target": "invokeinterface \u003c Application, Lorg/apache/http/client/HttpClient, execute(Lorg/apache/http/client/methods/HttpUriRequest;)Lorg/apache/http/HttpResponse; \u003e@79",
          "type": "ui",
          "activities": [
            "com.locomote.peacehealth.bellingham.ServicesActivity"
          ],
          "listener": "com.locomote.peacehealth.bellingham.InstallActivity",
          "listenerMethod": "onClick",
          "uiType": "onClick",
          "inDialog": "true",
          "constraintsFile": "constraints7_0.py",
          "variables": {
            "\u003cInput2\u003e": "IAAv0"
          },
          "stringMap": {},
          "strings": {}
        }
      ]
    },
    "8": {
      "startMethod": "com.locomote.peacehealth.bellingham.InstallActivity.onClick(Landroid/content/DialogInterface;I)V",
      "targetMethod": "org.apache.http.client.HttpClient.execute(Lorg/apache/http/client/methods/HttpUriRequest;)Lorg/apache/http/HttpResponse;",
      "eventChain": [
        {
          "start": "com.locomote.peacehealth.bellingham.InstallActivity.onClick(Landroid/content/DialogInterface;I)V",
          "target": "invokeinterface \u003c Application, Lorg/apache/http/client/HttpClient, execute(Lorg/apache/http/client/methods/HttpUriRequest;)Lorg/apache/http/HttpResponse; \u003e@56",
          "type": "ui",
          "activities": [
            "com.locomote.peacehealth.bellingham.ServicesActivity"
          ],
          "listener": "com.locomote.peacehealth.bellingham.InstallActivity",
          "listenerMethod": "onClick",
          "uiType": "onClick",
          "inDialog": "true",
          "constraintsFile": "constraints8_0.py",
          "variables": {
            "\u003cInput2\u003e": "IAAv0"
          },
          "stringMap": {},
          "strings": {}
        }
      ]
    }
  }
}