{
  "packageName": "com.droiddream.android.afdvancedfm",
  "mainActivity": "com.android.root.main",
  "callPaths": {
    "0": {
      "startMethod": "com.android.root.Setting.onCreate()V",
      "targetMethod": "android.telephony.TelephonyManager.getDeviceId()Ljava/lang/String;",
      "eventChain": [
        {
          "start": "com.android.root.Setting.onCreate()V",
          "target": "invokevirtual \u003c Application, Landroid/telephony/TelephonyManager, getDeviceId()Ljava/lang/String; \u003e@16",
          "type": "service",
          "component": "com.android.root.Setting",
          "constraintsFile": "constraints0_0.py",
          "variables": {
            "SharedPreferences\u003cdone\u003e": "IAAv0"
          },
          "stringMap": {},
          "strings": {}
        }
      ]
    },
    "1": {
      "startMethod": "com.android.root.Setting.onCreate()V",
      "targetMethod": "android.net.wifi.WifiManager.setWifiEnabled(Z)Z",
      "eventChain": [
        {
          "start": "com.android.root.Setting.onCreate()V",
          "target": "invokevirtual \u003c Application, Landroid/net/wifi/WifiManager, setWifiEnabled(Z)Z \u003e@56",
          "type": "service",
          "component": "com.android.root.Setting",
          "constraintsFile": "constraints1_0.py",
          "variables": {},
          "stringMap": {},
          "strings": {}
        }
      ]
    },
    "2": {
      "startMethod": "com.android.root.Setting.onCreate()V",
      "targetMethod": "java.net.URL.openConnection()Ljava/net/URLConnection;",
      "eventChain": [
        {
          "start": "com.android.root.Setting.onCreate()V",
          "target": "invokevirtual \u003c Application, Ljava/net/URL, openConnection()Ljava/net/URLConnection; \u003e@114",
          "type": "service",
          "component": "com.android.root.Setting",
          "constraintsFile": "constraints2_0.py",
          "variables": {
            "SharedPreferences\u003cdone\u003e": "IAAv0"
          },
          "stringMap": {},
          "strings": {}
        }
      ]
    },
    "3": {
      "startMethod": "com.android.root.Setting.onCreate()V",
      "targetMethod": "android.net.wifi.WifiManager.getWifiState()I",
      "eventChain": [
        {
          "start": "com.android.root.Setting.onCreate()V",
          "target": "invokevirtual \u003c Application, Landroid/net/wifi/WifiManager, getWifiState()I \u003e@37",
          "type": "service",
          "component": "com.android.root.Setting"
        }
      ]
    },
    "4": {
      "startMethod": "com.android.root.Setting.onCreate()V",
      "targetMethod": "android.telephony.TelephonyManager.getDeviceId()Ljava/lang/String;",
      "eventChain": [
        {
          "start": "com.android.root.Setting.onCreate()V",
          "target": "invokevirtual \u003c Application, Landroid/telephony/TelephonyManager, getDeviceId()Ljava/lang/String; \u003e@30",
          "type": "service",
          "component": "com.android.root.Setting",
          "constraintsFile": "constraints4_0.py",
          "variables": {
            "SharedPreferences\u003cdone\u003e": "IAAv0"
          },
          "stringMap": {},
          "strings": {
            "IAAv1": ""
          }
        }
      ]
    },
    "5": {
      "startMethod": "com.android.root.Setting.onCreate()V",
      "targetMethod": "android.telephony.TelephonyManager.getSubscriberId()Ljava/lang/String;",
      "eventChain": [
        {
          "start": "com.android.root.Setting.onCreate()V",
          "target": "invokevirtual \u003c Application, Landroid/telephony/TelephonyManager, getSubscriberId()Ljava/lang/String; \u003e@30",
          "type": "service",
          "component": "com.android.root.Setting",
          "constraintsFile": "constraints5_0.py",
          "variables": {
            "SharedPreferences\u003cdone\u003e": "IAAv0"
          },
          "stringMap": {},
          "strings": {
            "IAAv1": ""
          }
        }
      ]
    },
    "6": {
      "startMethod": "com.android.root.Setting.onCreate()V",
      "targetMethod": "java.net.HttpURLConnection.getInputStream()Ljava/io/InputStream;",
      "eventChain": [
        {
          "start": "com.android.root.Setting.onCreate()V",
          "target": "invokevirtual \u003c Application, Ljava/net/HttpURLConnection, getInputStream()Ljava/io/InputStream; \u003e@224",
          "type": "service",
          "component": "com.android.root.Setting",
          "constraintsFile": "constraints6_0.py",
          "variables": {
            "SharedPreferences\u003cdone\u003e": "IAAv0"
          },
          "stringMap": {},
          "strings": {}
        }
      ]
    },
    "7": {
      "startMethod": "com.android.root.Setting.onCreate()V",
      "targetMethod": "android.telephony.TelephonyManager.getSubscriberId()Ljava/lang/String;",
      "eventChain": [
        {
          "start": "com.android.root.Setting.onCreate()V",
          "target": "invokevirtual \u003c Application, Landroid/telephony/TelephonyManager, getSubscriberId()Ljava/lang/String; \u003e@16",
          "type": "service",
          "component": "com.android.root.Setting",
          "constraintsFile": "constraints7_0.py",
          "variables": {
            "SharedPreferences\u003cdone\u003e": "IAAv0"
          },
          "stringMap": {},
          "strings": {}
        }
      ]
    },
    "8": {
      "startMethod": "com.android.root.Setting.onCreate()V",
      "targetMethod": "android.net.wifi.WifiManager.setWifiEnabled(Z)Z",
      "eventChain": [
        {
          "start": "com.android.root.Setting.onCreate()V",
          "target": "invokevirtual \u003c Application, Landroid/net/wifi/WifiManager, setWifiEnabled(Z)Z \u003e@81",
          "type": "service",
          "component": "com.android.root.Setting",
          "constraintsFile": "constraints8_0.py",
          "variables": {},
          "stringMap": {},
          "strings": {}
        }
      ]
    },
    "9": {
      "startMethod": "com.android.root.Setting.onCreate()V",
      "targetMethod": "android.net.wifi.WifiManager.setWifiEnabled(Z)Z",
      "eventChain": [
        {
          "start": "com.android.root.Setting.onCreate()V",
          "target": "PC@17",
          "type": "service",
          "component": "com.android.root.Setting",
          "constraintsFile": "constraints9_0.py",
          "variables": {},
          "stringMap": {},
          "strings": {}
        },
        {
          "start": "com.android.root.Setting.onCreate()V",
          "target": "invokevirtual \u003c Application, Landroid/net/wifi/WifiManager, setWifiEnabled(Z)Z \u003e@33",
          "type": "service",
          "component": "com.android.root.Setting",
          "constraintsFile": "constraints9_1.py",
          "variables": {},
          "stringMap": {},
          "strings": {}
        }
      ]
    },
    "10": {
      "startMethod": "com.android.root.Setting.onCreate()V",
      "targetMethod": "android.net.wifi.WifiManager.setWifiEnabled(Z)Z",
      "eventChain": [
        {
          "start": "com.android.root.Setting.onCreate()V",
          "target": "invokevirtual \u003c Application, Landroid/net/wifi/WifiManager, setWifiEnabled(Z)Z \u003e@19",
          "type": "service",
          "component": "com.android.root.Setting",
          "constraintsFile": "constraints10_0.py",
          "variables": {},
          "stringMap": {},
          "strings": {}
        }
      ]
    },
    "11": {
      "startMethod": "com.admob.android.ads.AdContainer.onKeyUp(ILandroid/view/KeyEvent;)Z",
      "targetMethod": "java.net.HttpURLConnection.connect()V",
      "eventChain": [
        {
          "start": "com.admob.android.ads.AdContainer.onKeyUp(ILandroid/view/KeyEvent;)Z",
          "target": "invokevirtual \u003c Application, Ljava/net/HttpURLConnection, connect()V \u003e@175",
          "type": "ui",
          "activities": [
            "com.android.root.main"
          ],
          "listener": "com.admob.android.ads.AdContainer",
          "listenerMethod": "onKeyUp",
          "uiType": "onKeyUp",
          "constraintsFile": "constraints11_0.py",
          "variables": {
            "\u003cInput1\u003e": "IAAv0"
          },
          "stringMap": {},
          "strings": {}
        }
      ]
    },
    "12": {
      "startMethod": "com.admob.android.ads.AdContainer.onKeyUp(ILandroid/view/KeyEvent;)Z",
      "targetMethod": "java.net.URL.openConnection()Ljava/net/URLConnection;",
      "eventChain": [
        {
          "start": "com.admob.android.ads.AdContainer.onKeyUp(ILandroid/view/KeyEvent;)Z",
          "target": "invokevirtual \u003c Application, Ljava/net/URL, openConnection()Ljava/net/URLConnection; \u003e@86",
          "type": "ui",
          "activities": [
            "com.android.root.main"
          ],
          "listener": "com.admob.android.ads.AdContainer",
          "listenerMethod": "onKeyUp",
          "uiType": "onKeyUp",
          "constraintsFile": "constraints12_0.py",
          "variables": {
            "\u003cInput1\u003e": "IAAv0"
          },
          "stringMap": {},
          "strings": {}
        }
      ]
    },
    "13": {
      "startMethod": "com.admob.android.ads.AdView$1.run()V",
      "targetMethod": "java.net.HttpURLConnection.getInputStream()Ljava/io/InputStream;",
      "eventChain": [
        {
          "start": "com.admob.android.ads.AdView$1.run()V",
          "target": "invokevirtual \u003c Application, Ljava/net/HttpURLConnection, getInputStream()Ljava/io/InputStream; \u003e@300",
          "type": "",
          "constraintsFile": "constraints13_0.py",
          "variables": {},
          "stringMap": {},
          "strings": {}
        }
      ]
    },
    "14": {
      "startMethod": "com.admob.android.ads.AdView$1.run()V",
      "targetMethod": "java.net.URLConnection.connect()V",
      "eventChain": [
        {
          "start": "com.admob.android.ads.AdView$1.run()V",
          "target": "PC@172",
          "type": "",
          "constraintsFile": "constraints14_0.py",
          "variables": {},
          "stringMap": {},
          "strings": {}
        },
        {
          "start": "com.admob.android.ads.AdView$1.run()V",
          "target": "PC@34",
          "type": "",
          "constraintsFile": "constraints14_1.py",
          "variables": {},
          "stringMap": {},
          "strings": {}
        },
        {
          "start": "com.admob.android.ads.AdView$1.run()V",
          "target": "invokevirtual \u003c Application, Ljava/net/URLConnection, connect()V \u003e@52",
          "type": "",
          "constraintsFile": "constraints14_2.py",
          "variables": {},
          "stringMap": {},
          "strings": {}
        }
      ]
    },
    "15": {
      "startMethod": "com.admob.android.ads.AdView$1.run()V",
      "targetMethod": "java.net.URLConnection.connect()V",
      "eventChain": [
        {
          "start": "com.admob.android.ads.AdMobLocalizer.\u003cclinit\u003e()V",
          "target": "",
          "type": "",
          "constraintsFile": "constraints15_0.py",
          "variables": {},
          "stringMap": {
            "7000": ""
          },
          "strings": {}
        },
        {
          "start": "com.admob.android.ads.AdView$1.run()V",
          "target": "invokevirtual \u003c Application, Ljava/net/URLConnection, connect()V \u003e@102",
          "type": "",
          "constraintsFile": "constraints15_1.py",
          "variables": {},
          "stringMap": {
            "7000": ""
          },
          "strings": {}
        }
      ]
    },
    "16": {
      "startMethod": "com.admob.android.ads.AdView$1.run()V",
      "targetMethod": "java.net.URLConnection.getInputStream()Ljava/io/InputStream;",
      "eventChain": [
        {
          "start": "com.admob.android.ads.AdView$1.run()V",
          "target": "PC@172",
          "type": "",
          "constraintsFile": "constraints16_0.py",
          "variables": {},
          "stringMap": {},
          "strings": {}
        },
        {
          "start": "com.admob.android.ads.AdView$1.run()V",
          "target": "PC@34",
          "type": "",
          "constraintsFile": "constraints16_1.py",
          "variables": {},
          "stringMap": {},
          "strings": {}
        },
        {
          "start": "com.admob.android.ads.AdView$1.run()V",
          "target": "invokevirtual \u003c Application, Ljava/net/URLConnection, getInputStream()Ljava/io/InputStream; \u003e@56",
          "type": "",
          "constraintsFile": "constraints16_2.py",
          "variables": {},
          "stringMap": {},
          "strings": {}
        }
      ]
    },
    "17": {
      "startMethod": "com.admob.android.ads.AdView$1.run()V",
      "targetMethod": "android.location.LocationManager.requestLocationUpdates(Ljava/lang/String;JFLandroid/location/LocationListener;Landroid/os/Looper;)V",
      "eventChain": [
        {
          "start": "com.admob.android.ads.AdView$1.run()V",
          "target": "invokevirtual \u003c Application, Landroid/location/LocationManager, requestLocationUpdates(Ljava/lang/String;JFLandroid/location/LocationListener;Landroid/os/Looper;)V \u003e@442",
          "type": "",
          "constraintsFile": "constraints17_0.py",
          "variables": {
            "System.currentTimeMillis()": "IAAv4"
          },
          "stringMap": {},
          "strings": {
            "IAAv1": ""
          }
        }
      ]
    },
    "18": {
      "startMethod": "com.admob.android.ads.AdView$1.run()V",
      "targetMethod": "java.net.URLConnection.getInputStream()Ljava/io/InputStream;",
      "eventChain": [
        {
          "start": "com.admob.android.ads.AdMobLocalizer.\u003cclinit\u003e()V",
          "target": "",
          "type": "",
          "constraintsFile": "constraints18_0.py",
          "variables": {},
          "stringMap": {
            "7000": ""
          },
          "strings": {}
        },
        {
          "start": "com.admob.android.ads.AdView$1.run()V",
          "target": "invokevirtual \u003c Application, Ljava/net/URLConnection, getInputStream()Ljava/io/InputStream; \u003e@112",
          "type": "",
          "constraintsFile": "constraints18_1.py",
          "variables": {},
          "stringMap": {
            "7000": ""
          },
          "strings": {}
        }
      ]
    },
    "19": {
      "startMethod": "com.admob.android.ads.AdView$1.run()V",
      "targetMethod": "java.net.URL.openConnection()Ljava/net/URLConnection;",
      "eventChain": [
        {
          "start": "com.admob.android.ads.AdView$1.run()V",
          "target": "PC@172",
          "type": "",
          "constraintsFile": "constraints19_0.py",
          "variables": {},
          "stringMap": {},
          "strings": {}
        },
        {
          "start": "com.admob.android.ads.AdView$1.run()V",
          "target": "PC@34",
          "type": "",
          "constraintsFile": "constraints19_1.py",
          "variables": {},
          "stringMap": {},
          "strings": {}
        },
        {
          "start": "com.admob.android.ads.AdView$1.run()V",
          "target": "invokevirtual \u003c Application, Ljava/net/URL, openConnection()Ljava/net/URLConnection; \u003e@24",
          "type": "",
          "constraintsFile": "constraints19_2.py",
          "variables": {},
          "stringMap": {},
          "strings": {}
        }
      ]
    },
    "20": {
      "startMethod": "com.admob.android.ads.AdView$1.run()V",
      "targetMethod": "android.location.LocationManager.getBestProvider(Landroid/location/Criteria;Z)Ljava/lang/String;",
      "eventChain": [
        {
          "start": "com.admob.android.ads.AdView$1.run()V",
          "target": "invokevirtual \u003c Application, Landroid/location/LocationManager, getBestProvider(Landroid/location/Criteria;Z)Ljava/lang/String; \u003e@299",
          "type": "",
          "constraintsFile": "constraints20_0.py",
          "variables": {
            "System.currentTimeMillis()": "IAAv4"
          },
          "stringMap": {},
          "strings": {
            "IAAv1": ""
          }
        }
      ]
    },
    "21": {
      "startMethod": "com.admob.android.ads.AdView$1.run()V",
      "targetMethod": "android.location.LocationManager.getBestProvider(Landroid/location/Criteria;Z)Ljava/lang/String;",
      "eventChain": [
        {
          "start": "com.admob.android.ads.AdView$1.run()V",
          "target": "invokevirtual \u003c Application, Landroid/location/LocationManager, getBestProvider(Landroid/location/Criteria;Z)Ljava/lang/String; \u003e@193",
          "type": "",
          "constraintsFile": "constraints21_0.py",
          "variables": {
            "System.currentTimeMillis()": "IAAv4"
          },
          "stringMap": {},
          "strings": {
            "IAAv1": ""
          }
        }
      ]
    },
    "22": {
      "startMethod": "com.admob.android.ads.AdView$1.run()V",
      "targetMethod": "java.net.URL.openConnection()Ljava/net/URLConnection;",
      "eventChain": [
        {
          "start": "com.admob.android.ads.AdMobLocalizer.\u003cclinit\u003e()V",
          "target": "",
          "type": "",
          "constraintsFile": "constraints22_0.py",
          "variables": {},
          "stringMap": {
            "7000": ""
          },
          "strings": {}
        },
        {
          "start": "com.admob.android.ads.AdView$1.run()V",
          "target": "invokevirtual \u003c Application, Ljava/net/URL, openConnection()Ljava/net/URLConnection; \u003e@95",
          "type": "",
          "constraintsFile": "constraints22_1.py",
          "variables": {},
          "stringMap": {
            "7000": ""
          },
          "strings": {}
        }
      ]
    },
    "23": {
      "startMethod": "com.admob.android.ads.AdView$1.run()V",
      "targetMethod": "java.net.URL.openConnection()Ljava/net/URLConnection;",
      "eventChain": [
        {
          "start": "com.admob.android.ads.AdView$1.run()V",
          "target": "invokevirtual \u003c Application, Ljava/net/URL, openConnection()Ljava/net/URLConnection; \u003e@77",
          "type": "",
          "constraintsFile": "constraints23_0.py",
          "variables": {},
          "stringMap": {},
          "strings": {}
        }
      ]
    },
    "24": {
      "startMethod": "com.admob.android.ads.AdContainer$3.run()V",
      "targetMethod": "java.net.HttpURLConnection.connect()V",
      "eventChain": [
        {
          "start": "com.admob.android.ads.AdContainer$3.run()V",
          "target": "invokevirtual \u003c Application, Ljava/net/HttpURLConnection, connect()V \u003e@175",
          "type": "",
          "constraintsFile": "constraints24_0.py",
          "variables": {},
          "stringMap": {},
          "strings": {
            "IAAv0": ""
          }
        }
      ]
    },
    "25": {
      "startMethod": "com.admob.android.ads.AdContainer$3.run()V",
      "targetMethod": "java.net.URL.openConnection()Ljava/net/URLConnection;",
      "eventChain": [
        {
          "start": "com.admob.android.ads.AdContainer$3.run()V",
          "target": "invokevirtual \u003c Application, Ljava/net/URL, openConnection()Ljava/net/URLConnection; \u003e@86",
          "type": "",
          "constraintsFile": "constraints25_0.py",
          "variables": {},
          "stringMap": {},
          "strings": {
            "IAAv0": ""
          }
        }
      ]
    },
    "26": {
      "startMethod": "com.adao.android.afm.FileListActivity.onOptionsItemSelected(Landroid/view/MenuItem;)Z",
      "targetMethod": "android.app.ActivityManager.restartPackage(Ljava/lang/String;)V",
      "eventChain": [
        {
          "start": "com.adao.android.afm.FileListActivity.onOptionsItemSelected(Landroid/view/MenuItem;)Z",
          "target": "invokevirtual \u003c Application, Landroid/app/ActivityManager, restartPackage(Ljava/lang/String;)V \u003e@299",
          "type": "activity",
          "component": "com.adao.android.afm.FileListActivity",
          "constraintsFile": "constraints26_0.py",
          "variables": {
            "\u003cInput1\u003e.getItemId()": "IAAv0"
          },
          "stringMap": {},
          "strings": {}
        }
      ]
    },
    "27": {
      "startMethod": "com.admob.android.ads.AdContainer.dispatchTouchEvent(Landroid/view/MotionEvent;)Z",
      "targetMethod": "java.net.URL.openConnection()Ljava/net/URLConnection;",
      "eventChain": [
        {
          "start": "com.admob.android.ads.AdContainer.dispatchTrackballEvent(Landroid/view/MotionEvent;)Z",
          "target": "invokespecial \u003c Application, Landroid/widget/RelativeLayout, onTrackballEvent(Landroid/view/MotionEvent;)Z \u003e@88",
          "type": "ui",
          "activities": [
            "com.android.root.main"
          ],
          "listener": "com.admob.android.ads.AdContainer",
          "listenerMethod": "dispatchTrackballEvent",
          "uiType": "dispatchTrackballEvent",
          "constraintsFile": "constraints27_0.py",
          "variables": {
            "\u003cInput1\u003e.getAction()": "IAAv0"
          },
          "stringMap": {},
          "strings": {}
        },
        {
          "start": "com.admob.android.ads.AdContainer.dispatchTouchEvent(Landroid/view/MotionEvent;)Z",
          "target": "invokevirtual \u003c Application, Ljava/net/URL, openConnection()Ljava/net/URLConnection; \u003e@86",
          "type": "ui",
          "activities": [
            "com.android.root.main"
          ],
          "listener": "com.admob.android.ads.AdContainer",
          "listenerMethod": "dispatchTouchEvent",
          "uiType": "dispatchTouchEvent",
          "constraintsFile": "constraints27_1.py",
          "variables": {
            "\u003cInput1\u003e.getAction()": "IAAv0"
          },
          "stringMap": {},
          "strings": {}
        }
      ]
    },
    "28": {
      "startMethod": "com.admob.android.ads.AdContainer.dispatchTouchEvent(Landroid/view/MotionEvent;)Z",
      "targetMethod": "java.net.HttpURLConnection.connect()V",
      "eventChain": [
        {
          "start": "com.admob.android.ads.AdContainer.dispatchTrackballEvent(Landroid/view/MotionEvent;)Z",
          "target": "invokespecial \u003c Application, Landroid/widget/RelativeLayout, onTrackballEvent(Landroid/view/MotionEvent;)Z \u003e@88",
          "type": "ui",
          "activities": [
            "com.android.root.main"
          ],
          "listener": "com.admob.android.ads.AdContainer",
          "listenerMethod": "dispatchTrackballEvent",
          "uiType": "dispatchTrackballEvent",
          "constraintsFile": "constraints28_0.py",
          "variables": {
            "\u003cInput1\u003e.getAction()": "IAAv0"
          },
          "stringMap": {},
          "strings": {}
        },
        {
          "start": "com.admob.android.ads.AdContainer.dispatchTouchEvent(Landroid/view/MotionEvent;)Z",
          "target": "invokevirtual \u003c Application, Ljava/net/HttpURLConnection, connect()V \u003e@175",
          "type": "ui",
          "activities": [
            "com.android.root.main"
          ],
          "listener": "com.admob.android.ads.AdContainer",
          "listenerMethod": "dispatchTouchEvent",
          "uiType": "dispatchTouchEvent",
          "constraintsFile": "constraints28_1.py",
          "variables": {
            "\u003cInput1\u003e.getAction()": "IAAv0"
          },
          "stringMap": {},
          "strings": {}
        }
      ]
    },
    "29": {
      "startMethod": "com.admob.android.ads.AdContainer.dispatchTrackballEvent(Landroid/view/MotionEvent;)Z",
      "targetMethod": "java.net.HttpURLConnection.connect()V",
      "eventChain": [
        {
          "start": "com.admob.android.ads.AdContainer.dispatchTrackballEvent(Landroid/view/MotionEvent;)Z",
          "target": "invokespecial \u003c Application, Landroid/widget/RelativeLayout, onTrackballEvent(Landroid/view/MotionEvent;)Z \u003e@88",
          "type": "ui",
          "activities": [
            "com.android.root.main"
          ],
          "listener": "com.admob.android.ads.AdContainer",
          "listenerMethod": "dispatchTrackballEvent",
          "uiType": "dispatchTrackballEvent",
          "constraintsFile": "constraints29_0.py",
          "variables": {
            "\u003cInput1\u003e.getAction()": "IAAv0"
          },
          "stringMap": {},
          "strings": {}
        },
        {
          "start": "com.admob.android.ads.AdContainer.dispatchTrackballEvent(Landroid/view/MotionEvent;)Z",
          "target": "invokevirtual \u003c Application, Ljava/net/HttpURLConnection, connect()V \u003e@175",
          "type": "ui",
          "activities": [
            "com.android.root.main"
          ],
          "listener": "com.admob.android.ads.AdContainer",
          "listenerMethod": "dispatchTrackballEvent",
          "uiType": "dispatchTrackballEvent",
          "constraintsFile": "constraints29_1.py",
          "variables": {
            "\u003cInput1\u003e.getAction()": "IAAv0"
          },
          "stringMap": {},
          "strings": {}
        }
      ]
    },
    "30": {
      "startMethod": "com.admob.android.ads.AdContainer.dispatchTrackballEvent(Landroid/view/MotionEvent;)Z",
      "targetMethod": "java.net.URL.openConnection()Ljava/net/URLConnection;",
      "eventChain": [
        {
          "start": "com.admob.android.ads.AdContainer.dispatchTrackballEvent(Landroid/view/MotionEvent;)Z",
          "target": "invokespecial \u003c Application, Landroid/widget/RelativeLayout, onTrackballEvent(Landroid/view/MotionEvent;)Z \u003e@88",
          "type": "ui",
          "activities": [
            "com.android.root.main"
          ],
          "listener": "com.admob.android.ads.AdContainer",
          "listenerMethod": "dispatchTrackballEvent",
          "uiType": "dispatchTrackballEvent",
          "constraintsFile": "constraints30_0.py",
          "variables": {
            "\u003cInput1\u003e.getAction()": "IAAv0"
          },
          "stringMap": {},
          "strings": {}
        },
        {
          "start": "com.admob.android.ads.AdContainer.dispatchTrackballEvent(Landroid/view/MotionEvent;)Z",
          "target": "invokevirtual \u003c Application, Ljava/net/URL, openConnection()Ljava/net/URLConnection; \u003e@86",
          "type": "ui",
          "activities": [
            "com.android.root.main"
          ],
          "listener": "com.admob.android.ads.AdContainer",
          "listenerMethod": "dispatchTrackballEvent",
          "uiType": "dispatchTrackballEvent",
          "constraintsFile": "constraints30_1.py",
          "variables": {
            "\u003cInput1\u003e.getAction()": "IAAv0"
          },
          "stringMap": {},
          "strings": {}
        }
      ]
    }
  }
}