{
  "packageName": "atlence.android.ftm",
  "mainActivity": "atlence.android.ftm.ui.JHDatesFichiersActivity",
  "callPaths": {
    "0": {
      "startMethod": "atlence.android.ftm.ui.JHDatesFichiersActivity.onCreate(Landroid/os/Bundle;)V",
      "targetMethod": "org.apache.http.impl.client.DefaultHttpClient.execute(Lorg/apache/http/client/methods/HttpUriRequest;)Lorg/apache/http/HttpResponse;",
      "eventChain": [
        {
          "start": "atlence.android.ftm.ui.JHDatesFichiersActivity.onCreate(Landroid/os/Bundle;)V",
          "target": "invokevirtual \u003c Application, Lorg/apache/http/impl/client/DefaultHttpClient, execute(Lorg/apache/http/client/methods/HttpUriRequest;)Lorg/apache/http/HttpResponse; \u003e@54",
          "type": "activity",
          "component": "atlence.android.ftm.ui.JHDatesFichiersActivity",
          "constraintsFile": "constraints0_0.py",
          "variables": {
            "\u003cChainedInput1\u003e": "IAAv0"
          },
          "stringMap": {},
          "strings": {}
        }
      ]
    }
  }
}