{
  "packageName": "com.nbandtsycamore.mobile",
  "mainActivity": "nz.co.mcom.phone.login.SplashscreenActivity",
  "callPaths": {
    "0": {
      "startMethod": "com.google.android.gms.maps.MapFragment.onAttach(Landroid/app/Activity;)V",
      "targetMethod": "java.lang.ClassLoader.loadClass(Ljava/lang/String;)Ljava/lang/Class;",
      "eventChain": [
        {
          "start": "com.google.android.gms.maps.MapFragment.onDestroy()V",
          "target": "invokespecial \u003c Application, Landroid/app/Fragment, onDestroy()V \u003e@11",
          "type": ""
        },
        {
          "start": "com.google.android.gms.maps.MapFragment.onAttach(Landroid/app/Activity;)V",
          "target": "invokevirtual \u003c Application, Ljava/lang/ClassLoader, loadClass(Ljava/lang/String;)Ljava/lang/Class; \u003e@13",
          "type": "",
          "constraintsFile": "constraints0_0.py",
          "variables": {},
          "stringMap": {},
          "strings": {}
        }
      ]
    },
    "1": {
      "startMethod": "com.google.android.gms.maps.MapFragment.onCreateView(Landroid/view/LayoutInflater;Landroid/view/ViewGroup;Landroid/os/Bundle;)Landroid/view/View;",
      "targetMethod": "java.lang.ClassLoader.loadClass(Ljava/lang/String;)Ljava/lang/Class;",
      "eventChain": [
        {
          "start": "com.google.android.gms.maps.MapFragment.onDestroy()V",
          "target": "invokespecial \u003c Application, Landroid/app/Fragment, onDestroy()V \u003e@11",
          "type": ""
        },
        {
          "start": "com.google.android.gms.maps.MapFragment.onCreateView(Landroid/view/LayoutInflater;Landroid/view/ViewGroup;Landroid/os/Bundle;)Landroid/view/View;",
          "target": "invokevirtual \u003c Application, Ljava/lang/ClassLoader, loadClass(Ljava/lang/String;)Ljava/lang/Class; \u003e@13",
          "type": "",
          "constraintsFile": "constraints1_0.py",
          "variables": {
            "\u003cChainedInput3\u003e": "IAAv2"
          },
          "stringMap": {},
          "strings": {}
        }
      ]
    },
    "2": {
      "startMethod": "com.google.android.gms.maps.MapFragment.onResume()V",
      "targetMethod": "java.lang.ClassLoader.loadClass(Ljava/lang/String;)Ljava/lang/Class;",
      "eventChain": [
        {
          "start": "com.google.android.gms.maps.MapFragment.onDestroy()V",
          "target": "invokespecial \u003c Application, Landroid/app/Fragment, onDestroy()V \u003e@11",
          "type": ""
        },
        {
          "start": "com.google.android.gms.maps.MapFragment.onResume()V",
          "target": "invokevirtual \u003c Application, Ljava/lang/ClassLoader, loadClass(Ljava/lang/String;)Ljava/lang/Class; \u003e@13",
          "type": "",
          "constraintsFile": "constraints2_0.py",
          "variables": {},
          "stringMap": {},
          "strings": {}
        }
      ]
    },
    "3": {
      "startMethod": "com.google.android.gms.maps.MapFragment.onCreate(Landroid/os/Bundle;)V",
      "targetMethod": "java.lang.ClassLoader.loadClass(Ljava/lang/String;)Ljava/lang/Class;",
      "eventChain": [
        {
          "start": "com.google.android.gms.maps.MapFragment.onDestroy()V",
          "target": "invokespecial \u003c Application, Landroid/app/Fragment, onDestroy()V \u003e@11",
          "type": ""
        },
        {
          "start": "com.google.android.gms.maps.MapFragment.onCreate(Landroid/os/Bundle;)V",
          "target": "invokevirtual \u003c Application, Ljava/lang/ClassLoader, loadClass(Ljava/lang/String;)Ljava/lang/Class; \u003e@13",
          "type": "",
          "constraintsFile": "constraints3_0.py",
          "variables": {
            "\u003cChainedInput1\u003e": "IAAv2"
          },
          "stringMap": {},
          "strings": {}
        }
      ]
    },
    "4": {
      "startMethod": "com.google.android.gms.maps.MapFragment.onInflate(Landroid/app/Activity;Landroid/util/AttributeSet;Landroid/os/Bundle;)V",
      "targetMethod": "java.lang.ClassLoader.loadClass(Ljava/lang/String;)Ljava/lang/Class;",
      "eventChain": [
        {
          "start": "com.google.android.gms.maps.MapFragment.onDestroy()V",
          "target": "invokespecial \u003c Application, Landroid/app/Fragment, onDestroy()V \u003e@11",
          "type": ""
        },
        {
          "start": "com.google.android.gms.maps.MapFragment.onInflate(Landroid/app/Activity;Landroid/util/AttributeSet;Landroid/os/Bundle;)V",
          "target": "invokevirtual \u003c Application, Ljava/lang/ClassLoader, loadClass(Ljava/lang/String;)Ljava/lang/Class; \u003e@13",
          "type": "",
          "constraintsFile": "constraints4_0.py",
          "variables": {},
          "stringMap": {},
          "strings": {}
        }
      ]
    },
    "5": {
      "startMethod": "com.google.android.gms.games.multiplayer.c.createFromParcel(Landroid/os/Parcel;)Ljava/lang/Object;",
      "targetMethod": "java.lang.ClassLoader.loadClass(Ljava/lang/String;)Ljava/lang/Class;",
      "eventChain": [
        {
          "start": "com.google.android.gms.games.multiplayer.c.createFromParcel(Landroid/os/Parcel;)Ljava/lang/Object;",
          "target": "invokevirtual \u003c Application, Ljava/lang/ClassLoader, loadClass(Ljava/lang/String;)Ljava/lang/Class; \u003e@15",
          "type": "",
          "constraintsFile": "constraints5_0.py",
          "variables": {
            "\u003cInput1\u003e.b().m()": "IAAv0",
            "\u003cInput1\u003e.a(\u003cInput1\u003e.b())": "IAAv1"
          },
          "stringMap": {},
          "strings": {}
        }
      ]
    },
    "6": {
      "startMethod": "com.google.android.gms.games.c.createFromParcel(Landroid/os/Parcel;)Ljava/lang/Object;",
      "targetMethod": "java.lang.ClassLoader.loadClass(Ljava/lang/String;)Ljava/lang/Class;",
      "eventChain": [
        {
          "start": "com.google.android.gms.games.c.createFromParcel(Landroid/os/Parcel;)Ljava/lang/Object;",
          "target": "invokevirtual \u003c Application, Ljava/lang/ClassLoader, loadClass(Ljava/lang/String;)Ljava/lang/Class; \u003e@15",
          "type": "",
          "constraintsFile": "constraints6_0.py",
          "variables": {
            "\u003cInput1\u003e.b().m()": "IAAv0",
            "\u003cInput1\u003e.a(\u003cInput1\u003e.b())": "IAAv1"
          },
          "stringMap": {},
          "strings": {}
        }
      ]
    },
    "7": {
      "startMethod": "com.google.android.gms.games.multiplayer.realtime.RoomEntity$a.createFromParcel(Landroid/os/Parcel;)Ljava/lang/Object;",
      "targetMethod": "java.lang.ClassLoader.loadClass(Ljava/lang/String;)Ljava/lang/Class;",
      "eventChain": [
        {
          "start": "com.google.android.gms.games.multiplayer.realtime.RoomEntity$a.createFromParcel(Landroid/os/Parcel;)Ljava/lang/Object;",
          "target": "invokevirtual \u003c Application, Ljava/lang/ClassLoader, loadClass(Ljava/lang/String;)Ljava/lang/Class; \u003e@15",
          "type": "",
          "constraintsFile": "constraints7_0.py",
          "variables": {
            "\u003cInput1\u003e.readString()": "IAAv0",
            "\u003cInput1\u003e.b().m()": "IAAv2",
            "\u003cInput1\u003e.readInt()": "IAAv1",
            "\u003cInput1\u003e.a(\u003cInput1\u003e.b())": "IAAv3"
          },
          "stringMap": {},
          "strings": {
            "IAAv0": ""
          }
        }
      ]
    },
    "8": {
      "startMethod": "com.google.android.gms.maps.model.MarkerOptionsCreator.createFromParcel(Landroid/os/Parcel;)Ljava/lang/Object;",
      "targetMethod": "java.lang.ClassLoader.loadClass(Ljava/lang/String;)Ljava/lang/Class;",
      "eventChain": [
        {
          "start": "com.google.android.gms.maps.model.MarkerOptionsCreator.createFromParcel(Landroid/os/Parcel;)Ljava/lang/Object;",
          "target": "invokevirtual \u003c Application, Ljava/lang/ClassLoader, loadClass(Ljava/lang/String;)Ljava/lang/Class; \u003e@15",
          "type": "",
          "constraintsFile": "constraints8_0.py",
          "variables": {
            "\u003cInput1\u003e.b().m()": "IAAv0",
            "\u003cInput1\u003e.a(\u003cInput1\u003e.b())": "IAAv1"
          },
          "stringMap": {},
          "strings": {}
        }
      ]
    },
    "9": {
      "startMethod": "com.google.android.gms.games.multiplayer.a.createFromParcel(Landroid/os/Parcel;)Ljava/lang/Object;",
      "targetMethod": "java.lang.ClassLoader.loadClass(Ljava/lang/String;)Ljava/lang/Class;",
      "eventChain": [
        {
          "start": "com.google.android.gms.games.multiplayer.a.createFromParcel(Landroid/os/Parcel;)Ljava/lang/Object;",
          "target": "invokevirtual \u003c Application, Ljava/lang/ClassLoader, loadClass(Ljava/lang/String;)Ljava/lang/Class; \u003e@15",
          "type": "",
          "constraintsFile": "constraints9_0.py",
          "variables": {
            "\u003cInput1\u003e.b().m()": "IAAv0",
            "\u003cInput1\u003e.a(\u003cInput1\u003e.b())": "IAAv1"
          },
          "stringMap": {},
          "strings": {}
        }
      ]
    },
    "10": {
      "startMethod": "com.google.android.gms.internal.al.createFromParcel(Landroid/os/Parcel;)Ljava/lang/Object;",
      "targetMethod": "java.lang.ClassLoader.loadClass(Ljava/lang/String;)Ljava/lang/Class;",
      "eventChain": [
        {
          "start": "com.google.android.gms.internal.al.createFromParcel(Landroid/os/Parcel;)Ljava/lang/Object;",
          "target": "invokevirtual \u003c Application, Ljava/lang/ClassLoader, loadClass(Ljava/lang/String;)Ljava/lang/Class; \u003e@15",
          "type": "",
          "constraintsFile": "constraints10_0.py",
          "variables": {
            "\u003cInput1\u003e.b().m()": "IAAv0",
            "\u003cInput1\u003e.a(\u003cInput1\u003e.b())": "IAAv1"
          },
          "stringMap": {},
          "strings": {}
        }
      ]
    },
    "11": {
      "startMethod": "com.google.android.gms.games.a.createFromParcel(Landroid/os/Parcel;)Ljava/lang/Object;",
      "targetMethod": "java.lang.ClassLoader.loadClass(Ljava/lang/String;)Ljava/lang/Class;",
      "eventChain": [
        {
          "start": "com.google.android.gms.games.a.createFromParcel(Landroid/os/Parcel;)Ljava/lang/Object;",
          "target": "invokevirtual \u003c Application, Ljava/lang/ClassLoader, loadClass(Ljava/lang/String;)Ljava/lang/Class; \u003e@15",
          "type": "",
          "constraintsFile": "constraints11_0.py",
          "variables": {
            "\u003cInput1\u003e.b().m()": "IAAv0",
            "\u003cInput1\u003e.a(\u003cInput1\u003e.b())": "IAAv1"
          },
          "stringMap": {},
          "strings": {}
        }
      ]
    },
    "12": {
      "startMethod": "com.google.android.gms.internal.ag.createFromParcel(Landroid/os/Parcel;)Ljava/lang/Object;",
      "targetMethod": "java.lang.ClassLoader.loadClass(Ljava/lang/String;)Ljava/lang/Class;",
      "eventChain": [
        {
          "start": "com.google.android.gms.internal.ag.createFromParcel(Landroid/os/Parcel;)Ljava/lang/Object;",
          "target": "invokevirtual \u003c Application, Ljava/lang/ClassLoader, loadClass(Ljava/lang/String;)Ljava/lang/Class; \u003e@15",
          "type": "",
          "constraintsFile": "constraints12_0.py",
          "variables": {
            "\u003cInput1\u003e.b().m()": "IAAv0",
            "\u003cInput1\u003e.a(\u003cInput1\u003e.b())": "IAAv1"
          },
          "stringMap": {},
          "strings": {}
        }
      ]
    },
    "13": {
      "startMethod": "com.google.android.gms.internal.cp.createFromParcel(Landroid/os/Parcel;)Ljava/lang/Object;",
      "targetMethod": "java.lang.ClassLoader.loadClass(Ljava/lang/String;)Ljava/lang/Class;",
      "eventChain": [
        {
          "start": "com.google.android.gms.internal.cp.createFromParcel(Landroid/os/Parcel;)Ljava/lang/Object;",
          "target": "invokevirtual \u003c Application, Ljava/lang/ClassLoader, loadClass(Ljava/lang/String;)Ljava/lang/Class; \u003e@15",
          "type": "",
          "constraintsFile": "constraints13_0.py",
          "variables": {
            "\u003cInput1\u003e.b().m()": "IAAv0",
            "\u003cInput1\u003e.a(\u003cInput1\u003e.b())": "IAAv1"
          },
          "stringMap": {},
          "strings": {}
        }
      ]
    },
    "14": {
      "startMethod": "com.google.android.gms.games.multiplayer.InvitationEntity$a.createFromParcel(Landroid/os/Parcel;)Ljava/lang/Object;",
      "targetMethod": "java.lang.ClassLoader.loadClass(Ljava/lang/String;)Ljava/lang/Class;",
      "eventChain": [
        {
          "start": "com.google.android.gms.games.multiplayer.InvitationEntity$a.createFromParcel(Landroid/os/Parcel;)Ljava/lang/Object;",
          "target": "invokevirtual \u003c Application, Ljava/lang/ClassLoader, loadClass(Ljava/lang/String;)Ljava/lang/Class; \u003e@15",
          "type": "",
          "constraintsFile": "constraints14_0.py",
          "variables": {
            "\u003cInput1\u003e.readString()": "IAAv2",
            "\u003cInput1\u003e.b().m()": "IAAv0",
            "\u003cInput1\u003e.readInt()": "IAAv3",
            "\u003cInput1\u003e.a(\u003cInput1\u003e.b())": "IAAv1"
          },
          "stringMap": {},
          "strings": {
            "IAAv2": ""
          }
        }
      ]
    },
    "15": {
      "startMethod": "com.google.android.gms.maps.model.VisibleRegionCreator.createFromParcel(Landroid/os/Parcel;)Ljava/lang/Object;",
      "targetMethod": "java.lang.ClassLoader.loadClass(Ljava/lang/String;)Ljava/lang/Class;",
      "eventChain": [
        {
          "start": "com.google.android.gms.maps.model.VisibleRegionCreator.createFromParcel(Landroid/os/Parcel;)Ljava/lang/Object;",
          "target": "invokevirtual \u003c Application, Ljava/lang/ClassLoader, loadClass(Ljava/lang/String;)Ljava/lang/Class; \u003e@15",
          "type": "",
          "constraintsFile": "constraints15_0.py",
          "variables": {
            "\u003cInput1\u003e.b().m()": "IAAv0",
            "\u003cInput1\u003e.a(\u003cInput1\u003e.b())": "IAAv1"
          },
          "stringMap": {},
          "strings": {}
        }
      ]
    },
    "16": {
      "startMethod": "com.google.android.gms.maps.GoogleMapOptionsCreator.createFromParcel(Landroid/os/Parcel;)Ljava/lang/Object;",
      "targetMethod": "java.lang.ClassLoader.loadClass(Ljava/lang/String;)Ljava/lang/Class;",
      "eventChain": [
        {
          "start": "com.google.android.gms.maps.GoogleMapOptionsCreator.createFromParcel(Landroid/os/Parcel;)Ljava/lang/Object;",
          "target": "invokevirtual \u003c Application, Ljava/lang/ClassLoader, loadClass(Ljava/lang/String;)Ljava/lang/Class; \u003e@15",
          "type": "",
          "constraintsFile": "constraints16_0.py",
          "variables": {
            "\u003cInput1\u003e.b().m()": "IAAv0",
            "\u003cInput1\u003e.a(\u003cInput1\u003e.b())": "IAAv1"
          },
          "stringMap": {},
          "strings": {}
        }
      ]
    },
    "17": {
      "startMethod": "com.google.android.gms.maps.model.GroundOverlayOptionsCreator.createFromParcel(Landroid/os/Parcel;)Ljava/lang/Object;",
      "targetMethod": "java.lang.ClassLoader.loadClass(Ljava/lang/String;)Ljava/lang/Class;",
      "eventChain": [
        {
          "start": "com.google.android.gms.maps.model.GroundOverlayOptionsCreator.createFromParcel(Landroid/os/Parcel;)Ljava/lang/Object;",
          "target": "invokevirtual \u003c Application, Ljava/lang/ClassLoader, loadClass(Ljava/lang/String;)Ljava/lang/Class; \u003e@15",
          "type": "",
          "constraintsFile": "constraints17_0.py",
          "variables": {
            "\u003cInput1\u003e.b().m()": "IAAv0",
            "\u003cInput1\u003e.a(\u003cInput1\u003e.b())": "IAAv1"
          },
          "stringMap": {},
          "strings": {}
        }
      ]
    },
    "18": {
      "startMethod": "com.google.android.gms.internal.ca.createFromParcel(Landroid/os/Parcel;)Ljava/lang/Object;",
      "targetMethod": "java.lang.ClassLoader.loadClass(Ljava/lang/String;)Ljava/lang/Class;",
      "eventChain": [
        {
          "start": "com.google.android.gms.internal.ca.createFromParcel(Landroid/os/Parcel;)Ljava/lang/Object;",
          "target": "invokevirtual \u003c Application, Ljava/lang/ClassLoader, loadClass(Ljava/lang/String;)Ljava/lang/Class; \u003e@15",
          "type": "",
          "constraintsFile": "constraints18_0.py",
          "variables": {
            "\u003cInput1\u003e.b().m()": "IAAv0",
            "\u003cInput1\u003e.a(\u003cInput1\u003e.b())": "IAAv1"
          },
          "stringMap": {},
          "strings": {}
        }
      ]
    },
    "19": {
      "startMethod": "com.google.android.gms.maps.model.CircleOptionsCreator.createFromParcel(Landroid/os/Parcel;)Ljava/lang/Object;",
      "targetMethod": "java.lang.ClassLoader.loadClass(Ljava/lang/String;)Ljava/lang/Class;",
      "eventChain": [
        {
          "start": "com.google.android.gms.maps.model.CircleOptionsCreator.createFromParcel(Landroid/os/Parcel;)Ljava/lang/Object;",
          "target": "invokevirtual \u003c Application, Ljava/lang/ClassLoader, loadClass(Ljava/lang/String;)Ljava/lang/Class; \u003e@15",
          "type": "",
          "constraintsFile": "constraints19_0.py",
          "variables": {
            "\u003cInput1\u003e.b().m()": "IAAv0",
            "\u003cInput1\u003e.a(\u003cInput1\u003e.b())": "IAAv1"
          },
          "stringMap": {},
          "strings": {}
        }
      ]
    },
    "20": {
      "startMethod": "com.google.android.gms.internal.cd.createFromParcel(Landroid/os/Parcel;)Ljava/lang/Object;",
      "targetMethod": "java.lang.ClassLoader.loadClass(Ljava/lang/String;)Ljava/lang/Class;",
      "eventChain": [
        {
          "start": "com.google.android.gms.internal.cd.createFromParcel(Landroid/os/Parcel;)Ljava/lang/Object;",
          "target": "invokevirtual \u003c Application, Ljava/lang/ClassLoader, loadClass(Ljava/lang/String;)Ljava/lang/Class; \u003e@15",
          "type": "",
          "constraintsFile": "constraints20_0.py",
          "variables": {
            "\u003cInput1\u003e.b().m()": "IAAv0",
            "\u003cInput1\u003e.a(\u003cInput1\u003e.b())": "IAAv1"
          },
          "stringMap": {},
          "strings": {}
        }
      ]
    }
  }
}