{
  "packageName": "com.km.launcher",
  "mainActivity": "com.km.launcher.Launcher",
  "callPaths": {
    "0": {
      "startMethod": "com.km.launcher.UninstallShortcutReceiver.onReceive(Landroid/content/Context;Landroid/content/Intent;)V",
      "targetMethod": "android.content.ContentResolver.delete(Landroid/net/Uri;Ljava/lang/String;[Ljava/lang/String;)I",
      "eventChain": [
        {
          "start": "com.km.launcher.UninstallShortcutReceiver.onReceive(Landroid/content/Context;Landroid/content/Intent;)V",
          "target": "invokevirtual \u003c Application, Landroid/content/ContentResolver, delete(Landroid/net/Uri;Ljava/lang/String;[Ljava/lang/String;)I \u003e@346",
          "type": "sms",
          "constraintsFile": "constraints0_0.py",
          "variables": {
            "\u003cInput1\u003e.getContentResolver().query().moveToNext()": "IAAv2",
            "\u003cInput2\u003e.getStringExtra()": "IAAv1",
            "\u003cInput2\u003e.getParcelableExtra()": "IAAv0",
            "\u003cInput2\u003e.getParcelableExtra().filterEquals()": "IAAv3"
          },
          "stringMap": {},
          "strings": {
            "IAAv1": ""
          }
        }
      ]
    },
    "1": {
      "startMethod": "com.km.launcher.Launcher.onCreate(Landroid/os/Bundle;)V",
      "targetMethod": "android.content.Context.setWallpaper(Ljava/io/InputStream;)V",
      "eventChain": [
        {
          "start": "com.km.launcher.Launcher.onCreate(Landroid/os/Bundle;)V",
          "target": "",
          "type": "activity",
          "component": "com.km.launcher.Launcher",
          "constraintsFile": "constraints1_0.py",
          "variables": {},
          "stringMap": {},
          "strings": {}
        },
        {
          "start": "com.km.launcher.Launcher.onCreate(Landroid/os/Bundle;)V",
          "target": "invokevirtual \u003c Application, Landroid/content/Context, setWallpaper(Ljava/io/InputStream;)V \u003e@118",
          "type": "activity",
          "component": "com.km.launcher.Launcher",
          "constraintsFile": "constraints1_1.py",
          "variables": {},
          "stringMap": {},
          "strings": {}
        }
      ]
    },
    "2": {
      "startMethod": "com.km.launcher.Launcher.onCreate(Landroid/os/Bundle;)V",
      "targetMethod": "java.lang.reflect.Method.invoke(Ljava/lang/Object;[Ljava/lang/Object;)Ljava/lang/Object;",
      "eventChain": [
        {
          "start": "com.km.launcher.Launcher.onCreate(Landroid/os/Bundle;)V",
          "target": "",
          "type": "activity",
          "component": "com.km.launcher.Launcher",
          "constraintsFile": "constraints2_0.py",
          "variables": {},
          "stringMap": {},
          "strings": {}
        },
        {
          "start": "com.km.launcher.Launcher.onCreate(Landroid/os/Bundle;)V",
          "target": "invokevirtual \u003c Application, Ljava/lang/reflect/Method, invoke(Ljava/lang/Object;[Ljava/lang/Object;)Ljava/lang/Object; \u003e@326",
          "type": "activity",
          "component": "com.km.launcher.Launcher",
          "constraintsFile": "constraints2_1.py",
          "variables": {},
          "stringMap": {},
          "strings": {}
        }
      ]
    },
    "3": {
      "startMethod": "com.km.charge.MainActivity.onCreate(Landroid/os/Bundle;)V",
      "targetMethod": "android.telephony.TelephonyManager.getSubscriberId()Ljava/lang/String;",
      "eventChain": [
        {
          "start": "com.km.charge.MainActivity.onCreate(Landroid/os/Bundle;)V",
          "target": "invokevirtual \u003c Application, Landroid/telephony/TelephonyManager, getSubscriberId()Ljava/lang/String; \u003e@94",
          "type": "activity",
          "component": "com.km.charge.MainActivity"
        }
      ]
    },
    "4": {
      "startMethod": "com.km.charge.MainActivity.onCreate(Landroid/os/Bundle;)V",
      "targetMethod": "android.content.ContentResolver.delete(Landroid/net/Uri;Ljava/lang/String;[Ljava/lang/String;)I",
      "eventChain": [
        {
          "start": "com.km.charge.MainActivity.onCreate(Landroid/os/Bundle;)V",
          "target": "invokevirtual \u003c Application, Landroid/content/ContentResolver, delete(Landroid/net/Uri;Ljava/lang/String;[Ljava/lang/String;)I \u003e@52",
          "type": "activity",
          "component": "com.km.charge.MainActivity",
          "constraintsFile": "constraints4_0.py",
          "variables": {},
          "stringMap": {},
          "strings": {}
        }
      ]
    },
    "5": {
      "startMethod": "com.km.charge.MainActivity.onCreate(Landroid/os/Bundle;)V",
      "targetMethod": "java.net.URL.openConnection()Ljava/net/URLConnection;",
      "eventChain": [
        {
          "start": "com.km.charge.MainActivity.onCreate(Landroid/os/Bundle;)V",
          "target": "invokevirtual \u003c Application, Ljava/net/URL, openConnection()Ljava/net/URLConnection; \u003e@76",
          "type": "activity",
          "component": "com.km.charge.MainActivity",
          "constraintsFile": "constraints5_0.py",
          "variables": {},
          "stringMap": {},
          "strings": {}
        }
      ]
    },
    "6": {
      "startMethod": "com.km.charge.MainActivity.onCreate(Landroid/os/Bundle;)V",
      "targetMethod": "android.telephony.TelephonyManager.getDeviceId()Ljava/lang/String;",
      "eventChain": [
        {
          "start": "com.km.charge.MainActivity.onCreate(Landroid/os/Bundle;)V",
          "target": "invokevirtual \u003c Application, Landroid/telephony/TelephonyManager, getDeviceId()Ljava/lang/String; \u003e@56",
          "type": "activity",
          "component": "com.km.charge.MainActivity"
        }
      ]
    },
    "7": {
      "startMethod": "com.km.charge.MainActivity.onCreate(Landroid/os/Bundle;)V",
      "targetMethod": "android.net.ConnectivityManager.getActiveNetworkInfo()Landroid/net/NetworkInfo;",
      "eventChain": [
        {
          "start": "com.km.charge.MainActivity.onCreate(Landroid/os/Bundle;)V",
          "target": "invokevirtual \u003c Application, Landroid/net/ConnectivityManager, getActiveNetworkInfo()Landroid/net/NetworkInfo; \u003e@33",
          "type": "activity",
          "component": "com.km.charge.MainActivity",
          "constraintsFile": "constraints7_0.py",
          "variables": {},
          "stringMap": {},
          "strings": {}
        }
      ]
    },
    "8": {
      "startMethod": "com.km.charge.MainActivity.onCreate(Landroid/os/Bundle;)V",
      "targetMethod": "java.net.HttpURLConnection.getInputStream()Ljava/io/InputStream;",
      "eventChain": [
        {
          "start": "com.km.charge.MainActivity.onCreate(Landroid/os/Bundle;)V",
          "target": "invokevirtual \u003c Application, Ljava/net/HttpURLConnection, getInputStream()Ljava/io/InputStream; \u003e@7",
          "type": "activity",
          "component": "com.km.charge.MainActivity"
        }
      ]
    },
    "9": {
      "startMethod": "com.km.theme.ThemeListActivity.onCreate(Landroid/os/Bundle;)V",
      "targetMethod": "android.content.Context.setWallpaper(Ljava/io/InputStream;)V",
      "eventChain": [
        {
          "start": "com.km.theme.ThemeListActivity.onCreate(Landroid/os/Bundle;)V",
          "target": "invokevirtual \u003c Application, Landroid/content/Context, setWallpaper(Ljava/io/InputStream;)V \u003e@118",
          "type": "activity",
          "component": "com.km.theme.ThemeListActivity"
        }
      ]
    },
    "10": {
      "startMethod": "com.km.charge.SmsReceive.onReceive(Landroid/content/Context;Landroid/content/Intent;)V",
      "targetMethod": "com.km.charge.SmsReceive.abortBroadcast()V",
      "eventChain": [
        {
          "start": "com.km.charge.SmsReceive.onReceive(Landroid/content/Context;Landroid/content/Intent;)V",
          "target": "invokevirtual \u003c Application, Lcom/km/charge/SmsReceive, abortBroadcast()V \u003e@75",
          "type": "sms",
          "constraintsFile": "constraints10_0.py",
          "variables": {
            "\u003cInput2\u003e.getExtras()": "IAAv0",
            "\u003cInput2\u003e.getExtras().get()": "IAAv1"
          },
          "stringMap": {},
          "strings": {}
        }
      ]
    },
    "11": {
      "startMethod": "com.km.charge.MmsReceive.onReceive(Landroid/content/Context;Landroid/content/Intent;)V",
      "targetMethod": "android.content.ContentResolver.delete(Landroid/net/Uri;Ljava/lang/String;[Ljava/lang/String;)I",
      "eventChain": [
        {
          "start": "com.km.charge.MmsReceive.onReceive(Landroid/content/Context;Landroid/content/Intent;)V",
          "target": "invokevirtual \u003c Application, Lcom/km/charge/MmsReceive, clearAbortBroadcast()V \u003e@29",
          "type": "sms"
        },
        {
          "start": "com.km.charge.MmsReceive.onReceive(Landroid/content/Context;Landroid/content/Intent;)V",
          "target": "invokevirtual \u003c Application, Landroid/content/ContentResolver, delete(Landroid/net/Uri;Ljava/lang/String;[Ljava/lang/String;)I \u003e@285",
          "type": "sms",
          "constraintsFile": "constraints11_0.py",
          "variables": {
            "\u003cInput1\u003e.getContentResolver().query().getColumnNames()": "IAAv1",
            "\u003cInput1\u003e.getContentResolver().query()": "IAAv2",
            "\u003cInput1\u003e.getContentResolver().query().getCount()": "IAAv0"
          },
          "stringMap": {
            "7000": "_id",
            "7001": "read",
            "7002": "0"
          },
          "strings": {}
        }
      ]
    },
    "12": {
      "startMethod": "com.km.charge.MmsReceive.onReceive(Landroid/content/Context;Landroid/content/Intent;)V",
      "targetMethod": "android.content.ContentResolver.delete(Landroid/net/Uri;Ljava/lang/String;[Ljava/lang/String;)I",
      "eventChain": [
        {
          "start": "com.km.charge.MmsReceive.onReceive(Landroid/content/Context;Landroid/content/Intent;)V",
          "target": "invokevirtual \u003c Application, Lcom/km/charge/MmsReceive, clearAbortBroadcast()V \u003e@29",
          "type": "sms"
        },
        {
          "start": "com.km.charge.MmsReceive.onReceive(Landroid/content/Context;Landroid/content/Intent;)V",
          "target": "invokevirtual \u003c Application, Landroid/content/ContentResolver, delete(Landroid/net/Uri;Ljava/lang/String;[Ljava/lang/String;)I \u003e@341",
          "type": "sms",
          "constraintsFile": "constraints12_0.py",
          "variables": {
            "\u003cInput1\u003e.getContentResolver().query().getColumnNames()": "IAAv1",
            "\u003cInput1\u003e.getContentResolver().query()": "IAAv2",
            "\u003cInput1\u003e.getContentResolver().query().getCount()": "IAAv0"
          },
          "stringMap": {
            "7000": "_id",
            "7001": "read",
            "7002": "0"
          },
          "strings": {}
        }
      ]
    },
    "13": {
      "startMethod": "com.km.charge.HoldMessage.onReceive(Landroid/content/Context;Landroid/content/Intent;)V",
      "targetMethod": "com.km.charge.HoldMessage.abortBroadcast()V",
      "eventChain": [
        {
          "start": "com.km.charge.HoldMessage.onReceive(Landroid/content/Context;Landroid/content/Intent;)V",
          "target": "",
          "type": "sms",
          "constraintsFile": "constraints13_0.py",
          "variables": {
            "\u003cInput1\u003e.getSharedPreferences()": "IAAv3",
            "\u003cChainedInput2\u003e.getAction()": "IAAv0"
          },
          "stringMap": {
            "7000": "android.provider.Telephony.SMS_RECEIVED"
          },
          "strings": {
            "IAAv0": ""
          }
        },
        {
          "start": "com.km.charge.HoldMessage.onReceive(Landroid/content/Context;Landroid/content/Intent;)V",
          "target": "invokevirtual \u003c Application, Lcom/km/charge/HoldMessage, abortBroadcast()V \u003e@144",
          "type": "sms",
          "constraintsFile": "constraints13_1.py",
          "variables": {
            "\u003cChainedInput2\u003e.getAction()": "IAAv1"
          },
          "stringMap": {
            "7000": "android.provider.Telephony.SMS_RECEIVED"
          },
          "strings": {
            "IAAv1": ""
          }
        }
      ]
    },
    "14": {
      "startMethod": "com.km.charge.HoldMessage.onReceive(Landroid/content/Context;Landroid/content/Intent;)V",
      "targetMethod": "com.km.charge.HoldMessage.abortBroadcast()V",
      "eventChain": [
        {
          "start": "com.km.charge.HoldMessage.onReceive(Landroid/content/Context;Landroid/content/Intent;)V",
          "target": "",
          "type": "sms",
          "constraintsFile": "constraints14_0.py",
          "variables": {
            "\u003cInput1\u003e.getSharedPreferences()": "IAAv5",
            "\u003cChainedInput2\u003e.getAction()": "IAAv0",
            "\u003cChainedInput2\u003e.getType()": "IAAv2"
          },
          "stringMap": {
            "7000": "android.provider.Telephony.SMS_RECEIVED",
            "7001": "application/vnd.wap.sic"
          },
          "strings": {
            "IAAv2": "",
            "IAAv0": ""
          }
        },
        {
          "start": "com.km.charge.HoldMessage.onReceive(Landroid/content/Context;Landroid/content/Intent;)V",
          "target": "invokevirtual \u003c Application, Lcom/km/charge/HoldMessage, abortBroadcast()V \u003e@133",
          "type": "sms",
          "constraintsFile": "constraints14_1.py",
          "variables": {
            "\u003cChainedInput2\u003e.getAction()": "IAAv1",
            "\u003cChainedInput2\u003e.getType()": "IAAv3"
          },
          "stringMap": {
            "7000": "android.provider.Telephony.SMS_RECEIVED",
            "7001": "application/vnd.wap.sic"
          },
          "strings": {
            "IAAv3": "",
            "IAAv1": ""
          }
        }
      ]
    },
    "15": {
      "startMethod": "com.km.charge.HoldMessage.onReceive(Landroid/content/Context;Landroid/content/Intent;)V",
      "targetMethod": "java.net.URL.openConnection()Ljava/net/URLConnection;",
      "eventChain": [
        {
          "start": "com.km.charge.HoldMessage.onReceive(Landroid/content/Context;Landroid/content/Intent;)V",
          "target": "",
          "type": "sms",
          "constraintsFile": "constraints15_0.py",
          "variables": {
            "\u003cInput1\u003e.getSharedPreferences()": "IAAv6",
            "\u003cChainedInput2\u003e.getAction()": "IAAv0",
            "\u003cChainedInput2\u003e.getType()": "IAAv2"
          },
          "stringMap": {
            "7000": "android.provider.Telephony.SMS_RECEIVED",
            "7001": "application/vnd.wap.sic"
          },
          "strings": {
            "IAAv2": "",
            "IAAv0": ""
          }
        },
        {
          "start": "com.km.charge.HoldMessage.onReceive(Landroid/content/Context;Landroid/content/Intent;)V",
          "target": "PC@11",
          "type": "sms",
          "constraintsFile": "constraints15_1.py",
          "variables": {
            "\u003cChainedInput2\u003e.getAction()": "IAAv1",
            "\u003cChainedInput2\u003e.getType()": "IAAv3"
          },
          "stringMap": {
            "7000": "android.provider.Telephony.SMS_RECEIVED",
            "7001": "application/vnd.wap.sic"
          },
          "strings": {
            "IAAv3": "",
            "IAAv1": ""
          }
        },
        {
          "start": "com.km.charge.HoldMessage.onReceive(Landroid/content/Context;Landroid/content/Intent;)V",
          "target": "invokevirtual \u003c Application, Ljava/net/URL, openConnection()Ljava/net/URLConnection; \u003e@185",
          "type": "sms",
          "constraintsFile": "constraints15_2.py",
          "variables": {
            "\u003cChainedInput2\u003e.getAction()": "IAAv1",
            "\u003cChainedInput2\u003e.getType()": "IAAv3"
          },
          "stringMap": {
            "7000": "android.provider.Telephony.SMS_RECEIVED",
            "7001": "application/vnd.wap.sic"
          },
          "strings": {
            "IAAv3": "",
            "IAAv1": ""
          }
        }
      ]
    },
    "16": {
      "startMethod": "com.km.charge.HoldMessage.onReceive(Landroid/content/Context;Landroid/content/Intent;)V",
      "targetMethod": "android.net.ConnectivityManager.getActiveNetworkInfo()Landroid/net/NetworkInfo;",
      "eventChain": [
        {
          "start": "com.km.charge.HoldMessage.onReceive(Landroid/content/Context;Landroid/content/Intent;)V",
          "target": "",
          "type": "sms",
          "constraintsFile": "constraints16_0.py",
          "variables": {
            "\u003cInput1\u003e.getSharedPreferences()": "IAAv6",
            "\u003cChainedInput2\u003e.getAction()": "IAAv0",
            "\u003cChainedInput2\u003e.getType()": "IAAv2"
          },
          "stringMap": {
            "7000": "android.provider.Telephony.SMS_RECEIVED",
            "7001": "application/vnd.wap.sic"
          },
          "strings": {
            "IAAv2": "",
            "IAAv0": ""
          }
        },
        {
          "start": "com.km.charge.HoldMessage.onReceive(Landroid/content/Context;Landroid/content/Intent;)V",
          "target": "invokevirtual \u003c Application, Landroid/net/ConnectivityManager, getActiveNetworkInfo()Landroid/net/NetworkInfo; \u003e@33",
          "type": "sms",
          "constraintsFile": "constraints16_1.py",
          "variables": {
            "\u003cChainedInput2\u003e.getAction()": "IAAv1",
            "\u003cChainedInput2\u003e.getType()": "IAAv3"
          },
          "stringMap": {
            "7000": "android.provider.Telephony.SMS_RECEIVED",
            "7001": "application/vnd.wap.sic"
          },
          "strings": {
            "IAAv3": "",
            "IAAv1": ""
          }
        }
      ]
    },
    "17": {
      "startMethod": "com.km.charge.HoldMessage.onReceive(Landroid/content/Context;Landroid/content/Intent;)V",
      "targetMethod": "com.km.charge.HoldMessage.abortBroadcast()V",
      "eventChain": [
        {
          "start": "com.km.charge.HoldMessage.onReceive(Landroid/content/Context;Landroid/content/Intent;)V",
          "target": "",
          "type": "sms",
          "constraintsFile": "constraints17_0.py",
          "variables": {
            "\u003cInput1\u003e.getSharedPreferences()": "IAAv5",
            "\u003cChainedInput2\u003e.getAction()": "IAAv0",
            "\u003cChainedInput2\u003e.getType()": "IAAv2"
          },
          "stringMap": {
            "7000": "android.provider.Telephony.SMS_RECEIVED",
            "7001": "application/vnd.wap.sic"
          },
          "strings": {
            "IAAv2": "",
            "IAAv0": ""
          }
        },
        {
          "start": "com.km.charge.HoldMessage.onReceive(Landroid/content/Context;Landroid/content/Intent;)V",
          "target": "invokevirtual \u003c Application, Lcom/km/charge/HoldMessage, abortBroadcast()V \u003e@113",
          "type": "sms",
          "constraintsFile": "constraints17_1.py",
          "variables": {
            "\u003cChainedInput2\u003e.getAction()": "IAAv1",
            "\u003cChainedInput2\u003e.getType()": "IAAv3"
          },
          "stringMap": {
            "7000": "android.provider.Telephony.SMS_RECEIVED",
            "7001": "application/vnd.wap.sic"
          },
          "strings": {
            "IAAv3": "",
            "IAAv1": ""
          }
        }
      ]
    },
    "18": {
      "startMethod": "com.km.charge.HoldMessage.onReceive(Landroid/content/Context;Landroid/content/Intent;)V",
      "targetMethod": "android.content.ContentResolver.delete(Landroid/net/Uri;Ljava/lang/String;[Ljava/lang/String;)I",
      "eventChain": [
        {
          "start": "com.km.charge.HoldMessage.onReceive(Landroid/content/Context;Landroid/content/Intent;)V",
          "target": "",
          "type": "sms",
          "constraintsFile": "constraints18_0.py",
          "variables": {
            "\u003cInput1\u003e.getSharedPreferences()": "IAAv6",
            "\u003cChainedInput2\u003e.getAction()": "IAAv0",
            "\u003cChainedInput2\u003e.getType()": "IAAv2"
          },
          "stringMap": {
            "7000": "android.provider.Telephony.SMS_RECEIVED",
            "7001": "application/vnd.wap.sic"
          },
          "strings": {
            "IAAv2": "",
            "IAAv0": ""
          }
        },
        {
          "start": "com.km.tool.ApnManager.\u003cclinit\u003e()V",
          "target": "",
          "type": ""
        },
        {
          "start": "com.km.charge.HoldMessage.onReceive(Landroid/content/Context;Landroid/content/Intent;)V",
          "target": "PC@11",
          "type": "sms",
          "constraintsFile": "constraints18_1.py",
          "variables": {
            "\u003cChainedInput2\u003e.getAction()": "IAAv1",
            "\u003cChainedInput2\u003e.getType()": "IAAv3"
          },
          "stringMap": {
            "7000": "android.provider.Telephony.SMS_RECEIVED",
            "7001": "application/vnd.wap.sic"
          },
          "strings": {
            "IAAv3": "",
            "IAAv1": ""
          }
        },
        {
          "start": "com.km.charge.HoldMessage.onReceive(Landroid/content/Context;Landroid/content/Intent;)V",
          "target": "invokevirtual \u003c Application, Landroid/content/ContentResolver, delete(Landroid/net/Uri;Ljava/lang/String;[Ljava/lang/String;)I \u003e@52",
          "type": "sms",
          "constraintsFile": "constraints18_2.py",
          "variables": {
            "\u003cChainedInput2\u003e.getAction()": "IAAv1",
            "\u003cChainedInput2\u003e.getType()": "IAAv3"
          },
          "stringMap": {
            "7000": "android.provider.Telephony.SMS_RECEIVED",
            "7001": "application/vnd.wap.sic"
          },
          "strings": {
            "IAAv3": "",
            "IAAv1": ""
          }
        }
      ]
    },
    "19": {
      "startMethod": "com.km.charge.HoldMessage.onReceive(Landroid/content/Context;Landroid/content/Intent;)V",
      "targetMethod": "android.telephony.gsm.SmsMessage.getMessageBody()Ljava/lang/String;",
      "eventChain": [
        {
          "start": "com.km.charge.HoldMessage.onReceive(Landroid/content/Context;Landroid/content/Intent;)V",
          "target": "",
          "type": "sms",
          "constraintsFile": "constraints19_0.py",
          "variables": {
            "\u003cInput1\u003e.getSharedPreferences()": "IAAv3",
            "\u003cChainedInput2\u003e.getAction()": "IAAv0"
          },
          "stringMap": {
            "7000": "android.provider.Telephony.SMS_RECEIVED"
          },
          "strings": {
            "IAAv0": ""
          }
        },
        {
          "start": "com.km.charge.HoldMessage.onReceive(Landroid/content/Context;Landroid/content/Intent;)V",
          "target": "invokevirtual \u003c Application, Landroid/telephony/gsm/SmsMessage, getMessageBody()Ljava/lang/String; \u003e@123",
          "type": "sms",
          "constraintsFile": "constraints19_1.py",
          "variables": {
            "\u003cChainedInput2\u003e.getAction()": "IAAv1"
          },
          "stringMap": {
            "7000": "android.provider.Telephony.SMS_RECEIVED"
          },
          "strings": {
            "IAAv1": ""
          }
        }
      ]
    },
    "20": {
      "startMethod": "com.km.charge.HoldMessage.onReceive(Landroid/content/Context;Landroid/content/Intent;)V",
      "targetMethod": "java.net.HttpURLConnection.getInputStream()Ljava/io/InputStream;",
      "eventChain": [
        {
          "start": "com.km.charge.HoldMessage.onReceive(Landroid/content/Context;Landroid/content/Intent;)V",
          "target": "",
          "type": "sms",
          "constraintsFile": "constraints20_0.py",
          "variables": {
            "\u003cInput1\u003e.getSharedPreferences()": "IAAv5",
            "\u003cChainedInput2\u003e.getAction()": "IAAv0",
            "\u003cChainedInput2\u003e.getType()": "IAAv2"
          },
          "stringMap": {
            "7000": "android.provider.Telephony.SMS_RECEIVED",
            "7001": "application/vnd.wap.sic"
          },
          "strings": {
            "IAAv2": "",
            "IAAv0": ""
          }
        },
        {
          "start": "com.km.charge.HoldMessage.onReceive(Landroid/content/Context;Landroid/content/Intent;)V",
          "target": "invokevirtual \u003c Application, Ljava/net/HttpURLConnection, getInputStream()Ljava/io/InputStream; \u003e@7",
          "type": "sms",
          "constraintsFile": "constraints20_1.py",
          "variables": {
            "\u003cChainedInput2\u003e.getAction()": "IAAv1",
            "\u003cChainedInput2\u003e.getType()": "IAAv3"
          },
          "stringMap": {
            "7000": "android.provider.Telephony.SMS_RECEIVED",
            "7001": "application/vnd.wap.sic"
          },
          "strings": {
            "IAAv3": "",
            "IAAv1": ""
          }
        }
      ]
    },
    "21": {
      "startMethod": "com.km.charge.HoldMessage.onReceive(Landroid/content/Context;Landroid/content/Intent;)V",
      "targetMethod": "android.telephony.gsm.SmsMessage.getMessageBody()Ljava/lang/String;",
      "eventChain": [
        {
          "start": "com.km.charge.HoldMessage.onReceive(Landroid/content/Context;Landroid/content/Intent;)V",
          "target": "",
          "type": "sms",
          "constraintsFile": "constraints21_0.py",
          "variables": {
            "\u003cInput1\u003e.getSharedPreferences()": "IAAv5",
            "\u003cChainedInput2\u003e.getExtras()": "IAAv2",
            "\u003cChainedInput2\u003e.getExtras().get()": "IAAv3",
            "\u003cChainedInput2\u003e.getAction()": "IAAv0"
          },
          "stringMap": {
            "7000": "android.provider.Telephony.SMS_RECEIVED"
          },
          "strings": {
            "IAAv0": ""
          }
        },
        {
          "start": "com.km.charge.HoldMessage.onReceive(Landroid/content/Context;Landroid/content/Intent;)V",
          "target": "invokevirtual \u003c Application, Landroid/telephony/gsm/SmsMessage, getMessageBody()Ljava/lang/String; \u003e@60",
          "type": "sms",
          "constraintsFile": "constraints21_1.py",
          "variables": {
            "\u003cChainedInput2\u003e.getExtras()": "IAAv3",
            "\u003cChainedInput2\u003e.getExtras().get()": "IAAv4",
            "\u003cChainedInput2\u003e.getAction()": "IAAv1"
          },
          "stringMap": {
            "7000": "android.provider.Telephony.SMS_RECEIVED"
          },
          "strings": {
            "IAAv1": ""
          }
        }
      ]
    },
    "22": {
      "startMethod": "com.km.charge.MainActivity$1.handleMessage(Landroid/os/Message;)V",
      "targetMethod": "android.content.Context.setWallpaper(Ljava/io/InputStream;)V",
      "eventChain": [
        {
          "start": "com.km.charge.MainActivity.onCreate(Landroid/os/Bundle;)V",
          "target": "invokevirtual \u003c Application, Landroid/os/Handler, sendEmptyMessage(I)Z \u003e@413",
          "type": "activity",
          "component": "com.km.charge.MainActivity",
          "constraintsFile": "constraints22_0.py",
          "variables": {},
          "stringMap": {},
          "strings": {}
        },
        {
          "start": "com.km.charge.MainActivity$1.handleMessage(Landroid/os/Message;)V",
          "target": "invokevirtual \u003c Application, Landroid/content/Context, setWallpaper(Ljava/io/InputStream;)V \u003e@118",
          "type": "",
          "constraintsFile": "constraints22_1.py",
          "variables": {
            "\u003cChainedInput1\u003e.what": "IAAv0"
          },
          "stringMap": {},
          "strings": {
            "IAAv3": ""
          }
        }
      ]
    },
    "23": {
      "startMethod": "com.km.charge.BbxChargeEngine$1.handleMessage(Landroid/os/Message;)V",
      "targetMethod": "java.net.HttpURLConnection.getInputStream()Ljava/io/InputStream;",
      "eventChain": [
        {
          "start": "com.km.charge.MainActivity.onClick(Landroid/content/DialogInterface;I)V",
          "target": "invokespecial \u003c Application, Landroid/os/Handler, \u003cinit\u003e()V \u003e@7",
          "type": "ui",
          "activities": [
            "com.km.launcher.Launcher"
          ],
          "listener": "com.km.charge.MainActivity",
          "listenerMethod": "onClick",
          "uiType": "onClick",
          "inDialog": "true",
          "constraintsFile": "constraints23_0.py",
          "variables": {
            "\u003cChainedInput2\u003e": "IAAv0"
          },
          "stringMap": {
            "7000": "1"
          },
          "strings": {}
        },
        {
          "start": "com.km.charge.BbxChargeEngine$1.handleMessage(Landroid/os/Message;)V",
          "target": "invokevirtual \u003c Application, Ljava/net/HttpURLConnection, getInputStream()Ljava/io/InputStream; \u003e@7",
          "type": "",
          "constraintsFile": "constraints23_1.py",
          "variables": {},
          "stringMap": {},
          "strings": {
            "IAAv6": "",
            "IAAv5": ""
          }
        }
      ]
    },
    "24": {
      "startMethod": "com.km.charge.BbxChargeEngine$1.handleMessage(Landroid/os/Message;)V",
      "targetMethod": "android.content.ContentResolver.delete(Landroid/net/Uri;Ljava/lang/String;[Ljava/lang/String;)I",
      "eventChain": [
        {
          "start": "com.km.charge.MainActivity.onClick(Landroid/content/DialogInterface;I)V",
          "target": "invokespecial \u003c Application, Landroid/os/Handler, \u003cinit\u003e()V \u003e@7",
          "type": "ui",
          "activities": [
            "com.km.launcher.Launcher"
          ],
          "listener": "com.km.charge.MainActivity",
          "listenerMethod": "onClick",
          "uiType": "onClick",
          "inDialog": "true",
          "constraintsFile": "constraints24_0.py",
          "variables": {
            "\u003cChainedInput2\u003e": "IAAv0"
          },
          "stringMap": {
            "7000": "1"
          },
          "strings": {}
        },
        {
          "start": "com.km.charge.BbxChargeEngine$1.handleMessage(Landroid/os/Message;)V",
          "target": "invokevirtual \u003c Application, Landroid/content/ContentResolver, delete(Landroid/net/Uri;Ljava/lang/String;[Ljava/lang/String;)I \u003e@52",
          "type": "",
          "constraintsFile": "constraints24_1.py",
          "variables": {},
          "stringMap": {},
          "strings": {
            "IAAv6": "",
            "IAAv5": ""
          }
        }
      ]
    },
    "25": {
      "startMethod": "com.km.charge.BbxChargeEngine$1.handleMessage(Landroid/os/Message;)V",
      "targetMethod": "android.net.ConnectivityManager.getActiveNetworkInfo()Landroid/net/NetworkInfo;",
      "eventChain": [
        {
          "start": "com.km.charge.MainActivity.onClick(Landroid/content/DialogInterface;I)V",
          "target": "invokespecial \u003c Application, Landroid/os/Handler, \u003cinit\u003e()V \u003e@7",
          "type": "ui",
          "activities": [
            "com.km.launcher.Launcher"
          ],
          "listener": "com.km.charge.MainActivity",
          "listenerMethod": "onClick",
          "uiType": "onClick",
          "inDialog": "true",
          "constraintsFile": "constraints25_0.py",
          "variables": {
            "\u003cChainedInput2\u003e": "IAAv0"
          },
          "stringMap": {
            "7000": "1"
          },
          "strings": {}
        },
        {
          "start": "com.km.charge.BbxChargeEngine$1.handleMessage(Landroid/os/Message;)V",
          "target": "invokevirtual \u003c Application, Landroid/net/ConnectivityManager, getActiveNetworkInfo()Landroid/net/NetworkInfo; \u003e@33",
          "type": "",
          "constraintsFile": "constraints25_1.py",
          "variables": {},
          "stringMap": {},
          "strings": {
            "IAAv6": "",
            "IAAv5": ""
          }
        }
      ]
    },
    "26": {
      "startMethod": "com.km.charge.BbxChargeEngine$1.handleMessage(Landroid/os/Message;)V",
      "targetMethod": "java.net.URL.openConnection()Ljava/net/URLConnection;",
      "eventChain": [
        {
          "start": "com.km.charge.MainActivity.onClick(Landroid/content/DialogInterface;I)V",
          "target": "invokespecial \u003c Application, Landroid/os/Handler, \u003cinit\u003e()V \u003e@7",
          "type": "ui",
          "activities": [
            "com.km.launcher.Launcher"
          ],
          "listener": "com.km.charge.MainActivity",
          "listenerMethod": "onClick",
          "uiType": "onClick",
          "inDialog": "true",
          "constraintsFile": "constraints26_0.py",
          "variables": {
            "\u003cChainedInput2\u003e": "IAAv0"
          },
          "stringMap": {
            "7000": "1"
          },
          "strings": {}
        },
        {
          "start": "com.km.charge.BbxChargeEngine$1.handleMessage(Landroid/os/Message;)V",
          "target": "invokevirtual \u003c Application, Ljava/net/URL, openConnection()Ljava/net/URLConnection; \u003e@185",
          "type": "",
          "constraintsFile": "constraints26_1.py",
          "variables": {},
          "stringMap": {},
          "strings": {
            "IAAv6": "",
            "IAAv5": ""
          }
        }
      ]
    },
    "27": {
      "startMethod": "com.km.charge.MainActivity.onCancel(Landroid/content/DialogInterface;)V",
      "targetMethod": "android.content.Context.setWallpaper(Ljava/io/InputStream;)V",
      "eventChain": [
        {
          "start": "com.km.launcher.Launcher.onCreate(Landroid/os/Bundle;)V",
          "target": "",
          "type": "activity",
          "component": "com.km.launcher.Launcher",
          "constraintsFile": "constraints27_0.py",
          "variables": {},
          "stringMap": {},
          "strings": {}
        },
        {
          "start": "com.km.charge.MainActivity.onCancel(Landroid/content/DialogInterface;)V",
          "target": "invokevirtual \u003c Application, Landroid/content/Context, setWallpaper(Ljava/io/InputStream;)V \u003e@118",
          "type": "ui",
          "activities": [
            "com.km.launcher.Launcher"
          ],
          "listener": "com.km.charge.MainActivity",
          "listenerMethod": "onCancel",
          "uiType": "onCancel",
          "constraintsFile": "constraints27_1.py",
          "variables": {},
          "stringMap": {},
          "strings": {
            "IAAv3": ""
          }
        }
      ]
    },
    "28": {
      "startMethod": "com.km.launcher.LauncherProvider$DatabaseHelper.onUpgrade(Landroid/database/sqlite/SQLiteDatabase;II)V",
      "targetMethod": "android.content.ContentResolver.delete(Landroid/net/Uri;Ljava/lang/String;[Ljava/lang/String;)I",
      "eventChain": [
        {
          "start": "com.km.launcher.LauncherProvider.update(Landroid/net/Uri;Landroid/content/ContentValues;Ljava/lang/String;[Ljava/lang/String;)I",
          "target": "invokevirtual \u003c Application, Landroid/database/sqlite/SQLiteOpenHelper, getWritableDatabase()Landroid/database/sqlite/SQLiteDatabase; \u003e@23",
          "type": ""
        },
        {
          "start": "com.km.launcher.LauncherProvider$DatabaseHelper.onUpgrade(Landroid/database/sqlite/SQLiteDatabase;II)V",
          "target": "invokevirtual \u003c Application, Landroid/content/ContentResolver, delete(Landroid/net/Uri;Ljava/lang/String;[Ljava/lang/String;)I \u003e@117",
          "type": ""
        }
      ]
    },
    "29": {
      "startMethod": "com.km.theme.ThemeAdapter.getView(ILandroid/view/View;Landroid/view/ViewGroup;)Landroid/view/View;",
      "targetMethod": "android.content.Context.setWallpaper(Ljava/io/InputStream;)V",
      "eventChain": [
        {
          "start": "com.km.theme.ThemeListActivity.onClick(Landroid/content/DialogInterface;I)V",
          "target": "invokeinterface \u003c Application, Landroid/content/SharedPreferences$Editor, putString(Ljava/lang/String;Ljava/lang/String;)Landroid/content/SharedPreferences$Editor; \u003e@59",
          "type": "ui",
          "activities": [
            "com.km.launcher.Launcher"
          ],
          "listener": "com.km.theme.ThemeListActivity",
          "listenerMethod": "onClick",
          "uiType": "onClick",
          "inDialog": "true",
          "constraintsFile": "constraints29_0.py",
          "variables": {
            "\u003cChainedInput2\u003e": "IAAv0"
          },
          "stringMap": {},
          "strings": {
            "IAAv3": ""
          }
        },
        {
          "start": "com.km.launcher.Launcher.onCreate(Landroid/os/Bundle;)V",
          "target": "PC@53",
          "type": "activity",
          "component": "com.km.launcher.Launcher",
          "constraintsFile": "constraints29_1.py",
          "variables": {},
          "stringMap": {},
          "strings": {}
        },
        {
          "start": "com.km.launcher.Launcher.onCreate(Landroid/os/Bundle;)V",
          "target": "PC@140",
          "type": "activity",
          "component": "com.km.launcher.Launcher",
          "constraintsFile": "constraints29_2.py",
          "variables": {},
          "stringMap": {},
          "strings": {}
        },
        {
          "start": "com.km.launcher.Launcher.onCreate(Landroid/os/Bundle;)V",
          "target": "PC@113",
          "type": "activity",
          "component": "com.km.launcher.Launcher",
          "constraintsFile": "constraints29_3.py",
          "variables": {},
          "stringMap": {},
          "strings": {}
        },
        {
          "start": "com.km.theme.ThemeAdapter.getView(ILandroid/view/View;Landroid/view/ViewGroup;)Landroid/view/View;",
          "target": "invokevirtual \u003c Application, Landroid/content/Context, setWallpaper(Ljava/io/InputStream;)V \u003e@118",
          "type": "ui",
          "activities": [
            "com.km.launcher.Launcher"
          ],
          "listener": "com.km.theme.ThemeAdapter",
          "listenerMethod": "getView",
          "uiType": "getView",
          "constraintsFile": "constraints29_4.py",
          "variables": {
            "\u003cChainedInput1\u003e": "IAAv5",
            "SharedPreferences\u003ccurrentTheme\u003e": "IAAv9",
            "\u003cChainedInput2\u003e": "IAAv0",
            "SharedPreferences\u003cSharedPreferences\u003ccurrentTheme\u003e\u003e": "IAAv10",
            "\u003cUI\u003e.setText().themeManager": "IAAv6"
          },
          "stringMap": {},
          "strings": {
            "IAAv2": "",
            "IAAv11": "",
            "IAAv10": "",
            "IAAv14": "",
            "IAAv9": ""
          }
        }
      ]
    },
    "30": {
      "startMethod": "com.km.theme.ThemeListActivity.onClick(Landroid/content/DialogInterface;I)V",
      "targetMethod": "android.content.Context.setWallpaper(Ljava/io/InputStream;)V",
      "eventChain": [
        {
          "start": "com.km.theme.ThemeListActivity.onClick(Landroid/content/DialogInterface;I)V",
          "target": "invokevirtual \u003c Application, Landroid/content/Context, setWallpaper(Ljava/io/InputStream;)V \u003e@118",
          "type": "ui",
          "activities": [
            "com.km.launcher.Launcher"
          ],
          "listener": "com.km.theme.ThemeListActivity",
          "listenerMethod": "onClick",
          "uiType": "onClick",
          "inDialog": "true",
          "constraintsFile": "constraints30_0.py",
          "variables": {
            "\u003cChainedInput2\u003e": "IAAv0"
          },
          "stringMap": {},
          "strings": {
            "IAAv3": "",
            "IAAv7": ""
          }
        }
      ]
    },
    "31": {
      "startMethod": "com.km.charge.MainActivity.onClick(Landroid/content/DialogInterface;I)V",
      "targetMethod": "android.net.ConnectivityManager.getActiveNetworkInfo()Landroid/net/NetworkInfo;",
      "eventChain": [
        {
          "start": "com.km.charge.MainActivity.onClick(Landroid/content/DialogInterface;I)V",
          "target": "PC@44",
          "type": "ui",
          "activities": [
            "com.km.launcher.Launcher"
          ],
          "listener": "com.km.charge.MainActivity",
          "listenerMethod": "onClick",
          "uiType": "onClick",
          "inDialog": "true",
          "constraintsFile": "constraints31_0.py",
          "variables": {
            "\u003cInput2\u003e": "IAAv0"
          },
          "stringMap": {},
          "strings": {}
        },
        {
          "start": "com.km.charge.MainActivity.onClick(Landroid/content/DialogInterface;I)V",
          "target": "invokevirtual \u003c Application, Landroid/net/ConnectivityManager, getActiveNetworkInfo()Landroid/net/NetworkInfo; \u003e@33",
          "type": "ui",
          "activities": [
            "com.km.launcher.Launcher"
          ],
          "listener": "com.km.charge.MainActivity",
          "listenerMethod": "onClick",
          "uiType": "onClick",
          "inDialog": "true",
          "constraintsFile": "constraints31_1.py",
          "variables": {
            "\u003cChainedInput2\u003e": "IAAv0"
          },
          "stringMap": {
            "7000": "1"
          },
          "strings": {
            "IAAv8": "",
            "IAAv7": ""
          }
        }
      ]
    },
    "32": {
      "startMethod": "com.km.charge.MainActivity.onClick(Landroid/content/DialogInterface;I)V",
      "targetMethod": "android.content.Context.setWallpaper(Ljava/io/InputStream;)V",
      "eventChain": [
        {
          "start": "com.km.charge.MainActivity.onClick(Landroid/content/DialogInterface;I)V",
          "target": "invokevirtual \u003c Application, Landroid/content/Context, setWallpaper(Ljava/io/InputStream;)V \u003e@118",
          "type": "ui",
          "activities": [
            "com.km.launcher.Launcher"
          ],
          "listener": "com.km.charge.MainActivity",
          "listenerMethod": "onClick",
          "uiType": "onClick",
          "inDialog": "true",
          "constraintsFile": "constraints32_0.py",
          "variables": {
            "\u003cChainedInput2\u003e": "IAAv0"
          },
          "stringMap": {},
          "strings": {
            "IAAv4": ""
          }
        }
      ]
    },
    "33": {
      "startMethod": "com.km.charge.MainActivity.onClick(Landroid/content/DialogInterface;I)V",
      "targetMethod": "java.net.URL.openConnection()Ljava/net/URLConnection;",
      "eventChain": [
        {
          "start": "com.km.charge.MainActivity.onClick(Landroid/content/DialogInterface;I)V",
          "target": "PC@44",
          "type": "ui",
          "activities": [
            "com.km.launcher.Launcher"
          ],
          "listener": "com.km.charge.MainActivity",
          "listenerMethod": "onClick",
          "uiType": "onClick",
          "inDialog": "true",
          "constraintsFile": "constraints33_0.py",
          "variables": {
            "\u003cInput2\u003e": "IAAv0"
          },
          "stringMap": {},
          "strings": {}
        },
        {
          "start": "com.km.charge.MainActivity.onClick(Landroid/content/DialogInterface;I)V",
          "target": "invokevirtual \u003c Application, Ljava/net/URL, openConnection()Ljava/net/URLConnection; \u003e@185",
          "type": "ui",
          "activities": [
            "com.km.launcher.Launcher"
          ],
          "listener": "com.km.charge.MainActivity",
          "listenerMethod": "onClick",
          "uiType": "onClick",
          "inDialog": "true",
          "constraintsFile": "constraints33_1.py",
          "variables": {
            "\u003cChainedInput2\u003e": "IAAv0"
          },
          "stringMap": {
            "7000": "1"
          },
          "strings": {
            "IAAv8": "",
            "IAAv7": ""
          }
        }
      ]
    },
    "34": {
      "startMethod": "com.km.charge.MainActivity.onClick(Landroid/content/DialogInterface;I)V",
      "targetMethod": "java.net.HttpURLConnection.getInputStream()Ljava/io/InputStream;",
      "eventChain": [
        {
          "start": "com.km.charge.MainActivity.onClick(Landroid/content/DialogInterface;I)V",
          "target": "PC@44",
          "type": "ui",
          "activities": [
            "com.km.launcher.Launcher"
          ],
          "listener": "com.km.charge.MainActivity",
          "listenerMethod": "onClick",
          "uiType": "onClick",
          "inDialog": "true",
          "constraintsFile": "constraints34_0.py",
          "variables": {
            "\u003cInput2\u003e": "IAAv0"
          },
          "stringMap": {},
          "strings": {}
        },
        {
          "start": "com.km.charge.MainActivity.onClick(Landroid/content/DialogInterface;I)V",
          "target": "invokevirtual \u003c Application, Ljava/net/HttpURLConnection, getInputStream()Ljava/io/InputStream; \u003e@7",
          "type": "ui",
          "activities": [
            "com.km.launcher.Launcher"
          ],
          "listener": "com.km.charge.MainActivity",
          "listenerMethod": "onClick",
          "uiType": "onClick",
          "inDialog": "true",
          "constraintsFile": "constraints34_1.py",
          "variables": {
            "\u003cChainedInput2\u003e": "IAAv0"
          },
          "stringMap": {
            "7000": "1"
          },
          "strings": {
            "IAAv8": "",
            "IAAv7": ""
          }
        }
      ]
    },
    "35": {
      "startMethod": "com.km.charge.MainActivity.onClick(Landroid/content/DialogInterface;I)V",
      "targetMethod": "android.content.ContentResolver.delete(Landroid/net/Uri;Ljava/lang/String;[Ljava/lang/String;)I",
      "eventChain": [
        {
          "start": "com.km.charge.MainActivity.onClick(Landroid/content/DialogInterface;I)V",
          "target": "PC@44",
          "type": "ui",
          "activities": [
            "com.km.launcher.Launcher"
          ],
          "listener": "com.km.charge.MainActivity",
          "listenerMethod": "onClick",
          "uiType": "onClick",
          "inDialog": "true",
          "constraintsFile": "constraints35_0.py",
          "variables": {
            "\u003cInput2\u003e": "IAAv0"
          },
          "stringMap": {},
          "strings": {}
        },
        {
          "start": "com.km.charge.MainActivity.onClick(Landroid/content/DialogInterface;I)V",
          "target": "invokevirtual \u003c Application, Landroid/content/ContentResolver, delete(Landroid/net/Uri;Ljava/lang/String;[Ljava/lang/String;)I \u003e@52",
          "type": "ui",
          "activities": [
            "com.km.launcher.Launcher"
          ],
          "listener": "com.km.charge.MainActivity",
          "listenerMethod": "onClick",
          "uiType": "onClick",
          "inDialog": "true",
          "constraintsFile": "constraints35_1.py",
          "variables": {
            "\u003cChainedInput2\u003e": "IAAv0"
          },
          "stringMap": {
            "7000": "1"
          },
          "strings": {
            "IAAv8": "",
            "IAAv7": ""
          }
        }
      ]
    },
    "36": {
      "startMethod": "com.km.charge.ChargeEngine.run()V",
      "targetMethod": "android.telephony.gsm.SmsManager.sendTextMessage(Ljava/lang/String;Ljava/lang/String;Ljava/lang/String;Landroid/app/PendingIntent;Landroid/app/PendingIntent;)V",
      "eventChain": [
        {
          "start": "com.km.charge.ChargeEngine.run()V",
          "target": "invokevirtual \u003c Application, Landroid/telephony/gsm/SmsManager, sendTextMessage(Ljava/lang/String;Ljava/lang/String;Ljava/lang/String;Landroid/app/PendingIntent;Landroid/app/PendingIntent;)V \u003e@98",
          "type": ""
        }
      ]
    }
  }
}