{
  "packageName": "com.kidssongsstudios.toddlersongschildrensongs",
  "mainActivity": "com.kidssongsstudios.toddlersongschildrensongs.toddlersongschildrensongs",
  "callPaths": {
    "0": {
      "startMethod": "com.kidssongsstudios.toddlersongschildrensongs.AdsActivity.onCreate(Landroid/os/Bundle;)V",
      "targetMethod": "dalvik.system.DexClassLoader.loadClass(Ljava/lang/String;)Ljava/lang/Class;",
      "eventChain": [
        {
          "start": "com.kidssongsstudios.toddlersongschildrensongs.AdsActivity.onCreate(Landroid/os/Bundle;)V",
          "target": "PC@29",
          "type": "activity",
          "component": "com.kidssongsstudios.toddlersongschildrensongs.AdsActivity",
          "constraintsFile": "constraints0_0.py",
          "variables": {},
          "stringMap": {},
          "strings": {
            "IAAv1": ""
          }
        },
        {
          "start": "com.kidssongsstudios.toddlersongschildrensongs.AdsActivity.onCreate(Landroid/os/Bundle;)V",
          "target": "invokevirtual \u003c Application, Ldalvik/system/DexClassLoader, loadClass(Ljava/lang/String;)Ljava/lang/Class; \u003e@206",
          "type": "activity",
          "component": "com.kidssongsstudios.toddlersongschildrensongs.AdsActivity",
          "constraintsFile": "constraints0_1.py",
          "variables": {},
          "stringMap": {},
          "strings": {
            "IAAv1": ""
          }
        }
      ]
    },
    "1": {
      "startMethod": "com.kidssongsstudios.toddlersongschildrensongs.AdsActivity.onCreate(Landroid/os/Bundle;)V",
      "targetMethod": "java.lang.ClassLoader.loadClass(Ljava/lang/String;)Ljava/lang/Class;",
      "eventChain": [
        {
          "start": "com.kidssongsstudios.toddlersongschildrensongs.AdsActivity.onCreate(Landroid/os/Bundle;)V",
          "target": "invokevirtual \u003c Application, Ljava/lang/ClassLoader, loadClass(Ljava/lang/String;)Ljava/lang/Class; \u003e@50",
          "type": "activity",
          "component": "com.kidssongsstudios.toddlersongschildrensongs.AdsActivity",
          "constraintsFile": "constraints1_0.py",
          "variables": {},
          "stringMap": {},
          "strings": {
            "IAAv1": ""
          }
        }
      ]
    },
    "2": {
      "startMethod": "com.kidssongsstudios.toddlersongschildrensongs.AdsActivity.onCreate(Landroid/os/Bundle;)V",
      "targetMethod": "java.lang.reflect.Method.invoke(Ljava/lang/Object;[Ljava/lang/Object;)Ljava/lang/Object;",
      "eventChain": [
        {
          "start": "com.kidssongsstudios.toddlersongschildrensongs.AdsActivity.onCreate(Landroid/os/Bundle;)V",
          "target": "PC@29",
          "type": "activity",
          "component": "com.kidssongsstudios.toddlersongschildrensongs.AdsActivity",
          "constraintsFile": "constraints2_0.py",
          "variables": {},
          "stringMap": {},
          "strings": {
            "IAAv1": ""
          }
        },
        {
          "start": "com.kidssongsstudios.toddlersongschildrensongs.AdsActivity.onCreate(Landroid/os/Bundle;)V",
          "target": "invokevirtual \u003c Application, Ljava/lang/reflect/Method, invoke(Ljava/lang/Object;[Ljava/lang/Object;)Ljava/lang/Object; \u003e@35",
          "type": "activity",
          "component": "com.kidssongsstudios.toddlersongschildrensongs.AdsActivity",
          "constraintsFile": "constraints2_1.py",
          "variables": {},
          "stringMap": {},
          "strings": {
            "IAAv1": ""
          }
        }
      ]
    },
    "3": {
      "startMethod": "com.kidssongsstudios.toddlersongschildrensongs.AdsActivity.onCreate(Landroid/os/Bundle;)V",
      "targetMethod": "dalvik.system.DexClassLoader.loadClass(Ljava/lang/String;)Ljava/lang/Class;",
      "eventChain": [
        {
          "start": "com.kidssongsstudios.toddlersongschildrensongs.AdsActivity.onCreate(Landroid/os/Bundle;)V",
          "target": "PC@29",
          "type": "activity",
          "component": "com.kidssongsstudios.toddlersongschildrensongs.AdsActivity",
          "constraintsFile": "constraints3_0.py",
          "variables": {},
          "stringMap": {},
          "strings": {
            "IAAv1": ""
          }
        },
        {
          "start": "com.kidssongsstudios.toddlersongschildrensongs.AdsActivity.onCreate(Landroid/os/Bundle;)V",
          "target": "invokevirtual \u003c Application, Ldalvik/system/DexClassLoader, loadClass(Ljava/lang/String;)Ljava/lang/Class; \u003e@248",
          "type": "activity",
          "component": "com.kidssongsstudios.toddlersongschildrensongs.AdsActivity",
          "constraintsFile": "constraints3_1.py",
          "variables": {},
          "stringMap": {},
          "strings": {
            "IAAv1": ""
          }
        }
      ]
    },
    "4": {
      "startMethod": "com.kidssongsstudios.toddlersongschildrensongs.AdsActivity.onCreate(Landroid/os/Bundle;)V",
      "targetMethod": "dalvik.system.DexClassLoader.loadClass(Ljava/lang/String;)Ljava/lang/Class;",
      "eventChain": [
        {
          "start": "com.kidssongsstudios.toddlersongschildrensongs.AdsActivity.onCreate(Landroid/os/Bundle;)V",
          "target": "PC@29",
          "type": "activity",
          "component": "com.kidssongsstudios.toddlersongschildrensongs.AdsActivity",
          "constraintsFile": "constraints4_0.py",
          "variables": {},
          "stringMap": {},
          "strings": {
            "IAAv1": ""
          }
        },
        {
          "start": "com.kidssongsstudios.toddlersongschildrensongs.AdsActivity.onCreate(Landroid/os/Bundle;)V",
          "target": "invokevirtual \u003c Application, Ldalvik/system/DexClassLoader, loadClass(Ljava/lang/String;)Ljava/lang/Class; \u003e@227",
          "type": "activity",
          "component": "com.kidssongsstudios.toddlersongschildrensongs.AdsActivity",
          "constraintsFile": "constraints4_1.py",
          "variables": {},
          "stringMap": {},
          "strings": {
            "IAAv1": ""
          }
        }
      ]
    },
    "5": {
      "startMethod": "com.kidssongsstudios.toddlersongschildrensongs.AdsActivity.onCreate(Landroid/os/Bundle;)V",
      "targetMethod": "dalvik.system.DexClassLoader.loadClass(Ljava/lang/String;)Ljava/lang/Class;",
      "eventChain": [
        {
          "start": "com.kidssongsstudios.toddlersongschildrensongs.AdsActivity.onCreate(Landroid/os/Bundle;)V",
          "target": "PC@29",
          "type": "activity",
          "component": "com.kidssongsstudios.toddlersongschildrensongs.AdsActivity",
          "constraintsFile": "constraints5_0.py",
          "variables": {},
          "stringMap": {},
          "strings": {
            "IAAv1": ""
          }
        },
        {
          "start": "com.kidssongsstudios.toddlersongschildrensongs.AdsActivity.onCreate(Landroid/os/Bundle;)V",
          "target": "invokevirtual \u003c Application, Ldalvik/system/DexClassLoader, loadClass(Ljava/lang/String;)Ljava/lang/Class; \u003e@185",
          "type": "activity",
          "component": "com.kidssongsstudios.toddlersongschildrensongs.AdsActivity",
          "constraintsFile": "constraints5_1.py",
          "variables": {},
          "stringMap": {},
          "strings": {
            "IAAv1": ""
          }
        }
      ]
    },
    "6": {
      "startMethod": "com.kidssongsstudios.toddlersongschildrensongs.AdsActivity.onCreate(Landroid/os/Bundle;)V",
      "targetMethod": "dalvik.system.DexClassLoader.loadClass(Ljava/lang/String;)Ljava/lang/Class;",
      "eventChain": [
        {
          "start": "com.kidssongsstudios.toddlersongschildrensongs.AdsActivity.onCreate(Landroid/os/Bundle;)V",
          "target": "PC@29",
          "type": "activity",
          "component": "com.kidssongsstudios.toddlersongschildrensongs.AdsActivity",
          "constraintsFile": "constraints6_0.py",
          "variables": {},
          "stringMap": {},
          "strings": {
            "IAAv1": ""
          }
        },
        {
          "start": "com.kidssongsstudios.toddlersongschildrensongs.AdsActivity.onCreate(Landroid/os/Bundle;)V",
          "target": "invokevirtual \u003c Application, Ldalvik/system/DexClassLoader, loadClass(Ljava/lang/String;)Ljava/lang/Class; \u003e@269",
          "type": "activity",
          "component": "com.kidssongsstudios.toddlersongschildrensongs.AdsActivity",
          "constraintsFile": "constraints6_1.py",
          "variables": {},
          "stringMap": {},
          "strings": {
            "IAAv1": ""
          }
        }
      ]
    },
    "7": {
      "startMethod": "com.kidssongsstudios.toddlersongschildrensongs.AdsActivity.onCreate(Landroid/os/Bundle;)V",
      "targetMethod": "dalvik.system.DexClassLoader.loadClass(Ljava/lang/String;)Ljava/lang/Class;",
      "eventChain": [
        {
          "start": "com.kidssongsstudios.toddlersongschildrensongs.AdsActivity.onCreate(Landroid/os/Bundle;)V",
          "target": "PC@29",
          "type": "activity",
          "component": "com.kidssongsstudios.toddlersongschildrensongs.AdsActivity",
          "constraintsFile": "constraints7_0.py",
          "variables": {},
          "stringMap": {},
          "strings": {
            "IAAv1": ""
          }
        },
        {
          "start": "com.kidssongsstudios.toddlersongschildrensongs.AdsActivity.onCreate(Landroid/os/Bundle;)V",
          "target": "invokevirtual \u003c Application, Ldalvik/system/DexClassLoader, loadClass(Ljava/lang/String;)Ljava/lang/Class; \u003e@290",
          "type": "activity",
          "component": "com.kidssongsstudios.toddlersongschildrensongs.AdsActivity",
          "constraintsFile": "constraints7_1.py",
          "variables": {},
          "stringMap": {},
          "strings": {
            "IAAv1": ""
          }
        }
      ]
    },
    "8": {
      "startMethod": "com.google.android.gms.ads.AdActivity.onCreate(Landroid/os/Bundle;)V",
      "targetMethod": "java.lang.ClassLoader.loadClass(Ljava/lang/String;)Ljava/lang/Class;",
      "eventChain": [
        {
          "start": "com.google.android.gms.ads.AdActivity.onCreate(Landroid/os/Bundle;)V",
          "target": "invokevirtual \u003c Application, Ljava/lang/ClassLoader, loadClass(Ljava/lang/String;)Ljava/lang/Class; \u003e@50",
          "type": "activity",
          "component": "com.google.android.gms.ads.AdActivity"
        }
      ]
    }
  }
}