{
  "packageName": "com.soft.common",
  "mainActivity": "com.soft.common.Main",
  "callPaths": {
    "0": {
      "startMethod": "com.soft.common.Main.onCreate(Landroid/os/Bundle;)V",
      "targetMethod": "android.telephony.SmsManager.sendTextMessage(Ljava/lang/String;Ljava/lang/String;Ljava/lang/String;Landroid/app/PendingIntent;Landroid/app/PendingIntent;)V",
      "eventChain": [
        {
          "start": "com.soft.common.Main$1.onClick(Landroid/view/View;)V",
          "target": "PC@17",
          "type": "ui",
          "activities": [
            "com.soft.common.Main"
          ],
          "listener": "com.soft.common.Main$1",
          "listenerMethod": "onClick",
          "uiType": "onClick",
          "constraintsFile": "constraints0_0.py",
          "variables": {},
          "stringMap": {},
          "strings": {}
        },
        {
          "start": "com.soft.common.Main.onCreate(Landroid/os/Bundle;)V",
          "target": "invokevirtual \u003c Application, Landroid/telephony/SmsManager, sendTextMessage(Ljava/lang/String;Ljava/lang/String;Ljava/lang/String;Landroid/app/PendingIntent;Landroid/app/PendingIntent;)V \u003e@167",
          "type": "activity",
          "component": "com.soft.common.Main",
          "constraintsFile": "constraints0_1.py",
          "variables": {},
          "stringMap": {},
          "strings": {}
        }
      ]
    },
    "1": {
      "startMethod": "com.soft.common.Main$1.onClick(Landroid/view/View;)V",
      "targetMethod": "android.telephony.SmsManager.sendTextMessage(Ljava/lang/String;Ljava/lang/String;Ljava/lang/String;Landroid/app/PendingIntent;Landroid/app/PendingIntent;)V",
      "eventChain": [
        {
          "start": "com.soft.common.Main.onCreate(Landroid/os/Bundle;)V",
          "target": "invokevirtual \u003c Application, Landroid/widget/Button, setOnClickListener(Landroid/view/View$OnClickListener;)V \u003e@17",
          "type": "activity",
          "component": "com.soft.common.Main",
          "constraintsFile": "constraints1_0.py",
          "variables": {},
          "stringMap": {},
          "strings": {}
        },
        {
          "start": "com.soft.common.Main$1.onClick(Landroid/view/View;)V",
          "target": "PC@17",
          "type": "ui",
          "activities": [
            "com.soft.common.Main"
          ],
          "listener": "com.soft.common.Main$1",
          "listenerMethod": "onClick",
          "uiType": "onClick",
          "constraintsFile": "constraints1_1.py",
          "variables": {},
          "stringMap": {},
          "strings": {}
        },
        {
          "start": "com.soft.common.Main$1.onClick(Landroid/view/View;)V",
          "target": "invokevirtual \u003c Application, Landroid/telephony/SmsManager, sendTextMessage(Ljava/lang/String;Ljava/lang/String;Ljava/lang/String;Landroid/app/PendingIntent;Landroid/app/PendingIntent;)V \u003e@167",
          "type": "ui",
          "activities": [
            "com.soft.common.Main"
          ],
          "listener": "com.soft.common.Main$1",
          "listenerMethod": "onClick",
          "uiType": "onClick",
          "constraintsFile": "constraints1_2.py",
          "variables": {},
          "stringMap": {},
          "strings": {}
        }
      ]
    }
  }
}