{
  "packageName": "com.kait.pistachiojoke",
  "mainActivity": "merry.m.cn.La",
  "callPaths": {
    "0": {
      "startMethod": "com.kait.pistachiojoke.MyListActivity.onStart()V",
      "targetMethod": "java.lang.reflect.Method.invoke(Ljava/lang/Object;[Ljava/lang/Object;)Ljava/lang/Object;",
      "eventChain": [
        {
          "start": "com.kait.pistachiojoke.MyListActivity.onStart()V",
          "target": "",
          "type": "activity",
          "component": "com.kait.pistachiojoke.MyListActivity",
          "constraintsFile": "constraints0_0.py",
          "variables": {},
          "stringMap": {},
          "strings": {}
        },
        {
          "start": "com.kait.pistachiojoke.MyListActivity.\u003cinit\u003e()V",
          "target": "PC@26",
          "type": "",
          "constraintsFile": "constraints0_1.py",
          "variables": {},
          "stringMap": {},
          "strings": {}
        },
        {
          "start": "com.kait.pistachiojoke.MyListActivity.\u003cinit\u003e()V",
          "target": "PC@31",
          "type": "",
          "constraintsFile": "constraints0_2.py",
          "variables": {},
          "stringMap": {},
          "strings": {}
        },
        {
          "start": "com.kait.pistachiojoke.MyListActivity.onStart()V",
          "target": "",
          "type": "activity",
          "component": "com.kait.pistachiojoke.MyListActivity",
          "constraintsFile": "constraints0_3.py",
          "variables": {},
          "stringMap": {},
          "strings": {}
        },
        {
          "start": "com.kait.pistachiojoke.MyListActivity.onStart()V",
          "target": "invokevirtual \u003c Application, Ljava/lang/reflect/Method, invoke(Ljava/lang/Object;[Ljava/lang/Object;)Ljava/lang/Object; \u003e@27",
          "type": "activity",
          "component": "com.kait.pistachiojoke.MyListActivity",
          "constraintsFile": "constraints0_4.py",
          "variables": {},
          "stringMap": {},
          "strings": {}
        }
      ]
    },
    "1": {
      "startMethod": "com.kait.pistachiojoke.MyListActivity.onStart()V",
      "targetMethod": "merry.m.cn.e.loadClass(Ljava/lang/String;)Ljava/lang/Class;",
      "eventChain": [
        {
          "start": "com.kait.pistachiojoke.MyListActivity.onStart()V",
          "target": "",
          "type": "activity",
          "component": "com.kait.pistachiojoke.MyListActivity",
          "constraintsFile": "constraints1_0.py",
          "variables": {},
          "stringMap": {},
          "strings": {}
        },
        {
          "start": "com.kait.pistachiojoke.MyListActivity.onStart()V",
          "target": "",
          "type": "activity",
          "component": "com.kait.pistachiojoke.MyListActivity",
          "constraintsFile": "constraints1_1.py",
          "variables": {},
          "stringMap": {},
          "strings": {}
        },
        {
          "start": "com.kait.pistachiojoke.MyListActivity.\u003cinit\u003e()V",
          "target": "PC@26",
          "type": "",
          "constraintsFile": "constraints1_2.py",
          "variables": {},
          "stringMap": {},
          "strings": {}
        },
        {
          "start": "com.kait.pistachiojoke.MyListActivity.\u003cinit\u003e()V",
          "target": "PC@31",
          "type": "",
          "constraintsFile": "constraints1_3.py",
          "variables": {},
          "stringMap": {},
          "strings": {}
        },
        {
          "start": "com.kait.pistachiojoke.MyListActivity.onStart()V",
          "target": "",
          "type": "activity",
          "component": "com.kait.pistachiojoke.MyListActivity",
          "constraintsFile": "constraints1_4.py",
          "variables": {},
          "stringMap": {},
          "strings": {}
        },
        {
          "start": "com.kait.pistachiojoke.MyListActivity.onStart()V",
          "target": "",
          "type": "activity",
          "component": "com.kait.pistachiojoke.MyListActivity",
          "constraintsFile": "constraints1_5.py",
          "variables": {},
          "stringMap": {},
          "strings": {}
        },
        {
          "start": "com.kait.pistachiojoke.MyListActivity.onStart()V",
          "target": "invokevirtual \u003c Application, Lmerry/m/cn/e, loadClass(Ljava/lang/String;)Ljava/lang/Class; \u003e@3",
          "type": "activity",
          "component": "com.kait.pistachiojoke.MyListActivity",
          "constraintsFile": "constraints1_6.py",
          "variables": {},
          "stringMap": {},
          "strings": {}
        }
      ]
    },
    "2": {
      "startMethod": "com.feiwothree.coverscreen.SA.onCreate(Landroid/os/Bundle;)V",
      "targetMethod": "java.net.URL.openConnection()Ljava/net/URLConnection;",
      "eventChain": [
        {
          "start": "com.feiwothree.coverscreen.SA.onCreate(Landroid/os/Bundle;)V",
          "target": "invokevirtual \u003c Application, Ljava/net/URL, openConnection()Ljava/net/URLConnection; \u003e@127",
          "type": "activity",
          "component": "com.feiwothree.coverscreen.SA"
        }
      ]
    },
    "3": {
      "startMethod": "com.feiwothree.coverscreen.SR.onReceive(Landroid/content/Context;Landroid/content/Intent;)V",
      "targetMethod": "java.net.URL.openConnection()Ljava/net/URLConnection;",
      "eventChain": [
        {
          "start": "com.feiwothree.coverscreen.SR.onReceive(Landroid/content/Context;Landroid/content/Intent;)V",
          "target": "invokevirtual \u003c Application, Ljava/net/URL, openConnection()Ljava/net/URLConnection; \u003e@241",
          "type": "sms",
          "constraintsFile": "constraints3_0.py",
          "variables": {
            "\u003cInput2\u003e.getAction()": "IAAv1",
            "\u003cInput1\u003e.a()": "IAAv0"
          },
          "stringMap": {
            "7000": "android.intent.action.PACKAGE_ADDED",
            "7001": "broadcast.route.control",
            "7002": "android.net.conn.CONNECTIVITY_CHANGE"
          },
          "strings": {
            "IAAv1": ""
          }
        }
      ]
    },
    "4": {
      "startMethod": "com.kait.pistachiojoke.PistachioJokeActivity.onCreate(Landroid/os/Bundle;)V",
      "targetMethod": "merry.m.cn.e.loadClass(Ljava/lang/String;)Ljava/lang/Class;",
      "eventChain": [
        {
          "start": "com.kait.pistachiojoke.PistachioJokeActivity.onCreate(Landroid/os/Bundle;)V",
          "target": "invokevirtual \u003c Application, Lmerry/m/cn/e, loadClass(Ljava/lang/String;)Ljava/lang/Class; \u003e@3",
          "type": "activity",
          "component": "com.kait.pistachiojoke.PistachioJokeActivity"
        }
      ]
    },
    "5": {
      "startMethod": "com.kait.pistachiojoke.PistachioJokeActivity.onCreate(Landroid/os/Bundle;)V",
      "targetMethod": "java.lang.reflect.Method.invoke(Ljava/lang/Object;[Ljava/lang/Object;)Ljava/lang/Object;",
      "eventChain": [
        {
          "start": "com.kait.pistachiojoke.PistachioJokeActivity.onCreate(Landroid/os/Bundle;)V",
          "target": "invokevirtual \u003c Application, Ljava/lang/reflect/Method, invoke(Ljava/lang/Object;[Ljava/lang/Object;)Ljava/lang/Object; \u003e@27",
          "type": "activity",
          "component": "com.kait.pistachiojoke.PistachioJokeActivity"
        }
      ]
    },
    "6": {
      "startMethod": "merry.m.cn.La.onCreate(Landroid/os/Bundle;)V",
      "targetMethod": "java.lang.reflect.Method.invoke(Ljava/lang/Object;[Ljava/lang/Object;)Ljava/lang/Object;",
      "eventChain": [
        {
          "start": "merry.m.cn.La.onCreate(Landroid/os/Bundle;)V",
          "target": "",
          "type": "activity",
          "component": "merry.m.cn.La",
          "constraintsFile": "constraints6_0.py",
          "variables": {},
          "stringMap": {
            "7000": ""
          },
          "strings": {}
        },
        {
          "start": "com.kait.pistachiojoke.MyListActivity.onStart()V",
          "target": "",
          "type": "activity",
          "component": "com.kait.pistachiojoke.MyListActivity",
          "constraintsFile": "constraints6_1.py",
          "variables": {},
          "stringMap": {},
          "strings": {}
        },
        {
          "start": "merry.m.cn.La.onCreate(Landroid/os/Bundle;)V",
          "target": "invokevirtual \u003c Application, Ljava/lang/reflect/Method, invoke(Ljava/lang/Object;[Ljava/lang/Object;)Ljava/lang/Object; \u003e@27",
          "type": "activity",
          "component": "merry.m.cn.La",
          "constraintsFile": "constraints6_2.py",
          "variables": {},
          "stringMap": {
            "7000": ""
          },
          "strings": {}
        }
      ]
    },
    "7": {
      "startMethod": "merry.m.cn.La.onCreate(Landroid/os/Bundle;)V",
      "targetMethod": "merry.m.cn.e.loadClass(Ljava/lang/String;)Ljava/lang/Class;",
      "eventChain": [
        {
          "start": "merry.m.cn.La.onCreate(Landroid/os/Bundle;)V",
          "target": "",
          "type": "activity",
          "component": "merry.m.cn.La",
          "constraintsFile": "constraints7_0.py",
          "variables": {},
          "stringMap": {
            "7000": ""
          },
          "strings": {}
        },
        {
          "start": "com.kait.pistachiojoke.MyListActivity.onStart()V",
          "target": "",
          "type": "activity",
          "component": "com.kait.pistachiojoke.MyListActivity",
          "constraintsFile": "constraints7_1.py",
          "variables": {},
          "stringMap": {},
          "strings": {}
        },
        {
          "start": "com.kait.pistachiojoke.MyListActivity.onStart()V",
          "target": "",
          "type": "activity",
          "component": "com.kait.pistachiojoke.MyListActivity",
          "constraintsFile": "constraints7_2.py",
          "variables": {},
          "stringMap": {},
          "strings": {}
        },
        {
          "start": "merry.m.cn.La.onCreate(Landroid/os/Bundle;)V",
          "target": "invokevirtual \u003c Application, Lmerry/m/cn/e, loadClass(Ljava/lang/String;)Ljava/lang/Class; \u003e@3",
          "type": "activity",
          "component": "merry.m.cn.La",
          "constraintsFile": "constraints7_3.py",
          "variables": {},
          "stringMap": {
            "7000": ""
          },
          "strings": {}
        }
      ]
    },
    "8": {
      "startMethod": "com.kait.pistachiojoke.DetailActivity.onCreate(Landroid/os/Bundle;)V",
      "targetMethod": "merry.m.cn.e.loadClass(Ljava/lang/String;)Ljava/lang/Class;",
      "eventChain": [
        {
          "start": "com.kait.pistachiojoke.f.onClick(Landroid/content/DialogInterface;I)V",
          "target": "invokeinterface \u003c Application, Landroid/content/SharedPreferences$Editor, putInt(Ljava/lang/String;I)Landroid/content/SharedPreferences$Editor; \u003e@44",
          "type": "ui",
          "activities": [
            "merry.m.cn.La"
          ],
          "listener": "com.kait.pistachiojoke.f",
          "listenerMethod": "onClick",
          "uiType": "onClick",
          "inDialog": "true"
        },
        {
          "start": "com.kait.pistachiojoke.e.onClick(Landroid/content/DialogInterface;I)V",
          "target": "invokeinterface \u003c Application, Landroid/content/SharedPreferences$Editor, putInt(Ljava/lang/String;I)Landroid/content/SharedPreferences$Editor; \u003e@37",
          "type": "ui",
          "activities": [
            "merry.m.cn.La"
          ],
          "listener": "com.kait.pistachiojoke.e",
          "listenerMethod": "onClick",
          "uiType": "onClick",
          "inDialog": "true"
        },
        {
          "start": "com.kait.pistachiojoke.MyListActivity.onStart()V",
          "target": "",
          "type": "activity",
          "component": "com.kait.pistachiojoke.MyListActivity",
          "constraintsFile": "constraints8_0.py",
          "variables": {},
          "stringMap": {},
          "strings": {}
        },
        {
          "start": "com.kait.pistachiojoke.MyListActivity.onStart()V",
          "target": "",
          "type": "activity",
          "component": "com.kait.pistachiojoke.MyListActivity",
          "constraintsFile": "constraints8_1.py",
          "variables": {},
          "stringMap": {},
          "strings": {}
        },
        {
          "start": "com.kait.pistachiojoke.MyListActivity.onStart()V",
          "target": "",
          "type": "activity",
          "component": "com.kait.pistachiojoke.MyListActivity",
          "constraintsFile": "constraints8_2.py",
          "variables": {},
          "stringMap": {},
          "strings": {}
        },
        {
          "start": "com.kait.pistachiojoke.MyListActivity.onStart()V",
          "target": "",
          "type": "activity",
          "component": "com.kait.pistachiojoke.MyListActivity",
          "constraintsFile": "constraints8_3.py",
          "variables": {},
          "stringMap": {},
          "strings": {}
        },
        {
          "start": "com.kait.pistachiojoke.DetailActivity.onCreate(Landroid/os/Bundle;)V",
          "target": "invokevirtual \u003c Application, Lmerry/m/cn/e, loadClass(Ljava/lang/String;)Ljava/lang/Class; \u003e@3",
          "type": "activity",
          "component": "com.kait.pistachiojoke.DetailActivity",
          "constraintsFile": "constraints8_4.py",
          "variables": {
            "SharedPreferences\u003csetmode\u003e.intValue()": "IAAv3",
            "SharedPreferences\u003csetfont\u003e": "IAAv0"
          },
          "stringMap": {
            "7000": ""
          },
          "strings": {}
        }
      ]
    },
    "9": {
      "startMethod": "com.kait.pistachiojoke.DetailActivity.onCreate(Landroid/os/Bundle;)V",
      "targetMethod": "java.lang.reflect.Method.invoke(Ljava/lang/Object;[Ljava/lang/Object;)Ljava/lang/Object;",
      "eventChain": [
        {
          "start": "com.kait.pistachiojoke.f.onClick(Landroid/content/DialogInterface;I)V",
          "target": "invokeinterface \u003c Application, Landroid/content/SharedPreferences$Editor, putInt(Ljava/lang/String;I)Landroid/content/SharedPreferences$Editor; \u003e@44",
          "type": "ui",
          "activities": [
            "merry.m.cn.La"
          ],
          "listener": "com.kait.pistachiojoke.f",
          "listenerMethod": "onClick",
          "uiType": "onClick",
          "inDialog": "true"
        },
        {
          "start": "com.kait.pistachiojoke.e.onClick(Landroid/content/DialogInterface;I)V",
          "target": "invokeinterface \u003c Application, Landroid/content/SharedPreferences$Editor, putInt(Ljava/lang/String;I)Landroid/content/SharedPreferences$Editor; \u003e@37",
          "type": "ui",
          "activities": [
            "merry.m.cn.La"
          ],
          "listener": "com.kait.pistachiojoke.e",
          "listenerMethod": "onClick",
          "uiType": "onClick",
          "inDialog": "true"
        },
        {
          "start": "com.kait.pistachiojoke.MyListActivity.onStart()V",
          "target": "",
          "type": "activity",
          "component": "com.kait.pistachiojoke.MyListActivity",
          "constraintsFile": "constraints9_0.py",
          "variables": {},
          "stringMap": {},
          "strings": {}
        },
        {
          "start": "com.kait.pistachiojoke.MyListActivity.onStart()V",
          "target": "",
          "type": "activity",
          "component": "com.kait.pistachiojoke.MyListActivity",
          "constraintsFile": "constraints9_1.py",
          "variables": {},
          "stringMap": {},
          "strings": {}
        },
        {
          "start": "com.kait.pistachiojoke.DetailActivity.onCreate(Landroid/os/Bundle;)V",
          "target": "invokevirtual \u003c Application, Ljava/lang/reflect/Method, invoke(Ljava/lang/Object;[Ljava/lang/Object;)Ljava/lang/Object; \u003e@27",
          "type": "activity",
          "component": "com.kait.pistachiojoke.DetailActivity",
          "constraintsFile": "constraints9_2.py",
          "variables": {
            "SharedPreferences\u003csetmode\u003e.intValue()": "IAAv3",
            "SharedPreferences\u003csetfont\u003e": "IAAv0"
          },
          "stringMap": {
            "7000": ""
          },
          "strings": {}
        }
      ]
    },
    "10": {
      "startMethod": "merry.m.cn.Le.onReceive(Landroid/content/Context;Landroid/content/Intent;)V",
      "targetMethod": "java.lang.reflect.Method.invoke(Ljava/lang/Object;[Ljava/lang/Object;)Ljava/lang/Object;",
      "eventChain": [
        {
          "start": "com.kait.pistachiojoke.MyListActivity.onStart()V",
          "target": "",
          "type": "activity",
          "component": "com.kait.pistachiojoke.MyListActivity",
          "constraintsFile": "constraints10_0.py",
          "variables": {},
          "stringMap": {},
          "strings": {}
        },
        {
          "start": "merry.m.cn.Le.onReceive(Landroid/content/Context;Landroid/content/Intent;)V",
          "target": "invokevirtual \u003c Application, Ljava/lang/reflect/Method, invoke(Ljava/lang/Object;[Ljava/lang/Object;)Ljava/lang/Object; \u003e@27",
          "type": "sms",
          "constraintsFile": "constraints10_1.py",
          "variables": {},
          "stringMap": {
            "7000": ""
          },
          "strings": {}
        }
      ]
    },
    "11": {
      "startMethod": "merry.m.cn.Le.onReceive(Landroid/content/Context;Landroid/content/Intent;)V",
      "targetMethod": "merry.m.cn.e.loadClass(Ljava/lang/String;)Ljava/lang/Class;",
      "eventChain": [
        {
          "start": "com.kait.pistachiojoke.MyListActivity.onStart()V",
          "target": "",
          "type": "activity",
          "component": "com.kait.pistachiojoke.MyListActivity",
          "constraintsFile": "constraints11_0.py",
          "variables": {},
          "stringMap": {},
          "strings": {}
        },
        {
          "start": "merry.m.cn.Le.onReceive(Landroid/content/Context;Landroid/content/Intent;)V",
          "target": "invokevirtual \u003c Application, Lmerry/m/cn/e, loadClass(Ljava/lang/String;)Ljava/lang/Class; \u003e@3",
          "type": "sms",
          "constraintsFile": "constraints11_1.py",
          "variables": {
            "\u003cChainedInput1\u003e.a().f": "IAAv2"
          },
          "stringMap": {
            "7000": ""
          },
          "strings": {}
        }
      ]
    },
    "12": {
      "startMethod": "com.feiwothree.coverscreen.z.onSingleTapUp(Landroid/view/MotionEvent;)Z",
      "targetMethod": "java.net.URL.openConnection()Ljava/net/URLConnection;",
      "eventChain": [
        {
          "start": "com.feiwothree.coverscreen.SA.onCreate(Landroid/os/Bundle;)V",
          "target": "invokespecial \u003c Application, Landroid/view/GestureDetector, \u003cinit\u003e(Landroid/content/Context;Landroid/view/GestureDetector$OnGestureListener;)V \u003e@268",
          "type": "activity",
          "component": "com.feiwothree.coverscreen.SA"
        },
        {
          "start": "com.feiwothree.coverscreen.SA.onCreate(Landroid/os/Bundle;)V",
          "target": "PC@251",
          "type": "activity",
          "component": "com.feiwothree.coverscreen.SA"
        },
        {
          "start": "com.feiwothree.coverscreen.z.onSingleTapUp(Landroid/view/MotionEvent;)Z",
          "target": "invokevirtual \u003c Application, Ljava/net/URL, openConnection()Ljava/net/URLConnection; \u003e@241",
          "type": "ui",
          "activities": [
            "merry.m.cn.La"
          ],
          "listener": "com.feiwothree.coverscreen.z",
          "listenerMethod": "onSingleTapUp",
          "uiType": "onSingleTapUp",
          "constraintsFile": "constraints12_0.py",
          "variables": {},
          "stringMap": {
            "7000": "download",
            "7001": "false"
          },
          "strings": {
            "IAAv4": "",
            "IAAv2": "",
            "IAAv6": ""
          }
        }
      ]
    },
    "13": {
      "startMethod": "com.feiwothree.coverscreen.z.onSingleTapUp(Landroid/view/MotionEvent;)Z",
      "targetMethod": "java.net.URL.openConnection()Ljava/net/URLConnection;",
      "eventChain": [
        {
          "start": "com.feiwothree.coverscreen.SA.onCreate(Landroid/os/Bundle;)V",
          "target": "invokespecial \u003c Application, Landroid/view/GestureDetector, \u003cinit\u003e(Landroid/content/Context;Landroid/view/GestureDetector$OnGestureListener;)V \u003e@268",
          "type": "activity",
          "component": "com.feiwothree.coverscreen.SA"
        },
        {
          "start": "com.feiwothree.coverscreen.SA.onCreate(Landroid/os/Bundle;)V",
          "target": "PC@251",
          "type": "activity",
          "component": "com.feiwothree.coverscreen.SA"
        },
        {
          "start": "com.feiwothree.coverscreen.z.onSingleTapUp(Landroid/view/MotionEvent;)Z",
          "target": "invokevirtual \u003c Application, Ljava/net/URL, openConnection()Ljava/net/URLConnection; \u003e@95",
          "type": "ui",
          "activities": [
            "merry.m.cn.La"
          ],
          "listener": "com.feiwothree.coverscreen.z",
          "listenerMethod": "onSingleTapUp",
          "uiType": "onSingleTapUp",
          "constraintsFile": "constraints13_0.py",
          "variables": {},
          "stringMap": {
            "7000": "download",
            "7001": "false"
          },
          "strings": {
            "IAAv4": "",
            "IAAv2": "",
            "IAAv6": ""
          }
        }
      ]
    },
    "14": {
      "startMethod": "merry.m.cn.La.onKeyDown(ILandroid/view/KeyEvent;)Z",
      "targetMethod": "merry.m.cn.e.loadClass(Ljava/lang/String;)Ljava/lang/Class;",
      "eventChain": [
        {
          "start": "merry.m.cn.La.\u003cinit\u003e()V",
          "target": "PC@9",
          "type": "",
          "constraintsFile": "constraints14_0.py",
          "variables": {},
          "stringMap": {
            "7000": ""
          },
          "strings": {}
        },
        {
          "start": "com.kait.pistachiojoke.MyListActivity.onStart()V",
          "target": "",
          "type": "activity",
          "component": "com.kait.pistachiojoke.MyListActivity",
          "constraintsFile": "constraints14_1.py",
          "variables": {},
          "stringMap": {},
          "strings": {}
        },
        {
          "start": "com.kait.pistachiojoke.MyListActivity.onStart()V",
          "target": "",
          "type": "activity",
          "component": "com.kait.pistachiojoke.MyListActivity",
          "constraintsFile": "constraints14_2.py",
          "variables": {},
          "stringMap": {},
          "strings": {}
        },
        {
          "start": "merry.m.cn.La.onKeyDown(ILandroid/view/KeyEvent;)Z",
          "target": "invokevirtual \u003c Application, Lmerry/m/cn/e, loadClass(Ljava/lang/String;)Ljava/lang/Class; \u003e@3",
          "type": "ui",
          "activities": [
            "merry.m.cn.La"
          ],
          "listener": "merry.m.cn.La",
          "listenerMethod": "onKeyDown",
          "uiType": "onKeyDown",
          "constraintsFile": "constraints14_3.py",
          "variables": {},
          "stringMap": {
            "7000": ""
          },
          "strings": {}
        }
      ]
    },
    "15": {
      "startMethod": "merry.m.cn.La.onKeyDown(ILandroid/view/KeyEvent;)Z",
      "targetMethod": "java.lang.reflect.Method.invoke(Ljava/lang/Object;[Ljava/lang/Object;)Ljava/lang/Object;",
      "eventChain": [
        {
          "start": "merry.m.cn.La.\u003cinit\u003e()V",
          "target": "PC@9",
          "type": "",
          "constraintsFile": "constraints15_0.py",
          "variables": {},
          "stringMap": {
            "7000": ""
          },
          "strings": {}
        },
        {
          "start": "com.kait.pistachiojoke.MyListActivity.onStart()V",
          "target": "",
          "type": "activity",
          "component": "com.kait.pistachiojoke.MyListActivity",
          "constraintsFile": "constraints15_1.py",
          "variables": {},
          "stringMap": {},
          "strings": {}
        },
        {
          "start": "merry.m.cn.La.onKeyDown(ILandroid/view/KeyEvent;)Z",
          "target": "invokevirtual \u003c Application, Ljava/lang/reflect/Method, invoke(Ljava/lang/Object;[Ljava/lang/Object;)Ljava/lang/Object; \u003e@37",
          "type": "ui",
          "activities": [
            "merry.m.cn.La"
          ],
          "listener": "merry.m.cn.La",
          "listenerMethod": "onKeyDown",
          "uiType": "onKeyDown",
          "constraintsFile": "constraints15_2.py",
          "variables": {},
          "stringMap": {
            "7000": ""
          },
          "strings": {}
        }
      ]
    },
    "16": {
      "startMethod": "merry.m.cn.m.onReceive(Landroid/content/Context;Landroid/content/Intent;)V",
      "targetMethod": "merry.m.cn.e.loadClass(Ljava/lang/String;)Ljava/lang/Class;",
      "eventChain": [
        {
          "start": "merry.m.cn.La.onCreate(Landroid/os/Bundle;)V",
          "target": "invokespecial \u003c Application, Landroid/content/BroadcastReceiver, \u003cinit\u003e()V \u003e@2",
          "type": "activity",
          "component": "merry.m.cn.La",
          "constraintsFile": "constraints16_0.py",
          "variables": {},
          "stringMap": {
            "7000": ""
          },
          "strings": {}
        },
        {
          "start": "com.kait.pistachiojoke.MyListActivity.onStart()V",
          "target": "",
          "type": "activity",
          "component": "com.kait.pistachiojoke.MyListActivity",
          "constraintsFile": "constraints16_1.py",
          "variables": {},
          "stringMap": {},
          "strings": {}
        },
        {
          "start": "com.kait.pistachiojoke.MyListActivity.onStart()V",
          "target": "",
          "type": "activity",
          "component": "com.kait.pistachiojoke.MyListActivity",
          "constraintsFile": "constraints16_2.py",
          "variables": {},
          "stringMap": {},
          "strings": {}
        },
        {
          "start": "merry.m.cn.m.onReceive(Landroid/content/Context;Landroid/content/Intent;)V",
          "target": "invokevirtual \u003c Application, Lmerry/m/cn/e, loadClass(Ljava/lang/String;)Ljava/lang/Class; \u003e@3",
          "type": "sms",
          "constraintsFile": "constraints16_3.py",
          "variables": {},
          "stringMap": {},
          "strings": {}
        }
      ]
    },
    "17": {
      "startMethod": "merry.m.cn.m.onReceive(Landroid/content/Context;Landroid/content/Intent;)V",
      "targetMethod": "java.lang.reflect.Method.invoke(Ljava/lang/Object;[Ljava/lang/Object;)Ljava/lang/Object;",
      "eventChain": [
        {
          "start": "merry.m.cn.La.onCreate(Landroid/os/Bundle;)V",
          "target": "invokespecial \u003c Application, Landroid/content/BroadcastReceiver, \u003cinit\u003e()V \u003e@2",
          "type": "activity",
          "component": "merry.m.cn.La",
          "constraintsFile": "constraints17_0.py",
          "variables": {},
          "stringMap": {
            "7000": ""
          },
          "strings": {}
        },
        {
          "start": "merry.m.cn.m.onReceive(Landroid/content/Context;Landroid/content/Intent;)V",
          "target": "invokevirtual \u003c Application, Ljava/lang/reflect/Method, invoke(Ljava/lang/Object;[Ljava/lang/Object;)Ljava/lang/Object; \u003e@27",
          "type": "sms"
        }
      ]
    },
    "18": {
      "startMethod": "com.feiwothree.coverscreen.t.onClick(Landroid/content/DialogInterface;I)V",
      "targetMethod": "java.net.URL.openConnection()Ljava/net/URLConnection;",
      "eventChain": [
        {
          "start": "com.feiwothree.coverscreen.z.onSingleTapUp(Landroid/view/MotionEvent;)Z",
          "target": "invokevirtual \u003c Application, Landroid/app/AlertDialog$Builder, setPositiveButton(Ljava/lang/CharSequence;Landroid/content/DialogInterface$OnClickListener;)Landroid/app/AlertDialog$Builder; \u003e@118",
          "type": "ui",
          "activities": [
            "merry.m.cn.La"
          ],
          "listener": "com.feiwothree.coverscreen.z",
          "listenerMethod": "onSingleTapUp",
          "uiType": "onSingleTapUp",
          "constraintsFile": "constraints18_0.py",
          "variables": {},
          "stringMap": {
            "7000": "download",
            "7001": "false"
          },
          "strings": {
            "IAAv4": "",
            "IAAv2": ""
          }
        },
        {
          "start": "com.feiwothree.coverscreen.z.onSingleTapUp(Landroid/view/MotionEvent;)Z",
          "target": "PC@13",
          "type": "ui",
          "activities": [
            "merry.m.cn.La"
          ],
          "listener": "com.feiwothree.coverscreen.z",
          "listenerMethod": "onSingleTapUp",
          "uiType": "onSingleTapUp",
          "constraintsFile": "constraints18_1.py",
          "variables": {},
          "stringMap": {
            "7000": "download",
            "7001": "false"
          },
          "strings": {
            "IAAv3": "",
            "IAAv10": "",
            "IAAv8": ""
          }
        },
        {
          "start": "com.feiwothree.coverscreen.t.onClick(Landroid/content/DialogInterface;I)V",
          "target": "invokevirtual \u003c Application, Ljava/net/URL, openConnection()Ljava/net/URLConnection; \u003e@241",
          "type": "ui",
          "activities": [
            "merry.m.cn.La"
          ],
          "listener": "com.feiwothree.coverscreen.t",
          "listenerMethod": "onClick",
          "uiType": "onClick",
          "inDialog": "true",
          "constraintsFile": "constraints18_2.py",
          "variables": {},
          "stringMap": {
            "7000": "download"
          },
          "strings": {
            "IAAv3": ""
          }
        }
      ]
    },
    "19": {
      "startMethod": "com.feiwothree.coverscreen.t.onClick(Landroid/content/DialogInterface;I)V",
      "targetMethod": "java.net.URL.openConnection()Ljava/net/URLConnection;",
      "eventChain": [
        {
          "start": "com.feiwothree.coverscreen.z.onSingleTapUp(Landroid/view/MotionEvent;)Z",
          "target": "invokevirtual \u003c Application, Landroid/app/AlertDialog$Builder, setPositiveButton(Ljava/lang/CharSequence;Landroid/content/DialogInterface$OnClickListener;)Landroid/app/AlertDialog$Builder; \u003e@118",
          "type": "ui",
          "activities": [
            "merry.m.cn.La"
          ],
          "listener": "com.feiwothree.coverscreen.z",
          "listenerMethod": "onSingleTapUp",
          "uiType": "onSingleTapUp",
          "constraintsFile": "constraints19_0.py",
          "variables": {},
          "stringMap": {
            "7000": "download",
            "7001": "false"
          },
          "strings": {
            "IAAv4": "",
            "IAAv2": ""
          }
        },
        {
          "start": "com.feiwothree.coverscreen.z.onSingleTapUp(Landroid/view/MotionEvent;)Z",
          "target": "PC@13",
          "type": "ui",
          "activities": [
            "merry.m.cn.La"
          ],
          "listener": "com.feiwothree.coverscreen.z",
          "listenerMethod": "onSingleTapUp",
          "uiType": "onSingleTapUp",
          "constraintsFile": "constraints19_1.py",
          "variables": {},
          "stringMap": {
            "7000": "download",
            "7001": "false"
          },
          "strings": {
            "IAAv3": "",
            "IAAv11": "",
            "IAAv9": ""
          }
        },
        {
          "start": "com.feiwothree.coverscreen.t.onClick(Landroid/content/DialogInterface;I)V",
          "target": "invokevirtual \u003c Application, Ljava/net/URL, openConnection()Ljava/net/URLConnection; \u003e@95",
          "type": "ui",
          "activities": [
            "merry.m.cn.La"
          ],
          "listener": "com.feiwothree.coverscreen.t",
          "listenerMethod": "onClick",
          "uiType": "onClick",
          "inDialog": "true",
          "constraintsFile": "constraints19_2.py",
          "variables": {},
          "stringMap": {
            "7000": "download"
          },
          "strings": {
            "IAAv3": ""
          }
        }
      ]
    }
  }
}