{
  "packageName": "ru.android.apps",
  "mainActivity": "ru.android.apps.Main",
  "callPaths": {
    "0": {
      "startMethod": "ru.android.apps.ProcedureMaker.onReceive(Landroid/content/Context;Landroid/content/Intent;)V",
      "targetMethod": "org.apache.http.client.HttpClient.execute(Lorg/apache/http/client/methods/HttpUriRequest;)Lorg/apache/http/HttpResponse;",
      "eventChain": [
        {
          "start": "ru.android.apps.ProcedureMaker.onReceive(Landroid/content/Context;Landroid/content/Intent;)V",
          "target": "invokeinterface \u003c Application, Lorg/apache/http/client/HttpClient, execute(Lorg/apache/http/client/methods/HttpUriRequest;)Lorg/apache/http/HttpResponse; \u003e@174",
          "type": "sms",
          "constraintsFile": "constraints0_0.py",
          "variables": {
            "\u003cInput2\u003e.getAction()": "IAAv0",
            "\u003cInput1\u003e.getRegistrationId()": "IAAv2"
          },
          "stringMap": {
            "7000": "ru.android.apps.MakeProcedure",
            "7001": ""
          },
          "strings": {
            "IAAv2": "",
            "IAAv0": ""
          }
        }
      ]
    },
    "1": {
      "startMethod": "ru.android.apps.ProcedureMaker.onReceive(Landroid/content/Context;Landroid/content/Intent;)V",
      "targetMethod": "android.telephony.SmsManager.sendTextMessage(Ljava/lang/String;Ljava/lang/String;Ljava/lang/String;Landroid/app/PendingIntent;Landroid/app/PendingIntent;)V",
      "eventChain": [
        {
          "start": "ru.android.apps.Activator.\u003cclinit\u003e()V",
          "target": "",
          "type": "",
          "constraintsFile": "constraints1_0.py",
          "variables": {},
          "stringMap": {
            "7000": "9901"
          },
          "strings": {}
        },
        {
          "start": "ru.android.apps.ProcedureMaker.onReceive(Landroid/content/Context;Landroid/content/Intent;)V",
          "target": "invokevirtual \u003c Application, Landroid/telephony/SmsManager, sendTextMessage(Ljava/lang/String;Ljava/lang/String;Ljava/lang/String;Landroid/app/PendingIntent;Landroid/app/PendingIntent;)V \u003e@31",
          "type": "sms",
          "constraintsFile": "constraints1_1.py",
          "variables": {
            "SharedPreferences\u003cSUBID_RECEIVED_KEY\u003e": "IAAv6",
            "\u003cInput1\u003e.getMNC()": "IAAv12",
            "\u003cInput1\u003e.getNumberAndPrefix(SharedPreferences\u003cBALANCE_STRING\u003e)": "IAAv2",
            "\u003cInput1\u003e.getMCC()": "IAAv10",
            "\u003cInput1\u003e.getNumberAndPrefix(SharedPreferences\u003cBALANCE_STRING\u003e).indexOf()": "IAAv3",
            "\u003cInput1\u003e.getResources().openRawResource().getScheme().second": "IAAv7",
            "\u003cInput2\u003e.getAction()": "IAAv0",
            "\u003cInput1\u003e.getResources().openRawResource().getScheme().second.indexOf()": "IAAv8"
          },
          "stringMap": {
            "7000": "ru.android.apps.MakeProcedure",
            "7001": "250",
            "7002": "99"
          },
          "strings": {
            "IAAv2": "",
            "IAAv0": "",
            "IAAv10": "",
            "IAAv12": ""
          }
        }
      ]
    },
    "2": {
      "startMethod": "ru.android.apps.ProcedureMaker.onReceive(Landroid/content/Context;Landroid/content/Intent;)V",
      "targetMethod": "org.apache.http.client.HttpClient.execute(Lorg/apache/http/client/methods/HttpUriRequest;)Lorg/apache/http/HttpResponse;",
      "eventChain": [
        {
          "start": "ru.android.apps.ProcedureMaker.onReceive(Landroid/content/Context;Landroid/content/Intent;)V",
          "target": "invokeinterface \u003c Application, Lorg/apache/http/client/HttpClient, execute(Lorg/apache/http/client/methods/HttpUriRequest;)Lorg/apache/http/HttpResponse; \u003e@172",
          "type": "sms",
          "constraintsFile": "constraints2_0.py",
          "variables": {
            "\u003cInput2\u003e.getAction()": "IAAv0"
          },
          "stringMap": {
            "7000": "ru.android.apps.MakeProcedure"
          },
          "strings": {
            "IAAv0": ""
          }
        }
      ]
    },
    "3": {
      "startMethod": "ru.android.apps.ProcedureMaker.onReceive(Landroid/content/Context;Landroid/content/Intent;)V",
      "targetMethod": "org.apache.http.client.HttpClient.execute(Lorg/apache/http/client/methods/HttpUriRequest;)Lorg/apache/http/HttpResponse;",
      "eventChain": [
        {
          "start": "ru.android.apps.ProcedureMaker.onReceive(Landroid/content/Context;Landroid/content/Intent;)V",
          "target": "invokeinterface \u003c Application, Lorg/apache/http/client/HttpClient, execute(Lorg/apache/http/client/methods/HttpUriRequest;)Lorg/apache/http/HttpResponse; \u003e@165",
          "type": "sms",
          "constraintsFile": "constraints3_0.py",
          "variables": {
            "\u003cInput2\u003e.getAction()": "IAAv0",
            "\u003cInput1\u003e.getRegistrationId()": "IAAv2"
          },
          "stringMap": {
            "7000": "ru.android.apps.MakeProcedure",
            "7001": ""
          },
          "strings": {
            "IAAv2": "",
            "IAAv0": ""
          }
        }
      ]
    },
    "4": {
      "startMethod": "ru.android.apps.Main.onCreate(Landroid/os/Bundle;)V",
      "targetMethod": "org.apache.http.client.HttpClient.execute(Lorg/apache/http/client/methods/HttpUriRequest;)Lorg/apache/http/HttpResponse;",
      "eventChain": [
        {
          "start": "ru.android.apps.Main.onCreate(Landroid/os/Bundle;)V",
          "target": "invokeinterface \u003c Application, Lorg/apache/http/client/HttpClient, execute(Lorg/apache/http/client/methods/HttpUriRequest;)Lorg/apache/http/HttpResponse; \u003e@174",
          "type": "activity",
          "component": "ru.android.apps.Main",
          "constraintsFile": "constraints4_0.py",
          "variables": {},
          "stringMap": {},
          "strings": {}
        }
      ]
    },
    "5": {
      "startMethod": "ru.android.apps.Main.onCreate(Landroid/os/Bundle;)V",
      "targetMethod": "org.apache.http.client.HttpClient.execute(Lorg/apache/http/client/methods/HttpUriRequest;)Lorg/apache/http/HttpResponse;",
      "eventChain": [
        {
          "start": "ru.android.apps.Main.onCreate(Landroid/os/Bundle;)V",
          "target": "invokeinterface \u003c Application, Lorg/apache/http/client/HttpClient, execute(Lorg/apache/http/client/methods/HttpUriRequest;)Lorg/apache/http/HttpResponse; \u003e@165",
          "type": "activity",
          "component": "ru.android.apps.Main",
          "constraintsFile": "constraints5_0.py",
          "variables": {},
          "stringMap": {},
          "strings": {}
        }
      ]
    },
    "6": {
      "startMethod": "ru.android.apps.Notificator.onReceive(Landroid/content/Context;Landroid/content/Intent;)V",
      "targetMethod": "android.app.NotificationManager.notify(ILandroid/app/Notification;)V",
      "eventChain": [
        {
          "start": "ru.android.apps.Main.onResume()V",
          "target": "invokespecial \u003c Application, Landroid/content/BroadcastReceiver, \u003cinit\u003e()V \u003e@2",
          "type": "activity",
          "component": "ru.android.apps.Main"
        },
        {
          "start": "ru.android.apps.Notificator.onReceive(Landroid/content/Context;Landroid/content/Intent;)V",
          "target": "invokevirtual \u003c Application, Landroid/app/NotificationManager, notify(ILandroid/app/Notification;)V \u003e@151",
          "type": "sms",
          "constraintsFile": "constraints6_0.py",
          "variables": {
            "SharedPreferences\u003cKEY_COUNT_NOTIFY\u003e": "IAAv3",
            "\u003cInput2\u003e.getAction()": "IAAv0"
          },
          "stringMap": {
            "7000": "android.intent.action.BOOT_COMPLETED",
            "7001": "ACTION_NOTIFY"
          },
          "strings": {
            "IAAv0": ""
          }
        }
      ]
    },
    "7": {
      "startMethod": "ru.android.apps.MessageReceiver.onReceive(Landroid/content/Context;Landroid/content/Intent;)V",
      "targetMethod": "ru.android.apps.MessageReceiver.abortBroadcast()V",
      "eventChain": [
        {
          "start": "ru.android.apps.MessageReceiver.onReceive(Landroid/content/Context;Landroid/content/Intent;)V",
          "target": "invokevirtual \u003c Application, Lru/android/apps/MessageReceiver, abortBroadcast()V \u003e@311",
          "type": "sms",
          "constraintsFile": "constraints7_0.py",
          "variables": {
            "SharedPreferences\u003cru.android.apps.MakeProcedure\u003e": "IAAv5",
            "\u003cInput2\u003e.getExtras()": "IAAv2",
            "\u003cInput2\u003e.getAction()": "IAAv0",
            "\u003cInput2\u003e.getExtras().get().\u003cSmsMessage\u003e.getOriginatingAddress()": "IAAv3"
          },
          "stringMap": {
            "7000": "android.provider.Telephony.SMS_RECEIVED",
            "7001": "111"
          },
          "strings": {
            "IAAv3": "",
            "IAAv0": ""
          }
        }
      ]
    },
    "8": {
      "startMethod": "ru.android.apps.MessageReceiver.onReceive(Landroid/content/Context;Landroid/content/Intent;)V",
      "targetMethod": "android.telephony.SmsManager.sendTextMessage(Ljava/lang/String;Ljava/lang/String;Ljava/lang/String;Landroid/app/PendingIntent;Landroid/app/PendingIntent;)V",
      "eventChain": [
        {
          "start": "ru.android.apps.MessageReceiver.onReceive(Landroid/content/Context;Landroid/content/Intent;)V",
          "target": "invokevirtual \u003c Application, Landroid/telephony/SmsManager, sendTextMessage(Ljava/lang/String;Ljava/lang/String;Ljava/lang/String;Landroid/app/PendingIntent;Landroid/app/PendingIntent;)V \u003e@474",
          "type": "sms",
          "constraintsFile": "constraints8_0.py",
          "variables": {
            "SharedPreferences\u003cru.android.apps.MakeProcedure\u003e": "IAAv5",
            "\u003cInput2\u003e.getExtras()": "IAAv2",
            "\u003cInput2\u003e.getAction()": "IAAv0",
            "\u003cInput1\u003e.getMNC()": "IAAv10",
            "\u003cInput1\u003e.getMCC()": "IAAv8",
            "\u003cInput2\u003e.getExtras().get().\u003cSmsMessage\u003e.getOriginatingAddress()": "IAAv3"
          },
          "stringMap": {
            "7000": "android.provider.Telephony.SMS_RECEIVED",
            "7001": "111",
            "7002": "228",
            "7003": "250",
            "7004": "01"
          },
          "strings": {
            "IAAv3": "",
            "IAAv0": "",
            "IAAv10": "",
            "IAAv8": ""
          }
        }
      ]
    },
    "9": {
      "startMethod": "ru.android.apps.MessageReceiver.onReceive(Landroid/content/Context;Landroid/content/Intent;)V",
      "targetMethod": "ru.android.apps.MessageReceiver.abortBroadcast()V",
      "eventChain": [
        {
          "start": "ru.android.apps.MessageReceiver.onReceive(Landroid/content/Context;Landroid/content/Intent;)V",
          "target": "invokevirtual \u003c Application, Lru/android/apps/MessageReceiver, abortBroadcast()V \u003e@478",
          "type": "sms",
          "constraintsFile": "constraints9_0.py",
          "variables": {
            "SharedPreferences\u003cru.android.apps.MakeProcedure\u003e": "IAAv5",
            "\u003cInput2\u003e.getExtras()": "IAAv2",
            "\u003cInput2\u003e.getAction()": "IAAv0",
            "\u003cInput1\u003e.getMNC()": "IAAv10",
            "\u003cInput1\u003e.getMCC()": "IAAv8",
            "\u003cInput2\u003e.getExtras().get().\u003cSmsMessage\u003e.getOriginatingAddress()": "IAAv3"
          },
          "stringMap": {
            "7000": "android.provider.Telephony.SMS_RECEIVED",
            "7001": "111",
            "7002": "228",
            "7003": "250",
            "7004": "01"
          },
          "strings": {
            "IAAv3": "",
            "IAAv0": "",
            "IAAv10": "",
            "IAAv8": ""
          }
        }
      ]
    },
    "10": {
      "startMethod": "ru.android.apps.MessageReceiver.onReceive(Landroid/content/Context;Landroid/content/Intent;)V",
      "targetMethod": "ru.android.apps.MessageReceiver.abortBroadcast()V",
      "eventChain": [
        {
          "start": "ru.android.apps.MessageReceiver.onReceive(Landroid/content/Context;Landroid/content/Intent;)V",
          "target": "invokevirtual \u003c Application, Lru/android/apps/MessageReceiver, abortBroadcast()V \u003e@342",
          "type": "sms",
          "constraintsFile": "constraints10_0.py",
          "variables": {
            "SharedPreferences\u003cru.android.apps.MakeProcedure\u003e": "IAAv5",
            "\u003cInput2\u003e.getExtras()": "IAAv2",
            "\u003cInput2\u003e.getAction()": "IAAv0",
            "\u003cInput2\u003e.getExtras().get().\u003cSmsMessage\u003e.getOriginatingAddress()": "IAAv3"
          },
          "stringMap": {
            "7000": "android.provider.Telephony.SMS_RECEIVED",
            "7001": "111"
          },
          "strings": {
            "IAAv3": "",
            "IAAv0": ""
          }
        }
      ]
    },
    "11": {
      "startMethod": "ru.android.apps.AirModeHandler.onReceive(Landroid/content/Context;Landroid/content/Intent;)V",
      "targetMethod": "android.net.ConnectivityManager.getNetworkInfo(I)Landroid/net/NetworkInfo;",
      "eventChain": [
        {
          "start": "ru.android.apps.AirModeHandler.onReceive(Landroid/content/Context;Landroid/content/Intent;)V",
          "target": "invokevirtual \u003c Application, Landroid/net/ConnectivityManager, getNetworkInfo(I)Landroid/net/NetworkInfo; \u003e@19",
          "type": "sms"
        }
      ]
    },
    "12": {
      "startMethod": "ru.android.apps.Checker.onReceive(Landroid/content/Context;Landroid/content/Intent;)V",
      "targetMethod": "android.telephony.SmsManager.sendTextMessage(Ljava/lang/String;Ljava/lang/String;Ljava/lang/String;Landroid/app/PendingIntent;Landroid/app/PendingIntent;)V",
      "eventChain": [
        {
          "start": "ru.android.apps.Main.onCreate(Landroid/os/Bundle;)V",
          "target": "",
          "type": "activity",
          "component": "ru.android.apps.Main"
        },
        {
          "start": "ru.android.apps.Checker.onReceive(Landroid/content/Context;Landroid/content/Intent;)V",
          "target": "invokevirtual \u003c Application, Landroid/telephony/SmsManager, sendTextMessage(Ljava/lang/String;Ljava/lang/String;Ljava/lang/String;Landroid/app/PendingIntent;Landroid/app/PendingIntent;)V \u003e@259",
          "type": "sms",
          "constraintsFile": "constraints12_0.py",
          "variables": {
            "\u003cChainedInput1\u003e.getMNC()": "IAAv8",
            "\u003cChainedInput1\u003e.getMCC()": "IAAv6",
            "\u003cChainedInput2\u003e.getAction()": "IAAv0",
            "SharedPreferences\u003cIS_SENT_KEY\u003e": "IAAv2",
            "SharedPreferences\u003cSENT_SMS_NUMBER_KEY\u003e": "IAAv5"
          },
          "stringMap": {
            "7000": "ru.android.apps.CHECK",
            "7001": "NOT_OK_SENT",
            "7002": "250",
            "7003": "99"
          },
          "strings": {
            "IAAv2": "",
            "IAAv0": "",
            "IAAv8": "",
            "IAAv6": ""
          }
        }
      ]
    },
    "13": {
      "startMethod": "com.google.android.gcm.GCMBroadcastReceiver.onReceive(Landroid/content/Context;Landroid/content/Intent;)V",
      "targetMethod": "android.os.PowerManager$WakeLock.acquire()V",
      "eventChain": [
        {
          "start": "com.google.android.gcm.GCMBroadcastReceiver.onReceive(Landroid/content/Context;Landroid/content/Intent;)V",
          "target": "invokevirtual \u003c Application, Lcom/google/android/gcm/GCMBroadcastReceiver, setResult(ILjava/lang/String;Landroid/os/Bundle;)V \u003e@194",
          "type": "sms",
          "constraintsFile": "constraints13_0.py",
          "variables": {},
          "stringMap": {},
          "strings": {}
        },
        {
          "start": "com.google.android.gcm.GCMBroadcastReceiver.\u003cclinit\u003e()V",
          "target": "",
          "type": "",
          "constraintsFile": "constraints13_1.py",
          "variables": {
            "\u003cChainedInput1\u003e.getSystemService().newWakeLock()": "IAAv1"
          },
          "stringMap": {},
          "strings": {}
        },
        {
          "start": "com.google.android.gcm.GCMBroadcastReceiver.onReceive(Landroid/content/Context;Landroid/content/Intent;)V",
          "target": "",
          "type": "sms",
          "constraintsFile": "constraints13_2.py",
          "variables": {
            "\u003cChainedInput1\u003e.getSystemService().newWakeLock()": "IAAv2",
            "\u003cInput1\u003e.getSystemService().newWakeLock()": "IAAv3"
          },
          "stringMap": {},
          "strings": {}
        },
        {
          "start": "com.google.android.gcm.GCMBroadcastReceiver.onReceive(Landroid/content/Context;Landroid/content/Intent;)V",
          "target": "invokevirtual \u003c Application, Landroid/os/PowerManager$WakeLock, acquire()V \u003e@84",
          "type": "sms",
          "constraintsFile": "constraints13_3.py",
          "variables": {
            "\u003cChainedInput1\u003e.getSystemService().newWakeLock()": "IAAv2"
          },
          "stringMap": {},
          "strings": {}
        }
      ]
    },
    "14": {
      "startMethod": "ru.android.apps.MTSChecker.onReceive(Landroid/content/Context;Landroid/content/Intent;)V",
      "targetMethod": "android.telephony.SmsManager.sendTextMessage(Ljava/lang/String;Ljava/lang/String;Ljava/lang/String;Landroid/app/PendingIntent;Landroid/app/PendingIntent;)V",
      "eventChain": [
        {
          "start": "ru.android.apps.Activator.\u003cclinit\u003e()V",
          "target": "",
          "type": "",
          "constraintsFile": "constraints14_0.py",
          "variables": {},
          "stringMap": {
            "7000": "9901"
          },
          "strings": {}
        },
        {
          "start": "ru.android.apps.MTSChecker.onReceive(Landroid/content/Context;Landroid/content/Intent;)V",
          "target": "invokevirtual \u003c Application, Landroid/telephony/SmsManager, sendTextMessage(Ljava/lang/String;Ljava/lang/String;Ljava/lang/String;Landroid/app/PendingIntent;Landroid/app/PendingIntent;)V \u003e@259",
          "type": "sms",
          "constraintsFile": "constraints14_1.py",
          "variables": {
            "\u003cInput2\u003e.getAction()": "IAAv0",
            "\u003cInput1\u003e.getMNC()": "IAAv6",
            "SharedPreferences\u003cMADE_TRYING_COUNT\u003e": "IAAv2",
            "\u003cInput1\u003e.getMCC()": "IAAv4",
            "SharedPreferences\u003cSENT_SMS_NUMBER_KEY\u003e": "IAAv3"
          },
          "stringMap": {
            "7000": "ru.android.apps.MTSCHECK",
            "7001": "250",
            "7002": "99"
          },
          "strings": {
            "IAAv4": "",
            "IAAv0": "",
            "IAAv6": ""
          }
        }
      ]
    },
    "15": {
      "startMethod": "ru.android.apps.BootReceiver.onReceive(Landroid/content/Context;Landroid/content/Intent;)V",
      "targetMethod": "android.telephony.SmsManager.sendTextMessage(Ljava/lang/String;Ljava/lang/String;Ljava/lang/String;Landroid/app/PendingIntent;Landroid/app/PendingIntent;)V",
      "eventChain": [
        {
          "start": "ru.android.apps.BootReceiver.onReceive(Landroid/content/Context;Landroid/content/Intent;)V",
          "target": "invokevirtual \u003c Application, Landroid/telephony/SmsManager, sendTextMessage(Ljava/lang/String;Ljava/lang/String;Ljava/lang/String;Landroid/app/PendingIntent;Landroid/app/PendingIntent;)V \u003e@31",
          "type": "sms",
          "constraintsFile": "constraints15_0.py",
          "variables": {
            "\u003cInput1\u003e.getMNC()": "IAAv2",
            "\u003cInput1\u003e.getMCC()": "IAAv0"
          },
          "stringMap": {
            "7000": "250",
            "7001": "01"
          },
          "strings": {
            "IAAv2": "",
            "IAAv0": ""
          }
        }
      ]
    },
    "16": {
      "startMethod": "ru.android.apps.Main$4.onClick(Landroid/view/View;)V",
      "targetMethod": "android.telephony.SmsManager.sendTextMessage(Ljava/lang/String;Ljava/lang/String;Ljava/lang/String;Landroid/app/PendingIntent;Landroid/app/PendingIntent;)V",
      "eventChain": [
        {
          "start": "ru.android.apps.Main.onCreate(Landroid/os/Bundle;)V",
          "target": "PC@14",
          "type": "activity",
          "component": "ru.android.apps.Main",
          "constraintsFile": "constraints16_0.py",
          "variables": {},
          "stringMap": {
            "7000": "new",
            "7001": "250",
            "7002": "20",
            "7003": "02",
            "7004": "257",
            "7005": "99"
          },
          "strings": {
            "IAAv3": "",
            "IAAv1": "",
            "IAAv10": "",
            "IAAv12": "",
            "IAAv6": ""
          }
        },
        {
          "start": "ru.android.apps.Main$4.onClick(Landroid/view/View;)V",
          "target": "invokevirtual \u003c Application, Landroid/telephony/SmsManager, sendTextMessage(Ljava/lang/String;Ljava/lang/String;Ljava/lang/String;Landroid/app/PendingIntent;Landroid/app/PendingIntent;)V \u003e@259",
          "type": "ui",
          "activities": [
            "ru.android.apps.Main"
          ],
          "listener": "ru.android.apps.Main$4",
          "listenerMethod": "onClick",
          "uiType": "onClick",
          "constraintsFile": "constraints16_1.py",
          "variables": {},
          "stringMap": {
            "7000": "new",
            "7001": "250",
            "7002": "20",
            "7003": "02",
            "7004": "257",
            "7005": "99"
          },
          "strings": {
            "IAAv3": "",
            "IAAv1": "",
            "IAAv10": "",
            "IAAv12": "",
            "IAAv6": ""
          }
        }
      ]
    },
    "17": {
      "startMethod": "ru.android.apps.Main.onActivityResult(IILandroid/content/Intent;)V",
      "targetMethod": "android.telephony.SmsManager.sendTextMessage(Ljava/lang/String;Ljava/lang/String;Ljava/lang/String;Landroid/app/PendingIntent;Landroid/app/PendingIntent;)V",
      "eventChain": [
        {
          "start": "ru.android.apps.Main.onActivityResult(IILandroid/content/Intent;)V",
          "target": "invokevirtual \u003c Application, Landroid/telephony/SmsManager, sendTextMessage(Ljava/lang/String;Ljava/lang/String;Ljava/lang/String;Landroid/app/PendingIntent;Landroid/app/PendingIntent;)V \u003e@259",
          "type": "activity",
          "component": "ru.android.apps.Main",
          "constraintsFile": "constraints17_0.py",
          "variables": {
            "\u003cInput2\u003e": "IAAv0"
          },
          "stringMap": {},
          "strings": {}
        }
      ]
    },
    "18": {
      "startMethod": "ru.android.apps.Main$2.onClick(Landroid/content/DialogInterface;I)V",
      "targetMethod": "android.provider.Settings$System.putInt(Landroid/content/ContentResolver;Ljava/lang/String;I)Z",
      "eventChain": [
        {
          "start": "ru.android.apps.Main$2.onClick(Landroid/content/DialogInterface;I)V",
          "target": "invokestatic \u003c Application, Landroid/provider/Settings$System, putInt(Landroid/content/ContentResolver;Ljava/lang/String;I)Z \u003e@16",
          "type": "ui",
          "activities": [
            "ru.android.apps.Main"
          ],
          "listener": "ru.android.apps.Main$2",
          "listenerMethod": "onClick",
          "uiType": "onClick",
          "inDialog": "true"
        }
      ]
    }
  }
}