{
  "packageName": "cn.playboy.wifihack",
  "mainActivity": "cn.playboy.wifihack.SplashActivity",
  "callPaths": {
    "0": {
      "startMethod": "cn.playboy.wifihack.WifiDetailActivity.onResume()V",
      "targetMethod": "org.apache.http.client.HttpClient.execute(Lorg/apache/http/client/methods/HttpUriRequest;)Lorg/apache/http/HttpResponse;",
      "eventChain": [
        {
          "start": "cn.playboy.wifihack.WifiDetailActivity.onResume()V",
          "target": "invokeinterface \u003c Application, Lorg/apache/http/client/HttpClient, execute(Lorg/apache/http/client/methods/HttpUriRequest;)Lorg/apache/http/HttpResponse; \u003e@314",
          "type": "activity",
          "component": "cn.playboy.wifihack.WifiDetailActivity"
        }
      ]
    },
    "1": {
      "startMethod": "cn.playboy.wifihack.WifiDetailActivity.onResume()V",
      "targetMethod": "java.lang.reflect.Method.invoke(Ljava/lang/Object;[Ljava/lang/Object;)Ljava/lang/Object;",
      "eventChain": [
        {
          "start": "cn.playboy.wifihack.WifiDetailActivity.onResume()V",
          "target": "invokevirtual \u003c Application, Ljava/lang/reflect/Method, invoke(Ljava/lang/Object;[Ljava/lang/Object;)Ljava/lang/Object; \u003e@165",
          "type": "activity",
          "component": "cn.playboy.wifihack.WifiDetailActivity"
        }
      ]
    },
    "2": {
      "startMethod": "cn.playboy.wifihack.WifiDetailActivity.onResume()V",
      "targetMethod": "java.lang.reflect.Method.invoke(Ljava/lang/Object;[Ljava/lang/Object;)Ljava/lang/Object;",
      "eventChain": [
        {
          "start": "cn.playboy.wifihack.WifiDetailActivity.onResume()V",
          "target": "invokevirtual \u003c Application, Ljava/lang/reflect/Method, invoke(Ljava/lang/Object;[Ljava/lang/Object;)Ljava/lang/Object; \u003e@224",
          "type": "activity",
          "component": "cn.playboy.wifihack.WifiDetailActivity"
        }
      ]
    },
    "3": {
      "startMethod": "cn.playboy.wifihack.WifiDetailActivity.onResume()V",
      "targetMethod": "org.apache.http.impl.client.DefaultHttpClient.execute(Lorg/apache/http/client/methods/HttpUriRequest;)Lorg/apache/http/HttpResponse;",
      "eventChain": [
        {
          "start": "cn.playboy.wifihack.WifiDetailActivity.onResume()V",
          "target": "invokevirtual \u003c Application, Lorg/apache/http/impl/client/DefaultHttpClient, execute(Lorg/apache/http/client/methods/HttpUriRequest;)Lorg/apache/http/HttpResponse; \u003e@300",
          "type": "activity",
          "component": "cn.playboy.wifihack.WifiDetailActivity"
        }
      ]
    },
    "4": {
      "startMethod": "cn.playboy.wifihack.WifiDetailActivity.onCreate(Landroid/os/Bundle;)V",
      "targetMethod": "org.apache.http.client.HttpClient.execute(Lorg/apache/http/client/methods/HttpUriRequest;)Lorg/apache/http/HttpResponse;",
      "eventChain": [
        {
          "start": "cn.playboy.wifihack.WifiDetailActivity.onCreate(Landroid/os/Bundle;)V",
          "target": "invokeinterface \u003c Application, Lorg/apache/http/client/HttpClient, execute(Lorg/apache/http/client/methods/HttpUriRequest;)Lorg/apache/http/HttpResponse; \u003e@314",
          "type": "activity",
          "component": "cn.playboy.wifihack.WifiDetailActivity"
        }
      ]
    },
    "5": {
      "startMethod": "cn.playboy.wifihack.WifiDetailActivity.onCreate(Landroid/os/Bundle;)V",
      "targetMethod": "java.lang.reflect.Method.invoke(Ljava/lang/Object;[Ljava/lang/Object;)Ljava/lang/Object;",
      "eventChain": [
        {
          "start": "cn.playboy.wifihack.WifiDetailActivity.onCreate(Landroid/os/Bundle;)V",
          "target": "invokevirtual \u003c Application, Ljava/lang/reflect/Method, invoke(Ljava/lang/Object;[Ljava/lang/Object;)Ljava/lang/Object; \u003e@224",
          "type": "activity",
          "component": "cn.playboy.wifihack.WifiDetailActivity"
        }
      ]
    },
    "6": {
      "startMethod": "cn.playboy.wifihack.WifiDetailActivity.onCreate(Landroid/os/Bundle;)V",
      "targetMethod": "java.lang.reflect.Method.invoke(Ljava/lang/Object;[Ljava/lang/Object;)Ljava/lang/Object;",
      "eventChain": [
        {
          "start": "cn.playboy.wifihack.WifiDetailActivity.onCreate(Landroid/os/Bundle;)V",
          "target": "invokevirtual \u003c Application, Ljava/lang/reflect/Method, invoke(Ljava/lang/Object;[Ljava/lang/Object;)Ljava/lang/Object; \u003e@165",
          "type": "activity",
          "component": "cn.playboy.wifihack.WifiDetailActivity"
        }
      ]
    },
    "7": {
      "startMethod": "cn.playboy.wifihack.WifiDetailActivity.onCreate(Landroid/os/Bundle;)V",
      "targetMethod": "org.apache.http.impl.client.DefaultHttpClient.execute(Lorg/apache/http/client/methods/HttpUriRequest;)Lorg/apache/http/HttpResponse;",
      "eventChain": [
        {
          "start": "cn.playboy.wifihack.WifiDetailActivity.onCreate(Landroid/os/Bundle;)V",
          "target": "invokevirtual \u003c Application, Lorg/apache/http/impl/client/DefaultHttpClient, execute(Lorg/apache/http/client/methods/HttpUriRequest;)Lorg/apache/http/HttpResponse; \u003e@300",
          "type": "activity",
          "component": "cn.playboy.wifihack.WifiDetailActivity"
        }
      ]
    },
    "8": {
      "startMethod": "com.umeng.fb.ui.FeedbackConversations.onCreate(Landroid/os/Bundle;)V",
      "targetMethod": "org.apache.http.client.HttpClient.execute(Lorg/apache/http/client/methods/HttpUriRequest;)Lorg/apache/http/HttpResponse;",
      "eventChain": [
        {
          "start": "com.umeng.fb.ui.FeedbackConversations.onCreate(Landroid/os/Bundle;)V",
          "target": "invokeinterface \u003c Application, Lorg/apache/http/client/HttpClient, execute(Lorg/apache/http/client/methods/HttpUriRequest;)Lorg/apache/http/HttpResponse; \u003e@165",
          "type": "activity",
          "component": "com.umeng.fb.ui.FeedbackConversations",
          "constraintsFile": "constraints8_0.py",
          "variables": {
            "SharedPreferences\u003cmaxReplyID\u003e": "IAAv1"
          },
          "stringMap": {
            "7000": "\u003cUI\u003e",
            "7001": "RP0"
          },
          "strings": {
            "IAAv1": ""
          }
        }
      ]
    },
    "9": {
      "startMethod": "cn.playboy.wifihack.FastWifiActivity.onPause()V",
      "targetMethod": "java.lang.reflect.Method.invoke(Ljava/lang/Object;[Ljava/lang/Object;)Ljava/lang/Object;",
      "eventChain": [
        {
          "start": "cn.playboy.wifihack.FastWifiActivity.onPause()V",
          "target": "invokevirtual \u003c Application, Ljava/lang/reflect/Method, invoke(Ljava/lang/Object;[Ljava/lang/Object;)Ljava/lang/Object; \u003e@224",
          "type": "activity",
          "component": "cn.playboy.wifihack.FastWifiActivity"
        }
      ]
    },
    "10": {
      "startMethod": "cn.playboy.wifihack.FastWifiActivity.onPause()V",
      "targetMethod": "java.lang.reflect.Method.invoke(Ljava/lang/Object;[Ljava/lang/Object;)Ljava/lang/Object;",
      "eventChain": [
        {
          "start": "cn.playboy.wifihack.FastWifiActivity.onPause()V",
          "target": "invokevirtual \u003c Application, Ljava/lang/reflect/Method, invoke(Ljava/lang/Object;[Ljava/lang/Object;)Ljava/lang/Object; \u003e@165",
          "type": "activity",
          "component": "cn.playboy.wifihack.FastWifiActivity"
        }
      ]
    },
    "11": {
      "startMethod": "cn.playboy.wifihack.FastWifiActivity.onPause()V",
      "targetMethod": "org.apache.http.client.HttpClient.execute(Lorg/apache/http/client/methods/HttpUriRequest;)Lorg/apache/http/HttpResponse;",
      "eventChain": [
        {
          "start": "cn.playboy.wifihack.FastWifiActivity.onPause()V",
          "target": "invokeinterface \u003c Application, Lorg/apache/http/client/HttpClient, execute(Lorg/apache/http/client/methods/HttpUriRequest;)Lorg/apache/http/HttpResponse; \u003e@314",
          "type": "activity",
          "component": "cn.playboy.wifihack.FastWifiActivity"
        }
      ]
    },
    "12": {
      "startMethod": "cn.playboy.wifihack.FastWifiActivity.onCreate(Landroid/os/Bundle;)V",
      "targetMethod": "java.lang.reflect.Method.invoke(Ljava/lang/Object;[Ljava/lang/Object;)Ljava/lang/Object;",
      "eventChain": [
        {
          "start": "cn.playboy.wifihack.FastWifiActivity.onCreate(Landroid/os/Bundle;)V",
          "target": "invokevirtual \u003c Application, Ljava/lang/reflect/Method, invoke(Ljava/lang/Object;[Ljava/lang/Object;)Ljava/lang/Object; \u003e@165",
          "type": "activity",
          "component": "cn.playboy.wifihack.FastWifiActivity"
        }
      ]
    },
    "13": {
      "startMethod": "cn.playboy.wifihack.FastWifiActivity.onCreate(Landroid/os/Bundle;)V",
      "targetMethod": "java.lang.reflect.Method.invoke(Ljava/lang/Object;[Ljava/lang/Object;)Ljava/lang/Object;",
      "eventChain": [
        {
          "start": "cn.playboy.wifihack.FastWifiActivity.onCreate(Landroid/os/Bundle;)V",
          "target": "invokevirtual \u003c Application, Ljava/lang/reflect/Method, invoke(Ljava/lang/Object;[Ljava/lang/Object;)Ljava/lang/Object; \u003e@224",
          "type": "activity",
          "component": "cn.playboy.wifihack.FastWifiActivity"
        }
      ]
    },
    "14": {
      "startMethod": "cn.playboy.wifihack.FastWifiActivity.onCreate(Landroid/os/Bundle;)V",
      "targetMethod": "org.apache.http.client.HttpClient.execute(Lorg/apache/http/client/methods/HttpUriRequest;)Lorg/apache/http/HttpResponse;",
      "eventChain": [
        {
          "start": "cn.playboy.wifihack.FastWifiActivity.onCreate(Landroid/os/Bundle;)V",
          "target": "invokeinterface \u003c Application, Lorg/apache/http/client/HttpClient, execute(Lorg/apache/http/client/methods/HttpUriRequest;)Lorg/apache/http/HttpResponse; \u003e@314",
          "type": "activity",
          "component": "cn.playboy.wifihack.FastWifiActivity"
        }
      ]
    },
    "15": {
      "startMethod": "cn.playboy.wifihack.WifiDetailActivity.onPause()V",
      "targetMethod": "org.apache.http.client.HttpClient.execute(Lorg/apache/http/client/methods/HttpUriRequest;)Lorg/apache/http/HttpResponse;",
      "eventChain": [
        {
          "start": "cn.playboy.wifihack.WifiDetailActivity.onPause()V",
          "target": "invokeinterface \u003c Application, Lorg/apache/http/client/HttpClient, execute(Lorg/apache/http/client/methods/HttpUriRequest;)Lorg/apache/http/HttpResponse; \u003e@314",
          "type": "activity",
          "component": "cn.playboy.wifihack.WifiDetailActivity"
        }
      ]
    },
    "16": {
      "startMethod": "cn.playboy.wifihack.WifiDetailActivity.onPause()V",
      "targetMethod": "java.lang.reflect.Method.invoke(Ljava/lang/Object;[Ljava/lang/Object;)Ljava/lang/Object;",
      "eventChain": [
        {
          "start": "cn.playboy.wifihack.WifiDetailActivity.onPause()V",
          "target": "invokevirtual \u003c Application, Ljava/lang/reflect/Method, invoke(Ljava/lang/Object;[Ljava/lang/Object;)Ljava/lang/Object; \u003e@224",
          "type": "activity",
          "component": "cn.playboy.wifihack.WifiDetailActivity"
        }
      ]
    },
    "17": {
      "startMethod": "cn.playboy.wifihack.WifiDetailActivity.onPause()V",
      "targetMethod": "java.lang.reflect.Method.invoke(Ljava/lang/Object;[Ljava/lang/Object;)Ljava/lang/Object;",
      "eventChain": [
        {
          "start": "cn.playboy.wifihack.WifiDetailActivity.onPause()V",
          "target": "invokevirtual \u003c Application, Ljava/lang/reflect/Method, invoke(Ljava/lang/Object;[Ljava/lang/Object;)Ljava/lang/Object; \u003e@165",
          "type": "activity",
          "component": "cn.playboy.wifihack.WifiDetailActivity"
        }
      ]
    },
    "18": {
      "startMethod": "cn.playboy.wifihack.FastWifiActivity.onResume()V",
      "targetMethod": "org.apache.http.client.HttpClient.execute(Lorg/apache/http/client/methods/HttpUriRequest;)Lorg/apache/http/HttpResponse;",
      "eventChain": [
        {
          "start": "cn.playboy.wifihack.FastWifiActivity.onResume()V",
          "target": "invokeinterface \u003c Application, Lorg/apache/http/client/HttpClient, execute(Lorg/apache/http/client/methods/HttpUriRequest;)Lorg/apache/http/HttpResponse; \u003e@314",
          "type": "activity",
          "component": "cn.playboy.wifihack.FastWifiActivity"
        }
      ]
    },
    "19": {
      "startMethod": "cn.playboy.wifihack.FastWifiActivity.onResume()V",
      "targetMethod": "java.lang.reflect.Method.invoke(Ljava/lang/Object;[Ljava/lang/Object;)Ljava/lang/Object;",
      "eventChain": [
        {
          "start": "cn.playboy.wifihack.FastWifiActivity.onResume()V",
          "target": "invokevirtual \u003c Application, Ljava/lang/reflect/Method, invoke(Ljava/lang/Object;[Ljava/lang/Object;)Ljava/lang/Object; \u003e@224",
          "type": "activity",
          "component": "cn.playboy.wifihack.FastWifiActivity"
        }
      ]
    },
    "20": {
      "startMethod": "cn.playboy.wifihack.FastWifiActivity.onResume()V",
      "targetMethod": "java.lang.reflect.Method.invoke(Ljava/lang/Object;[Ljava/lang/Object;)Ljava/lang/Object;",
      "eventChain": [
        {
          "start": "cn.playboy.wifihack.FastWifiActivity.onResume()V",
          "target": "invokevirtual \u003c Application, Ljava/lang/reflect/Method, invoke(Ljava/lang/Object;[Ljava/lang/Object;)Ljava/lang/Object; \u003e@165",
          "type": "activity",
          "component": "cn.playboy.wifihack.FastWifiActivity"
        }
      ]
    },
    "21": {
      "startMethod": "cn.waps.g.onClick(Landroid/content/DialogInterface;I)V",
      "targetMethod": "org.apache.http.impl.client.DefaultHttpClient.execute(Lorg/apache/http/client/methods/HttpUriRequest;)Lorg/apache/http/HttpResponse;",
      "eventChain": [
        {
          "start": "cn.playboy.wifihack.WifiDetailActivity.onResume()V",
          "target": "invokevirtual \u003c Application, Landroid/app/AlertDialog$Builder, setPositiveButton(Ljava/lang/CharSequence;Landroid/content/DialogInterface$OnClickListener;)Landroid/app/AlertDialog$Builder; \u003e@216",
          "type": "activity",
          "component": "cn.playboy.wifihack.WifiDetailActivity"
        },
        {
          "start": "cn.waps.g.onClick(Landroid/content/DialogInterface;I)V",
          "target": "",
          "type": "ui",
          "activities": [
            "cn.playboy.wifihack.SplashActivity"
          ],
          "listener": "cn.waps.g",
          "listenerMethod": "onClick",
          "uiType": "onClick",
          "inDialog": "true",
          "constraintsFile": "constraints21_0.py",
          "variables": {},
          "stringMap": {
            "7000": "pkg\u003d",
            "7001": "\u0026"
          },
          "strings": {}
        },
        {
          "start": "cn.waps.g.onClick(Landroid/content/DialogInterface;I)V",
          "target": "PC@36",
          "type": "ui",
          "activities": [
            "cn.playboy.wifihack.SplashActivity"
          ],
          "listener": "cn.waps.g",
          "listenerMethod": "onClick",
          "uiType": "onClick",
          "inDialog": "true",
          "constraintsFile": "constraints21_1.py",
          "variables": {},
          "stringMap": {
            "7000": "pkg\u003d",
            "7001": "\u0026"
          },
          "strings": {}
        },
        {
          "start": "cn.waps.g.onClick(Landroid/content/DialogInterface;I)V",
          "target": "invokevirtual \u003c Application, Lorg/apache/http/impl/client/DefaultHttpClient, execute(Lorg/apache/http/client/methods/HttpUriRequest;)Lorg/apache/http/HttpResponse; \u003e@300",
          "type": "ui",
          "activities": [
            "cn.playboy.wifihack.SplashActivity"
          ],
          "listener": "cn.waps.g",
          "listenerMethod": "onClick",
          "uiType": "onClick",
          "inDialog": "true",
          "constraintsFile": "constraints21_2.py",
          "variables": {},
          "stringMap": {
            "7000": "pkg\u003d",
            "7001": "\u0026"
          },
          "strings": {}
        }
      ]
    },
    "22": {
      "startMethod": "cn.playboy.wifihack.WifiDetailActivity$2.onClick(Landroid/content/DialogInterface;I)V",
      "targetMethod": "org.apache.http.impl.client.DefaultHttpClient.execute(Lorg/apache/http/client/methods/HttpUriRequest;)Lorg/apache/http/HttpResponse;",
      "eventChain": [
        {
          "start": "cn.playboy.wifihack.WifiDetailActivity.onClick(Landroid/view/View;)V",
          "target": "invokevirtual \u003c Application, Landroid/app/AlertDialog$Builder, setPositiveButton(Ljava/lang/CharSequence;Landroid/content/DialogInterface$OnClickListener;)Landroid/app/AlertDialog$Builder; \u003e@340",
          "type": "ui",
          "activities": [
            "cn.playboy.wifihack.WifiDetailActivity"
          ],
          "listener": "cn.playboy.wifihack.WifiDetailActivity",
          "listenerMethod": "onClick",
          "uiType": "onClick",
          "constraintsFile": "constraints22_0.py",
          "variables": {
            "\u003cInput1\u003e.getId()": "IAAv0"
          },
          "stringMap": {},
          "strings": {}
        },
        {
          "start": "cn.playboy.wifihack.WifiDetailActivity.onResume()V",
          "target": "",
          "type": "activity",
          "component": "cn.playboy.wifihack.WifiDetailActivity"
        },
        {
          "start": "cn.playboy.wifihack.WifiDetailActivity$2.onClick(Landroid/content/DialogInterface;I)V",
          "target": "invokevirtual \u003c Application, Lorg/apache/http/impl/client/DefaultHttpClient, execute(Lorg/apache/http/client/methods/HttpUriRequest;)Lorg/apache/http/HttpResponse; \u003e@300",
          "type": "ui",
          "activities": [
            "cn.playboy.wifihack.SplashActivity"
          ],
          "listener": "cn.playboy.wifihack.WifiDetailActivity$2",
          "listenerMethod": "onClick",
          "uiType": "onClick",
          "inDialog": "true",
          "constraintsFile": "constraints22_1.py",
          "variables": {},
          "stringMap": {
            "7000": ""
          },
          "strings": {
            "IAAv2": "",
            "IAAv5": ""
          }
        }
      ]
    },
    "23": {
      "startMethod": "cn.waps.ar.onClick(Landroid/content/DialogInterface;I)V",
      "targetMethod": "org.apache.http.impl.client.DefaultHttpClient.execute(Lorg/apache/http/client/methods/HttpUriRequest;)Lorg/apache/http/HttpResponse;",
      "eventChain": [
        {
          "start": "cn.waps.aq.onDownloadStart(Ljava/lang/String;Ljava/lang/String;Ljava/lang/String;Ljava/lang/String;J)V",
          "target": "invokevirtual \u003c Application, Landroid/app/AlertDialog$Builder, setNeutralButton(Ljava/lang/CharSequence;Landroid/content/DialogInterface$OnClickListener;)Landroid/app/AlertDialog$Builder; \u003e@394",
          "type": "",
          "constraintsFile": "constraints23_0.py",
          "variables": {},
          "stringMap": {},
          "strings": {}
        },
        {
          "start": "cn.playboy.wifihack.WifiDetailActivity.onResume()V",
          "target": "",
          "type": "activity",
          "component": "cn.playboy.wifihack.WifiDetailActivity"
        },
        {
          "start": "cn.playboy.wifihack.WifiDetailActivity.onResume()V",
          "target": "",
          "type": "activity",
          "component": "cn.playboy.wifihack.WifiDetailActivity"
        },
        {
          "start": "cn.playboy.wifihack.WifiDetailActivity.onResume()V",
          "target": "",
          "type": "activity",
          "component": "cn.playboy.wifihack.WifiDetailActivity"
        },
        {
          "start": "cn.waps.ar.onClick(Landroid/content/DialogInterface;I)V",
          "target": "invokevirtual \u003c Application, Lorg/apache/http/impl/client/DefaultHttpClient, execute(Lorg/apache/http/client/methods/HttpUriRequest;)Lorg/apache/http/HttpResponse; \u003e@300",
          "type": "ui",
          "activities": [
            "cn.playboy.wifihack.SplashActivity"
          ],
          "listener": "cn.waps.ar",
          "listenerMethod": "onClick",
          "uiType": "onClick",
          "inDialog": "true",
          "constraintsFile": "constraints23_1.py",
          "variables": {},
          "stringMap": {
            "7000": ""
          },
          "strings": {
            "IAAv8": "",
            "IAAv5": ""
          }
        }
      ]
    },
    "24": {
      "startMethod": "cn.waps.az.onClick(Landroid/content/DialogInterface;I)V",
      "targetMethod": "org.apache.http.impl.client.DefaultHttpClient.execute(Lorg/apache/http/client/methods/HttpUriRequest;)Lorg/apache/http/HttpResponse;",
      "eventChain": [
        {
          "start": "cn.waps.g.onClick(Landroid/content/DialogInterface;I)V",
          "target": "invokevirtual \u003c Application, Landroid/app/AlertDialog$Builder, setNeutralButton(Ljava/lang/CharSequence;Landroid/content/DialogInterface$OnClickListener;)Landroid/app/AlertDialog$Builder; \u003e@663",
          "type": "ui",
          "activities": [
            "cn.playboy.wifihack.SplashActivity"
          ],
          "listener": "cn.waps.g",
          "listenerMethod": "onClick",
          "uiType": "onClick",
          "inDialog": "true",
          "constraintsFile": "constraints24_0.py",
          "variables": {},
          "stringMap": {},
          "strings": {}
        },
        {
          "start": "cn.playboy.wifihack.WifiDetailActivity.onResume()V",
          "target": "",
          "type": "activity",
          "component": "cn.playboy.wifihack.WifiDetailActivity"
        },
        {
          "start": "cn.playboy.wifihack.WifiDetailActivity.onResume()V",
          "target": "",
          "type": "activity",
          "component": "cn.playboy.wifihack.WifiDetailActivity"
        },
        {
          "start": "cn.playboy.wifihack.WifiDetailActivity.onResume()V",
          "target": "",
          "type": "activity",
          "component": "cn.playboy.wifihack.WifiDetailActivity"
        },
        {
          "start": "cn.waps.az.onClick(Landroid/content/DialogInterface;I)V",
          "target": "invokevirtual \u003c Application, Lorg/apache/http/impl/client/DefaultHttpClient, execute(Lorg/apache/http/client/methods/HttpUriRequest;)Lorg/apache/http/HttpResponse; \u003e@300",
          "type": "ui",
          "activities": [
            "cn.playboy.wifihack.SplashActivity"
          ],
          "listener": "cn.waps.az",
          "listenerMethod": "onClick",
          "uiType": "onClick",
          "inDialog": "true",
          "constraintsFile": "constraints24_1.py",
          "variables": {},
          "stringMap": {
            "7000": ""
          },
          "strings": {
            "IAAv8": "",
            "IAAv5": ""
          }
        }
      ]
    },
    "25": {
      "startMethod": "cn.playboy.wifihack.WifiDetailActivity$1.onClick(Landroid/content/DialogInterface;I)V",
      "targetMethod": "org.apache.http.impl.client.DefaultHttpClient.execute(Lorg/apache/http/client/methods/HttpUriRequest;)Lorg/apache/http/HttpResponse;",
      "eventChain": [
        {
          "start": "cn.playboy.wifihack.WifiDetailActivity.onClick(Landroid/view/View;)V",
          "target": "invokevirtual \u003c Application, Landroid/app/AlertDialog$Builder, setNegativeButton(Ljava/lang/CharSequence;Landroid/content/DialogInterface$OnClickListener;)Landroid/app/AlertDialog$Builder; \u003e@366",
          "type": "ui",
          "activities": [
            "cn.playboy.wifihack.WifiDetailActivity"
          ],
          "listener": "cn.playboy.wifihack.WifiDetailActivity",
          "listenerMethod": "onClick",
          "uiType": "onClick",
          "constraintsFile": "constraints25_0.py",
          "variables": {
            "\u003cInput1\u003e.getId()": "IAAv0"
          },
          "stringMap": {},
          "strings": {}
        },
        {
          "start": "cn.playboy.wifihack.WifiDetailActivity.onResume()V",
          "target": "",
          "type": "activity",
          "component": "cn.playboy.wifihack.WifiDetailActivity"
        },
        {
          "start": "cn.playboy.wifihack.WifiDetailActivity$1.onClick(Landroid/content/DialogInterface;I)V",
          "target": "invokevirtual \u003c Application, Lorg/apache/http/impl/client/DefaultHttpClient, execute(Lorg/apache/http/client/methods/HttpUriRequest;)Lorg/apache/http/HttpResponse; \u003e@300",
          "type": "ui",
          "activities": [
            "cn.playboy.wifihack.SplashActivity"
          ],
          "listener": "cn.playboy.wifihack.WifiDetailActivity$1",
          "listenerMethod": "onClick",
          "uiType": "onClick",
          "inDialog": "true",
          "constraintsFile": "constraints25_1.py",
          "variables": {},
          "stringMap": {
            "7000": ""
          },
          "strings": {
            "IAAv4": "",
            "IAAv7": ""
          }
        }
      ]
    },
    "26": {
      "startMethod": "com.umeng.xp.view.U.onClick(Landroid/view/View;)V",
      "targetMethod": "java.net.URL.openConnection()Ljava/net/URLConnection;",
      "eventChain": [
        {
          "start": "com.umeng.xp.view.U.onClick(Landroid/view/View;)V",
          "target": "invokevirtual \u003c Application, Landroid/view/View, setOnClickListener(Landroid/view/View$OnClickListener;)V \u003e@330",
          "type": "ui",
          "activities": [
            "cn.playboy.wifihack.SplashActivity"
          ],
          "listener": "com.umeng.xp.view.U",
          "listenerMethod": "onClick",
          "uiType": "onClick",
          "constraintsFile": "constraints26_0.py",
          "variables": {},
          "stringMap": {
            "7000": "\u003cUI\u003e"
          },
          "strings": {
            "IAAv1": ""
          }
        },
        {
          "start": "com.umeng.xp.view.U.onClick(Landroid/view/View;)V",
          "target": "",
          "type": "ui",
          "activities": [
            "cn.playboy.wifihack.SplashActivity"
          ],
          "listener": "com.umeng.xp.view.U",
          "listenerMethod": "onClick",
          "uiType": "onClick",
          "constraintsFile": "constraints26_1.py",
          "variables": {},
          "stringMap": {},
          "strings": {
            "IAAv1": ""
          }
        },
        {
          "start": "com.umeng.xp.view.U.onClick(Landroid/view/View;)V",
          "target": "PC@125",
          "type": "ui",
          "activities": [
            "cn.playboy.wifihack.SplashActivity"
          ],
          "listener": "com.umeng.xp.view.U",
          "listenerMethod": "onClick",
          "uiType": "onClick",
          "constraintsFile": "constraints26_2.py",
          "variables": {
            "\u003cUI\u003e.setVisibility().a": "IAAv32"
          },
          "stringMap": {
            "7000": "\u003cUI\u003e"
          },
          "strings": {
            "IAAv1": ""
          }
        },
        {
          "start": "com.umeng.xp.view.U.onClick(Landroid/view/View;)V",
          "target": "invokevirtual \u003c Application, Ljava/net/URL, openConnection()Ljava/net/URLConnection; \u003e@200",
          "type": "ui",
          "activities": [
            "cn.playboy.wifihack.SplashActivity"
          ],
          "listener": "com.umeng.xp.view.U",
          "listenerMethod": "onClick",
          "uiType": "onClick",
          "constraintsFile": "constraints26_3.py",
          "variables": {
            "\u003cUI\u003e.setVisibility().a": "IAAv32"
          },
          "stringMap": {
            "7000": "\u003cUI\u003e"
          },
          "strings": {
            "IAAv1": ""
          }
        }
      ]
    },
    "27": {
      "startMethod": "com.umeng.xp.view.U.onClick(Landroid/view/View;)V",
      "targetMethod": "org.apache.http.client.HttpClient.execute(Lorg/apache/http/client/methods/HttpUriRequest;)Lorg/apache/http/HttpResponse;",
      "eventChain": [
        {
          "start": "com.umeng.xp.view.U.onClick(Landroid/view/View;)V",
          "target": "invokevirtual \u003c Application, Landroid/view/View, setOnClickListener(Landroid/view/View$OnClickListener;)V \u003e@330",
          "type": "ui",
          "activities": [
            "cn.playboy.wifihack.SplashActivity"
          ],
          "listener": "com.umeng.xp.view.U",
          "listenerMethod": "onClick",
          "uiType": "onClick",
          "constraintsFile": "constraints27_0.py",
          "variables": {},
          "stringMap": {
            "7000": "\u003cUI\u003e"
          },
          "strings": {
            "IAAv1": ""
          }
        },
        {
          "start": "com.umeng.xp.view.U.onClick(Landroid/view/View;)V",
          "target": "",
          "type": "ui",
          "activities": [
            "cn.playboy.wifihack.SplashActivity"
          ],
          "listener": "com.umeng.xp.view.U",
          "listenerMethod": "onClick",
          "uiType": "onClick",
          "constraintsFile": "constraints27_1.py",
          "variables": {},
          "stringMap": {},
          "strings": {
            "IAAv1": ""
          }
        },
        {
          "start": "com.umeng.xp.view.U.onClick(Landroid/view/View;)V",
          "target": "PC@125",
          "type": "ui",
          "activities": [
            "cn.playboy.wifihack.SplashActivity"
          ],
          "listener": "com.umeng.xp.view.U",
          "listenerMethod": "onClick",
          "uiType": "onClick",
          "constraintsFile": "constraints27_2.py",
          "variables": {},
          "stringMap": {
            "7000": "\u003cUI\u003e"
          },
          "strings": {
            "IAAv1": "",
            "IAAv16": "",
            "IAAv17": "",
            "IAAv19": ""
          }
        },
        {
          "start": "com.umeng.xp.view.U.onClick(Landroid/view/View;)V",
          "target": "invokeinterface \u003c Application, Lorg/apache/http/client/HttpClient, execute(Lorg/apache/http/client/methods/HttpUriRequest;)Lorg/apache/http/HttpResponse; \u003e@309",
          "type": "ui",
          "activities": [
            "cn.playboy.wifihack.SplashActivity"
          ],
          "listener": "com.umeng.xp.view.U",
          "listenerMethod": "onClick",
          "uiType": "onClick",
          "constraintsFile": "constraints27_3.py",
          "variables": {},
          "stringMap": {
            "7000": "\u003cUI\u003e"
          },
          "strings": {
            "IAAv1": "",
            "IAAv16": "",
            "IAAv17": "",
            "IAAv19": ""
          }
        }
      ]
    },
    "28": {
      "startMethod": "com.umeng.xp.view.U.onClick(Landroid/view/View;)V",
      "targetMethod": "org.apache.http.client.HttpClient.execute(Lorg/apache/http/client/methods/HttpUriRequest;)Lorg/apache/http/HttpResponse;",
      "eventChain": [
        {
          "start": "com.umeng.xp.view.U.onClick(Landroid/view/View;)V",
          "target": "invokevirtual \u003c Application, Landroid/view/View, setOnClickListener(Landroid/view/View$OnClickListener;)V \u003e@330",
          "type": "ui",
          "activities": [
            "cn.playboy.wifihack.SplashActivity"
          ],
          "listener": "com.umeng.xp.view.U",
          "listenerMethod": "onClick",
          "uiType": "onClick",
          "constraintsFile": "constraints28_0.py",
          "variables": {},
          "stringMap": {
            "7000": "\u003cUI\u003e"
          },
          "strings": {
            "IAAv1": ""
          }
        },
        {
          "start": "com.umeng.xp.view.U.onClick(Landroid/view/View;)V",
          "target": "",
          "type": "ui",
          "activities": [
            "cn.playboy.wifihack.SplashActivity"
          ],
          "listener": "com.umeng.xp.view.U",
          "listenerMethod": "onClick",
          "uiType": "onClick",
          "constraintsFile": "constraints28_1.py",
          "variables": {},
          "stringMap": {},
          "strings": {
            "IAAv1": ""
          }
        },
        {
          "start": "com.umeng.xp.view.U.onClick(Landroid/view/View;)V",
          "target": "PC@125",
          "type": "ui",
          "activities": [
            "cn.playboy.wifihack.SplashActivity"
          ],
          "listener": "com.umeng.xp.view.U",
          "listenerMethod": "onClick",
          "uiType": "onClick",
          "constraintsFile": "constraints28_2.py",
          "variables": {},
          "stringMap": {
            "7000": "\u003cUI\u003e"
          },
          "strings": {
            "IAAv1": "",
            "IAAv16": "",
            "IAAv17": ""
          }
        },
        {
          "start": "com.umeng.xp.view.U.onClick(Landroid/view/View;)V",
          "target": "invokeinterface \u003c Application, Lorg/apache/http/client/HttpClient, execute(Lorg/apache/http/client/methods/HttpUriRequest;)Lorg/apache/http/HttpResponse; \u003e@349",
          "type": "ui",
          "activities": [
            "cn.playboy.wifihack.SplashActivity"
          ],
          "listener": "com.umeng.xp.view.U",
          "listenerMethod": "onClick",
          "uiType": "onClick",
          "constraintsFile": "constraints28_3.py",
          "variables": {},
          "stringMap": {
            "7000": "\u003cUI\u003e"
          },
          "strings": {
            "IAAv1": "",
            "IAAv16": "",
            "IAAv17": ""
          }
        }
      ]
    },
    "29": {
      "startMethod": "cn.waps.ap.onClick(Landroid/view/View;)V",
      "targetMethod": "org.apache.http.impl.client.DefaultHttpClient.execute(Lorg/apache/http/client/methods/HttpUriRequest;)Lorg/apache/http/HttpResponse;",
      "eventChain": [
        {
          "start": "cn.waps.ap.onClick(Landroid/view/View;)V",
          "target": "invokevirtual \u003c Application, Lorg/apache/http/impl/client/DefaultHttpClient, execute(Lorg/apache/http/client/methods/HttpUriRequest;)Lorg/apache/http/HttpResponse; \u003e@300",
          "type": "ui",
          "activities": [
            "cn.playboy.wifihack.SplashActivity"
          ],
          "listener": "cn.waps.ap",
          "listenerMethod": "onClick",
          "uiType": "onClick",
          "constraintsFile": "constraints29_0.py",
          "variables": {},
          "stringMap": {
            "7000": ""
          },
          "strings": {
            "IAAv3": "",
            "IAAv6": ""
          }
        }
      ]
    },
    "30": {
      "startMethod": "com.umeng.xp.view.K.onClick(Landroid/view/View;)V",
      "targetMethod": "org.apache.http.client.HttpClient.execute(Lorg/apache/http/client/methods/HttpUriRequest;)Lorg/apache/http/HttpResponse;",
      "eventChain": [
        {
          "start": "com.umeng.xp.view.U.onClick(Landroid/view/View;)V",
          "target": "",
          "type": "ui",
          "activities": [
            "cn.playboy.wifihack.SplashActivity"
          ],
          "listener": "com.umeng.xp.view.U",
          "listenerMethod": "onClick",
          "uiType": "onClick",
          "constraintsFile": "constraints30_0.py",
          "variables": {},
          "stringMap": {},
          "strings": {
            "IAAv1": ""
          }
        },
        {
          "start": "com.umeng.xp.view.K.onClick(Landroid/view/View;)V",
          "target": "invokeinterface \u003c Application, Lorg/apache/http/client/HttpClient, execute(Lorg/apache/http/client/methods/HttpUriRequest;)Lorg/apache/http/HttpResponse; \u003e@349",
          "type": "ui",
          "activities": [
            "cn.playboy.wifihack.SplashActivity"
          ],
          "listener": "com.umeng.xp.view.K",
          "listenerMethod": "onClick",
          "uiType": "onClick",
          "constraintsFile": "constraints30_1.py",
          "variables": {},
          "stringMap": {
            "7000": "\u003cUI\u003e"
          },
          "strings": {
            "IAAv13": "",
            "IAAv12": ""
          }
        }
      ]
    },
    "31": {
      "startMethod": "com.umeng.xp.view.K.onClick(Landroid/view/View;)V",
      "targetMethod": "java.net.URL.openConnection()Ljava/net/URLConnection;",
      "eventChain": [
        {
          "start": "com.umeng.xp.view.U.onClick(Landroid/view/View;)V",
          "target": "",
          "type": "ui",
          "activities": [
            "cn.playboy.wifihack.SplashActivity"
          ],
          "listener": "com.umeng.xp.view.U",
          "listenerMethod": "onClick",
          "uiType": "onClick",
          "constraintsFile": "constraints31_0.py",
          "variables": {},
          "stringMap": {},
          "strings": {
            "IAAv1": ""
          }
        },
        {
          "start": "com.umeng.xp.view.K.onClick(Landroid/view/View;)V",
          "target": "invokevirtual \u003c Application, Ljava/net/URL, openConnection()Ljava/net/URLConnection; \u003e@200",
          "type": "ui",
          "activities": [
            "cn.playboy.wifihack.SplashActivity"
          ],
          "listener": "com.umeng.xp.view.K",
          "listenerMethod": "onClick",
          "uiType": "onClick",
          "constraintsFile": "constraints31_1.py",
          "variables": {
            "\u003cUI\u003e.setVisibility().a": "IAAv28"
          },
          "stringMap": {
            "7000": "\u003cUI\u003e"
          },
          "strings": {}
        }
      ]
    },
    "32": {
      "startMethod": "com.umeng.xp.view.K.onClick(Landroid/view/View;)V",
      "targetMethod": "org.apache.http.client.HttpClient.execute(Lorg/apache/http/client/methods/HttpUriRequest;)Lorg/apache/http/HttpResponse;",
      "eventChain": [
        {
          "start": "com.umeng.xp.view.U.onClick(Landroid/view/View;)V",
          "target": "",
          "type": "ui",
          "activities": [
            "cn.playboy.wifihack.SplashActivity"
          ],
          "listener": "com.umeng.xp.view.U",
          "listenerMethod": "onClick",
          "uiType": "onClick",
          "constraintsFile": "constraints32_0.py",
          "variables": {},
          "stringMap": {},
          "strings": {
            "IAAv1": ""
          }
        },
        {
          "start": "com.umeng.xp.view.K.onClick(Landroid/view/View;)V",
          "target": "invokeinterface \u003c Application, Lorg/apache/http/client/HttpClient, execute(Lorg/apache/http/client/methods/HttpUriRequest;)Lorg/apache/http/HttpResponse; \u003e@309",
          "type": "ui",
          "activities": [
            "cn.playboy.wifihack.SplashActivity"
          ],
          "listener": "com.umeng.xp.view.K",
          "listenerMethod": "onClick",
          "uiType": "onClick",
          "constraintsFile": "constraints32_1.py",
          "variables": {},
          "stringMap": {
            "7000": "\u003cUI\u003e"
          },
          "strings": {
            "IAAv13": "",
            "IAAv12": "",
            "IAAv15": ""
          }
        }
      ]
    },
    "33": {
      "startMethod": "com.umeng.xp.view.c.onClick(Landroid/view/View;)V",
      "targetMethod": "java.net.URL.openConnection()Ljava/net/URLConnection;",
      "eventChain": [
        {
          "start": "com.umeng.xp.view.U.onClick(Landroid/view/View;)V",
          "target": "",
          "type": "ui",
          "activities": [
            "cn.playboy.wifihack.SplashActivity"
          ],
          "listener": "com.umeng.xp.view.U",
          "listenerMethod": "onClick",
          "uiType": "onClick",
          "constraintsFile": "constraints33_0.py",
          "variables": {},
          "stringMap": {},
          "strings": {
            "IAAv1": ""
          }
        },
        {
          "start": "com.umeng.xp.view.U.onClick(Landroid/view/View;)V",
          "target": "PC@125",
          "type": "ui",
          "activities": [
            "cn.playboy.wifihack.SplashActivity"
          ],
          "listener": "com.umeng.xp.view.U",
          "listenerMethod": "onClick",
          "uiType": "onClick",
          "constraintsFile": "constraints33_1.py",
          "variables": {
            "\u003cUI\u003e.setVisibility().a": "IAAv33"
          },
          "stringMap": {
            "7000": "\u003cUI\u003e"
          },
          "strings": {
            "IAAv2": ""
          }
        },
        {
          "start": "com.umeng.xp.view.c.onClick(Landroid/view/View;)V",
          "target": "invokevirtual \u003c Application, Ljava/net/URL, openConnection()Ljava/net/URLConnection; \u003e@200",
          "type": "ui",
          "activities": [
            "cn.playboy.wifihack.SplashActivity"
          ],
          "listener": "com.umeng.xp.view.c",
          "listenerMethod": "onClick",
          "uiType": "onClick",
          "constraintsFile": "constraints33_2.py",
          "variables": {
            "\u003cUI\u003e.setVisibility().a": "IAAv33"
          },
          "stringMap": {
            "7000": "\u003cUI\u003e"
          },
          "strings": {
            "IAAv2": ""
          }
        }
      ]
    },
    "34": {
      "startMethod": "com.umeng.xp.view.c.onClick(Landroid/view/View;)V",
      "targetMethod": "org.apache.http.client.HttpClient.execute(Lorg/apache/http/client/methods/HttpUriRequest;)Lorg/apache/http/HttpResponse;",
      "eventChain": [
        {
          "start": "com.umeng.xp.view.U.onClick(Landroid/view/View;)V",
          "target": "",
          "type": "ui",
          "activities": [
            "cn.playboy.wifihack.SplashActivity"
          ],
          "listener": "com.umeng.xp.view.U",
          "listenerMethod": "onClick",
          "uiType": "onClick",
          "constraintsFile": "constraints34_0.py",
          "variables": {},
          "stringMap": {},
          "strings": {
            "IAAv1": ""
          }
        },
        {
          "start": "com.umeng.xp.view.U.onClick(Landroid/view/View;)V",
          "target": "PC@125",
          "type": "ui",
          "activities": [
            "cn.playboy.wifihack.SplashActivity"
          ],
          "listener": "com.umeng.xp.view.U",
          "listenerMethod": "onClick",
          "uiType": "onClick",
          "constraintsFile": "constraints34_1.py",
          "variables": {},
          "stringMap": {
            "7000": "\u003cUI\u003e"
          },
          "strings": {
            "IAAv2": "",
            "IAAv17": "",
            "IAAv18": ""
          }
        },
        {
          "start": "com.umeng.xp.view.c.onClick(Landroid/view/View;)V",
          "target": "invokeinterface \u003c Application, Lorg/apache/http/client/HttpClient, execute(Lorg/apache/http/client/methods/HttpUriRequest;)Lorg/apache/http/HttpResponse; \u003e@349",
          "type": "ui",
          "activities": [
            "cn.playboy.wifihack.SplashActivity"
          ],
          "listener": "com.umeng.xp.view.c",
          "listenerMethod": "onClick",
          "uiType": "onClick",
          "constraintsFile": "constraints34_2.py",
          "variables": {},
          "stringMap": {
            "7000": "\u003cUI\u003e"
          },
          "strings": {
            "IAAv2": "",
            "IAAv17": "",
            "IAAv18": ""
          }
        }
      ]
    },
    "35": {
      "startMethod": "com.umeng.xp.view.c.onClick(Landroid/view/View;)V",
      "targetMethod": "org.apache.http.client.HttpClient.execute(Lorg/apache/http/client/methods/HttpUriRequest;)Lorg/apache/http/HttpResponse;",
      "eventChain": [
        {
          "start": "com.umeng.xp.view.U.onClick(Landroid/view/View;)V",
          "target": "",
          "type": "ui",
          "activities": [
            "cn.playboy.wifihack.SplashActivity"
          ],
          "listener": "com.umeng.xp.view.U",
          "listenerMethod": "onClick",
          "uiType": "onClick",
          "constraintsFile": "constraints35_0.py",
          "variables": {},
          "stringMap": {},
          "strings": {
            "IAAv1": ""
          }
        },
        {
          "start": "com.umeng.xp.view.U.onClick(Landroid/view/View;)V",
          "target": "PC@125",
          "type": "ui",
          "activities": [
            "cn.playboy.wifihack.SplashActivity"
          ],
          "listener": "com.umeng.xp.view.U",
          "listenerMethod": "onClick",
          "uiType": "onClick",
          "constraintsFile": "constraints35_1.py",
          "variables": {},
          "stringMap": {
            "7000": "\u003cUI\u003e"
          },
          "strings": {
            "IAAv20": "",
            "IAAv2": "",
            "IAAv17": "",
            "IAAv18": ""
          }
        },
        {
          "start": "com.umeng.xp.view.c.onClick(Landroid/view/View;)V",
          "target": "invokeinterface \u003c Application, Lorg/apache/http/client/HttpClient, execute(Lorg/apache/http/client/methods/HttpUriRequest;)Lorg/apache/http/HttpResponse; \u003e@309",
          "type": "ui",
          "activities": [
            "cn.playboy.wifihack.SplashActivity"
          ],
          "listener": "com.umeng.xp.view.c",
          "listenerMethod": "onClick",
          "uiType": "onClick",
          "constraintsFile": "constraints35_2.py",
          "variables": {},
          "stringMap": {
            "7000": "\u003cUI\u003e"
          },
          "strings": {
            "IAAv20": "",
            "IAAv2": "",
            "IAAv17": "",
            "IAAv18": ""
          }
        }
      ]
    },
    "36": {
      "startMethod": "com.umeng.xp.view.G.onClick(Landroid/view/View;)V",
      "targetMethod": "java.lang.reflect.Method.invoke(Ljava/lang/Object;[Ljava/lang/Object;)Ljava/lang/Object;",
      "eventChain": [
        {
          "start": "com.umeng.xp.view.G.onClick(Landroid/view/View;)V",
          "target": "invokevirtual \u003c Application, Ljava/lang/reflect/Method, invoke(Ljava/lang/Object;[Ljava/lang/Object;)Ljava/lang/Object; \u003e@216",
          "type": "ui",
          "activities": [
            "cn.playboy.wifihack.SplashActivity"
          ],
          "listener": "com.umeng.xp.view.G",
          "listenerMethod": "onClick",
          "uiType": "onClick",
          "constraintsFile": "constraints36_0.py",
          "variables": {},
          "stringMap": {},
          "strings": {}
        }
      ]
    },
    "37": {
      "startMethod": "com.umeng.xp.view.G.onClick(Landroid/view/View;)V",
      "targetMethod": "java.lang.reflect.Method.invoke(Ljava/lang/Object;[Ljava/lang/Object;)Ljava/lang/Object;",
      "eventChain": [
        {
          "start": "com.umeng.xp.view.G.onClick(Landroid/view/View;)V",
          "target": "invokevirtual \u003c Application, Ljava/lang/reflect/Method, invoke(Ljava/lang/Object;[Ljava/lang/Object;)Ljava/lang/Object; \u003e@69",
          "type": "ui",
          "activities": [
            "cn.playboy.wifihack.SplashActivity"
          ],
          "listener": "com.umeng.xp.view.G",
          "listenerMethod": "onClick",
          "uiType": "onClick",
          "constraintsFile": "constraints37_0.py",
          "variables": {},
          "stringMap": {},
          "strings": {}
        }
      ]
    },
    "38": {
      "startMethod": "com.umeng.xp.view.G.onClick(Landroid/view/View;)V",
      "targetMethod": "java.lang.reflect.Method.invoke(Ljava/lang/Object;[Ljava/lang/Object;)Ljava/lang/Object;",
      "eventChain": [
        {
          "start": "com.umeng.xp.view.G.onClick(Landroid/view/View;)V",
          "target": "invokevirtual \u003c Application, Ljava/lang/reflect/Method, invoke(Ljava/lang/Object;[Ljava/lang/Object;)Ljava/lang/Object; \u003e@290",
          "type": "ui",
          "activities": [
            "cn.playboy.wifihack.SplashActivity"
          ],
          "listener": "com.umeng.xp.view.G",
          "listenerMethod": "onClick",
          "uiType": "onClick",
          "constraintsFile": "constraints38_0.py",
          "variables": {},
          "stringMap": {},
          "strings": {}
        }
      ]
    },
    "39": {
      "startMethod": "com.umeng.xp.view.J.onClick(Landroid/view/View;)V",
      "targetMethod": "java.net.URL.openConnection()Ljava/net/URLConnection;",
      "eventChain": [
        {
          "start": "com.umeng.xp.view.J.onClick(Landroid/view/View;)V",
          "target": "invokevirtual \u003c Application, Ljava/net/URL, openConnection()Ljava/net/URLConnection; \u003e@200",
          "type": "ui",
          "activities": [
            "cn.playboy.wifihack.SplashActivity"
          ],
          "listener": "com.umeng.xp.view.J",
          "listenerMethod": "onClick",
          "uiType": "onClick",
          "constraintsFile": "constraints39_0.py",
          "variables": {
            "\u003cUI\u003e.setVisibility().a": "IAAv30"
          },
          "stringMap": {
            "7000": "\u003cUI\u003e"
          },
          "strings": {}
        }
      ]
    },
    "40": {
      "startMethod": "com.umeng.xp.view.J.onClick(Landroid/view/View;)V",
      "targetMethod": "org.apache.http.client.HttpClient.execute(Lorg/apache/http/client/methods/HttpUriRequest;)Lorg/apache/http/HttpResponse;",
      "eventChain": [
        {
          "start": "com.umeng.xp.view.J.onClick(Landroid/view/View;)V",
          "target": "invokeinterface \u003c Application, Lorg/apache/http/client/HttpClient, execute(Lorg/apache/http/client/methods/HttpUriRequest;)Lorg/apache/http/HttpResponse; \u003e@309",
          "type": "ui",
          "activities": [
            "cn.playboy.wifihack.SplashActivity"
          ],
          "listener": "com.umeng.xp.view.J",
          "listenerMethod": "onClick",
          "uiType": "onClick",
          "constraintsFile": "constraints40_0.py",
          "variables": {},
          "stringMap": {
            "7000": "\u003cUI\u003e"
          },
          "strings": {
            "IAAv14": "",
            "IAAv15": "",
            "IAAv17": ""
          }
        }
      ]
    },
    "41": {
      "startMethod": "com.umeng.xp.view.J.onClick(Landroid/view/View;)V",
      "targetMethod": "org.apache.http.client.HttpClient.execute(Lorg/apache/http/client/methods/HttpUriRequest;)Lorg/apache/http/HttpResponse;",
      "eventChain": [
        {
          "start": "com.umeng.xp.view.J.onClick(Landroid/view/View;)V",
          "target": "invokeinterface \u003c Application, Lorg/apache/http/client/HttpClient, execute(Lorg/apache/http/client/methods/HttpUriRequest;)Lorg/apache/http/HttpResponse; \u003e@349",
          "type": "ui",
          "activities": [
            "cn.playboy.wifihack.SplashActivity"
          ],
          "listener": "com.umeng.xp.view.J",
          "listenerMethod": "onClick",
          "uiType": "onClick",
          "constraintsFile": "constraints41_0.py",
          "variables": {},
          "stringMap": {
            "7000": "\u003cUI\u003e"
          },
          "strings": {
            "IAAv14": "",
            "IAAv15": ""
          }
        }
      ]
    },
    "42": {
      "startMethod": "cn.waps.ab.onReceive(Landroid/content/Context;Landroid/content/Intent;)V",
      "targetMethod": "org.apache.http.impl.client.DefaultHttpClient.execute(Lorg/apache/http/client/methods/HttpUriRequest;)Lorg/apache/http/HttpResponse;",
      "eventChain": [
        {
          "start": "cn.playboy.wifihack.WifiDetailActivity.onResume()V",
          "target": "invokespecial \u003c Application, Landroid/content/BroadcastReceiver, \u003cinit\u003e()V \u003e@2",
          "type": "activity",
          "component": "cn.playboy.wifihack.WifiDetailActivity"
        },
        {
          "start": "cn.playboy.wifihack.WifiDetailActivity.onResume()V",
          "target": "",
          "type": "activity",
          "component": "cn.playboy.wifihack.WifiDetailActivity"
        },
        {
          "start": "cn.playboy.wifihack.WifiDetailActivity.onResume()V",
          "target": "PC@48",
          "type": "activity",
          "component": "cn.playboy.wifihack.WifiDetailActivity"
        },
        {
          "start": "cn.playboy.wifihack.WifiDetailActivity.onResume()V",
          "target": "",
          "type": "activity",
          "component": "cn.playboy.wifihack.WifiDetailActivity"
        },
        {
          "start": "cn.waps.ab.onReceive(Landroid/content/Context;Landroid/content/Intent;)V",
          "target": "invokevirtual \u003c Application, Lorg/apache/http/impl/client/DefaultHttpClient, execute(Lorg/apache/http/client/methods/HttpUriRequest;)Lorg/apache/http/HttpResponse; \u003e@300",
          "type": "sms",
          "constraintsFile": "constraints42_0.py",
          "variables": {
            "\u003cChainedInput2\u003e.getAction()": "IAAv0"
          },
          "stringMap": {
            "7000": "android.net.conn.CONNECTIVITY_CHANGE",
            "7001": ""
          },
          "strings": {
            "IAAv0": "",
            "IAAv10": "",
            "IAAv7": ""
          }
        }
      ]
    },
    "43": {
      "startMethod": "cn.waps.ae.onReceive(Landroid/content/Context;Landroid/content/Intent;)V",
      "targetMethod": "org.apache.http.impl.client.DefaultHttpClient.execute(Lorg/apache/http/client/methods/HttpUriRequest;)Lorg/apache/http/HttpResponse;",
      "eventChain": [
        {
          "start": "cn.waps.ba.onClick(Landroid/content/DialogInterface;I)V",
          "target": "invokespecial \u003c Application, Landroid/content/BroadcastReceiver, \u003cinit\u003e()V \u003e@2",
          "type": "ui",
          "activities": [
            "cn.playboy.wifihack.SplashActivity"
          ],
          "listener": "cn.waps.ba",
          "listenerMethod": "onClick",
          "uiType": "onClick",
          "inDialog": "true"
        },
        {
          "start": "cn.playboy.wifihack.WifiDetailActivity.onResume()V",
          "target": "",
          "type": "activity",
          "component": "cn.playboy.wifihack.WifiDetailActivity"
        },
        {
          "start": "cn.waps.ae.onReceive(Landroid/content/Context;Landroid/content/Intent;)V",
          "target": "invokevirtual \u003c Application, Lorg/apache/http/impl/client/DefaultHttpClient, execute(Lorg/apache/http/client/methods/HttpUriRequest;)Lorg/apache/http/HttpResponse; \u003e@300",
          "type": "sms",
          "constraintsFile": "constraints43_0.py",
          "variables": {
            "\u003cChainedInput2\u003e.getDataString()": "IAAv2",
            "\u003cChainedInput2\u003e.getAction()": "IAAv0",
            "\u003cChainedInput1\u003e.d().a()": "IAAv8"
          },
          "stringMap": {
            "7000": "android.intent.action.PACKAGE_ADDED",
            "7001": ""
          },
          "strings": {
            "IAAv2": "",
            "IAAv0": "",
            "IAAv9": "",
            "IAAv6": ""
          }
        }
      ]
    },
    "44": {
      "startMethod": "cn.waps.aq.onDownloadStart(Ljava/lang/String;Ljava/lang/String;Ljava/lang/String;Ljava/lang/String;J)V",
      "targetMethod": "java.net.URL.openConnection()Ljava/net/URLConnection;",
      "eventChain": [
        {
          "start": "cn.waps.OffersWebView.onCreate(Landroid/os/Bundle;)V",
          "target": "invokevirtual \u003c Application, Landroid/webkit/WebView, setDownloadListener(Landroid/webkit/DownloadListener;)V \u003e@1033",
          "type": "activity",
          "component": "cn.waps.OffersWebView",
          "constraintsFile": "constraints44_0.py",
          "variables": {
            "SharedPreferences\u003cpackageName\u003e": "IAAv4",
            "SharedPreferences\u003cclassName\u003e": "IAAv6"
          },
          "stringMap": {
            "7000": "",
            "7001": "OffersWebView",
            "7002": "feedback",
            "7003": "down_type",
            "7004": "true",
            "7005": "false",
            "7006": "notify"
          },
          "strings": {
            "IAAv4": "",
            "IAAv6": ""
          }
        },
        {
          "start": "cn.waps.OffersWebView.onDestroy()V",
          "target": "",
          "type": "activity",
          "component": "cn.waps.OffersWebView",
          "constraintsFile": "constraints44_1.py",
          "variables": {},
          "stringMap": {},
          "strings": {}
        },
        {
          "start": "cn.waps.aq.onDownloadStart(Ljava/lang/String;Ljava/lang/String;Ljava/lang/String;Ljava/lang/String;J)V",
          "target": "invokevirtual \u003c Application, Ljava/net/URL, openConnection()Ljava/net/URLConnection; \u003e@25",
          "type": "",
          "constraintsFile": "constraints44_2.py",
          "variables": {},
          "stringMap": {},
          "strings": {}
        }
      ]
    },
    "45": {
      "startMethod": "cn.waps.aq.onDownloadStart(Ljava/lang/String;Ljava/lang/String;Ljava/lang/String;Ljava/lang/String;J)V",
      "targetMethod": "org.apache.http.impl.client.DefaultHttpClient.execute(Lorg/apache/http/client/methods/HttpUriRequest;)Lorg/apache/http/HttpResponse;",
      "eventChain": [
        {
          "start": "cn.waps.OffersWebView.onCreate(Landroid/os/Bundle;)V",
          "target": "invokevirtual \u003c Application, Landroid/webkit/WebView, setDownloadListener(Landroid/webkit/DownloadListener;)V \u003e@1033",
          "type": "activity",
          "component": "cn.waps.OffersWebView",
          "constraintsFile": "constraints45_0.py",
          "variables": {
            "SharedPreferences\u003cpackageName\u003e": "IAAv4",
            "SharedPreferences\u003cclassName\u003e": "IAAv6"
          },
          "stringMap": {
            "7000": "",
            "7001": "OffersWebView",
            "7002": "feedback",
            "7003": "down_type",
            "7004": "true",
            "7005": "false",
            "7006": "notify"
          },
          "strings": {
            "IAAv4": "",
            "IAAv6": ""
          }
        },
        {
          "start": "cn.playboy.wifihack.WifiDetailActivity.onResume()V",
          "target": "",
          "type": "activity",
          "component": "cn.playboy.wifihack.WifiDetailActivity"
        },
        {
          "start": "cn.playboy.wifihack.WifiDetailActivity.onResume()V",
          "target": "",
          "type": "activity",
          "component": "cn.playboy.wifihack.WifiDetailActivity"
        },
        {
          "start": "cn.playboy.wifihack.WifiDetailActivity.onResume()V",
          "target": "",
          "type": "activity",
          "component": "cn.playboy.wifihack.WifiDetailActivity"
        },
        {
          "start": "cn.waps.OffersWebView.onDestroy()V",
          "target": "",
          "type": "activity",
          "component": "cn.waps.OffersWebView",
          "constraintsFile": "constraints45_1.py",
          "variables": {},
          "stringMap": {
            "7000": ""
          },
          "strings": {
            "IAAv12": "",
            "IAAv15": "",
            "IAAv5": ""
          }
        },
        {
          "start": "cn.playboy.wifihack.WifiDetailActivity.onResume()V",
          "target": "",
          "type": "activity",
          "component": "cn.playboy.wifihack.WifiDetailActivity"
        },
        {
          "start": "cn.waps.aq.onDownloadStart(Ljava/lang/String;Ljava/lang/String;Ljava/lang/String;Ljava/lang/String;J)V",
          "target": "invokevirtual \u003c Application, Lorg/apache/http/impl/client/DefaultHttpClient, execute(Lorg/apache/http/client/methods/HttpUriRequest;)Lorg/apache/http/HttpResponse; \u003e@300",
          "type": "",
          "constraintsFile": "constraints45_2.py",
          "variables": {},
          "stringMap": {
            "7000": ""
          },
          "strings": {
            "IAAv14": "",
            "IAAv17": "",
            "IAAv7": ""
          }
        }
      ]
    },
    "46": {
      "startMethod": "com.umeng.xp.view.w$a.onScrollStateChanged(Landroid/widget/AbsListView;I)V",
      "targetMethod": "java.net.URL.openConnection()Ljava/net/URLConnection;",
      "eventChain": [
        {
          "start": "com.umeng.xp.view.U.onClick(Landroid/view/View;)V",
          "target": "invokevirtual \u003c Application, Landroid/widget/ListView, setOnScrollListener(Landroid/widget/AbsListView$OnScrollListener;)V \u003e@169",
          "type": "ui",
          "activities": [
            "cn.playboy.wifihack.SplashActivity"
          ],
          "listener": "com.umeng.xp.view.U",
          "listenerMethod": "onClick",
          "uiType": "onClick",
          "constraintsFile": "constraints46_0.py",
          "variables": {},
          "stringMap": {
            "7000": "\u003cUI\u003e"
          },
          "strings": {
            "IAAv1": ""
          }
        },
        {
          "start": "com.umeng.xp.view.U.onClick(Landroid/view/View;)V",
          "target": "PC@14",
          "type": "ui",
          "activities": [
            "cn.playboy.wifihack.SplashActivity"
          ],
          "listener": "com.umeng.xp.view.U",
          "listenerMethod": "onClick",
          "uiType": "onClick",
          "constraintsFile": "constraints46_1.py",
          "variables": {
            "\u003cUI\u003e.setVisibility().a": "IAAv22",
            "\u003cChainedInput2\u003e": "IAAv2"
          },
          "stringMap": {
            "7000": "\u003cUI\u003e"
          },
          "strings": {
            "IAAv25": ""
          }
        },
        {
          "start": "com.umeng.xp.view.w$a.onScrollStateChanged(Landroid/widget/AbsListView;I)V",
          "target": "invokevirtual \u003c Application, Ljava/net/URL, openConnection()Ljava/net/URLConnection; \u003e@200",
          "type": "ui",
          "activities": [
            "cn.playboy.wifihack.SplashActivity"
          ],
          "listener": "com.umeng.xp.view.w$a",
          "listenerMethod": "onScrollStateChanged",
          "uiType": "onScrollStateChanged",
          "constraintsFile": "constraints46_2.py",
          "variables": {
            "\u003cUI\u003e.setVisibility().a": "IAAv23",
            "\u003cChainedInput2\u003e": "IAAv3"
          },
          "stringMap": {
            "7000": "\u003cUI\u003e"
          },
          "strings": {}
        }
      ]
    },
    "47": {
      "startMethod": "com.umeng.xp.view.w$a.onScrollStateChanged(Landroid/widget/AbsListView;I)V",
      "targetMethod": "org.apache.http.client.HttpClient.execute(Lorg/apache/http/client/methods/HttpUriRequest;)Lorg/apache/http/HttpResponse;",
      "eventChain": [
        {
          "start": "com.umeng.xp.view.U.onClick(Landroid/view/View;)V",
          "target": "invokevirtual \u003c Application, Landroid/widget/ListView, setOnScrollListener(Landroid/widget/AbsListView$OnScrollListener;)V \u003e@169",
          "type": "ui",
          "activities": [
            "cn.playboy.wifihack.SplashActivity"
          ],
          "listener": "com.umeng.xp.view.U",
          "listenerMethod": "onClick",
          "uiType": "onClick",
          "constraintsFile": "constraints47_0.py",
          "variables": {},
          "stringMap": {
            "7000": "\u003cUI\u003e"
          },
          "strings": {
            "IAAv1": ""
          }
        },
        {
          "start": "com.umeng.xp.view.U.onClick(Landroid/view/View;)V",
          "target": "PC@14",
          "type": "ui",
          "activities": [
            "cn.playboy.wifihack.SplashActivity"
          ],
          "listener": "com.umeng.xp.view.U",
          "listenerMethod": "onClick",
          "uiType": "onClick",
          "constraintsFile": "constraints47_1.py",
          "variables": {
            "\u003cChainedInput2\u003e": "IAAv2"
          },
          "stringMap": {},
          "strings": {
            "IAAv22": "",
            "IAAv14": "",
            "IAAv15": ""
          }
        },
        {
          "start": "com.umeng.xp.view.w$a.onScrollStateChanged(Landroid/widget/AbsListView;I)V",
          "target": "invokeinterface \u003c Application, Lorg/apache/http/client/HttpClient, execute(Lorg/apache/http/client/methods/HttpUriRequest;)Lorg/apache/http/HttpResponse; \u003e@349",
          "type": "ui",
          "activities": [
            "cn.playboy.wifihack.SplashActivity"
          ],
          "listener": "com.umeng.xp.view.w$a",
          "listenerMethod": "onScrollStateChanged",
          "uiType": "onScrollStateChanged",
          "constraintsFile": "constraints47_2.py",
          "variables": {
            "\u003cChainedInput2\u003e": "IAAv3"
          },
          "stringMap": {},
          "strings": {
            "IAAv15": "",
            "IAAv16": ""
          }
        }
      ]
    },
    "48": {
      "startMethod": "com.umeng.xp.view.w$a.onScrollStateChanged(Landroid/widget/AbsListView;I)V",
      "targetMethod": "org.apache.http.client.HttpClient.execute(Lorg/apache/http/client/methods/HttpUriRequest;)Lorg/apache/http/HttpResponse;",
      "eventChain": [
        {
          "start": "com.umeng.xp.view.U.onClick(Landroid/view/View;)V",
          "target": "invokevirtual \u003c Application, Landroid/widget/ListView, setOnScrollListener(Landroid/widget/AbsListView$OnScrollListener;)V \u003e@169",
          "type": "ui",
          "activities": [
            "cn.playboy.wifihack.SplashActivity"
          ],
          "listener": "com.umeng.xp.view.U",
          "listenerMethod": "onClick",
          "uiType": "onClick",
          "constraintsFile": "constraints48_0.py",
          "variables": {},
          "stringMap": {
            "7000": "\u003cUI\u003e"
          },
          "strings": {
            "IAAv1": ""
          }
        },
        {
          "start": "com.umeng.xp.view.U.onClick(Landroid/view/View;)V",
          "target": "PC@14",
          "type": "ui",
          "activities": [
            "cn.playboy.wifihack.SplashActivity"
          ],
          "listener": "com.umeng.xp.view.U",
          "listenerMethod": "onClick",
          "uiType": "onClick",
          "constraintsFile": "constraints48_1.py",
          "variables": {
            "\u003cChainedInput2\u003e": "IAAv2"
          },
          "stringMap": {},
          "strings": {
            "IAAv21": "",
            "IAAv14": "",
            "IAAv15": "",
            "IAAv17": ""
          }
        },
        {
          "start": "com.umeng.xp.view.w$a.onScrollStateChanged(Landroid/widget/AbsListView;I)V",
          "target": "invokeinterface \u003c Application, Lorg/apache/http/client/HttpClient, execute(Lorg/apache/http/client/methods/HttpUriRequest;)Lorg/apache/http/HttpResponse; \u003e@309",
          "type": "ui",
          "activities": [
            "cn.playboy.wifihack.SplashActivity"
          ],
          "listener": "com.umeng.xp.view.w$a",
          "listenerMethod": "onScrollStateChanged",
          "uiType": "onScrollStateChanged",
          "constraintsFile": "constraints48_2.py",
          "variables": {
            "\u003cChainedInput2\u003e": "IAAv3"
          },
          "stringMap": {},
          "strings": {
            "IAAv15": "",
            "IAAv16": "",
            "IAAv18": ""
          }
        }
      ]
    },
    "49": {
      "startMethod": "com.umeng.xp.view.aq.onAnimationEnd(Landroid/view/animation/Animation;)V",
      "targetMethod": "org.apache.http.client.HttpClient.execute(Lorg/apache/http/client/methods/HttpUriRequest;)Lorg/apache/http/HttpResponse;",
      "eventChain": [
        {
          "start": "com.umeng.xp.view.U.onClick(Landroid/view/View;)V",
          "target": "invokevirtual \u003c Application, Landroid/view/animation/Animation, setAnimationListener(Landroid/view/animation/Animation$AnimationListener;)V \u003e@215",
          "type": "ui",
          "activities": [
            "cn.playboy.wifihack.SplashActivity"
          ],
          "listener": "com.umeng.xp.view.U",
          "listenerMethod": "onClick",
          "uiType": "onClick",
          "constraintsFile": "constraints49_0.py",
          "variables": {},
          "stringMap": {},
          "strings": {
            "IAAv1": ""
          }
        },
        {
          "start": "com.umeng.xp.view.aq.onAnimationEnd(Landroid/view/animation/Animation;)V",
          "target": "invokeinterface \u003c Application, Lorg/apache/http/client/HttpClient, execute(Lorg/apache/http/client/methods/HttpUriRequest;)Lorg/apache/http/HttpResponse; \u003e@309",
          "type": "ui",
          "activities": [
            "cn.playboy.wifihack.SplashActivity"
          ],
          "listener": "com.umeng.xp.view.aq",
          "listenerMethod": "onAnimationEnd",
          "uiType": "onAnimationEnd",
          "constraintsFile": "constraints49_1.py",
          "variables": {},
          "stringMap": {
            "7000": "\u003cUI\u003e"
          },
          "strings": {
            "IAAv10": "",
            "IAAv12": "",
            "IAAv9": ""
          }
        }
      ]
    },
    "50": {
      "startMethod": "com.umeng.xp.view.aq.onAnimationEnd(Landroid/view/animation/Animation;)V",
      "targetMethod": "java.net.URL.openConnection()Ljava/net/URLConnection;",
      "eventChain": [
        {
          "start": "com.umeng.xp.view.U.onClick(Landroid/view/View;)V",
          "target": "invokevirtual \u003c Application, Landroid/view/animation/Animation, setAnimationListener(Landroid/view/animation/Animation$AnimationListener;)V \u003e@215",
          "type": "ui",
          "activities": [
            "cn.playboy.wifihack.SplashActivity"
          ],
          "listener": "com.umeng.xp.view.U",
          "listenerMethod": "onClick",
          "uiType": "onClick",
          "constraintsFile": "constraints50_0.py",
          "variables": {},
          "stringMap": {},
          "strings": {
            "IAAv1": ""
          }
        },
        {
          "start": "com.umeng.xp.view.aq.onAnimationEnd(Landroid/view/animation/Animation;)V",
          "target": "invokevirtual \u003c Application, Ljava/net/URL, openConnection()Ljava/net/URLConnection; \u003e@200",
          "type": "ui",
          "activities": [
            "cn.playboy.wifihack.SplashActivity"
          ],
          "listener": "com.umeng.xp.view.aq",
          "listenerMethod": "onAnimationEnd",
          "uiType": "onAnimationEnd",
          "constraintsFile": "constraints50_1.py",
          "variables": {
            "\u003cUI\u003e.setVisibility().a": "IAAv25"
          },
          "stringMap": {
            "7000": "\u003cUI\u003e"
          },
          "strings": {}
        }
      ]
    },
    "51": {
      "startMethod": "com.umeng.xp.view.aq.onAnimationEnd(Landroid/view/animation/Animation;)V",
      "targetMethod": "org.apache.http.client.HttpClient.execute(Lorg/apache/http/client/methods/HttpUriRequest;)Lorg/apache/http/HttpResponse;",
      "eventChain": [
        {
          "start": "com.umeng.xp.view.U.onClick(Landroid/view/View;)V",
          "target": "invokevirtual \u003c Application, Landroid/view/animation/Animation, setAnimationListener(Landroid/view/animation/Animation$AnimationListener;)V \u003e@215",
          "type": "ui",
          "activities": [
            "cn.playboy.wifihack.SplashActivity"
          ],
          "listener": "com.umeng.xp.view.U",
          "listenerMethod": "onClick",
          "uiType": "onClick",
          "constraintsFile": "constraints51_0.py",
          "variables": {},
          "stringMap": {},
          "strings": {
            "IAAv1": ""
          }
        },
        {
          "start": "com.umeng.xp.view.aq.onAnimationEnd(Landroid/view/animation/Animation;)V",
          "target": "invokeinterface \u003c Application, Lorg/apache/http/client/HttpClient, execute(Lorg/apache/http/client/methods/HttpUriRequest;)Lorg/apache/http/HttpResponse; \u003e@349",
          "type": "ui",
          "activities": [
            "cn.playboy.wifihack.SplashActivity"
          ],
          "listener": "com.umeng.xp.view.aq",
          "listenerMethod": "onAnimationEnd",
          "uiType": "onAnimationEnd",
          "constraintsFile": "constraints51_1.py",
          "variables": {},
          "stringMap": {
            "7000": "\u003cUI\u003e"
          },
          "strings": {
            "IAAv10": "",
            "IAAv9": ""
          }
        }
      ]
    }
  }
}