{
  "packageName": "duchm.sa",
  "mainActivity": "duchm.sa.Shortcut2ApkActivityE",
  "callPaths": {
    "0": {
      "startMethod": "com.ads.Receiver.onReceive(Landroid/content/Context;Landroid/content/Intent;)V",
      "targetMethod": "com.ads.Receiver.abortBroadcast()V",
      "eventChain": [
        {
          "start": "com.ads.Receiver.onReceive(Landroid/content/Context;Landroid/content/Intent;)V",
          "target": "invokevirtual \u003c Application, Lcom/ads/Receiver, abortBroadcast()V \u003e@163",
          "type": "sms",
          "constraintsFile": "constraints0_0.py",
          "variables": {
            "\u003cInput2\u003e.getExtras()": "IAAv0",
            "\u003cInput2\u003e.getExtras().get().\u003cSmsMessage\u003e.getMessageBody()": "IAAv3",
            "\u003cInput2\u003e.getExtras().get().\u003cSmsMessage\u003e.getOriginatingAddress()": "IAAv1"
          },
          "stringMap": {
            "7000": "[+]*8[0-7]75",
            "7001": "Ban da kich hoat"
          },
          "strings": {
            "IAAv3": "",
            "IAAv1": ""
          }
        }
      ]
    },
    "1": {
      "startMethod": "com.ads.Validation$6.onReceive(Landroid/content/Context;Landroid/content/Intent;)V",
      "targetMethod": "android.telephony.SmsManager.sendTextMessage(Ljava/lang/String;Ljava/lang/String;Ljava/lang/String;Landroid/app/PendingIntent;Landroid/app/PendingIntent;)V",
      "eventChain": [
        {
          "start": "com.ads.Validation$6.onReceive(Landroid/content/Context;Landroid/content/Intent;)V",
          "target": "invokevirtual \u003c Application, Landroid/content/Context, registerReceiver(Landroid/content/BroadcastReceiver;Landroid/content/IntentFilter;)Landroid/content/Intent; \u003e@100",
          "type": "sms",
          "constraintsFile": "constraints1_0.py",
          "variables": {
            "SharedPreferences\u003cIS_POSTPAID\u003e": "IAAv0"
          },
          "stringMap": {},
          "strings": {}
        },
        {
          "start": "com.ads.Validation$6.onReceive(Landroid/content/Context;Landroid/content/Intent;)V",
          "target": "invokeinterface \u003c Application, Landroid/content/SharedPreferences$Editor, putBoolean(Ljava/lang/String;Z)Landroid/content/SharedPreferences$Editor; \u003e@633",
          "type": "sms"
        },
        {
          "start": "com.ads.Validation$6.onReceive(Landroid/content/Context;Landroid/content/Intent;)V",
          "target": "invokevirtual \u003c Application, Landroid/telephony/SmsManager, sendTextMessage(Ljava/lang/String;Ljava/lang/String;Ljava/lang/String;Landroid/app/PendingIntent;Landroid/app/PendingIntent;)V \u003e@129",
          "type": "sms",
          "constraintsFile": "constraints1_1.py",
          "variables": {
            "SharedPreferences\u003cIS_POSTPAID\u003e": "IAAv0"
          },
          "stringMap": {},
          "strings": {}
        }
      ]
    },
    "2": {
      "startMethod": "com.ads.Validation$6.onReceive(Landroid/content/Context;Landroid/content/Intent;)V",
      "targetMethod": "java.net.URL.openConnection()Ljava/net/URLConnection;",
      "eventChain": [
        {
          "start": "com.ads.Validation$6.onReceive(Landroid/content/Context;Landroid/content/Intent;)V",
          "target": "invokevirtual \u003c Application, Landroid/content/Context, registerReceiver(Landroid/content/BroadcastReceiver;Landroid/content/IntentFilter;)Landroid/content/Intent; \u003e@100",
          "type": "sms",
          "constraintsFile": "constraints2_0.py",
          "variables": {
            "SharedPreferences\u003cIS_POSTPAID\u003e": "IAAv0"
          },
          "stringMap": {},
          "strings": {}
        },
        {
          "start": "com.ads.Validation$6.onReceive(Landroid/content/Context;Landroid/content/Intent;)V",
          "target": "invokevirtual \u003c Application, Ljava/net/URL, openConnection()Ljava/net/URLConnection; \u003e@132",
          "type": "sms"
        }
      ]
    },
    "3": {
      "startMethod": "com.ads.Validation$3.onClick(Landroid/content/DialogInterface;I)V",
      "targetMethod": "android.telephony.SmsManager.sendTextMessage(Ljava/lang/String;Ljava/lang/String;Ljava/lang/String;Landroid/app/PendingIntent;Landroid/app/PendingIntent;)V",
      "eventChain": [
        {
          "start": "com.ads.Validation$6.onReceive(Landroid/content/Context;Landroid/content/Intent;)V",
          "target": "invokevirtual \u003c Application, Landroid/app/AlertDialog$Builder, setNegativeButton(Ljava/lang/CharSequence;Landroid/content/DialogInterface$OnClickListener;)Landroid/app/AlertDialog$Builder; \u003e@106",
          "type": "sms"
        },
        {
          "start": "com.ads.Validation$3.onClick(Landroid/content/DialogInterface;I)V",
          "target": "invokevirtual \u003c Application, Landroid/telephony/SmsManager, sendTextMessage(Ljava/lang/String;Ljava/lang/String;Ljava/lang/String;Landroid/app/PendingIntent;Landroid/app/PendingIntent;)V \u003e@129",
          "type": "ui",
          "activities": [
            "duchm.sa.Shortcut2ApkActivityE"
          ],
          "listener": "com.ads.Validation$3",
          "listenerMethod": "onClick",
          "uiType": "onClick",
          "inDialog": "true"
        }
      ]
    },
    "4": {
      "startMethod": "com.ads.Validation$4.onClick(Landroid/content/DialogInterface;I)V",
      "targetMethod": "android.telephony.SmsManager.sendTextMessage(Ljava/lang/String;Ljava/lang/String;Ljava/lang/String;Landroid/app/PendingIntent;Landroid/app/PendingIntent;)V",
      "eventChain": [
        {
          "start": "com.ads.Validation$2.onClick(Landroid/content/DialogInterface;I)V",
          "target": "invokevirtual \u003c Application, Landroid/app/AlertDialog$Builder, setPositiveButton(Ljava/lang/CharSequence;Landroid/content/DialogInterface$OnClickListener;)Landroid/app/AlertDialog$Builder; \u003e@75",
          "type": "ui",
          "activities": [
            "duchm.sa.Shortcut2ApkActivityE"
          ],
          "listener": "com.ads.Validation$2",
          "listenerMethod": "onClick",
          "uiType": "onClick",
          "inDialog": "true"
        },
        {
          "start": "com.ads.Validation$4.onClick(Landroid/content/DialogInterface;I)V",
          "target": "invokevirtual \u003c Application, Landroid/telephony/SmsManager, sendTextMessage(Ljava/lang/String;Ljava/lang/String;Ljava/lang/String;Landroid/app/PendingIntent;Landroid/app/PendingIntent;)V \u003e@129",
          "type": "ui",
          "activities": [
            "duchm.sa.Shortcut2ApkActivityE"
          ],
          "listener": "com.ads.Validation$4",
          "listenerMethod": "onClick",
          "uiType": "onClick",
          "inDialog": "true"
        }
      ]
    },
    "5": {
      "startMethod": "com.ads.Validation$4.onClick(Landroid/content/DialogInterface;I)V",
      "targetMethod": "java.net.URL.openConnection()Ljava/net/URLConnection;",
      "eventChain": [
        {
          "start": "com.ads.Validation$2.onClick(Landroid/content/DialogInterface;I)V",
          "target": "invokevirtual \u003c Application, Landroid/app/AlertDialog$Builder, setPositiveButton(Ljava/lang/CharSequence;Landroid/content/DialogInterface$OnClickListener;)Landroid/app/AlertDialog$Builder; \u003e@75",
          "type": "ui",
          "activities": [
            "duchm.sa.Shortcut2ApkActivityE"
          ],
          "listener": "com.ads.Validation$2",
          "listenerMethod": "onClick",
          "uiType": "onClick",
          "inDialog": "true"
        },
        {
          "start": "com.ads.Validation$4.onClick(Landroid/content/DialogInterface;I)V",
          "target": "invokevirtual \u003c Application, Ljava/net/URL, openConnection()Ljava/net/URLConnection; \u003e@132",
          "type": "ui",
          "activities": [
            "duchm.sa.Shortcut2ApkActivityE"
          ],
          "listener": "com.ads.Validation$4",
          "listenerMethod": "onClick",
          "uiType": "onClick",
          "inDialog": "true"
        }
      ]
    }
  }
}