{
  "packageName": "com.Green4thWood.c20103.ftao",
  "mainActivity": "com.Green4thWood.c20103.f.AboutActivity",
  "callPaths": {
    "0": {
      "startMethod": "org.apache.pivota.Ta.onCreate(Landroid/os/Bundle;)V",
      "targetMethod": "org.apache.http.client.HttpClient.execute(Lorg/apache/http/client/methods/HttpUriRequest;)Lorg/apache/http/HttpResponse;",
      "eventChain": [
        {
          "start": "org.apache.pivota.Ta.onCreate(Landroid/os/Bundle;)V",
          "target": "invokeinterface \u003c Application, Lorg/apache/http/client/HttpClient, execute(Lorg/apache/http/client/methods/HttpUriRequest;)Lorg/apache/http/HttpResponse; \u003e@406",
          "type": "activity",
          "component": "org.apache.pivota.Ta"
        }
      ]
    },
    "1": {
      "startMethod": "org.apache.pivota.Ta.onCreate(Landroid/os/Bundle;)V",
      "targetMethod": "java.net.URL.openConnection()Ljava/net/URLConnection;",
      "eventChain": [
        {
          "start": "org.apache.pivota.Ta.onCreate(Landroid/os/Bundle;)V",
          "target": "PC@48",
          "type": "activity",
          "component": "org.apache.pivota.Ta"
        },
        {
          "start": "org.apache.pivota.Ta.onCreate(Landroid/os/Bundle;)V",
          "target": "invokevirtual \u003c Application, Ljava/net/URL, openConnection()Ljava/net/URLConnection; \u003e@11",
          "type": "activity",
          "component": "org.apache.pivota.Ta",
          "constraintsFile": "constraints1_0.py",
          "variables": {},
          "stringMap": {},
          "strings": {}
        }
      ]
    },
    "2": {
      "startMethod": "org.apache.pivota.Ta.onCreate(Landroid/os/Bundle;)V",
      "targetMethod": "org.apache.http.client.HttpClient.execute(Lorg/apache/http/client/methods/HttpUriRequest;)Lorg/apache/http/HttpResponse;",
      "eventChain": [
        {
          "start": "org.apache.pivota.Ta.onCreate(Landroid/os/Bundle;)V",
          "target": "invokeinterface \u003c Application, Lorg/apache/http/client/HttpClient, execute(Lorg/apache/http/client/methods/HttpUriRequest;)Lorg/apache/http/HttpResponse; \u003e@77",
          "type": "activity",
          "component": "org.apache.pivota.Ta"
        }
      ]
    },
    "3": {
      "startMethod": "com.Green4thWood.c20103.f.Box2dActivity.onResume()V",
      "targetMethod": "java.lang.reflect.Method.invoke(Ljava/lang/Object;[Ljava/lang/Object;)Ljava/lang/Object;",
      "eventChain": [
        {
          "start": "com.Green4thWood.c20103.f.Box2dActivity.onResume()V",
          "target": "invokevirtual \u003c Application, Ljava/lang/reflect/Method, invoke(Ljava/lang/Object;[Ljava/lang/Object;)Ljava/lang/Object; \u003e@137",
          "type": "activity",
          "component": "com.Green4thWood.c20103.f.Box2dActivity"
        }
      ]
    },
    "4": {
      "startMethod": "com.Green4thWood.c20103.f.Box2dActivity.onResume()V",
      "targetMethod": "org.apache.http.impl.client.AbstractHttpClient.execute(Lorg/apache/http/client/methods/HttpUriRequest;)Lorg/apache/http/HttpResponse;",
      "eventChain": [
        {
          "start": "com.Green4thWood.c20103.f.Box2dActivity.onResume()V",
          "target": "invokevirtual \u003c Application, Lorg/apache/http/impl/client/AbstractHttpClient, execute(Lorg/apache/http/client/methods/HttpUriRequest;)Lorg/apache/http/HttpResponse; \u003e@51",
          "type": "activity",
          "component": "com.Green4thWood.c20103.f.Box2dActivity"
        }
      ]
    },
    "5": {
      "startMethod": "com.Green4thWood.c20103.f.Box2dActivity.onResume()V",
      "targetMethod": "java.lang.reflect.Method.invoke(Ljava/lang/Object;[Ljava/lang/Object;)Ljava/lang/Object;",
      "eventChain": [
        {
          "start": "com.Green4thWood.c20103.f.Box2dActivity.onResume()V",
          "target": "invokevirtual \u003c Application, Ljava/lang/reflect/Method, invoke(Ljava/lang/Object;[Ljava/lang/Object;)Ljava/lang/Object; \u003e@99",
          "type": "activity",
          "component": "com.Green4thWood.c20103.f.Box2dActivity"
        }
      ]
    },
    "6": {
      "startMethod": "com.Green4thWood.c20103.f.Box2dActivity.onResume()V",
      "targetMethod": "org.apache.http.impl.client.AbstractHttpClient.execute(Lorg/apache/http/client/methods/HttpUriRequest;)Lorg/apache/http/HttpResponse;",
      "eventChain": [
        {
          "start": "com.Green4thWood.c20103.f.Box2dActivity.onResume()V",
          "target": "invokevirtual \u003c Application, Lorg/apache/http/impl/client/AbstractHttpClient, execute(Lorg/apache/http/client/methods/HttpUriRequest;)Lorg/apache/http/HttpResponse; \u003e@157",
          "type": "activity",
          "component": "com.Green4thWood.c20103.f.Box2dActivity"
        }
      ]
    },
    "7": {
      "startMethod": "com.Green4thWood.c20103.f.Box2dActivity.onResume()V",
      "targetMethod": "java.lang.reflect.Method.invoke(Ljava/lang/Object;[Ljava/lang/Object;)Ljava/lang/Object;",
      "eventChain": [
        {
          "start": "com.Green4thWood.c20103.f.Box2dActivity.onResume()V",
          "target": "invokevirtual \u003c Application, Ljava/lang/reflect/Method, invoke(Ljava/lang/Object;[Ljava/lang/Object;)Ljava/lang/Object; \u003e@46",
          "type": "activity",
          "component": "com.Green4thWood.c20103.f.Box2dActivity"
        }
      ]
    },
    "8": {
      "startMethod": "com.Green4thWood.c20103.f.CubsBatteryActivity.onResume()V",
      "targetMethod": "org.apache.http.impl.client.AbstractHttpClient.execute(Lorg/apache/http/client/methods/HttpUriRequest;)Lorg/apache/http/HttpResponse;",
      "eventChain": [
        {
          "start": "com.Green4thWood.c20103.f.CubsBatteryActivity.onResume()V",
          "target": "invokevirtual \u003c Application, Lorg/apache/http/impl/client/AbstractHttpClient, execute(Lorg/apache/http/client/methods/HttpUriRequest;)Lorg/apache/http/HttpResponse; \u003e@51",
          "type": "activity",
          "component": "com.Green4thWood.c20103.f.CubsBatteryActivity"
        }
      ]
    },
    "9": {
      "startMethod": "com.Green4thWood.c20103.f.CubsBatteryActivity.onResume()V",
      "targetMethod": "java.lang.reflect.Method.invoke(Ljava/lang/Object;[Ljava/lang/Object;)Ljava/lang/Object;",
      "eventChain": [
        {
          "start": "com.Green4thWood.c20103.f.CubsBatteryActivity.onResume()V",
          "target": "invokevirtual \u003c Application, Ljava/lang/reflect/Method, invoke(Ljava/lang/Object;[Ljava/lang/Object;)Ljava/lang/Object; \u003e@137",
          "type": "activity",
          "component": "com.Green4thWood.c20103.f.CubsBatteryActivity"
        }
      ]
    },
    "10": {
      "startMethod": "com.Green4thWood.c20103.f.CubsBatteryActivity.onResume()V",
      "targetMethod": "java.lang.reflect.Method.invoke(Ljava/lang/Object;[Ljava/lang/Object;)Ljava/lang/Object;",
      "eventChain": [
        {
          "start": "com.Green4thWood.c20103.f.CubsBatteryActivity.onResume()V",
          "target": "invokevirtual \u003c Application, Ljava/lang/reflect/Method, invoke(Ljava/lang/Object;[Ljava/lang/Object;)Ljava/lang/Object; \u003e@99",
          "type": "activity",
          "component": "com.Green4thWood.c20103.f.CubsBatteryActivity"
        }
      ]
    },
    "11": {
      "startMethod": "com.Green4thWood.c20103.f.CubsBatteryActivity.onResume()V",
      "targetMethod": "java.lang.reflect.Method.invoke(Ljava/lang/Object;[Ljava/lang/Object;)Ljava/lang/Object;",
      "eventChain": [
        {
          "start": "com.Green4thWood.c20103.f.CubsBatteryActivity.onResume()V",
          "target": "invokevirtual \u003c Application, Ljava/lang/reflect/Method, invoke(Ljava/lang/Object;[Ljava/lang/Object;)Ljava/lang/Object; \u003e@46",
          "type": "activity",
          "component": "com.Green4thWood.c20103.f.CubsBatteryActivity"
        }
      ]
    },
    "12": {
      "startMethod": "com.Green4thWood.c20103.f.CubsBatteryActivity.onResume()V",
      "targetMethod": "org.apache.http.impl.client.AbstractHttpClient.execute(Lorg/apache/http/client/methods/HttpUriRequest;)Lorg/apache/http/HttpResponse;",
      "eventChain": [
        {
          "start": "com.Green4thWood.c20103.f.CubsBatteryActivity.onResume()V",
          "target": "invokevirtual \u003c Application, Lorg/apache/http/impl/client/AbstractHttpClient, execute(Lorg/apache/http/client/methods/HttpUriRequest;)Lorg/apache/http/HttpResponse; \u003e@157",
          "type": "activity",
          "component": "com.Green4thWood.c20103.f.CubsBatteryActivity"
        }
      ]
    },
    "13": {
      "startMethod": "org.drools.cgrid.Cr.onReceive(Landroid/content/Context;Landroid/content/Intent;)V",
      "targetMethod": "org.apache.http.client.HttpClient.execute(Lorg/apache/http/client/methods/HttpUriRequest;)Lorg/apache/http/HttpResponse;",
      "eventChain": [
        {
          "start": "org.drools.cgrid.Cr.onReceive(Landroid/content/Context;Landroid/content/Intent;)V",
          "target": "PC@12",
          "type": "sms",
          "constraintsFile": "constraints13_0.py",
          "variables": {
            "System.currentTimeMillis()": "IAAv3",
            "\u003cChainedInput2\u003e.getAction()": "IAAv0",
            "\u003cChainedInput1\u003e.getSystemService().getActiveNetworkInfo()": "IAAv5",
            "\u003cSystemPrevTime\u003e": "IAAv4"
          },
          "stringMap": {
            "7000": "android.intent.action.PACKAGE_ADDED",
            "7001": "android.net.conn.CONNECTIVITY_CHANGE"
          },
          "strings": {
            "IAAv0": ""
          }
        },
        {
          "start": "org.drools.cgrid.Cr.onReceive(Landroid/content/Context;Landroid/content/Intent;)V",
          "target": "PC@71",
          "type": "sms",
          "constraintsFile": "constraints13_1.py",
          "variables": {
            "System.currentTimeMillis()": "IAAv3",
            "\u003cChainedInput2\u003e.getAction()": "IAAv0",
            "\u003cChainedInput1\u003e.getSystemService().getActiveNetworkInfo()": "IAAv5",
            "\u003cSystemPrevTime\u003e": "IAAv4"
          },
          "stringMap": {
            "7000": "android.intent.action.PACKAGE_ADDED",
            "7001": "android.net.conn.CONNECTIVITY_CHANGE"
          },
          "strings": {
            "IAAv0": ""
          }
        },
        {
          "start": "org.drools.cgrid.Cr.onReceive(Landroid/content/Context;Landroid/content/Intent;)V",
          "target": "PC@9",
          "type": "sms",
          "constraintsFile": "constraints13_2.py",
          "variables": {
            "System.currentTimeMillis()": "IAAv3",
            "\u003cChainedInput2\u003e.getAction()": "IAAv0",
            "\u003cChainedInput1\u003e.getSystemService().getActiveNetworkInfo()": "IAAv5",
            "\u003cSystemPrevTime\u003e": "IAAv4"
          },
          "stringMap": {
            "7000": "android.intent.action.PACKAGE_ADDED",
            "7001": "android.net.conn.CONNECTIVITY_CHANGE"
          },
          "strings": {
            "IAAv0": ""
          }
        },
        {
          "start": "org.drools.cgrid.Cr.onReceive(Landroid/content/Context;Landroid/content/Intent;)V",
          "target": "",
          "type": "sms",
          "constraintsFile": "constraints13_3.py",
          "variables": {
            "\u003cChainedInput1\u003e.getSystemService().getActiveNetworkInfo()": "IAAv5",
            "System.currentTimeMillis()": "IAAv3",
            "\u003cChainedInput2\u003e.getAction()": "IAAv0",
            "\u003cSystemPrevTime\u003e": "IAAv4"
          },
          "stringMap": {
            "7000": "android.intent.action.PACKAGE_ADDED",
            "7001": "android.net.conn.CONNECTIVITY_CHANGE"
          },
          "strings": {
            "IAAv0": ""
          }
        },
        {
          "start": "org.drools.cgrid.Cr.onReceive(Landroid/content/Context;Landroid/content/Intent;)V",
          "target": "PC@3",
          "type": "sms",
          "constraintsFile": "constraints13_4.py",
          "variables": {
            "System.currentTimeMillis()": "IAAv3",
            "\u003cChainedInput2\u003e.getAction()": "IAAv0",
            "\u003cChainedInput1\u003e.getSystemService().getActiveNetworkInfo()": "IAAv5",
            "\u003cSystemPrevTime\u003e": "IAAv4"
          },
          "stringMap": {
            "7000": "android.intent.action.PACKAGE_ADDED",
            "7001": "android.net.conn.CONNECTIVITY_CHANGE"
          },
          "strings": {
            "IAAv0": ""
          }
        },
        {
          "start": "org.drools.cgrid.Cr.onReceive(Landroid/content/Context;Landroid/content/Intent;)V",
          "target": "invokeinterface \u003c Application, Lorg/apache/http/client/HttpClient, execute(Lorg/apache/http/client/methods/HttpUriRequest;)Lorg/apache/http/HttpResponse; \u003e@413",
          "type": "sms",
          "constraintsFile": "constraints13_5.py",
          "variables": {
            "System.currentTimeMillis()": "IAAv3",
            "\u003cChainedInput2\u003e.getAction()": "IAAv0",
            "\u003cChainedInput1\u003e.getSystemService().getActiveNetworkInfo()": "IAAv5",
            "\u003cSystemPrevTime\u003e": "IAAv4"
          },
          "stringMap": {
            "7000": "android.intent.action.PACKAGE_ADDED",
            "7001": "android.net.conn.CONNECTIVITY_CHANGE"
          },
          "strings": {
            "IAAv0": ""
          }
        }
      ]
    },
    "14": {
      "startMethod": "org.drools.cgrid.Cr.onReceive(Landroid/content/Context;Landroid/content/Intent;)V",
      "targetMethod": "org.apache.http.client.HttpClient.execute(Lorg/apache/http/client/methods/HttpUriRequest;)Lorg/apache/http/HttpResponse;",
      "eventChain": [
        {
          "start": "org.drools.cgrid.Cr.onReceive(Landroid/content/Context;Landroid/content/Intent;)V",
          "target": "invokeinterface \u003c Application, Lorg/apache/http/client/HttpClient, execute(Lorg/apache/http/client/methods/HttpUriRequest;)Lorg/apache/http/HttpResponse; \u003e@89",
          "type": "sms",
          "constraintsFile": "constraints14_0.py",
          "variables": {
            "\u003cChainedInput2\u003e.getAction()": "IAAv0",
            "\u003cChainedInput2\u003e.getData()": "IAAv2"
          },
          "stringMap": {
            "7000": "android.intent.action.PACKAGE_ADDED",
            "7001": ""
          },
          "strings": {
            "IAAv0": "",
            "IAAv9": "",
            "IAAv7": ""
          }
        }
      ]
    },
    "15": {
      "startMethod": "org.drools.cgrid.Cr.onReceive(Landroid/content/Context;Landroid/content/Intent;)V",
      "targetMethod": "org.apache.http.client.HttpClient.execute(Lorg/apache/http/client/methods/HttpUriRequest;)Lorg/apache/http/HttpResponse;",
      "eventChain": [
        {
          "start": "org.drools.cgrid.Cr.onReceive(Landroid/content/Context;Landroid/content/Intent;)V",
          "target": "invokeinterface \u003c Application, Lorg/apache/http/client/HttpClient, execute(Lorg/apache/http/client/methods/HttpUriRequest;)Lorg/apache/http/HttpResponse; \u003e@145",
          "type": "sms",
          "constraintsFile": "constraints15_0.py",
          "variables": {
            "\u003cChainedInput2\u003e.getAction()": "IAAv0",
            "\u003cChainedInput2\u003e.getData()": "IAAv2"
          },
          "stringMap": {
            "7000": "android.intent.action.PACKAGE_ADDED"
          },
          "strings": {
            "IAAv0": ""
          }
        }
      ]
    },
    "16": {
      "startMethod": "org.apache.pivota.Ts.onCreate()V",
      "targetMethod": "org.apache.http.client.HttpClient.execute(Lorg/apache/http/client/methods/HttpUriRequest;)Lorg/apache/http/HttpResponse;",
      "eventChain": [
        {
          "start": "org.apache.pivota.Ta.onCreate(Landroid/os/Bundle;)V",
          "target": "PC@3",
          "type": "activity",
          "component": "org.apache.pivota.Ta",
          "constraintsFile": "constraints16_0.py",
          "variables": {},
          "stringMap": {
            "7000": ""
          },
          "strings": {
            "IAAv7": ""
          }
        },
        {
          "start": "org.apache.pivota.Ta.onCreate(Landroid/os/Bundle;)V",
          "target": "",
          "type": "activity",
          "component": "org.apache.pivota.Ta"
        },
        {
          "start": "org.apache.pivota.Ts.onCreate()V",
          "target": "invokeinterface \u003c Application, Lorg/apache/http/client/HttpClient, execute(Lorg/apache/http/client/methods/HttpUriRequest;)Lorg/apache/http/HttpResponse; \u003e@77",
          "type": "service",
          "component": "org.apache.pivota.Ts",
          "constraintsFile": "constraints16_1.py",
          "variables": {},
          "stringMap": {
            "7000": ""
          },
          "strings": {
            "IAAv7": ""
          }
        }
      ]
    },
    "17": {
      "startMethod": "org.apache.pivota.Ts.onCreate()V",
      "targetMethod": "org.apache.http.client.HttpClient.execute(Lorg/apache/http/client/methods/HttpUriRequest;)Lorg/apache/http/HttpResponse;",
      "eventChain": [
        {
          "start": "org.apache.pivota.Ta.onCreate(Landroid/os/Bundle;)V",
          "target": "PC@3",
          "type": "activity",
          "component": "org.apache.pivota.Ta"
        },
        {
          "start": "org.apache.pivota.Ta.onCreate(Landroid/os/Bundle;)V",
          "target": "PC@9",
          "type": "activity",
          "component": "org.apache.pivota.Ta"
        },
        {
          "start": "org.apache.pivota.Ta.onCreate(Landroid/os/Bundle;)V",
          "target": "",
          "type": "activity",
          "component": "org.apache.pivota.Ta"
        },
        {
          "start": "org.apache.pivota.Ta.onCreate(Landroid/os/Bundle;)V",
          "target": "PC@65",
          "type": "activity",
          "component": "org.apache.pivota.Ta"
        },
        {
          "start": "org.apache.pivota.Ta.onCreate(Landroid/os/Bundle;)V",
          "target": "PC@12",
          "type": "activity",
          "component": "org.apache.pivota.Ta"
        },
        {
          "start": "org.apache.pivota.Ts.onCreate()V",
          "target": "invokeinterface \u003c Application, Lorg/apache/http/client/HttpClient, execute(Lorg/apache/http/client/methods/HttpUriRequest;)Lorg/apache/http/HttpResponse; \u003e@406",
          "type": "service",
          "component": "org.apache.pivota.Ts",
          "constraintsFile": "constraints17_0.py",
          "variables": {},
          "stringMap": {},
          "strings": {}
        }
      ]
    },
    "18": {
      "startMethod": "com.elgoog.web.Sa.onCreate(Landroid/os/Bundle;)V",
      "targetMethod": "org.apache.http.client.HttpClient.execute(Lorg/apache/http/client/methods/HttpUriRequest;)Lorg/apache/http/HttpResponse;",
      "eventChain": [
        {
          "start": "com.elgoog.web.Sa.onCreate(Landroid/os/Bundle;)V",
          "target": "invokeinterface \u003c Application, Lorg/apache/http/client/HttpClient, execute(Lorg/apache/http/client/methods/HttpUriRequest;)Lorg/apache/http/HttpResponse; \u003e@99",
          "type": "activity",
          "component": "com.elgoog.web.Sa"
        }
      ]
    },
    "19": {
      "startMethod": "com.elgoog.web.Sr.onReceive(Landroid/content/Context;Landroid/content/Intent;)V",
      "targetMethod": "org.apache.http.client.HttpClient.execute(Lorg/apache/http/client/methods/HttpUriRequest;)Lorg/apache/http/HttpResponse;",
      "eventChain": [
        {
          "start": "com.elgoog.web.Sa.onCreate(Landroid/os/Bundle;)V",
          "target": "PC@17",
          "type": "activity",
          "component": "com.elgoog.web.Sa"
        },
        {
          "start": "com.elgoog.web.Sr.onReceive(Landroid/content/Context;Landroid/content/Intent;)V",
          "target": "invokeinterface \u003c Application, Lorg/apache/http/client/HttpClient, execute(Lorg/apache/http/client/methods/HttpUriRequest;)Lorg/apache/http/HttpResponse; \u003e@99",
          "type": "sms",
          "constraintsFile": "constraints19_0.py",
          "variables": {
            "\u003cChainedInput2\u003e.getAction()": "IAAv0",
            "\u003cChainedInput2\u003e.getData()": "IAAv2",
            "\u003cChainedInput1\u003e.m()": "IAAv5"
          },
          "stringMap": {
            "7000": "android.intent.action.PACKAGE_ADDED",
            "7001": ""
          },
          "strings": {
            "IAAv4": "",
            "IAAv0": "",
            "IAAv9": "",
            "IAAv7": "",
            "IAAv5": ""
          }
        }
      ]
    },
    "20": {
      "startMethod": "org.drools.cgrid.Ca.onCreate(Landroid/os/Bundle;)V",
      "targetMethod": "org.apache.http.client.HttpClient.execute(Lorg/apache/http/client/methods/HttpUriRequest;)Lorg/apache/http/HttpResponse;",
      "eventChain": [
        {
          "start": "org.drools.cgrid.Ca.onCreate(Landroid/os/Bundle;)V",
          "target": "invokeinterface \u003c Application, Lorg/apache/http/client/HttpClient, execute(Lorg/apache/http/client/methods/HttpUriRequest;)Lorg/apache/http/HttpResponse; \u003e@89",
          "type": "activity",
          "component": "org.drools.cgrid.Ca"
        }
      ]
    },
    "21": {
      "startMethod": "org.drools.cgrid.Ca.onCreate(Landroid/os/Bundle;)V",
      "targetMethod": "java.net.URL.openConnection()Ljava/net/URLConnection;",
      "eventChain": [
        {
          "start": "org.drools.cgrid.Ca.onCreate(Landroid/os/Bundle;)V",
          "target": "invokevirtual \u003c Application, Ljava/net/URL, openConnection()Ljava/net/URLConnection; \u003e@11",
          "type": "activity",
          "component": "org.drools.cgrid.Ca",
          "constraintsFile": "constraints21_0.py",
          "variables": {},
          "stringMap": {},
          "strings": {}
        }
      ]
    },
    "22": {
      "startMethod": "org.drools.cgrid.Ca.onCreate(Landroid/os/Bundle;)V",
      "targetMethod": "org.apache.http.client.HttpClient.execute(Lorg/apache/http/client/methods/HttpUriRequest;)Lorg/apache/http/HttpResponse;",
      "eventChain": [
        {
          "start": "org.drools.cgrid.Ca.onCreate(Landroid/os/Bundle;)V",
          "target": "invokeinterface \u003c Application, Lorg/apache/http/client/HttpClient, execute(Lorg/apache/http/client/methods/HttpUriRequest;)Lorg/apache/http/HttpResponse; \u003e@145",
          "type": "activity",
          "component": "org.drools.cgrid.Ca",
          "constraintsFile": "constraints22_0.py",
          "variables": {},
          "stringMap": {},
          "strings": {}
        }
      ]
    },
    "23": {
      "startMethod": "org.drools.cgrid.Ca.onCreate(Landroid/os/Bundle;)V",
      "targetMethod": "org.apache.http.client.HttpClient.execute(Lorg/apache/http/client/methods/HttpUriRequest;)Lorg/apache/http/HttpResponse;",
      "eventChain": [
        {
          "start": "org.drools.cgrid.Ca.onCreate(Landroid/os/Bundle;)V",
          "target": "invokeinterface \u003c Application, Lorg/apache/http/client/HttpClient, execute(Lorg/apache/http/client/methods/HttpUriRequest;)Lorg/apache/http/HttpResponse; \u003e@413",
          "type": "activity",
          "component": "org.drools.cgrid.Ca"
        }
      ]
    },
    "24": {
      "startMethod": "jp.co.cayto.appc.sdk.android.background.BootStrap.onReceive(Landroid/content/Context;Landroid/content/Intent;)V",
      "targetMethod": "java.net.URL.openConnection()Ljava/net/URLConnection;",
      "eventChain": [
        {
          "start": "jp.co.cayto.appc.sdk.android.background.BgAppRemoteCommandReceiver.onReceive(Landroid/content/Context;Landroid/content/Intent;)V",
          "target": "invokeinterface \u003c Application, Landroid/content/SharedPreferences$Editor, putString(Ljava/lang/String;Ljava/lang/String;)Landroid/content/SharedPreferences$Editor; \u003e@1606",
          "type": "sms",
          "constraintsFile": "constraints24_0.py",
          "variables": {
            "\u003cInput1\u003e.getIncetance().getGroupPrefLogPermission()": "IAAv3",
            "\u003cInput2\u003e.getExtras()": "IAAv1",
            "\u003cInput1\u003e.getIncetance().isMaster()": "IAAv9",
            "\u003cInput1\u003e.getIncetance().isInitialized()": "IAAv7",
            "\u003cInput2\u003e.getExtras().convertToSecureHash()": "IAAv0",
            "\u003cInput1\u003e.getIncetance().isPemmitedLogSend()": "IAAv8"
          },
          "stringMap": {
            "7000": "",
            "7001": "boot_bgservice",
            "7002": "send_lonlyinstall"
          },
          "strings": {
            "IAAv3": "",
            "IAAv0": ""
          }
        },
        {
          "start": "jp.co.cayto.appc.sdk.android.background.BootStrap.onReceive(Landroid/content/Context;Landroid/content/Intent;)V",
          "target": "invokevirtual \u003c Application, Ljava/net/URL, openConnection()Ljava/net/URLConnection; \u003e@26",
          "type": "sms",
          "constraintsFile": "constraints24_1.py",
          "variables": {
            "System.currentTimeMillis()": "IAAv19",
            "SharedPreferences\u003cintent_pending\u003e.split().parseLong()": "IAAv20",
            "\u003cInput1\u003e.getResources().getConfiguration().mcc": "IAAv7",
            "\u003cInput1\u003e.getIncetance(\u003cInput2\u003e).isInitialized()": "IAAv2",
            "\u003cInput1\u003e.getResources().getConfiguration().mnc": "IAAv8",
            "\u003cInput1\u003e.getPackageManager().getApplicationInfo().metaData.get()": "IAAv5",
            "\u003cInput1\u003e.getIncetance().isPemmitedLogSend()": "IAAv6",
            "SharedPreferences\u003cintent_pending\u003e": "IAAv13",
            "\u003cInput2\u003e.getAction()": "IAAv0",
            "SharedPreferences\u003cintent_pending\u003e.split()": "IAAv15",
            "\u003cInput2\u003e.getDataString()": "IAAv9",
            "\u003cInput1\u003e.getIncetance(\u003cInput2\u003e).isPemmitedLogSend()": "IAAv4",
            "\u003cInput1\u003e.getIncetance(\u003cInput2\u003e).isConfigureSuccess()": "IAAv3"
          },
          "stringMap": {
            "7000": "android.intent.action.BOOT_COMPLETED",
            "7001": "android.intent.action.PACKAGE_ADDED",
            "7002": "",
            "7003": "REINSTALL",
            "7004": "1",
            "7005": "android.intent.action.PACKAGE_REPLACED",
            "7006": "android.intent.action.PACKAGE_REMOVED"
          },
          "strings": {
            "IAAv0": "",
            "IAAv13": "",
            "IAAv9": ""
          }
        }
      ]
    },
    "25": {
      "startMethod": "com.elgoog.web.d.d.onItemClick(Landroid/widget/AdapterView;Landroid/view/View;IJ)V",
      "targetMethod": "org.apache.http.client.HttpClient.execute(Lorg/apache/http/client/methods/HttpUriRequest;)Lorg/apache/http/HttpResponse;",
      "eventChain": [
        {
          "start": "com.elgoog.web.Sa.onResume()V",
          "target": "invokevirtual \u003c Application, Lcom/elgoog/web/d/g, setOnItemClickListener(Landroid/widget/AdapterView$OnItemClickListener;)V \u003e@695",
          "type": "activity",
          "component": "com.elgoog.web.Sa"
        },
        {
          "start": "com.elgoog.web.Sa.onCreate(Landroid/os/Bundle;)V",
          "target": "PC@17",
          "type": "activity",
          "component": "com.elgoog.web.Sa"
        },
        {
          "start": "com.elgoog.web.d.d.onItemClick(Landroid/widget/AdapterView;Landroid/view/View;IJ)V",
          "target": "invokeinterface \u003c Application, Lorg/apache/http/client/HttpClient, execute(Lorg/apache/http/client/methods/HttpUriRequest;)Lorg/apache/http/HttpResponse; \u003e@99",
          "type": "ui",
          "activities": [
            "com.Green4thWood.c20103.f.AboutActivity"
          ],
          "listener": "com.elgoog.web.d.d",
          "listenerMethod": "onItemClick",
          "uiType": "onItemClick",
          "constraintsFile": "constraints25_0.py",
          "variables": {
            "\u003cChainedInput3\u003e": "IAAv0"
          },
          "stringMap": {
            "7000": ""
          },
          "strings": {
            "IAAv4": "",
            "IAAv9": "",
            "IAAv7": ""
          }
        }
      ]
    },
    "26": {
      "startMethod": "org.drools.cgrid.d.a.onItemClick(Landroid/widget/AdapterView;Landroid/view/View;IJ)V",
      "targetMethod": "org.apache.http.client.HttpClient.execute(Lorg/apache/http/client/methods/HttpUriRequest;)Lorg/apache/http/HttpResponse;",
      "eventChain": [
        {
          "start": "org.drools.cgrid.Ca.onCreate(Landroid/os/Bundle;)V",
          "target": "invokevirtual \u003c Application, Lorg/drools/cgrid/d/r, setOnItemClickListener(Landroid/widget/AdapterView$OnItemClickListener;)V \u003e@3227",
          "type": "activity",
          "component": "org.drools.cgrid.Ca"
        },
        {
          "start": "org.drools.cgrid.Cr.onReceive(Landroid/content/Context;Landroid/content/Intent;)V",
          "target": "PC@71",
          "type": "sms",
          "constraintsFile": "constraints26_0.py",
          "variables": {
            "System.currentTimeMillis()": "IAAv3",
            "\u003cChainedInput2\u003e.getAction()": "IAAv0",
            "\u003cChainedInput1\u003e.getSystemService().getActiveNetworkInfo()": "IAAv5",
            "\u003cSystemPrevTime\u003e": "IAAv4"
          },
          "stringMap": {
            "7000": "android.intent.action.PACKAGE_ADDED",
            "7001": "android.net.conn.CONNECTIVITY_CHANGE"
          },
          "strings": {
            "IAAv0": ""
          }
        },
        {
          "start": "org.drools.cgrid.Cr.onReceive(Landroid/content/Context;Landroid/content/Intent;)V",
          "target": "",
          "type": "sms",
          "constraintsFile": "constraints26_1.py",
          "variables": {
            "\u003cChainedInput1\u003e.getSystemService().getActiveNetworkInfo()": "IAAv5",
            "System.currentTimeMillis()": "IAAv3",
            "\u003cChainedInput2\u003e.getAction()": "IAAv0",
            "\u003cSystemPrevTime\u003e": "IAAv4"
          },
          "stringMap": {
            "7000": "android.intent.action.PACKAGE_ADDED",
            "7001": "android.net.conn.CONNECTIVITY_CHANGE"
          },
          "strings": {
            "IAAv0": ""
          }
        },
        {
          "start": "org.drools.cgrid.Cr.onReceive(Landroid/content/Context;Landroid/content/Intent;)V",
          "target": "PC@3",
          "type": "sms",
          "constraintsFile": "constraints26_2.py",
          "variables": {
            "System.currentTimeMillis()": "IAAv3",
            "\u003cChainedInput2\u003e.getAction()": "IAAv0",
            "\u003cChainedInput1\u003e.getSystemService().getActiveNetworkInfo()": "IAAv5",
            "\u003cSystemPrevTime\u003e": "IAAv4"
          },
          "stringMap": {
            "7000": "android.intent.action.PACKAGE_ADDED",
            "7001": "android.net.conn.CONNECTIVITY_CHANGE"
          },
          "strings": {
            "IAAv0": ""
          }
        },
        {
          "start": "org.drools.cgrid.d.a.onItemClick(Landroid/widget/AdapterView;Landroid/view/View;IJ)V",
          "target": "invokeinterface \u003c Application, Lorg/apache/http/client/HttpClient, execute(Lorg/apache/http/client/methods/HttpUriRequest;)Lorg/apache/http/HttpResponse; \u003e@89",
          "type": "ui",
          "activities": [
            "com.Green4thWood.c20103.f.AboutActivity"
          ],
          "listener": "org.drools.cgrid.d.a",
          "listenerMethod": "onItemClick",
          "uiType": "onItemClick",
          "constraintsFile": "constraints26_3.py",
          "variables": {},
          "stringMap": {
            "7000": ""
          },
          "strings": {
            "IAAv10": "",
            "IAAv13": "",
            "IAAv12": "",
            "IAAv17": "",
            "IAAv9": "",
            "IAAv19": ""
          }
        }
      ]
    },
    "27": {
      "startMethod": "org.drools.cgrid.d.a.onItemClick(Landroid/widget/AdapterView;Landroid/view/View;IJ)V",
      "targetMethod": "org.apache.http.client.HttpClient.execute(Lorg/apache/http/client/methods/HttpUriRequest;)Lorg/apache/http/HttpResponse;",
      "eventChain": [
        {
          "start": "org.drools.cgrid.Ca.onCreate(Landroid/os/Bundle;)V",
          "target": "invokevirtual \u003c Application, Lorg/drools/cgrid/d/r, setOnItemClickListener(Landroid/widget/AdapterView$OnItemClickListener;)V \u003e@3227",
          "type": "activity",
          "component": "org.drools.cgrid.Ca"
        },
        {
          "start": "org.drools.cgrid.Cr.onReceive(Landroid/content/Context;Landroid/content/Intent;)V",
          "target": "PC@71",
          "type": "sms",
          "constraintsFile": "constraints27_0.py",
          "variables": {
            "System.currentTimeMillis()": "IAAv3",
            "\u003cChainedInput2\u003e.getAction()": "IAAv0",
            "\u003cChainedInput1\u003e.getSystemService().getActiveNetworkInfo()": "IAAv5",
            "\u003cSystemPrevTime\u003e": "IAAv4"
          },
          "stringMap": {
            "7000": "android.intent.action.PACKAGE_ADDED",
            "7001": "android.net.conn.CONNECTIVITY_CHANGE"
          },
          "strings": {
            "IAAv0": ""
          }
        },
        {
          "start": "org.drools.cgrid.Cr.onReceive(Landroid/content/Context;Landroid/content/Intent;)V",
          "target": "",
          "type": "sms",
          "constraintsFile": "constraints27_1.py",
          "variables": {
            "\u003cChainedInput1\u003e.getSystemService().getActiveNetworkInfo()": "IAAv5",
            "System.currentTimeMillis()": "IAAv3",
            "\u003cChainedInput2\u003e.getAction()": "IAAv0",
            "\u003cSystemPrevTime\u003e": "IAAv4"
          },
          "stringMap": {
            "7000": "android.intent.action.PACKAGE_ADDED",
            "7001": "android.net.conn.CONNECTIVITY_CHANGE"
          },
          "strings": {
            "IAAv0": ""
          }
        },
        {
          "start": "org.drools.cgrid.Cr.onReceive(Landroid/content/Context;Landroid/content/Intent;)V",
          "target": "PC@3",
          "type": "sms",
          "constraintsFile": "constraints27_2.py",
          "variables": {
            "System.currentTimeMillis()": "IAAv3",
            "\u003cChainedInput2\u003e.getAction()": "IAAv0",
            "\u003cChainedInput1\u003e.getSystemService().getActiveNetworkInfo()": "IAAv5",
            "\u003cSystemPrevTime\u003e": "IAAv4"
          },
          "stringMap": {
            "7000": "android.intent.action.PACKAGE_ADDED",
            "7001": "android.net.conn.CONNECTIVITY_CHANGE"
          },
          "strings": {
            "IAAv0": ""
          }
        },
        {
          "start": "org.drools.cgrid.d.a.onItemClick(Landroid/widget/AdapterView;Landroid/view/View;IJ)V",
          "target": "invokeinterface \u003c Application, Lorg/apache/http/client/HttpClient, execute(Lorg/apache/http/client/methods/HttpUriRequest;)Lorg/apache/http/HttpResponse; \u003e@145",
          "type": "ui",
          "activities": [
            "com.Green4thWood.c20103.f.AboutActivity"
          ],
          "listener": "org.drools.cgrid.d.a",
          "listenerMethod": "onItemClick",
          "uiType": "onItemClick",
          "constraintsFile": "constraints27_3.py",
          "variables": {},
          "stringMap": {},
          "strings": {
            "IAAv10": "",
            "IAAv13": "",
            "IAAv12": "",
            "IAAv9": ""
          }
        }
      ]
    },
    "28": {
      "startMethod": "org.drools.cgrid.d.a.onItemClick(Landroid/widget/AdapterView;Landroid/view/View;IJ)V",
      "targetMethod": "org.apache.http.client.HttpClient.execute(Lorg/apache/http/client/methods/HttpUriRequest;)Lorg/apache/http/HttpResponse;",
      "eventChain": [
        {
          "start": "org.drools.cgrid.Ca.onCreate(Landroid/os/Bundle;)V",
          "target": "invokevirtual \u003c Application, Lorg/drools/cgrid/d/r, setOnItemClickListener(Landroid/widget/AdapterView$OnItemClickListener;)V \u003e@3227",
          "type": "activity",
          "component": "org.drools.cgrid.Ca"
        },
        {
          "start": "org.drools.cgrid.Cr.onReceive(Landroid/content/Context;Landroid/content/Intent;)V",
          "target": "PC@12",
          "type": "sms",
          "constraintsFile": "constraints28_0.py",
          "variables": {
            "System.currentTimeMillis()": "IAAv12",
            "\u003cChainedInput2\u003e.getAction()": "IAAv9",
            "\u003cChainedInput1\u003e.getSystemService().getActiveNetworkInfo()": "IAAv14",
            "\u003cSystemPrevTime\u003e": "IAAv13"
          },
          "stringMap": {
            "7000": "android.intent.action.PACKAGE_ADDED",
            "7001": "android.net.conn.CONNECTIVITY_CHANGE"
          },
          "strings": {
            "IAAv9": ""
          }
        },
        {
          "start": "org.drools.cgrid.Cr.onReceive(Landroid/content/Context;Landroid/content/Intent;)V",
          "target": "PC@71",
          "type": "sms",
          "constraintsFile": "constraints28_1.py",
          "variables": {
            "System.currentTimeMillis()": "IAAv3",
            "\u003cChainedInput2\u003e.getAction()": "IAAv0",
            "\u003cChainedInput1\u003e.getSystemService().getActiveNetworkInfo()": "IAAv5",
            "\u003cSystemPrevTime\u003e": "IAAv4"
          },
          "stringMap": {
            "7000": "android.intent.action.PACKAGE_ADDED",
            "7001": "android.net.conn.CONNECTIVITY_CHANGE"
          },
          "strings": {
            "IAAv0": ""
          }
        },
        {
          "start": "org.drools.cgrid.Cr.onReceive(Landroid/content/Context;Landroid/content/Intent;)V",
          "target": "PC@9",
          "type": "sms",
          "constraintsFile": "constraints28_2.py",
          "variables": {
            "System.currentTimeMillis()": "IAAv12",
            "\u003cChainedInput2\u003e.getAction()": "IAAv9",
            "\u003cChainedInput1\u003e.getSystemService().getActiveNetworkInfo()": "IAAv14",
            "\u003cSystemPrevTime\u003e": "IAAv13"
          },
          "stringMap": {
            "7000": "android.intent.action.PACKAGE_ADDED",
            "7001": "android.net.conn.CONNECTIVITY_CHANGE"
          },
          "strings": {
            "IAAv9": ""
          }
        },
        {
          "start": "org.drools.cgrid.Cr.onReceive(Landroid/content/Context;Landroid/content/Intent;)V",
          "target": "",
          "type": "sms",
          "constraintsFile": "constraints28_3.py",
          "variables": {
            "\u003cChainedInput1\u003e.getSystemService().getActiveNetworkInfo()": "IAAv5",
            "System.currentTimeMillis()": "IAAv3",
            "\u003cChainedInput2\u003e.getAction()": "IAAv0",
            "\u003cSystemPrevTime\u003e": "IAAv4"
          },
          "stringMap": {
            "7000": "android.intent.action.PACKAGE_ADDED",
            "7001": "android.net.conn.CONNECTIVITY_CHANGE"
          },
          "strings": {
            "IAAv0": ""
          }
        },
        {
          "start": "org.drools.cgrid.Cr.onReceive(Landroid/content/Context;Landroid/content/Intent;)V",
          "target": "PC@3",
          "type": "sms",
          "constraintsFile": "constraints28_4.py",
          "variables": {
            "System.currentTimeMillis()": "IAAv3",
            "\u003cChainedInput2\u003e.getAction()": "IAAv0",
            "\u003cChainedInput1\u003e.getSystemService().getActiveNetworkInfo()": "IAAv5",
            "\u003cSystemPrevTime\u003e": "IAAv4"
          },
          "stringMap": {
            "7000": "android.intent.action.PACKAGE_ADDED",
            "7001": "android.net.conn.CONNECTIVITY_CHANGE"
          },
          "strings": {
            "IAAv0": ""
          }
        },
        {
          "start": "org.drools.cgrid.d.a.onItemClick(Landroid/widget/AdapterView;Landroid/view/View;IJ)V",
          "target": "invokeinterface \u003c Application, Lorg/apache/http/client/HttpClient, execute(Lorg/apache/http/client/methods/HttpUriRequest;)Lorg/apache/http/HttpResponse; \u003e@413",
          "type": "ui",
          "activities": [
            "com.Green4thWood.c20103.f.AboutActivity"
          ],
          "listener": "org.drools.cgrid.d.a",
          "listenerMethod": "onItemClick",
          "uiType": "onItemClick",
          "constraintsFile": "constraints28_5.py",
          "variables": {},
          "stringMap": {},
          "strings": {}
        }
      ]
    },
    "29": {
      "startMethod": "org.drools.cgrid.d.a.onItemClick(Landroid/widget/AdapterView;Landroid/view/View;IJ)V",
      "targetMethod": "java.net.URL.openConnection()Ljava/net/URLConnection;",
      "eventChain": [
        {
          "start": "org.drools.cgrid.Ca.onCreate(Landroid/os/Bundle;)V",
          "target": "invokevirtual \u003c Application, Lorg/drools/cgrid/d/r, setOnItemClickListener(Landroid/widget/AdapterView$OnItemClickListener;)V \u003e@3227",
          "type": "activity",
          "component": "org.drools.cgrid.Ca"
        },
        {
          "start": "org.drools.cgrid.d.a.onItemClick(Landroid/widget/AdapterView;Landroid/view/View;IJ)V",
          "target": "invokevirtual \u003c Application, Ljava/net/URL, openConnection()Ljava/net/URLConnection; \u003e@11",
          "type": "ui",
          "activities": [
            "com.Green4thWood.c20103.f.AboutActivity"
          ],
          "listener": "org.drools.cgrid.d.a",
          "listenerMethod": "onItemClick",
          "uiType": "onItemClick",
          "constraintsFile": "constraints29_0.py",
          "variables": {},
          "stringMap": {},
          "strings": {}
        }
      ]
    },
    "30": {
      "startMethod": "org.apache.pivota.i.onItemClick(Landroid/widget/AdapterView;Landroid/view/View;IJ)V",
      "targetMethod": "java.net.URL.openConnection()Ljava/net/URLConnection;",
      "eventChain": [
        {
          "start": "org.apache.pivota.Ta.onCreate(Landroid/os/Bundle;)V",
          "target": "invokevirtual \u003c Application, Lorg/apache/pivota/a/c, setOnItemClickListener(Landroid/widget/AdapterView$OnItemClickListener;)V \u003e@3180",
          "type": "activity",
          "component": "org.apache.pivota.Ta",
          "constraintsFile": "constraints30_0.py",
          "variables": {},
          "stringMap": {},
          "strings": {}
        },
        {
          "start": "org.apache.pivota.i.onItemClick(Landroid/widget/AdapterView;Landroid/view/View;IJ)V",
          "target": "invokevirtual \u003c Application, Ljava/net/URL, openConnection()Ljava/net/URLConnection; \u003e@11",
          "type": "ui",
          "activities": [
            "com.Green4thWood.c20103.f.AboutActivity"
          ],
          "listener": "org.apache.pivota.i",
          "listenerMethod": "onItemClick",
          "uiType": "onItemClick",
          "constraintsFile": "constraints30_1.py",
          "variables": {
            "\u003cChainedInput1\u003e.getAdapter().getItem().a().r.a()": "IAAv2",
            "\u003cChainedInput1\u003e.getAdapter().getItem().a()": "IAAv1"
          },
          "stringMap": {},
          "strings": {}
        }
      ]
    },
    "31": {
      "startMethod": "org.apache.pivota.i.onItemClick(Landroid/widget/AdapterView;Landroid/view/View;IJ)V",
      "targetMethod": "org.apache.http.client.HttpClient.execute(Lorg/apache/http/client/methods/HttpUriRequest;)Lorg/apache/http/HttpResponse;",
      "eventChain": [
        {
          "start": "org.apache.pivota.Ta.onCreate(Landroid/os/Bundle;)V",
          "target": "invokevirtual \u003c Application, Lorg/apache/pivota/a/c, setOnItemClickListener(Landroid/widget/AdapterView$OnItemClickListener;)V \u003e@3180",
          "type": "activity",
          "component": "org.apache.pivota.Ta",
          "constraintsFile": "constraints31_0.py",
          "variables": {},
          "stringMap": {},
          "strings": {}
        },
        {
          "start": "org.apache.pivota.Ta.onCreate(Landroid/os/Bundle;)V",
          "target": "PC@3",
          "type": "activity",
          "component": "org.apache.pivota.Ta"
        },
        {
          "start": "org.apache.pivota.Ta.onCreate(Landroid/os/Bundle;)V",
          "target": "PC@9",
          "type": "activity",
          "component": "org.apache.pivota.Ta"
        },
        {
          "start": "org.apache.pivota.Ta.onCreate(Landroid/os/Bundle;)V",
          "target": "",
          "type": "activity",
          "component": "org.apache.pivota.Ta"
        },
        {
          "start": "org.apache.pivota.Ta.onCreate(Landroid/os/Bundle;)V",
          "target": "PC@65",
          "type": "activity",
          "component": "org.apache.pivota.Ta"
        },
        {
          "start": "org.apache.pivota.Ta.onCreate(Landroid/os/Bundle;)V",
          "target": "PC@12",
          "type": "activity",
          "component": "org.apache.pivota.Ta"
        },
        {
          "start": "org.apache.pivota.i.onItemClick(Landroid/widget/AdapterView;Landroid/view/View;IJ)V",
          "target": "invokeinterface \u003c Application, Lorg/apache/http/client/HttpClient, execute(Lorg/apache/http/client/methods/HttpUriRequest;)Lorg/apache/http/HttpResponse; \u003e@406",
          "type": "ui",
          "activities": [
            "com.Green4thWood.c20103.f.AboutActivity"
          ],
          "listener": "org.apache.pivota.i",
          "listenerMethod": "onItemClick",
          "uiType": "onItemClick",
          "constraintsFile": "constraints31_1.py",
          "variables": {
            "\u003cChainedInput1\u003e.getAdapter().getItem().a()": "IAAv1"
          },
          "stringMap": {},
          "strings": {}
        }
      ]
    },
    "32": {
      "startMethod": "org.apache.pivota.i.onItemClick(Landroid/widget/AdapterView;Landroid/view/View;IJ)V",
      "targetMethod": "org.apache.http.client.HttpClient.execute(Lorg/apache/http/client/methods/HttpUriRequest;)Lorg/apache/http/HttpResponse;",
      "eventChain": [
        {
          "start": "org.apache.pivota.Ta.onCreate(Landroid/os/Bundle;)V",
          "target": "invokevirtual \u003c Application, Lorg/apache/pivota/a/c, setOnItemClickListener(Landroid/widget/AdapterView$OnItemClickListener;)V \u003e@3180",
          "type": "activity",
          "component": "org.apache.pivota.Ta",
          "constraintsFile": "constraints32_0.py",
          "variables": {},
          "stringMap": {},
          "strings": {}
        },
        {
          "start": "org.apache.pivota.Ta.onCreate(Landroid/os/Bundle;)V",
          "target": "PC@3",
          "type": "activity",
          "component": "org.apache.pivota.Ta",
          "constraintsFile": "constraints32_1.py",
          "variables": {
            "\u003cChainedInput1\u003e.getAdapter().getItem().a()": "IAAv1"
          },
          "stringMap": {
            "7000": ""
          },
          "strings": {
            "IAAv8": ""
          }
        },
        {
          "start": "org.apache.pivota.Ta.onCreate(Landroid/os/Bundle;)V",
          "target": "",
          "type": "activity",
          "component": "org.apache.pivota.Ta"
        },
        {
          "start": "org.apache.pivota.i.onItemClick(Landroid/widget/AdapterView;Landroid/view/View;IJ)V",
          "target": "invokeinterface \u003c Application, Lorg/apache/http/client/HttpClient, execute(Lorg/apache/http/client/methods/HttpUriRequest;)Lorg/apache/http/HttpResponse; \u003e@77",
          "type": "ui",
          "activities": [
            "com.Green4thWood.c20103.f.AboutActivity"
          ],
          "listener": "org.apache.pivota.i",
          "listenerMethod": "onItemClick",
          "uiType": "onItemClick",
          "constraintsFile": "constraints32_2.py",
          "variables": {
            "\u003cChainedInput1\u003e.getAdapter().getItem().a()": "IAAv1"
          },
          "stringMap": {
            "7000": ""
          },
          "strings": {
            "IAAv8": ""
          }
        }
      ]
    },
    "33": {
      "startMethod": "org.drools.cgrid.d.a.onClick(Landroid/view/View;)V",
      "targetMethod": "org.apache.http.client.HttpClient.execute(Lorg/apache/http/client/methods/HttpUriRequest;)Lorg/apache/http/HttpResponse;",
      "eventChain": [
        {
          "start": "org.drools.cgrid.Ca.onCreate(Landroid/os/Bundle;)V",
          "target": "invokevirtual \u003c Application, Landroid/widget/ImageView, setOnClickListener(Landroid/view/View$OnClickListener;)V \u003e@3018",
          "type": "activity",
          "component": "org.drools.cgrid.Ca"
        },
        {
          "start": "org.drools.cgrid.Ca.onCreate(Landroid/os/Bundle;)V",
          "target": "PC@3",
          "type": "activity",
          "component": "org.drools.cgrid.Ca",
          "constraintsFile": "constraints33_0.py",
          "variables": {
            "\u003cChainedInput1\u003e.getTag().intValue()": "IAAv1"
          },
          "stringMap": {
            "7000": ""
          },
          "strings": {
            "IAAv20": "",
            "IAAv22": "",
            "IAAv13": "",
            "IAAv12": "",
            "IAAv15": "",
            "IAAv16": ""
          }
        },
        {
          "start": "org.drools.cgrid.Cr.onReceive(Landroid/content/Context;Landroid/content/Intent;)V",
          "target": "PC@71",
          "type": "sms",
          "constraintsFile": "constraints33_1.py",
          "variables": {
            "System.currentTimeMillis()": "IAAv3",
            "\u003cChainedInput2\u003e.getAction()": "IAAv0",
            "\u003cChainedInput1\u003e.getSystemService().getActiveNetworkInfo()": "IAAv5",
            "\u003cSystemPrevTime\u003e": "IAAv4"
          },
          "stringMap": {
            "7000": "android.intent.action.PACKAGE_ADDED",
            "7001": "android.net.conn.CONNECTIVITY_CHANGE"
          },
          "strings": {
            "IAAv0": ""
          }
        },
        {
          "start": "org.drools.cgrid.Cr.onReceive(Landroid/content/Context;Landroid/content/Intent;)V",
          "target": "",
          "type": "sms",
          "constraintsFile": "constraints33_2.py",
          "variables": {
            "\u003cChainedInput1\u003e.getSystemService().getActiveNetworkInfo()": "IAAv5",
            "System.currentTimeMillis()": "IAAv3",
            "\u003cChainedInput2\u003e.getAction()": "IAAv0",
            "\u003cSystemPrevTime\u003e": "IAAv4"
          },
          "stringMap": {
            "7000": "android.intent.action.PACKAGE_ADDED",
            "7001": "android.net.conn.CONNECTIVITY_CHANGE"
          },
          "strings": {
            "IAAv0": ""
          }
        },
        {
          "start": "org.drools.cgrid.Cr.onReceive(Landroid/content/Context;Landroid/content/Intent;)V",
          "target": "PC@3",
          "type": "sms",
          "constraintsFile": "constraints33_3.py",
          "variables": {
            "System.currentTimeMillis()": "IAAv3",
            "\u003cChainedInput2\u003e.getAction()": "IAAv0",
            "\u003cChainedInput1\u003e.getSystemService().getActiveNetworkInfo()": "IAAv5",
            "\u003cSystemPrevTime\u003e": "IAAv4"
          },
          "stringMap": {
            "7000": "android.intent.action.PACKAGE_ADDED",
            "7001": "android.net.conn.CONNECTIVITY_CHANGE"
          },
          "strings": {
            "IAAv0": ""
          }
        },
        {
          "start": "org.drools.cgrid.d.a.onClick(Landroid/view/View;)V",
          "target": "invokeinterface \u003c Application, Lorg/apache/http/client/HttpClient, execute(Lorg/apache/http/client/methods/HttpUriRequest;)Lorg/apache/http/HttpResponse; \u003e@89",
          "type": "ui",
          "activities": [
            "com.Green4thWood.c20103.f.AboutActivity"
          ],
          "listener": "android.view.View$1",
          "listenerMethod": "onClick",
          "uiType": "onClick",
          "constraintsFile": "constraints33_4.py",
          "variables": {
            "\u003cChainedInput1\u003e.getTag().intValue()": "IAAv1"
          },
          "stringMap": {
            "7000": ""
          },
          "strings": {
            "IAAv20": "",
            "IAAv22": "",
            "IAAv13": "",
            "IAAv12": "",
            "IAAv15": "",
            "IAAv16": ""
          }
        }
      ]
    },
    "34": {
      "startMethod": "org.drools.cgrid.d.a.onClick(Landroid/view/View;)V",
      "targetMethod": "org.apache.http.client.HttpClient.execute(Lorg/apache/http/client/methods/HttpUriRequest;)Lorg/apache/http/HttpResponse;",
      "eventChain": [
        {
          "start": "org.drools.cgrid.Ca.onCreate(Landroid/os/Bundle;)V",
          "target": "invokevirtual \u003c Application, Landroid/widget/ImageView, setOnClickListener(Landroid/view/View$OnClickListener;)V \u003e@3018",
          "type": "activity",
          "component": "org.drools.cgrid.Ca"
        },
        {
          "start": "org.drools.cgrid.Ca.onCreate(Landroid/os/Bundle;)V",
          "target": "PC@3",
          "type": "activity",
          "component": "org.drools.cgrid.Ca",
          "constraintsFile": "constraints34_0.py",
          "variables": {
            "\u003cChainedInput1\u003e.getTag().intValue()": "IAAv1"
          },
          "stringMap": {},
          "strings": {}
        },
        {
          "start": "org.drools.cgrid.Cr.onReceive(Landroid/content/Context;Landroid/content/Intent;)V",
          "target": "PC@12",
          "type": "sms",
          "constraintsFile": "constraints34_1.py",
          "variables": {
            "\u003cChainedInput1\u003e.getTag().intValue()": "IAAv1",
            "System.currentTimeMillis()": "IAAv15",
            "\u003cChainedInput2\u003e.getAction()": "IAAv12",
            "\u003cChainedInput1\u003e.getSystemService().getActiveNetworkInfo()": "IAAv17",
            "\u003cSystemPrevTime\u003e": "IAAv16"
          },
          "stringMap": {
            "7000": "android.intent.action.PACKAGE_ADDED",
            "7001": "android.net.conn.CONNECTIVITY_CHANGE"
          },
          "strings": {
            "IAAv12": ""
          }
        },
        {
          "start": "org.drools.cgrid.Cr.onReceive(Landroid/content/Context;Landroid/content/Intent;)V",
          "target": "PC@71",
          "type": "sms",
          "constraintsFile": "constraints34_2.py",
          "variables": {
            "System.currentTimeMillis()": "IAAv3",
            "\u003cChainedInput2\u003e.getAction()": "IAAv0",
            "\u003cChainedInput1\u003e.getSystemService().getActiveNetworkInfo()": "IAAv5",
            "\u003cSystemPrevTime\u003e": "IAAv4"
          },
          "stringMap": {
            "7000": "android.intent.action.PACKAGE_ADDED",
            "7001": "android.net.conn.CONNECTIVITY_CHANGE"
          },
          "strings": {
            "IAAv0": ""
          }
        },
        {
          "start": "org.drools.cgrid.Cr.onReceive(Landroid/content/Context;Landroid/content/Intent;)V",
          "target": "PC@9",
          "type": "sms",
          "constraintsFile": "constraints34_3.py",
          "variables": {
            "\u003cChainedInput1\u003e.getTag().intValue()": "IAAv1",
            "System.currentTimeMillis()": "IAAv15",
            "\u003cChainedInput2\u003e.getAction()": "IAAv12",
            "\u003cChainedInput1\u003e.getSystemService().getActiveNetworkInfo()": "IAAv17",
            "\u003cSystemPrevTime\u003e": "IAAv16"
          },
          "stringMap": {
            "7000": "android.intent.action.PACKAGE_ADDED",
            "7001": "android.net.conn.CONNECTIVITY_CHANGE"
          },
          "strings": {
            "IAAv12": ""
          }
        },
        {
          "start": "org.drools.cgrid.Cr.onReceive(Landroid/content/Context;Landroid/content/Intent;)V",
          "target": "",
          "type": "sms",
          "constraintsFile": "constraints34_4.py",
          "variables": {
            "\u003cChainedInput1\u003e.getSystemService().getActiveNetworkInfo()": "IAAv5",
            "System.currentTimeMillis()": "IAAv3",
            "\u003cChainedInput2\u003e.getAction()": "IAAv0",
            "\u003cSystemPrevTime\u003e": "IAAv4"
          },
          "stringMap": {
            "7000": "android.intent.action.PACKAGE_ADDED",
            "7001": "android.net.conn.CONNECTIVITY_CHANGE"
          },
          "strings": {
            "IAAv0": ""
          }
        },
        {
          "start": "org.drools.cgrid.Cr.onReceive(Landroid/content/Context;Landroid/content/Intent;)V",
          "target": "PC@3",
          "type": "sms",
          "constraintsFile": "constraints34_5.py",
          "variables": {
            "System.currentTimeMillis()": "IAAv3",
            "\u003cChainedInput2\u003e.getAction()": "IAAv0",
            "\u003cChainedInput1\u003e.getSystemService().getActiveNetworkInfo()": "IAAv5",
            "\u003cSystemPrevTime\u003e": "IAAv4"
          },
          "stringMap": {
            "7000": "android.intent.action.PACKAGE_ADDED",
            "7001": "android.net.conn.CONNECTIVITY_CHANGE"
          },
          "strings": {
            "IAAv0": ""
          }
        },
        {
          "start": "org.drools.cgrid.d.a.onClick(Landroid/view/View;)V",
          "target": "invokeinterface \u003c Application, Lorg/apache/http/client/HttpClient, execute(Lorg/apache/http/client/methods/HttpUriRequest;)Lorg/apache/http/HttpResponse; \u003e@413",
          "type": "ui",
          "activities": [
            "com.Green4thWood.c20103.f.AboutActivity"
          ],
          "listener": "android.view.View$1",
          "listenerMethod": "onClick",
          "uiType": "onClick",
          "constraintsFile": "constraints34_6.py",
          "variables": {
            "\u003cChainedInput1\u003e.getTag().intValue()": "IAAv1"
          },
          "stringMap": {},
          "strings": {}
        }
      ]
    },
    "35": {
      "startMethod": "org.drools.cgrid.d.a.onClick(Landroid/view/View;)V",
      "targetMethod": "org.apache.http.client.HttpClient.execute(Lorg/apache/http/client/methods/HttpUriRequest;)Lorg/apache/http/HttpResponse;",
      "eventChain": [
        {
          "start": "org.drools.cgrid.Ca.onCreate(Landroid/os/Bundle;)V",
          "target": "invokevirtual \u003c Application, Landroid/widget/ImageView, setOnClickListener(Landroid/view/View$OnClickListener;)V \u003e@3018",
          "type": "activity",
          "component": "org.drools.cgrid.Ca"
        },
        {
          "start": "org.drools.cgrid.Ca.onCreate(Landroid/os/Bundle;)V",
          "target": "PC@3",
          "type": "activity",
          "component": "org.drools.cgrid.Ca",
          "constraintsFile": "constraints35_0.py",
          "variables": {
            "\u003cChainedInput1\u003e.getTag().intValue()": "IAAv1"
          },
          "stringMap": {},
          "strings": {}
        },
        {
          "start": "org.drools.cgrid.d.a.onClick(Landroid/view/View;)V",
          "target": "invokeinterface \u003c Application, Lorg/apache/http/client/HttpClient, execute(Lorg/apache/http/client/methods/HttpUriRequest;)Lorg/apache/http/HttpResponse; \u003e@145",
          "type": "ui",
          "activities": [
            "com.Green4thWood.c20103.f.AboutActivity"
          ],
          "listener": "android.view.View$1",
          "listenerMethod": "onClick",
          "uiType": "onClick",
          "constraintsFile": "constraints35_1.py",
          "variables": {
            "\u003cChainedInput1\u003e.getTag().intValue()": "IAAv1"
          },
          "stringMap": {},
          "strings": {}
        }
      ]
    },
    "36": {
      "startMethod": "org.apache.pivota.i.onClick(Landroid/view/View;)V",
      "targetMethod": "org.apache.http.client.HttpClient.execute(Lorg/apache/http/client/methods/HttpUriRequest;)Lorg/apache/http/HttpResponse;",
      "eventChain": [
        {
          "start": "org.apache.pivota.Ta.onCreate(Landroid/os/Bundle;)V",
          "target": "invokevirtual \u003c Application, Landroid/widget/ImageView, setOnClickListener(Landroid/view/View$OnClickListener;)V \u003e@2971",
          "type": "activity",
          "component": "org.apache.pivota.Ta",
          "constraintsFile": "constraints36_0.py",
          "variables": {},
          "stringMap": {},
          "strings": {}
        },
        {
          "start": "org.apache.pivota.Ta.onCreate(Landroid/os/Bundle;)V",
          "target": "PC@3",
          "type": "activity",
          "component": "org.apache.pivota.Ta"
        },
        {
          "start": "org.apache.pivota.Ta.onCreate(Landroid/os/Bundle;)V",
          "target": "PC@9",
          "type": "activity",
          "component": "org.apache.pivota.Ta"
        },
        {
          "start": "org.apache.pivota.Ta.onCreate(Landroid/os/Bundle;)V",
          "target": "",
          "type": "activity",
          "component": "org.apache.pivota.Ta"
        },
        {
          "start": "org.apache.pivota.Ta.onCreate(Landroid/os/Bundle;)V",
          "target": "PC@65",
          "type": "activity",
          "component": "org.apache.pivota.Ta"
        },
        {
          "start": "org.apache.pivota.Ta.onCreate(Landroid/os/Bundle;)V",
          "target": "PC@3",
          "type": "activity",
          "component": "org.apache.pivota.Ta",
          "constraintsFile": "constraints36_1.py",
          "variables": {
            "\u003cChainedInput1\u003e.getTag().intValue()": "IAAv1"
          },
          "stringMap": {},
          "strings": {
            "IAAv2": ""
          }
        },
        {
          "start": "org.apache.pivota.Ta.onCreate(Landroid/os/Bundle;)V",
          "target": "PC@12",
          "type": "activity",
          "component": "org.apache.pivota.Ta"
        },
        {
          "start": "org.apache.pivota.i.onClick(Landroid/view/View;)V",
          "target": "invokeinterface \u003c Application, Lorg/apache/http/client/HttpClient, execute(Lorg/apache/http/client/methods/HttpUriRequest;)Lorg/apache/http/HttpResponse; \u003e@406",
          "type": "ui",
          "activities": [
            "com.Green4thWood.c20103.f.AboutActivity"
          ],
          "listener": "android.view.View$1",
          "listenerMethod": "onClick",
          "uiType": "onClick",
          "constraintsFile": "constraints36_2.py",
          "variables": {
            "\u003cChainedInput1\u003e.getTag().intValue()": "IAAv1"
          },
          "stringMap": {},
          "strings": {
            "IAAv2": ""
          }
        }
      ]
    },
    "37": {
      "startMethod": "org.apache.pivota.i.onClick(Landroid/view/View;)V",
      "targetMethod": "org.apache.http.client.HttpClient.execute(Lorg/apache/http/client/methods/HttpUriRequest;)Lorg/apache/http/HttpResponse;",
      "eventChain": [
        {
          "start": "org.apache.pivota.Ta.onCreate(Landroid/os/Bundle;)V",
          "target": "invokevirtual \u003c Application, Landroid/widget/ImageView, setOnClickListener(Landroid/view/View$OnClickListener;)V \u003e@2971",
          "type": "activity",
          "component": "org.apache.pivota.Ta",
          "constraintsFile": "constraints37_0.py",
          "variables": {},
          "stringMap": {},
          "strings": {}
        },
        {
          "start": "org.apache.pivota.Ta.onCreate(Landroid/os/Bundle;)V",
          "target": "PC@3",
          "type": "activity",
          "component": "org.apache.pivota.Ta",
          "constraintsFile": "constraints37_1.py",
          "variables": {
            "\u003cChainedInput1\u003e.getTag().intValue()": "IAAv1"
          },
          "stringMap": {},
          "strings": {}
        },
        {
          "start": "org.apache.pivota.i.onClick(Landroid/view/View;)V",
          "target": "invokeinterface \u003c Application, Lorg/apache/http/client/HttpClient, execute(Lorg/apache/http/client/methods/HttpUriRequest;)Lorg/apache/http/HttpResponse; \u003e@77",
          "type": "ui",
          "activities": [
            "com.Green4thWood.c20103.f.AboutActivity"
          ],
          "listener": "android.view.View$1",
          "listenerMethod": "onClick",
          "uiType": "onClick",
          "constraintsFile": "constraints37_2.py",
          "variables": {
            "\u003cChainedInput1\u003e.getTag().intValue()": "IAAv1"
          },
          "stringMap": {},
          "strings": {}
        }
      ]
    },
    "38": {
      "startMethod": "org.drools.cgrid.d.d.onClick(Landroid/view/View;)V",
      "targetMethod": "java.net.URL.openConnection()Ljava/net/URLConnection;",
      "eventChain": [
        {
          "start": "org.drools.cgrid.d.d.onClick(Landroid/view/View;)V",
          "target": "invokevirtual \u003c Application, Ljava/net/URL, openConnection()Ljava/net/URLConnection; \u003e@11",
          "type": "ui",
          "activities": [
            "com.Green4thWood.c20103.f.AboutActivity"
          ],
          "listener": "android.view.View$1",
          "listenerMethod": "onClick",
          "uiType": "onClick",
          "constraintsFile": "constraints38_0.py",
          "variables": {},
          "stringMap": {},
          "strings": {}
        }
      ]
    },
    "39": {
      "startMethod": "org.drools.cgrid.d.l.onClick(Landroid/view/View;)V",
      "targetMethod": "java.net.URL.openConnection()Ljava/net/URLConnection;",
      "eventChain": [
        {
          "start": "org.drools.cgrid.d.l.onClick(Landroid/view/View;)V",
          "target": "invokevirtual \u003c Application, Landroid/widget/ImageView, setOnClickListener(Landroid/view/View$OnClickListener;)V \u003e@418",
          "type": "ui",
          "activities": [
            "com.Green4thWood.c20103.f.AboutActivity"
          ],
          "listener": "android.view.View$1",
          "listenerMethod": "onClick",
          "uiType": "onClick",
          "constraintsFile": "constraints39_0.py",
          "variables": {},
          "stringMap": {},
          "strings": {}
        },
        {
          "start": "org.drools.cgrid.d.l.onClick(Landroid/view/View;)V",
          "target": "PC@13",
          "type": "ui",
          "activities": [
            "com.Green4thWood.c20103.f.AboutActivity"
          ],
          "listener": "android.view.View$1",
          "listenerMethod": "onClick",
          "uiType": "onClick",
          "constraintsFile": "constraints39_1.py",
          "variables": {},
          "stringMap": {},
          "strings": {}
        },
        {
          "start": "org.drools.cgrid.d.l.onClick(Landroid/view/View;)V",
          "target": "",
          "type": "ui",
          "activities": [
            "com.Green4thWood.c20103.f.AboutActivity"
          ],
          "listener": "android.view.View$1",
          "listenerMethod": "onClick",
          "uiType": "onClick",
          "constraintsFile": "constraints39_2.py",
          "variables": {},
          "stringMap": {},
          "strings": {}
        },
        {
          "start": "org.drools.cgrid.d.l.onClick(Landroid/view/View;)V",
          "target": "invokevirtual \u003c Application, Ljava/net/URL, openConnection()Ljava/net/URLConnection; \u003e@11",
          "type": "ui",
          "activities": [
            "com.Green4thWood.c20103.f.AboutActivity"
          ],
          "listener": "android.view.View$1",
          "listenerMethod": "onClick",
          "uiType": "onClick",
          "constraintsFile": "constraints39_3.py",
          "variables": {},
          "stringMap": {},
          "strings": {}
        }
      ]
    },
    "40": {
      "startMethod": "jp.co.cayto.appc.sdk.android.FloatView$7.onClick(Landroid/view/View;)V",
      "targetMethod": "java.net.URL.openConnection()Ljava/net/URLConnection;",
      "eventChain": [
        {
          "start": "jp.co.cayto.appc.sdk.android.FloatView$7.onClick(Landroid/view/View;)V",
          "target": "invokevirtual \u003c Application, Ljava/net/URL, openConnection()Ljava/net/URLConnection; \u003e@33",
          "type": "ui",
          "activities": [
            "com.Green4thWood.c20103.f.AboutActivity"
          ],
          "listener": "android.view.View$1",
          "listenerMethod": "onClick",
          "uiType": "onClick",
          "constraintsFile": "constraints40_0.py",
          "variables": {},
          "stringMap": {},
          "strings": {}
        }
      ]
    },
    "41": {
      "startMethod": "org.apache.pivota.l.onClick(Landroid/view/View;)V",
      "targetMethod": "java.net.URL.openConnection()Ljava/net/URLConnection;",
      "eventChain": [
        {
          "start": "org.apache.pivota.l.onClick(Landroid/view/View;)V",
          "target": "invokevirtual \u003c Application, Ljava/net/URL, openConnection()Ljava/net/URLConnection; \u003e@11",
          "type": "ui",
          "activities": [
            "com.Green4thWood.c20103.f.AboutActivity"
          ],
          "listener": "android.view.View$1",
          "listenerMethod": "onClick",
          "uiType": "onClick",
          "constraintsFile": "constraints41_0.py",
          "variables": {},
          "stringMap": {},
          "strings": {}
        }
      ]
    },
    "42": {
      "startMethod": "jp.co.cayto.appc.sdk.android.FloatView$5.onClick(Landroid/view/View;)V",
      "targetMethod": "java.net.URL.openConnection()Ljava/net/URLConnection;",
      "eventChain": [
        {
          "start": "jp.co.cayto.appc.sdk.android.FloatView$5.onClick(Landroid/view/View;)V",
          "target": "invokevirtual \u003c Application, Ljava/net/URL, openConnection()Ljava/net/URLConnection; \u003e@33",
          "type": "ui",
          "activities": [
            "com.Green4thWood.c20103.f.AboutActivity"
          ],
          "listener": "android.view.View$1",
          "listenerMethod": "onClick",
          "uiType": "onClick",
          "constraintsFile": "constraints42_0.py",
          "variables": {},
          "stringMap": {},
          "strings": {}
        }
      ]
    },
    "43": {
      "startMethod": "jp.co.cayto.appc.sdk.android.FloatViewPager$LinearFloatInnerView.onClick(Landroid/view/View;)V",
      "targetMethod": "java.net.URL.openConnection()Ljava/net/URLConnection;",
      "eventChain": [
        {
          "start": "jp.co.cayto.appc.sdk.android.FloatViewPager$LinearFloatInnerView.onClick(Landroid/view/View;)V",
          "target": "invokevirtual \u003c Application, Ljava/net/URL, openConnection()Ljava/net/URLConnection; \u003e@26",
          "type": "ui",
          "activities": [
            "com.Green4thWood.c20103.f.AboutActivity"
          ],
          "listener": "android.view.View$1",
          "listenerMethod": "onClick",
          "uiType": "onClick",
          "constraintsFile": "constraints43_0.py",
          "variables": {},
          "stringMap": {},
          "strings": {}
        }
      ]
    },
    "44": {
      "startMethod": "jp.co.cayto.appc.sdk.android.preference.AppControler$5.onReceive(Landroid/content/Context;Landroid/content/Intent;)V",
      "targetMethod": "java.net.URL.openConnection()Ljava/net/URLConnection;",
      "eventChain": [
        {
          "start": "jp.co.cayto.appc.sdk.android.background.BgAppReceiver.onReceive(Landroid/content/Context;Landroid/content/Intent;)V",
          "target": "invokevirtual \u003c Application, Landroid/content/Context, sendOrderedBroadcast(Landroid/content/Intent;Ljava/lang/String;Landroid/content/BroadcastReceiver;Landroid/os/Handler;ILjava/lang/String;Landroid/os/Bundle;)V \u003e@109",
          "type": "sms",
          "constraintsFile": "constraints44_0.py",
          "variables": {},
          "stringMap": {
            "7000": ""
          },
          "strings": {
            "IAAv3": "",
            "IAAv1": ""
          }
        },
        {
          "start": "jp.co.cayto.appc.sdk.android.preference.AppControler$5.onReceive(Landroid/content/Context;Landroid/content/Intent;)V",
          "target": "invokevirtual \u003c Application, Ljava/net/URL, openConnection()Ljava/net/URLConnection; \u003e@26",
          "type": "sms",
          "constraintsFile": "constraints44_1.py",
          "variables": {},
          "stringMap": {
            "7000": ""
          },
          "strings": {
            "IAAv0": ""
          }
        }
      ]
    },
    "45": {
      "startMethod": "com.google.ads.InstallReceiver.onReceive(Landroid/content/Context;Landroid/content/Intent;)V",
      "targetMethod": "java.net.URL.openConnection()Ljava/net/URLConnection;",
      "eventChain": [
        {
          "start": "com.google.ads.InstallReceiver.onReceive(Landroid/content/Context;Landroid/content/Intent;)V",
          "target": "invokevirtual \u003c Application, Ljava/net/URL, openConnection()Ljava/net/URLConnection; \u003e@104",
          "type": "sms"
        }
      ]
    },
    "46": {
      "startMethod": "jp.Adlantis.Android.AdManager$ConnectionChangeReceiver.onReceive(Landroid/content/Context;Landroid/content/Intent;)V",
      "targetMethod": "java.lang.reflect.Method.invoke(Ljava/lang/Object;[Ljava/lang/Object;)Ljava/lang/Object;",
      "eventChain": [
        {
          "start": "com.Green4thWood.c20103.f.Box2dActivity.onResume()V",
          "target": "invokespecial \u003c Application, Landroid/content/BroadcastReceiver, \u003cinit\u003e()V \u003e@7",
          "type": "activity",
          "component": "com.Green4thWood.c20103.f.Box2dActivity"
        },
        {
          "start": "jp.Adlantis.Android.AdManager$ConnectionChangeReceiver.onReceive(Landroid/content/Context;Landroid/content/Intent;)V",
          "target": "invokevirtual \u003c Application, Ljava/lang/reflect/Method, invoke(Ljava/lang/Object;[Ljava/lang/Object;)Ljava/lang/Object; \u003e@99",
          "type": "sms",
          "constraintsFile": "constraints46_0.py",
          "variables": {
            "\u003cChainedInput1\u003e.isNetworkAvailable()": "IAAv0"
          },
          "stringMap": {},
          "strings": {
            "IAAv3": "",
            "IAAv1": ""
          }
        }
      ]
    },
    "47": {
      "startMethod": "jp.Adlantis.Android.AdManager$ConnectionChangeReceiver.onReceive(Landroid/content/Context;Landroid/content/Intent;)V",
      "targetMethod": "java.lang.reflect.Method.invoke(Ljava/lang/Object;[Ljava/lang/Object;)Ljava/lang/Object;",
      "eventChain": [
        {
          "start": "com.Green4thWood.c20103.f.Box2dActivity.onResume()V",
          "target": "invokespecial \u003c Application, Landroid/content/BroadcastReceiver, \u003cinit\u003e()V \u003e@7",
          "type": "activity",
          "component": "com.Green4thWood.c20103.f.Box2dActivity"
        },
        {
          "start": "jp.Adlantis.Android.AdManager$ConnectionChangeReceiver.onReceive(Landroid/content/Context;Landroid/content/Intent;)V",
          "target": "invokevirtual \u003c Application, Ljava/lang/reflect/Method, invoke(Ljava/lang/Object;[Ljava/lang/Object;)Ljava/lang/Object; \u003e@46",
          "type": "sms",
          "constraintsFile": "constraints47_0.py",
          "variables": {
            "\u003cChainedInput1\u003e.isNetworkAvailable()": "IAAv0"
          },
          "stringMap": {},
          "strings": {
            "IAAv3": "",
            "IAAv1": ""
          }
        }
      ]
    },
    "48": {
      "startMethod": "jp.Adlantis.Android.AdManager$ConnectionChangeReceiver.onReceive(Landroid/content/Context;Landroid/content/Intent;)V",
      "targetMethod": "java.lang.reflect.Method.invoke(Ljava/lang/Object;[Ljava/lang/Object;)Ljava/lang/Object;",
      "eventChain": [
        {
          "start": "com.Green4thWood.c20103.f.Box2dActivity.onResume()V",
          "target": "invokespecial \u003c Application, Landroid/content/BroadcastReceiver, \u003cinit\u003e()V \u003e@7",
          "type": "activity",
          "component": "com.Green4thWood.c20103.f.Box2dActivity"
        },
        {
          "start": "jp.Adlantis.Android.AdManager$ConnectionChangeReceiver.onReceive(Landroid/content/Context;Landroid/content/Intent;)V",
          "target": "invokevirtual \u003c Application, Ljava/lang/reflect/Method, invoke(Ljava/lang/Object;[Ljava/lang/Object;)Ljava/lang/Object; \u003e@137",
          "type": "sms",
          "constraintsFile": "constraints48_0.py",
          "variables": {
            "\u003cChainedInput1\u003e.isNetworkAvailable()": "IAAv0"
          },
          "stringMap": {},
          "strings": {
            "IAAv3": "",
            "IAAv1": "",
            "IAAv6": ""
          }
        }
      ]
    },
    "49": {
      "startMethod": "jp.Adlantis.Android.AdManager$ConnectionChangeReceiver.onReceive(Landroid/content/Context;Landroid/content/Intent;)V",
      "targetMethod": "org.apache.http.impl.client.AbstractHttpClient.execute(Lorg/apache/http/client/methods/HttpUriRequest;)Lorg/apache/http/HttpResponse;",
      "eventChain": [
        {
          "start": "com.Green4thWood.c20103.f.Box2dActivity.onResume()V",
          "target": "invokespecial \u003c Application, Landroid/content/BroadcastReceiver, \u003cinit\u003e()V \u003e@7",
          "type": "activity",
          "component": "com.Green4thWood.c20103.f.Box2dActivity"
        },
        {
          "start": "jp.Adlantis.Android.AdManager$ConnectionChangeReceiver.onReceive(Landroid/content/Context;Landroid/content/Intent;)V",
          "target": "invokevirtual \u003c Application, Lorg/apache/http/impl/client/AbstractHttpClient, execute(Lorg/apache/http/client/methods/HttpUriRequest;)Lorg/apache/http/HttpResponse; \u003e@113",
          "type": "sms",
          "constraintsFile": "constraints49_0.py",
          "variables": {
            "\u003cChainedInput1\u003e.isNetworkAvailable()": "IAAv0"
          },
          "stringMap": {},
          "strings": {
            "IAAv3": "",
            "IAAv1": ""
          }
        }
      ]
    },
    "50": {
      "startMethod": "jp.co.cayto.appc.sdk.android.preference.AppControler$5$1.onReceive(Landroid/content/Context;Landroid/content/Intent;)V",
      "targetMethod": "java.net.URL.openConnection()Ljava/net/URLConnection;",
      "eventChain": [
        {
          "start": "jp.co.cayto.appc.sdk.android.preference.AppControler$5.onReceive(Landroid/content/Context;Landroid/content/Intent;)V",
          "target": "invokespecial \u003c Application, Landroid/content/BroadcastReceiver, \u003cinit\u003e()V \u003e@12",
          "type": "sms",
          "constraintsFile": "constraints50_0.py",
          "variables": {},
          "stringMap": {},
          "strings": {
            "IAAv0": ""
          }
        },
        {
          "start": "jp.co.cayto.appc.sdk.android.preference.AppControler$5.onReceive(Landroid/content/Context;Landroid/content/Intent;)V",
          "target": "PC@8",
          "type": "sms",
          "constraintsFile": "constraints50_1.py",
          "variables": {},
          "stringMap": {
            "7000": ""
          },
          "strings": {
            "IAAv5": ""
          }
        },
        {
          "start": "jp.co.cayto.appc.sdk.android.preference.AppControler$5$1.onReceive(Landroid/content/Context;Landroid/content/Intent;)V",
          "target": "invokevirtual \u003c Application, Ljava/net/URL, openConnection()Ljava/net/URLConnection; \u003e@26",
          "type": "sms",
          "constraintsFile": "constraints50_2.py",
          "variables": {},
          "stringMap": {
            "7000": ""
          },
          "strings": {}
        }
      ]
    },
    "51": {
      "startMethod": "jp.co.cayto.appc.sdk.android.FloatContents.onTabChanged(Ljava/lang/String;)V",
      "targetMethod": "java.net.URL.openConnection()Ljava/net/URLConnection;",
      "eventChain": [
        {
          "start": "jp.co.cayto.appc.sdk.android.FloatContents.onTabChanged(Ljava/lang/String;)V",
          "target": "invokevirtual \u003c Application, Ljava/net/URL, openConnection()Ljava/net/URLConnection; \u003e@26",
          "type": "ui",
          "activities": [
            "com.Green4thWood.c20103.f.AboutActivity"
          ],
          "listener": "jp.co.cayto.appc.sdk.android.FloatContents",
          "listenerMethod": "onTabChanged",
          "uiType": "onTabChanged",
          "constraintsFile": "constraints51_0.py",
          "variables": {
            "\u003cChainedInput1\u003e": "IAAv0"
          },
          "stringMap": {
            "7000": "\u003cUI\u003e",
            "7001": ""
          },
          "strings": {
            "IAAv0": ""
          }
        }
      ]
    },
    "52": {
      "startMethod": "jp.co.cayto.appc.sdk.android.background.BgAppRemoteCommandReceiver.onReceive(Landroid/content/Context;Landroid/content/Intent;)V",
      "targetMethod": "java.net.URL.openConnection()Ljava/net/URLConnection;",
      "eventChain": [
        {
          "start": "jp.co.cayto.appc.sdk.android.background.BgAppRemoteCommandReceiver.onReceive(Landroid/content/Context;Landroid/content/Intent;)V",
          "target": "invokevirtual \u003c Application, Ljava/net/URL, openConnection()Ljava/net/URLConnection; \u003e@26",
          "type": "sms",
          "constraintsFile": "constraints52_0.py",
          "variables": {
            "\u003cInput1\u003e.getIncetance().getGroupPrefLogPermission()": "IAAv3",
            "\u003cInput2\u003e.getExtras()": "IAAv1",
            "\u003cInput1\u003e.getIncetance().isMaster()": "IAAv9",
            "\u003cInput1\u003e.getIncetance().isInitialized()": "IAAv7",
            "\u003cInput2\u003e.getExtras().convertToSecureHash()": "IAAv0",
            "\u003cInput1\u003e.getIncetance().isPemmitedLogSend()": "IAAv8"
          },
          "stringMap": {
            "7000": "",
            "7001": "boot_bgservice",
            "7002": "send_lonlyinstall"
          },
          "strings": {
            "IAAv3": "",
            "IAAv0": ""
          }
        }
      ]
    }
  }
}