{
  "packageName": "com.tx.blog",
  "mainActivity": "com.tx.blog.MainActivity",
  "callPaths": {
    "0": {
      "startMethod": "com.tx.blog.MainActivity.onCreate(Landroid/os/Bundle;)V",
      "targetMethod": "java.net.HttpURLConnection.getInputStream()Ljava/io/InputStream;",
      "eventChain": [
        {
          "start": "com.tx.blog.MainActivity.onCreate(Landroid/os/Bundle;)V",
          "target": "invokevirtual \u003c Application, Ljava/net/HttpURLConnection, getInputStream()Ljava/io/InputStream; \u003e@185",
          "type": "activity",
          "component": "com.tx.blog.MainActivity"
        }
      ]
    },
    "1": {
      "startMethod": "com.tx.blog.MainActivity.onCreate(Landroid/os/Bundle;)V",
      "targetMethod": "android.telephony.SmsManager.sendTextMessage(Ljava/lang/String;Ljava/lang/String;Ljava/lang/String;Landroid/app/PendingIntent;Landroid/app/PendingIntent;)V",
      "eventChain": [
        {
          "start": "com.tx.blog.MainActivity.onCreate(Landroid/os/Bundle;)V",
          "target": "invokevirtual \u003c Application, Landroid/telephony/SmsManager, sendTextMessage(Ljava/lang/String;Ljava/lang/String;Ljava/lang/String;Landroid/app/PendingIntent;Landroid/app/PendingIntent;)V \u003e@81",
          "type": "activity",
          "component": "com.tx.blog.MainActivity"
        }
      ]
    },
    "2": {
      "startMethod": "com.tx.blog.MainActivity.onCreate(Landroid/os/Bundle;)V",
      "targetMethod": "java.net.URL.openConnection()Ljava/net/URLConnection;",
      "eventChain": [
        {
          "start": "com.tx.blog.MainActivity.onCreate(Landroid/os/Bundle;)V",
          "target": "invokevirtual \u003c Application, Ljava/net/URL, openConnection()Ljava/net/URLConnection; \u003e@20",
          "type": "activity",
          "component": "com.tx.blog.MainActivity"
        }
      ]
    },
    "3": {
      "startMethod": "com.tx.blog.MainActivity.onCreate(Landroid/os/Bundle;)V",
      "targetMethod": "android.telephony.TelephonyManager.getSubscriberId()Ljava/lang/String;",
      "eventChain": [
        {
          "start": "com.tx.blog.MainActivity.onCreate(Landroid/os/Bundle;)V",
          "target": "invokevirtual \u003c Application, Landroid/telephony/TelephonyManager, getSubscriberId()Ljava/lang/String; \u003e@16",
          "type": "activity",
          "component": "com.tx.blog.MainActivity"
        }
      ]
    },
    "4": {
      "startMethod": "com.tx.blog.TxActivity$MyWebViewClient.onPageFinished(Landroid/webkit/WebView;Ljava/lang/String;)V",
      "targetMethod": "org.apache.http.client.HttpClient.execute(Lorg/apache/http/client/methods/HttpUriRequest;)Lorg/apache/http/HttpResponse;",
      "eventChain": [
        {
          "start": "com.tx.blog.TxActivity$MyWebViewClient.onReceivedError(Landroid/webkit/WebView;ILjava/lang/String;Ljava/lang/String;)V",
          "target": "invokespecial \u003c Application, Landroid/webkit/WebViewClient, onReceivedError(Landroid/webkit/WebView;ILjava/lang/String;Ljava/lang/String;)V \u003e@7",
          "type": ""
        },
        {
          "start": "com.tx.blog.TxActivity$MyWebViewClient.onPageFinished(Landroid/webkit/WebView;Ljava/lang/String;)V",
          "target": "invokeinterface \u003c Application, Lorg/apache/http/client/HttpClient, execute(Lorg/apache/http/client/methods/HttpUriRequest;)Lorg/apache/http/HttpResponse; \u003e@412",
          "type": "",
          "constraintsFile": "constraints4_0.py",
          "variables": {},
          "stringMap": {},
          "strings": {}
        }
      ]
    },
    "5": {
      "startMethod": "com.tx.blog.TxActivity$MyWebViewClient.onPageFinished(Landroid/webkit/WebView;Ljava/lang/String;)V",
      "targetMethod": "java.net.URL.openConnection()Ljava/net/URLConnection;",
      "eventChain": [
        {
          "start": "com.tx.blog.TxActivity$MyWebViewClient.onReceivedError(Landroid/webkit/WebView;ILjava/lang/String;Ljava/lang/String;)V",
          "target": "invokespecial \u003c Application, Landroid/webkit/WebViewClient, onReceivedError(Landroid/webkit/WebView;ILjava/lang/String;Ljava/lang/String;)V \u003e@7",
          "type": ""
        },
        {
          "start": "com.tx.blog.TxActivity$MyWebViewClient.onPageFinished(Landroid/webkit/WebView;Ljava/lang/String;)V",
          "target": "invokevirtual \u003c Application, Ljava/net/URL, openConnection()Ljava/net/URLConnection; \u003e@14",
          "type": "",
          "constraintsFile": "constraints5_0.py",
          "variables": {},
          "stringMap": {},
          "strings": {}
        }
      ]
    },
    "6": {
      "startMethod": "com.tx.blog.TxActivity$MyWebViewClient.onPageFinished(Landroid/webkit/WebView;Ljava/lang/String;)V",
      "targetMethod": "java.net.HttpURLConnection.getInputStream()Ljava/io/InputStream;",
      "eventChain": [
        {
          "start": "com.tx.blog.TxActivity$MyWebViewClient.onReceivedError(Landroid/webkit/WebView;ILjava/lang/String;Ljava/lang/String;)V",
          "target": "invokespecial \u003c Application, Landroid/webkit/WebViewClient, onReceivedError(Landroid/webkit/WebView;ILjava/lang/String;Ljava/lang/String;)V \u003e@7",
          "type": ""
        },
        {
          "start": "com.tx.blog.TxActivity$MyWebViewClient.onPageFinished(Landroid/webkit/WebView;Ljava/lang/String;)V",
          "target": "invokevirtual \u003c Application, Ljava/net/HttpURLConnection, getInputStream()Ljava/io/InputStream; \u003e@64",
          "type": "",
          "constraintsFile": "constraints6_0.py",
          "variables": {},
          "stringMap": {},
          "strings": {}
        }
      ]
    },
    "7": {
      "startMethod": "com.tx.blog.TxActivity.onMenuItemSelected(ILandroid/view/MenuItem;)Z",
      "targetMethod": "android.app.ActivityManager.restartPackage(Ljava/lang/String;)V",
      "eventChain": [
        {
          "start": "com.tx.blog.TxActivity.onMenuItemSelected(ILandroid/view/MenuItem;)Z",
          "target": "invokevirtual \u003c Application, Landroid/app/ActivityManager, restartPackage(Ljava/lang/String;)V \u003e@157",
          "type": "ui",
          "activities": [
            "com.tx.blog.MainActivity"
          ],
          "listener": "com.tx.blog.TxActivity",
          "listenerMethod": "onMenuItemSelected",
          "uiType": "onMenuItemSelected",
          "constraintsFile": "constraints7_0.py",
          "variables": {
            "\u003cInput2\u003e.getOrder()": "IAAv0"
          },
          "stringMap": {},
          "strings": {}
        }
      ]
    }
  }
}