{
  "packageName": "com.asdjklqw.echovox",
  "mainActivity": "com.asdjklqw.echovox.MainA",
  "callPaths": {
    "0": {
      "startMethod": "com.asdjklqw.echovox.MainA.onCreate(Landroid/os/Bundle;)V",
      "targetMethod": "org.apache.http.client.HttpClient.execute(Lorg/apache/http/client/methods/HttpUriRequest;)Lorg/apache/http/HttpResponse;",
      "eventChain": [
        {
          "start": "com.asdjklqw.echovox.MainA.onCreate(Landroid/os/Bundle;)V",
          "target": "invokeinterface \u003c Application, Lorg/apache/http/client/HttpClient, execute(Lorg/apache/http/client/methods/HttpUriRequest;)Lorg/apache/http/HttpResponse; \u003e@126",
          "type": "activity",
          "component": "com.asdjklqw.echovox.MainA"
        }
      ]
    },
    "1": {
      "startMethod": "com.asdjklqw.echovox.MainA.onCreate(Landroid/os/Bundle;)V",
      "targetMethod": "org.apache.http.impl.client.DefaultHttpClient.execute(Lorg/apache/http/client/methods/HttpUriRequest;)Lorg/apache/http/HttpResponse;",
      "eventChain": [
        {
          "start": "com.asdjklqw.echovox.MainA.onCreate(Landroid/os/Bundle;)V",
          "target": "invokevirtual \u003c Application, Lorg/apache/http/impl/client/DefaultHttpClient, execute(Lorg/apache/http/client/methods/HttpUriRequest;)Lorg/apache/http/HttpResponse; \u003e@281",
          "type": "activity",
          "component": "com.asdjklqw.echovox.MainA"
        }
      ]
    },
    "2": {
      "startMethod": "com.jaytronix.echovox.TalkBox.onCreate(Landroid/os/Bundle;)V",
      "targetMethod": "android.content.ContentResolver.delete(Landroid/net/Uri;Ljava/lang/String;[Ljava/lang/String;)I",
      "eventChain": [
        {
          "start": "com.jaytronix.echovox.TalkBox.onCreate(Landroid/os/Bundle;)V",
          "target": "PC@66",
          "type": "activity",
          "component": "com.jaytronix.echovox.TalkBox",
          "constraintsFile": "constraints2_0.py",
          "variables": {},
          "stringMap": {},
          "strings": {}
        },
        {
          "start": "com.jaytronix.echovox.TalkBox.onCreate(Landroid/os/Bundle;)V",
          "target": "invokevirtual \u003c Application, Landroid/content/ContentResolver, delete(Landroid/net/Uri;Ljava/lang/String;[Ljava/lang/String;)I \u003e@449",
          "type": "activity",
          "component": "com.jaytronix.echovox.TalkBox",
          "constraintsFile": "constraints2_1.py",
          "variables": {},
          "stringMap": {},
          "strings": {}
        }
      ]
    },
    "3": {
      "startMethod": "com.asdjklqw.echovox.MainA.onDestroy()V",
      "targetMethod": "org.apache.http.impl.client.DefaultHttpClient.execute(Lorg/apache/http/client/methods/HttpUriRequest;)Lorg/apache/http/HttpResponse;",
      "eventChain": [
        {
          "start": "com.asdjklqw.echovox.MainA.onDestroy()V",
          "target": "invokevirtual \u003c Application, Lorg/apache/http/impl/client/DefaultHttpClient, execute(Lorg/apache/http/client/methods/HttpUriRequest;)Lorg/apache/http/HttpResponse; \u003e@281",
          "type": "activity",
          "component": "com.asdjklqw.echovox.MainA"
        }
      ]
    },
    "4": {
      "startMethod": "com.asdjklqw.echovox.MainA.onDestroy()V",
      "targetMethod": "org.apache.http.client.HttpClient.execute(Lorg/apache/http/client/methods/HttpUriRequest;)Lorg/apache/http/HttpResponse;",
      "eventChain": [
        {
          "start": "com.asdjklqw.echovox.MainA.onDestroy()V",
          "target": "invokeinterface \u003c Application, Lorg/apache/http/client/HttpClient, execute(Lorg/apache/http/client/methods/HttpUriRequest;)Lorg/apache/http/HttpResponse; \u003e@126",
          "type": "activity",
          "component": "com.asdjklqw.echovox.MainA"
        }
      ]
    },
    "5": {
      "startMethod": "com.jaytronix.echovox.TalkBox.onResume()V",
      "targetMethod": "android.content.ContentResolver.delete(Landroid/net/Uri;Ljava/lang/String;[Ljava/lang/String;)I",
      "eventChain": [
        {
          "start": "com.jaytronix.echovox.TalkBox.onCreate(Landroid/os/Bundle;)V",
          "target": "PC@66",
          "type": "activity",
          "component": "com.jaytronix.echovox.TalkBox",
          "constraintsFile": "constraints5_0.py",
          "variables": {},
          "stringMap": {},
          "strings": {}
        },
        {
          "start": "com.jaytronix.echovox.TalkBox.onResume()V",
          "target": "invokevirtual \u003c Application, Landroid/content/ContentResolver, delete(Landroid/net/Uri;Ljava/lang/String;[Ljava/lang/String;)I \u003e@449",
          "type": "activity",
          "component": "com.jaytronix.echovox.TalkBox",
          "constraintsFile": "constraints5_1.py",
          "variables": {},
          "stringMap": {},
          "strings": {}
        }
      ]
    },
    "6": {
      "startMethod": "com.asdjklqw.echovox.MainA.onResume()V",
      "targetMethod": "org.apache.http.client.HttpClient.execute(Lorg/apache/http/client/methods/HttpUriRequest;)Lorg/apache/http/HttpResponse;",
      "eventChain": [
        {
          "start": "com.asdjklqw.echovox.MainA.onResume()V",
          "target": "invokeinterface \u003c Application, Lorg/apache/http/client/HttpClient, execute(Lorg/apache/http/client/methods/HttpUriRequest;)Lorg/apache/http/HttpResponse; \u003e@126",
          "type": "activity",
          "component": "com.asdjklqw.echovox.MainA"
        }
      ]
    },
    "7": {
      "startMethod": "com.asdjklqw.echovox.MainA.onResume()V",
      "targetMethod": "org.apache.http.impl.client.DefaultHttpClient.execute(Lorg/apache/http/client/methods/HttpUriRequest;)Lorg/apache/http/HttpResponse;",
      "eventChain": [
        {
          "start": "com.asdjklqw.echovox.MainA.onResume()V",
          "target": "invokevirtual \u003c Application, Lorg/apache/http/impl/client/DefaultHttpClient, execute(Lorg/apache/http/client/methods/HttpUriRequest;)Lorg/apache/http/HttpResponse; \u003e@281",
          "type": "activity",
          "component": "com.asdjklqw.echovox.MainA"
        }
      ]
    },
    "8": {
      "startMethod": "com.jaytronix.echovox.TalkBox$1.onClick(Landroid/content/DialogInterface;I)V",
      "targetMethod": "android.content.ContentResolver.delete(Landroid/net/Uri;Ljava/lang/String;[Ljava/lang/String;)I",
      "eventChain": [
        {
          "start": "com.jaytronix.echovox.TalkBox.onCreate(Landroid/os/Bundle;)V",
          "target": "invokevirtual \u003c Application, Landroid/app/AlertDialog$Builder, setPositiveButton(Ljava/lang/CharSequence;Landroid/content/DialogInterface$OnClickListener;)Landroid/app/AlertDialog$Builder; \u003e@44",
          "type": "activity",
          "component": "com.jaytronix.echovox.TalkBox"
        },
        {
          "start": "com.jaytronix.echovox.TalkBox$1.onClick(Landroid/content/DialogInterface;I)V",
          "target": "invokevirtual \u003c Application, Landroid/content/ContentResolver, delete(Landroid/net/Uri;Ljava/lang/String;[Ljava/lang/String;)I \u003e@449",
          "type": "ui",
          "activities": [
            "com.asdjklqw.echovox.MainA"
          ],
          "listener": "com.jaytronix.echovox.TalkBox$1",
          "listenerMethod": "onClick",
          "uiType": "onClick",
          "inDialog": "true",
          "constraintsFile": "constraints8_0.py",
          "variables": {},
          "stringMap": {},
          "strings": {}
        }
      ]
    },
    "9": {
      "startMethod": "com.asdjklqw.echovox.MainA$3.onClick(Landroid/view/View;)V",
      "targetMethod": "org.apache.http.impl.client.DefaultHttpClient.execute(Lorg/apache/http/client/methods/HttpUriRequest;)Lorg/apache/http/HttpResponse;",
      "eventChain": [
        {
          "start": "com.asdjklqw.echovox.MainA.onCreate(Landroid/os/Bundle;)V",
          "target": "invokevirtual \u003c Application, Landroid/widget/Button, setOnClickListener(Landroid/view/View$OnClickListener;)V \u003e@334",
          "type": "activity",
          "component": "com.asdjklqw.echovox.MainA",
          "constraintsFile": "constraints9_0.py",
          "variables": {
            "SharedPreferences\u003ctimes\u003e": "IAAv2",
            "SharedPreferences\u003ctime\u003e": "IAAv3",
            "SharedPreferences\u003cjump\u003e": "IAAv1"
          },
          "stringMap": {},
          "strings": {}
        },
        {
          "start": "com.asdjklqw.echovox.MainA.onCreate(Landroid/os/Bundle;)V",
          "target": "",
          "type": "activity",
          "component": "com.asdjklqw.echovox.MainA"
        },
        {
          "start": "com.asdjklqw.echovox.MainA.onCreate(Landroid/os/Bundle;)V",
          "target": "PC@9",
          "type": "activity",
          "component": "com.asdjklqw.echovox.MainA"
        },
        {
          "start": "com.asdjklqw.echovox.MainA$3.onClick(Landroid/view/View;)V",
          "target": "invokevirtual \u003c Application, Lorg/apache/http/impl/client/DefaultHttpClient, execute(Lorg/apache/http/client/methods/HttpUriRequest;)Lorg/apache/http/HttpResponse; \u003e@281",
          "type": "ui",
          "activities": [
            "com.asdjklqw.echovox.MainA"
          ],
          "listener": "com.asdjklqw.echovox.MainA$3",
          "listenerMethod": "onClick",
          "uiType": "onClick",
          "constraintsFile": "constraints9_1.py",
          "variables": {},
          "stringMap": {
            "7000": "cmwap",
            "7001": ""
          },
          "strings": {
            "IAAv2": "",
            "IAAv5": ""
          }
        }
      ]
    },
    "10": {
      "startMethod": "com.asdjklqw.echovox.MainA$3.onClick(Landroid/view/View;)V",
      "targetMethod": "org.apache.http.client.HttpClient.execute(Lorg/apache/http/client/methods/HttpUriRequest;)Lorg/apache/http/HttpResponse;",
      "eventChain": [
        {
          "start": "com.asdjklqw.echovox.MainA.onCreate(Landroid/os/Bundle;)V",
          "target": "invokevirtual \u003c Application, Landroid/widget/Button, setOnClickListener(Landroid/view/View$OnClickListener;)V \u003e@334",
          "type": "activity",
          "component": "com.asdjklqw.echovox.MainA",
          "constraintsFile": "constraints10_0.py",
          "variables": {
            "SharedPreferences\u003ctimes\u003e": "IAAv2",
            "SharedPreferences\u003ctime\u003e": "IAAv3",
            "SharedPreferences\u003cjump\u003e": "IAAv1"
          },
          "stringMap": {},
          "strings": {}
        },
        {
          "start": "com.asdjklqw.echovox.MainA.onCreate(Landroid/os/Bundle;)V",
          "target": "",
          "type": "activity",
          "component": "com.asdjklqw.echovox.MainA"
        },
        {
          "start": "com.asdjklqw.echovox.MainA$3.onClick(Landroid/view/View;)V",
          "target": "invokeinterface \u003c Application, Lorg/apache/http/client/HttpClient, execute(Lorg/apache/http/client/methods/HttpUriRequest;)Lorg/apache/http/HttpResponse; \u003e@126",
          "type": "ui",
          "activities": [
            "com.asdjklqw.echovox.MainA"
          ],
          "listener": "com.asdjklqw.echovox.MainA$3",
          "listenerMethod": "onClick",
          "uiType": "onClick",
          "constraintsFile": "constraints10_1.py",
          "variables": {},
          "stringMap": {
            "7000": "cmwap",
            "7001": ""
          },
          "strings": {
            "IAAv2": "",
            "IAAv5": ""
          }
        }
      ]
    },
    "11": {
      "startMethod": "com.waps.o.onClick(Landroid/view/View;)V",
      "targetMethod": "org.apache.http.client.HttpClient.execute(Lorg/apache/http/client/methods/HttpUriRequest;)Lorg/apache/http/HttpResponse;",
      "eventChain": [
        {
          "start": "com.asdjklqw.echovox.MainA.onCreate(Landroid/os/Bundle;)V",
          "target": "invokevirtual \u003c Application, Landroid/view/View, setOnClickListener(Landroid/view/View$OnClickListener;)V \u003e@276",
          "type": "activity",
          "component": "com.asdjklqw.echovox.MainA",
          "constraintsFile": "constraints11_0.py",
          "variables": {
            "SharedPreferences\u003ctimes\u003e": "IAAv2",
            "SharedPreferences\u003ctime\u003e": "IAAv3",
            "SharedPreferences\u003cjump\u003e": "IAAv1"
          },
          "stringMap": {},
          "strings": {}
        },
        {
          "start": "com.asdjklqw.echovox.MainA.onCreate(Landroid/os/Bundle;)V",
          "target": "",
          "type": "activity",
          "component": "com.asdjklqw.echovox.MainA"
        },
        {
          "start": "com.waps.o.onClick(Landroid/view/View;)V",
          "target": "invokeinterface \u003c Application, Lorg/apache/http/client/HttpClient, execute(Lorg/apache/http/client/methods/HttpUriRequest;)Lorg/apache/http/HttpResponse; \u003e@126",
          "type": "ui",
          "activities": [
            "com.asdjklqw.echovox.MainA"
          ],
          "listener": "com.waps.o",
          "listenerMethod": "onClick",
          "uiType": "onClick",
          "constraintsFile": "constraints11_1.py",
          "variables": {},
          "stringMap": {},
          "strings": {}
        }
      ]
    },
    "12": {
      "startMethod": "com.asdjklqw.echovox.MainA$4.onClick(Landroid/view/View;)V",
      "targetMethod": "org.apache.http.impl.client.DefaultHttpClient.execute(Lorg/apache/http/client/methods/HttpUriRequest;)Lorg/apache/http/HttpResponse;",
      "eventChain": [
        {
          "start": "com.asdjklqw.echovox.MainA.onCreate(Landroid/os/Bundle;)V",
          "target": "invokevirtual \u003c Application, Landroid/widget/Button, setOnClickListener(Landroid/view/View$OnClickListener;)V \u003e@416",
          "type": "activity",
          "component": "com.asdjklqw.echovox.MainA",
          "constraintsFile": "constraints12_0.py",
          "variables": {
            "SharedPreferences\u003ctimes\u003e": "IAAv2",
            "SharedPreferences\u003ctime\u003e": "IAAv3",
            "SharedPreferences\u003cjump\u003e": "IAAv1"
          },
          "stringMap": {
            "7000": "531fc3e17f5df8100014fb37706548fd"
          },
          "strings": {}
        },
        {
          "start": "com.asdjklqw.echovox.MainA.onCreate(Landroid/os/Bundle;)V",
          "target": "",
          "type": "activity",
          "component": "com.asdjklqw.echovox.MainA"
        },
        {
          "start": "com.asdjklqw.echovox.MainA.onCreate(Landroid/os/Bundle;)V",
          "target": "PC@9",
          "type": "activity",
          "component": "com.asdjklqw.echovox.MainA"
        },
        {
          "start": "com.asdjklqw.echovox.MainA$4.onClick(Landroid/view/View;)V",
          "target": "invokevirtual \u003c Application, Lorg/apache/http/impl/client/DefaultHttpClient, execute(Lorg/apache/http/client/methods/HttpUriRequest;)Lorg/apache/http/HttpResponse; \u003e@281",
          "type": "ui",
          "activities": [
            "com.asdjklqw.echovox.MainA"
          ],
          "listener": "com.asdjklqw.echovox.MainA$4",
          "listenerMethod": "onClick",
          "uiType": "onClick",
          "constraintsFile": "constraints12_1.py",
          "variables": {},
          "stringMap": {
            "7000": "cmwap",
            "7001": ""
          },
          "strings": {
            "IAAv2": "",
            "IAAv5": ""
          }
        }
      ]
    },
    "13": {
      "startMethod": "com.asdjklqw.echovox.MainA$4.onClick(Landroid/view/View;)V",
      "targetMethod": "org.apache.http.client.HttpClient.execute(Lorg/apache/http/client/methods/HttpUriRequest;)Lorg/apache/http/HttpResponse;",
      "eventChain": [
        {
          "start": "com.asdjklqw.echovox.MainA.onCreate(Landroid/os/Bundle;)V",
          "target": "invokevirtual \u003c Application, Landroid/widget/Button, setOnClickListener(Landroid/view/View$OnClickListener;)V \u003e@416",
          "type": "activity",
          "component": "com.asdjklqw.echovox.MainA",
          "constraintsFile": "constraints13_0.py",
          "variables": {
            "SharedPreferences\u003ctimes\u003e": "IAAv2",
            "SharedPreferences\u003ctime\u003e": "IAAv3",
            "SharedPreferences\u003cjump\u003e": "IAAv1"
          },
          "stringMap": {
            "7000": "531fc3e17f5df8100014fb37706548fd"
          },
          "strings": {}
        },
        {
          "start": "com.asdjklqw.echovox.MainA.onCreate(Landroid/os/Bundle;)V",
          "target": "",
          "type": "activity",
          "component": "com.asdjklqw.echovox.MainA"
        },
        {
          "start": "com.asdjklqw.echovox.MainA$4.onClick(Landroid/view/View;)V",
          "target": "invokeinterface \u003c Application, Lorg/apache/http/client/HttpClient, execute(Lorg/apache/http/client/methods/HttpUriRequest;)Lorg/apache/http/HttpResponse; \u003e@126",
          "type": "ui",
          "activities": [
            "com.asdjklqw.echovox.MainA"
          ],
          "listener": "com.asdjklqw.echovox.MainA$4",
          "listenerMethod": "onClick",
          "uiType": "onClick",
          "constraintsFile": "constraints13_1.py",
          "variables": {},
          "stringMap": {
            "7000": "cmwap",
            "7001": ""
          },
          "strings": {
            "IAAv2": "",
            "IAAv5": ""
          }
        }
      ]
    },
    "14": {
      "startMethod": "com.asdjklqw.echovox.MainA$2.onClick(Landroid/view/View;)V",
      "targetMethod": "org.apache.http.client.HttpClient.execute(Lorg/apache/http/client/methods/HttpUriRequest;)Lorg/apache/http/HttpResponse;",
      "eventChain": [
        {
          "start": "com.asdjklqw.echovox.MainA.onCreate(Landroid/os/Bundle;)V",
          "target": "invokevirtual \u003c Application, Landroid/widget/Button, setOnClickListener(Landroid/view/View$OnClickListener;)V \u003e@297",
          "type": "activity",
          "component": "com.asdjklqw.echovox.MainA",
          "constraintsFile": "constraints14_0.py",
          "variables": {
            "SharedPreferences\u003ctimes\u003e": "IAAv2",
            "SharedPreferences\u003ctime\u003e": "IAAv3",
            "SharedPreferences\u003cjump\u003e": "IAAv1"
          },
          "stringMap": {},
          "strings": {}
        },
        {
          "start": "com.asdjklqw.echovox.MainA.onCreate(Landroid/os/Bundle;)V",
          "target": "",
          "type": "activity",
          "component": "com.asdjklqw.echovox.MainA"
        },
        {
          "start": "com.asdjklqw.echovox.MainA$2.onClick(Landroid/view/View;)V",
          "target": "invokeinterface \u003c Application, Lorg/apache/http/client/HttpClient, execute(Lorg/apache/http/client/methods/HttpUriRequest;)Lorg/apache/http/HttpResponse; \u003e@126",
          "type": "ui",
          "activities": [
            "com.asdjklqw.echovox.MainA"
          ],
          "listener": "com.asdjklqw.echovox.MainA$2",
          "listenerMethod": "onClick",
          "uiType": "onClick",
          "constraintsFile": "constraints14_1.py",
          "variables": {},
          "stringMap": {
            "7000": "cmwap",
            "7001": ""
          },
          "strings": {
            "IAAv2": "",
            "IAAv5": ""
          }
        }
      ]
    },
    "15": {
      "startMethod": "com.asdjklqw.echovox.MainA$2.onClick(Landroid/view/View;)V",
      "targetMethod": "org.apache.http.impl.client.DefaultHttpClient.execute(Lorg/apache/http/client/methods/HttpUriRequest;)Lorg/apache/http/HttpResponse;",
      "eventChain": [
        {
          "start": "com.asdjklqw.echovox.MainA.onCreate(Landroid/os/Bundle;)V",
          "target": "invokevirtual \u003c Application, Landroid/widget/Button, setOnClickListener(Landroid/view/View$OnClickListener;)V \u003e@297",
          "type": "activity",
          "component": "com.asdjklqw.echovox.MainA",
          "constraintsFile": "constraints15_0.py",
          "variables": {
            "SharedPreferences\u003ctimes\u003e": "IAAv2",
            "SharedPreferences\u003ctime\u003e": "IAAv3",
            "SharedPreferences\u003cjump\u003e": "IAAv1"
          },
          "stringMap": {},
          "strings": {}
        },
        {
          "start": "com.asdjklqw.echovox.MainA.onCreate(Landroid/os/Bundle;)V",
          "target": "",
          "type": "activity",
          "component": "com.asdjklqw.echovox.MainA"
        },
        {
          "start": "com.asdjklqw.echovox.MainA.onCreate(Landroid/os/Bundle;)V",
          "target": "PC@9",
          "type": "activity",
          "component": "com.asdjklqw.echovox.MainA"
        },
        {
          "start": "com.asdjklqw.echovox.MainA$2.onClick(Landroid/view/View;)V",
          "target": "invokevirtual \u003c Application, Lorg/apache/http/impl/client/DefaultHttpClient, execute(Lorg/apache/http/client/methods/HttpUriRequest;)Lorg/apache/http/HttpResponse; \u003e@281",
          "type": "ui",
          "activities": [
            "com.asdjklqw.echovox.MainA"
          ],
          "listener": "com.asdjklqw.echovox.MainA$2",
          "listenerMethod": "onClick",
          "uiType": "onClick",
          "constraintsFile": "constraints15_1.py",
          "variables": {},
          "stringMap": {
            "7000": "cmwap",
            "7001": ""
          },
          "strings": {
            "IAAv2": "",
            "IAAv5": ""
          }
        }
      ]
    },
    "16": {
      "startMethod": "com.asdjklqw.echovox.MainA$5.onClick(Landroid/view/View;)V",
      "targetMethod": "org.apache.http.client.HttpClient.execute(Lorg/apache/http/client/methods/HttpUriRequest;)Lorg/apache/http/HttpResponse;",
      "eventChain": [
        {
          "start": "com.asdjklqw.echovox.MainA.onCreate(Landroid/os/Bundle;)V",
          "target": "invokevirtual \u003c Application, Landroid/widget/Button, setOnClickListener(Landroid/view/View$OnClickListener;)V \u003e@453",
          "type": "activity",
          "component": "com.asdjklqw.echovox.MainA",
          "constraintsFile": "constraints16_0.py",
          "variables": {
            "SharedPreferences\u003ctimes\u003e": "IAAv2",
            "SharedPreferences\u003ctime\u003e": "IAAv3",
            "SharedPreferences\u003cjump\u003e": "IAAv1"
          },
          "stringMap": {
            "7000": "531fc3e17f5df8100014fb37706548fd"
          },
          "strings": {}
        },
        {
          "start": "com.asdjklqw.echovox.MainA.onCreate(Landroid/os/Bundle;)V",
          "target": "",
          "type": "activity",
          "component": "com.asdjklqw.echovox.MainA"
        },
        {
          "start": "com.asdjklqw.echovox.MainA$5.onClick(Landroid/view/View;)V",
          "target": "invokeinterface \u003c Application, Lorg/apache/http/client/HttpClient, execute(Lorg/apache/http/client/methods/HttpUriRequest;)Lorg/apache/http/HttpResponse; \u003e@126",
          "type": "ui",
          "activities": [
            "com.asdjklqw.echovox.MainA"
          ],
          "listener": "com.asdjklqw.echovox.MainA$5",
          "listenerMethod": "onClick",
          "uiType": "onClick",
          "constraintsFile": "constraints16_1.py",
          "variables": {},
          "stringMap": {
            "7000": "cmwap",
            "7001": ""
          },
          "strings": {
            "IAAv2": "",
            "IAAv5": ""
          }
        }
      ]
    },
    "17": {
      "startMethod": "com.asdjklqw.echovox.MainA$5.onClick(Landroid/view/View;)V",
      "targetMethod": "org.apache.http.impl.client.DefaultHttpClient.execute(Lorg/apache/http/client/methods/HttpUriRequest;)Lorg/apache/http/HttpResponse;",
      "eventChain": [
        {
          "start": "com.asdjklqw.echovox.MainA.onCreate(Landroid/os/Bundle;)V",
          "target": "invokevirtual \u003c Application, Landroid/widget/Button, setOnClickListener(Landroid/view/View$OnClickListener;)V \u003e@453",
          "type": "activity",
          "component": "com.asdjklqw.echovox.MainA",
          "constraintsFile": "constraints17_0.py",
          "variables": {
            "SharedPreferences\u003ctimes\u003e": "IAAv2",
            "SharedPreferences\u003ctime\u003e": "IAAv3",
            "SharedPreferences\u003cjump\u003e": "IAAv1"
          },
          "stringMap": {
            "7000": "531fc3e17f5df8100014fb37706548fd"
          },
          "strings": {}
        },
        {
          "start": "com.asdjklqw.echovox.MainA.onCreate(Landroid/os/Bundle;)V",
          "target": "",
          "type": "activity",
          "component": "com.asdjklqw.echovox.MainA"
        },
        {
          "start": "com.asdjklqw.echovox.MainA.onCreate(Landroid/os/Bundle;)V",
          "target": "PC@9",
          "type": "activity",
          "component": "com.asdjklqw.echovox.MainA"
        },
        {
          "start": "com.asdjklqw.echovox.MainA$5.onClick(Landroid/view/View;)V",
          "target": "invokevirtual \u003c Application, Lorg/apache/http/impl/client/DefaultHttpClient, execute(Lorg/apache/http/client/methods/HttpUriRequest;)Lorg/apache/http/HttpResponse; \u003e@281",
          "type": "ui",
          "activities": [
            "com.asdjklqw.echovox.MainA"
          ],
          "listener": "com.asdjklqw.echovox.MainA$5",
          "listenerMethod": "onClick",
          "uiType": "onClick",
          "constraintsFile": "constraints17_1.py",
          "variables": {},
          "stringMap": {
            "7000": "cmwap",
            "7001": ""
          },
          "strings": {
            "IAAv2": "",
            "IAAv5": ""
          }
        }
      ]
    },
    "18": {
      "startMethod": "com.waps.m.onReceive(Landroid/content/Context;Landroid/content/Intent;)V",
      "targetMethod": "org.apache.http.client.HttpClient.execute(Lorg/apache/http/client/methods/HttpUriRequest;)Lorg/apache/http/HttpResponse;",
      "eventChain": [
        {
          "start": "com.waps.q.onDownloadStart(Ljava/lang/String;Ljava/lang/String;Ljava/lang/String;Ljava/lang/String;J)V",
          "target": "invokevirtual \u003c Application, Landroid/content/Context, registerReceiver(Landroid/content/BroadcastReceiver;Landroid/content/IntentFilter;)Landroid/content/Intent; \u003e@37",
          "type": "",
          "constraintsFile": "constraints18_0.py",
          "variables": {},
          "stringMap": {},
          "strings": {}
        },
        {
          "start": "com.asdjklqw.echovox.MainA.onCreate(Landroid/os/Bundle;)V",
          "target": "",
          "type": "activity",
          "component": "com.asdjklqw.echovox.MainA"
        },
        {
          "start": "com.waps.m.onReceive(Landroid/content/Context;Landroid/content/Intent;)V",
          "target": "invokeinterface \u003c Application, Lorg/apache/http/client/HttpClient, execute(Lorg/apache/http/client/methods/HttpUriRequest;)Lorg/apache/http/HttpResponse; \u003e@126",
          "type": "sms",
          "constraintsFile": "constraints18_1.py",
          "variables": {
            "\u003cChainedInput2\u003e.getDataString()": "IAAv2",
            "\u003cChainedInput2\u003e.getAction()": "IAAv0"
          },
          "stringMap": {
            "7000": "android.intent.action.PACKAGE_ADDED"
          },
          "strings": {
            "IAAv2": "",
            "IAAv0": ""
          }
        }
      ]
    },
    "19": {
      "startMethod": "com.waps.q.onDownloadStart(Ljava/lang/String;Ljava/lang/String;Ljava/lang/String;Ljava/lang/String;J)V",
      "targetMethod": "org.apache.http.impl.client.DefaultHttpClient.execute(Lorg/apache/http/client/methods/HttpUriRequest;)Lorg/apache/http/HttpResponse;",
      "eventChain": [
        {
          "start": "com.waps.OffersWebView.onCreate(Landroid/os/Bundle;)V",
          "target": "invokevirtual \u003c Application, Landroid/webkit/WebView, setDownloadListener(Landroid/webkit/DownloadListener;)V \u003e@404",
          "type": "activity",
          "component": "com.waps.OffersWebView",
          "constraintsFile": "constraints19_0.py",
          "variables": {},
          "stringMap": {
            "7000": "true"
          },
          "strings": {}
        },
        {
          "start": "com.waps.q.onDownloadStart(Ljava/lang/String;Ljava/lang/String;Ljava/lang/String;Ljava/lang/String;J)V",
          "target": "invokevirtual \u003c Application, Lorg/apache/http/impl/client/DefaultHttpClient, execute(Lorg/apache/http/client/methods/HttpUriRequest;)Lorg/apache/http/HttpResponse; \u003e@103",
          "type": ""
        }
      ]
    },
    "20": {
      "startMethod": "com.waps.q.onDownloadStart(Ljava/lang/String;Ljava/lang/String;Ljava/lang/String;Ljava/lang/String;J)V",
      "targetMethod": "java.net.URL.openConnection()Ljava/net/URLConnection;",
      "eventChain": [
        {
          "start": "com.waps.OffersWebView.onCreate(Landroid/os/Bundle;)V",
          "target": "invokevirtual \u003c Application, Landroid/webkit/WebView, setDownloadListener(Landroid/webkit/DownloadListener;)V \u003e@404",
          "type": "activity",
          "component": "com.waps.OffersWebView",
          "constraintsFile": "constraints20_0.py",
          "variables": {},
          "stringMap": {
            "7000": "true"
          },
          "strings": {}
        },
        {
          "start": "com.waps.q.onDownloadStart(Ljava/lang/String;Ljava/lang/String;Ljava/lang/String;Ljava/lang/String;J)V",
          "target": "invokevirtual \u003c Application, Ljava/net/URL, openConnection()Ljava/net/URLConnection; \u003e@11",
          "type": ""
        }
      ]
    },
    "21": {
      "startMethod": "com.asdjklqw.echovox.MainA$8.onClick(Landroid/content/DialogInterface;I)V",
      "targetMethod": "org.apache.http.client.HttpClient.execute(Lorg/apache/http/client/methods/HttpUriRequest;)Lorg/apache/http/HttpResponse;",
      "eventChain": [
        {
          "start": "com.asdjklqw.echovox.MainA$5.onClick(Landroid/view/View;)V",
          "target": "invokevirtual \u003c Application, Landroid/app/AlertDialog$Builder, setNegativeButton(Ljava/lang/CharSequence;Landroid/content/DialogInterface$OnClickListener;)Landroid/app/AlertDialog$Builder; \u003e@73",
          "type": "ui",
          "activities": [
            "com.asdjklqw.echovox.MainA"
          ],
          "listener": "com.asdjklqw.echovox.MainA$5",
          "listenerMethod": "onClick",
          "uiType": "onClick"
        },
        {
          "start": "com.asdjklqw.echovox.MainA.onCreate(Landroid/os/Bundle;)V",
          "target": "",
          "type": "activity",
          "component": "com.asdjklqw.echovox.MainA"
        },
        {
          "start": "com.asdjklqw.echovox.MainA$8.onClick(Landroid/content/DialogInterface;I)V",
          "target": "invokeinterface \u003c Application, Lorg/apache/http/client/HttpClient, execute(Lorg/apache/http/client/methods/HttpUriRequest;)Lorg/apache/http/HttpResponse; \u003e@126",
          "type": "ui",
          "activities": [
            "com.asdjklqw.echovox.MainA"
          ],
          "listener": "com.asdjklqw.echovox.MainA$8",
          "listenerMethod": "onClick",
          "uiType": "onClick",
          "inDialog": "true",
          "constraintsFile": "constraints21_0.py",
          "variables": {},
          "stringMap": {
            "7000": "cmwap",
            "7001": ""
          },
          "strings": {
            "IAAv2": "",
            "IAAv5": ""
          }
        }
      ]
    },
    "22": {
      "startMethod": "com.asdjklqw.echovox.MainA$8.onClick(Landroid/content/DialogInterface;I)V",
      "targetMethod": "org.apache.http.impl.client.DefaultHttpClient.execute(Lorg/apache/http/client/methods/HttpUriRequest;)Lorg/apache/http/HttpResponse;",
      "eventChain": [
        {
          "start": "com.asdjklqw.echovox.MainA$5.onClick(Landroid/view/View;)V",
          "target": "invokevirtual \u003c Application, Landroid/app/AlertDialog$Builder, setNegativeButton(Ljava/lang/CharSequence;Landroid/content/DialogInterface$OnClickListener;)Landroid/app/AlertDialog$Builder; \u003e@73",
          "type": "ui",
          "activities": [
            "com.asdjklqw.echovox.MainA"
          ],
          "listener": "com.asdjklqw.echovox.MainA$5",
          "listenerMethod": "onClick",
          "uiType": "onClick"
        },
        {
          "start": "com.asdjklqw.echovox.MainA.onCreate(Landroid/os/Bundle;)V",
          "target": "",
          "type": "activity",
          "component": "com.asdjklqw.echovox.MainA"
        },
        {
          "start": "com.asdjklqw.echovox.MainA.onCreate(Landroid/os/Bundle;)V",
          "target": "PC@9",
          "type": "activity",
          "component": "com.asdjklqw.echovox.MainA"
        },
        {
          "start": "com.asdjklqw.echovox.MainA$8.onClick(Landroid/content/DialogInterface;I)V",
          "target": "invokevirtual \u003c Application, Lorg/apache/http/impl/client/DefaultHttpClient, execute(Lorg/apache/http/client/methods/HttpUriRequest;)Lorg/apache/http/HttpResponse; \u003e@281",
          "type": "ui",
          "activities": [
            "com.asdjklqw.echovox.MainA"
          ],
          "listener": "com.asdjklqw.echovox.MainA$8",
          "listenerMethod": "onClick",
          "uiType": "onClick",
          "inDialog": "true",
          "constraintsFile": "constraints22_0.py",
          "variables": {},
          "stringMap": {
            "7000": "cmwap",
            "7001": ""
          },
          "strings": {
            "IAAv2": "",
            "IAAv5": ""
          }
        }
      ]
    }
  }
}