{
  "packageName": "com.llc.segbaypro",
  "mainActivity": "com.llc.segbaypro.SplashScreen",
  "callPaths": {
    "0": {
      "startMethod": "com.llc.segbaypro.Setfrequency.onCreate(Landroid/os/Bundle;)V",
      "targetMethod": "org.apache.http.client.HttpClient.execute(Lorg/apache/http/client/methods/HttpUriRequest;)Lorg/apache/http/HttpResponse;",
      "eventChain": [
        {
          "start": "com.llc.segbaypro.Setfrequency.onCreate(Landroid/os/Bundle;)V",
          "target": "invokeinterface \u003c Application, Lorg/apache/http/client/HttpClient, execute(Lorg/apache/http/client/methods/HttpUriRequest;)Lorg/apache/http/HttpResponse; \u003e@11",
          "type": "activity",
          "component": "com.llc.segbaypro.Setfrequency",
          "constraintsFile": "constraints0_0.py",
          "variables": {},
          "stringMap": {
            "7000": "",
            "7001": "false"
          },
          "strings": {
            "IAAv2": "",
            "IAAv0": ""
          }
        }
      ]
    },
    "1": {
      "startMethod": "com.llc.segbaypro.PriceList.onCreate(Landroid/os/Bundle;)V",
      "targetMethod": "org.apache.http.client.HttpClient.execute(Lorg/apache/http/client/methods/HttpUriRequest;)Lorg/apache/http/HttpResponse;",
      "eventChain": [
        {
          "start": "com.llc.segbaypro.PriceList.onCreate(Landroid/os/Bundle;)V",
          "target": "invokeinterface \u003c Application, Lorg/apache/http/client/HttpClient, execute(Lorg/apache/http/client/methods/HttpUriRequest;)Lorg/apache/http/HttpResponse; \u003e@11",
          "type": "activity",
          "component": "com.llc.segbaypro.PriceList",
          "constraintsFile": "constraints1_0.py",
          "variables": {
            "\u003cUI\u003e.setOnClickListener().SDK_INT": "IAAv0"
          },
          "stringMap": {},
          "strings": {}
        }
      ]
    },
    "2": {
      "startMethod": "com.llc.segbaypro.SplashScreen.onCreate(Landroid/os/Bundle;)V",
      "targetMethod": "org.apache.http.client.HttpClient.execute(Lorg/apache/http/client/methods/HttpUriRequest;)Lorg/apache/http/HttpResponse;",
      "eventChain": [
        {
          "start": "com.llc.segbaypro.SplashScreen.onCreate(Landroid/os/Bundle;)V",
          "target": "invokeinterface \u003c Application, Lorg/apache/http/client/HttpClient, execute(Lorg/apache/http/client/methods/HttpUriRequest;)Lorg/apache/http/HttpResponse; \u003e@11",
          "type": "activity",
          "component": "com.llc.segbaypro.SplashScreen"
        }
      ]
    },
    "3": {
      "startMethod": "com.llc.segbaypro.Setting.onCreate(Landroid/os/Bundle;)V",
      "targetMethod": "org.apache.http.client.HttpClient.execute(Lorg/apache/http/client/methods/HttpUriRequest;)Lorg/apache/http/HttpResponse;",
      "eventChain": [
        {
          "start": "com.llc.segbaypro.Setting.onCreate(Landroid/os/Bundle;)V",
          "target": "invokeinterface \u003c Application, Lorg/apache/http/client/HttpClient, execute(Lorg/apache/http/client/methods/HttpUriRequest;)Lorg/apache/http/HttpResponse; \u003e@11",
          "type": "activity",
          "component": "com.llc.segbaypro.Setting",
          "constraintsFile": "constraints3_0.py",
          "variables": {
            "\u003cUI\u003e.setOnClickListener().SDK_INT": "IAAv0"
          },
          "stringMap": {},
          "strings": {}
        }
      ]
    },
    "4": {
      "startMethod": "com.llc.segbaypro.FolderList.onCreate(Landroid/os/Bundle;)V",
      "targetMethod": "org.apache.http.client.HttpClient.execute(Lorg/apache/http/client/methods/HttpUriRequest;)Lorg/apache/http/HttpResponse;",
      "eventChain": [
        {
          "start": "com.llc.segbaypro.FolderList.onCreate(Landroid/os/Bundle;)V",
          "target": "invokeinterface \u003c Application, Lorg/apache/http/client/HttpClient, execute(Lorg/apache/http/client/methods/HttpUriRequest;)Lorg/apache/http/HttpResponse; \u003e@11",
          "type": "activity",
          "component": "com.llc.segbaypro.FolderList",
          "constraintsFile": "constraints4_0.py",
          "variables": {
            "\u003cUI\u003e.setOnClickListener().SDK_INT": "IAAv0"
          },
          "stringMap": {},
          "strings": {}
        }
      ]
    },
    "5": {
      "startMethod": "com.llc.segbaypro.RefineSearchList.onCreate(Landroid/os/Bundle;)V",
      "targetMethod": "org.apache.http.client.HttpClient.execute(Lorg/apache/http/client/methods/HttpUriRequest;)Lorg/apache/http/HttpResponse;",
      "eventChain": [
        {
          "start": "com.llc.segbaypro.RefineSearchList.onCreate(Landroid/os/Bundle;)V",
          "target": "invokeinterface \u003c Application, Lorg/apache/http/client/HttpClient, execute(Lorg/apache/http/client/methods/HttpUriRequest;)Lorg/apache/http/HttpResponse; \u003e@11",
          "type": "activity",
          "component": "com.llc.segbaypro.RefineSearchList",
          "constraintsFile": "constraints5_0.py",
          "variables": {
            "\u003cUI\u003e.setOnClickListener().SDK_INT": "IAAv2"
          },
          "stringMap": {
            "7000": "Category"
          },
          "strings": {
            "IAAv0": ""
          }
        }
      ]
    },
    "6": {
      "startMethod": "com.llc.segbaypro.HelpMenu.onCreate(Landroid/os/Bundle;)V",
      "targetMethod": "org.apache.http.client.HttpClient.execute(Lorg/apache/http/client/methods/HttpUriRequest;)Lorg/apache/http/HttpResponse;",
      "eventChain": [
        {
          "start": "com.llc.segbaypro.HelpMenu.onCreate(Landroid/os/Bundle;)V",
          "target": "invokeinterface \u003c Application, Lorg/apache/http/client/HttpClient, execute(Lorg/apache/http/client/methods/HttpUriRequest;)Lorg/apache/http/HttpResponse; \u003e@11",
          "type": "activity",
          "component": "com.llc.segbaypro.HelpMenu",
          "constraintsFile": "constraints6_0.py",
          "variables": {},
          "stringMap": {},
          "strings": {}
        }
      ]
    },
    "7": {
      "startMethod": "com.llc.segbaypro.PullToRefreshListFragmentActivity.onCreate(Landroid/os/Bundle;)V",
      "targetMethod": "org.apache.http.client.HttpClient.execute(Lorg/apache/http/client/methods/HttpUriRequest;)Lorg/apache/http/HttpResponse;",
      "eventChain": [
        {
          "start": "com.llc.segbaypro.PullToRefreshListFragmentActivity.\u003cinit\u003e()V",
          "target": "PC@53",
          "type": "",
          "constraintsFile": "constraints7_0.py",
          "variables": {},
          "stringMap": {
            "7000": "True",
            "7001": "1",
            "7002": "2",
            "7003": "NewlyListed",
            "7004": ""
          },
          "strings": {
            "IAAv3": "",
            "IAAv11": "",
            "IAAv7": ""
          }
        },
        {
          "start": "com.llc.segbaypro.PullToRefreshListFragmentActivity.\u003cinit\u003e()V",
          "target": "PC@37",
          "type": "",
          "constraintsFile": "constraints7_1.py",
          "variables": {},
          "stringMap": {
            "7000": "True",
            "7001": "",
            "7002": "1",
            "7003": "2",
            "7004": "BUY NOW",
            "7005": "AUCTION",
            "7006": "NewlyListed"
          },
          "strings": {
            "IAAv3": "",
            "IAAv14": "",
            "IAAv8": ""
          }
        },
        {
          "start": "com.llc.segbaypro.PullToRefreshListFragmentActivity.onCreate(Landroid/os/Bundle;)V",
          "target": "invokeinterface \u003c Application, Lorg/apache/http/client/HttpClient, execute(Lorg/apache/http/client/methods/HttpUriRequest;)Lorg/apache/http/HttpResponse; \u003e@11",
          "type": "activity",
          "component": "com.llc.segbaypro.PullToRefreshListFragmentActivity",
          "constraintsFile": "constraints7_2.py",
          "variables": {},
          "stringMap": {
            "7000": "True",
            "7001": "",
            "7002": "1",
            "7003": "2",
            "7004": "BUY NOW",
            "7005": "AUCTION",
            "7006": "NewlyListed"
          },
          "strings": {
            "IAAv3": "",
            "IAAv14": "",
            "IAAv8": ""
          }
        }
      ]
    },
    "8": {
      "startMethod": "com.llc.segbaypro.Buy_Membership.onCreate(Landroid/os/Bundle;)V",
      "targetMethod": "org.apache.http.client.HttpClient.execute(Lorg/apache/http/client/methods/HttpUriRequest;)Lorg/apache/http/HttpResponse;",
      "eventChain": [
        {
          "start": "com.llc.segbaypro.Buy_Membership.\u003cinit\u003e()V",
          "target": "PC@42",
          "type": "",
          "constraintsFile": "constraints8_0.py",
          "variables": {
            "\u003cUI\u003e.setOnClickListener().SDK_INT": "IAAv3"
          },
          "stringMap": {
            "7000": "Pro Level 1",
            "7001": "Test",
            "7002": ""
          },
          "strings": {}
        },
        {
          "start": "com.llc.segbaypro.Buy_Membership.onCreate(Landroid/os/Bundle;)V",
          "target": "invokeinterface \u003c Application, Lorg/apache/http/client/HttpClient, execute(Lorg/apache/http/client/methods/HttpUriRequest;)Lorg/apache/http/HttpResponse; \u003e@11",
          "type": "activity",
          "component": "com.llc.segbaypro.Buy_Membership",
          "constraintsFile": "constraints8_1.py",
          "variables": {
            "\u003cUI\u003e.setOnClickListener().SDK_INT": "IAAv3"
          },
          "stringMap": {
            "7000": "Pro Level 1",
            "7001": "Test"
          },
          "strings": {}
        }
      ]
    },
    "9": {
      "startMethod": "com.llc.segbaypro.SearchControl.onCreate(Landroid/os/Bundle;)V",
      "targetMethod": "org.apache.http.client.HttpClient.execute(Lorg/apache/http/client/methods/HttpUriRequest;)Lorg/apache/http/HttpResponse;",
      "eventChain": [
        {
          "start": "com.llc.segbaypro.SearchControl.onCreate(Landroid/os/Bundle;)V",
          "target": "invokeinterface \u003c Application, Lorg/apache/http/client/HttpClient, execute(Lorg/apache/http/client/methods/HttpUriRequest;)Lorg/apache/http/HttpResponse; \u003e@11",
          "type": "activity",
          "component": "com.llc.segbaypro.SearchControl",
          "constraintsFile": "constraints9_0.py",
          "variables": {
            "\u003cUI\u003e.setTextColor().SDK_INT": "IAAv0"
          },
          "stringMap": {
            "7000": "BuyNow",
            "7001": "Auction",
            "7002": "Seller"
          },
          "strings": {
            "IAAv1": ""
          }
        }
      ]
    },
    "10": {
      "startMethod": "com.llc.segbaypro.BuyNowSearchFragmentActivity.onCreate(Landroid/os/Bundle;)V",
      "targetMethod": "org.apache.http.client.HttpClient.execute(Lorg/apache/http/client/methods/HttpUriRequest;)Lorg/apache/http/HttpResponse;",
      "eventChain": [
        {
          "start": "com.llc.segbaypro.BuyNowSearchFragmentActivity.onCreate(Landroid/os/Bundle;)V",
          "target": "invokeinterface \u003c Application, Lorg/apache/http/client/HttpClient, execute(Lorg/apache/http/client/methods/HttpUriRequest;)Lorg/apache/http/HttpResponse; \u003e@11",
          "type": "activity",
          "component": "com.llc.segbaypro.BuyNowSearchFragmentActivity",
          "constraintsFile": "constraints10_0.py",
          "variables": {},
          "stringMap": {
            "7000": "True",
            "7001": "1",
            "7002": "2",
            "7003": "AutoBuy",
            "7004": "False",
            "7005": "Auction",
            "7006": "Seller"
          },
          "strings": {
            "IAAv4": "",
            "IAAv1": "",
            "IAAv7": ""
          }
        }
      ]
    },
    "11": {
      "startMethod": "com.llc.segbaypro.PullToRefresh2.onCreate(Landroid/os/Bundle;)V",
      "targetMethod": "org.apache.http.client.HttpClient.execute(Lorg/apache/http/client/methods/HttpUriRequest;)Lorg/apache/http/HttpResponse;",
      "eventChain": [
        {
          "start": "com.llc.segbaypro.PullToRefresh2.onCreate(Landroid/os/Bundle;)V",
          "target": "invokeinterface \u003c Application, Lorg/apache/http/client/HttpClient, execute(Lorg/apache/http/client/methods/HttpUriRequest;)Lorg/apache/http/HttpResponse; \u003e@11",
          "type": "activity",
          "component": "com.llc.segbaypro.PullToRefresh2",
          "constraintsFile": "constraints11_0.py",
          "variables": {
            "\u003cUI\u003e.setOnClickListener().SDK_INT": "IAAv0"
          },
          "stringMap": {
            "7000": "WatchList"
          },
          "strings": {
            "IAAv1": ""
          }
        }
      ]
    },
    "12": {
      "startMethod": "com.llc.segbaypro.MainActivity.onCreate(Landroid/os/Bundle;)V",
      "targetMethod": "org.apache.http.client.HttpClient.execute(Lorg/apache/http/client/methods/HttpUriRequest;)Lorg/apache/http/HttpResponse;",
      "eventChain": [
        {
          "start": "com.llc.segbaypro.MainActivity.onCreate(Landroid/os/Bundle;)V",
          "target": "invokeinterface \u003c Application, Lorg/apache/http/client/HttpClient, execute(Lorg/apache/http/client/methods/HttpUriRequest;)Lorg/apache/http/HttpResponse; \u003e@11",
          "type": "activity",
          "component": "com.llc.segbaypro.MainActivity",
          "constraintsFile": "constraints12_0.py",
          "variables": {},
          "stringMap": {},
          "strings": {}
        }
      ]
    },
    "13": {
      "startMethod": "com.llc.segbaypro.SearchControl$1$1.onClick(Landroid/content/DialogInterface;I)V",
      "targetMethod": "org.apache.http.client.HttpClient.execute(Lorg/apache/http/client/methods/HttpUriRequest;)Lorg/apache/http/HttpResponse;",
      "eventChain": [
        {
          "start": "com.llc.segbaypro.SearchControl$1.onClick(Landroid/view/View;)V",
          "target": "invokevirtual \u003c Application, Landroid/app/AlertDialog$Builder, setPositiveButton(Ljava/lang/CharSequence;Landroid/content/DialogInterface$OnClickListener;)Landroid/app/AlertDialog$Builder; \u003e@89",
          "type": "ui",
          "activities": [
            "com.llc.segbaypro.SearchControl"
          ],
          "listener": "com.llc.segbaypro.SearchControl$1",
          "listenerMethod": "onClick",
          "uiType": "onClick",
          "constraintsFile": "constraints13_0.py",
          "variables": {},
          "stringMap": {
            "7000": "0"
          },
          "strings": {
            "IAAv0": ""
          }
        },
        {
          "start": "com.llc.segbaypro.SearchControl$1$1.onClick(Landroid/content/DialogInterface;I)V",
          "target": "invokeinterface \u003c Application, Lorg/apache/http/client/HttpClient, execute(Lorg/apache/http/client/methods/HttpUriRequest;)Lorg/apache/http/HttpResponse; \u003e@11",
          "type": "ui",
          "activities": [
            "com.llc.segbaypro.SplashScreen"
          ],
          "listener": "com.llc.segbaypro.SearchControl$1$1",
          "listenerMethod": "onClick",
          "uiType": "onClick",
          "inDialog": "true"
        }
      ]
    },
    "14": {
      "startMethod": "com.llc.segbaypro.ProductDetailActivity$9$1.onClick(Landroid/content/DialogInterface;I)V",
      "targetMethod": "org.apache.http.client.HttpClient.execute(Lorg/apache/http/client/methods/HttpUriRequest;)Lorg/apache/http/HttpResponse;",
      "eventChain": [
        {
          "start": "com.llc.segbaypro.ProductDetailActivity$9.onClick(Landroid/view/View;)V",
          "target": "invokevirtual \u003c Application, Landroid/app/AlertDialog$Builder, setPositiveButton(Ljava/lang/CharSequence;Landroid/content/DialogInterface$OnClickListener;)Landroid/app/AlertDialog$Builder; \u003e@132",
          "type": "ui",
          "activities": [
            "com.llc.segbaypro.ProductDetailActivity"
          ],
          "listener": "com.llc.segbaypro.ProductDetailActivity$9",
          "listenerMethod": "onClick",
          "uiType": "onClick",
          "constraintsFile": "constraints14_0.py",
          "variables": {},
          "stringMap": {
            "7000": "WonItems",
            "7001": "true"
          },
          "strings": {
            "IAAv2": "",
            "IAAv0": ""
          }
        },
        {
          "start": "com.llc.segbaypro.ProductDetailActivity$9$1.onClick(Landroid/content/DialogInterface;I)V",
          "target": "invokeinterface \u003c Application, Lorg/apache/http/client/HttpClient, execute(Lorg/apache/http/client/methods/HttpUriRequest;)Lorg/apache/http/HttpResponse; \u003e@11",
          "type": "ui",
          "activities": [
            "com.llc.segbaypro.SplashScreen"
          ],
          "listener": "com.llc.segbaypro.ProductDetailActivity$9$1",
          "listenerMethod": "onClick",
          "uiType": "onClick",
          "inDialog": "true"
        }
      ]
    },
    "15": {
      "startMethod": "com.llc.segbaypro.BidNowSnipe$5.onClick(Landroid/view/View;)V",
      "targetMethod": "org.apache.http.client.HttpClient.execute(Lorg/apache/http/client/methods/HttpUriRequest;)Lorg/apache/http/HttpResponse;",
      "eventChain": [
        {
          "start": "com.llc.segbaypro.BidNowSnipe.onCreate(Landroid/os/Bundle;)V",
          "target": "invokevirtual \u003c Application, Landroid/widget/Button, setOnClickListener(Landroid/view/View$OnClickListener;)V \u003e@770",
          "type": "activity",
          "component": "com.llc.segbaypro.BidNowSnipe"
        },
        {
          "start": "com.llc.segbaypro.BidNowSnipe$5.onClick(Landroid/view/View;)V",
          "target": "invokeinterface \u003c Application, Lorg/apache/http/client/HttpClient, execute(Lorg/apache/http/client/methods/HttpUriRequest;)Lorg/apache/http/HttpResponse; \u003e@11",
          "type": "ui",
          "activities": [
            "com.llc.segbaypro.BidNowSnipe"
          ],
          "listener": "com.llc.segbaypro.BidNowSnipe$5",
          "listenerMethod": "onClick",
          "uiType": "onClick"
        }
      ]
    },
    "16": {
      "startMethod": "com.llc.segbaypro.Setting$7.onClick(Landroid/view/View;)V",
      "targetMethod": "org.apache.http.client.HttpClient.execute(Lorg/apache/http/client/methods/HttpUriRequest;)Lorg/apache/http/HttpResponse;",
      "eventChain": [
        {
          "start": "com.llc.segbaypro.Setting.onCreate(Landroid/os/Bundle;)V",
          "target": "invokevirtual \u003c Application, Landroid/widget/Button, setOnClickListener(Landroid/view/View$OnClickListener;)V \u003e@767",
          "type": "activity",
          "component": "com.llc.segbaypro.Setting"
        },
        {
          "start": "com.llc.segbaypro.Setting$7.onClick(Landroid/view/View;)V",
          "target": "invokeinterface \u003c Application, Lorg/apache/http/client/HttpClient, execute(Lorg/apache/http/client/methods/HttpUriRequest;)Lorg/apache/http/HttpResponse; \u003e@11",
          "type": "ui",
          "activities": [
            "com.llc.segbaypro.Setting"
          ],
          "listener": "com.llc.segbaypro.Setting$7",
          "listenerMethod": "onClick",
          "uiType": "onClick",
          "constraintsFile": "constraints16_0.py",
          "variables": {},
          "stringMap": {},
          "strings": {}
        }
      ]
    },
    "17": {
      "startMethod": "com.llc.segbaypro.NewSearch$3.onClick(Landroid/view/View;)V",
      "targetMethod": "org.apache.http.client.HttpClient.execute(Lorg/apache/http/client/methods/HttpUriRequest;)Lorg/apache/http/HttpResponse;",
      "eventChain": [
        {
          "start": "com.llc.segbaypro.NewSearch.onCreate(Landroid/os/Bundle;)V",
          "target": "invokevirtual \u003c Application, Landroid/widget/Button, setOnClickListener(Landroid/view/View$OnClickListener;)V \u003e@360",
          "type": "activity",
          "component": "com.llc.segbaypro.NewSearch"
        },
        {
          "start": "com.llc.segbaypro.NewSearch$3.onClick(Landroid/view/View;)V",
          "target": "invokeinterface \u003c Application, Lorg/apache/http/client/HttpClient, execute(Lorg/apache/http/client/methods/HttpUriRequest;)Lorg/apache/http/HttpResponse; \u003e@11",
          "type": "ui",
          "activities": [
            "com.llc.segbaypro.NewSearch"
          ],
          "listener": "com.llc.segbaypro.NewSearch$3",
          "listenerMethod": "onClick",
          "uiType": "onClick",
          "constraintsFile": "constraints17_0.py",
          "variables": {},
          "stringMap": {},
          "strings": {}
        }
      ]
    },
    "18": {
      "startMethod": "com.llc.segbaypro.ProductDetailActivity$15.onClick(Landroid/view/View;)V",
      "targetMethod": "org.apache.http.client.HttpClient.execute(Lorg/apache/http/client/methods/HttpUriRequest;)Lorg/apache/http/HttpResponse;",
      "eventChain": [
        {
          "start": "com.llc.segbaypro.ProductDetailActivity.onCreate(Landroid/os/Bundle;)V",
          "target": "invokevirtual \u003c Application, Landroid/widget/Button, setOnClickListener(Landroid/view/View$OnClickListener;)V \u003e@3035",
          "type": "activity",
          "component": "com.llc.segbaypro.ProductDetailActivity",
          "constraintsFile": "constraints18_0.py",
          "variables": {},
          "stringMap": {
            "7000": "False",
            "7001": "BidBayItems",
            "7002": "Autobuy",
            "7003": "True",
            "7004": "1",
            "7005": "2"
          },
          "strings": {
            "IAAv8": "",
            "IAAv5": ""
          }
        },
        {
          "start": "com.llc.segbaypro.ProductDetailActivity$15.onClick(Landroid/view/View;)V",
          "target": "invokeinterface \u003c Application, Lorg/apache/http/client/HttpClient, execute(Lorg/apache/http/client/methods/HttpUriRequest;)Lorg/apache/http/HttpResponse; \u003e@11",
          "type": "ui",
          "activities": [
            "com.llc.segbaypro.ProductDetailActivity"
          ],
          "listener": "com.llc.segbaypro.ProductDetailActivity$15",
          "listenerMethod": "onClick",
          "uiType": "onClick"
        }
      ]
    },
    "19": {
      "startMethod": "com.llc.segbaypro.RefineSearch$16.onClick(Landroid/view/View;)V",
      "targetMethod": "org.apache.http.client.HttpClient.execute(Lorg/apache/http/client/methods/HttpUriRequest;)Lorg/apache/http/HttpResponse;",
      "eventChain": [
        {
          "start": "com.llc.segbaypro.RefineSearch.onCreate(Landroid/os/Bundle;)V",
          "target": "invokevirtual \u003c Application, Landroid/widget/Button, setOnClickListener(Landroid/view/View$OnClickListener;)V \u003e@2126",
          "type": "activity",
          "component": "com.llc.segbaypro.RefineSearch",
          "constraintsFile": "constraints19_0.py",
          "variables": {},
          "stringMap": {
            "7000": "",
            "7001": "Auction",
            "7002": "Seller",
            "7003": "true"
          },
          "strings": {
            "IAAv4": "",
            "IAAv1": "",
            "IAAv12": "",
            "IAAv14": "",
            "IAAv16": "",
            "IAAv9": "",
            "IAAv18": ""
          }
        },
        {
          "start": "com.llc.segbaypro.RefineSearch$16.onClick(Landroid/view/View;)V",
          "target": "invokeinterface \u003c Application, Lorg/apache/http/client/HttpClient, execute(Lorg/apache/http/client/methods/HttpUriRequest;)Lorg/apache/http/HttpResponse; \u003e@11",
          "type": "ui",
          "activities": [
            "com.llc.segbaypro.RefineSearch"
          ],
          "listener": "com.llc.segbaypro.RefineSearch$16",
          "listenerMethod": "onClick",
          "uiType": "onClick"
        }
      ]
    },
    "20": {
      "startMethod": "com.llc.segbaypro.SearchControl$5.onClick(Landroid/view/View;)V",
      "targetMethod": "org.apache.http.client.HttpClient.execute(Lorg/apache/http/client/methods/HttpUriRequest;)Lorg/apache/http/HttpResponse;",
      "eventChain": [
        {
          "start": "com.llc.segbaypro.SearchControl.onCreate(Landroid/os/Bundle;)V",
          "target": "invokevirtual \u003c Application, Landroid/widget/Button, setOnClickListener(Landroid/view/View$OnClickListener;)V \u003e@443",
          "type": "activity",
          "component": "com.llc.segbaypro.SearchControl",
          "constraintsFile": "constraints20_0.py",
          "variables": {
            "\u003cUI\u003e.setTextColor().SDK_INT": "IAAv0"
          },
          "stringMap": {},
          "strings": {}
        },
        {
          "start": "com.llc.segbaypro.SearchControl$5.onClick(Landroid/view/View;)V",
          "target": "invokeinterface \u003c Application, Lorg/apache/http/client/HttpClient, execute(Lorg/apache/http/client/methods/HttpUriRequest;)Lorg/apache/http/HttpResponse; \u003e@11",
          "type": "ui",
          "activities": [
            "com.llc.segbaypro.SearchControl"
          ],
          "listener": "com.llc.segbaypro.SearchControl$5",
          "listenerMethod": "onClick",
          "uiType": "onClick",
          "constraintsFile": "constraints20_1.py",
          "variables": {},
          "stringMap": {
            "7000": "BuyNow",
            "7001": "Auction",
            "7002": "Seller"
          },
          "strings": {
            "IAAv0": ""
          }
        }
      ]
    },
    "21": {
      "startMethod": "com.llc.segbaypro.Setfrequency$6.onClick(Landroid/view/View;)V",
      "targetMethod": "org.apache.http.client.HttpClient.execute(Lorg/apache/http/client/methods/HttpUriRequest;)Lorg/apache/http/HttpResponse;",
      "eventChain": [
        {
          "start": "com.llc.segbaypro.Setfrequency.onCreate(Landroid/os/Bundle;)V",
          "target": "invokevirtual \u003c Application, Landroid/widget/Button, setOnClickListener(Landroid/view/View$OnClickListener;)V \u003e@674",
          "type": "activity",
          "component": "com.llc.segbaypro.Setfrequency",
          "constraintsFile": "constraints21_0.py",
          "variables": {},
          "stringMap": {
            "7000": "",
            "7001": "false"
          },
          "strings": {
            "IAAv2": "",
            "IAAv0": ""
          }
        },
        {
          "start": "com.llc.segbaypro.Setfrequency$6.onClick(Landroid/view/View;)V",
          "target": "invokeinterface \u003c Application, Lorg/apache/http/client/HttpClient, execute(Lorg/apache/http/client/methods/HttpUriRequest;)Lorg/apache/http/HttpResponse; \u003e@11",
          "type": "ui",
          "activities": [
            "com.llc.segbaypro.Setfrequency"
          ],
          "listener": "com.llc.segbaypro.Setfrequency$6",
          "listenerMethod": "onClick",
          "uiType": "onClick",
          "constraintsFile": "constraints21_1.py",
          "variables": {},
          "stringMap": {
            "7000": "false"
          },
          "strings": {
            "IAAv0": ""
          }
        }
      ]
    },
    "22": {
      "startMethod": "com.llc.segbaypro.BidNowSnipe$3.onClick(Landroid/view/View;)V",
      "targetMethod": "org.apache.http.client.HttpClient.execute(Lorg/apache/http/client/methods/HttpUriRequest;)Lorg/apache/http/HttpResponse;",
      "eventChain": [
        {
          "start": "com.llc.segbaypro.BidNowSnipe.onCreate(Landroid/os/Bundle;)V",
          "target": "invokevirtual \u003c Application, Landroid/widget/ToggleButton, setOnClickListener(Landroid/view/View$OnClickListener;)V \u003e@722",
          "type": "activity",
          "component": "com.llc.segbaypro.BidNowSnipe"
        },
        {
          "start": "com.llc.segbaypro.BidNowSnipe$3.onClick(Landroid/view/View;)V",
          "target": "invokeinterface \u003c Application, Lorg/apache/http/client/HttpClient, execute(Lorg/apache/http/client/methods/HttpUriRequest;)Lorg/apache/http/HttpResponse; \u003e@11",
          "type": "ui",
          "activities": [
            "com.llc.segbaypro.BidNowSnipe"
          ],
          "listener": "com.llc.segbaypro.BidNowSnipe$3",
          "listenerMethod": "onClick",
          "uiType": "onClick",
          "constraintsFile": "constraints22_0.py",
          "variables": {
            "\u003cChainedInput1\u003e.isChecked()": "IAAv0"
          },
          "stringMap": {
            "7000": "setclock"
          },
          "strings": {
            "IAAv1": ""
          }
        }
      ]
    },
    "23": {
      "startMethod": "com.llc.segbaypro.ProductDetailActivity$9.onClick(Landroid/view/View;)V",
      "targetMethod": "org.apache.http.client.HttpClient.execute(Lorg/apache/http/client/methods/HttpUriRequest;)Lorg/apache/http/HttpResponse;",
      "eventChain": [
        {
          "start": "com.llc.segbaypro.ProductDetailActivity.onCreate(Landroid/os/Bundle;)V",
          "target": "invokevirtual \u003c Application, Landroid/widget/Button, setOnClickListener(Landroid/view/View$OnClickListener;)V \u003e@2803",
          "type": "activity",
          "component": "com.llc.segbaypro.ProductDetailActivity",
          "constraintsFile": "constraints23_0.py",
          "variables": {},
          "stringMap": {
            "7000": "False",
            "7001": "BidBayItems",
            "7002": "Autobuy",
            "7003": "True",
            "7004": "1",
            "7005": "2"
          },
          "strings": {
            "IAAv8": "",
            "IAAv5": ""
          }
        },
        {
          "start": "com.llc.segbaypro.ProductDetailActivity$9.onClick(Landroid/view/View;)V",
          "target": "invokeinterface \u003c Application, Lorg/apache/http/client/HttpClient, execute(Lorg/apache/http/client/methods/HttpUriRequest;)Lorg/apache/http/HttpResponse; \u003e@11",
          "type": "ui",
          "activities": [
            "com.llc.segbaypro.ProductDetailActivity"
          ],
          "listener": "com.llc.segbaypro.ProductDetailActivity$9",
          "listenerMethod": "onClick",
          "uiType": "onClick",
          "constraintsFile": "constraints23_1.py",
          "variables": {},
          "stringMap": {
            "7000": "WonItems"
          },
          "strings": {
            "IAAv0": ""
          }
        }
      ]
    },
    "24": {
      "startMethod": "com.llc.segbaypro.SearchControl$3.onClick(Landroid/view/View;)V",
      "targetMethod": "org.apache.http.client.HttpClient.execute(Lorg/apache/http/client/methods/HttpUriRequest;)Lorg/apache/http/HttpResponse;",
      "eventChain": [
        {
          "start": "com.llc.segbaypro.SearchControl.onCreate(Landroid/os/Bundle;)V",
          "target": "invokevirtual \u003c Application, Landroid/widget/Button, setOnClickListener(Landroid/view/View$OnClickListener;)V \u003e@400",
          "type": "activity",
          "component": "com.llc.segbaypro.SearchControl",
          "constraintsFile": "constraints24_0.py",
          "variables": {
            "\u003cUI\u003e.setTextColor().SDK_INT": "IAAv0"
          },
          "stringMap": {},
          "strings": {}
        },
        {
          "start": "com.llc.segbaypro.SearchControl$3.onClick(Landroid/view/View;)V",
          "target": "invokeinterface \u003c Application, Lorg/apache/http/client/HttpClient, execute(Lorg/apache/http/client/methods/HttpUriRequest;)Lorg/apache/http/HttpResponse; \u003e@11",
          "type": "ui",
          "activities": [
            "com.llc.segbaypro.SearchControl"
          ],
          "listener": "com.llc.segbaypro.SearchControl$3",
          "listenerMethod": "onClick",
          "uiType": "onClick",
          "constraintsFile": "constraints24_1.py",
          "variables": {},
          "stringMap": {
            "7000": "BuyNow",
            "7001": "Auction",
            "7002": "Seller"
          },
          "strings": {
            "IAAv0": ""
          }
        }
      ]
    },
    "25": {
      "startMethod": "com.llc.segbaypro.AddFolder$5.onClick(Landroid/view/View;)V",
      "targetMethod": "org.apache.http.client.HttpClient.execute(Lorg/apache/http/client/methods/HttpUriRequest;)Lorg/apache/http/HttpResponse;",
      "eventChain": [
        {
          "start": "com.llc.segbaypro.AddFolder.onCreate(Landroid/os/Bundle;)V",
          "target": "invokevirtual \u003c Application, Landroid/widget/Button, setOnClickListener(Landroid/view/View$OnClickListener;)V \u003e@356",
          "type": "activity",
          "component": "com.llc.segbaypro.AddFolder"
        },
        {
          "start": "com.llc.segbaypro.AddFolder$5.onClick(Landroid/view/View;)V",
          "target": "invokeinterface \u003c Application, Lorg/apache/http/client/HttpClient, execute(Lorg/apache/http/client/methods/HttpUriRequest;)Lorg/apache/http/HttpResponse; \u003e@11",
          "type": "ui",
          "activities": [
            "com.llc.segbaypro.AddFolder"
          ],
          "listener": "com.llc.segbaypro.AddFolder$5",
          "listenerMethod": "onClick",
          "uiType": "onClick",
          "constraintsFile": "constraints25_0.py",
          "variables": {},
          "stringMap": {
            "7000": ""
          },
          "strings": {
            "IAAv0": ""
          }
        }
      ]
    },
    "26": {
      "startMethod": "com.llc.segbaypro.Popup_Bidnow_Snipe$2.onClick(Landroid/view/View;)V",
      "targetMethod": "org.apache.http.client.HttpClient.execute(Lorg/apache/http/client/methods/HttpUriRequest;)Lorg/apache/http/HttpResponse;",
      "eventChain": [
        {
          "start": "com.llc.segbaypro.Popup_Bidnow_Snipe.onCreate(Landroid/os/Bundle;)V",
          "target": "invokevirtual \u003c Application, Landroid/widget/ToggleButton, setOnClickListener(Landroid/view/View$OnClickListener;)V \u003e@582",
          "type": "activity",
          "component": "com.llc.segbaypro.Popup_Bidnow_Snipe"
        },
        {
          "start": "com.llc.segbaypro.Popup_Bidnow_Snipe$2.onClick(Landroid/view/View;)V",
          "target": "invokeinterface \u003c Application, Lorg/apache/http/client/HttpClient, execute(Lorg/apache/http/client/methods/HttpUriRequest;)Lorg/apache/http/HttpResponse; \u003e@11",
          "type": "ui",
          "activities": [
            "com.llc.segbaypro.Popup_Bidnow_Snipe"
          ],
          "listener": "com.llc.segbaypro.Popup_Bidnow_Snipe$2",
          "listenerMethod": "onClick",
          "uiType": "onClick",
          "constraintsFile": "constraints26_0.py",
          "variables": {
            "\u003cChainedInput1\u003e.isChecked()": "IAAv0"
          },
          "stringMap": {
            "7000": "setclock"
          },
          "strings": {
            "IAAv1": ""
          }
        }
      ]
    },
    "27": {
      "startMethod": "com.llc.segbaypro.NewSearch$4.onClick(Landroid/view/View;)V",
      "targetMethod": "org.apache.http.client.HttpClient.execute(Lorg/apache/http/client/methods/HttpUriRequest;)Lorg/apache/http/HttpResponse;",
      "eventChain": [
        {
          "start": "com.llc.segbaypro.NewSearch.onCreate(Landroid/os/Bundle;)V",
          "target": "invokevirtual \u003c Application, Landroid/widget/Button, setOnClickListener(Landroid/view/View$OnClickListener;)V \u003e@397",
          "type": "activity",
          "component": "com.llc.segbaypro.NewSearch"
        },
        {
          "start": "com.llc.segbaypro.NewSearch$4.onClick(Landroid/view/View;)V",
          "target": "invokeinterface \u003c Application, Lorg/apache/http/client/HttpClient, execute(Lorg/apache/http/client/methods/HttpUriRequest;)Lorg/apache/http/HttpResponse; \u003e@11",
          "type": "ui",
          "activities": [
            "com.llc.segbaypro.NewSearch"
          ],
          "listener": "com.llc.segbaypro.NewSearch$4",
          "listenerMethod": "onClick",
          "uiType": "onClick",
          "constraintsFile": "constraints27_0.py",
          "variables": {},
          "stringMap": {},
          "strings": {}
        }
      ]
    },
    "28": {
      "startMethod": "com.llc.segbaypro.ProductDetailActivity$11.onClick(Landroid/view/View;)V",
      "targetMethod": "org.apache.http.client.HttpClient.execute(Lorg/apache/http/client/methods/HttpUriRequest;)Lorg/apache/http/HttpResponse;",
      "eventChain": [
        {
          "start": "com.llc.segbaypro.ProductDetailActivity.onCreate(Landroid/os/Bundle;)V",
          "target": "invokevirtual \u003c Application, Landroid/widget/Button, setOnClickListener(Landroid/view/View$OnClickListener;)V \u003e@2867",
          "type": "activity",
          "component": "com.llc.segbaypro.ProductDetailActivity",
          "constraintsFile": "constraints28_0.py",
          "variables": {},
          "stringMap": {
            "7000": "False",
            "7001": "BidBayItems",
            "7002": "Autobuy",
            "7003": "True",
            "7004": "1",
            "7005": "2"
          },
          "strings": {
            "IAAv8": "",
            "IAAv5": ""
          }
        },
        {
          "start": "com.llc.segbaypro.ProductDetailActivity$11.onClick(Landroid/view/View;)V",
          "target": "invokeinterface \u003c Application, Lorg/apache/http/client/HttpClient, execute(Lorg/apache/http/client/methods/HttpUriRequest;)Lorg/apache/http/HttpResponse; \u003e@11",
          "type": "ui",
          "activities": [
            "com.llc.segbaypro.ProductDetailActivity"
          ],
          "listener": "com.llc.segbaypro.ProductDetailActivity$11",
          "listenerMethod": "onClick",
          "uiType": "onClick",
          "constraintsFile": "constraints28_1.py",
          "variables": {},
          "stringMap": {
            "7000": "BidBayItems",
            "7001": "WonItems",
            "7002": "Autobuy"
          },
          "strings": {
            "IAAv0": ""
          }
        }
      ]
    },
    "29": {
      "startMethod": "com.llc.segbaypro.Popup_Bidnow_Snipe$5.onClick(Landroid/view/View;)V",
      "targetMethod": "org.apache.http.client.HttpClient.execute(Lorg/apache/http/client/methods/HttpUriRequest;)Lorg/apache/http/HttpResponse;",
      "eventChain": [
        {
          "start": "com.llc.segbaypro.Popup_Bidnow_Snipe.onCreate(Landroid/os/Bundle;)V",
          "target": "invokevirtual \u003c Application, Landroid/widget/Button, setOnClickListener(Landroid/view/View$OnClickListener;)V \u003e@648",
          "type": "activity",
          "component": "com.llc.segbaypro.Popup_Bidnow_Snipe"
        },
        {
          "start": "com.llc.segbaypro.Popup_Bidnow_Snipe$5.onClick(Landroid/view/View;)V",
          "target": "invokeinterface \u003c Application, Lorg/apache/http/client/HttpClient, execute(Lorg/apache/http/client/methods/HttpUriRequest;)Lorg/apache/http/HttpResponse; \u003e@11",
          "type": "ui",
          "activities": [
            "com.llc.segbaypro.Popup_Bidnow_Snipe"
          ],
          "listener": "com.llc.segbaypro.Popup_Bidnow_Snipe$5",
          "listenerMethod": "onClick",
          "uiType": "onClick"
        }
      ]
    },
    "30": {
      "startMethod": "com.llc.segbaypro.Setting$6.onClick(Landroid/view/View;)V",
      "targetMethod": "org.apache.http.client.HttpClient.execute(Lorg/apache/http/client/methods/HttpUriRequest;)Lorg/apache/http/HttpResponse;",
      "eventChain": [
        {
          "start": "com.llc.segbaypro.Setting.onCreate(Landroid/os/Bundle;)V",
          "target": "invokevirtual \u003c Application, Landroid/widget/Button, setOnClickListener(Landroid/view/View$OnClickListener;)V \u003e@717",
          "type": "activity",
          "component": "com.llc.segbaypro.Setting"
        },
        {
          "start": "com.llc.segbaypro.Setting$6.onClick(Landroid/view/View;)V",
          "target": "invokeinterface \u003c Application, Lorg/apache/http/client/HttpClient, execute(Lorg/apache/http/client/methods/HttpUriRequest;)Lorg/apache/http/HttpResponse; \u003e@11",
          "type": "ui",
          "activities": [
            "com.llc.segbaypro.Setting"
          ],
          "listener": "com.llc.segbaypro.Setting$6",
          "listenerMethod": "onClick",
          "uiType": "onClick"
        }
      ]
    },
    "31": {
      "startMethod": "com.llc.segbaypro.Setting$1.onClick(Landroid/view/View;)V",
      "targetMethod": "org.apache.http.client.HttpClient.execute(Lorg/apache/http/client/methods/HttpUriRequest;)Lorg/apache/http/HttpResponse;",
      "eventChain": [
        {
          "start": "com.llc.segbaypro.Setting.onCreate(Landroid/os/Bundle;)V",
          "target": "invokevirtual \u003c Application, Landroid/widget/ToggleButton, setOnClickListener(Landroid/view/View$OnClickListener;)V \u003e@450",
          "type": "activity",
          "component": "com.llc.segbaypro.Setting"
        },
        {
          "start": "com.llc.segbaypro.Setting$1.onClick(Landroid/view/View;)V",
          "target": "invokeinterface \u003c Application, Lorg/apache/http/client/HttpClient, execute(Lorg/apache/http/client/methods/HttpUriRequest;)Lorg/apache/http/HttpResponse; \u003e@11",
          "type": "ui",
          "activities": [
            "com.llc.segbaypro.Setting"
          ],
          "listener": "com.llc.segbaypro.Setting$1",
          "listenerMethod": "onClick",
          "uiType": "onClick",
          "constraintsFile": "constraints31_0.py",
          "variables": {
            "\u003cChainedInput1\u003e.isChecked()": "IAAv2"
          },
          "stringMap": {
            "7000": "ebay Not Verified"
          },
          "strings": {
            "IAAv0": ""
          }
        }
      ]
    },
    "32": {
      "startMethod": "com.llc.segbaypro.NewSearch$2.onClick(Landroid/view/View;)V",
      "targetMethod": "org.apache.http.client.HttpClient.execute(Lorg/apache/http/client/methods/HttpUriRequest;)Lorg/apache/http/HttpResponse;",
      "eventChain": [
        {
          "start": "com.llc.segbaypro.NewSearch.onCreate(Landroid/os/Bundle;)V",
          "target": "invokevirtual \u003c Application, Landroid/widget/Button, setOnClickListener(Landroid/view/View$OnClickListener;)V \u003e@323",
          "type": "activity",
          "component": "com.llc.segbaypro.NewSearch"
        },
        {
          "start": "com.llc.segbaypro.NewSearch$2.onClick(Landroid/view/View;)V",
          "target": "invokeinterface \u003c Application, Lorg/apache/http/client/HttpClient, execute(Lorg/apache/http/client/methods/HttpUriRequest;)Lorg/apache/http/HttpResponse; \u003e@11",
          "type": "ui",
          "activities": [
            "com.llc.segbaypro.NewSearch"
          ],
          "listener": "com.llc.segbaypro.NewSearch$2",
          "listenerMethod": "onClick",
          "uiType": "onClick",
          "constraintsFile": "constraints32_0.py",
          "variables": {},
          "stringMap": {},
          "strings": {}
        }
      ]
    },
    "33": {
      "startMethod": "com.llc.segbaypro.SearchControl$4.onClick(Landroid/view/View;)V",
      "targetMethod": "org.apache.http.client.HttpClient.execute(Lorg/apache/http/client/methods/HttpUriRequest;)Lorg/apache/http/HttpResponse;",
      "eventChain": [
        {
          "start": "com.llc.segbaypro.SearchControl.onCreate(Landroid/os/Bundle;)V",
          "target": "invokevirtual \u003c Application, Landroid/widget/Button, setOnClickListener(Landroid/view/View$OnClickListener;)V \u003e@422",
          "type": "activity",
          "component": "com.llc.segbaypro.SearchControl",
          "constraintsFile": "constraints33_0.py",
          "variables": {
            "\u003cUI\u003e.setTextColor().SDK_INT": "IAAv0"
          },
          "stringMap": {},
          "strings": {}
        },
        {
          "start": "com.llc.segbaypro.SearchControl$4.onClick(Landroid/view/View;)V",
          "target": "invokeinterface \u003c Application, Lorg/apache/http/client/HttpClient, execute(Lorg/apache/http/client/methods/HttpUriRequest;)Lorg/apache/http/HttpResponse; \u003e@11",
          "type": "ui",
          "activities": [
            "com.llc.segbaypro.SearchControl"
          ],
          "listener": "com.llc.segbaypro.SearchControl$4",
          "listenerMethod": "onClick",
          "uiType": "onClick",
          "constraintsFile": "constraints33_1.py",
          "variables": {},
          "stringMap": {
            "7000": "BuyNow",
            "7001": "Auction",
            "7002": "Seller"
          },
          "strings": {
            "IAAv0": ""
          }
        }
      ]
    },
    "34": {
      "startMethod": "com.llc.segbaypro.BidNowSnipe$2.onClick(Landroid/view/View;)V",
      "targetMethod": "org.apache.http.client.HttpClient.execute(Lorg/apache/http/client/methods/HttpUriRequest;)Lorg/apache/http/HttpResponse;",
      "eventChain": [
        {
          "start": "com.llc.segbaypro.BidNowSnipe.onCreate(Landroid/os/Bundle;)V",
          "target": "invokevirtual \u003c Application, Landroid/widget/ToggleButton, setOnClickListener(Landroid/view/View$OnClickListener;)V \u003e@698",
          "type": "activity",
          "component": "com.llc.segbaypro.BidNowSnipe"
        },
        {
          "start": "com.llc.segbaypro.BidNowSnipe$2.onClick(Landroid/view/View;)V",
          "target": "invokeinterface \u003c Application, Lorg/apache/http/client/HttpClient, execute(Lorg/apache/http/client/methods/HttpUriRequest;)Lorg/apache/http/HttpResponse; \u003e@11",
          "type": "ui",
          "activities": [
            "com.llc.segbaypro.BidNowSnipe"
          ],
          "listener": "com.llc.segbaypro.BidNowSnipe$2",
          "listenerMethod": "onClick",
          "uiType": "onClick",
          "constraintsFile": "constraints34_0.py",
          "variables": {
            "\u003cChainedInput1\u003e.isChecked()": "IAAv0"
          },
          "stringMap": {
            "7000": "setclock"
          },
          "strings": {
            "IAAv1": ""
          }
        }
      ]
    },
    "35": {
      "startMethod": "com.llc.segbaypro.Popup_Bidnow_Snipe$3.onClick(Landroid/view/View;)V",
      "targetMethod": "org.apache.http.client.HttpClient.execute(Lorg/apache/http/client/methods/HttpUriRequest;)Lorg/apache/http/HttpResponse;",
      "eventChain": [
        {
          "start": "com.llc.segbaypro.Popup_Bidnow_Snipe.onCreate(Landroid/os/Bundle;)V",
          "target": "invokevirtual \u003c Application, Landroid/widget/ToggleButton, setOnClickListener(Landroid/view/View$OnClickListener;)V \u003e@604",
          "type": "activity",
          "component": "com.llc.segbaypro.Popup_Bidnow_Snipe"
        },
        {
          "start": "com.llc.segbaypro.Popup_Bidnow_Snipe$3.onClick(Landroid/view/View;)V",
          "target": "invokeinterface \u003c Application, Lorg/apache/http/client/HttpClient, execute(Lorg/apache/http/client/methods/HttpUriRequest;)Lorg/apache/http/HttpResponse; \u003e@11",
          "type": "ui",
          "activities": [
            "com.llc.segbaypro.Popup_Bidnow_Snipe"
          ],
          "listener": "com.llc.segbaypro.Popup_Bidnow_Snipe$3",
          "listenerMethod": "onClick",
          "uiType": "onClick",
          "constraintsFile": "constraints35_0.py",
          "variables": {
            "\u003cChainedInput1\u003e.isChecked()": "IAAv0"
          },
          "stringMap": {
            "7000": "setclock"
          },
          "strings": {
            "IAAv1": ""
          }
        }
      ]
    },
    "36": {
      "startMethod": "com.llc.segbaypro.ThanksPaypal$4.onClick(Landroid/view/View;)V",
      "targetMethod": "org.apache.http.client.HttpClient.execute(Lorg/apache/http/client/methods/HttpUriRequest;)Lorg/apache/http/HttpResponse;",
      "eventChain": [
        {
          "start": "com.llc.segbaypro.ThanksPaypal.onCreate(Landroid/os/Bundle;)V",
          "target": "invokevirtual \u003c Application, Landroid/widget/Button, setOnClickListener(Landroid/view/View$OnClickListener;)V \u003e@491",
          "type": "activity",
          "component": "com.llc.segbaypro.ThanksPaypal"
        },
        {
          "start": "com.llc.segbaypro.ThanksPaypal$4.onClick(Landroid/view/View;)V",
          "target": "invokeinterface \u003c Application, Lorg/apache/http/client/HttpClient, execute(Lorg/apache/http/client/methods/HttpUriRequest;)Lorg/apache/http/HttpResponse; \u003e@11",
          "type": "ui",
          "activities": [
            "com.llc.segbaypro.ThanksPaypal"
          ],
          "listener": "com.llc.segbaypro.ThanksPaypal$4",
          "listenerMethod": "onClick",
          "uiType": "onClick"
        }
      ]
    }
  }
}