{
  "packageName": "com.jb.gokeyboard.theme.BestThemes.happy",
  "mainActivity": "com.jb.gokeyboard.theme.BestThemes.happy.Base",
  "callPaths": {
    "0": {
      "startMethod": "com.jb.gokeyboard.theme.BestThemes.happy.Enter.onCreate(Landroid/os/Bundle;)V",
      "targetMethod": "dalvik.system.DexClassLoader.loadClass(Ljava/lang/String;)Ljava/lang/Class;",
      "eventChain": [
        {
          "start": "com.jb.gokeyboard.theme.BestThemes.happy.Enter.onCreate(Landroid/os/Bundle;)V",
          "target": "PC@29",
          "type": "activity",
          "component": "com.jb.gokeyboard.theme.BestThemes.happy.Enter",
          "constraintsFile": "constraints0_0.py",
          "variables": {},
          "stringMap": {},
          "strings": {
            "IAAv1": ""
          }
        },
        {
          "start": "com.jb.gokeyboard.theme.BestThemes.happy.Enter.onCreate(Landroid/os/Bundle;)V",
          "target": "invokevirtual \u003c Application, Ldalvik/system/DexClassLoader, loadClass(Ljava/lang/String;)Ljava/lang/Class; \u003e@206",
          "type": "activity",
          "component": "com.jb.gokeyboard.theme.BestThemes.happy.Enter",
          "constraintsFile": "constraints0_1.py",
          "variables": {},
          "stringMap": {},
          "strings": {
            "IAAv1": ""
          }
        }
      ]
    },
    "1": {
      "startMethod": "com.jb.gokeyboard.theme.BestThemes.happy.Enter.onCreate(Landroid/os/Bundle;)V",
      "targetMethod": "dalvik.system.DexClassLoader.loadClass(Ljava/lang/String;)Ljava/lang/Class;",
      "eventChain": [
        {
          "start": "com.jb.gokeyboard.theme.BestThemes.happy.Enter.onCreate(Landroid/os/Bundle;)V",
          "target": "PC@29",
          "type": "activity",
          "component": "com.jb.gokeyboard.theme.BestThemes.happy.Enter",
          "constraintsFile": "constraints1_0.py",
          "variables": {},
          "stringMap": {},
          "strings": {
            "IAAv1": ""
          }
        },
        {
          "start": "com.jb.gokeyboard.theme.BestThemes.happy.Enter.onCreate(Landroid/os/Bundle;)V",
          "target": "invokevirtual \u003c Application, Ldalvik/system/DexClassLoader, loadClass(Ljava/lang/String;)Ljava/lang/Class; \u003e@227",
          "type": "activity",
          "component": "com.jb.gokeyboard.theme.BestThemes.happy.Enter",
          "constraintsFile": "constraints1_1.py",
          "variables": {},
          "stringMap": {},
          "strings": {
            "IAAv1": ""
          }
        }
      ]
    },
    "2": {
      "startMethod": "com.jb.gokeyboard.theme.BestThemes.happy.Enter.onCreate(Landroid/os/Bundle;)V",
      "targetMethod": "dalvik.system.DexClassLoader.loadClass(Ljava/lang/String;)Ljava/lang/Class;",
      "eventChain": [
        {
          "start": "com.jb.gokeyboard.theme.BestThemes.happy.Enter.onCreate(Landroid/os/Bundle;)V",
          "target": "PC@29",
          "type": "activity",
          "component": "com.jb.gokeyboard.theme.BestThemes.happy.Enter",
          "constraintsFile": "constraints2_0.py",
          "variables": {},
          "stringMap": {},
          "strings": {
            "IAAv1": ""
          }
        },
        {
          "start": "com.jb.gokeyboard.theme.BestThemes.happy.Enter.onCreate(Landroid/os/Bundle;)V",
          "target": "invokevirtual \u003c Application, Ldalvik/system/DexClassLoader, loadClass(Ljava/lang/String;)Ljava/lang/Class; \u003e@185",
          "type": "activity",
          "component": "com.jb.gokeyboard.theme.BestThemes.happy.Enter",
          "constraintsFile": "constraints2_1.py",
          "variables": {},
          "stringMap": {},
          "strings": {
            "IAAv1": ""
          }
        }
      ]
    },
    "3": {
      "startMethod": "com.jb.gokeyboard.theme.BestThemes.happy.Enter.onCreate(Landroid/os/Bundle;)V",
      "targetMethod": "dalvik.system.DexClassLoader.loadClass(Ljava/lang/String;)Ljava/lang/Class;",
      "eventChain": [
        {
          "start": "com.jb.gokeyboard.theme.BestThemes.happy.Enter.onCreate(Landroid/os/Bundle;)V",
          "target": "PC@29",
          "type": "activity",
          "component": "com.jb.gokeyboard.theme.BestThemes.happy.Enter",
          "constraintsFile": "constraints3_0.py",
          "variables": {},
          "stringMap": {},
          "strings": {
            "IAAv1": ""
          }
        },
        {
          "start": "com.jb.gokeyboard.theme.BestThemes.happy.Enter.onCreate(Landroid/os/Bundle;)V",
          "target": "invokevirtual \u003c Application, Ldalvik/system/DexClassLoader, loadClass(Ljava/lang/String;)Ljava/lang/Class; \u003e@248",
          "type": "activity",
          "component": "com.jb.gokeyboard.theme.BestThemes.happy.Enter",
          "constraintsFile": "constraints3_1.py",
          "variables": {},
          "stringMap": {},
          "strings": {
            "IAAv1": ""
          }
        }
      ]
    },
    "4": {
      "startMethod": "com.jb.gokeyboard.theme.BestThemes.happy.Enter.onCreate(Landroid/os/Bundle;)V",
      "targetMethod": "java.lang.reflect.Method.invoke(Ljava/lang/Object;[Ljava/lang/Object;)Ljava/lang/Object;",
      "eventChain": [
        {
          "start": "com.jb.gokeyboard.theme.BestThemes.happy.Enter.onCreate(Landroid/os/Bundle;)V",
          "target": "PC@29",
          "type": "activity",
          "component": "com.jb.gokeyboard.theme.BestThemes.happy.Enter",
          "constraintsFile": "constraints4_0.py",
          "variables": {},
          "stringMap": {},
          "strings": {
            "IAAv1": ""
          }
        },
        {
          "start": "com.jb.gokeyboard.theme.BestThemes.happy.Enter.onCreate(Landroid/os/Bundle;)V",
          "target": "invokevirtual \u003c Application, Ljava/lang/reflect/Method, invoke(Ljava/lang/Object;[Ljava/lang/Object;)Ljava/lang/Object; \u003e@35",
          "type": "activity",
          "component": "com.jb.gokeyboard.theme.BestThemes.happy.Enter",
          "constraintsFile": "constraints4_1.py",
          "variables": {},
          "stringMap": {},
          "strings": {
            "IAAv1": ""
          }
        }
      ]
    },
    "5": {
      "startMethod": "com.jb.gokeyboard.theme.BestThemes.happy.Enter.onCreate(Landroid/os/Bundle;)V",
      "targetMethod": "dalvik.system.DexClassLoader.loadClass(Ljava/lang/String;)Ljava/lang/Class;",
      "eventChain": [
        {
          "start": "com.jb.gokeyboard.theme.BestThemes.happy.Enter.onCreate(Landroid/os/Bundle;)V",
          "target": "PC@29",
          "type": "activity",
          "component": "com.jb.gokeyboard.theme.BestThemes.happy.Enter",
          "constraintsFile": "constraints5_0.py",
          "variables": {},
          "stringMap": {},
          "strings": {
            "IAAv1": ""
          }
        },
        {
          "start": "com.jb.gokeyboard.theme.BestThemes.happy.Enter.onCreate(Landroid/os/Bundle;)V",
          "target": "invokevirtual \u003c Application, Ldalvik/system/DexClassLoader, loadClass(Ljava/lang/String;)Ljava/lang/Class; \u003e@269",
          "type": "activity",
          "component": "com.jb.gokeyboard.theme.BestThemes.happy.Enter",
          "constraintsFile": "constraints5_1.py",
          "variables": {},
          "stringMap": {},
          "strings": {
            "IAAv1": ""
          }
        }
      ]
    },
    "6": {
      "startMethod": "com.jb.gokeyboard.theme.BestThemes.happy.Enter.onCreate(Landroid/os/Bundle;)V",
      "targetMethod": "java.lang.ClassLoader.loadClass(Ljava/lang/String;)Ljava/lang/Class;",
      "eventChain": [
        {
          "start": "com.jb.gokeyboard.theme.BestThemes.happy.Enter.onCreate(Landroid/os/Bundle;)V",
          "target": "invokevirtual \u003c Application, Ljava/lang/ClassLoader, loadClass(Ljava/lang/String;)Ljava/lang/Class; \u003e@50",
          "type": "activity",
          "component": "com.jb.gokeyboard.theme.BestThemes.happy.Enter",
          "constraintsFile": "constraints6_0.py",
          "variables": {},
          "stringMap": {},
          "strings": {
            "IAAv1": ""
          }
        }
      ]
    },
    "7": {
      "startMethod": "com.jb.gokeyboard.theme.BestThemes.happy.Enter.onCreate(Landroid/os/Bundle;)V",
      "targetMethod": "dalvik.system.DexClassLoader.loadClass(Ljava/lang/String;)Ljava/lang/Class;",
      "eventChain": [
        {
          "start": "com.jb.gokeyboard.theme.BestThemes.happy.Enter.onCreate(Landroid/os/Bundle;)V",
          "target": "PC@29",
          "type": "activity",
          "component": "com.jb.gokeyboard.theme.BestThemes.happy.Enter",
          "constraintsFile": "constraints7_0.py",
          "variables": {},
          "stringMap": {},
          "strings": {
            "IAAv1": ""
          }
        },
        {
          "start": "com.jb.gokeyboard.theme.BestThemes.happy.Enter.onCreate(Landroid/os/Bundle;)V",
          "target": "invokevirtual \u003c Application, Ldalvik/system/DexClassLoader, loadClass(Ljava/lang/String;)Ljava/lang/Class; \u003e@290",
          "type": "activity",
          "component": "com.jb.gokeyboard.theme.BestThemes.happy.Enter",
          "constraintsFile": "constraints7_1.py",
          "variables": {},
          "stringMap": {},
          "strings": {
            "IAAv1": ""
          }
        }
      ]
    },
    "8": {
      "startMethod": "com.ironsource.mobilcore.MobileCoreReport.onStartCommand(Landroid/content/Intent;II)I",
      "targetMethod": "org.apache.http.impl.client.DefaultHttpClient.execute(Lorg/apache/http/client/methods/HttpUriRequest;)Lorg/apache/http/HttpResponse;",
      "eventChain": [
        {
          "start": "com.ironsource.mobilcore.MobileCoreReport.onStartCommand(Landroid/content/Intent;II)I",
          "target": "invokevirtual \u003c Application, Lorg/apache/http/impl/client/DefaultHttpClient, execute(Lorg/apache/http/client/methods/HttpUriRequest;)Lorg/apache/http/HttpResponse; \u003e@166",
          "type": "service",
          "component": "com.ironsource.mobilcore.MobileCoreReport",
          "constraintsFile": "constraints8_0.py",
          "variables": {},
          "stringMap": {
            "7000": "download"
          },
          "strings": {
            "IAAv1": ""
          }
        }
      ]
    },
    "9": {
      "startMethod": "com.ironsource.mobilcore.MobileCoreReport.onStartCommand(Landroid/content/Intent;II)I",
      "targetMethod": "java.net.URL.openConnection()Ljava/net/URLConnection;",
      "eventChain": [
        {
          "start": "com.ironsource.mobilcore.MobileCoreReport.onStartCommand(Landroid/content/Intent;II)I",
          "target": "PC@140",
          "type": "service",
          "component": "com.ironsource.mobilcore.MobileCoreReport",
          "constraintsFile": "constraints9_0.py",
          "variables": {},
          "stringMap": {
            "7000": "download"
          },
          "strings": {
            "IAAv1": "",
            "IAAv7": ""
          }
        },
        {
          "start": "com.ironsource.mobilcore.MobileCoreReport.onStartCommand(Landroid/content/Intent;II)I",
          "target": "invokevirtual \u003c Application, Ljava/net/URL, openConnection()Ljava/net/URLConnection; \u003e@266",
          "type": "service",
          "component": "com.ironsource.mobilcore.MobileCoreReport",
          "constraintsFile": "constraints9_1.py",
          "variables": {},
          "stringMap": {
            "7000": "download"
          },
          "strings": {
            "IAAv1": "",
            "IAAv7": ""
          }
        }
      ]
    },
    "10": {
      "startMethod": "com.ironsource.mobilcore.MobileCoreReport.onStartCommand(Landroid/content/Intent;II)I",
      "targetMethod": "org.apache.http.client.HttpClient.execute(Lorg/apache/http/client/methods/HttpUriRequest;)Lorg/apache/http/HttpResponse;",
      "eventChain": [
        {
          "start": "com.ironsource.mobilcore.aP$2.onDownloadStart(Ljava/lang/String;Ljava/lang/String;Ljava/lang/String;Ljava/lang/String;J)V",
          "target": "",
          "type": "",
          "constraintsFile": "constraints10_0.py",
          "variables": {
            "\u003cChainedInput1\u003e.a().i": "IAAv2"
          },
          "stringMap": {},
          "strings": {}
        },
        {
          "start": "com.ironsource.mobilcore.MobileCoreReport.onStartCommand(Landroid/content/Intent;II)I",
          "target": "invokeinterface \u003c Application, Lorg/apache/http/client/HttpClient, execute(Lorg/apache/http/client/methods/HttpUriRequest;)Lorg/apache/http/HttpResponse; \u003e@26",
          "type": "service",
          "component": "com.ironsource.mobilcore.MobileCoreReport",
          "constraintsFile": "constraints10_1.py",
          "variables": {},
          "stringMap": {
            "7000": "download"
          },
          "strings": {
            "IAAv1": ""
          }
        }
      ]
    },
    "11": {
      "startMethod": "com.ironsource.mobilcore.MobileCoreReport.onStartCommand(Landroid/content/Intent;II)I",
      "targetMethod": "org.apache.http.client.HttpClient.execute(Lorg/apache/http/client/methods/HttpUriRequest;)Lorg/apache/http/HttpResponse;",
      "eventChain": [
        {
          "start": "com.ironsource.mobilcore.aP$2.onDownloadStart(Ljava/lang/String;Ljava/lang/String;Ljava/lang/String;Ljava/lang/String;J)V",
          "target": "",
          "type": "",
          "constraintsFile": "constraints11_0.py",
          "variables": {
            "\u003cChainedInput1\u003e.a().i": "IAAv2"
          },
          "stringMap": {},
          "strings": {}
        },
        {
          "start": "com.ironsource.mobilcore.MobileCoreReport.onStartCommand(Landroid/content/Intent;II)I",
          "target": "invokeinterface \u003c Application, Lorg/apache/http/client/HttpClient, execute(Lorg/apache/http/client/methods/HttpUriRequest;)Lorg/apache/http/HttpResponse; \u003e@220",
          "type": "service",
          "component": "com.ironsource.mobilcore.MobileCoreReport",
          "constraintsFile": "constraints11_1.py",
          "variables": {},
          "stringMap": {
            "7000": "download"
          },
          "strings": {
            "IAAv1": ""
          }
        }
      ]
    },
    "12": {
      "startMethod": "com.jb.gokeyboard.theme.BestThemes.happy.wallp.onCreate(Landroid/os/Bundle;)V",
      "targetMethod": "dalvik.system.DexClassLoader.loadClass(Ljava/lang/String;)Ljava/lang/Class;",
      "eventChain": [
        {
          "start": "com.jb.gokeyboard.theme.BestThemes.happy.Enter.onCreate(Landroid/os/Bundle;)V",
          "target": "PC@29",
          "type": "activity",
          "component": "com.jb.gokeyboard.theme.BestThemes.happy.Enter",
          "constraintsFile": "constraints12_0.py",
          "variables": {},
          "stringMap": {},
          "strings": {
            "IAAv1": ""
          }
        },
        {
          "start": "com.jb.gokeyboard.theme.BestThemes.happy.wallp.onCreate(Landroid/os/Bundle;)V",
          "target": "invokevirtual \u003c Application, Ldalvik/system/DexClassLoader, loadClass(Ljava/lang/String;)Ljava/lang/Class; \u003e@206",
          "type": "activity",
          "component": "com.jb.gokeyboard.theme.BestThemes.happy.wallp",
          "constraintsFile": "constraints12_1.py",
          "variables": {},
          "stringMap": {},
          "strings": {
            "IAAv2": ""
          }
        }
      ]
    },
    "13": {
      "startMethod": "com.jb.gokeyboard.theme.BestThemes.happy.wallp.onCreate(Landroid/os/Bundle;)V",
      "targetMethod": "dalvik.system.DexClassLoader.loadClass(Ljava/lang/String;)Ljava/lang/Class;",
      "eventChain": [
        {
          "start": "com.jb.gokeyboard.theme.BestThemes.happy.Enter.onCreate(Landroid/os/Bundle;)V",
          "target": "PC@29",
          "type": "activity",
          "component": "com.jb.gokeyboard.theme.BestThemes.happy.Enter",
          "constraintsFile": "constraints13_0.py",
          "variables": {},
          "stringMap": {},
          "strings": {
            "IAAv1": ""
          }
        },
        {
          "start": "com.jb.gokeyboard.theme.BestThemes.happy.wallp.onCreate(Landroid/os/Bundle;)V",
          "target": "invokevirtual \u003c Application, Ldalvik/system/DexClassLoader, loadClass(Ljava/lang/String;)Ljava/lang/Class; \u003e@185",
          "type": "activity",
          "component": "com.jb.gokeyboard.theme.BestThemes.happy.wallp",
          "constraintsFile": "constraints13_1.py",
          "variables": {},
          "stringMap": {},
          "strings": {
            "IAAv2": ""
          }
        }
      ]
    },
    "14": {
      "startMethod": "com.jb.gokeyboard.theme.BestThemes.happy.wallp.onCreate(Landroid/os/Bundle;)V",
      "targetMethod": "java.lang.reflect.Method.invoke(Ljava/lang/Object;[Ljava/lang/Object;)Ljava/lang/Object;",
      "eventChain": [
        {
          "start": "com.jb.gokeyboard.theme.BestThemes.happy.Enter.onCreate(Landroid/os/Bundle;)V",
          "target": "PC@29",
          "type": "activity",
          "component": "com.jb.gokeyboard.theme.BestThemes.happy.Enter",
          "constraintsFile": "constraints14_0.py",
          "variables": {},
          "stringMap": {},
          "strings": {
            "IAAv1": ""
          }
        },
        {
          "start": "com.jb.gokeyboard.theme.BestThemes.happy.wallp.onCreate(Landroid/os/Bundle;)V",
          "target": "invokevirtual \u003c Application, Ljava/lang/reflect/Method, invoke(Ljava/lang/Object;[Ljava/lang/Object;)Ljava/lang/Object; \u003e@35",
          "type": "activity",
          "component": "com.jb.gokeyboard.theme.BestThemes.happy.wallp",
          "constraintsFile": "constraints14_1.py",
          "variables": {},
          "stringMap": {},
          "strings": {
            "IAAv2": ""
          }
        }
      ]
    },
    "15": {
      "startMethod": "com.jb.gokeyboard.theme.BestThemes.happy.wallp.onCreate(Landroid/os/Bundle;)V",
      "targetMethod": "dalvik.system.DexClassLoader.loadClass(Ljava/lang/String;)Ljava/lang/Class;",
      "eventChain": [
        {
          "start": "com.jb.gokeyboard.theme.BestThemes.happy.Enter.onCreate(Landroid/os/Bundle;)V",
          "target": "PC@29",
          "type": "activity",
          "component": "com.jb.gokeyboard.theme.BestThemes.happy.Enter",
          "constraintsFile": "constraints15_0.py",
          "variables": {},
          "stringMap": {},
          "strings": {
            "IAAv1": ""
          }
        },
        {
          "start": "com.jb.gokeyboard.theme.BestThemes.happy.wallp.onCreate(Landroid/os/Bundle;)V",
          "target": "invokevirtual \u003c Application, Ldalvik/system/DexClassLoader, loadClass(Ljava/lang/String;)Ljava/lang/Class; \u003e@227",
          "type": "activity",
          "component": "com.jb.gokeyboard.theme.BestThemes.happy.wallp",
          "constraintsFile": "constraints15_1.py",
          "variables": {},
          "stringMap": {},
          "strings": {
            "IAAv2": ""
          }
        }
      ]
    },
    "16": {
      "startMethod": "com.jb.gokeyboard.theme.BestThemes.happy.wallp.onCreate(Landroid/os/Bundle;)V",
      "targetMethod": "dalvik.system.DexClassLoader.loadClass(Ljava/lang/String;)Ljava/lang/Class;",
      "eventChain": [
        {
          "start": "com.jb.gokeyboard.theme.BestThemes.happy.Enter.onCreate(Landroid/os/Bundle;)V",
          "target": "PC@29",
          "type": "activity",
          "component": "com.jb.gokeyboard.theme.BestThemes.happy.Enter",
          "constraintsFile": "constraints16_0.py",
          "variables": {},
          "stringMap": {},
          "strings": {
            "IAAv1": ""
          }
        },
        {
          "start": "com.jb.gokeyboard.theme.BestThemes.happy.wallp.onCreate(Landroid/os/Bundle;)V",
          "target": "invokevirtual \u003c Application, Ldalvik/system/DexClassLoader, loadClass(Ljava/lang/String;)Ljava/lang/Class; \u003e@248",
          "type": "activity",
          "component": "com.jb.gokeyboard.theme.BestThemes.happy.wallp",
          "constraintsFile": "constraints16_1.py",
          "variables": {},
          "stringMap": {},
          "strings": {
            "IAAv2": ""
          }
        }
      ]
    },
    "17": {
      "startMethod": "com.jb.gokeyboard.theme.BestThemes.happy.wallp.onCreate(Landroid/os/Bundle;)V",
      "targetMethod": "org.apache.http.client.HttpClient.execute(Lorg/apache/http/client/methods/HttpUriRequest;)Lorg/apache/http/HttpResponse;",
      "eventChain": [
        {
          "start": "com.jb.gokeyboard.theme.BestThemes.happy.wallp.onCreate(Landroid/os/Bundle;)V",
          "target": "invokeinterface \u003c Application, Lorg/apache/http/client/HttpClient, execute(Lorg/apache/http/client/methods/HttpUriRequest;)Lorg/apache/http/HttpResponse; \u003e@220",
          "type": "activity",
          "component": "com.jb.gokeyboard.theme.BestThemes.happy.wallp"
        }
      ]
    },
    "18": {
      "startMethod": "com.jb.gokeyboard.theme.BestThemes.happy.wallp.onCreate(Landroid/os/Bundle;)V",
      "targetMethod": "java.lang.ClassLoader.loadClass(Ljava/lang/String;)Ljava/lang/Class;",
      "eventChain": [
        {
          "start": "com.jb.gokeyboard.theme.BestThemes.happy.wallp.onCreate(Landroid/os/Bundle;)V",
          "target": "invokevirtual \u003c Application, Ljava/lang/ClassLoader, loadClass(Ljava/lang/String;)Ljava/lang/Class; \u003e@50",
          "type": "activity",
          "component": "com.jb.gokeyboard.theme.BestThemes.happy.wallp",
          "constraintsFile": "constraints18_0.py",
          "variables": {},
          "stringMap": {},
          "strings": {
            "IAAv2": ""
          }
        }
      ]
    },
    "19": {
      "startMethod": "com.jb.gokeyboard.theme.BestThemes.happy.wallp.onCreate(Landroid/os/Bundle;)V",
      "targetMethod": "dalvik.system.DexClassLoader.loadClass(Ljava/lang/String;)Ljava/lang/Class;",
      "eventChain": [
        {
          "start": "com.jb.gokeyboard.theme.BestThemes.happy.Enter.onCreate(Landroid/os/Bundle;)V",
          "target": "PC@29",
          "type": "activity",
          "component": "com.jb.gokeyboard.theme.BestThemes.happy.Enter",
          "constraintsFile": "constraints19_0.py",
          "variables": {},
          "stringMap": {},
          "strings": {
            "IAAv1": ""
          }
        },
        {
          "start": "com.jb.gokeyboard.theme.BestThemes.happy.wallp.onCreate(Landroid/os/Bundle;)V",
          "target": "invokevirtual \u003c Application, Ldalvik/system/DexClassLoader, loadClass(Ljava/lang/String;)Ljava/lang/Class; \u003e@269",
          "type": "activity",
          "component": "com.jb.gokeyboard.theme.BestThemes.happy.wallp",
          "constraintsFile": "constraints19_1.py",
          "variables": {},
          "stringMap": {},
          "strings": {
            "IAAv2": ""
          }
        }
      ]
    },
    "20": {
      "startMethod": "com.jb.gokeyboard.theme.BestThemes.happy.wallp.onCreate(Landroid/os/Bundle;)V",
      "targetMethod": "dalvik.system.DexClassLoader.loadClass(Ljava/lang/String;)Ljava/lang/Class;",
      "eventChain": [
        {
          "start": "com.jb.gokeyboard.theme.BestThemes.happy.Enter.onCreate(Landroid/os/Bundle;)V",
          "target": "PC@29",
          "type": "activity",
          "component": "com.jb.gokeyboard.theme.BestThemes.happy.Enter",
          "constraintsFile": "constraints20_0.py",
          "variables": {},
          "stringMap": {},
          "strings": {
            "IAAv1": ""
          }
        },
        {
          "start": "com.jb.gokeyboard.theme.BestThemes.happy.wallp.onCreate(Landroid/os/Bundle;)V",
          "target": "invokevirtual \u003c Application, Ldalvik/system/DexClassLoader, loadClass(Ljava/lang/String;)Ljava/lang/Class; \u003e@290",
          "type": "activity",
          "component": "com.jb.gokeyboard.theme.BestThemes.happy.wallp",
          "constraintsFile": "constraints20_1.py",
          "variables": {},
          "stringMap": {},
          "strings": {
            "IAAv2": ""
          }
        }
      ]
    },
    "21": {
      "startMethod": "com.jb.gokeyboard.theme.BestThemes.happy.wallp.onCreate(Landroid/os/Bundle;)V",
      "targetMethod": "org.apache.http.client.HttpClient.execute(Lorg/apache/http/client/methods/HttpUriRequest;)Lorg/apache/http/HttpResponse;",
      "eventChain": [
        {
          "start": "com.jb.gokeyboard.theme.BestThemes.happy.wallp.onCreate(Landroid/os/Bundle;)V",
          "target": "invokeinterface \u003c Application, Lorg/apache/http/client/HttpClient, execute(Lorg/apache/http/client/methods/HttpUriRequest;)Lorg/apache/http/HttpResponse; \u003e@26",
          "type": "activity",
          "component": "com.jb.gokeyboard.theme.BestThemes.happy.wallp"
        }
      ]
    },
    "22": {
      "startMethod": "com.google.android.gms.ads.AdActivity.onCreate(Landroid/os/Bundle;)V",
      "targetMethod": "java.lang.ClassLoader.loadClass(Ljava/lang/String;)Ljava/lang/Class;",
      "eventChain": [
        {
          "start": "com.google.android.gms.ads.AdActivity.onCreate(Landroid/os/Bundle;)V",
          "target": "invokevirtual \u003c Application, Ljava/lang/ClassLoader, loadClass(Ljava/lang/String;)Ljava/lang/Class; \u003e@50",
          "type": "activity",
          "component": "com.google.android.gms.ads.AdActivity"
        }
      ]
    },
    "23": {
      "startMethod": "com.jb.gokeyboard.theme.BestThemes.happy.Base.onCreate(Landroid/os/Bundle;)V",
      "targetMethod": "org.apache.http.client.HttpClient.execute(Lorg/apache/http/client/methods/HttpUriRequest;)Lorg/apache/http/HttpResponse;",
      "eventChain": [
        {
          "start": "com.ironsource.mobilcore.aP$2.onDownloadStart(Ljava/lang/String;Ljava/lang/String;Ljava/lang/String;Ljava/lang/String;J)V",
          "target": "invokeinterface \u003c Application, Landroid/content/SharedPreferences$Editor, putString(Ljava/lang/String;Ljava/lang/String;)Landroid/content/SharedPreferences$Editor; \u003e@149",
          "type": "",
          "constraintsFile": "constraints23_0.py",
          "variables": {
            "\u003cChainedInput1\u003e.a().SDK_INT": "IAAv3",
            "\u003cChainedInput1\u003e.a().i": "IAAv2"
          },
          "stringMap": {},
          "strings": {}
        },
        {
          "start": "com.jb.gokeyboard.theme.BestThemes.happy.Base.onCreate(Landroid/os/Bundle;)V",
          "target": "invokeinterface \u003c Application, Lorg/apache/http/client/HttpClient, execute(Lorg/apache/http/client/methods/HttpUriRequest;)Lorg/apache/http/HttpResponse; \u003e@169",
          "type": "activity",
          "component": "com.jb.gokeyboard.theme.BestThemes.happy.Base",
          "constraintsFile": "constraints23_1.py",
          "variables": {
            "SharedPreferences\u003cprefs_first_run1.0\u003e.valueOf().booleanValue()": "IAAv6"
          },
          "stringMap": {},
          "strings": {}
        }
      ]
    },
    "24": {
      "startMethod": "com.jb.gokeyboard.theme.BestThemes.happy.Base.onCreate(Landroid/os/Bundle;)V",
      "targetMethod": "dalvik.system.DexClassLoader.loadClass(Ljava/lang/String;)Ljava/lang/Class;",
      "eventChain": [
        {
          "start": "com.jb.gokeyboard.theme.BestThemes.happy.Enter.onCreate(Landroid/os/Bundle;)V",
          "target": "PC@29",
          "type": "activity",
          "component": "com.jb.gokeyboard.theme.BestThemes.happy.Enter",
          "constraintsFile": "constraints24_0.py",
          "variables": {},
          "stringMap": {},
          "strings": {
            "IAAv1": ""
          }
        },
        {
          "start": "com.jb.gokeyboard.theme.BestThemes.happy.Base.onCreate(Landroid/os/Bundle;)V",
          "target": "invokevirtual \u003c Application, Ldalvik/system/DexClassLoader, loadClass(Ljava/lang/String;)Ljava/lang/Class; \u003e@248",
          "type": "activity",
          "component": "com.jb.gokeyboard.theme.BestThemes.happy.Base",
          "constraintsFile": "constraints24_1.py",
          "variables": {
            "SharedPreferences\u003creminder\u003e": "IAAv0"
          },
          "stringMap": {},
          "strings": {
            "IAAv2": ""
          }
        }
      ]
    },
    "25": {
      "startMethod": "com.jb.gokeyboard.theme.BestThemes.happy.Base.onCreate(Landroid/os/Bundle;)V",
      "targetMethod": "org.apache.http.client.HttpClient.execute(Lorg/apache/http/client/methods/HttpUriRequest;)Lorg/apache/http/HttpResponse;",
      "eventChain": [
        {
          "start": "com.jb.gokeyboard.theme.BestThemes.happy.Base.onCreate(Landroid/os/Bundle;)V",
          "target": "invokeinterface \u003c Application, Lorg/apache/http/client/HttpClient, execute(Lorg/apache/http/client/methods/HttpUriRequest;)Lorg/apache/http/HttpResponse; \u003e@220",
          "type": "activity",
          "component": "com.jb.gokeyboard.theme.BestThemes.happy.Base"
        }
      ]
    },
    "26": {
      "startMethod": "com.jb.gokeyboard.theme.BestThemes.happy.Base.onCreate(Landroid/os/Bundle;)V",
      "targetMethod": "java.lang.ClassLoader.loadClass(Ljava/lang/String;)Ljava/lang/Class;",
      "eventChain": [
        {
          "start": "com.jb.gokeyboard.theme.BestThemes.happy.Base.onCreate(Landroid/os/Bundle;)V",
          "target": "invokevirtual \u003c Application, Ljava/lang/ClassLoader, loadClass(Ljava/lang/String;)Ljava/lang/Class; \u003e@50",
          "type": "activity",
          "component": "com.jb.gokeyboard.theme.BestThemes.happy.Base",
          "constraintsFile": "constraints26_0.py",
          "variables": {
            "SharedPreferences\u003creminder\u003e": "IAAv0"
          },
          "stringMap": {},
          "strings": {
            "IAAv2": ""
          }
        }
      ]
    },
    "27": {
      "startMethod": "com.jb.gokeyboard.theme.BestThemes.happy.Base.onCreate(Landroid/os/Bundle;)V",
      "targetMethod": "dalvik.system.DexClassLoader.loadClass(Ljava/lang/String;)Ljava/lang/Class;",
      "eventChain": [
        {
          "start": "com.jb.gokeyboard.theme.BestThemes.happy.Enter.onCreate(Landroid/os/Bundle;)V",
          "target": "PC@29",
          "type": "activity",
          "component": "com.jb.gokeyboard.theme.BestThemes.happy.Enter",
          "constraintsFile": "constraints27_0.py",
          "variables": {},
          "stringMap": {},
          "strings": {
            "IAAv1": ""
          }
        },
        {
          "start": "com.jb.gokeyboard.theme.BestThemes.happy.Base.onCreate(Landroid/os/Bundle;)V",
          "target": "invokevirtual \u003c Application, Ldalvik/system/DexClassLoader, loadClass(Ljava/lang/String;)Ljava/lang/Class; \u003e@206",
          "type": "activity",
          "component": "com.jb.gokeyboard.theme.BestThemes.happy.Base",
          "constraintsFile": "constraints27_1.py",
          "variables": {
            "SharedPreferences\u003creminder\u003e": "IAAv0"
          },
          "stringMap": {},
          "strings": {
            "IAAv2": ""
          }
        }
      ]
    },
    "28": {
      "startMethod": "com.jb.gokeyboard.theme.BestThemes.happy.Base.onCreate(Landroid/os/Bundle;)V",
      "targetMethod": "java.lang.reflect.Method.invoke(Ljava/lang/Object;[Ljava/lang/Object;)Ljava/lang/Object;",
      "eventChain": [
        {
          "start": "com.jb.gokeyboard.theme.BestThemes.happy.Enter.onCreate(Landroid/os/Bundle;)V",
          "target": "PC@29",
          "type": "activity",
          "component": "com.jb.gokeyboard.theme.BestThemes.happy.Enter",
          "constraintsFile": "constraints28_0.py",
          "variables": {},
          "stringMap": {},
          "strings": {
            "IAAv1": ""
          }
        },
        {
          "start": "com.jb.gokeyboard.theme.BestThemes.happy.Base.onCreate(Landroid/os/Bundle;)V",
          "target": "invokevirtual \u003c Application, Ljava/lang/reflect/Method, invoke(Ljava/lang/Object;[Ljava/lang/Object;)Ljava/lang/Object; \u003e@35",
          "type": "activity",
          "component": "com.jb.gokeyboard.theme.BestThemes.happy.Base",
          "constraintsFile": "constraints28_1.py",
          "variables": {
            "SharedPreferences\u003creminder\u003e": "IAAv0"
          },
          "stringMap": {},
          "strings": {
            "IAAv2": ""
          }
        }
      ]
    },
    "29": {
      "startMethod": "com.jb.gokeyboard.theme.BestThemes.happy.Base.onCreate(Landroid/os/Bundle;)V",
      "targetMethod": "dalvik.system.DexClassLoader.loadClass(Ljava/lang/String;)Ljava/lang/Class;",
      "eventChain": [
        {
          "start": "com.jb.gokeyboard.theme.BestThemes.happy.Enter.onCreate(Landroid/os/Bundle;)V",
          "target": "PC@29",
          "type": "activity",
          "component": "com.jb.gokeyboard.theme.BestThemes.happy.Enter",
          "constraintsFile": "constraints29_0.py",
          "variables": {},
          "stringMap": {},
          "strings": {
            "IAAv1": ""
          }
        },
        {
          "start": "com.jb.gokeyboard.theme.BestThemes.happy.Base.onCreate(Landroid/os/Bundle;)V",
          "target": "invokevirtual \u003c Application, Ldalvik/system/DexClassLoader, loadClass(Ljava/lang/String;)Ljava/lang/Class; \u003e@227",
          "type": "activity",
          "component": "com.jb.gokeyboard.theme.BestThemes.happy.Base",
          "constraintsFile": "constraints29_1.py",
          "variables": {
            "SharedPreferences\u003creminder\u003e": "IAAv0"
          },
          "stringMap": {},
          "strings": {
            "IAAv2": ""
          }
        }
      ]
    },
    "30": {
      "startMethod": "com.jb.gokeyboard.theme.BestThemes.happy.Base.onCreate(Landroid/os/Bundle;)V",
      "targetMethod": "dalvik.system.DexClassLoader.loadClass(Ljava/lang/String;)Ljava/lang/Class;",
      "eventChain": [
        {
          "start": "com.jb.gokeyboard.theme.BestThemes.happy.Enter.onCreate(Landroid/os/Bundle;)V",
          "target": "PC@29",
          "type": "activity",
          "component": "com.jb.gokeyboard.theme.BestThemes.happy.Enter",
          "constraintsFile": "constraints30_0.py",
          "variables": {},
          "stringMap": {},
          "strings": {
            "IAAv1": ""
          }
        },
        {
          "start": "com.jb.gokeyboard.theme.BestThemes.happy.Base.onCreate(Landroid/os/Bundle;)V",
          "target": "invokevirtual \u003c Application, Ldalvik/system/DexClassLoader, loadClass(Ljava/lang/String;)Ljava/lang/Class; \u003e@269",
          "type": "activity",
          "component": "com.jb.gokeyboard.theme.BestThemes.happy.Base",
          "constraintsFile": "constraints30_1.py",
          "variables": {
            "SharedPreferences\u003creminder\u003e": "IAAv0"
          },
          "stringMap": {},
          "strings": {
            "IAAv2": ""
          }
        }
      ]
    },
    "31": {
      "startMethod": "com.jb.gokeyboard.theme.BestThemes.happy.Base.onCreate(Landroid/os/Bundle;)V",
      "targetMethod": "dalvik.system.DexClassLoader.loadClass(Ljava/lang/String;)Ljava/lang/Class;",
      "eventChain": [
        {
          "start": "com.jb.gokeyboard.theme.BestThemes.happy.Enter.onCreate(Landroid/os/Bundle;)V",
          "target": "PC@29",
          "type": "activity",
          "component": "com.jb.gokeyboard.theme.BestThemes.happy.Enter",
          "constraintsFile": "constraints31_0.py",
          "variables": {},
          "stringMap": {},
          "strings": {
            "IAAv1": ""
          }
        },
        {
          "start": "com.jb.gokeyboard.theme.BestThemes.happy.Base.onCreate(Landroid/os/Bundle;)V",
          "target": "invokevirtual \u003c Application, Ldalvik/system/DexClassLoader, loadClass(Ljava/lang/String;)Ljava/lang/Class; \u003e@290",
          "type": "activity",
          "component": "com.jb.gokeyboard.theme.BestThemes.happy.Base",
          "constraintsFile": "constraints31_1.py",
          "variables": {
            "SharedPreferences\u003creminder\u003e": "IAAv0"
          },
          "stringMap": {},
          "strings": {
            "IAAv2": ""
          }
        }
      ]
    },
    "32": {
      "startMethod": "com.jb.gokeyboard.theme.BestThemes.happy.Base.onCreate(Landroid/os/Bundle;)V",
      "targetMethod": "org.apache.http.client.HttpClient.execute(Lorg/apache/http/client/methods/HttpUriRequest;)Lorg/apache/http/HttpResponse;",
      "eventChain": [
        {
          "start": "com.jb.gokeyboard.theme.BestThemes.happy.Base.onCreate(Landroid/os/Bundle;)V",
          "target": "invokeinterface \u003c Application, Lorg/apache/http/client/HttpClient, execute(Lorg/apache/http/client/methods/HttpUriRequest;)Lorg/apache/http/HttpResponse; \u003e@26",
          "type": "activity",
          "component": "com.jb.gokeyboard.theme.BestThemes.happy.Base"
        }
      ]
    },
    "33": {
      "startMethod": "com.jb.gokeyboard.theme.BestThemes.happy.Base.onCreate(Landroid/os/Bundle;)V",
      "targetMethod": "dalvik.system.DexClassLoader.loadClass(Ljava/lang/String;)Ljava/lang/Class;",
      "eventChain": [
        {
          "start": "com.jb.gokeyboard.theme.BestThemes.happy.Enter.onCreate(Landroid/os/Bundle;)V",
          "target": "PC@29",
          "type": "activity",
          "component": "com.jb.gokeyboard.theme.BestThemes.happy.Enter",
          "constraintsFile": "constraints33_0.py",
          "variables": {},
          "stringMap": {},
          "strings": {
            "IAAv1": ""
          }
        },
        {
          "start": "com.jb.gokeyboard.theme.BestThemes.happy.Base.onCreate(Landroid/os/Bundle;)V",
          "target": "invokevirtual \u003c Application, Ldalvik/system/DexClassLoader, loadClass(Ljava/lang/String;)Ljava/lang/Class; \u003e@185",
          "type": "activity",
          "component": "com.jb.gokeyboard.theme.BestThemes.happy.Base",
          "constraintsFile": "constraints33_1.py",
          "variables": {
            "SharedPreferences\u003creminder\u003e": "IAAv0"
          },
          "stringMap": {},
          "strings": {
            "IAAv2": ""
          }
        }
      ]
    },
    "34": {
      "startMethod": "com.ironsource.mobilcore.MobileCoreReport.onCreate()V",
      "targetMethod": "org.apache.http.client.HttpClient.execute(Lorg/apache/http/client/methods/HttpUriRequest;)Lorg/apache/http/HttpResponse;",
      "eventChain": [
        {
          "start": "com.ironsource.mobilcore.aP$2.onDownloadStart(Ljava/lang/String;Ljava/lang/String;Ljava/lang/String;Ljava/lang/String;J)V",
          "target": "",
          "type": "",
          "constraintsFile": "constraints34_0.py",
          "variables": {
            "\u003cChainedInput1\u003e.a().i": "IAAv2"
          },
          "stringMap": {},
          "strings": {}
        },
        {
          "start": "com.ironsource.mobilcore.MobileCoreReport.onCreate()V",
          "target": "invokeinterface \u003c Application, Lorg/apache/http/client/HttpClient, execute(Lorg/apache/http/client/methods/HttpUriRequest;)Lorg/apache/http/HttpResponse; \u003e@26",
          "type": "service",
          "component": "com.ironsource.mobilcore.MobileCoreReport",
          "constraintsFile": "constraints34_1.py",
          "variables": {},
          "stringMap": {
            "7000": "download"
          },
          "strings": {
            "IAAv1": ""
          }
        }
      ]
    },
    "35": {
      "startMethod": "com.ironsource.mobilcore.MobileCoreReport.onCreate()V",
      "targetMethod": "org.apache.http.impl.client.DefaultHttpClient.execute(Lorg/apache/http/client/methods/HttpUriRequest;)Lorg/apache/http/HttpResponse;",
      "eventChain": [
        {
          "start": "com.ironsource.mobilcore.MobileCoreReport.onCreate()V",
          "target": "invokevirtual \u003c Application, Lorg/apache/http/impl/client/DefaultHttpClient, execute(Lorg/apache/http/client/methods/HttpUriRequest;)Lorg/apache/http/HttpResponse; \u003e@166",
          "type": "service",
          "component": "com.ironsource.mobilcore.MobileCoreReport",
          "constraintsFile": "constraints35_0.py",
          "variables": {},
          "stringMap": {
            "7000": "download"
          },
          "strings": {
            "IAAv1": ""
          }
        }
      ]
    },
    "36": {
      "startMethod": "com.ironsource.mobilcore.MobileCoreReport.onCreate()V",
      "targetMethod": "java.net.URL.openConnection()Ljava/net/URLConnection;",
      "eventChain": [
        {
          "start": "com.ironsource.mobilcore.MobileCoreReport.onStartCommand(Landroid/content/Intent;II)I",
          "target": "PC@140",
          "type": "service",
          "component": "com.ironsource.mobilcore.MobileCoreReport",
          "constraintsFile": "constraints36_0.py",
          "variables": {},
          "stringMap": {
            "7000": "download"
          },
          "strings": {
            "IAAv1": "",
            "IAAv10": "",
            "IAAv7": ""
          }
        },
        {
          "start": "com.ironsource.mobilcore.MobileCoreReport.onCreate()V",
          "target": "invokevirtual \u003c Application, Ljava/net/URL, openConnection()Ljava/net/URLConnection; \u003e@266",
          "type": "service",
          "component": "com.ironsource.mobilcore.MobileCoreReport",
          "constraintsFile": "constraints36_1.py",
          "variables": {},
          "stringMap": {
            "7000": "download"
          },
          "strings": {
            "IAAv1": "",
            "IAAv7": ""
          }
        }
      ]
    },
    "37": {
      "startMethod": "com.ironsource.mobilcore.MobileCoreReport.onCreate()V",
      "targetMethod": "org.apache.http.client.HttpClient.execute(Lorg/apache/http/client/methods/HttpUriRequest;)Lorg/apache/http/HttpResponse;",
      "eventChain": [
        {
          "start": "com.ironsource.mobilcore.aP$2.onDownloadStart(Ljava/lang/String;Ljava/lang/String;Ljava/lang/String;Ljava/lang/String;J)V",
          "target": "",
          "type": "",
          "constraintsFile": "constraints37_0.py",
          "variables": {
            "\u003cChainedInput1\u003e.a().i": "IAAv2"
          },
          "stringMap": {},
          "strings": {}
        },
        {
          "start": "com.ironsource.mobilcore.MobileCoreReport.onCreate()V",
          "target": "invokeinterface \u003c Application, Lorg/apache/http/client/HttpClient, execute(Lorg/apache/http/client/methods/HttpUriRequest;)Lorg/apache/http/HttpResponse; \u003e@220",
          "type": "service",
          "component": "com.ironsource.mobilcore.MobileCoreReport",
          "constraintsFile": "constraints37_1.py",
          "variables": {},
          "stringMap": {
            "7000": "download"
          },
          "strings": {
            "IAAv1": ""
          }
        }
      ]
    },
    "38": {
      "startMethod": "com.ironsource.mobilcore.W$1.onEditorAction(Landroid/widget/TextView;ILandroid/view/KeyEvent;)Z",
      "targetMethod": "org.apache.http.client.HttpClient.execute(Lorg/apache/http/client/methods/HttpUriRequest;)Lorg/apache/http/HttpResponse;",
      "eventChain": [
        {
          "start": "com.ironsource.mobilcore.MobileCoreReport.onStartCommand(Landroid/content/Intent;II)I",
          "target": "invokevirtual \u003c Application, Landroid/widget/EditText, setOnEditorActionListener(Landroid/widget/TextView$OnEditorActionListener;)V \u003e@43",
          "type": "service",
          "component": "com.ironsource.mobilcore.MobileCoreReport",
          "constraintsFile": "constraints38_0.py",
          "variables": {},
          "stringMap": {
            "7000": "download"
          },
          "strings": {
            "IAAv1": ""
          }
        },
        {
          "start": "com.ironsource.mobilcore.W$1.onEditorAction(Landroid/widget/TextView;ILandroid/view/KeyEvent;)Z",
          "target": "invokeinterface \u003c Application, Lorg/apache/http/client/HttpClient, execute(Lorg/apache/http/client/methods/HttpUriRequest;)Lorg/apache/http/HttpResponse; \u003e@220",
          "type": "ui",
          "activities": [
            "com.jb.gokeyboard.theme.BestThemes.happy.Base"
          ],
          "listener": "com.ironsource.mobilcore.W$1",
          "listenerMethod": "onEditorAction",
          "uiType": "onEditorAction",
          "constraintsFile": "constraints38_1.py",
          "variables": {
            "\u003cChainedInput2\u003e": "IAAv0"
          },
          "stringMap": {},
          "strings": {}
        }
      ]
    },
    "39": {
      "startMethod": "com.ironsource.mobilcore.W$1.onEditorAction(Landroid/widget/TextView;ILandroid/view/KeyEvent;)Z",
      "targetMethod": "org.apache.http.client.HttpClient.execute(Lorg/apache/http/client/methods/HttpUriRequest;)Lorg/apache/http/HttpResponse;",
      "eventChain": [
        {
          "start": "com.ironsource.mobilcore.MobileCoreReport.onStartCommand(Landroid/content/Intent;II)I",
          "target": "invokevirtual \u003c Application, Landroid/widget/EditText, setOnEditorActionListener(Landroid/widget/TextView$OnEditorActionListener;)V \u003e@43",
          "type": "service",
          "component": "com.ironsource.mobilcore.MobileCoreReport",
          "constraintsFile": "constraints39_0.py",
          "variables": {},
          "stringMap": {
            "7000": "download"
          },
          "strings": {
            "IAAv1": ""
          }
        },
        {
          "start": "com.ironsource.mobilcore.W$1.onEditorAction(Landroid/widget/TextView;ILandroid/view/KeyEvent;)Z",
          "target": "invokeinterface \u003c Application, Lorg/apache/http/client/HttpClient, execute(Lorg/apache/http/client/methods/HttpUriRequest;)Lorg/apache/http/HttpResponse; \u003e@26",
          "type": "ui",
          "activities": [
            "com.jb.gokeyboard.theme.BestThemes.happy.Base"
          ],
          "listener": "com.ironsource.mobilcore.W$1",
          "listenerMethod": "onEditorAction",
          "uiType": "onEditorAction",
          "constraintsFile": "constraints39_1.py",
          "variables": {
            "\u003cChainedInput2\u003e": "IAAv0"
          },
          "stringMap": {},
          "strings": {}
        }
      ]
    },
    "40": {
      "startMethod": "com.ironsource.mobilcore.E$1.onClick(Landroid/view/View;)V",
      "targetMethod": "org.apache.http.client.HttpClient.execute(Lorg/apache/http/client/methods/HttpUriRequest;)Lorg/apache/http/HttpResponse;",
      "eventChain": [
        {
          "start": "com.ironsource.mobilcore.MobileCoreReport.onStartCommand(Landroid/content/Intent;II)I",
          "target": "invokevirtual \u003c Application, Landroid/view/View, setOnClickListener(Landroid/view/View$OnClickListener;)V \u003e@37",
          "type": "service",
          "component": "com.ironsource.mobilcore.MobileCoreReport",
          "constraintsFile": "constraints40_0.py",
          "variables": {},
          "stringMap": {
            "7000": "download"
          },
          "strings": {
            "IAAv1": ""
          }
        },
        {
          "start": "com.ironsource.mobilcore.E$1.onClick(Landroid/view/View;)V",
          "target": "invokeinterface \u003c Application, Lorg/apache/http/client/HttpClient, execute(Lorg/apache/http/client/methods/HttpUriRequest;)Lorg/apache/http/HttpResponse; \u003e@220",
          "type": "ui",
          "activities": [
            "com.jb.gokeyboard.theme.BestThemes.happy.Base"
          ],
          "listener": "com.ironsource.mobilcore.E$1",
          "listenerMethod": "onClick",
          "uiType": "onClick",
          "constraintsFile": "constraints40_1.py",
          "variables": {},
          "stringMap": {},
          "strings": {}
        }
      ]
    },
    "41": {
      "startMethod": "com.ironsource.mobilcore.E$1.onClick(Landroid/view/View;)V",
      "targetMethod": "org.apache.http.client.HttpClient.execute(Lorg/apache/http/client/methods/HttpUriRequest;)Lorg/apache/http/HttpResponse;",
      "eventChain": [
        {
          "start": "com.ironsource.mobilcore.MobileCoreReport.onStartCommand(Landroid/content/Intent;II)I",
          "target": "invokevirtual \u003c Application, Landroid/view/View, setOnClickListener(Landroid/view/View$OnClickListener;)V \u003e@37",
          "type": "service",
          "component": "com.ironsource.mobilcore.MobileCoreReport",
          "constraintsFile": "constraints41_0.py",
          "variables": {},
          "stringMap": {
            "7000": "download"
          },
          "strings": {
            "IAAv1": ""
          }
        },
        {
          "start": "com.ironsource.mobilcore.E$1.onClick(Landroid/view/View;)V",
          "target": "invokeinterface \u003c Application, Lorg/apache/http/client/HttpClient, execute(Lorg/apache/http/client/methods/HttpUriRequest;)Lorg/apache/http/HttpResponse; \u003e@26",
          "type": "ui",
          "activities": [
            "com.jb.gokeyboard.theme.BestThemes.happy.Base"
          ],
          "listener": "com.ironsource.mobilcore.E$1",
          "listenerMethod": "onClick",
          "uiType": "onClick",
          "constraintsFile": "constraints41_1.py",
          "variables": {},
          "stringMap": {},
          "strings": {}
        }
      ]
    },
    "42": {
      "startMethod": "com.ironsource.mobilcore.aQ$6.onClick(Landroid/view/View;)V",
      "targetMethod": "org.apache.http.client.HttpClient.execute(Lorg/apache/http/client/methods/HttpUriRequest;)Lorg/apache/http/HttpResponse;",
      "eventChain": [
        {
          "start": "com.jb.gokeyboard.theme.BestThemes.happy.Base.onCreate(Landroid/os/Bundle;)V",
          "target": "invokevirtual \u003c Application, Landroid/widget/ImageView, setOnClickListener(Landroid/view/View$OnClickListener;)V \u003e@354",
          "type": "activity",
          "component": "com.jb.gokeyboard.theme.BestThemes.happy.Base"
        },
        {
          "start": "com.ironsource.mobilcore.aQ$6.onClick(Landroid/view/View;)V",
          "target": "invokeinterface \u003c Application, Lorg/apache/http/client/HttpClient, execute(Lorg/apache/http/client/methods/HttpUriRequest;)Lorg/apache/http/HttpResponse; \u003e@220",
          "type": "ui",
          "activities": [
            "com.jb.gokeyboard.theme.BestThemes.happy.Base"
          ],
          "listener": "com.ironsource.mobilcore.aQ$6",
          "listenerMethod": "onClick",
          "uiType": "onClick",
          "constraintsFile": "constraints42_0.py",
          "variables": {},
          "stringMap": {},
          "strings": {}
        }
      ]
    },
    "43": {
      "startMethod": "com.ironsource.mobilcore.aQ$6.onClick(Landroid/view/View;)V",
      "targetMethod": "org.apache.http.client.HttpClient.execute(Lorg/apache/http/client/methods/HttpUriRequest;)Lorg/apache/http/HttpResponse;",
      "eventChain": [
        {
          "start": "com.jb.gokeyboard.theme.BestThemes.happy.Base.onCreate(Landroid/os/Bundle;)V",
          "target": "invokevirtual \u003c Application, Landroid/widget/ImageView, setOnClickListener(Landroid/view/View$OnClickListener;)V \u003e@354",
          "type": "activity",
          "component": "com.jb.gokeyboard.theme.BestThemes.happy.Base"
        },
        {
          "start": "com.ironsource.mobilcore.aQ$6.onClick(Landroid/view/View;)V",
          "target": "invokeinterface \u003c Application, Lorg/apache/http/client/HttpClient, execute(Lorg/apache/http/client/methods/HttpUriRequest;)Lorg/apache/http/HttpResponse; \u003e@26",
          "type": "ui",
          "activities": [
            "com.jb.gokeyboard.theme.BestThemes.happy.Base"
          ],
          "listener": "com.ironsource.mobilcore.aQ$6",
          "listenerMethod": "onClick",
          "uiType": "onClick",
          "constraintsFile": "constraints43_0.py",
          "variables": {},
          "stringMap": {},
          "strings": {}
        }
      ]
    },
    "44": {
      "startMethod": "com.ironsource.mobilcore.aR$6.onClick(Landroid/view/View;)V",
      "targetMethod": "org.apache.http.client.HttpClient.execute(Lorg/apache/http/client/methods/HttpUriRequest;)Lorg/apache/http/HttpResponse;",
      "eventChain": [
        {
          "start": "com.jb.gokeyboard.theme.BestThemes.happy.wallp.onCreate(Landroid/os/Bundle;)V",
          "target": "invokevirtual \u003c Application, Landroid/widget/RelativeLayout, setOnClickListener(Landroid/view/View$OnClickListener;)V \u003e@601",
          "type": "activity",
          "component": "com.jb.gokeyboard.theme.BestThemes.happy.wallp"
        },
        {
          "start": "com.ironsource.mobilcore.aR$6.onClick(Landroid/view/View;)V",
          "target": "invokeinterface \u003c Application, Lorg/apache/http/client/HttpClient, execute(Lorg/apache/http/client/methods/HttpUriRequest;)Lorg/apache/http/HttpResponse; \u003e@26",
          "type": "ui",
          "activities": [
            "com.jb.gokeyboard.theme.BestThemes.happy.Base"
          ],
          "listener": "com.ironsource.mobilcore.aR$6",
          "listenerMethod": "onClick",
          "uiType": "onClick",
          "constraintsFile": "constraints44_0.py",
          "variables": {},
          "stringMap": {},
          "strings": {}
        }
      ]
    },
    "45": {
      "startMethod": "com.ironsource.mobilcore.aR$6.onClick(Landroid/view/View;)V",
      "targetMethod": "org.apache.http.client.HttpClient.execute(Lorg/apache/http/client/methods/HttpUriRequest;)Lorg/apache/http/HttpResponse;",
      "eventChain": [
        {
          "start": "com.jb.gokeyboard.theme.BestThemes.happy.wallp.onCreate(Landroid/os/Bundle;)V",
          "target": "invokevirtual \u003c Application, Landroid/widget/RelativeLayout, setOnClickListener(Landroid/view/View$OnClickListener;)V \u003e@601",
          "type": "activity",
          "component": "com.jb.gokeyboard.theme.BestThemes.happy.wallp"
        },
        {
          "start": "com.ironsource.mobilcore.aR$6.onClick(Landroid/view/View;)V",
          "target": "invokeinterface \u003c Application, Lorg/apache/http/client/HttpClient, execute(Lorg/apache/http/client/methods/HttpUriRequest;)Lorg/apache/http/HttpResponse; \u003e@220",
          "type": "ui",
          "activities": [
            "com.jb.gokeyboard.theme.BestThemes.happy.Base"
          ],
          "listener": "com.ironsource.mobilcore.aR$6",
          "listenerMethod": "onClick",
          "uiType": "onClick",
          "constraintsFile": "constraints45_0.py",
          "variables": {},
          "stringMap": {},
          "strings": {}
        }
      ]
    },
    "46": {
      "startMethod": "com.ironsource.mobilcore.G$1.onClick(Landroid/view/View;)V",
      "targetMethod": "org.apache.http.client.HttpClient.execute(Lorg/apache/http/client/methods/HttpUriRequest;)Lorg/apache/http/HttpResponse;",
      "eventChain": [
        {
          "start": "com.ironsource.mobilcore.MobileCoreReport.onStartCommand(Landroid/content/Intent;II)I",
          "target": "invokevirtual \u003c Application, Landroid/view/View, setOnClickListener(Landroid/view/View$OnClickListener;)V \u003e@94",
          "type": "service",
          "component": "com.ironsource.mobilcore.MobileCoreReport",
          "constraintsFile": "constraints46_0.py",
          "variables": {},
          "stringMap": {
            "7000": "download",
            "7001": "null"
          },
          "strings": {
            "IAAv1": ""
          }
        },
        {
          "start": "com.ironsource.mobilcore.G$1.onClick(Landroid/view/View;)V",
          "target": "invokeinterface \u003c Application, Lorg/apache/http/client/HttpClient, execute(Lorg/apache/http/client/methods/HttpUriRequest;)Lorg/apache/http/HttpResponse; \u003e@220",
          "type": "ui",
          "activities": [
            "com.jb.gokeyboard.theme.BestThemes.happy.Base"
          ],
          "listener": "com.ironsource.mobilcore.G$1",
          "listenerMethod": "onClick",
          "uiType": "onClick",
          "constraintsFile": "constraints46_1.py",
          "variables": {},
          "stringMap": {},
          "strings": {}
        }
      ]
    },
    "47": {
      "startMethod": "com.ironsource.mobilcore.G$1.onClick(Landroid/view/View;)V",
      "targetMethod": "org.apache.http.client.HttpClient.execute(Lorg/apache/http/client/methods/HttpUriRequest;)Lorg/apache/http/HttpResponse;",
      "eventChain": [
        {
          "start": "com.ironsource.mobilcore.MobileCoreReport.onStartCommand(Landroid/content/Intent;II)I",
          "target": "invokevirtual \u003c Application, Landroid/view/View, setOnClickListener(Landroid/view/View$OnClickListener;)V \u003e@94",
          "type": "service",
          "component": "com.ironsource.mobilcore.MobileCoreReport",
          "constraintsFile": "constraints47_0.py",
          "variables": {},
          "stringMap": {
            "7000": "download",
            "7001": "null"
          },
          "strings": {
            "IAAv1": ""
          }
        },
        {
          "start": "com.ironsource.mobilcore.G$1.onClick(Landroid/view/View;)V",
          "target": "invokeinterface \u003c Application, Lorg/apache/http/client/HttpClient, execute(Lorg/apache/http/client/methods/HttpUriRequest;)Lorg/apache/http/HttpResponse; \u003e@26",
          "type": "ui",
          "activities": [
            "com.jb.gokeyboard.theme.BestThemes.happy.Base"
          ],
          "listener": "com.ironsource.mobilcore.G$1",
          "listenerMethod": "onClick",
          "uiType": "onClick",
          "constraintsFile": "constraints47_1.py",
          "variables": {},
          "stringMap": {},
          "strings": {}
        }
      ]
    },
    "48": {
      "startMethod": "com.ironsource.mobilcore.aU$1.onClick(Landroid/view/View;)V",
      "targetMethod": "org.apache.http.client.HttpClient.execute(Lorg/apache/http/client/methods/HttpUriRequest;)Lorg/apache/http/HttpResponse;",
      "eventChain": [
        {
          "start": "com.jb.gokeyboard.theme.BestThemes.happy.wallp.onCreate(Landroid/os/Bundle;)V",
          "target": "invokevirtual \u003c Application, Landroid/widget/LinearLayout, setOnClickListener(Landroid/view/View$OnClickListener;)V \u003e@442",
          "type": "activity",
          "component": "com.jb.gokeyboard.theme.BestThemes.happy.wallp"
        },
        {
          "start": "com.ironsource.mobilcore.aU$1.onClick(Landroid/view/View;)V",
          "target": "invokeinterface \u003c Application, Lorg/apache/http/client/HttpClient, execute(Lorg/apache/http/client/methods/HttpUriRequest;)Lorg/apache/http/HttpResponse; \u003e@220",
          "type": "ui",
          "activities": [
            "com.jb.gokeyboard.theme.BestThemes.happy.Base"
          ],
          "listener": "com.ironsource.mobilcore.aU$1",
          "listenerMethod": "onClick",
          "uiType": "onClick",
          "constraintsFile": "constraints48_0.py",
          "variables": {},
          "stringMap": {},
          "strings": {
            "IAAv1": ""
          }
        }
      ]
    },
    "49": {
      "startMethod": "com.ironsource.mobilcore.aU$1.onClick(Landroid/view/View;)V",
      "targetMethod": "org.apache.http.client.HttpClient.execute(Lorg/apache/http/client/methods/HttpUriRequest;)Lorg/apache/http/HttpResponse;",
      "eventChain": [
        {
          "start": "com.jb.gokeyboard.theme.BestThemes.happy.wallp.onCreate(Landroid/os/Bundle;)V",
          "target": "invokevirtual \u003c Application, Landroid/widget/LinearLayout, setOnClickListener(Landroid/view/View$OnClickListener;)V \u003e@442",
          "type": "activity",
          "component": "com.jb.gokeyboard.theme.BestThemes.happy.wallp"
        },
        {
          "start": "com.ironsource.mobilcore.aU$1.onClick(Landroid/view/View;)V",
          "target": "invokeinterface \u003c Application, Lorg/apache/http/client/HttpClient, execute(Lorg/apache/http/client/methods/HttpUriRequest;)Lorg/apache/http/HttpResponse; \u003e@26",
          "type": "ui",
          "activities": [
            "com.jb.gokeyboard.theme.BestThemes.happy.Base"
          ],
          "listener": "com.ironsource.mobilcore.aU$1",
          "listenerMethod": "onClick",
          "uiType": "onClick",
          "constraintsFile": "constraints49_0.py",
          "variables": {},
          "stringMap": {},
          "strings": {
            "IAAv1": ""
          }
        }
      ]
    },
    "50": {
      "startMethod": "com.ironsource.mobilcore.aR$7.onClick(Landroid/view/View;)V",
      "targetMethod": "org.apache.http.client.HttpClient.execute(Lorg/apache/http/client/methods/HttpUriRequest;)Lorg/apache/http/HttpResponse;",
      "eventChain": [
        {
          "start": "com.jb.gokeyboard.theme.BestThemes.happy.wallp.onCreate(Landroid/os/Bundle;)V",
          "target": "invokevirtual \u003c Application, Landroid/widget/ImageView, setOnClickListener(Landroid/view/View$OnClickListener;)V \u003e@809",
          "type": "activity",
          "component": "com.jb.gokeyboard.theme.BestThemes.happy.wallp"
        },
        {
          "start": "com.ironsource.mobilcore.aR$7.onClick(Landroid/view/View;)V",
          "target": "invokeinterface \u003c Application, Lorg/apache/http/client/HttpClient, execute(Lorg/apache/http/client/methods/HttpUriRequest;)Lorg/apache/http/HttpResponse; \u003e@26",
          "type": "ui",
          "activities": [
            "com.jb.gokeyboard.theme.BestThemes.happy.Base"
          ],
          "listener": "com.ironsource.mobilcore.aR$7",
          "listenerMethod": "onClick",
          "uiType": "onClick"
        }
      ]
    },
    "51": {
      "startMethod": "com.ironsource.mobilcore.aR$7.onClick(Landroid/view/View;)V",
      "targetMethod": "org.apache.http.client.HttpClient.execute(Lorg/apache/http/client/methods/HttpUriRequest;)Lorg/apache/http/HttpResponse;",
      "eventChain": [
        {
          "start": "com.jb.gokeyboard.theme.BestThemes.happy.wallp.onCreate(Landroid/os/Bundle;)V",
          "target": "invokevirtual \u003c Application, Landroid/widget/ImageView, setOnClickListener(Landroid/view/View$OnClickListener;)V \u003e@809",
          "type": "activity",
          "component": "com.jb.gokeyboard.theme.BestThemes.happy.wallp"
        },
        {
          "start": "com.ironsource.mobilcore.aR$7.onClick(Landroid/view/View;)V",
          "target": "invokeinterface \u003c Application, Lorg/apache/http/client/HttpClient, execute(Lorg/apache/http/client/methods/HttpUriRequest;)Lorg/apache/http/HttpResponse; \u003e@220",
          "type": "ui",
          "activities": [
            "com.jb.gokeyboard.theme.BestThemes.happy.Base"
          ],
          "listener": "com.ironsource.mobilcore.aR$7",
          "listenerMethod": "onClick",
          "uiType": "onClick"
        }
      ]
    },
    "52": {
      "startMethod": "com.ironsource.mobilcore.aU$2.onClick(Landroid/view/View;)V",
      "targetMethod": "org.apache.http.client.HttpClient.execute(Lorg/apache/http/client/methods/HttpUriRequest;)Lorg/apache/http/HttpResponse;",
      "eventChain": [
        {
          "start": "com.jb.gokeyboard.theme.BestThemes.happy.wallp.onCreate(Landroid/os/Bundle;)V",
          "target": "invokevirtual \u003c Application, Landroid/widget/ImageView, setOnClickListener(Landroid/view/View$OnClickListener;)V \u003e@1005",
          "type": "activity",
          "component": "com.jb.gokeyboard.theme.BestThemes.happy.wallp"
        },
        {
          "start": "com.ironsource.mobilcore.aP$2.onDownloadStart(Ljava/lang/String;Ljava/lang/String;Ljava/lang/String;Ljava/lang/String;J)V",
          "target": "",
          "type": "",
          "constraintsFile": "constraints52_0.py",
          "variables": {
            "\u003cChainedInput1\u003e.a().i": "IAAv2"
          },
          "stringMap": {},
          "strings": {}
        },
        {
          "start": "com.ironsource.mobilcore.aU$2.onClick(Landroid/view/View;)V",
          "target": "invokeinterface \u003c Application, Lorg/apache/http/client/HttpClient, execute(Lorg/apache/http/client/methods/HttpUriRequest;)Lorg/apache/http/HttpResponse; \u003e@220",
          "type": "ui",
          "activities": [
            "com.jb.gokeyboard.theme.BestThemes.happy.Base"
          ],
          "listener": "com.ironsource.mobilcore.aU$2",
          "listenerMethod": "onClick",
          "uiType": "onClick",
          "constraintsFile": "constraints52_1.py",
          "variables": {},
          "stringMap": {},
          "strings": {}
        }
      ]
    },
    "53": {
      "startMethod": "com.ironsource.mobilcore.aU$2.onClick(Landroid/view/View;)V",
      "targetMethod": "org.apache.http.client.HttpClient.execute(Lorg/apache/http/client/methods/HttpUriRequest;)Lorg/apache/http/HttpResponse;",
      "eventChain": [
        {
          "start": "com.jb.gokeyboard.theme.BestThemes.happy.wallp.onCreate(Landroid/os/Bundle;)V",
          "target": "invokevirtual \u003c Application, Landroid/widget/ImageView, setOnClickListener(Landroid/view/View$OnClickListener;)V \u003e@1005",
          "type": "activity",
          "component": "com.jb.gokeyboard.theme.BestThemes.happy.wallp"
        },
        {
          "start": "com.ironsource.mobilcore.aP$2.onDownloadStart(Ljava/lang/String;Ljava/lang/String;Ljava/lang/String;Ljava/lang/String;J)V",
          "target": "",
          "type": "",
          "constraintsFile": "constraints53_0.py",
          "variables": {
            "\u003cChainedInput1\u003e.a().i": "IAAv2"
          },
          "stringMap": {},
          "strings": {}
        },
        {
          "start": "com.ironsource.mobilcore.aU$2.onClick(Landroid/view/View;)V",
          "target": "invokeinterface \u003c Application, Lorg/apache/http/client/HttpClient, execute(Lorg/apache/http/client/methods/HttpUriRequest;)Lorg/apache/http/HttpResponse; \u003e@26",
          "type": "ui",
          "activities": [
            "com.jb.gokeyboard.theme.BestThemes.happy.Base"
          ],
          "listener": "com.ironsource.mobilcore.aU$2",
          "listenerMethod": "onClick",
          "uiType": "onClick",
          "constraintsFile": "constraints53_1.py",
          "variables": {},
          "stringMap": {},
          "strings": {}
        }
      ]
    },
    "54": {
      "startMethod": "com.jb.gokeyboard.theme.BestThemes.happy.Base.onClick(Landroid/view/View;)V",
      "targetMethod": "org.apache.http.client.HttpClient.execute(Lorg/apache/http/client/methods/HttpUriRequest;)Lorg/apache/http/HttpResponse;",
      "eventChain": [
        {
          "start": "com.jb.gokeyboard.theme.BestThemes.happy.Base.onCreate(Landroid/os/Bundle;)V",
          "target": "invokevirtual \u003c Application, Landroid/widget/Button, setOnClickListener(Landroid/view/View$OnClickListener;)V \u003e@64",
          "type": "activity",
          "component": "com.jb.gokeyboard.theme.BestThemes.happy.Base"
        },
        {
          "start": "com.ironsource.mobilcore.G$1.onClick(Landroid/view/View;)V",
          "target": "PC@13",
          "type": "ui",
          "activities": [
            "com.jb.gokeyboard.theme.BestThemes.happy.Base"
          ],
          "listener": "com.ironsource.mobilcore.G$1",
          "listenerMethod": "onClick",
          "uiType": "onClick",
          "constraintsFile": "constraints54_0.py",
          "variables": {},
          "stringMap": {},
          "strings": {}
        },
        {
          "start": "com.ironsource.mobilcore.G$1.onClick(Landroid/view/View;)V",
          "target": "PC@8",
          "type": "ui",
          "activities": [
            "com.jb.gokeyboard.theme.BestThemes.happy.Base"
          ],
          "listener": "com.ironsource.mobilcore.G$1",
          "listenerMethod": "onClick",
          "uiType": "onClick",
          "constraintsFile": "constraints54_1.py",
          "variables": {},
          "stringMap": {},
          "strings": {}
        },
        {
          "start": "com.jb.gokeyboard.theme.BestThemes.happy.Base.onClick(Landroid/view/View;)V",
          "target": "invokeinterface \u003c Application, Lorg/apache/http/client/HttpClient, execute(Lorg/apache/http/client/methods/HttpUriRequest;)Lorg/apache/http/HttpResponse; \u003e@220",
          "type": "ui",
          "activities": [
            "com.jb.gokeyboard.theme.BestThemes.happy.Base"
          ],
          "listener": "com.jb.gokeyboard.theme.BestThemes.happy.Base",
          "listenerMethod": "onClick",
          "uiType": "onClick",
          "constraintsFile": "constraints54_2.py",
          "variables": {
            "\u003cChainedInput1\u003e.getId()": "IAAv0"
          },
          "stringMap": {},
          "strings": {}
        }
      ]
    },
    "55": {
      "startMethod": "com.jb.gokeyboard.theme.BestThemes.happy.Base.onClick(Landroid/view/View;)V",
      "targetMethod": "org.apache.http.client.HttpClient.execute(Lorg/apache/http/client/methods/HttpUriRequest;)Lorg/apache/http/HttpResponse;",
      "eventChain": [
        {
          "start": "com.jb.gokeyboard.theme.BestThemes.happy.Base.onCreate(Landroid/os/Bundle;)V",
          "target": "invokevirtual \u003c Application, Landroid/widget/Button, setOnClickListener(Landroid/view/View$OnClickListener;)V \u003e@64",
          "type": "activity",
          "component": "com.jb.gokeyboard.theme.BestThemes.happy.Base"
        },
        {
          "start": "com.ironsource.mobilcore.G$1.onClick(Landroid/view/View;)V",
          "target": "PC@13",
          "type": "ui",
          "activities": [
            "com.jb.gokeyboard.theme.BestThemes.happy.Base"
          ],
          "listener": "com.ironsource.mobilcore.G$1",
          "listenerMethod": "onClick",
          "uiType": "onClick",
          "constraintsFile": "constraints55_0.py",
          "variables": {},
          "stringMap": {},
          "strings": {}
        },
        {
          "start": "com.ironsource.mobilcore.G$1.onClick(Landroid/view/View;)V",
          "target": "PC@8",
          "type": "ui",
          "activities": [
            "com.jb.gokeyboard.theme.BestThemes.happy.Base"
          ],
          "listener": "com.ironsource.mobilcore.G$1",
          "listenerMethod": "onClick",
          "uiType": "onClick",
          "constraintsFile": "constraints55_1.py",
          "variables": {},
          "stringMap": {},
          "strings": {}
        },
        {
          "start": "com.jb.gokeyboard.theme.BestThemes.happy.Base.onClick(Landroid/view/View;)V",
          "target": "invokeinterface \u003c Application, Lorg/apache/http/client/HttpClient, execute(Lorg/apache/http/client/methods/HttpUriRequest;)Lorg/apache/http/HttpResponse; \u003e@26",
          "type": "ui",
          "activities": [
            "com.jb.gokeyboard.theme.BestThemes.happy.Base"
          ],
          "listener": "com.jb.gokeyboard.theme.BestThemes.happy.Base",
          "listenerMethod": "onClick",
          "uiType": "onClick",
          "constraintsFile": "constraints55_2.py",
          "variables": {
            "\u003cChainedInput1\u003e.getId()": "IAAv0"
          },
          "stringMap": {},
          "strings": {}
        }
      ]
    },
    "56": {
      "startMethod": "com.ironsource.mobilcore.W$2.onClick(Landroid/view/View;)V",
      "targetMethod": "org.apache.http.client.HttpClient.execute(Lorg/apache/http/client/methods/HttpUriRequest;)Lorg/apache/http/HttpResponse;",
      "eventChain": [
        {
          "start": "com.ironsource.mobilcore.MobileCoreReport.onStartCommand(Landroid/content/Intent;II)I",
          "target": "invokevirtual \u003c Application, Landroid/widget/ImageView, setOnClickListener(Landroid/view/View$OnClickListener;)V \u003e@62",
          "type": "service",
          "component": "com.ironsource.mobilcore.MobileCoreReport",
          "constraintsFile": "constraints56_0.py",
          "variables": {},
          "stringMap": {
            "7000": "download"
          },
          "strings": {
            "IAAv1": ""
          }
        },
        {
          "start": "com.ironsource.mobilcore.W$2.onClick(Landroid/view/View;)V",
          "target": "invokeinterface \u003c Application, Lorg/apache/http/client/HttpClient, execute(Lorg/apache/http/client/methods/HttpUriRequest;)Lorg/apache/http/HttpResponse; \u003e@26",
          "type": "ui",
          "activities": [
            "com.jb.gokeyboard.theme.BestThemes.happy.Base"
          ],
          "listener": "com.ironsource.mobilcore.W$2",
          "listenerMethod": "onClick",
          "uiType": "onClick",
          "constraintsFile": "constraints56_1.py",
          "variables": {},
          "stringMap": {},
          "strings": {}
        }
      ]
    },
    "57": {
      "startMethod": "com.ironsource.mobilcore.W$2.onClick(Landroid/view/View;)V",
      "targetMethod": "org.apache.http.client.HttpClient.execute(Lorg/apache/http/client/methods/HttpUriRequest;)Lorg/apache/http/HttpResponse;",
      "eventChain": [
        {
          "start": "com.ironsource.mobilcore.MobileCoreReport.onStartCommand(Landroid/content/Intent;II)I",
          "target": "invokevirtual \u003c Application, Landroid/widget/ImageView, setOnClickListener(Landroid/view/View$OnClickListener;)V \u003e@62",
          "type": "service",
          "component": "com.ironsource.mobilcore.MobileCoreReport",
          "constraintsFile": "constraints57_0.py",
          "variables": {},
          "stringMap": {
            "7000": "download"
          },
          "strings": {
            "IAAv1": ""
          }
        },
        {
          "start": "com.ironsource.mobilcore.W$2.onClick(Landroid/view/View;)V",
          "target": "invokeinterface \u003c Application, Lorg/apache/http/client/HttpClient, execute(Lorg/apache/http/client/methods/HttpUriRequest;)Lorg/apache/http/HttpResponse; \u003e@220",
          "type": "ui",
          "activities": [
            "com.jb.gokeyboard.theme.BestThemes.happy.Base"
          ],
          "listener": "com.ironsource.mobilcore.W$2",
          "listenerMethod": "onClick",
          "uiType": "onClick",
          "constraintsFile": "constraints57_1.py",
          "variables": {},
          "stringMap": {},
          "strings": {}
        }
      ]
    },
    "58": {
      "startMethod": "com.ironsource.mobilcore.BaseFlowBasedAdUnit$1.onReceive(Landroid/content/Context;Landroid/content/Intent;)V",
      "targetMethod": "org.apache.http.client.HttpClient.execute(Lorg/apache/http/client/methods/HttpUriRequest;)Lorg/apache/http/HttpResponse;",
      "eventChain": [
        {
          "start": "com.jb.gokeyboard.theme.BestThemes.happy.Base.onCreate(Landroid/os/Bundle;)V",
          "target": "invokevirtual \u003c Application, Landroid/content/Context, registerReceiver(Landroid/content/BroadcastReceiver;Landroid/content/IntentFilter;)Landroid/content/Intent; \u003e@124",
          "type": "activity",
          "component": "com.jb.gokeyboard.theme.BestThemes.happy.Base",
          "constraintsFile": "constraints58_0.py",
          "variables": {
            "SharedPreferences\u003cprefs_first_run1.0\u003e.valueOf().booleanValue()": "IAAv6"
          },
          "stringMap": {},
          "strings": {}
        },
        {
          "start": "com.ironsource.mobilcore.BaseFlowBasedAdUnit$1.onReceive(Landroid/content/Context;Landroid/content/Intent;)V",
          "target": "invokeinterface \u003c Application, Lorg/apache/http/client/HttpClient, execute(Lorg/apache/http/client/methods/HttpUriRequest;)Lorg/apache/http/HttpResponse; \u003e@26",
          "type": "sms",
          "constraintsFile": "constraints58_1.py",
          "variables": {},
          "stringMap": {},
          "strings": {}
        }
      ]
    },
    "59": {
      "startMethod": "com.ironsource.mobilcore.BaseFlowBasedAdUnit$1.onReceive(Landroid/content/Context;Landroid/content/Intent;)V",
      "targetMethod": "org.apache.http.client.HttpClient.execute(Lorg/apache/http/client/methods/HttpUriRequest;)Lorg/apache/http/HttpResponse;",
      "eventChain": [
        {
          "start": "com.jb.gokeyboard.theme.BestThemes.happy.Base.onCreate(Landroid/os/Bundle;)V",
          "target": "invokevirtual \u003c Application, Landroid/content/Context, registerReceiver(Landroid/content/BroadcastReceiver;Landroid/content/IntentFilter;)Landroid/content/Intent; \u003e@124",
          "type": "activity",
          "component": "com.jb.gokeyboard.theme.BestThemes.happy.Base",
          "constraintsFile": "constraints59_0.py",
          "variables": {
            "SharedPreferences\u003cprefs_first_run1.0\u003e.valueOf().booleanValue()": "IAAv6"
          },
          "stringMap": {},
          "strings": {}
        },
        {
          "start": "com.ironsource.mobilcore.BaseFlowBasedAdUnit$1.onReceive(Landroid/content/Context;Landroid/content/Intent;)V",
          "target": "invokeinterface \u003c Application, Lorg/apache/http/client/HttpClient, execute(Lorg/apache/http/client/methods/HttpUriRequest;)Lorg/apache/http/HttpResponse; \u003e@220",
          "type": "sms",
          "constraintsFile": "constraints59_1.py",
          "variables": {},
          "stringMap": {},
          "strings": {}
        }
      ]
    },
    "60": {
      "startMethod": "com.ironsource.mobilcore.BaseFlowBasedAdUnit$1.onReceive(Landroid/content/Context;Landroid/content/Intent;)V",
      "targetMethod": "org.apache.http.client.HttpClient.execute(Lorg/apache/http/client/methods/HttpUriRequest;)Lorg/apache/http/HttpResponse;",
      "eventChain": [
        {
          "start": "com.jb.gokeyboard.theme.BestThemes.happy.Base.onCreate(Landroid/os/Bundle;)V",
          "target": "invokevirtual \u003c Application, Landroid/content/Context, registerReceiver(Landroid/content/BroadcastReceiver;Landroid/content/IntentFilter;)Landroid/content/Intent; \u003e@124",
          "type": "activity",
          "component": "com.jb.gokeyboard.theme.BestThemes.happy.Base",
          "constraintsFile": "constraints60_0.py",
          "variables": {
            "SharedPreferences\u003cprefs_first_run1.0\u003e.valueOf().booleanValue()": "IAAv6"
          },
          "stringMap": {},
          "strings": {}
        },
        {
          "start": "com.ironsource.mobilcore.BaseFlowBasedAdUnit$1.onReceive(Landroid/content/Context;Landroid/content/Intent;)V",
          "target": "invokeinterface \u003c Application, Lorg/apache/http/client/HttpClient, execute(Lorg/apache/http/client/methods/HttpUriRequest;)Lorg/apache/http/HttpResponse; \u003e@169",
          "type": "sms",
          "constraintsFile": "constraints60_1.py",
          "variables": {},
          "stringMap": {},
          "strings": {}
        }
      ]
    },
    "61": {
      "startMethod": "com.ironsource.mobilcore.MCConnectivityReceiver.onReceive(Landroid/content/Context;Landroid/content/Intent;)V",
      "targetMethod": "org.apache.http.client.HttpClient.execute(Lorg/apache/http/client/methods/HttpUriRequest;)Lorg/apache/http/HttpResponse;",
      "eventChain": [
        {
          "start": "com.ironsource.mobilcore.MCConnectivityReceiver.onReceive(Landroid/content/Context;Landroid/content/Intent;)V",
          "target": "invokeinterface \u003c Application, Lorg/apache/http/client/HttpClient, execute(Lorg/apache/http/client/methods/HttpUriRequest;)Lorg/apache/http/HttpResponse; \u003e@26",
          "type": "sms",
          "constraintsFile": "constraints61_0.py",
          "variables": {
            "\u003cInput1\u003e.getSystemService().getActiveNetworkInfo()": "IAAv0",
            "\u003cInput1\u003e.getSystemService().getActiveNetworkInfo().isConnectedOrConnecting()": "IAAv1"
          },
          "stringMap": {},
          "strings": {}
        }
      ]
    },
    "62": {
      "startMethod": "com.ironsource.mobilcore.MCConnectivityReceiver.onReceive(Landroid/content/Context;Landroid/content/Intent;)V",
      "targetMethod": "org.apache.http.client.HttpClient.execute(Lorg/apache/http/client/methods/HttpUriRequest;)Lorg/apache/http/HttpResponse;",
      "eventChain": [
        {
          "start": "com.ironsource.mobilcore.MCConnectivityReceiver.onReceive(Landroid/content/Context;Landroid/content/Intent;)V",
          "target": "invokeinterface \u003c Application, Lorg/apache/http/client/HttpClient, execute(Lorg/apache/http/client/methods/HttpUriRequest;)Lorg/apache/http/HttpResponse; \u003e@220",
          "type": "sms",
          "constraintsFile": "constraints62_0.py",
          "variables": {
            "\u003cInput1\u003e.getSystemService().getActiveNetworkInfo()": "IAAv0",
            "\u003cInput1\u003e.getSystemService().getActiveNetworkInfo().isConnectedOrConnecting()": "IAAv1"
          },
          "stringMap": {},
          "strings": {}
        }
      ]
    },
    "63": {
      "startMethod": "com.ironsource.mobilcore.aM.onTouch(Landroid/view/View;Landroid/view/MotionEvent;)Z",
      "targetMethod": "org.apache.http.client.HttpClient.execute(Lorg/apache/http/client/methods/HttpUriRequest;)Lorg/apache/http/HttpResponse;",
      "eventChain": [
        {
          "start": "com.ironsource.mobilcore.MobileCoreReport.onStartCommand(Landroid/content/Intent;II)I",
          "target": "invokevirtual \u003c Application, Lcom/ironsource/mobilcore/aM, setOnTouchListener(Landroid/view/View$OnTouchListener;)V \u003e@28",
          "type": "service",
          "component": "com.ironsource.mobilcore.MobileCoreReport",
          "constraintsFile": "constraints63_0.py",
          "variables": {},
          "stringMap": {
            "7000": "download",
            "7001": "null"
          },
          "strings": {
            "IAAv1": ""
          }
        },
        {
          "start": "com.ironsource.mobilcore.aM.onTouch(Landroid/view/View;Landroid/view/MotionEvent;)Z",
          "target": "invokeinterface \u003c Application, Lorg/apache/http/client/HttpClient, execute(Lorg/apache/http/client/methods/HttpUriRequest;)Lorg/apache/http/HttpResponse; \u003e@220",
          "type": "ui",
          "activities": [
            "com.jb.gokeyboard.theme.BestThemes.happy.Base"
          ],
          "listener": "com.ironsource.mobilcore.aM",
          "listenerMethod": "onTouch",
          "uiType": "onTouch",
          "constraintsFile": "constraints63_1.py",
          "variables": {
            "\u003cChainedInput2\u003e.getRawX()": "IAAv2",
            "\u003cChainedInput2\u003e.getAction()": "IAAv0"
          },
          "stringMap": {},
          "strings": {}
        }
      ]
    },
    "64": {
      "startMethod": "com.ironsource.mobilcore.aM.onTouch(Landroid/view/View;Landroid/view/MotionEvent;)Z",
      "targetMethod": "org.apache.http.client.HttpClient.execute(Lorg/apache/http/client/methods/HttpUriRequest;)Lorg/apache/http/HttpResponse;",
      "eventChain": [
        {
          "start": "com.ironsource.mobilcore.MobileCoreReport.onStartCommand(Landroid/content/Intent;II)I",
          "target": "invokevirtual \u003c Application, Lcom/ironsource/mobilcore/aM, setOnTouchListener(Landroid/view/View$OnTouchListener;)V \u003e@28",
          "type": "service",
          "component": "com.ironsource.mobilcore.MobileCoreReport",
          "constraintsFile": "constraints64_0.py",
          "variables": {},
          "stringMap": {
            "7000": "download",
            "7001": "null"
          },
          "strings": {
            "IAAv1": ""
          }
        },
        {
          "start": "com.ironsource.mobilcore.aM.onTouch(Landroid/view/View;Landroid/view/MotionEvent;)Z",
          "target": "invokeinterface \u003c Application, Lorg/apache/http/client/HttpClient, execute(Lorg/apache/http/client/methods/HttpUriRequest;)Lorg/apache/http/HttpResponse; \u003e@26",
          "type": "ui",
          "activities": [
            "com.jb.gokeyboard.theme.BestThemes.happy.Base"
          ],
          "listener": "com.ironsource.mobilcore.aM",
          "listenerMethod": "onTouch",
          "uiType": "onTouch",
          "constraintsFile": "constraints64_1.py",
          "variables": {
            "\u003cChainedInput2\u003e.getRawX()": "IAAv2",
            "\u003cChainedInput2\u003e.getAction()": "IAAv0"
          },
          "stringMap": {},
          "strings": {}
        }
      ]
    },
    "65": {
      "startMethod": "com.ironsource.mobilcore.aR$1.onAnimationEnd(Landroid/view/animation/Animation;)V",
      "targetMethod": "org.apache.http.client.HttpClient.execute(Lorg/apache/http/client/methods/HttpUriRequest;)Lorg/apache/http/HttpResponse;",
      "eventChain": [
        {
          "start": "com.ironsource.mobilcore.aR$1.onAnimationEnd(Landroid/view/animation/Animation;)V",
          "target": "invokeinterface \u003c Application, Lorg/apache/http/client/HttpClient, execute(Lorg/apache/http/client/methods/HttpUriRequest;)Lorg/apache/http/HttpResponse; \u003e@26",
          "type": "ui",
          "activities": [
            "com.jb.gokeyboard.theme.BestThemes.happy.Base"
          ],
          "listener": "com.ironsource.mobilcore.aR$1",
          "listenerMethod": "onAnimationEnd",
          "uiType": "onAnimationEnd",
          "constraintsFile": "constraints65_0.py",
          "variables": {},
          "stringMap": {},
          "strings": {}
        }
      ]
    },
    "66": {
      "startMethod": "com.ironsource.mobilcore.aR$1.onAnimationEnd(Landroid/view/animation/Animation;)V",
      "targetMethod": "org.apache.http.client.HttpClient.execute(Lorg/apache/http/client/methods/HttpUriRequest;)Lorg/apache/http/HttpResponse;",
      "eventChain": [
        {
          "start": "com.ironsource.mobilcore.aR$1.onAnimationEnd(Landroid/view/animation/Animation;)V",
          "target": "invokeinterface \u003c Application, Lorg/apache/http/client/HttpClient, execute(Lorg/apache/http/client/methods/HttpUriRequest;)Lorg/apache/http/HttpResponse; \u003e@220",
          "type": "ui",
          "activities": [
            "com.jb.gokeyboard.theme.BestThemes.happy.Base"
          ],
          "listener": "com.ironsource.mobilcore.aR$1",
          "listenerMethod": "onAnimationEnd",
          "uiType": "onAnimationEnd",
          "constraintsFile": "constraints66_0.py",
          "variables": {},
          "stringMap": {},
          "strings": {}
        }
      ]
    },
    "67": {
      "startMethod": "com.ironsource.mobilcore.aR$2.onAnimationEnd(Landroid/view/animation/Animation;)V",
      "targetMethod": "org.apache.http.client.HttpClient.execute(Lorg/apache/http/client/methods/HttpUriRequest;)Lorg/apache/http/HttpResponse;",
      "eventChain": [
        {
          "start": "com.ironsource.mobilcore.aR$6.onClick(Landroid/view/View;)V",
          "target": "invokevirtual \u003c Application, Landroid/view/animation/AlphaAnimation, setAnimationListener(Landroid/view/animation/Animation$AnimationListener;)V \u003e@264",
          "type": "ui",
          "activities": [
            "com.jb.gokeyboard.theme.BestThemes.happy.Base"
          ],
          "listener": "com.ironsource.mobilcore.aR$6",
          "listenerMethod": "onClick",
          "uiType": "onClick",
          "constraintsFile": "constraints67_0.py",
          "variables": {},
          "stringMap": {},
          "strings": {
            "IAAv0": ""
          }
        },
        {
          "start": "com.ironsource.mobilcore.aR$2.onAnimationEnd(Landroid/view/animation/Animation;)V",
          "target": "invokeinterface \u003c Application, Lorg/apache/http/client/HttpClient, execute(Lorg/apache/http/client/methods/HttpUriRequest;)Lorg/apache/http/HttpResponse; \u003e@26",
          "type": "ui",
          "activities": [
            "com.jb.gokeyboard.theme.BestThemes.happy.Base"
          ],
          "listener": "com.ironsource.mobilcore.aR$2",
          "listenerMethod": "onAnimationEnd",
          "uiType": "onAnimationEnd",
          "constraintsFile": "constraints67_1.py",
          "variables": {},
          "stringMap": {},
          "strings": {}
        }
      ]
    },
    "68": {
      "startMethod": "com.ironsource.mobilcore.aR$2.onAnimationEnd(Landroid/view/animation/Animation;)V",
      "targetMethod": "org.apache.http.client.HttpClient.execute(Lorg/apache/http/client/methods/HttpUriRequest;)Lorg/apache/http/HttpResponse;",
      "eventChain": [
        {
          "start": "com.ironsource.mobilcore.aR$6.onClick(Landroid/view/View;)V",
          "target": "invokevirtual \u003c Application, Landroid/view/animation/AlphaAnimation, setAnimationListener(Landroid/view/animation/Animation$AnimationListener;)V \u003e@264",
          "type": "ui",
          "activities": [
            "com.jb.gokeyboard.theme.BestThemes.happy.Base"
          ],
          "listener": "com.ironsource.mobilcore.aR$6",
          "listenerMethod": "onClick",
          "uiType": "onClick",
          "constraintsFile": "constraints68_0.py",
          "variables": {},
          "stringMap": {},
          "strings": {
            "IAAv0": ""
          }
        },
        {
          "start": "com.ironsource.mobilcore.aR$2.onAnimationEnd(Landroid/view/animation/Animation;)V",
          "target": "invokeinterface \u003c Application, Lorg/apache/http/client/HttpClient, execute(Lorg/apache/http/client/methods/HttpUriRequest;)Lorg/apache/http/HttpResponse; \u003e@220",
          "type": "ui",
          "activities": [
            "com.jb.gokeyboard.theme.BestThemes.happy.Base"
          ],
          "listener": "com.ironsource.mobilcore.aR$2",
          "listenerMethod": "onAnimationEnd",
          "uiType": "onAnimationEnd",
          "constraintsFile": "constraints68_1.py",
          "variables": {},
          "stringMap": {},
          "strings": {}
        }
      ]
    },
    "69": {
      "startMethod": "com.ironsource.mobilcore.C$5.onAnimationEnd(Landroid/view/animation/Animation;)V",
      "targetMethod": "org.apache.http.client.HttpClient.execute(Lorg/apache/http/client/methods/HttpUriRequest;)Lorg/apache/http/HttpResponse;",
      "eventChain": [
        {
          "start": "com.ironsource.mobilcore.C$5.onAnimationEnd(Landroid/view/animation/Animation;)V",
          "target": "invokeinterface \u003c Application, Lorg/apache/http/client/HttpClient, execute(Lorg/apache/http/client/methods/HttpUriRequest;)Lorg/apache/http/HttpResponse; \u003e@220",
          "type": "ui",
          "activities": [
            "com.jb.gokeyboard.theme.BestThemes.happy.Base"
          ],
          "listener": "com.ironsource.mobilcore.C$5",
          "listenerMethod": "onAnimationEnd",
          "uiType": "onAnimationEnd",
          "constraintsFile": "constraints69_0.py",
          "variables": {},
          "stringMap": {},
          "strings": {}
        }
      ]
    },
    "70": {
      "startMethod": "com.ironsource.mobilcore.C$5.onAnimationEnd(Landroid/view/animation/Animation;)V",
      "targetMethod": "org.apache.http.client.HttpClient.execute(Lorg/apache/http/client/methods/HttpUriRequest;)Lorg/apache/http/HttpResponse;",
      "eventChain": [
        {
          "start": "com.ironsource.mobilcore.C$5.onAnimationEnd(Landroid/view/animation/Animation;)V",
          "target": "invokeinterface \u003c Application, Lorg/apache/http/client/HttpClient, execute(Lorg/apache/http/client/methods/HttpUriRequest;)Lorg/apache/http/HttpResponse; \u003e@26",
          "type": "ui",
          "activities": [
            "com.jb.gokeyboard.theme.BestThemes.happy.Base"
          ],
          "listener": "com.ironsource.mobilcore.C$5",
          "listenerMethod": "onAnimationEnd",
          "uiType": "onAnimationEnd",
          "constraintsFile": "constraints70_0.py",
          "variables": {},
          "stringMap": {},
          "strings": {}
        }
      ]
    },
    "71": {
      "startMethod": "com.ironsource.mobilcore.aP$2.onDownloadStart(Ljava/lang/String;Ljava/lang/String;Ljava/lang/String;Ljava/lang/String;J)V",
      "targetMethod": "org.apache.http.client.HttpClient.execute(Lorg/apache/http/client/methods/HttpUriRequest;)Lorg/apache/http/HttpResponse;",
      "eventChain": [
        {
          "start": "com.ironsource.mobilcore.G$1.onClick(Landroid/view/View;)V",
          "target": "invokevirtual \u003c Application, Lcom/ironsource/mobilcore/aW, setDownloadListener(Landroid/webkit/DownloadListener;)V \u003e@108",
          "type": "ui",
          "activities": [
            "com.jb.gokeyboard.theme.BestThemes.happy.Base"
          ],
          "listener": "com.ironsource.mobilcore.G$1",
          "listenerMethod": "onClick",
          "uiType": "onClick",
          "constraintsFile": "constraints71_0.py",
          "variables": {},
          "stringMap": {},
          "strings": {}
        },
        {
          "start": "com.ironsource.mobilcore.aP$2.onDownloadStart(Ljava/lang/String;Ljava/lang/String;Ljava/lang/String;Ljava/lang/String;J)V",
          "target": "invokeinterface \u003c Application, Lorg/apache/http/client/HttpClient, execute(Lorg/apache/http/client/methods/HttpUriRequest;)Lorg/apache/http/HttpResponse; \u003e@26",
          "type": "",
          "constraintsFile": "constraints71_1.py",
          "variables": {
            "\u003cChainedInput1\u003e.a().SDK_INT": "IAAv3",
            "\u003cChainedInput1\u003e.a().i": "IAAv2"
          },
          "stringMap": {},
          "strings": {}
        }
      ]
    },
    "72": {
      "startMethod": "com.ironsource.mobilcore.aP$2.onDownloadStart(Ljava/lang/String;Ljava/lang/String;Ljava/lang/String;Ljava/lang/String;J)V",
      "targetMethod": "org.apache.http.client.HttpClient.execute(Lorg/apache/http/client/methods/HttpUriRequest;)Lorg/apache/http/HttpResponse;",
      "eventChain": [
        {
          "start": "com.ironsource.mobilcore.G$1.onClick(Landroid/view/View;)V",
          "target": "invokevirtual \u003c Application, Lcom/ironsource/mobilcore/aW, setDownloadListener(Landroid/webkit/DownloadListener;)V \u003e@108",
          "type": "ui",
          "activities": [
            "com.jb.gokeyboard.theme.BestThemes.happy.Base"
          ],
          "listener": "com.ironsource.mobilcore.G$1",
          "listenerMethod": "onClick",
          "uiType": "onClick",
          "constraintsFile": "constraints72_0.py",
          "variables": {},
          "stringMap": {},
          "strings": {}
        },
        {
          "start": "com.ironsource.mobilcore.aP$2.onDownloadStart(Ljava/lang/String;Ljava/lang/String;Ljava/lang/String;Ljava/lang/String;J)V",
          "target": "invokeinterface \u003c Application, Lorg/apache/http/client/HttpClient, execute(Lorg/apache/http/client/methods/HttpUriRequest;)Lorg/apache/http/HttpResponse; \u003e@220",
          "type": "",
          "constraintsFile": "constraints72_1.py",
          "variables": {
            "\u003cChainedInput1\u003e.a().SDK_INT": "IAAv3",
            "\u003cChainedInput1\u003e.a().i": "IAAv2"
          },
          "stringMap": {},
          "strings": {}
        }
      ]
    },
    "73": {
      "startMethod": "com.ironsource.mobilcore.l$2.onDownloadStart(Ljava/lang/String;Ljava/lang/String;Ljava/lang/String;Ljava/lang/String;J)V",
      "targetMethod": "org.apache.http.client.HttpClient.execute(Lorg/apache/http/client/methods/HttpUriRequest;)Lorg/apache/http/HttpResponse;",
      "eventChain": [
        {
          "start": "com.ironsource.mobilcore.E$1.onClick(Landroid/view/View;)V",
          "target": "invokevirtual \u003c Application, Landroid/webkit/WebView, setDownloadListener(Landroid/webkit/DownloadListener;)V \u003e@76",
          "type": "ui",
          "activities": [
            "com.jb.gokeyboard.theme.BestThemes.happy.Base"
          ],
          "listener": "com.ironsource.mobilcore.E$1",
          "listenerMethod": "onClick",
          "uiType": "onClick",
          "constraintsFile": "constraints73_0.py",
          "variables": {},
          "stringMap": {},
          "strings": {}
        },
        {
          "start": "com.ironsource.mobilcore.l$2.\u003cinit\u003e(Lcom/ironsource/mobilcore/l;Lcom/ironsource/mobilcore/n$a;Lorg/json/JSONObject;)V",
          "target": "PC@8",
          "type": "",
          "constraintsFile": "constraints73_1.py",
          "variables": {
            "\u003cChainedInput1\u003e.a().SDK_INT": "IAAv3",
            "\u003cInput2\u003e": "IAAv4",
            "\u003cChainedInput1\u003e.a().i": "IAAv2"
          },
          "stringMap": {},
          "strings": {}
        },
        {
          "start": "com.ironsource.mobilcore.l$2.onDownloadStart(Ljava/lang/String;Ljava/lang/String;Ljava/lang/String;Ljava/lang/String;J)V",
          "target": "invokeinterface \u003c Application, Lorg/apache/http/client/HttpClient, execute(Lorg/apache/http/client/methods/HttpUriRequest;)Lorg/apache/http/HttpResponse; \u003e@26",
          "type": "",
          "constraintsFile": "constraints73_2.py",
          "variables": {
            "\u003cChainedInput1\u003e.a().SDK_INT": "IAAv3",
            "\u003cChainedInput1\u003e.a().i": "IAAv2"
          },
          "stringMap": {},
          "strings": {}
        }
      ]
    },
    "74": {
      "startMethod": "com.ironsource.mobilcore.l$2.onDownloadStart(Ljava/lang/String;Ljava/lang/String;Ljava/lang/String;Ljava/lang/String;J)V",
      "targetMethod": "org.apache.http.client.HttpClient.execute(Lorg/apache/http/client/methods/HttpUriRequest;)Lorg/apache/http/HttpResponse;",
      "eventChain": [
        {
          "start": "com.ironsource.mobilcore.E$1.onClick(Landroid/view/View;)V",
          "target": "invokevirtual \u003c Application, Landroid/webkit/WebView, setDownloadListener(Landroid/webkit/DownloadListener;)V \u003e@76",
          "type": "ui",
          "activities": [
            "com.jb.gokeyboard.theme.BestThemes.happy.Base"
          ],
          "listener": "com.ironsource.mobilcore.E$1",
          "listenerMethod": "onClick",
          "uiType": "onClick",
          "constraintsFile": "constraints74_0.py",
          "variables": {},
          "stringMap": {},
          "strings": {}
        },
        {
          "start": "com.ironsource.mobilcore.l$2.\u003cinit\u003e(Lcom/ironsource/mobilcore/l;Lcom/ironsource/mobilcore/n$a;Lorg/json/JSONObject;)V",
          "target": "PC@8",
          "type": "",
          "constraintsFile": "constraints74_1.py",
          "variables": {
            "\u003cChainedInput1\u003e.a().SDK_INT": "IAAv3",
            "\u003cInput2\u003e": "IAAv4",
            "\u003cChainedInput1\u003e.a().i": "IAAv2"
          },
          "stringMap": {},
          "strings": {}
        },
        {
          "start": "com.ironsource.mobilcore.l$2.onDownloadStart(Ljava/lang/String;Ljava/lang/String;Ljava/lang/String;Ljava/lang/String;J)V",
          "target": "invokeinterface \u003c Application, Lorg/apache/http/client/HttpClient, execute(Lorg/apache/http/client/methods/HttpUriRequest;)Lorg/apache/http/HttpResponse; \u003e@220",
          "type": "",
          "constraintsFile": "constraints74_2.py",
          "variables": {
            "\u003cChainedInput1\u003e.a().SDK_INT": "IAAv3",
            "\u003cChainedInput1\u003e.a().i": "IAAv2"
          },
          "stringMap": {},
          "strings": {}
        }
      ]
    }
  }
}