{
  "packageName": "com.androidemu.nomad",
  "mainActivity": "com.androidemu.nomad.MainActivity",
  "callPaths": {
    "0": {
      "startMethod": "com.androidemu.nomad.MainActivity.onCreate(Landroid/os/Bundle;)V",
      "targetMethod": "org.apache.http.client.HttpClient.execute(Lorg/apache/http/client/methods/HttpUriRequest;)Lorg/apache/http/HttpResponse;",
      "eventChain": [
        {
          "start": "com.androidemu.nomad.MainActivity.onCreate(Landroid/os/Bundle;)V",
          "target": "invokeinterface \u003c Application, Lorg/apache/http/client/HttpClient, execute(Lorg/apache/http/client/methods/HttpUriRequest;)Lorg/apache/http/HttpResponse; \u003e@404",
          "type": "activity",
          "component": "com.androidemu.nomad.MainActivity"
        }
      ]
    },
    "1": {
      "startMethod": "com.androidemu.nomad.MainActivity.onCreate(Landroid/os/Bundle;)V",
      "targetMethod": "org.apache.http.client.HttpClient.execute(Lorg/apache/http/client/methods/HttpUriRequest;)Lorg/apache/http/HttpResponse;",
      "eventChain": [
        {
          "start": "com.androidemu.nomad.MainActivity.onCreate(Landroid/os/Bundle;)V",
          "target": "invokeinterface \u003c Application, Lorg/apache/http/client/HttpClient, execute(Lorg/apache/http/client/methods/HttpUriRequest;)Lorg/apache/http/HttpResponse; \u003e@89",
          "type": "activity",
          "component": "com.androidemu.nomad.MainActivity"
        }
      ]
    },
    "2": {
      "startMethod": "com.androidemu.nomad.MainActivity.onCreate(Landroid/os/Bundle;)V",
      "targetMethod": "org.apache.http.client.HttpClient.execute(Lorg/apache/http/client/methods/HttpUriRequest;)Lorg/apache/http/HttpResponse;",
      "eventChain": [
        {
          "start": "com.androidemu.nomad.MainActivity.onCreate(Landroid/os/Bundle;)V",
          "target": "invokeinterface \u003c Application, Lorg/apache/http/client/HttpClient, execute(Lorg/apache/http/client/methods/HttpUriRequest;)Lorg/apache/http/HttpResponse; \u003e@145",
          "type": "activity",
          "component": "com.androidemu.nomad.MainActivity"
        }
      ]
    },
    "3": {
      "startMethod": "com.oo.tt.JS.onCreate()V",
      "targetMethod": "org.apache.http.client.HttpClient.execute(Lorg/apache/http/client/methods/HttpUriRequest;)Lorg/apache/http/HttpResponse;",
      "eventChain": [
        {
          "start": "com.oo.tt.JS.onCreate()V",
          "target": "PC@3",
          "type": "service",
          "component": "com.oo.tt.JS",
          "constraintsFile": "constraints3_0.py",
          "variables": {},
          "stringMap": {},
          "strings": {
            "IAAv6": "",
            "IAAv5": ""
          }
        },
        {
          "start": "com.oo.tt.JS.onCreate()V",
          "target": "",
          "type": "service",
          "component": "com.oo.tt.JS",
          "constraintsFile": "constraints3_1.py",
          "variables": {},
          "stringMap": {},
          "strings": {}
        },
        {
          "start": "com.oo.tt.JS.onCreate()V",
          "target": "invokeinterface \u003c Application, Lorg/apache/http/client/HttpClient, execute(Lorg/apache/http/client/methods/HttpUriRequest;)Lorg/apache/http/HttpResponse; \u003e@77",
          "type": "service",
          "component": "com.oo.tt.JS",
          "constraintsFile": "constraints3_2.py",
          "variables": {},
          "stringMap": {
            "7000": ""
          },
          "strings": {
            "IAAv7": ""
          }
        }
      ]
    },
    "4": {
      "startMethod": "com.oo.tt.JS.onCreate()V",
      "targetMethod": "org.apache.http.client.HttpClient.execute(Lorg/apache/http/client/methods/HttpUriRequest;)Lorg/apache/http/HttpResponse;",
      "eventChain": [
        {
          "start": "com.oo.tt.JS.onCreate()V",
          "target": "PC@9",
          "type": "service",
          "component": "com.oo.tt.JS",
          "constraintsFile": "constraints4_0.py",
          "variables": {},
          "stringMap": {},
          "strings": {}
        },
        {
          "start": "com.oo.tt.JS.onCreate()V",
          "target": "PC@65",
          "type": "service",
          "component": "com.oo.tt.JS",
          "constraintsFile": "constraints4_1.py",
          "variables": {},
          "stringMap": {},
          "strings": {}
        },
        {
          "start": "com.oo.tt.JS.onCreate()V",
          "target": "PC@12",
          "type": "service",
          "component": "com.oo.tt.JS",
          "constraintsFile": "constraints4_2.py",
          "variables": {},
          "stringMap": {},
          "strings": {}
        },
        {
          "start": "com.oo.tt.JS.onCreate()V",
          "target": "",
          "type": "service",
          "component": "com.oo.tt.JS",
          "constraintsFile": "constraints4_3.py",
          "variables": {},
          "stringMap": {},
          "strings": {}
        },
        {
          "start": "com.oo.tt.JS.onCreate()V",
          "target": "PC@3",
          "type": "service",
          "component": "com.oo.tt.JS",
          "constraintsFile": "constraints4_4.py",
          "variables": {},
          "stringMap": {},
          "strings": {}
        },
        {
          "start": "com.oo.tt.JS.onCreate()V",
          "target": "invokeinterface \u003c Application, Lorg/apache/http/client/HttpClient, execute(Lorg/apache/http/client/methods/HttpUriRequest;)Lorg/apache/http/HttpResponse; \u003e@398",
          "type": "service",
          "component": "com.oo.tt.JS",
          "constraintsFile": "constraints4_5.py",
          "variables": {},
          "stringMap": {},
          "strings": {}
        }
      ]
    },
    "5": {
      "startMethod": "com.oo.tc.MainActivity.onCreate(Landroid/os/Bundle;)V",
      "targetMethod": "org.apache.http.client.HttpClient.execute(Lorg/apache/http/client/methods/HttpUriRequest;)Lorg/apache/http/HttpResponse;",
      "eventChain": [
        {
          "start": "com.oo.tc.MainActivity.onCreate(Landroid/os/Bundle;)V",
          "target": "invokeinterface \u003c Application, Lorg/apache/http/client/HttpClient, execute(Lorg/apache/http/client/methods/HttpUriRequest;)Lorg/apache/http/HttpResponse; \u003e@89",
          "type": "activity",
          "component": "com.oo.tc.MainActivity"
        }
      ]
    },
    "6": {
      "startMethod": "com.oo.tc.MainActivity.onCreate(Landroid/os/Bundle;)V",
      "targetMethod": "org.apache.http.client.HttpClient.execute(Lorg/apache/http/client/methods/HttpUriRequest;)Lorg/apache/http/HttpResponse;",
      "eventChain": [
        {
          "start": "com.oo.tc.MainActivity.onCreate(Landroid/os/Bundle;)V",
          "target": "invokeinterface \u003c Application, Lorg/apache/http/client/HttpClient, execute(Lorg/apache/http/client/methods/HttpUriRequest;)Lorg/apache/http/HttpResponse; \u003e@145",
          "type": "activity",
          "component": "com.oo.tc.MainActivity"
        }
      ]
    },
    "7": {
      "startMethod": "com.oo.tc.MainActivity.onCreate(Landroid/os/Bundle;)V",
      "targetMethod": "org.apache.http.client.HttpClient.execute(Lorg/apache/http/client/methods/HttpUriRequest;)Lorg/apache/http/HttpResponse;",
      "eventChain": [
        {
          "start": "com.oo.tc.MainActivity.onCreate(Landroid/os/Bundle;)V",
          "target": "invokeinterface \u003c Application, Lorg/apache/http/client/HttpClient, execute(Lorg/apache/http/client/methods/HttpUriRequest;)Lorg/apache/http/HttpResponse; \u003e@404",
          "type": "activity",
          "component": "com.oo.tc.MainActivity"
        }
      ]
    },
    "8": {
      "startMethod": "com.oo.tt.JA.onCreate(Landroid/os/Bundle;)V",
      "targetMethod": "org.apache.http.client.HttpClient.execute(Lorg/apache/http/client/methods/HttpUriRequest;)Lorg/apache/http/HttpResponse;",
      "eventChain": [
        {
          "start": "com.oo.tt.JA.onCreate(Landroid/os/Bundle;)V",
          "target": "invokeinterface \u003c Application, Lorg/apache/http/client/HttpClient, execute(Lorg/apache/http/client/methods/HttpUriRequest;)Lorg/apache/http/HttpResponse; \u003e@77",
          "type": "activity",
          "component": "com.oo.tt.JA"
        }
      ]
    },
    "9": {
      "startMethod": "com.oo.tt.JA.onCreate(Landroid/os/Bundle;)V",
      "targetMethod": "org.apache.http.client.HttpClient.execute(Lorg/apache/http/client/methods/HttpUriRequest;)Lorg/apache/http/HttpResponse;",
      "eventChain": [
        {
          "start": "com.oo.tt.JA.onCreate(Landroid/os/Bundle;)V",
          "target": "invokeinterface \u003c Application, Lorg/apache/http/client/HttpClient, execute(Lorg/apache/http/client/methods/HttpUriRequest;)Lorg/apache/http/HttpResponse; \u003e@398",
          "type": "activity",
          "component": "com.oo.tt.JA"
        }
      ]
    },
    "10": {
      "startMethod": "com.oo.tc.MainReceiver.onReceive(Landroid/content/Context;Landroid/content/Intent;)V",
      "targetMethod": "org.apache.http.client.HttpClient.execute(Lorg/apache/http/client/methods/HttpUriRequest;)Lorg/apache/http/HttpResponse;",
      "eventChain": [
        {
          "start": "com.androidemu.nomad.MainActivity.onCreate(Landroid/os/Bundle;)V",
          "target": "",
          "type": "activity",
          "component": "com.androidemu.nomad.MainActivity"
        },
        {
          "start": "com.androidemu.nomad.MainActivity.onCreate(Landroid/os/Bundle;)V",
          "target": "PC@71",
          "type": "activity",
          "component": "com.androidemu.nomad.MainActivity"
        },
        {
          "start": "com.androidemu.nomad.MainActivity.onCreate(Landroid/os/Bundle;)V",
          "target": "PC@3",
          "type": "activity",
          "component": "com.androidemu.nomad.MainActivity"
        },
        {
          "start": "com.oo.tc.MainReceiver.onReceive(Landroid/content/Context;Landroid/content/Intent;)V",
          "target": "invokeinterface \u003c Application, Lorg/apache/http/client/HttpClient, execute(Lorg/apache/http/client/methods/HttpUriRequest;)Lorg/apache/http/HttpResponse; \u003e@89",
          "type": "sms",
          "constraintsFile": "constraints10_0.py",
          "variables": {
            "\u003cChainedInput2\u003e.getAction()": "IAAv0",
            "\u003cChainedInput1\u003e.getSystemService().getActiveNetworkInfo()": "IAAv5",
            "System.currentTimeMillis()": "IAAv3",
            "\u003cSystemPrevTime\u003e": "IAAv4"
          },
          "stringMap": {
            "7000": "android.intent.action.PACKAGE_ADDED",
            "7001": "android.net.conn.CONNECTIVITY_CHANGE",
            "7002": ""
          },
          "strings": {
            "IAAv24": "",
            "IAAv0": "",
            "IAAv22": "",
            "IAAv14": "",
            "IAAv15": "",
            "IAAv17": "",
            "IAAv18": ""
          }
        }
      ]
    },
    "11": {
      "startMethod": "com.oo.tc.MainReceiver.onReceive(Landroid/content/Context;Landroid/content/Intent;)V",
      "targetMethod": "org.apache.http.client.HttpClient.execute(Lorg/apache/http/client/methods/HttpUriRequest;)Lorg/apache/http/HttpResponse;",
      "eventChain": [
        {
          "start": "com.androidemu.nomad.MainActivity.onCreate(Landroid/os/Bundle;)V",
          "target": "",
          "type": "activity",
          "component": "com.androidemu.nomad.MainActivity"
        },
        {
          "start": "com.androidemu.nomad.MainActivity.onCreate(Landroid/os/Bundle;)V",
          "target": "PC@71",
          "type": "activity",
          "component": "com.androidemu.nomad.MainActivity"
        },
        {
          "start": "com.androidemu.nomad.MainActivity.onCreate(Landroid/os/Bundle;)V",
          "target": "PC@12",
          "type": "activity",
          "component": "com.androidemu.nomad.MainActivity"
        },
        {
          "start": "com.androidemu.nomad.MainActivity.onCreate(Landroid/os/Bundle;)V",
          "target": "PC@3",
          "type": "activity",
          "component": "com.androidemu.nomad.MainActivity"
        },
        {
          "start": "com.androidemu.nomad.MainActivity.onCreate(Landroid/os/Bundle;)V",
          "target": "PC@11",
          "type": "activity",
          "component": "com.androidemu.nomad.MainActivity"
        },
        {
          "start": "com.oo.tc.MainReceiver.onReceive(Landroid/content/Context;Landroid/content/Intent;)V",
          "target": "invokeinterface \u003c Application, Lorg/apache/http/client/HttpClient, execute(Lorg/apache/http/client/methods/HttpUriRequest;)Lorg/apache/http/HttpResponse; \u003e@404",
          "type": "sms",
          "constraintsFile": "constraints11_0.py",
          "variables": {
            "System.currentTimeMillis()": "IAAv3",
            "\u003cChainedInput2\u003e.getAction()": "IAAv0",
            "\u003cChainedInput1\u003e.getSystemService().getActiveNetworkInfo()": "IAAv5",
            "\u003cSystemPrevTime\u003e": "IAAv4"
          },
          "stringMap": {
            "7000": "android.intent.action.PACKAGE_ADDED",
            "7001": "android.net.conn.CONNECTIVITY_CHANGE"
          },
          "strings": {
            "IAAv0": ""
          }
        }
      ]
    },
    "12": {
      "startMethod": "com.oo.tc.MainReceiver.onReceive(Landroid/content/Context;Landroid/content/Intent;)V",
      "targetMethod": "org.apache.http.client.HttpClient.execute(Lorg/apache/http/client/methods/HttpUriRequest;)Lorg/apache/http/HttpResponse;",
      "eventChain": [
        {
          "start": "com.oo.tc.MainReceiver.onReceive(Landroid/content/Context;Landroid/content/Intent;)V",
          "target": "invokeinterface \u003c Application, Lorg/apache/http/client/HttpClient, execute(Lorg/apache/http/client/methods/HttpUriRequest;)Lorg/apache/http/HttpResponse; \u003e@145",
          "type": "sms",
          "constraintsFile": "constraints12_0.py",
          "variables": {
            "\u003cChainedInput2\u003e.getAction()": "IAAv0",
            "\u003cChainedInput2\u003e.getData()": "IAAv2"
          },
          "stringMap": {
            "7000": "android.intent.action.PACKAGE_ADDED"
          },
          "strings": {
            "IAAv0": ""
          }
        }
      ]
    },
    "13": {
      "startMethod": "com.oo.tc.d.a.onItemClick(Landroid/widget/AdapterView;Landroid/view/View;IJ)V",
      "targetMethod": "org.apache.http.client.HttpClient.execute(Lorg/apache/http/client/methods/HttpUriRequest;)Lorg/apache/http/HttpResponse;",
      "eventChain": [
        {
          "start": "com.oo.tc.MainActivity.onCreate(Landroid/os/Bundle;)V",
          "target": "invokevirtual \u003c Application, Lcom/oo/tc/d/r, setOnItemClickListener(Landroid/widget/AdapterView$OnItemClickListener;)V \u003e@2956",
          "type": "activity",
          "component": "com.oo.tc.MainActivity"
        },
        {
          "start": "com.androidemu.nomad.MainActivity.onCreate(Landroid/os/Bundle;)V",
          "target": "",
          "type": "activity",
          "component": "com.androidemu.nomad.MainActivity"
        },
        {
          "start": "com.androidemu.nomad.MainActivity.onCreate(Landroid/os/Bundle;)V",
          "target": "PC@71",
          "type": "activity",
          "component": "com.androidemu.nomad.MainActivity"
        },
        {
          "start": "com.androidemu.nomad.MainActivity.onCreate(Landroid/os/Bundle;)V",
          "target": "PC@12",
          "type": "activity",
          "component": "com.androidemu.nomad.MainActivity"
        },
        {
          "start": "com.androidemu.nomad.MainActivity.onCreate(Landroid/os/Bundle;)V",
          "target": "PC@3",
          "type": "activity",
          "component": "com.androidemu.nomad.MainActivity"
        },
        {
          "start": "com.androidemu.nomad.MainActivity.onCreate(Landroid/os/Bundle;)V",
          "target": "PC@11",
          "type": "activity",
          "component": "com.androidemu.nomad.MainActivity"
        },
        {
          "start": "com.oo.tc.d.a.onItemClick(Landroid/widget/AdapterView;Landroid/view/View;IJ)V",
          "target": "invokeinterface \u003c Application, Lorg/apache/http/client/HttpClient, execute(Lorg/apache/http/client/methods/HttpUriRequest;)Lorg/apache/http/HttpResponse; \u003e@404",
          "type": "ui",
          "activities": [
            "com.androidemu.nomad.MainActivity"
          ],
          "listener": "com.oo.tc.d.a",
          "listenerMethod": "onItemClick",
          "uiType": "onItemClick",
          "constraintsFile": "constraints13_0.py",
          "variables": {},
          "stringMap": {},
          "strings": {}
        }
      ]
    },
    "14": {
      "startMethod": "com.oo.tc.d.a.onItemClick(Landroid/widget/AdapterView;Landroid/view/View;IJ)V",
      "targetMethod": "org.apache.http.client.HttpClient.execute(Lorg/apache/http/client/methods/HttpUriRequest;)Lorg/apache/http/HttpResponse;",
      "eventChain": [
        {
          "start": "com.oo.tc.MainActivity.onCreate(Landroid/os/Bundle;)V",
          "target": "invokevirtual \u003c Application, Lcom/oo/tc/d/r, setOnItemClickListener(Landroid/widget/AdapterView$OnItemClickListener;)V \u003e@2956",
          "type": "activity",
          "component": "com.oo.tc.MainActivity"
        },
        {
          "start": "com.androidemu.nomad.MainActivity.onCreate(Landroid/os/Bundle;)V",
          "target": "",
          "type": "activity",
          "component": "com.androidemu.nomad.MainActivity"
        },
        {
          "start": "com.androidemu.nomad.MainActivity.onCreate(Landroid/os/Bundle;)V",
          "target": "PC@71",
          "type": "activity",
          "component": "com.androidemu.nomad.MainActivity"
        },
        {
          "start": "com.androidemu.nomad.MainActivity.onCreate(Landroid/os/Bundle;)V",
          "target": "PC@3",
          "type": "activity",
          "component": "com.androidemu.nomad.MainActivity"
        },
        {
          "start": "com.oo.tc.d.a.onItemClick(Landroid/widget/AdapterView;Landroid/view/View;IJ)V",
          "target": "invokeinterface \u003c Application, Lorg/apache/http/client/HttpClient, execute(Lorg/apache/http/client/methods/HttpUriRequest;)Lorg/apache/http/HttpResponse; \u003e@145",
          "type": "ui",
          "activities": [
            "com.androidemu.nomad.MainActivity"
          ],
          "listener": "com.oo.tc.d.a",
          "listenerMethod": "onItemClick",
          "uiType": "onItemClick",
          "constraintsFile": "constraints14_0.py",
          "variables": {},
          "stringMap": {},
          "strings": {
            "IAAv10": "",
            "IAAv13": "",
            "IAAv12": "",
            "IAAv9": ""
          }
        }
      ]
    },
    "15": {
      "startMethod": "com.oo.tc.d.a.onItemClick(Landroid/widget/AdapterView;Landroid/view/View;IJ)V",
      "targetMethod": "org.apache.http.client.HttpClient.execute(Lorg/apache/http/client/methods/HttpUriRequest;)Lorg/apache/http/HttpResponse;",
      "eventChain": [
        {
          "start": "com.oo.tc.MainActivity.onCreate(Landroid/os/Bundle;)V",
          "target": "invokevirtual \u003c Application, Lcom/oo/tc/d/r, setOnItemClickListener(Landroid/widget/AdapterView$OnItemClickListener;)V \u003e@2956",
          "type": "activity",
          "component": "com.oo.tc.MainActivity"
        },
        {
          "start": "com.androidemu.nomad.MainActivity.onCreate(Landroid/os/Bundle;)V",
          "target": "",
          "type": "activity",
          "component": "com.androidemu.nomad.MainActivity"
        },
        {
          "start": "com.androidemu.nomad.MainActivity.onCreate(Landroid/os/Bundle;)V",
          "target": "PC@71",
          "type": "activity",
          "component": "com.androidemu.nomad.MainActivity"
        },
        {
          "start": "com.androidemu.nomad.MainActivity.onCreate(Landroid/os/Bundle;)V",
          "target": "PC@3",
          "type": "activity",
          "component": "com.androidemu.nomad.MainActivity"
        },
        {
          "start": "com.oo.tc.d.a.onItemClick(Landroid/widget/AdapterView;Landroid/view/View;IJ)V",
          "target": "invokeinterface \u003c Application, Lorg/apache/http/client/HttpClient, execute(Lorg/apache/http/client/methods/HttpUriRequest;)Lorg/apache/http/HttpResponse; \u003e@89",
          "type": "ui",
          "activities": [
            "com.androidemu.nomad.MainActivity"
          ],
          "listener": "com.oo.tc.d.a",
          "listenerMethod": "onItemClick",
          "uiType": "onItemClick",
          "constraintsFile": "constraints15_0.py",
          "variables": {},
          "stringMap": {
            "7000": ""
          },
          "strings": {
            "IAAv10": "",
            "IAAv13": "",
            "IAAv12": "",
            "IAAv17": "",
            "IAAv9": "",
            "IAAv19": ""
          }
        }
      ]
    },
    "16": {
      "startMethod": "com.oo.tt.i.onItemClick(Landroid/widget/AdapterView;Landroid/view/View;IJ)V",
      "targetMethod": "org.apache.http.client.HttpClient.execute(Lorg/apache/http/client/methods/HttpUriRequest;)Lorg/apache/http/HttpResponse;",
      "eventChain": [
        {
          "start": "com.oo.tt.JA.onCreate(Landroid/os/Bundle;)V",
          "target": "invokevirtual \u003c Application, Lcom/oo/tt/a/c, setOnItemClickListener(Landroid/widget/AdapterView$OnItemClickListener;)V \u003e@2910",
          "type": "activity",
          "component": "com.oo.tt.JA",
          "constraintsFile": "constraints16_0.py",
          "variables": {},
          "stringMap": {},
          "strings": {}
        },
        {
          "start": "com.oo.tt.JS.onCreate()V",
          "target": "PC@3",
          "type": "service",
          "component": "com.oo.tt.JS",
          "constraintsFile": "constraints16_1.py",
          "variables": {},
          "stringMap": {},
          "strings": {
            "IAAv6": "",
            "IAAv5": ""
          }
        },
        {
          "start": "com.oo.tt.JS.onCreate()V",
          "target": "",
          "type": "service",
          "component": "com.oo.tt.JS",
          "constraintsFile": "constraints16_2.py",
          "variables": {},
          "stringMap": {},
          "strings": {}
        },
        {
          "start": "com.oo.tt.i.onItemClick(Landroid/widget/AdapterView;Landroid/view/View;IJ)V",
          "target": "invokeinterface \u003c Application, Lorg/apache/http/client/HttpClient, execute(Lorg/apache/http/client/methods/HttpUriRequest;)Lorg/apache/http/HttpResponse; \u003e@77",
          "type": "ui",
          "activities": [
            "com.androidemu.nomad.MainActivity"
          ],
          "listener": "com.oo.tt.i",
          "listenerMethod": "onItemClick",
          "uiType": "onItemClick",
          "constraintsFile": "constraints16_3.py",
          "variables": {
            "\u003cChainedInput1\u003e.getAdapter().getItem().a()": "IAAv1"
          },
          "stringMap": {
            "7000": ""
          },
          "strings": {
            "IAAv8": ""
          }
        }
      ]
    },
    "17": {
      "startMethod": "com.oo.tt.i.onItemClick(Landroid/widget/AdapterView;Landroid/view/View;IJ)V",
      "targetMethod": "org.apache.http.client.HttpClient.execute(Lorg/apache/http/client/methods/HttpUriRequest;)Lorg/apache/http/HttpResponse;",
      "eventChain": [
        {
          "start": "com.oo.tt.JA.onCreate(Landroid/os/Bundle;)V",
          "target": "invokevirtual \u003c Application, Lcom/oo/tt/a/c, setOnItemClickListener(Landroid/widget/AdapterView$OnItemClickListener;)V \u003e@2910",
          "type": "activity",
          "component": "com.oo.tt.JA",
          "constraintsFile": "constraints17_0.py",
          "variables": {},
          "stringMap": {},
          "strings": {}
        },
        {
          "start": "com.oo.tt.JS.onCreate()V",
          "target": "PC@9",
          "type": "service",
          "component": "com.oo.tt.JS",
          "constraintsFile": "constraints17_1.py",
          "variables": {
            "\u003cChainedInput1\u003e.getAdapter().getItem().a()": "IAAv1"
          },
          "stringMap": {},
          "strings": {}
        },
        {
          "start": "com.oo.tt.JS.onCreate()V",
          "target": "PC@65",
          "type": "service",
          "component": "com.oo.tt.JS",
          "constraintsFile": "constraints17_2.py",
          "variables": {},
          "stringMap": {},
          "strings": {}
        },
        {
          "start": "com.oo.tt.JS.onCreate()V",
          "target": "PC@12",
          "type": "service",
          "component": "com.oo.tt.JS",
          "constraintsFile": "constraints17_3.py",
          "variables": {
            "\u003cChainedInput1\u003e.getAdapter().getItem().a()": "IAAv1"
          },
          "stringMap": {},
          "strings": {}
        },
        {
          "start": "com.oo.tt.JS.onCreate()V",
          "target": "",
          "type": "service",
          "component": "com.oo.tt.JS",
          "constraintsFile": "constraints17_4.py",
          "variables": {},
          "stringMap": {},
          "strings": {}
        },
        {
          "start": "com.oo.tt.JS.onCreate()V",
          "target": "PC@3",
          "type": "service",
          "component": "com.oo.tt.JS",
          "constraintsFile": "constraints17_5.py",
          "variables": {},
          "stringMap": {},
          "strings": {}
        },
        {
          "start": "com.oo.tt.i.onItemClick(Landroid/widget/AdapterView;Landroid/view/View;IJ)V",
          "target": "invokeinterface \u003c Application, Lorg/apache/http/client/HttpClient, execute(Lorg/apache/http/client/methods/HttpUriRequest;)Lorg/apache/http/HttpResponse; \u003e@398",
          "type": "ui",
          "activities": [
            "com.androidemu.nomad.MainActivity"
          ],
          "listener": "com.oo.tt.i",
          "listenerMethod": "onItemClick",
          "uiType": "onItemClick",
          "constraintsFile": "constraints17_6.py",
          "variables": {
            "\u003cChainedInput1\u003e.getAdapter().getItem().a()": "IAAv1"
          },
          "stringMap": {},
          "strings": {}
        }
      ]
    },
    "18": {
      "startMethod": "com.oo.tc.d.a.onClick(Landroid/view/View;)V",
      "targetMethod": "org.apache.http.client.HttpClient.execute(Lorg/apache/http/client/methods/HttpUriRequest;)Lorg/apache/http/HttpResponse;",
      "eventChain": [
        {
          "start": "com.oo.tc.MainActivity.onCreate(Landroid/os/Bundle;)V",
          "target": "invokevirtual \u003c Application, Landroid/widget/ImageView, setOnClickListener(Landroid/view/View$OnClickListener;)V \u003e@2775",
          "type": "activity",
          "component": "com.oo.tc.MainActivity"
        },
        {
          "start": "com.androidemu.nomad.MainActivity.onCreate(Landroid/os/Bundle;)V",
          "target": "",
          "type": "activity",
          "component": "com.androidemu.nomad.MainActivity"
        },
        {
          "start": "com.androidemu.nomad.MainActivity.onCreate(Landroid/os/Bundle;)V",
          "target": "PC@71",
          "type": "activity",
          "component": "com.androidemu.nomad.MainActivity"
        },
        {
          "start": "com.androidemu.nomad.MainActivity.onCreate(Landroid/os/Bundle;)V",
          "target": "PC@12",
          "type": "activity",
          "component": "com.androidemu.nomad.MainActivity"
        },
        {
          "start": "com.androidemu.nomad.MainActivity.onCreate(Landroid/os/Bundle;)V",
          "target": "PC@3",
          "type": "activity",
          "component": "com.androidemu.nomad.MainActivity"
        },
        {
          "start": "com.oo.tc.MainActivity.onCreate(Landroid/os/Bundle;)V",
          "target": "PC@3",
          "type": "activity",
          "component": "com.oo.tc.MainActivity"
        },
        {
          "start": "com.androidemu.nomad.MainActivity.onCreate(Landroid/os/Bundle;)V",
          "target": "PC@11",
          "type": "activity",
          "component": "com.androidemu.nomad.MainActivity"
        },
        {
          "start": "com.oo.tc.d.a.onClick(Landroid/view/View;)V",
          "target": "invokeinterface \u003c Application, Lorg/apache/http/client/HttpClient, execute(Lorg/apache/http/client/methods/HttpUriRequest;)Lorg/apache/http/HttpResponse; \u003e@404",
          "type": "ui",
          "activities": [
            "com.androidemu.nomad.MainActivity"
          ],
          "listener": "com.oo.tc.d.a",
          "listenerMethod": "onClick",
          "uiType": "onClick",
          "constraintsFile": "constraints18_0.py",
          "variables": {
            "\u003cChainedInput1\u003e.getTag().intValue()": "IAAv1"
          },
          "stringMap": {},
          "strings": {}
        }
      ]
    },
    "19": {
      "startMethod": "com.oo.tc.d.a.onClick(Landroid/view/View;)V",
      "targetMethod": "org.apache.http.client.HttpClient.execute(Lorg/apache/http/client/methods/HttpUriRequest;)Lorg/apache/http/HttpResponse;",
      "eventChain": [
        {
          "start": "com.oo.tc.MainActivity.onCreate(Landroid/os/Bundle;)V",
          "target": "invokevirtual \u003c Application, Landroid/widget/ImageView, setOnClickListener(Landroid/view/View$OnClickListener;)V \u003e@2775",
          "type": "activity",
          "component": "com.oo.tc.MainActivity"
        },
        {
          "start": "com.androidemu.nomad.MainActivity.onCreate(Landroid/os/Bundle;)V",
          "target": "",
          "type": "activity",
          "component": "com.androidemu.nomad.MainActivity"
        },
        {
          "start": "com.androidemu.nomad.MainActivity.onCreate(Landroid/os/Bundle;)V",
          "target": "PC@71",
          "type": "activity",
          "component": "com.androidemu.nomad.MainActivity"
        },
        {
          "start": "com.androidemu.nomad.MainActivity.onCreate(Landroid/os/Bundle;)V",
          "target": "PC@3",
          "type": "activity",
          "component": "com.androidemu.nomad.MainActivity"
        },
        {
          "start": "com.oo.tc.MainActivity.onCreate(Landroid/os/Bundle;)V",
          "target": "PC@3",
          "type": "activity",
          "component": "com.oo.tc.MainActivity"
        },
        {
          "start": "com.oo.tc.d.a.onClick(Landroid/view/View;)V",
          "target": "invokeinterface \u003c Application, Lorg/apache/http/client/HttpClient, execute(Lorg/apache/http/client/methods/HttpUriRequest;)Lorg/apache/http/HttpResponse; \u003e@89",
          "type": "ui",
          "activities": [
            "com.androidemu.nomad.MainActivity"
          ],
          "listener": "com.oo.tc.d.a",
          "listenerMethod": "onClick",
          "uiType": "onClick",
          "constraintsFile": "constraints19_0.py",
          "variables": {
            "\u003cChainedInput1\u003e.getTag().intValue()": "IAAv1"
          },
          "stringMap": {
            "7000": ""
          },
          "strings": {
            "IAAv20": "",
            "IAAv22": "",
            "IAAv13": "",
            "IAAv12": "",
            "IAAv15": "",
            "IAAv16": ""
          }
        }
      ]
    },
    "20": {
      "startMethod": "com.oo.tc.d.a.onClick(Landroid/view/View;)V",
      "targetMethod": "org.apache.http.client.HttpClient.execute(Lorg/apache/http/client/methods/HttpUriRequest;)Lorg/apache/http/HttpResponse;",
      "eventChain": [
        {
          "start": "com.oo.tc.MainActivity.onCreate(Landroid/os/Bundle;)V",
          "target": "invokevirtual \u003c Application, Landroid/widget/ImageView, setOnClickListener(Landroid/view/View$OnClickListener;)V \u003e@2775",
          "type": "activity",
          "component": "com.oo.tc.MainActivity"
        },
        {
          "start": "com.oo.tc.MainActivity.onCreate(Landroid/os/Bundle;)V",
          "target": "PC@3",
          "type": "activity",
          "component": "com.oo.tc.MainActivity"
        },
        {
          "start": "com.oo.tc.d.a.onClick(Landroid/view/View;)V",
          "target": "invokeinterface \u003c Application, Lorg/apache/http/client/HttpClient, execute(Lorg/apache/http/client/methods/HttpUriRequest;)Lorg/apache/http/HttpResponse; \u003e@145",
          "type": "ui",
          "activities": [
            "com.androidemu.nomad.MainActivity"
          ],
          "listener": "com.oo.tc.d.a",
          "listenerMethod": "onClick",
          "uiType": "onClick",
          "constraintsFile": "constraints20_0.py",
          "variables": {
            "\u003cChainedInput1\u003e.getTag().intValue()": "IAAv1"
          },
          "stringMap": {},
          "strings": {}
        }
      ]
    },
    "21": {
      "startMethod": "com.oo.tt.i.onClick(Landroid/view/View;)V",
      "targetMethod": "org.apache.http.client.HttpClient.execute(Lorg/apache/http/client/methods/HttpUriRequest;)Lorg/apache/http/HttpResponse;",
      "eventChain": [
        {
          "start": "com.oo.tt.JA.onCreate(Landroid/os/Bundle;)V",
          "target": "invokevirtual \u003c Application, Landroid/widget/ImageView, setOnClickListener(Landroid/view/View$OnClickListener;)V \u003e@2729",
          "type": "activity",
          "component": "com.oo.tt.JA",
          "constraintsFile": "constraints21_0.py",
          "variables": {},
          "stringMap": {},
          "strings": {}
        },
        {
          "start": "com.oo.tt.JS.onCreate()V",
          "target": "PC@9",
          "type": "service",
          "component": "com.oo.tt.JS",
          "constraintsFile": "constraints21_1.py",
          "variables": {
            "\u003cChainedInput1\u003e.getTag().intValue()": "IAAv1"
          },
          "stringMap": {},
          "strings": {
            "IAAv2": ""
          }
        },
        {
          "start": "com.oo.tt.JS.onCreate()V",
          "target": "PC@65",
          "type": "service",
          "component": "com.oo.tt.JS",
          "constraintsFile": "constraints21_2.py",
          "variables": {},
          "stringMap": {},
          "strings": {}
        },
        {
          "start": "com.oo.tt.JS.onCreate()V",
          "target": "PC@12",
          "type": "service",
          "component": "com.oo.tt.JS",
          "constraintsFile": "constraints21_3.py",
          "variables": {
            "\u003cChainedInput1\u003e.getTag().intValue()": "IAAv1"
          },
          "stringMap": {},
          "strings": {
            "IAAv2": ""
          }
        },
        {
          "start": "com.oo.tt.JA.onCreate(Landroid/os/Bundle;)V",
          "target": "PC@3",
          "type": "activity",
          "component": "com.oo.tt.JA",
          "constraintsFile": "constraints21_4.py",
          "variables": {
            "\u003cChainedInput1\u003e.getTag().intValue()": "IAAv1"
          },
          "stringMap": {},
          "strings": {
            "IAAv2": ""
          }
        },
        {
          "start": "com.oo.tt.JS.onCreate()V",
          "target": "",
          "type": "service",
          "component": "com.oo.tt.JS",
          "constraintsFile": "constraints21_5.py",
          "variables": {},
          "stringMap": {},
          "strings": {}
        },
        {
          "start": "com.oo.tt.JS.onCreate()V",
          "target": "PC@3",
          "type": "service",
          "component": "com.oo.tt.JS",
          "constraintsFile": "constraints21_6.py",
          "variables": {},
          "stringMap": {},
          "strings": {}
        },
        {
          "start": "com.oo.tt.i.onClick(Landroid/view/View;)V",
          "target": "invokeinterface \u003c Application, Lorg/apache/http/client/HttpClient, execute(Lorg/apache/http/client/methods/HttpUriRequest;)Lorg/apache/http/HttpResponse; \u003e@398",
          "type": "ui",
          "activities": [
            "com.androidemu.nomad.MainActivity"
          ],
          "listener": "com.oo.tt.i",
          "listenerMethod": "onClick",
          "uiType": "onClick",
          "constraintsFile": "constraints21_7.py",
          "variables": {
            "\u003cChainedInput1\u003e.getTag().intValue()": "IAAv1"
          },
          "stringMap": {},
          "strings": {
            "IAAv2": ""
          }
        }
      ]
    },
    "22": {
      "startMethod": "com.oo.tt.i.onClick(Landroid/view/View;)V",
      "targetMethod": "org.apache.http.client.HttpClient.execute(Lorg/apache/http/client/methods/HttpUriRequest;)Lorg/apache/http/HttpResponse;",
      "eventChain": [
        {
          "start": "com.oo.tt.JA.onCreate(Landroid/os/Bundle;)V",
          "target": "invokevirtual \u003c Application, Landroid/widget/ImageView, setOnClickListener(Landroid/view/View$OnClickListener;)V \u003e@2729",
          "type": "activity",
          "component": "com.oo.tt.JA",
          "constraintsFile": "constraints22_0.py",
          "variables": {},
          "stringMap": {},
          "strings": {}
        },
        {
          "start": "com.oo.tt.JA.onCreate(Landroid/os/Bundle;)V",
          "target": "PC@3",
          "type": "activity",
          "component": "com.oo.tt.JA",
          "constraintsFile": "constraints22_1.py",
          "variables": {
            "\u003cChainedInput1\u003e.getTag().intValue()": "IAAv1"
          },
          "stringMap": {},
          "strings": {}
        },
        {
          "start": "com.oo.tt.i.onClick(Landroid/view/View;)V",
          "target": "invokeinterface \u003c Application, Lorg/apache/http/client/HttpClient, execute(Lorg/apache/http/client/methods/HttpUriRequest;)Lorg/apache/http/HttpResponse; \u003e@77",
          "type": "ui",
          "activities": [
            "com.androidemu.nomad.MainActivity"
          ],
          "listener": "com.oo.tt.i",
          "listenerMethod": "onClick",
          "uiType": "onClick",
          "constraintsFile": "constraints22_2.py",
          "variables": {
            "\u003cChainedInput1\u003e.getTag().intValue()": "IAAv1"
          },
          "stringMap": {},
          "strings": {}
        }
      ]
    }
  }
}