{
  "packageName": "com.chaozh.iReader.one360_YIJIEZHICANGQIONGCHUANSHUI",
  "mainActivity": "com.chaozh.iReader.ui.activity.WelcomeActivity",
  "callPaths": {
    "0": {
      "startMethod": "com.zhangyue.iReader.online.ui.ActivityOnline.onKeyDown(ILandroid/view/KeyEvent;)Z",
      "targetMethod": "java.lang.reflect.Method.invoke(Ljava/lang/Object;[Ljava/lang/Object;)Ljava/lang/Object;",
      "eventChain": [
        {
          "start": "com.zhangyue.iReader.online.ui.ActivityOnline.onResume()V",
          "target": "PC@50",
          "type": "activity",
          "component": "com.zhangyue.iReader.online.ui.ActivityOnline",
          "constraintsFile": "constraints0_0.py",
          "variables": {
            "\u003cChainedInput1\u003e": "IAAv0"
          },
          "stringMap": {
            "7000": ""
          },
          "strings": {}
        },
        {
          "start": "com.zhangyue.iReader.online.ui.ActivityOnline.onKeyDown(ILandroid/view/KeyEvent;)Z",
          "target": "invokevirtual \u003c Application, Ljava/lang/reflect/Method, invoke(Ljava/lang/Object;[Ljava/lang/Object;)Ljava/lang/Object; \u003e@55",
          "type": "ui",
          "activities": [
            "com.chaozh.iReader.ui.activity.WelcomeActivity"
          ],
          "listener": "com.zhangyue.iReader.online.ui.ActivityOnline",
          "listenerMethod": "onKeyDown",
          "uiType": "onKeyDown",
          "constraintsFile": "constraints0_1.py",
          "variables": {
            "\u003cChainedInput1\u003e": "IAAv1"
          },
          "stringMap": {},
          "strings": {}
        }
      ]
    },
    "1": {
      "startMethod": "com.zhangyue.iReader.bookshelf.ui.j.onClick(Landroid/view/View;)V",
      "targetMethod": "java.lang.reflect.Method.invoke(Ljava/lang/Object;[Ljava/lang/Object;)Ljava/lang/Object;",
      "eventChain": [
        {
          "start": "com.zhangyue.iReader.bookshelf.ui.ActivityBookShelf.onResume()V",
          "target": "invokevirtual \u003c Application, Lcom/zhangyue/iReader/ui/extension/view/ThemeButton, setOnClickListener(Landroid/view/View$OnClickListener;)V \u003e@299",
          "type": "activity",
          "component": "com.zhangyue.iReader.bookshelf.ui.ActivityBookShelf",
          "constraintsFile": "constraints1_0.py",
          "variables": {},
          "stringMap": {},
          "strings": {}
        },
        {
          "start": "com.zhangyue.iReader.bookshelf.ui.ActivityBookShelf.\u003cinit\u003e()V",
          "target": "PC@3",
          "type": ""
        },
        {
          "start": "com.zhangyue.iReader.bookshelf.ui.j.onClick(Landroid/view/View;)V",
          "target": "invokevirtual \u003c Application, Ljava/lang/reflect/Method, invoke(Ljava/lang/Object;[Ljava/lang/Object;)Ljava/lang/Object; \u003e@55",
          "type": "ui",
          "activities": [
            "com.zhangyue.iReader.bookshelf.ui.ActivityBookShelf"
          ],
          "listener": "com.zhangyue.iReader.bookshelf.ui.j",
          "listenerMethod": "onClick",
          "uiType": "onClick"
        }
      ]
    },
    "2": {
      "startMethod": "com.zhangyue.iReader.local.ui.d.onClick(Landroid/view/View;)V",
      "targetMethod": "java.lang.reflect.Method.invoke(Ljava/lang/Object;[Ljava/lang/Object;)Ljava/lang/Object;",
      "eventChain": [
        {
          "start": "com.zhangyue.iReader.local.ui.ActivityLocalBook.\u003cinit\u003e()V",
          "target": "PC@3",
          "type": ""
        },
        {
          "start": "com.zhangyue.iReader.local.ui.d.onClick(Landroid/view/View;)V",
          "target": "invokevirtual \u003c Application, Ljava/lang/reflect/Method, invoke(Ljava/lang/Object;[Ljava/lang/Object;)Ljava/lang/Object; \u003e@55",
          "type": "ui",
          "activities": [
            "com.chaozh.iReader.ui.activity.WelcomeActivity"
          ],
          "listener": "com.zhangyue.iReader.local.ui.d",
          "listenerMethod": "onClick",
          "uiType": "onClick",
          "constraintsFile": "constraints2_0.py",
          "variables": {},
          "stringMap": {},
          "strings": {}
        }
      ]
    },
    "3": {
      "startMethod": "com.zhangyue.iReader.setting.ui.ActivityFont.onClick(Landroid/view/View;)V",
      "targetMethod": "java.lang.reflect.Method.invoke(Ljava/lang/Object;[Ljava/lang/Object;)Ljava/lang/Object;",
      "eventChain": [
        {
          "start": "com.zhangyue.iReader.setting.ui.ActivityFont.onCreate(Landroid/os/Bundle;)V",
          "target": "invokevirtual \u003c Application, Landroid/widget/CompoundButton, setOnClickListener(Landroid/view/View$OnClickListener;)V \u003e@194",
          "type": "activity",
          "component": "com.zhangyue.iReader.setting.ui.ActivityFont"
        },
        {
          "start": "com.zhangyue.iReader.setting.ui.ActivityFont.onClick(Landroid/view/View;)V",
          "target": "invokevirtual \u003c Application, Ljava/lang/reflect/Method, invoke(Ljava/lang/Object;[Ljava/lang/Object;)Ljava/lang/Object; \u003e@55",
          "type": "ui",
          "activities": [
            "com.zhangyue.iReader.setting.ui.ActivityFont"
          ],
          "listener": "com.zhangyue.iReader.setting.ui.ActivityFont",
          "listenerMethod": "onClick",
          "uiType": "onClick",
          "constraintsFile": "constraints3_0.py",
          "variables": {
            "\u003cInput1\u003e.getId()": "IAAv0"
          },
          "stringMap": {},
          "strings": {}
        }
      ]
    },
    "4": {
      "startMethod": "com.zhangyue.iReader.online.ui.h.onClick(Landroid/view/View;)V",
      "targetMethod": "java.lang.reflect.Method.invoke(Ljava/lang/Object;[Ljava/lang/Object;)Ljava/lang/Object;",
      "eventChain": [
        {
          "start": "com.zhangyue.iReader.online.ui.ActivityOnline.onCreate(Landroid/os/Bundle;)V",
          "target": "invokevirtual \u003c Application, Landroid/widget/Button, setOnClickListener(Landroid/view/View$OnClickListener;)V \u003e@59",
          "type": "activity",
          "component": "com.zhangyue.iReader.online.ui.ActivityOnline"
        },
        {
          "start": "com.zhangyue.iReader.online.ui.ActivityOnline.onCreate(Landroid/os/Bundle;)V",
          "target": "PC@3",
          "type": "activity",
          "component": "com.zhangyue.iReader.online.ui.ActivityOnline"
        },
        {
          "start": "com.zhangyue.iReader.online.ui.h.onClick(Landroid/view/View;)V",
          "target": "invokevirtual \u003c Application, Ljava/lang/reflect/Method, invoke(Ljava/lang/Object;[Ljava/lang/Object;)Ljava/lang/Object; \u003e@55",
          "type": "ui",
          "activities": [
            "com.zhangyue.iReader.online.ui.ActivityOnline"
          ],
          "listener": "com.zhangyue.iReader.online.ui.h",
          "listenerMethod": "onClick",
          "uiType": "onClick",
          "constraintsFile": "constraints4_0.py",
          "variables": {},
          "stringMap": {},
          "strings": {}
        }
      ]
    },
    "5": {
      "startMethod": "com.zhangyue.iReader.setting.ui.ActivitySettingDefault.onClick(Landroid/view/View;)V",
      "targetMethod": "java.lang.reflect.Method.invoke(Ljava/lang/Object;[Ljava/lang/Object;)Ljava/lang/Object;",
      "eventChain": [
        {
          "start": "com.zhangyue.iReader.setting.ui.ActivitySettingDefault.onCreate(Landroid/os/Bundle;)V",
          "target": "invokevirtual \u003c Application, Lcom/zhangyue/iReader/ui/extension/view/ThemeButton, setOnClickListener(Landroid/view/View$OnClickListener;)V \u003e@114",
          "type": "activity",
          "component": "com.zhangyue.iReader.setting.ui.ActivitySettingDefault"
        },
        {
          "start": "com.zhangyue.iReader.setting.ui.ActivitySettingDefault.onClick(Landroid/view/View;)V",
          "target": "invokevirtual \u003c Application, Ljava/lang/reflect/Method, invoke(Ljava/lang/Object;[Ljava/lang/Object;)Ljava/lang/Object; \u003e@55",
          "type": "ui",
          "activities": [
            "com.zhangyue.iReader.setting.ui.ActivitySettingDefault"
          ],
          "listener": "com.zhangyue.iReader.setting.ui.ActivitySettingDefault",
          "listenerMethod": "onClick",
          "uiType": "onClick",
          "constraintsFile": "constraints5_0.py",
          "variables": {
            "\u003cInput1\u003e.getId()": "IAAv0"
          },
          "stringMap": {},
          "strings": {}
        }
      ]
    },
    "6": {
      "startMethod": "com.zhangyue.iReader.setting.ui.ActivitySkin.onClick(Landroid/view/View;)V",
      "targetMethod": "java.lang.reflect.Method.invoke(Ljava/lang/Object;[Ljava/lang/Object;)Ljava/lang/Object;",
      "eventChain": [
        {
          "start": "com.zhangyue.iReader.setting.ui.ActivitySkin.onCreate(Landroid/os/Bundle;)V",
          "target": "invokevirtual \u003c Application, Lcom/zhangyue/iReader/ui/extension/view/ThemeButton, setOnClickListener(Landroid/view/View$OnClickListener;)V \u003e@210",
          "type": "activity",
          "component": "com.zhangyue.iReader.setting.ui.ActivitySkin"
        },
        {
          "start": "com.zhangyue.iReader.setting.ui.ActivitySkin.onCreate(Landroid/os/Bundle;)V",
          "target": "PC@200",
          "type": "activity",
          "component": "com.zhangyue.iReader.setting.ui.ActivitySkin",
          "constraintsFile": "constraints6_0.py",
          "variables": {
            "\u003cChainedInput1\u003e": "IAAv0"
          },
          "stringMap": {
            "7000": "\u003cUI\u003e"
          },
          "strings": {}
        },
        {
          "start": "com.zhangyue.iReader.setting.ui.ActivitySkin.onClick(Landroid/view/View;)V",
          "target": "invokevirtual \u003c Application, Ljava/lang/reflect/Method, invoke(Ljava/lang/Object;[Ljava/lang/Object;)Ljava/lang/Object; \u003e@55",
          "type": "ui",
          "activities": [
            "com.zhangyue.iReader.setting.ui.ActivitySkin"
          ],
          "listener": "com.zhangyue.iReader.setting.ui.ActivitySkin",
          "listenerMethod": "onClick",
          "uiType": "onClick",
          "constraintsFile": "constraints6_1.py",
          "variables": {
            "\u003cChainedInput1\u003e": "IAAv0"
          },
          "stringMap": {},
          "strings": {}
        }
      ]
    },
    "7": {
      "startMethod": "com.zhangyue.iReader.online.ui.i.onClick(Landroid/view/View;)V",
      "targetMethod": "java.lang.reflect.Method.invoke(Ljava/lang/Object;[Ljava/lang/Object;)Ljava/lang/Object;",
      "eventChain": [
        {
          "start": "com.zhangyue.iReader.online.ui.ActivityOnline.onCreate(Landroid/os/Bundle;)V",
          "target": "invokevirtual \u003c Application, Landroid/widget/Button, setOnClickListener(Landroid/view/View$OnClickListener;)V \u003e@115",
          "type": "activity",
          "component": "com.zhangyue.iReader.online.ui.ActivityOnline"
        },
        {
          "start": "com.zhangyue.iReader.online.ui.ActivityOnline.onCreate(Landroid/os/Bundle;)V",
          "target": "PC@3",
          "type": "activity",
          "component": "com.zhangyue.iReader.online.ui.ActivityOnline"
        },
        {
          "start": "com.zhangyue.iReader.online.ui.i.onClick(Landroid/view/View;)V",
          "target": "invokevirtual \u003c Application, Ljava/lang/reflect/Method, invoke(Ljava/lang/Object;[Ljava/lang/Object;)Ljava/lang/Object; \u003e@55",
          "type": "ui",
          "activities": [
            "com.zhangyue.iReader.online.ui.ActivityOnline"
          ],
          "listener": "com.zhangyue.iReader.online.ui.i",
          "listenerMethod": "onClick",
          "uiType": "onClick",
          "constraintsFile": "constraints7_0.py",
          "variables": {},
          "stringMap": {},
          "strings": {}
        }
      ]
    },
    "8": {
      "startMethod": "com.zhangyue.iReader.setting.ui.h.onClick(Landroid/view/View;)V",
      "targetMethod": "java.lang.reflect.Method.invoke(Ljava/lang/Object;[Ljava/lang/Object;)Ljava/lang/Object;",
      "eventChain": [
        {
          "start": "com.zhangyue.iReader.setting.ui.ActivitySettingReadEdges.onCreate(Landroid/os/Bundle;)V",
          "target": "invokevirtual \u003c Application, Landroid/widget/Button, setOnClickListener(Landroid/view/View$OnClickListener;)V \u003e@106",
          "type": "activity",
          "component": "com.zhangyue.iReader.setting.ui.ActivitySettingReadEdges"
        },
        {
          "start": "com.zhangyue.iReader.setting.ui.ActivitySettingReadEdges.\u003cinit\u003e()V",
          "target": "PC@3",
          "type": ""
        },
        {
          "start": "com.zhangyue.iReader.setting.ui.h.onClick(Landroid/view/View;)V",
          "target": "invokevirtual \u003c Application, Ljava/lang/reflect/Method, invoke(Ljava/lang/Object;[Ljava/lang/Object;)Ljava/lang/Object; \u003e@55",
          "type": "ui",
          "activities": [
            "com.zhangyue.iReader.setting.ui.ActivitySettingReadEdges"
          ],
          "listener": "com.zhangyue.iReader.setting.ui.h",
          "listenerMethod": "onClick",
          "uiType": "onClick"
        }
      ]
    },
    "9": {
      "startMethod": "com.zhangyue.iReader.local.ui.c.onClick(Landroid/view/View;)V",
      "targetMethod": "java.lang.reflect.Method.invoke(Ljava/lang/Object;[Ljava/lang/Object;)Ljava/lang/Object;",
      "eventChain": [
        {
          "start": "com.zhangyue.iReader.local.ui.ActivityLocalBook.onCreate(Landroid/os/Bundle;)V",
          "target": "invokevirtual \u003c Application, Landroid/widget/ImageView, setOnClickListener(Landroid/view/View$OnClickListener;)V \u003e@555",
          "type": "activity",
          "component": "com.zhangyue.iReader.local.ui.ActivityLocalBook",
          "constraintsFile": "constraints9_0.py",
          "variables": {},
          "stringMap": {
            "7000": "",
            "7001": "\u003cUI\u003e"
          },
          "strings": {}
        },
        {
          "start": "com.zhangyue.iReader.local.ui.ActivityLocalBook.\u003cinit\u003e()V",
          "target": "PC@3",
          "type": ""
        },
        {
          "start": "com.zhangyue.iReader.local.ui.c.onClick(Landroid/view/View;)V",
          "target": "invokevirtual \u003c Application, Ljava/lang/reflect/Method, invoke(Ljava/lang/Object;[Ljava/lang/Object;)Ljava/lang/Object; \u003e@55",
          "type": "ui",
          "activities": [
            "com.zhangyue.iReader.local.ui.ActivityLocalBook"
          ],
          "listener": "com.zhangyue.iReader.local.ui.c",
          "listenerMethod": "onClick",
          "uiType": "onClick",
          "constraintsFile": "constraints9_1.py",
          "variables": {},
          "stringMap": {
            "7000": "",
            "7001": "/"
          },
          "strings": {
            "IAAv1": ""
          }
        }
      ]
    },
    "10": {
      "startMethod": "com.zhangyue.iReader.local.ui.s.onClick(Landroid/view/View;)V",
      "targetMethod": "java.lang.reflect.Method.invoke(Ljava/lang/Object;[Ljava/lang/Object;)Ljava/lang/Object;",
      "eventChain": [
        {
          "start": "com.zhangyue.iReader.local.ui.ActivityLocalBook.onCreate(Landroid/os/Bundle;)V",
          "target": "invokevirtual \u003c Application, Landroid/widget/Button, setOnClickListener(Landroid/view/View$OnClickListener;)V \u003e@430",
          "type": "activity",
          "component": "com.zhangyue.iReader.local.ui.ActivityLocalBook",
          "constraintsFile": "constraints10_0.py",
          "variables": {},
          "stringMap": {
            "7000": "",
            "7001": "\u003cUI\u003e"
          },
          "strings": {}
        },
        {
          "start": "com.zhangyue.iReader.local.ui.ActivityLocalBook.\u003cinit\u003e()V",
          "target": "PC@3",
          "type": ""
        },
        {
          "start": "com.zhangyue.iReader.local.ui.s.onClick(Landroid/view/View;)V",
          "target": "invokevirtual \u003c Application, Ljava/lang/reflect/Method, invoke(Ljava/lang/Object;[Ljava/lang/Object;)Ljava/lang/Object; \u003e@55",
          "type": "ui",
          "activities": [
            "com.zhangyue.iReader.local.ui.ActivityLocalBook"
          ],
          "listener": "com.zhangyue.iReader.local.ui.s",
          "listenerMethod": "onClick",
          "uiType": "onClick"
        }
      ]
    },
    "11": {
      "startMethod": "com.zhangyue.iReader.read.ui.ax.onTouch(Landroid/view/View;Landroid/view/MotionEvent;)Z",
      "targetMethod": "java.lang.reflect.Method.invoke(Ljava/lang/Object;[Ljava/lang/Object;)Ljava/lang/Object;",
      "eventChain": [
        {
          "start": "com.zhangyue.iReader.read.ui.ax.onTouch(Landroid/view/View;Landroid/view/MotionEvent;)Z",
          "target": "invokevirtual \u003c Application, Ljava/lang/reflect/Method, invoke(Ljava/lang/Object;[Ljava/lang/Object;)Ljava/lang/Object; \u003e@49",
          "type": "ui",
          "activities": [
            "com.chaozh.iReader.ui.activity.WelcomeActivity"
          ],
          "listener": "com.zhangyue.iReader.read.ui.ax",
          "listenerMethod": "onTouch",
          "uiType": "onTouch",
          "constraintsFile": "constraints11_0.py",
          "variables": {
            "\u003cInput1\u003e.setScaleType().b": "IAAv1",
            "\u003cInput2\u003e.getAction()": "IAAv0"
          },
          "stringMap": {},
          "strings": {}
        }
      ]
    },
    "12": {
      "startMethod": "com.zhangyue.iReader.read.ui.ax.onTouch(Landroid/view/View;Landroid/view/MotionEvent;)Z",
      "targetMethod": "java.lang.reflect.Method.invoke(Ljava/lang/Object;[Ljava/lang/Object;)Ljava/lang/Object;",
      "eventChain": [
        {
          "start": "com.zhangyue.iReader.read.ui.ax.onTouch(Landroid/view/View;Landroid/view/MotionEvent;)Z",
          "target": "invokevirtual \u003c Application, Ljava/lang/reflect/Method, invoke(Ljava/lang/Object;[Ljava/lang/Object;)Ljava/lang/Object; \u003e@49",
          "type": "ui",
          "activities": [
            "com.chaozh.iReader.ui.activity.WelcomeActivity"
          ],
          "listener": "com.zhangyue.iReader.read.ui.ax",
          "listenerMethod": "onTouch",
          "uiType": "onTouch",
          "constraintsFile": "constraints12_0.py",
          "variables": {
            "\u003cInput2\u003e.getAction()": "IAAv0",
            "\u003cInput1\u003e.setScaleType().a": "IAAv1"
          },
          "stringMap": {},
          "strings": {}
        }
      ]
    }
  }
}