{
  "packageName": "net.mwkekdsf",
  "mainActivity": "net.mwkekdsf.Main",
  "callPaths": {
    "0": {
      "startMethod": "net.mwkekdsf.Main.onClick(Landroid/view/View;)V",
      "targetMethod": "android.telephony.SmsManager.sendTextMessage(Ljava/lang/String;Ljava/lang/String;Ljava/lang/String;Landroid/app/PendingIntent;Landroid/app/PendingIntent;)V",
      "eventChain": [
        {
          "start": "net.mwkekdsf.Main.onClick(Landroid/view/View;)V",
          "target": "invokevirtual \u003c Application, Landroid/telephony/SmsManager, sendTextMessage(Ljava/lang/String;Ljava/lang/String;Ljava/lang/String;Landroid/app/PendingIntent;Landroid/app/PendingIntent;)V \u003e@272",
          "type": "ui",
          "activities": [
            "net.mwkekdsf.Main"
          ],
          "listener": "net.mwkekdsf.Main",
          "listenerMethod": "onClick",
          "uiType": "onClick",
          "constraintsFile": "constraints0_0.py",
          "variables": {
            "\u003cInput1\u003e.getId()": "IAAv0"
          },
          "stringMap": {},
          "strings": {}
        }
      ]
    },
    "1": {
      "startMethod": "net.mwkekdsf.Main.onClick(Landroid/view/View;)V",
      "targetMethod": "android.telephony.SmsManager.sendTextMessage(Ljava/lang/String;Ljava/lang/String;Ljava/lang/String;Landroid/app/PendingIntent;Landroid/app/PendingIntent;)V",
      "eventChain": [
        {
          "start": "net.mwkekdsf.Main.onClick(Landroid/view/View;)V",
          "target": "invokevirtual \u003c Application, Landroid/telephony/SmsManager, sendTextMessage(Ljava/lang/String;Ljava/lang/String;Ljava/lang/String;Landroid/app/PendingIntent;Landroid/app/PendingIntent;)V \u003e@237",
          "type": "ui",
          "activities": [
            "net.mwkekdsf.Main"
          ],
          "listener": "net.mwkekdsf.Main",
          "listenerMethod": "onClick",
          "uiType": "onClick",
          "constraintsFile": "constraints1_0.py",
          "variables": {
            "\u003cInput1\u003e.getId()": "IAAv0"
          },
          "stringMap": {},
          "strings": {}
        }
      ]
    },
    "2": {
      "startMethod": "net.mwkekdsf.Main.onActivityResult(IILandroid/content/Intent;)V",
      "targetMethod": "android.telephony.SmsManager.sendTextMessage(Ljava/lang/String;Ljava/lang/String;Ljava/lang/String;Landroid/app/PendingIntent;Landroid/app/PendingIntent;)V",
      "eventChain": [
        {
          "start": "net.mwkekdsf.Main.onActivityResult(IILandroid/content/Intent;)V",
          "target": "invokevirtual \u003c Application, Landroid/telephony/SmsManager, sendTextMessage(Ljava/lang/String;Ljava/lang/String;Ljava/lang/String;Landroid/app/PendingIntent;Landroid/app/PendingIntent;)V \u003e@272",
          "type": "activity",
          "component": "net.mwkekdsf.Main",
          "constraintsFile": "constraints2_0.py",
          "variables": {
            "\u003cInput2\u003e": "IAAv0"
          },
          "stringMap": {},
          "strings": {}
        }
      ]
    },
    "3": {
      "startMethod": "net.mwkekdsf.Main.onActivityResult(IILandroid/content/Intent;)V",
      "targetMethod": "android.telephony.SmsManager.sendTextMessage(Ljava/lang/String;Ljava/lang/String;Ljava/lang/String;Landroid/app/PendingIntent;Landroid/app/PendingIntent;)V",
      "eventChain": [
        {
          "start": "net.mwkekdsf.Main.onActivityResult(IILandroid/content/Intent;)V",
          "target": "invokevirtual \u003c Application, Landroid/telephony/SmsManager, sendTextMessage(Ljava/lang/String;Ljava/lang/String;Ljava/lang/String;Landroid/app/PendingIntent;Landroid/app/PendingIntent;)V \u003e@237",
          "type": "activity",
          "component": "net.mwkekdsf.Main",
          "constraintsFile": "constraints3_0.py",
          "variables": {
            "\u003cInput2\u003e": "IAAv0"
          },
          "stringMap": {},
          "strings": {}
        }
      ]
    }
  }
}