{
  "packageName": "com.shere.easylocker104",
  "mainActivity": "com.shere.easylocker104.SettingsActivity",
  "callPaths": {
    "0": {
      "startMethod": "com.shere.easylocker104.EasyLockerService.onDestroy()V",
      "targetMethod": "java.lang.reflect.Method.invoke(Ljava/lang/Object;[Ljava/lang/Object;)Ljava/lang/Object;",
      "eventChain": [
        {
          "start": "com.shere.easylocker104.EasyLockerService.onDestroy()V",
          "target": "invokevirtual \u003c Application, Ljava/lang/reflect/Method, invoke(Ljava/lang/Object;[Ljava/lang/Object;)Ljava/lang/Object; \u003e@128",
          "type": "service",
          "component": "com.shere.easylocker104.EasyLockerService"
        }
      ]
    },
    "1": {
      "startMethod": "com.shere.easylocker104.EasyLockerService.onDestroy()V",
      "targetMethod": "java.lang.reflect.Method.invoke(Ljava/lang/Object;[Ljava/lang/Object;)Ljava/lang/Object;",
      "eventChain": [
        {
          "start": "com.shere.easylocker104.EasyLockerService.onDestroy()V",
          "target": "invokevirtual \u003c Application, Ljava/lang/reflect/Method, invoke(Ljava/lang/Object;[Ljava/lang/Object;)Ljava/lang/Object; \u003e@48",
          "type": "service",
          "component": "com.shere.easylocker104.EasyLockerService"
        }
      ]
    },
    "2": {
      "startMethod": "com.shere.easylocker104.AppChooserActivity.onCreate(Landroid/os/Bundle;)V",
      "targetMethod": "java.lang.reflect.Method.invoke(Ljava/lang/Object;[Ljava/lang/Object;)Ljava/lang/Object;",
      "eventChain": [
        {
          "start": "com.shere.easylocker104.AppChooserActivity.onCreate(Landroid/os/Bundle;)V",
          "target": "invokevirtual \u003c Application, Ljava/lang/reflect/Method, invoke(Ljava/lang/Object;[Ljava/lang/Object;)Ljava/lang/Object; \u003e@224",
          "type": "activity",
          "component": "com.shere.easylocker104.AppChooserActivity"
        }
      ]
    },
    "3": {
      "startMethod": "com.shere.easylocker104.AppChooserActivity.onCreate(Landroid/os/Bundle;)V",
      "targetMethod": "java.lang.reflect.Method.invoke(Ljava/lang/Object;[Ljava/lang/Object;)Ljava/lang/Object;",
      "eventChain": [
        {
          "start": "com.shere.easylocker104.AppChooserActivity.onCreate(Landroid/os/Bundle;)V",
          "target": "invokevirtual \u003c Application, Ljava/lang/reflect/Method, invoke(Ljava/lang/Object;[Ljava/lang/Object;)Ljava/lang/Object; \u003e@165",
          "type": "activity",
          "component": "com.shere.easylocker104.AppChooserActivity"
        }
      ]
    },
    "4": {
      "startMethod": "com.shere.easylocker104.AppChooserActivity.onCreate(Landroid/os/Bundle;)V",
      "targetMethod": "org.apache.http.client.HttpClient.execute(Lorg/apache/http/client/methods/HttpUriRequest;)Lorg/apache/http/HttpResponse;",
      "eventChain": [
        {
          "start": "com.shere.easylocker104.AppChooserActivity.onCreate(Landroid/os/Bundle;)V",
          "target": "invokeinterface \u003c Application, Lorg/apache/http/client/HttpClient, execute(Lorg/apache/http/client/methods/HttpUriRequest;)Lorg/apache/http/HttpResponse; \u003e@307",
          "type": "activity",
          "component": "com.shere.easylocker104.AppChooserActivity"
        }
      ]
    },
    "5": {
      "startMethod": "com.shere.easylocker104.SettingsActivity.onCreate(Landroid/os/Bundle;)V",
      "targetMethod": "java.lang.reflect.Method.invoke(Ljava/lang/Object;[Ljava/lang/Object;)Ljava/lang/Object;",
      "eventChain": [
        {
          "start": "com.shere.easylocker104.SettingsActivity.onCreate(Landroid/os/Bundle;)V",
          "target": "invokevirtual \u003c Application, Ljava/lang/reflect/Method, invoke(Ljava/lang/Object;[Ljava/lang/Object;)Ljava/lang/Object; \u003e@165",
          "type": "activity",
          "component": "com.shere.easylocker104.SettingsActivity"
        }
      ]
    },
    "6": {
      "startMethod": "com.shere.easylocker104.SettingsActivity.onCreate(Landroid/os/Bundle;)V",
      "targetMethod": "org.apache.http.client.HttpClient.execute(Lorg/apache/http/client/methods/HttpUriRequest;)Lorg/apache/http/HttpResponse;",
      "eventChain": [
        {
          "start": "com.shere.easylocker104.SettingsActivity.onCreate(Landroid/os/Bundle;)V",
          "target": "invokeinterface \u003c Application, Lorg/apache/http/client/HttpClient, execute(Lorg/apache/http/client/methods/HttpUriRequest;)Lorg/apache/http/HttpResponse; \u003e@307",
          "type": "activity",
          "component": "com.shere.easylocker104.SettingsActivity"
        }
      ]
    },
    "7": {
      "startMethod": "com.shere.easylocker104.SettingsActivity.onCreate(Landroid/os/Bundle;)V",
      "targetMethod": "java.lang.reflect.Method.invoke(Ljava/lang/Object;[Ljava/lang/Object;)Ljava/lang/Object;",
      "eventChain": [
        {
          "start": "com.shere.easylocker104.SettingsActivity.onCreate(Landroid/os/Bundle;)V",
          "target": "invokevirtual \u003c Application, Ljava/lang/reflect/Method, invoke(Ljava/lang/Object;[Ljava/lang/Object;)Ljava/lang/Object; \u003e@224",
          "type": "activity",
          "component": "com.shere.easylocker104.SettingsActivity"
        }
      ]
    },
    "8": {
      "startMethod": "com.shere.simpletools.common.BaseApplication.onCreate()V",
      "targetMethod": "org.apache.http.client.HttpClient.execute(Lorg/apache/http/client/methods/HttpUriRequest;)Lorg/apache/http/HttpResponse;",
      "eventChain": [
        {
          "start": "com.shere.simpletools.common.BaseApplication.onCreate()V",
          "target": "invokeinterface \u003c Application, Lorg/apache/http/client/HttpClient, execute(Lorg/apache/http/client/methods/HttpUriRequest;)Lorg/apache/http/HttpResponse; \u003e@197",
          "type": ""
        }
      ]
    },
    "9": {
      "startMethod": "com.shere.easylocker104.ShortcutChooserActivity.onCreate(Landroid/os/Bundle;)V",
      "targetMethod": "java.lang.reflect.Method.invoke(Ljava/lang/Object;[Ljava/lang/Object;)Ljava/lang/Object;",
      "eventChain": [
        {
          "start": "com.shere.easylocker104.ShortcutChooserActivity.onCreate(Landroid/os/Bundle;)V",
          "target": "invokevirtual \u003c Application, Ljava/lang/reflect/Method, invoke(Ljava/lang/Object;[Ljava/lang/Object;)Ljava/lang/Object; \u003e@165",
          "type": "activity",
          "component": "com.shere.easylocker104.ShortcutChooserActivity"
        }
      ]
    },
    "10": {
      "startMethod": "com.shere.easylocker104.ShortcutChooserActivity.onCreate(Landroid/os/Bundle;)V",
      "targetMethod": "java.lang.reflect.Method.invoke(Ljava/lang/Object;[Ljava/lang/Object;)Ljava/lang/Object;",
      "eventChain": [
        {
          "start": "com.shere.easylocker104.ShortcutChooserActivity.onCreate(Landroid/os/Bundle;)V",
          "target": "invokevirtual \u003c Application, Ljava/lang/reflect/Method, invoke(Ljava/lang/Object;[Ljava/lang/Object;)Ljava/lang/Object; \u003e@224",
          "type": "activity",
          "component": "com.shere.easylocker104.ShortcutChooserActivity"
        }
      ]
    },
    "11": {
      "startMethod": "com.shere.easylocker104.ShortcutChooserActivity.onCreate(Landroid/os/Bundle;)V",
      "targetMethod": "org.apache.http.client.HttpClient.execute(Lorg/apache/http/client/methods/HttpUriRequest;)Lorg/apache/http/HttpResponse;",
      "eventChain": [
        {
          "start": "com.shere.easylocker104.ShortcutChooserActivity.onCreate(Landroid/os/Bundle;)V",
          "target": "invokeinterface \u003c Application, Lorg/apache/http/client/HttpClient, execute(Lorg/apache/http/client/methods/HttpUriRequest;)Lorg/apache/http/HttpResponse; \u003e@307",
          "type": "activity",
          "component": "com.shere.easylocker104.ShortcutChooserActivity"
        }
      ]
    },
    "12": {
      "startMethod": "com.shere.easylocker104.EasyLockerService.onCreate()V",
      "targetMethod": "java.lang.reflect.Method.invoke(Ljava/lang/Object;[Ljava/lang/Object;)Ljava/lang/Object;",
      "eventChain": [
        {
          "start": "com.shere.easylocker104.EasyLockerService.onCreate()V",
          "target": "invokevirtual \u003c Application, Ljava/lang/reflect/Method, invoke(Ljava/lang/Object;[Ljava/lang/Object;)Ljava/lang/Object; \u003e@117",
          "type": "service",
          "component": "com.shere.easylocker104.EasyLockerService"
        }
      ]
    },
    "13": {
      "startMethod": "com.shere.easylocker104.EasyLockerService.onCreate()V",
      "targetMethod": "java.lang.reflect.Method.invoke(Ljava/lang/Object;[Ljava/lang/Object;)Ljava/lang/Object;",
      "eventChain": [
        {
          "start": "com.shere.easylocker104.EasyLockerService.onCreate()V",
          "target": "invokevirtual \u003c Application, Ljava/lang/reflect/Method, invoke(Ljava/lang/Object;[Ljava/lang/Object;)Ljava/lang/Object; \u003e@58",
          "type": "service",
          "component": "com.shere.easylocker104.EasyLockerService"
        }
      ]
    },
    "14": {
      "startMethod": "com.shere.simpletools.common.kg.ShereMA.onCreate(Landroid/os/Bundle;)V",
      "targetMethod": "org.apache.http.client.HttpClient.execute(Lorg/apache/http/client/methods/HttpUriRequest;)Lorg/apache/http/HttpResponse;",
      "eventChain": [
        {
          "start": "com.shere.simpletools.common.kg.ShereMA.onCreate(Landroid/os/Bundle;)V",
          "target": "invokeinterface \u003c Application, Lorg/apache/http/client/HttpClient, execute(Lorg/apache/http/client/methods/HttpUriRequest;)Lorg/apache/http/HttpResponse; \u003e@404",
          "type": "activity",
          "component": "com.shere.simpletools.common.kg.ShereMA"
        }
      ]
    },
    "15": {
      "startMethod": "com.shere.simpletools.common.kg.ShereMA.onCreate(Landroid/os/Bundle;)V",
      "targetMethod": "org.apache.http.client.HttpClient.execute(Lorg/apache/http/client/methods/HttpUriRequest;)Lorg/apache/http/HttpResponse;",
      "eventChain": [
        {
          "start": "com.shere.simpletools.common.kg.ShereMA.onCreate(Landroid/os/Bundle;)V",
          "target": "invokeinterface \u003c Application, Lorg/apache/http/client/HttpClient, execute(Lorg/apache/http/client/methods/HttpUriRequest;)Lorg/apache/http/HttpResponse; \u003e@73",
          "type": "activity",
          "component": "com.shere.simpletools.common.kg.ShereMA",
          "constraintsFile": "constraints15_0.py",
          "variables": {},
          "stringMap": {},
          "strings": {}
        }
      ]
    },
    "16": {
      "startMethod": "com.shere.easylocker104.EasyLockerActivity.onCreate(Landroid/os/Bundle;)V",
      "targetMethod": "java.lang.reflect.Method.invoke(Ljava/lang/Object;[Ljava/lang/Object;)Ljava/lang/Object;",
      "eventChain": [
        {
          "start": "com.shere.easylocker104.EasyLockerActivity.onCreate(Landroid/os/Bundle;)V",
          "target": "invokevirtual \u003c Application, Ljava/lang/reflect/Method, invoke(Ljava/lang/Object;[Ljava/lang/Object;)Ljava/lang/Object; \u003e@165",
          "type": "activity",
          "component": "com.shere.easylocker104.EasyLockerActivity"
        }
      ]
    },
    "17": {
      "startMethod": "com.shere.easylocker104.EasyLockerActivity.onCreate(Landroid/os/Bundle;)V",
      "targetMethod": "org.apache.http.client.HttpClient.execute(Lorg/apache/http/client/methods/HttpUriRequest;)Lorg/apache/http/HttpResponse;",
      "eventChain": [
        {
          "start": "com.shere.easylocker104.EasyLockerActivity.onCreate(Landroid/os/Bundle;)V",
          "target": "invokeinterface \u003c Application, Lorg/apache/http/client/HttpClient, execute(Lorg/apache/http/client/methods/HttpUriRequest;)Lorg/apache/http/HttpResponse; \u003e@307",
          "type": "activity",
          "component": "com.shere.easylocker104.EasyLockerActivity"
        }
      ]
    },
    "18": {
      "startMethod": "com.shere.easylocker104.EasyLockerActivity.onCreate(Landroid/os/Bundle;)V",
      "targetMethod": "java.lang.reflect.Method.invoke(Ljava/lang/Object;[Ljava/lang/Object;)Ljava/lang/Object;",
      "eventChain": [
        {
          "start": "com.shere.easylocker104.EasyLockerActivity.onCreate(Landroid/os/Bundle;)V",
          "target": "invokevirtual \u003c Application, Ljava/lang/reflect/Method, invoke(Ljava/lang/Object;[Ljava/lang/Object;)Ljava/lang/Object; \u003e@224",
          "type": "activity",
          "component": "com.shere.easylocker104.EasyLockerActivity"
        }
      ]
    },
    "19": {
      "startMethod": "com.ad.noname.f.onItemClick(Landroid/widget/AdapterView;Landroid/view/View;IJ)V",
      "targetMethod": "org.apache.http.client.HttpClient.execute(Lorg/apache/http/client/methods/HttpUriRequest;)Lorg/apache/http/HttpResponse;",
      "eventChain": [
        {
          "start": "com.shere.simpletools.common.kg.ShereMA.onCreate(Landroid/os/Bundle;)V",
          "target": "invokevirtual \u003c Application, Lcom/ad/noname/MyGridView, setOnItemClickListener(Landroid/widget/AdapterView$OnItemClickListener;)V \u003e@145",
          "type": "activity",
          "component": "com.shere.simpletools.common.kg.ShereMA",
          "constraintsFile": "constraints19_0.py",
          "variables": {},
          "stringMap": {},
          "strings": {}
        },
        {
          "start": "com.shere.simpletools.common.kg.ShereMA.onCreate(Landroid/os/Bundle;)V",
          "target": "PC@12",
          "type": "activity",
          "component": "com.shere.simpletools.common.kg.ShereMA"
        },
        {
          "start": "com.shere.simpletools.common.kg.ShereMA.onCreate(Landroid/os/Bundle;)V",
          "target": "PC@71",
          "type": "activity",
          "component": "com.shere.simpletools.common.kg.ShereMA"
        },
        {
          "start": "com.shere.simpletools.common.kg.ShereMA.onCreate(Landroid/os/Bundle;)V",
          "target": "PC@9",
          "type": "activity",
          "component": "com.shere.simpletools.common.kg.ShereMA"
        },
        {
          "start": "com.shere.simpletools.common.kg.ShereMA.onCreate(Landroid/os/Bundle;)V",
          "target": "PC@3",
          "type": "activity",
          "component": "com.shere.simpletools.common.kg.ShereMA"
        },
        {
          "start": "com.ad.noname.f.onItemClick(Landroid/widget/AdapterView;Landroid/view/View;IJ)V",
          "target": "invokeinterface \u003c Application, Lorg/apache/http/client/HttpClient, execute(Lorg/apache/http/client/methods/HttpUriRequest;)Lorg/apache/http/HttpResponse; \u003e@404",
          "type": "ui",
          "activities": [
            "com.shere.easylocker104.SettingsActivity"
          ],
          "listener": "com.ad.noname.f",
          "listenerMethod": "onItemClick",
          "uiType": "onItemClick",
          "constraintsFile": "constraints19_1.py",
          "variables": {
            "\u003cChainedInput1\u003e.getAdapter().getItem().l.a()": "IAAv0"
          },
          "stringMap": {},
          "strings": {}
        }
      ]
    },
    "20": {
      "startMethod": "com.ad.noname.f.onItemClick(Landroid/widget/AdapterView;Landroid/view/View;IJ)V",
      "targetMethod": "org.apache.http.client.HttpClient.execute(Lorg/apache/http/client/methods/HttpUriRequest;)Lorg/apache/http/HttpResponse;",
      "eventChain": [
        {
          "start": "com.shere.simpletools.common.kg.ShereMA.onCreate(Landroid/os/Bundle;)V",
          "target": "invokevirtual \u003c Application, Lcom/ad/noname/MyGridView, setOnItemClickListener(Landroid/widget/AdapterView$OnItemClickListener;)V \u003e@145",
          "type": "activity",
          "component": "com.shere.simpletools.common.kg.ShereMA",
          "constraintsFile": "constraints20_0.py",
          "variables": {},
          "stringMap": {},
          "strings": {}
        },
        {
          "start": "com.ad.noname.f.onItemClick(Landroid/widget/AdapterView;Landroid/view/View;IJ)V",
          "target": "invokeinterface \u003c Application, Lorg/apache/http/client/HttpClient, execute(Lorg/apache/http/client/methods/HttpUriRequest;)Lorg/apache/http/HttpResponse; \u003e@73",
          "type": "ui",
          "activities": [
            "com.shere.easylocker104.SettingsActivity"
          ],
          "listener": "com.ad.noname.f",
          "listenerMethod": "onItemClick",
          "uiType": "onItemClick",
          "constraintsFile": "constraints20_1.py",
          "variables": {
            "\u003cChainedInput1\u003e.getAdapter().getItem().l.a()": "IAAv0"
          },
          "stringMap": {},
          "strings": {}
        }
      ]
    },
    "21": {
      "startMethod": "com.ad.noname.ad.onClick(Landroid/view/View;)V",
      "targetMethod": "org.apache.http.client.HttpClient.execute(Lorg/apache/http/client/methods/HttpUriRequest;)Lorg/apache/http/HttpResponse;",
      "eventChain": [
        {
          "start": "com.shere.simpletools.common.kg.ShereMA.onCreate(Landroid/os/Bundle;)V",
          "target": "invokevirtual \u003c Application, Landroid/widget/Button, setOnClickListener(Landroid/view/View$OnClickListener;)V \u003e@4022",
          "type": "activity",
          "component": "com.shere.simpletools.common.kg.ShereMA",
          "constraintsFile": "constraints21_0.py",
          "variables": {},
          "stringMap": {},
          "strings": {}
        },
        {
          "start": "com.shere.simpletools.common.kg.ShereMA.onCreate(Landroid/os/Bundle;)V",
          "target": "PC@12",
          "type": "activity",
          "component": "com.shere.simpletools.common.kg.ShereMA"
        },
        {
          "start": "com.shere.simpletools.common.kg.ShereMA.onCreate(Landroid/os/Bundle;)V",
          "target": "PC@3",
          "type": "activity",
          "component": "com.shere.simpletools.common.kg.ShereMA",
          "constraintsFile": "constraints21_1.py",
          "variables": {
            "\u003cChainedInput1\u003e.getTag().intValue()": "IAAv1"
          },
          "stringMap": {
            "7000": ""
          },
          "strings": {
            "IAAv2": ""
          }
        },
        {
          "start": "com.shere.simpletools.common.kg.ShereMA.onCreate(Landroid/os/Bundle;)V",
          "target": "PC@71",
          "type": "activity",
          "component": "com.shere.simpletools.common.kg.ShereMA"
        },
        {
          "start": "com.shere.simpletools.common.kg.ShereMA.onCreate(Landroid/os/Bundle;)V",
          "target": "",
          "type": "activity",
          "component": "com.shere.simpletools.common.kg.ShereMA"
        },
        {
          "start": "com.shere.simpletools.common.kg.ShereMA.onCreate(Landroid/os/Bundle;)V",
          "target": "PC@9",
          "type": "activity",
          "component": "com.shere.simpletools.common.kg.ShereMA"
        },
        {
          "start": "com.shere.simpletools.common.kg.ShereMA.onCreate(Landroid/os/Bundle;)V",
          "target": "PC@3",
          "type": "activity",
          "component": "com.shere.simpletools.common.kg.ShereMA"
        },
        {
          "start": "com.ad.noname.ad.onClick(Landroid/view/View;)V",
          "target": "invokeinterface \u003c Application, Lorg/apache/http/client/HttpClient, execute(Lorg/apache/http/client/methods/HttpUriRequest;)Lorg/apache/http/HttpResponse; \u003e@404",
          "type": "ui",
          "activities": [
            "com.shere.easylocker104.SettingsActivity"
          ],
          "listener": "com.ad.noname.ad",
          "listenerMethod": "onClick",
          "uiType": "onClick",
          "constraintsFile": "constraints21_2.py",
          "variables": {
            "\u003cChainedInput1\u003e.getTag().intValue()": "IAAv1"
          },
          "stringMap": {
            "7000": ""
          },
          "strings": {
            "IAAv2": ""
          }
        }
      ]
    },
    "22": {
      "startMethod": "com.ad.noname.ad.onClick(Landroid/view/View;)V",
      "targetMethod": "org.apache.http.client.HttpClient.execute(Lorg/apache/http/client/methods/HttpUriRequest;)Lorg/apache/http/HttpResponse;",
      "eventChain": [
        {
          "start": "com.shere.simpletools.common.kg.ShereMA.onCreate(Landroid/os/Bundle;)V",
          "target": "invokevirtual \u003c Application, Landroid/widget/Button, setOnClickListener(Landroid/view/View$OnClickListener;)V \u003e@4022",
          "type": "activity",
          "component": "com.shere.simpletools.common.kg.ShereMA",
          "constraintsFile": "constraints22_0.py",
          "variables": {},
          "stringMap": {},
          "strings": {}
        },
        {
          "start": "com.shere.simpletools.common.kg.ShereMA.onCreate(Landroid/os/Bundle;)V",
          "target": "PC@3",
          "type": "activity",
          "component": "com.shere.simpletools.common.kg.ShereMA",
          "constraintsFile": "constraints22_1.py",
          "variables": {
            "\u003cChainedInput1\u003e.getTag().intValue()": "IAAv1"
          },
          "stringMap": {},
          "strings": {}
        },
        {
          "start": "com.ad.noname.ad.onClick(Landroid/view/View;)V",
          "target": "invokeinterface \u003c Application, Lorg/apache/http/client/HttpClient, execute(Lorg/apache/http/client/methods/HttpUriRequest;)Lorg/apache/http/HttpResponse; \u003e@73",
          "type": "ui",
          "activities": [
            "com.shere.easylocker104.SettingsActivity"
          ],
          "listener": "com.ad.noname.ad",
          "listenerMethod": "onClick",
          "uiType": "onClick",
          "constraintsFile": "constraints22_2.py",
          "variables": {
            "\u003cChainedInput1\u003e.getTag().intValue()": "IAAv1"
          },
          "stringMap": {},
          "strings": {}
        }
      ]
    },
    "23": {
      "startMethod": "com.shere.simpletools.common.BaseSettingActivity$7.onClick(Landroid/view/View;)V",
      "targetMethod": "org.apache.http.client.HttpClient.execute(Lorg/apache/http/client/methods/HttpUriRequest;)Lorg/apache/http/HttpResponse;",
      "eventChain": [
        {
          "start": "com.shere.easylocker104.SettingsActivity.onCreate(Landroid/os/Bundle;)V",
          "target": "invokevirtual \u003c Application, Landroid/view/View, setOnClickListener(Landroid/view/View$OnClickListener;)V \u003e@543",
          "type": "activity",
          "component": "com.shere.easylocker104.SettingsActivity"
        },
        {
          "start": "com.shere.simpletools.common.BaseSettingActivity$7.onClick(Landroid/view/View;)V",
          "target": "invokeinterface \u003c Application, Lorg/apache/http/client/HttpClient, execute(Lorg/apache/http/client/methods/HttpUriRequest;)Lorg/apache/http/HttpResponse; \u003e@6",
          "type": "ui",
          "activities": [
            "com.shere.simpletools.common.BaseSettingActivity"
          ],
          "listener": "com.shere.simpletools.common.BaseSettingActivity$7",
          "listenerMethod": "onClick",
          "uiType": "onClick"
        }
      ]
    },
    "24": {
      "startMethod": "com.ad.noname.at.onClick(Landroid/view/View;)V",
      "targetMethod": "org.apache.http.client.HttpClient.execute(Lorg/apache/http/client/methods/HttpUriRequest;)Lorg/apache/http/HttpResponse;",
      "eventChain": [
        {
          "start": "com.shere.simpletools.common.kg.ShereMA.onCreate(Landroid/os/Bundle;)V",
          "target": "invokevirtual \u003c Application, Landroid/widget/ImageButton, setOnClickListener(Landroid/view/View$OnClickListener;)V \u003e@2980",
          "type": "activity",
          "component": "com.shere.simpletools.common.kg.ShereMA",
          "constraintsFile": "constraints24_0.py",
          "variables": {},
          "stringMap": {},
          "strings": {}
        },
        {
          "start": "com.ad.noname.at.onClick(Landroid/view/View;)V",
          "target": "invokeinterface \u003c Application, Lorg/apache/http/client/HttpClient, execute(Lorg/apache/http/client/methods/HttpUriRequest;)Lorg/apache/http/HttpResponse; \u003e@73",
          "type": "ui",
          "activities": [
            "com.shere.easylocker104.SettingsActivity"
          ],
          "listener": "com.ad.noname.at",
          "listenerMethod": "onClick",
          "uiType": "onClick",
          "constraintsFile": "constraints24_1.py",
          "variables": {},
          "stringMap": {},
          "strings": {}
        }
      ]
    },
    "25": {
      "startMethod": "com.shere.simpletools.common.logic.OperatingLogic$3.onClick(Landroid/view/View;)V",
      "targetMethod": "org.apache.http.client.HttpClient.execute(Lorg/apache/http/client/methods/HttpUriRequest;)Lorg/apache/http/HttpResponse;",
      "eventChain": [
        {
          "start": "com.shere.simpletools.common.BaseEntranceActivityGroup.onKeyDown(ILandroid/view/KeyEvent;)Z",
          "target": "invokevirtual \u003c Application, Landroid/view/View, setOnClickListener(Landroid/view/View$OnClickListener;)V \u003e@461",
          "type": "ui",
          "activities": [
            "com.shere.easylocker104.SettingsActivity"
          ],
          "listener": "com.shere.simpletools.common.BaseEntranceActivityGroup",
          "listenerMethod": "onKeyDown",
          "uiType": "onKeyDown",
          "constraintsFile": "constraints25_0.py",
          "variables": {
            "\u003cInput1\u003e": "IAAv0"
          },
          "stringMap": {},
          "strings": {}
        },
        {
          "start": "com.shere.simpletools.common.BaseEntranceActivityGroup.onKeyDown(ILandroid/view/KeyEvent;)Z",
          "target": "PC@8",
          "type": "ui",
          "activities": [
            "com.shere.easylocker104.SettingsActivity"
          ],
          "listener": "com.shere.simpletools.common.BaseEntranceActivityGroup",
          "listenerMethod": "onKeyDown",
          "uiType": "onKeyDown",
          "constraintsFile": "constraints25_1.py",
          "variables": {
            "\u003cInput1\u003e": "IAAv0"
          },
          "stringMap": {},
          "strings": {}
        },
        {
          "start": "com.shere.simpletools.common.logic.OperatingLogic$3.onClick(Landroid/view/View;)V",
          "target": "invokeinterface \u003c Application, Lorg/apache/http/client/HttpClient, execute(Lorg/apache/http/client/methods/HttpUriRequest;)Lorg/apache/http/HttpResponse; \u003e@307",
          "type": "ui",
          "activities": [
            "com.shere.easylocker104.SettingsActivity"
          ],
          "listener": "com.shere.simpletools.common.logic.OperatingLogic$3",
          "listenerMethod": "onClick",
          "uiType": "onClick",
          "constraintsFile": "constraints25_2.py",
          "variables": {},
          "stringMap": {},
          "strings": {}
        }
      ]
    },
    "26": {
      "startMethod": "com.shere.simpletools.common.logic.OperatingLogic$3.onClick(Landroid/view/View;)V",
      "targetMethod": "java.lang.reflect.Method.invoke(Ljava/lang/Object;[Ljava/lang/Object;)Ljava/lang/Object;",
      "eventChain": [
        {
          "start": "com.shere.simpletools.common.BaseEntranceActivityGroup.onKeyDown(ILandroid/view/KeyEvent;)Z",
          "target": "invokevirtual \u003c Application, Landroid/view/View, setOnClickListener(Landroid/view/View$OnClickListener;)V \u003e@461",
          "type": "ui",
          "activities": [
            "com.shere.easylocker104.SettingsActivity"
          ],
          "listener": "com.shere.simpletools.common.BaseEntranceActivityGroup",
          "listenerMethod": "onKeyDown",
          "uiType": "onKeyDown",
          "constraintsFile": "constraints26_0.py",
          "variables": {
            "\u003cInput1\u003e": "IAAv0"
          },
          "stringMap": {},
          "strings": {}
        },
        {
          "start": "com.shere.simpletools.common.BaseEntranceActivityGroup.onKeyDown(ILandroid/view/KeyEvent;)Z",
          "target": "PC@8",
          "type": "ui",
          "activities": [
            "com.shere.easylocker104.SettingsActivity"
          ],
          "listener": "com.shere.simpletools.common.BaseEntranceActivityGroup",
          "listenerMethod": "onKeyDown",
          "uiType": "onKeyDown",
          "constraintsFile": "constraints26_1.py",
          "variables": {
            "\u003cInput1\u003e": "IAAv0"
          },
          "stringMap": {},
          "strings": {}
        },
        {
          "start": "com.shere.simpletools.common.logic.OperatingLogic$3.onClick(Landroid/view/View;)V",
          "target": "invokevirtual \u003c Application, Ljava/lang/reflect/Method, invoke(Ljava/lang/Object;[Ljava/lang/Object;)Ljava/lang/Object; \u003e@224",
          "type": "ui",
          "activities": [
            "com.shere.easylocker104.SettingsActivity"
          ],
          "listener": "com.shere.simpletools.common.logic.OperatingLogic$3",
          "listenerMethod": "onClick",
          "uiType": "onClick",
          "constraintsFile": "constraints26_2.py",
          "variables": {},
          "stringMap": {},
          "strings": {}
        }
      ]
    },
    "27": {
      "startMethod": "com.shere.simpletools.common.logic.OperatingLogic$3.onClick(Landroid/view/View;)V",
      "targetMethod": "java.lang.reflect.Method.invoke(Ljava/lang/Object;[Ljava/lang/Object;)Ljava/lang/Object;",
      "eventChain": [
        {
          "start": "com.shere.simpletools.common.BaseEntranceActivityGroup.onKeyDown(ILandroid/view/KeyEvent;)Z",
          "target": "invokevirtual \u003c Application, Landroid/view/View, setOnClickListener(Landroid/view/View$OnClickListener;)V \u003e@461",
          "type": "ui",
          "activities": [
            "com.shere.easylocker104.SettingsActivity"
          ],
          "listener": "com.shere.simpletools.common.BaseEntranceActivityGroup",
          "listenerMethod": "onKeyDown",
          "uiType": "onKeyDown",
          "constraintsFile": "constraints27_0.py",
          "variables": {
            "\u003cInput1\u003e": "IAAv0"
          },
          "stringMap": {},
          "strings": {}
        },
        {
          "start": "com.shere.simpletools.common.BaseEntranceActivityGroup.onKeyDown(ILandroid/view/KeyEvent;)Z",
          "target": "PC@8",
          "type": "ui",
          "activities": [
            "com.shere.easylocker104.SettingsActivity"
          ],
          "listener": "com.shere.simpletools.common.BaseEntranceActivityGroup",
          "listenerMethod": "onKeyDown",
          "uiType": "onKeyDown",
          "constraintsFile": "constraints27_1.py",
          "variables": {
            "\u003cInput1\u003e": "IAAv0"
          },
          "stringMap": {},
          "strings": {}
        },
        {
          "start": "com.shere.simpletools.common.logic.OperatingLogic$3.onClick(Landroid/view/View;)V",
          "target": "invokevirtual \u003c Application, Ljava/lang/reflect/Method, invoke(Ljava/lang/Object;[Ljava/lang/Object;)Ljava/lang/Object; \u003e@165",
          "type": "ui",
          "activities": [
            "com.shere.easylocker104.SettingsActivity"
          ],
          "listener": "com.shere.simpletools.common.logic.OperatingLogic$3",
          "listenerMethod": "onClick",
          "uiType": "onClick",
          "constraintsFile": "constraints27_2.py",
          "variables": {},
          "stringMap": {},
          "strings": {}
        }
      ]
    },
    "28": {
      "startMethod": "com.shere.simpletools.common.BaseSettingActivity$3.onClick(Landroid/view/View;)V",
      "targetMethod": "org.apache.http.client.HttpClient.execute(Lorg/apache/http/client/methods/HttpUriRequest;)Lorg/apache/http/HttpResponse;",
      "eventChain": [
        {
          "start": "com.shere.easylocker104.SettingsActivity.onCreate(Landroid/os/Bundle;)V",
          "target": "invokevirtual \u003c Application, Landroid/view/View, setOnClickListener(Landroid/view/View$OnClickListener;)V \u003e@198",
          "type": "activity",
          "component": "com.shere.easylocker104.SettingsActivity"
        },
        {
          "start": "com.shere.simpletools.common.BaseSettingActivity$7.onClick(Landroid/view/View;)V",
          "target": "PC@170",
          "type": "ui",
          "activities": [
            "com.shere.simpletools.common.BaseSettingActivity"
          ],
          "listener": "com.shere.simpletools.common.BaseSettingActivity$7",
          "listenerMethod": "onClick",
          "uiType": "onClick"
        },
        {
          "start": "com.shere.simpletools.common.BaseSettingActivity$3.onClick(Landroid/view/View;)V",
          "target": "invokeinterface \u003c Application, Lorg/apache/http/client/HttpClient, execute(Lorg/apache/http/client/methods/HttpUriRequest;)Lorg/apache/http/HttpResponse; \u003e@6",
          "type": "ui",
          "activities": [
            "com.shere.simpletools.common.BaseSettingActivity"
          ],
          "listener": "com.shere.simpletools.common.BaseSettingActivity$3",
          "listenerMethod": "onClick",
          "uiType": "onClick",
          "constraintsFile": "constraints28_0.py",
          "variables": {},
          "stringMap": {
            "7000": "\u003cUI\u003e"
          },
          "strings": {
            "IAAv1": ""
          }
        }
      ]
    },
    "29": {
      "startMethod": "com.shere.simpletools.common.OperationPushExecutor.onReceive(Landroid/content/Context;Landroid/content/Intent;)V",
      "targetMethod": "org.apache.http.client.HttpClient.execute(Lorg/apache/http/client/methods/HttpUriRequest;)Lorg/apache/http/HttpResponse;",
      "eventChain": [
        {
          "start": "com.shere.simpletools.common.OperationPushExecutor.onReceive(Landroid/content/Context;Landroid/content/Intent;)V",
          "target": "invokeinterface \u003c Application, Lorg/apache/http/client/HttpClient, execute(Lorg/apache/http/client/methods/HttpUriRequest;)Lorg/apache/http/HttpResponse; \u003e@6",
          "type": "sms"
        }
      ]
    }
  }
}