{
  "packageName": "gl_storage.rudolf",
  "mainActivity": "gl_storage.rudolf.main",
  "callPaths": {
    "0": {
      "startMethod": "anywheresoftware.b4a.objects.ListViewWrapper$2.onItemLongClick(Landroid/widget/AdapterView;Landroid/view/View;IJ)Z",
      "targetMethod": "java.lang.reflect.Method.invoke(Ljava/lang/Object;[Ljava/lang/Object;)Ljava/lang/Object;",
      "eventChain": [
        {
          "start": "anywheresoftware.b4a.objects.ListViewWrapper$2.onItemLongClick(Landroid/widget/AdapterView;Landroid/view/View;IJ)Z",
          "target": "invokevirtual \u003c Application, Ljava/lang/reflect/Method, invoke(Ljava/lang/Object;[Ljava/lang/Object;)Ljava/lang/Object; \u003e@204",
          "type": "ui",
          "activities": [
            "gl_storage.rudolf.main"
          ],
          "listener": "anywheresoftware.b4a.objects.ListViewWrapper$2",
          "listenerMethod": "onItemLongClick",
          "uiType": "onItemLongClick",
          "constraintsFile": "constraints0_0.py",
          "variables": {},
          "stringMap": {},
          "strings": {}
        }
      ]
    },
    "1": {
      "startMethod": "anywheresoftware.b4a.objects.ListViewWrapper$2.onItemLongClick(Landroid/widget/AdapterView;Landroid/view/View;IJ)Z",
      "targetMethod": "java.lang.reflect.Method.invoke(Ljava/lang/Object;[Ljava/lang/Object;)Ljava/lang/Object;",
      "eventChain": [
        {
          "start": "anywheresoftware.b4a.objects.ListViewWrapper$2.onItemLongClick(Landroid/widget/AdapterView;Landroid/view/View;IJ)Z",
          "target": "invokevirtual \u003c Application, Ljava/lang/reflect/Method, invoke(Ljava/lang/Object;[Ljava/lang/Object;)Ljava/lang/Object; \u003e@22",
          "type": "ui",
          "activities": [
            "gl_storage.rudolf.main"
          ],
          "listener": "anywheresoftware.b4a.objects.ListViewWrapper$2",
          "listenerMethod": "onItemLongClick",
          "uiType": "onItemLongClick",
          "constraintsFile": "constraints1_0.py",
          "variables": {},
          "stringMap": {},
          "strings": {}
        }
      ]
    },
    "2": {
      "startMethod": "anywheresoftware.b4a.objects.ListViewWrapper$2.onItemLongClick(Landroid/widget/AdapterView;Landroid/view/View;IJ)Z",
      "targetMethod": "java.lang.reflect.Method.invoke(Ljava/lang/Object;[Ljava/lang/Object;)Ljava/lang/Object;",
      "eventChain": [
        {
          "start": "anywheresoftware.b4a.objects.ListViewWrapper$2.onItemLongClick(Landroid/widget/AdapterView;Landroid/view/View;IJ)Z",
          "target": "invokevirtual \u003c Application, Ljava/lang/reflect/Method, invoke(Ljava/lang/Object;[Ljava/lang/Object;)Ljava/lang/Object; \u003e@23",
          "type": "ui",
          "activities": [
            "gl_storage.rudolf.main"
          ],
          "listener": "anywheresoftware.b4a.objects.ListViewWrapper$2",
          "listenerMethod": "onItemLongClick",
          "uiType": "onItemLongClick",
          "constraintsFile": "constraints2_0.py",
          "variables": {},
          "stringMap": {},
          "strings": {}
        }
      ]
    },
    "3": {
      "startMethod": "anywheresoftware.b4a.objects.ListViewWrapper$1.onItemClick(Landroid/widget/AdapterView;Landroid/view/View;IJ)V",
      "targetMethod": "java.lang.reflect.Method.invoke(Ljava/lang/Object;[Ljava/lang/Object;)Ljava/lang/Object;",
      "eventChain": [
        {
          "start": "anywheresoftware.b4a.objects.ListViewWrapper$1.onItemClick(Landroid/widget/AdapterView;Landroid/view/View;IJ)V",
          "target": "invokevirtual \u003c Application, Ljava/lang/reflect/Method, invoke(Ljava/lang/Object;[Ljava/lang/Object;)Ljava/lang/Object; \u003e@204",
          "type": "ui",
          "activities": [
            "gl_storage.rudolf.main"
          ],
          "listener": "anywheresoftware.b4a.objects.ListViewWrapper$1",
          "listenerMethod": "onItemClick",
          "uiType": "onItemClick",
          "constraintsFile": "constraints3_0.py",
          "variables": {},
          "stringMap": {},
          "strings": {}
        }
      ]
    },
    "4": {
      "startMethod": "anywheresoftware.b4a.objects.ListViewWrapper$1.onItemClick(Landroid/widget/AdapterView;Landroid/view/View;IJ)V",
      "targetMethod": "java.lang.reflect.Method.invoke(Ljava/lang/Object;[Ljava/lang/Object;)Ljava/lang/Object;",
      "eventChain": [
        {
          "start": "anywheresoftware.b4a.objects.ListViewWrapper$1.onItemClick(Landroid/widget/AdapterView;Landroid/view/View;IJ)V",
          "target": "invokevirtual \u003c Application, Ljava/lang/reflect/Method, invoke(Ljava/lang/Object;[Ljava/lang/Object;)Ljava/lang/Object; \u003e@23",
          "type": "ui",
          "activities": [
            "gl_storage.rudolf.main"
          ],
          "listener": "anywheresoftware.b4a.objects.ListViewWrapper$1",
          "listenerMethod": "onItemClick",
          "uiType": "onItemClick",
          "constraintsFile": "constraints4_0.py",
          "variables": {},
          "stringMap": {},
          "strings": {}
        }
      ]
    },
    "5": {
      "startMethod": "anywheresoftware.b4a.objects.ListViewWrapper$1.onItemClick(Landroid/widget/AdapterView;Landroid/view/View;IJ)V",
      "targetMethod": "java.lang.reflect.Method.invoke(Ljava/lang/Object;[Ljava/lang/Object;)Ljava/lang/Object;",
      "eventChain": [
        {
          "start": "anywheresoftware.b4a.objects.ListViewWrapper$1.onItemClick(Landroid/widget/AdapterView;Landroid/view/View;IJ)V",
          "target": "invokevirtual \u003c Application, Ljava/lang/reflect/Method, invoke(Ljava/lang/Object;[Ljava/lang/Object;)Ljava/lang/Object; \u003e@22",
          "type": "ui",
          "activities": [
            "gl_storage.rudolf.main"
          ],
          "listener": "anywheresoftware.b4a.objects.ListViewWrapper$1",
          "listenerMethod": "onItemClick",
          "uiType": "onItemClick",
          "constraintsFile": "constraints5_0.py",
          "variables": {},
          "stringMap": {},
          "strings": {}
        }
      ]
    },
    "6": {
      "startMethod": "anywheresoftware.b4a.objects.AutoCompleteEditTextWrapper$1.onItemClick(Landroid/widget/AdapterView;Landroid/view/View;IJ)V",
      "targetMethod": "java.lang.reflect.Method.invoke(Ljava/lang/Object;[Ljava/lang/Object;)Ljava/lang/Object;",
      "eventChain": [
        {
          "start": "anywheresoftware.b4a.objects.AutoCompleteEditTextWrapper$1.onItemClick(Landroid/widget/AdapterView;Landroid/view/View;IJ)V",
          "target": "invokevirtual \u003c Application, Ljava/lang/reflect/Method, invoke(Ljava/lang/Object;[Ljava/lang/Object;)Ljava/lang/Object; \u003e@204",
          "type": "ui",
          "activities": [
            "gl_storage.rudolf.main"
          ],
          "listener": "anywheresoftware.b4a.objects.AutoCompleteEditTextWrapper$1",
          "listenerMethod": "onItemClick",
          "uiType": "onItemClick",
          "constraintsFile": "constraints6_0.py",
          "variables": {},
          "stringMap": {},
          "strings": {}
        }
      ]
    },
    "7": {
      "startMethod": "anywheresoftware.b4a.objects.AutoCompleteEditTextWrapper$1.onItemClick(Landroid/widget/AdapterView;Landroid/view/View;IJ)V",
      "targetMethod": "java.lang.reflect.Method.invoke(Ljava/lang/Object;[Ljava/lang/Object;)Ljava/lang/Object;",
      "eventChain": [
        {
          "start": "anywheresoftware.b4a.objects.AutoCompleteEditTextWrapper$1.onItemClick(Landroid/widget/AdapterView;Landroid/view/View;IJ)V",
          "target": "invokevirtual \u003c Application, Ljava/lang/reflect/Method, invoke(Ljava/lang/Object;[Ljava/lang/Object;)Ljava/lang/Object; \u003e@23",
          "type": "ui",
          "activities": [
            "gl_storage.rudolf.main"
          ],
          "listener": "anywheresoftware.b4a.objects.AutoCompleteEditTextWrapper$1",
          "listenerMethod": "onItemClick",
          "uiType": "onItemClick",
          "constraintsFile": "constraints7_0.py",
          "variables": {},
          "stringMap": {},
          "strings": {}
        }
      ]
    },
    "8": {
      "startMethod": "anywheresoftware.b4a.objects.AutoCompleteEditTextWrapper$1.onItemClick(Landroid/widget/AdapterView;Landroid/view/View;IJ)V",
      "targetMethod": "java.lang.reflect.Method.invoke(Ljava/lang/Object;[Ljava/lang/Object;)Ljava/lang/Object;",
      "eventChain": [
        {
          "start": "anywheresoftware.b4a.objects.AutoCompleteEditTextWrapper$1.onItemClick(Landroid/widget/AdapterView;Landroid/view/View;IJ)V",
          "target": "invokevirtual \u003c Application, Ljava/lang/reflect/Method, invoke(Ljava/lang/Object;[Ljava/lang/Object;)Ljava/lang/Object; \u003e@22",
          "type": "ui",
          "activities": [
            "gl_storage.rudolf.main"
          ],
          "listener": "anywheresoftware.b4a.objects.AutoCompleteEditTextWrapper$1",
          "listenerMethod": "onItemClick",
          "uiType": "onItemClick",
          "constraintsFile": "constraints8_0.py",
          "variables": {},
          "stringMap": {},
          "strings": {}
        }
      ]
    },
    "9": {
      "startMethod": "anywheresoftware.b4a.objects.ViewWrapper$1.onClick(Landroid/view/View;)V",
      "targetMethod": "java.lang.reflect.Method.invoke(Ljava/lang/Object;[Ljava/lang/Object;)Ljava/lang/Object;",
      "eventChain": [
        {
          "start": "gl_storage.rudolf.main.onPause()V",
          "target": "",
          "type": "activity",
          "component": "gl_storage.rudolf.main",
          "constraintsFile": "constraints9_0.py",
          "variables": {},
          "stringMap": {},
          "strings": {}
        },
        {
          "start": "anywheresoftware.b4a.BA.\u003cclinit\u003e()V",
          "target": "",
          "type": "",
          "constraintsFile": "constraints9_1.py",
          "variables": {},
          "stringMap": {},
          "strings": {}
        },
        {
          "start": "anywheresoftware.b4a.Msgbox.\u003cclinit\u003e()V",
          "target": "",
          "type": ""
        },
        {
          "start": "gl_storage.rudolf.main.onPause()V",
          "target": "",
          "type": "activity",
          "component": "gl_storage.rudolf.main",
          "constraintsFile": "constraints9_2.py",
          "variables": {},
          "stringMap": {},
          "strings": {}
        },
        {
          "start": "anywheresoftware.b4a.objects.ViewWrapper$1.onClick(Landroid/view/View;)V",
          "target": "invokevirtual \u003c Application, Ljava/lang/reflect/Method, invoke(Ljava/lang/Object;[Ljava/lang/Object;)Ljava/lang/Object; \u003e@23",
          "type": "ui",
          "activities": [
            "gl_storage.rudolf.main"
          ],
          "listener": "anywheresoftware.b4a.objects.ViewWrapper$1",
          "listenerMethod": "onClick",
          "uiType": "onClick",
          "constraintsFile": "constraints9_3.py",
          "variables": {},
          "stringMap": {},
          "strings": {}
        }
      ]
    },
    "10": {
      "startMethod": "anywheresoftware.b4a.objects.ViewWrapper$1.onClick(Landroid/view/View;)V",
      "targetMethod": "java.lang.reflect.Method.invoke(Ljava/lang/Object;[Ljava/lang/Object;)Ljava/lang/Object;",
      "eventChain": [
        {
          "start": "gl_storage.rudolf.main.onPause()V",
          "target": "",
          "type": "activity",
          "component": "gl_storage.rudolf.main",
          "constraintsFile": "constraints10_0.py",
          "variables": {},
          "stringMap": {},
          "strings": {}
        },
        {
          "start": "anywheresoftware.b4a.BA.\u003cclinit\u003e()V",
          "target": "",
          "type": "",
          "constraintsFile": "constraints10_1.py",
          "variables": {},
          "stringMap": {},
          "strings": {}
        },
        {
          "start": "gl_storage.rudolf.main.onPause()V",
          "target": "",
          "type": "activity",
          "component": "gl_storage.rudolf.main",
          "constraintsFile": "constraints10_2.py",
          "variables": {},
          "stringMap": {},
          "strings": {}
        },
        {
          "start": "anywheresoftware.b4a.objects.ViewWrapper$1.onClick(Landroid/view/View;)V",
          "target": "invokevirtual \u003c Application, Ljava/lang/reflect/Method, invoke(Ljava/lang/Object;[Ljava/lang/Object;)Ljava/lang/Object; \u003e@22",
          "type": "ui",
          "activities": [
            "gl_storage.rudolf.main"
          ],
          "listener": "anywheresoftware.b4a.objects.ViewWrapper$1",
          "listenerMethod": "onClick",
          "uiType": "onClick",
          "constraintsFile": "constraints10_3.py",
          "variables": {},
          "stringMap": {},
          "strings": {}
        }
      ]
    },
    "11": {
      "startMethod": "anywheresoftware.b4a.objects.ViewWrapper$1.onClick(Landroid/view/View;)V",
      "targetMethod": "java.lang.reflect.Method.invoke(Ljava/lang/Object;[Ljava/lang/Object;)Ljava/lang/Object;",
      "eventChain": [
        {
          "start": "anywheresoftware.b4a.objects.ViewWrapper$1.onClick(Landroid/view/View;)V",
          "target": "invokevirtual \u003c Application, Ljava/lang/reflect/Method, invoke(Ljava/lang/Object;[Ljava/lang/Object;)Ljava/lang/Object; \u003e@204",
          "type": "ui",
          "activities": [
            "gl_storage.rudolf.main"
          ],
          "listener": "anywheresoftware.b4a.objects.ViewWrapper$1",
          "listenerMethod": "onClick",
          "uiType": "onClick",
          "constraintsFile": "constraints11_0.py",
          "variables": {},
          "stringMap": {},
          "strings": {}
        }
      ]
    },
    "12": {
      "startMethod": "anywheresoftware.b4a.BA$RaiseEventWhenFirstCreate.run()V",
      "targetMethod": "java.lang.reflect.Method.invoke(Ljava/lang/Object;[Ljava/lang/Object;)Ljava/lang/Object;",
      "eventChain": [
        {
          "start": "anywheresoftware.b4a.keywords.Common$5.run()V",
          "target": "PC@109",
          "type": "",
          "constraintsFile": "constraints12_0.py",
          "variables": {},
          "stringMap": {},
          "strings": {}
        },
        {
          "start": "anywheresoftware.b4a.BA$RaiseEventWhenFirstCreate.run()V",
          "target": "invokevirtual \u003c Application, Ljava/lang/reflect/Method, invoke(Ljava/lang/Object;[Ljava/lang/Object;)Ljava/lang/Object; \u003e@204",
          "type": "",
          "constraintsFile": "constraints12_1.py",
          "variables": {},
          "stringMap": {},
          "strings": {}
        }
      ]
    },
    "13": {
      "startMethod": "anywheresoftware.b4a.BA$RaiseEventWhenFirstCreate.run()V",
      "targetMethod": "java.lang.reflect.Method.invoke(Ljava/lang/Object;[Ljava/lang/Object;)Ljava/lang/Object;",
      "eventChain": [
        {
          "start": "gl_storage.rudolf.main.onPause()V",
          "target": "",
          "type": "activity",
          "component": "gl_storage.rudolf.main",
          "constraintsFile": "constraints13_0.py",
          "variables": {},
          "stringMap": {},
          "strings": {}
        },
        {
          "start": "anywheresoftware.b4a.BA.\u003cclinit\u003e()V",
          "target": "",
          "type": "",
          "constraintsFile": "constraints13_1.py",
          "variables": {},
          "stringMap": {},
          "strings": {}
        },
        {
          "start": "anywheresoftware.b4a.Msgbox.\u003cclinit\u003e()V",
          "target": "",
          "type": ""
        },
        {
          "start": "gl_storage.rudolf.main.onPause()V",
          "target": "",
          "type": "activity",
          "component": "gl_storage.rudolf.main",
          "constraintsFile": "constraints13_2.py",
          "variables": {},
          "stringMap": {},
          "strings": {}
        },
        {
          "start": "anywheresoftware.b4a.BA$RaiseEventWhenFirstCreate.run()V",
          "target": "invokevirtual \u003c Application, Ljava/lang/reflect/Method, invoke(Ljava/lang/Object;[Ljava/lang/Object;)Ljava/lang/Object; \u003e@23",
          "type": "",
          "constraintsFile": "constraints13_3.py",
          "variables": {},
          "stringMap": {},
          "strings": {}
        }
      ]
    },
    "14": {
      "startMethod": "anywheresoftware.b4a.BA$RaiseEventWhenFirstCreate.run()V",
      "targetMethod": "java.lang.reflect.Method.invoke(Ljava/lang/Object;[Ljava/lang/Object;)Ljava/lang/Object;",
      "eventChain": [
        {
          "start": "gl_storage.rudolf.main.onPause()V",
          "target": "",
          "type": "activity",
          "component": "gl_storage.rudolf.main",
          "constraintsFile": "constraints14_0.py",
          "variables": {},
          "stringMap": {},
          "strings": {}
        },
        {
          "start": "anywheresoftware.b4a.BA.\u003cclinit\u003e()V",
          "target": "",
          "type": "",
          "constraintsFile": "constraints14_1.py",
          "variables": {},
          "stringMap": {},
          "strings": {}
        },
        {
          "start": "gl_storage.rudolf.main.onPause()V",
          "target": "",
          "type": "activity",
          "component": "gl_storage.rudolf.main",
          "constraintsFile": "constraints14_2.py",
          "variables": {},
          "stringMap": {},
          "strings": {}
        },
        {
          "start": "anywheresoftware.b4a.BA$RaiseEventWhenFirstCreate.run()V",
          "target": "invokevirtual \u003c Application, Ljava/lang/reflect/Method, invoke(Ljava/lang/Object;[Ljava/lang/Object;)Ljava/lang/Object; \u003e@22",
          "type": "",
          "constraintsFile": "constraints14_3.py",
          "variables": {},
          "stringMap": {},
          "strings": {}
        }
      ]
    },
    "15": {
      "startMethod": "anywheresoftware.b4a.BA$4.run()V",
      "targetMethod": "java.lang.reflect.Method.invoke(Ljava/lang/Object;[Ljava/lang/Object;)Ljava/lang/Object;",
      "eventChain": [
        {
          "start": "anywheresoftware.b4a.BA$4.run()V",
          "target": "invokevirtual \u003c Application, Ljava/lang/reflect/Method, invoke(Ljava/lang/Object;[Ljava/lang/Object;)Ljava/lang/Object; \u003e@23",
          "type": "",
          "constraintsFile": "constraints15_0.py",
          "variables": {},
          "stringMap": {},
          "strings": {}
        }
      ]
    },
    "16": {
      "startMethod": "anywheresoftware.b4a.BA$4.run()V",
      "targetMethod": "java.lang.reflect.Method.invoke(Ljava/lang/Object;[Ljava/lang/Object;)Ljava/lang/Object;",
      "eventChain": [
        {
          "start": "anywheresoftware.b4a.BA$4.run()V",
          "target": "invokevirtual \u003c Application, Ljava/lang/reflect/Method, invoke(Ljava/lang/Object;[Ljava/lang/Object;)Ljava/lang/Object; \u003e@204",
          "type": "",
          "constraintsFile": "constraints16_0.py",
          "variables": {},
          "stringMap": {},
          "strings": {}
        }
      ]
    },
    "17": {
      "startMethod": "anywheresoftware.b4a.BA$4.run()V",
      "targetMethod": "java.lang.reflect.Method.invoke(Ljava/lang/Object;[Ljava/lang/Object;)Ljava/lang/Object;",
      "eventChain": [
        {
          "start": "anywheresoftware.b4a.BA$4.run()V",
          "target": "invokevirtual \u003c Application, Ljava/lang/reflect/Method, invoke(Ljava/lang/Object;[Ljava/lang/Object;)Ljava/lang/Object; \u003e@22",
          "type": "",
          "constraintsFile": "constraints17_0.py",
          "variables": {},
          "stringMap": {},
          "strings": {}
        }
      ]
    },
    "18": {
      "startMethod": "anywheresoftware.b4a.BA$5.run()V",
      "targetMethod": "java.lang.reflect.Method.invoke(Ljava/lang/Object;[Ljava/lang/Object;)Ljava/lang/Object;",
      "eventChain": [
        {
          "start": "gl_storage.rudolf.main.onPause()V",
          "target": "",
          "type": "activity",
          "component": "gl_storage.rudolf.main",
          "constraintsFile": "constraints18_0.py",
          "variables": {},
          "stringMap": {},
          "strings": {}
        },
        {
          "start": "anywheresoftware.b4a.BA.\u003cclinit\u003e()V",
          "target": "",
          "type": "",
          "constraintsFile": "constraints18_1.py",
          "variables": {},
          "stringMap": {},
          "strings": {}
        },
        {
          "start": "anywheresoftware.b4a.BA$5.\u003cinit\u003e(Lanywheresoftware/b4a/BA;Lanywheresoftware/b4a/IOnActivityResult;ILandroid/content/Intent;)V",
          "target": "PC@13",
          "type": "",
          "constraintsFile": "constraints18_2.py",
          "variables": {
            "\u003cInput3\u003e": "IAAv7"
          },
          "stringMap": {},
          "strings": {}
        },
        {
          "start": "anywheresoftware.b4a.Msgbox.\u003cclinit\u003e()V",
          "target": "",
          "type": ""
        },
        {
          "start": "gl_storage.rudolf.main.onPause()V",
          "target": "",
          "type": "activity",
          "component": "gl_storage.rudolf.main",
          "constraintsFile": "constraints18_3.py",
          "variables": {},
          "stringMap": {},
          "strings": {}
        },
        {
          "start": "anywheresoftware.b4a.BA$5.run()V",
          "target": "invokevirtual \u003c Application, Ljava/lang/reflect/Method, invoke(Ljava/lang/Object;[Ljava/lang/Object;)Ljava/lang/Object; \u003e@23",
          "type": "",
          "constraintsFile": "constraints18_4.py",
          "variables": {},
          "stringMap": {},
          "strings": {}
        }
      ]
    },
    "19": {
      "startMethod": "anywheresoftware.b4a.BA$5.run()V",
      "targetMethod": "java.lang.reflect.Method.invoke(Ljava/lang/Object;[Ljava/lang/Object;)Ljava/lang/Object;",
      "eventChain": [
        {
          "start": "gl_storage.rudolf.main.onPause()V",
          "target": "",
          "type": "activity",
          "component": "gl_storage.rudolf.main",
          "constraintsFile": "constraints19_0.py",
          "variables": {},
          "stringMap": {},
          "strings": {}
        },
        {
          "start": "anywheresoftware.b4a.BA.\u003cclinit\u003e()V",
          "target": "",
          "type": "",
          "constraintsFile": "constraints19_1.py",
          "variables": {},
          "stringMap": {},
          "strings": {}
        },
        {
          "start": "anywheresoftware.b4a.BA$5.\u003cinit\u003e(Lanywheresoftware/b4a/BA;Lanywheresoftware/b4a/IOnActivityResult;ILandroid/content/Intent;)V",
          "target": "PC@13",
          "type": "",
          "constraintsFile": "constraints19_2.py",
          "variables": {
            "\u003cInput3\u003e": "IAAv6"
          },
          "stringMap": {},
          "strings": {}
        },
        {
          "start": "gl_storage.rudolf.main.onPause()V",
          "target": "",
          "type": "activity",
          "component": "gl_storage.rudolf.main",
          "constraintsFile": "constraints19_3.py",
          "variables": {},
          "stringMap": {},
          "strings": {}
        },
        {
          "start": "anywheresoftware.b4a.BA$5.run()V",
          "target": "invokevirtual \u003c Application, Ljava/lang/reflect/Method, invoke(Ljava/lang/Object;[Ljava/lang/Object;)Ljava/lang/Object; \u003e@22",
          "type": "",
          "constraintsFile": "constraints19_4.py",
          "variables": {},
          "stringMap": {},
          "strings": {}
        }
      ]
    },
    "20": {
      "startMethod": "anywheresoftware.b4a.BA$5.run()V",
      "targetMethod": "java.lang.reflect.Method.invoke(Ljava/lang/Object;[Ljava/lang/Object;)Ljava/lang/Object;",
      "eventChain": [
        {
          "start": "anywheresoftware.b4a.BA$5.\u003cinit\u003e(Lanywheresoftware/b4a/BA;Lanywheresoftware/b4a/IOnActivityResult;ILandroid/content/Intent;)V",
          "target": "PC@13",
          "type": "",
          "constraintsFile": "constraints20_0.py",
          "variables": {
            "\u003cInput3\u003e": "IAAv4"
          },
          "stringMap": {},
          "strings": {}
        },
        {
          "start": "anywheresoftware.b4a.BA$5.run()V",
          "target": "invokevirtual \u003c Application, Ljava/lang/reflect/Method, invoke(Ljava/lang/Object;[Ljava/lang/Object;)Ljava/lang/Object; \u003e@204",
          "type": "",
          "constraintsFile": "constraints20_1.py",
          "variables": {},
          "stringMap": {},
          "strings": {}
        }
      ]
    },
    "21": {
      "startMethod": "anywheresoftware.b4a.objects.RemoteViewsWrapper$1.run()V",
      "targetMethod": "java.lang.reflect.Method.invoke(Ljava/lang/Object;[Ljava/lang/Object;)Ljava/lang/Object;",
      "eventChain": [
        {
          "start": "gl_storage.rudolf.main.onPause()V",
          "target": "",
          "type": "activity",
          "component": "gl_storage.rudolf.main",
          "constraintsFile": "constraints21_0.py",
          "variables": {},
          "stringMap": {},
          "strings": {}
        },
        {
          "start": "anywheresoftware.b4a.BA.\u003cclinit\u003e()V",
          "target": "",
          "type": "",
          "constraintsFile": "constraints21_1.py",
          "variables": {},
          "stringMap": {},
          "strings": {}
        },
        {
          "start": "gl_storage.rudolf.main.onPause()V",
          "target": "",
          "type": "activity",
          "component": "gl_storage.rudolf.main",
          "constraintsFile": "constraints21_2.py",
          "variables": {},
          "stringMap": {},
          "strings": {}
        },
        {
          "start": "anywheresoftware.b4a.objects.RemoteViewsWrapper$1.run()V",
          "target": "invokevirtual \u003c Application, Ljava/lang/reflect/Method, invoke(Ljava/lang/Object;[Ljava/lang/Object;)Ljava/lang/Object; \u003e@22",
          "type": "",
          "constraintsFile": "constraints21_3.py",
          "variables": {},
          "stringMap": {},
          "strings": {}
        }
      ]
    },
    "22": {
      "startMethod": "anywheresoftware.b4a.objects.RemoteViewsWrapper$1.run()V",
      "targetMethod": "java.lang.reflect.Method.invoke(Ljava/lang/Object;[Ljava/lang/Object;)Ljava/lang/Object;",
      "eventChain": [
        {
          "start": "gl_storage.rudolf.main.onPause()V",
          "target": "",
          "type": "activity",
          "component": "gl_storage.rudolf.main",
          "constraintsFile": "constraints22_0.py",
          "variables": {},
          "stringMap": {},
          "strings": {}
        },
        {
          "start": "anywheresoftware.b4a.BA.\u003cclinit\u003e()V",
          "target": "",
          "type": "",
          "constraintsFile": "constraints22_1.py",
          "variables": {},
          "stringMap": {},
          "strings": {}
        },
        {
          "start": "anywheresoftware.b4a.Msgbox.\u003cclinit\u003e()V",
          "target": "",
          "type": ""
        },
        {
          "start": "gl_storage.rudolf.main.onPause()V",
          "target": "",
          "type": "activity",
          "component": "gl_storage.rudolf.main",
          "constraintsFile": "constraints22_2.py",
          "variables": {},
          "stringMap": {},
          "strings": {}
        },
        {
          "start": "anywheresoftware.b4a.objects.RemoteViewsWrapper$1.run()V",
          "target": "invokevirtual \u003c Application, Ljava/lang/reflect/Method, invoke(Ljava/lang/Object;[Ljava/lang/Object;)Ljava/lang/Object; \u003e@23",
          "type": "",
          "constraintsFile": "constraints22_3.py",
          "variables": {},
          "stringMap": {},
          "strings": {}
        }
      ]
    },
    "23": {
      "startMethod": "anywheresoftware.b4a.objects.RemoteViewsWrapper$1.run()V",
      "targetMethod": "java.lang.reflect.Method.invoke(Ljava/lang/Object;[Ljava/lang/Object;)Ljava/lang/Object;",
      "eventChain": [
        {
          "start": "anywheresoftware.b4a.objects.RemoteViewsWrapper$1.run()V",
          "target": "invokevirtual \u003c Application, Ljava/lang/reflect/Method, invoke(Ljava/lang/Object;[Ljava/lang/Object;)Ljava/lang/Object; \u003e@204",
          "type": "",
          "constraintsFile": "constraints23_0.py",
          "variables": {},
          "stringMap": {},
          "strings": {}
        }
      ]
    },
    "24": {
      "startMethod": "anywheresoftware.b4a.objects.ViewWrapper$2.onLongClick(Landroid/view/View;)Z",
      "targetMethod": "java.lang.reflect.Method.invoke(Ljava/lang/Object;[Ljava/lang/Object;)Ljava/lang/Object;",
      "eventChain": [
        {
          "start": "anywheresoftware.b4a.objects.ViewWrapper$2.onLongClick(Landroid/view/View;)Z",
          "target": "invokevirtual \u003c Application, Ljava/lang/reflect/Method, invoke(Ljava/lang/Object;[Ljava/lang/Object;)Ljava/lang/Object; \u003e@204",
          "type": "ui",
          "activities": [
            "gl_storage.rudolf.main"
          ],
          "listener": "anywheresoftware.b4a.objects.ViewWrapper$2",
          "listenerMethod": "onLongClick",
          "uiType": "onLongClick",
          "constraintsFile": "constraints24_0.py",
          "variables": {},
          "stringMap": {},
          "strings": {}
        }
      ]
    },
    "25": {
      "startMethod": "anywheresoftware.b4a.objects.ViewWrapper$2.onLongClick(Landroid/view/View;)Z",
      "targetMethod": "java.lang.reflect.Method.invoke(Ljava/lang/Object;[Ljava/lang/Object;)Ljava/lang/Object;",
      "eventChain": [
        {
          "start": "gl_storage.rudolf.main.onPause()V",
          "target": "",
          "type": "activity",
          "component": "gl_storage.rudolf.main",
          "constraintsFile": "constraints25_0.py",
          "variables": {},
          "stringMap": {},
          "strings": {}
        },
        {
          "start": "anywheresoftware.b4a.BA.\u003cclinit\u003e()V",
          "target": "",
          "type": "",
          "constraintsFile": "constraints25_1.py",
          "variables": {},
          "stringMap": {},
          "strings": {}
        },
        {
          "start": "gl_storage.rudolf.main.onPause()V",
          "target": "",
          "type": "activity",
          "component": "gl_storage.rudolf.main",
          "constraintsFile": "constraints25_2.py",
          "variables": {},
          "stringMap": {},
          "strings": {}
        },
        {
          "start": "anywheresoftware.b4a.objects.ViewWrapper$2.onLongClick(Landroid/view/View;)Z",
          "target": "invokevirtual \u003c Application, Ljava/lang/reflect/Method, invoke(Ljava/lang/Object;[Ljava/lang/Object;)Ljava/lang/Object; \u003e@22",
          "type": "ui",
          "activities": [
            "gl_storage.rudolf.main"
          ],
          "listener": "anywheresoftware.b4a.objects.ViewWrapper$2",
          "listenerMethod": "onLongClick",
          "uiType": "onLongClick",
          "constraintsFile": "constraints25_3.py",
          "variables": {},
          "stringMap": {},
          "strings": {}
        }
      ]
    },
    "26": {
      "startMethod": "anywheresoftware.b4a.objects.ViewWrapper$2.onLongClick(Landroid/view/View;)Z",
      "targetMethod": "java.lang.reflect.Method.invoke(Ljava/lang/Object;[Ljava/lang/Object;)Ljava/lang/Object;",
      "eventChain": [
        {
          "start": "gl_storage.rudolf.main.onPause()V",
          "target": "",
          "type": "activity",
          "component": "gl_storage.rudolf.main",
          "constraintsFile": "constraints26_0.py",
          "variables": {},
          "stringMap": {},
          "strings": {}
        },
        {
          "start": "anywheresoftware.b4a.BA.\u003cclinit\u003e()V",
          "target": "",
          "type": "",
          "constraintsFile": "constraints26_1.py",
          "variables": {},
          "stringMap": {},
          "strings": {}
        },
        {
          "start": "anywheresoftware.b4a.Msgbox.\u003cclinit\u003e()V",
          "target": "",
          "type": ""
        },
        {
          "start": "gl_storage.rudolf.main.onPause()V",
          "target": "",
          "type": "activity",
          "component": "gl_storage.rudolf.main",
          "constraintsFile": "constraints26_2.py",
          "variables": {},
          "stringMap": {},
          "strings": {}
        },
        {
          "start": "anywheresoftware.b4a.objects.ViewWrapper$2.onLongClick(Landroid/view/View;)Z",
          "target": "invokevirtual \u003c Application, Ljava/lang/reflect/Method, invoke(Ljava/lang/Object;[Ljava/lang/Object;)Ljava/lang/Object; \u003e@23",
          "type": "ui",
          "activities": [
            "gl_storage.rudolf.main"
          ],
          "listener": "anywheresoftware.b4a.objects.ViewWrapper$2",
          "listenerMethod": "onLongClick",
          "uiType": "onLongClick",
          "constraintsFile": "constraints26_3.py",
          "variables": {},
          "stringMap": {},
          "strings": {}
        }
      ]
    },
    "27": {
      "startMethod": "gl_storage.rudolf.main$B4AMenuItemsClickListener.onMenuItemClick(Landroid/view/MenuItem;)Z",
      "targetMethod": "java.lang.reflect.Method.invoke(Ljava/lang/Object;[Ljava/lang/Object;)Ljava/lang/Object;",
      "eventChain": [
        {
          "start": "gl_storage.rudolf.main$B4AMenuItemsClickListener.onMenuItemClick(Landroid/view/MenuItem;)Z",
          "target": "invokevirtual \u003c Application, Ljava/lang/reflect/Method, invoke(Ljava/lang/Object;[Ljava/lang/Object;)Ljava/lang/Object; \u003e@204",
          "type": "ui",
          "activities": [
            "gl_storage.rudolf.main"
          ],
          "listener": "gl_storage.rudolf.main$B4AMenuItemsClickListener",
          "listenerMethod": "onMenuItemClick",
          "uiType": "onMenuItemClick",
          "constraintsFile": "constraints27_0.py",
          "variables": {},
          "stringMap": {},
          "strings": {}
        }
      ]
    },
    "28": {
      "startMethod": "gl_storage.rudolf.main$B4AMenuItemsClickListener.onMenuItemClick(Landroid/view/MenuItem;)Z",
      "targetMethod": "java.lang.reflect.Method.invoke(Ljava/lang/Object;[Ljava/lang/Object;)Ljava/lang/Object;",
      "eventChain": [
        {
          "start": "gl_storage.rudolf.main.onPause()V",
          "target": "",
          "type": "activity",
          "component": "gl_storage.rudolf.main",
          "constraintsFile": "constraints28_0.py",
          "variables": {},
          "stringMap": {},
          "strings": {}
        },
        {
          "start": "anywheresoftware.b4a.BA.\u003cclinit\u003e()V",
          "target": "",
          "type": "",
          "constraintsFile": "constraints28_1.py",
          "variables": {},
          "stringMap": {},
          "strings": {}
        },
        {
          "start": "gl_storage.rudolf.main.onPause()V",
          "target": "",
          "type": "activity",
          "component": "gl_storage.rudolf.main",
          "constraintsFile": "constraints28_2.py",
          "variables": {},
          "stringMap": {},
          "strings": {}
        },
        {
          "start": "gl_storage.rudolf.main$B4AMenuItemsClickListener.onMenuItemClick(Landroid/view/MenuItem;)Z",
          "target": "invokevirtual \u003c Application, Ljava/lang/reflect/Method, invoke(Ljava/lang/Object;[Ljava/lang/Object;)Ljava/lang/Object; \u003e@22",
          "type": "ui",
          "activities": [
            "gl_storage.rudolf.main"
          ],
          "listener": "gl_storage.rudolf.main$B4AMenuItemsClickListener",
          "listenerMethod": "onMenuItemClick",
          "uiType": "onMenuItemClick",
          "constraintsFile": "constraints28_3.py",
          "variables": {},
          "stringMap": {},
          "strings": {}
        }
      ]
    },
    "29": {
      "startMethod": "gl_storage.rudolf.main$B4AMenuItemsClickListener.onMenuItemClick(Landroid/view/MenuItem;)Z",
      "targetMethod": "java.lang.reflect.Method.invoke(Ljava/lang/Object;[Ljava/lang/Object;)Ljava/lang/Object;",
      "eventChain": [
        {
          "start": "gl_storage.rudolf.main.onPause()V",
          "target": "",
          "type": "activity",
          "component": "gl_storage.rudolf.main",
          "constraintsFile": "constraints29_0.py",
          "variables": {},
          "stringMap": {},
          "strings": {}
        },
        {
          "start": "anywheresoftware.b4a.BA.\u003cclinit\u003e()V",
          "target": "",
          "type": "",
          "constraintsFile": "constraints29_1.py",
          "variables": {},
          "stringMap": {},
          "strings": {}
        },
        {
          "start": "anywheresoftware.b4a.Msgbox.\u003cclinit\u003e()V",
          "target": "",
          "type": ""
        },
        {
          "start": "gl_storage.rudolf.main.onPause()V",
          "target": "",
          "type": "activity",
          "component": "gl_storage.rudolf.main",
          "constraintsFile": "constraints29_2.py",
          "variables": {},
          "stringMap": {},
          "strings": {}
        },
        {
          "start": "gl_storage.rudolf.main$B4AMenuItemsClickListener.onMenuItemClick(Landroid/view/MenuItem;)Z",
          "target": "invokevirtual \u003c Application, Ljava/lang/reflect/Method, invoke(Ljava/lang/Object;[Ljava/lang/Object;)Ljava/lang/Object; \u003e@23",
          "type": "ui",
          "activities": [
            "gl_storage.rudolf.main"
          ],
          "listener": "gl_storage.rudolf.main$B4AMenuItemsClickListener",
          "listenerMethod": "onMenuItemClick",
          "uiType": "onMenuItemClick",
          "constraintsFile": "constraints29_3.py",
          "variables": {},
          "stringMap": {},
          "strings": {}
        }
      ]
    },
    "30": {
      "startMethod": "anywheresoftware.b4a.objects.PanelWrapper$1.onTouch(Landroid/view/View;Landroid/view/MotionEvent;)Z",
      "targetMethod": "java.lang.reflect.Method.invoke(Ljava/lang/Object;[Ljava/lang/Object;)Ljava/lang/Object;",
      "eventChain": [
        {
          "start": "anywheresoftware.b4a.objects.PanelWrapper$1.onTouch(Landroid/view/View;Landroid/view/MotionEvent;)Z",
          "target": "invokevirtual \u003c Application, Ljava/lang/reflect/Method, invoke(Ljava/lang/Object;[Ljava/lang/Object;)Ljava/lang/Object; \u003e@23",
          "type": "ui",
          "activities": [
            "gl_storage.rudolf.main"
          ],
          "listener": "anywheresoftware.b4a.objects.PanelWrapper$1",
          "listenerMethod": "onTouch",
          "uiType": "onTouch",
          "constraintsFile": "constraints30_0.py",
          "variables": {},
          "stringMap": {},
          "strings": {}
        }
      ]
    },
    "31": {
      "startMethod": "anywheresoftware.b4a.objects.PanelWrapper$1.onTouch(Landroid/view/View;Landroid/view/MotionEvent;)Z",
      "targetMethod": "java.lang.reflect.Method.invoke(Ljava/lang/Object;[Ljava/lang/Object;)Ljava/lang/Object;",
      "eventChain": [
        {
          "start": "anywheresoftware.b4a.objects.PanelWrapper$1.onTouch(Landroid/view/View;Landroid/view/MotionEvent;)Z",
          "target": "invokevirtual \u003c Application, Ljava/lang/reflect/Method, invoke(Ljava/lang/Object;[Ljava/lang/Object;)Ljava/lang/Object; \u003e@204",
          "type": "ui",
          "activities": [
            "gl_storage.rudolf.main"
          ],
          "listener": "anywheresoftware.b4a.objects.PanelWrapper$1",
          "listenerMethod": "onTouch",
          "uiType": "onTouch",
          "constraintsFile": "constraints31_0.py",
          "variables": {},
          "stringMap": {},
          "strings": {}
        }
      ]
    },
    "32": {
      "startMethod": "anywheresoftware.b4a.objects.PanelWrapper$1.onTouch(Landroid/view/View;Landroid/view/MotionEvent;)Z",
      "targetMethod": "java.lang.reflect.Method.invoke(Ljava/lang/Object;[Ljava/lang/Object;)Ljava/lang/Object;",
      "eventChain": [
        {
          "start": "anywheresoftware.b4a.objects.PanelWrapper$1.onTouch(Landroid/view/View;Landroid/view/MotionEvent;)Z",
          "target": "invokevirtual \u003c Application, Ljava/lang/reflect/Method, invoke(Ljava/lang/Object;[Ljava/lang/Object;)Ljava/lang/Object; \u003e@22",
          "type": "ui",
          "activities": [
            "gl_storage.rudolf.main"
          ],
          "listener": "anywheresoftware.b4a.objects.PanelWrapper$1",
          "listenerMethod": "onTouch",
          "uiType": "onTouch",
          "constraintsFile": "constraints32_0.py",
          "variables": {},
          "stringMap": {},
          "strings": {}
        }
      ]
    },
    "33": {
      "startMethod": "anywheresoftware.b4a.objects.ActivityWrapper$1.onTouch(Landroid/view/View;Landroid/view/MotionEvent;)Z",
      "targetMethod": "java.lang.reflect.Method.invoke(Ljava/lang/Object;[Ljava/lang/Object;)Ljava/lang/Object;",
      "eventChain": [
        {
          "start": "anywheresoftware.b4a.objects.ActivityWrapper$1.onTouch(Landroid/view/View;Landroid/view/MotionEvent;)Z",
          "target": "invokevirtual \u003c Application, Ljava/lang/reflect/Method, invoke(Ljava/lang/Object;[Ljava/lang/Object;)Ljava/lang/Object; \u003e@22",
          "type": "ui",
          "activities": [
            "gl_storage.rudolf.main"
          ],
          "listener": "anywheresoftware.b4a.objects.ActivityWrapper$1",
          "listenerMethod": "onTouch",
          "uiType": "onTouch",
          "constraintsFile": "constraints33_0.py",
          "variables": {},
          "stringMap": {},
          "strings": {}
        }
      ]
    },
    "34": {
      "startMethod": "anywheresoftware.b4a.objects.ActivityWrapper$1.onTouch(Landroid/view/View;Landroid/view/MotionEvent;)Z",
      "targetMethod": "java.lang.reflect.Method.invoke(Ljava/lang/Object;[Ljava/lang/Object;)Ljava/lang/Object;",
      "eventChain": [
        {
          "start": "anywheresoftware.b4a.objects.ActivityWrapper$1.onTouch(Landroid/view/View;Landroid/view/MotionEvent;)Z",
          "target": "invokevirtual \u003c Application, Ljava/lang/reflect/Method, invoke(Ljava/lang/Object;[Ljava/lang/Object;)Ljava/lang/Object; \u003e@23",
          "type": "ui",
          "activities": [
            "gl_storage.rudolf.main"
          ],
          "listener": "anywheresoftware.b4a.objects.ActivityWrapper$1",
          "listenerMethod": "onTouch",
          "uiType": "onTouch",
          "constraintsFile": "constraints34_0.py",
          "variables": {},
          "stringMap": {},
          "strings": {}
        }
      ]
    },
    "35": {
      "startMethod": "anywheresoftware.b4a.objects.ActivityWrapper$1.onTouch(Landroid/view/View;Landroid/view/MotionEvent;)Z",
      "targetMethod": "java.lang.reflect.Method.invoke(Ljava/lang/Object;[Ljava/lang/Object;)Ljava/lang/Object;",
      "eventChain": [
        {
          "start": "anywheresoftware.b4a.objects.ActivityWrapper$1.onTouch(Landroid/view/View;Landroid/view/MotionEvent;)Z",
          "target": "invokevirtual \u003c Application, Ljava/lang/reflect/Method, invoke(Ljava/lang/Object;[Ljava/lang/Object;)Ljava/lang/Object; \u003e@204",
          "type": "ui",
          "activities": [
            "gl_storage.rudolf.main"
          ],
          "listener": "anywheresoftware.b4a.objects.ActivityWrapper$1",
          "listenerMethod": "onTouch",
          "uiType": "onTouch",
          "constraintsFile": "constraints35_0.py",
          "variables": {},
          "stringMap": {},
          "strings": {}
        }
      ]
    },
    "36": {
      "startMethod": "anywheresoftware.b4a.objects.ButtonWrapper$1.onTouch(Landroid/view/View;Landroid/view/MotionEvent;)Z",
      "targetMethod": "java.lang.reflect.Method.invoke(Ljava/lang/Object;[Ljava/lang/Object;)Ljava/lang/Object;",
      "eventChain": [
        {
          "start": "anywheresoftware.b4a.objects.ListViewWrapper$2.onItemLongClick(Landroid/widget/AdapterView;Landroid/view/View;IJ)Z",
          "target": "PC@19",
          "type": "ui",
          "activities": [
            "gl_storage.rudolf.main"
          ],
          "listener": "anywheresoftware.b4a.objects.ListViewWrapper$2",
          "listenerMethod": "onItemLongClick",
          "uiType": "onItemLongClick",
          "constraintsFile": "constraints36_0.py",
          "variables": {},
          "stringMap": {},
          "strings": {}
        },
        {
          "start": "anywheresoftware.b4a.objects.ButtonWrapper$1.onTouch(Landroid/view/View;Landroid/view/MotionEvent;)Z",
          "target": "invokevirtual \u003c Application, Ljava/lang/reflect/Method, invoke(Ljava/lang/Object;[Ljava/lang/Object;)Ljava/lang/Object; \u003e@204",
          "type": "ui",
          "activities": [
            "gl_storage.rudolf.main"
          ],
          "listener": "anywheresoftware.b4a.objects.ButtonWrapper$1",
          "listenerMethod": "onTouch",
          "uiType": "onTouch",
          "constraintsFile": "constraints36_1.py",
          "variables": {
            "\u003cChainedInput2\u003e.getAction()": "IAAv0"
          },
          "stringMap": {},
          "strings": {}
        }
      ]
    },
    "37": {
      "startMethod": "anywheresoftware.b4a.objects.ButtonWrapper$1.onTouch(Landroid/view/View;Landroid/view/MotionEvent;)Z",
      "targetMethod": "java.lang.reflect.Method.invoke(Ljava/lang/Object;[Ljava/lang/Object;)Ljava/lang/Object;",
      "eventChain": [
        {
          "start": "gl_storage.rudolf.main.onPause()V",
          "target": "",
          "type": "activity",
          "component": "gl_storage.rudolf.main",
          "constraintsFile": "constraints37_0.py",
          "variables": {
            "\u003cChainedInput2\u003e.getAction()": "IAAv0"
          },
          "stringMap": {},
          "strings": {}
        },
        {
          "start": "anywheresoftware.b4a.BA.\u003cclinit\u003e()V",
          "target": "",
          "type": "",
          "constraintsFile": "constraints37_1.py",
          "variables": {
            "\u003cChainedInput2\u003e.getAction()": "IAAv0"
          },
          "stringMap": {},
          "strings": {}
        },
        {
          "start": "anywheresoftware.b4a.Msgbox.\u003cclinit\u003e()V",
          "target": "",
          "type": ""
        },
        {
          "start": "gl_storage.rudolf.main.onPause()V",
          "target": "",
          "type": "activity",
          "component": "gl_storage.rudolf.main",
          "constraintsFile": "constraints37_2.py",
          "variables": {
            "\u003cChainedInput2\u003e.getAction()": "IAAv0"
          },
          "stringMap": {},
          "strings": {}
        },
        {
          "start": "anywheresoftware.b4a.objects.ButtonWrapper$1.onTouch(Landroid/view/View;Landroid/view/MotionEvent;)Z",
          "target": "invokevirtual \u003c Application, Ljava/lang/reflect/Method, invoke(Ljava/lang/Object;[Ljava/lang/Object;)Ljava/lang/Object; \u003e@23",
          "type": "ui",
          "activities": [
            "gl_storage.rudolf.main"
          ],
          "listener": "anywheresoftware.b4a.objects.ButtonWrapper$1",
          "listenerMethod": "onTouch",
          "uiType": "onTouch",
          "constraintsFile": "constraints37_3.py",
          "variables": {
            "\u003cChainedInput2\u003e.getAction()": "IAAv0"
          },
          "stringMap": {},
          "strings": {}
        }
      ]
    },
    "38": {
      "startMethod": "anywheresoftware.b4a.objects.ButtonWrapper$1.onTouch(Landroid/view/View;Landroid/view/MotionEvent;)Z",
      "targetMethod": "java.lang.reflect.Method.invoke(Ljava/lang/Object;[Ljava/lang/Object;)Ljava/lang/Object;",
      "eventChain": [
        {
          "start": "gl_storage.rudolf.main.onPause()V",
          "target": "",
          "type": "activity",
          "component": "gl_storage.rudolf.main",
          "constraintsFile": "constraints38_0.py",
          "variables": {
            "\u003cChainedInput2\u003e.getAction()": "IAAv0"
          },
          "stringMap": {},
          "strings": {}
        },
        {
          "start": "anywheresoftware.b4a.BA.\u003cclinit\u003e()V",
          "target": "",
          "type": "",
          "constraintsFile": "constraints38_1.py",
          "variables": {
            "\u003cChainedInput2\u003e.getAction()": "IAAv0"
          },
          "stringMap": {},
          "strings": {}
        },
        {
          "start": "gl_storage.rudolf.main.onPause()V",
          "target": "",
          "type": "activity",
          "component": "gl_storage.rudolf.main",
          "constraintsFile": "constraints38_2.py",
          "variables": {
            "\u003cChainedInput2\u003e.getAction()": "IAAv0"
          },
          "stringMap": {},
          "strings": {}
        },
        {
          "start": "anywheresoftware.b4a.objects.ButtonWrapper$1.onTouch(Landroid/view/View;Landroid/view/MotionEvent;)Z",
          "target": "invokevirtual \u003c Application, Ljava/lang/reflect/Method, invoke(Ljava/lang/Object;[Ljava/lang/Object;)Ljava/lang/Object; \u003e@22",
          "type": "ui",
          "activities": [
            "gl_storage.rudolf.main"
          ],
          "listener": "anywheresoftware.b4a.objects.ButtonWrapper$1",
          "listenerMethod": "onTouch",
          "uiType": "onTouch",
          "constraintsFile": "constraints38_3.py",
          "variables": {
            "\u003cChainedInput2\u003e.getAction()": "IAAv0"
          },
          "stringMap": {},
          "strings": {}
        }
      ]
    },
    "39": {
      "startMethod": "anywheresoftware.b4a.objects.EditTextWrapper$3.onFocusChange(Landroid/view/View;Z)V",
      "targetMethod": "java.lang.reflect.Method.invoke(Ljava/lang/Object;[Ljava/lang/Object;)Ljava/lang/Object;",
      "eventChain": [
        {
          "start": "anywheresoftware.b4a.objects.EditTextWrapper$3.onFocusChange(Landroid/view/View;Z)V",
          "target": "invokevirtual \u003c Application, Ljava/lang/reflect/Method, invoke(Ljava/lang/Object;[Ljava/lang/Object;)Ljava/lang/Object; \u003e@22",
          "type": "ui",
          "activities": [
            "gl_storage.rudolf.main"
          ],
          "listener": "anywheresoftware.b4a.objects.EditTextWrapper$3",
          "listenerMethod": "onFocusChange",
          "uiType": "onFocusChange",
          "constraintsFile": "constraints39_0.py",
          "variables": {},
          "stringMap": {},
          "strings": {}
        }
      ]
    },
    "40": {
      "startMethod": "anywheresoftware.b4a.objects.EditTextWrapper$3.onFocusChange(Landroid/view/View;Z)V",
      "targetMethod": "java.lang.reflect.Method.invoke(Ljava/lang/Object;[Ljava/lang/Object;)Ljava/lang/Object;",
      "eventChain": [
        {
          "start": "anywheresoftware.b4a.objects.EditTextWrapper$3.onFocusChange(Landroid/view/View;Z)V",
          "target": "invokevirtual \u003c Application, Ljava/lang/reflect/Method, invoke(Ljava/lang/Object;[Ljava/lang/Object;)Ljava/lang/Object; \u003e@23",
          "type": "ui",
          "activities": [
            "gl_storage.rudolf.main"
          ],
          "listener": "anywheresoftware.b4a.objects.EditTextWrapper$3",
          "listenerMethod": "onFocusChange",
          "uiType": "onFocusChange",
          "constraintsFile": "constraints40_0.py",
          "variables": {},
          "stringMap": {},
          "strings": {}
        }
      ]
    },
    "41": {
      "startMethod": "anywheresoftware.b4a.objects.EditTextWrapper$3.onFocusChange(Landroid/view/View;Z)V",
      "targetMethod": "java.lang.reflect.Method.invoke(Ljava/lang/Object;[Ljava/lang/Object;)Ljava/lang/Object;",
      "eventChain": [
        {
          "start": "anywheresoftware.b4a.objects.EditTextWrapper$3.onFocusChange(Landroid/view/View;Z)V",
          "target": "invokevirtual \u003c Application, Ljava/lang/reflect/Method, invoke(Ljava/lang/Object;[Ljava/lang/Object;)Ljava/lang/Object; \u003e@204",
          "type": "ui",
          "activities": [
            "gl_storage.rudolf.main"
          ],
          "listener": "anywheresoftware.b4a.objects.EditTextWrapper$3",
          "listenerMethod": "onFocusChange",
          "uiType": "onFocusChange",
          "constraintsFile": "constraints41_0.py",
          "variables": {},
          "stringMap": {},
          "strings": {}
        }
      ]
    },
    "42": {
      "startMethod": "anywheresoftware.b4a.objects.EditTextWrapper$2.onEditorAction(Landroid/widget/TextView;ILandroid/view/KeyEvent;)Z",
      "targetMethod": "java.lang.reflect.Method.invoke(Ljava/lang/Object;[Ljava/lang/Object;)Ljava/lang/Object;",
      "eventChain": [
        {
          "start": "gl_storage.rudolf.main.onPause()V",
          "target": "",
          "type": "activity",
          "component": "gl_storage.rudolf.main",
          "constraintsFile": "constraints42_0.py",
          "variables": {},
          "stringMap": {},
          "strings": {}
        },
        {
          "start": "anywheresoftware.b4a.BA.\u003cclinit\u003e()V",
          "target": "",
          "type": "",
          "constraintsFile": "constraints42_1.py",
          "variables": {},
          "stringMap": {},
          "strings": {}
        },
        {
          "start": "gl_storage.rudolf.main.onPause()V",
          "target": "",
          "type": "activity",
          "component": "gl_storage.rudolf.main",
          "constraintsFile": "constraints42_2.py",
          "variables": {},
          "stringMap": {},
          "strings": {}
        },
        {
          "start": "anywheresoftware.b4a.objects.EditTextWrapper$2.onEditorAction(Landroid/widget/TextView;ILandroid/view/KeyEvent;)Z",
          "target": "invokevirtual \u003c Application, Ljava/lang/reflect/Method, invoke(Ljava/lang/Object;[Ljava/lang/Object;)Ljava/lang/Object; \u003e@22",
          "type": "ui",
          "activities": [
            "gl_storage.rudolf.main"
          ],
          "listener": "anywheresoftware.b4a.objects.EditTextWrapper$2",
          "listenerMethod": "onEditorAction",
          "uiType": "onEditorAction",
          "constraintsFile": "constraints42_3.py",
          "variables": {},
          "stringMap": {},
          "strings": {}
        }
      ]
    },
    "43": {
      "startMethod": "anywheresoftware.b4a.objects.EditTextWrapper$2.onEditorAction(Landroid/widget/TextView;ILandroid/view/KeyEvent;)Z",
      "targetMethod": "java.lang.reflect.Method.invoke(Ljava/lang/Object;[Ljava/lang/Object;)Ljava/lang/Object;",
      "eventChain": [
        {
          "start": "anywheresoftware.b4a.objects.EditTextWrapper$2.onEditorAction(Landroid/widget/TextView;ILandroid/view/KeyEvent;)Z",
          "target": "invokevirtual \u003c Application, Ljava/lang/reflect/Method, invoke(Ljava/lang/Object;[Ljava/lang/Object;)Ljava/lang/Object; \u003e@204",
          "type": "ui",
          "activities": [
            "gl_storage.rudolf.main"
          ],
          "listener": "anywheresoftware.b4a.objects.EditTextWrapper$2",
          "listenerMethod": "onEditorAction",
          "uiType": "onEditorAction",
          "constraintsFile": "constraints43_0.py",
          "variables": {},
          "stringMap": {},
          "strings": {}
        }
      ]
    },
    "44": {
      "startMethod": "anywheresoftware.b4a.objects.EditTextWrapper$2.onEditorAction(Landroid/widget/TextView;ILandroid/view/KeyEvent;)Z",
      "targetMethod": "java.lang.reflect.Method.invoke(Ljava/lang/Object;[Ljava/lang/Object;)Ljava/lang/Object;",
      "eventChain": [
        {
          "start": "gl_storage.rudolf.main.onPause()V",
          "target": "",
          "type": "activity",
          "component": "gl_storage.rudolf.main",
          "constraintsFile": "constraints44_0.py",
          "variables": {},
          "stringMap": {},
          "strings": {}
        },
        {
          "start": "anywheresoftware.b4a.BA.\u003cclinit\u003e()V",
          "target": "",
          "type": "",
          "constraintsFile": "constraints44_1.py",
          "variables": {},
          "stringMap": {},
          "strings": {}
        },
        {
          "start": "anywheresoftware.b4a.Msgbox.\u003cclinit\u003e()V",
          "target": "",
          "type": ""
        },
        {
          "start": "gl_storage.rudolf.main.onPause()V",
          "target": "",
          "type": "activity",
          "component": "gl_storage.rudolf.main",
          "constraintsFile": "constraints44_2.py",
          "variables": {},
          "stringMap": {},
          "strings": {}
        },
        {
          "start": "anywheresoftware.b4a.objects.EditTextWrapper$2.onEditorAction(Landroid/widget/TextView;ILandroid/view/KeyEvent;)Z",
          "target": "invokevirtual \u003c Application, Ljava/lang/reflect/Method, invoke(Ljava/lang/Object;[Ljava/lang/Object;)Ljava/lang/Object; \u003e@23",
          "type": "ui",
          "activities": [
            "gl_storage.rudolf.main"
          ],
          "listener": "anywheresoftware.b4a.objects.EditTextWrapper$2",
          "listenerMethod": "onEditorAction",
          "uiType": "onEditorAction",
          "constraintsFile": "constraints44_3.py",
          "variables": {},
          "stringMap": {},
          "strings": {}
        }
      ]
    }
  }
}