{
  "packageName": "com.es.talk2talk",
  "mainActivity": "com.es.talk2talk.TtsActivity",
  "callPaths": {
    "0": {
      "startMethod": "com.es.talk2talk.FacebookManager.onCreate(Landroid/os/Bundle;)V",
      "targetMethod": "java.net.URL.openConnection()Ljava/net/URLConnection;",
      "eventChain": [
        {
          "start": "com.es.talk2talk.FacebookManager.onCreate(Landroid/os/Bundle;)V",
          "target": "PC@311",
          "type": "activity",
          "component": "com.es.talk2talk.FacebookManager"
        },
        {
          "start": "com.es.talk2talk.FacebookManager.onCreate(Landroid/os/Bundle;)V",
          "target": "PC@293",
          "type": "activity",
          "component": "com.es.talk2talk.FacebookManager"
        },
        {
          "start": "com.es.talk2talk.FacebookManager.onCreate(Landroid/os/Bundle;)V",
          "target": "PC@8",
          "type": "activity",
          "component": "com.es.talk2talk.FacebookManager",
          "constraintsFile": "constraints0_0.py",
          "variables": {},
          "stringMap": {},
          "strings": {}
        },
        {
          "start": "com.es.talk2talk.FacebookManager.onCreate(Landroid/os/Bundle;)V",
          "target": "PC@19",
          "type": "activity",
          "component": "com.es.talk2talk.FacebookManager",
          "constraintsFile": "constraints0_1.py",
          "variables": {},
          "stringMap": {},
          "strings": {}
        },
        {
          "start": "com.es.talk2talk.FacebookManager.onCreate(Landroid/os/Bundle;)V",
          "target": "invokevirtual \u003c Application, Ljava/net/URL, openConnection()Ljava/net/URLConnection; \u003e@71",
          "type": "activity",
          "component": "com.es.talk2talk.FacebookManager",
          "constraintsFile": "constraints0_2.py",
          "variables": {},
          "stringMap": {
            "7000": "GET"
          },
          "strings": {}
        }
      ]
    },
    "1": {
      "startMethod": "com.es.talk2talk.TwitterManager.onCreate(Landroid/os/Bundle;)V",
      "targetMethod": "java.net.URL.openConnection()Ljava/net/URLConnection;",
      "eventChain": [
        {
          "start": "com.es.talk2talk.TwitterManager.onCreate(Landroid/os/Bundle;)V",
          "target": "PC@19",
          "type": "activity",
          "component": "com.es.talk2talk.TwitterManager",
          "constraintsFile": "constraints1_0.py",
          "variables": {
            "\u003cUI\u003e.requestFreshAd().$assertionsDisabled": "IAAv7",
            "SharedPreferences\u003caccess_token\u003e": "IAAv0",
            "SharedPreferences\u003caccess_secret\u003e": "IAAv2",
            "\u003cUI\u003e.requestFreshAd().mensaje.length()": "IAAv4"
          },
          "stringMap": {
            "7000": "null",
            "7001": "Rate limit exceeded",
            "7002": "jtwitterlib"
          },
          "strings": {
            "IAAv2": "",
            "IAAv0": "",
            "IAAv10": "",
            "IAAv8": ""
          }
        },
        {
          "start": "com.es.talk2talk.TwitterManager.onCreate(Landroid/os/Bundle;)V",
          "target": "invokevirtual \u003c Application, Ljava/net/URL, openConnection()Ljava/net/URLConnection; \u003e@545",
          "type": "activity",
          "component": "com.es.talk2talk.TwitterManager",
          "constraintsFile": "constraints1_1.py",
          "variables": {
            "\u003cUI\u003e.requestFreshAd().$assertionsDisabled": "IAAv7",
            "SharedPreferences\u003caccess_token\u003e": "IAAv0",
            "SharedPreferences\u003caccess_secret\u003e": "IAAv2",
            "\u003cUI\u003e.requestFreshAd().mensaje.length()": "IAAv4"
          },
          "stringMap": {
            "7000": "null",
            "7001": "Rate limit exceeded"
          },
          "strings": {
            "IAAv2": "",
            "IAAv0": "",
            "IAAv10": "",
            "IAAv8": ""
          }
        }
      ]
    },
    "2": {
      "startMethod": "com.es.talk2talk.TwitterManager.onCreate(Landroid/os/Bundle;)V",
      "targetMethod": "java.net.URL.openConnection()Ljava/net/URLConnection;",
      "eventChain": [
        {
          "start": "com.es.talk2talk.TwitterManager.onCreate(Landroid/os/Bundle;)V",
          "target": "invokevirtual \u003c Application, Ljava/net/URL, openConnection()Ljava/net/URLConnection; \u003e@11",
          "type": "activity",
          "component": "com.es.talk2talk.TwitterManager",
          "constraintsFile": "constraints2_0.py",
          "variables": {
            "SharedPreferences\u003caccess_token\u003e": "IAAv0",
            "SharedPreferences\u003caccess_secret\u003e": "IAAv2"
          },
          "stringMap": {
            "7000": "null"
          },
          "strings": {
            "IAAv4": "",
            "IAAv2": "",
            "IAAv0": "",
            "IAAv5": ""
          }
        }
      ]
    },
    "3": {
      "startMethod": "com.es.talk2talk.TwitterManager.onCreate(Landroid/os/Bundle;)V",
      "targetMethod": "java.lang.reflect.Method.invoke(Ljava/lang/Object;[Ljava/lang/Object;)Ljava/lang/Object;",
      "eventChain": [
        {
          "start": "com.es.talk2talk.TwitterManager.onCreate(Landroid/os/Bundle;)V",
          "target": "PC@19",
          "type": "activity",
          "component": "com.es.talk2talk.TwitterManager",
          "constraintsFile": "constraints3_0.py",
          "variables": {
            "\u003cUI\u003e.requestFreshAd().$assertionsDisabled": "IAAv7",
            "SharedPreferences\u003caccess_token\u003e": "IAAv0",
            "SharedPreferences\u003caccess_secret\u003e": "IAAv2",
            "\u003cUI\u003e.requestFreshAd().mensaje.length()": "IAAv4"
          },
          "stringMap": {
            "7000": "null",
            "7001": "jtwitterlib"
          },
          "strings": {
            "IAAv2": "",
            "IAAv0": ""
          }
        },
        {
          "start": "com.es.talk2talk.TwitterManager.onCreate(Landroid/os/Bundle;)V",
          "target": "invokevirtual \u003c Application, Ljava/lang/reflect/Method, invoke(Ljava/lang/Object;[Ljava/lang/Object;)Ljava/lang/Object; \u003e@39",
          "type": "activity",
          "component": "com.es.talk2talk.TwitterManager",
          "constraintsFile": "constraints3_1.py",
          "variables": {
            "\u003cUI\u003e.requestFreshAd().$assertionsDisabled": "IAAv7",
            "SharedPreferences\u003caccess_token\u003e": "IAAv0",
            "SharedPreferences\u003caccess_secret\u003e": "IAAv2",
            "\u003cUI\u003e.requestFreshAd().mensaje.length()": "IAAv4"
          },
          "stringMap": {
            "7000": "null"
          },
          "strings": {
            "IAAv2": "",
            "IAAv0": ""
          }
        }
      ]
    },
    "4": {
      "startMethod": "com.es.talk2talk.TwitterManager.onCreate(Landroid/os/Bundle;)V",
      "targetMethod": "java.net.URL.openConnection()Ljava/net/URLConnection;",
      "eventChain": [
        {
          "start": "com.es.talk2talk.TwitterManager.onCreate(Landroid/os/Bundle;)V",
          "target": "PC@19",
          "type": "activity",
          "component": "com.es.talk2talk.TwitterManager",
          "constraintsFile": "constraints4_0.py",
          "variables": {
            "\u003cUI\u003e.requestFreshAd().$assertionsDisabled": "IAAv7",
            "SharedPreferences\u003caccess_token\u003e": "IAAv0",
            "SharedPreferences\u003caccess_secret\u003e": "IAAv2",
            "\u003cUI\u003e.requestFreshAd().mensaje.length()": "IAAv4"
          },
          "stringMap": {
            "7000": "null",
            "7001": "jtwitterlib"
          },
          "strings": {
            "IAAv2": "",
            "IAAv0": ""
          }
        },
        {
          "start": "com.es.talk2talk.TwitterManager.onCreate(Landroid/os/Bundle;)V",
          "target": "invokevirtual \u003c Application, Ljava/net/URL, openConnection()Ljava/net/URLConnection; \u003e@17",
          "type": "activity",
          "component": "com.es.talk2talk.TwitterManager",
          "constraintsFile": "constraints4_1.py",
          "variables": {
            "\u003cUI\u003e.requestFreshAd().$assertionsDisabled": "IAAv7",
            "SharedPreferences\u003caccess_token\u003e": "IAAv0",
            "SharedPreferences\u003caccess_secret\u003e": "IAAv2",
            "\u003cUI\u003e.requestFreshAd().mensaje.length()": "IAAv4"
          },
          "stringMap": {
            "7000": "null"
          },
          "strings": {
            "IAAv2": "",
            "IAAv0": ""
          }
        }
      ]
    },
    "5": {
      "startMethod": "com.admob.android.ads.analytics.InstallReceiver.onReceive(Landroid/content/Context;Landroid/content/Intent;)V",
      "targetMethod": "java.net.URL.openConnection()Ljava/net/URLConnection;",
      "eventChain": [
        {
          "start": "com.admob.android.ads.analytics.InstallReceiver.onReceive(Landroid/content/Context;Landroid/content/Intent;)V",
          "target": "invokevirtual \u003c Application, Ljava/net/URL, openConnection()Ljava/net/URLConnection; \u003e@329",
          "type": "sms"
        }
      ]
    },
    "6": {
      "startMethod": "com.es.talk2talk.LoginButton$ButtonOnClickListener.onClick(Landroid/view/View;)V",
      "targetMethod": "java.net.URL.openConnection()Ljava/net/URLConnection;",
      "eventChain": [
        {
          "start": "com.es.talk2talk.LoginButton$ButtonOnClickListener.onClick(Landroid/view/View;)V",
          "target": "invokevirtual \u003c Application, Ljava/net/URL, openConnection()Ljava/net/URLConnection; \u003e@71",
          "type": "ui",
          "activities": [
            "com.es.talk2talk.TtsActivity"
          ],
          "listener": "com.es.talk2talk.LoginButton$ButtonOnClickListener",
          "listenerMethod": "onClick",
          "uiType": "onClick",
          "constraintsFile": "constraints6_0.py",
          "variables": {},
          "stringMap": {},
          "strings": {}
        }
      ]
    }
  }
}