{
  "packageName": "com.app_q044.layout",
  "mainActivity": "com.biznessapps.layout.MainController",
  "callPaths": {
    "0": {
      "startMethod": "com.facebook.LoginActivity.onResume()V",
      "targetMethod": "java.net.URL.openConnection()Ljava/net/URLConnection;",
      "eventChain": [
        {
          "start": "com.facebook.LoginActivity.onCreate(Landroid/os/Bundle;)V",
          "target": "PC@30",
          "type": "activity",
          "component": "com.facebook.LoginActivity",
          "constraintsFile": "constraints0_0.py",
          "variables": {
            "\u003cInput1\u003e": "IAAv8"
          },
          "stringMap": {},
          "strings": {
            "IAAv3": "",
            "IAAv2": ""
          }
        },
        {
          "start": "com.facebook.LoginActivity.onResume()V",
          "target": "invokevirtual \u003c Application, Ljava/net/URL, openConnection()Ljava/net/URLConnection; \u003e@2",
          "type": "activity",
          "component": "com.facebook.LoginActivity",
          "constraintsFile": "constraints0_1.py",
          "variables": {},
          "stringMap": {},
          "strings": {
            "IAAv3": "",
            "IAAv2": ""
          }
        }
      ]
    },
    "1": {
      "startMethod": "com.biznessapps.layout.MainController.onCreate(Landroid/os/Bundle;)V",
      "targetMethod": "org.apache.http.client.HttpClient.execute(Lorg/apache/http/client/methods/HttpUriRequest;)Lorg/apache/http/HttpResponse;",
      "eventChain": [
        {
          "start": "com.biznessapps.layout.MainController.onCreate(Landroid/os/Bundle;)V",
          "target": "invokeinterface \u003c Application, Lorg/apache/http/client/HttpClient, execute(Lorg/apache/http/client/methods/HttpUriRequest;)Lorg/apache/http/HttpResponse; \u003e@32",
          "type": "activity",
          "component": "com.biznessapps.layout.MainController"
        }
      ]
    },
    "2": {
      "startMethod": "com.biznessapps.layout.MainController.onCreate(Landroid/os/Bundle;)V",
      "targetMethod": "org.apache.http.client.HttpClient.execute(Lorg/apache/http/client/methods/HttpUriRequest;)Lorg/apache/http/HttpResponse;",
      "eventChain": [
        {
          "start": "com.biznessapps.layout.MainController.onCreate(Landroid/os/Bundle;)V",
          "target": "invokeinterface \u003c Application, Lorg/apache/http/client/HttpClient, execute(Lorg/apache/http/client/methods/HttpUriRequest;)Lorg/apache/http/HttpResponse; \u003e@161",
          "type": "activity",
          "component": "com.biznessapps.layout.MainController"
        }
      ]
    },
    "3": {
      "startMethod": "com.biznessapps.layout.MainController.onCreate(Landroid/os/Bundle;)V",
      "targetMethod": "org.apache.http.client.HttpClient.execute(Lorg/apache/http/client/methods/HttpUriRequest;)Lorg/apache/http/HttpResponse;",
      "eventChain": [
        {
          "start": "com.biznessapps.layout.MainController.onCreate(Landroid/os/Bundle;)V",
          "target": "invokeinterface \u003c Application, Lorg/apache/http/client/HttpClient, execute(Lorg/apache/http/client/methods/HttpUriRequest;)Lorg/apache/http/HttpResponse; \u003e@239",
          "type": "activity",
          "component": "com.biznessapps.layout.MainController"
        }
      ]
    },
    "4": {
      "startMethod": "com.biznessapps.activities.TwitterLoginActivity.onCreate(Landroid/os/Bundle;)V",
      "targetMethod": "java.net.URL.openConnection(Ljava/net/Proxy;)Ljava/net/URLConnection;",
      "eventChain": [
        {
          "start": "com.biznessapps.activities.TwitterLoginActivity.onCreate(Landroid/os/Bundle;)V",
          "target": "invokevirtual \u003c Application, Ljava/net/URL, openConnection(Ljava/net/Proxy;)Ljava/net/URLConnection; \u003e@372",
          "type": "activity",
          "component": "com.biznessapps.activities.TwitterLoginActivity",
          "constraintsFile": "constraints4_0.py",
          "variables": {},
          "stringMap": {
            "7000": ""
          },
          "strings": {
            "IAAv2": "",
            "IAAv0": ""
          }
        }
      ]
    },
    "5": {
      "startMethod": "com.biznessapps.activities.TwitterLoginActivity.onCreate(Landroid/os/Bundle;)V",
      "targetMethod": "java.net.URL.openConnection()Ljava/net/URLConnection;",
      "eventChain": [
        {
          "start": "com.biznessapps.activities.TwitterLoginActivity.onCreate(Landroid/os/Bundle;)V",
          "target": "invokevirtual \u003c Application, Ljava/net/URL, openConnection()Ljava/net/URLConnection; \u003e@462",
          "type": "activity",
          "component": "com.biznessapps.activities.TwitterLoginActivity",
          "constraintsFile": "constraints5_0.py",
          "variables": {},
          "stringMap": {
            "7000": ""
          },
          "strings": {
            "IAAv0": ""
          }
        }
      ]
    },
    "6": {
      "startMethod": "com.biznessapps.activities.HomeScreenActivity.onResume()V",
      "targetMethod": "org.apache.http.client.HttpClient.execute(Lorg/apache/http/client/methods/HttpUriRequest;)Lorg/apache/http/HttpResponse;",
      "eventChain": [
        {
          "start": "com.biznessapps.activities.HomeScreenActivity.onResume()V",
          "target": "invokeinterface \u003c Application, Lorg/apache/http/client/HttpClient, execute(Lorg/apache/http/client/methods/HttpUriRequest;)Lorg/apache/http/HttpResponse; \u003e@50",
          "type": "activity",
          "component": "com.biznessapps.activities.HomeScreenActivity"
        }
      ]
    },
    "7": {
      "startMethod": "com.biznessapps.activities.GalleryPreviewActivity.onCreate(Landroid/os/Bundle;)V",
      "targetMethod": "org.apache.http.client.HttpClient.execute(Lorg/apache/http/client/methods/HttpUriRequest;)Lorg/apache/http/HttpResponse;",
      "eventChain": [
        {
          "start": "com.biznessapps.activities.GalleryPreviewActivity.onCreate(Landroid/os/Bundle;)V",
          "target": "invokeinterface \u003c Application, Lorg/apache/http/client/HttpClient, execute(Lorg/apache/http/client/methods/HttpUriRequest;)Lorg/apache/http/HttpResponse; \u003e@31",
          "type": "activity",
          "component": "com.biznessapps.activities.GalleryPreviewActivity",
          "constraintsFile": "constraints7_0.py",
          "variables": {},
          "stringMap": {},
          "strings": {}
        }
      ]
    },
    "8": {
      "startMethod": "com.biznessapps.activities.GalleryPreviewActivity.onCreate(Landroid/os/Bundle;)V",
      "targetMethod": "org.apache.http.client.HttpClient.execute(Lorg/apache/http/client/methods/HttpUriRequest;)Lorg/apache/http/HttpResponse;",
      "eventChain": [
        {
          "start": "com.biznessapps.activities.GalleryPreviewActivity.onCreate(Landroid/os/Bundle;)V",
          "target": "invokeinterface \u003c Application, Lorg/apache/http/client/HttpClient, execute(Lorg/apache/http/client/methods/HttpUriRequest;)Lorg/apache/http/HttpResponse; \u003e@29",
          "type": "activity",
          "component": "com.biznessapps.activities.GalleryPreviewActivity",
          "constraintsFile": "constraints8_0.py",
          "variables": {},
          "stringMap": {},
          "strings": {}
        }
      ]
    },
    "9": {
      "startMethod": "com.paypal.android.MEP.PayPalActivity.onCreate(Landroid/os/Bundle;)V",
      "targetMethod": "org.apache.http.impl.client.DefaultHttpClient.execute(Lorg/apache/http/client/methods/HttpUriRequest;)Lorg/apache/http/HttpResponse;",
      "eventChain": [
        {
          "start": "com.paypal.android.MEP.PayPalActivity.onCreate(Landroid/os/Bundle;)V",
          "target": "",
          "type": "activity",
          "component": "com.paypal.android.MEP.PayPalActivity",
          "constraintsFile": "constraints9_0.py",
          "variables": {},
          "stringMap": {},
          "strings": {}
        },
        {
          "start": "com.paypal.android.MEP.PayPalActivity.onCreate(Landroid/os/Bundle;)V",
          "target": "invokevirtual \u003c Application, Lorg/apache/http/impl/client/DefaultHttpClient, execute(Lorg/apache/http/client/methods/HttpUriRequest;)Lorg/apache/http/HttpResponse; \u003e@53",
          "type": "activity",
          "component": "com.paypal.android.MEP.PayPalActivity",
          "constraintsFile": "constraints9_1.py",
          "variables": {},
          "stringMap": {},
          "strings": {}
        }
      ]
    },
    "10": {
      "startMethod": "com.paypal.android.MEP.PayPalActivity.onCreate(Landroid/os/Bundle;)V",
      "targetMethod": "org.apache.http.impl.client.DefaultHttpClient.execute(Lorg/apache/http/client/methods/HttpUriRequest;)Lorg/apache/http/HttpResponse;",
      "eventChain": [
        {
          "start": "com.paypal.android.MEP.PayPalActivity.onCreate(Landroid/os/Bundle;)V",
          "target": "",
          "type": "activity",
          "component": "com.paypal.android.MEP.PayPalActivity",
          "constraintsFile": "constraints10_0.py",
          "variables": {},
          "stringMap": {},
          "strings": {}
        },
        {
          "start": "com.paypal.android.MEP.PayPalActivity.onCreate(Landroid/os/Bundle;)V",
          "target": "",
          "type": "activity",
          "component": "com.paypal.android.MEP.PayPalActivity"
        },
        {
          "start": "com.paypal.android.MEP.PayPalActivity.onCreate(Landroid/os/Bundle;)V",
          "target": "invokevirtual \u003c Application, Lorg/apache/http/impl/client/DefaultHttpClient, execute(Lorg/apache/http/client/methods/HttpUriRequest;)Lorg/apache/http/HttpResponse; \u003e@410",
          "type": "activity",
          "component": "com.paypal.android.MEP.PayPalActivity",
          "constraintsFile": "constraints10_1.py",
          "variables": {},
          "stringMap": {},
          "strings": {}
        }
      ]
    },
    "11": {
      "startMethod": "com.biznessapps.layout.views.scanning.CaptureActivity.onPause()V",
      "targetMethod": "java.lang.reflect.Method.invoke(Ljava/lang/Object;[Ljava/lang/Object;)Ljava/lang/Object;",
      "eventChain": [
        {
          "start": "com.biznessapps.layout.views.scanning.CaptureActivity.onCreate(Landroid/os/Bundle;)V",
          "target": "PC@64",
          "type": "activity",
          "component": "com.biznessapps.layout.views.scanning.CaptureActivity",
          "constraintsFile": "constraints11_0.py",
          "variables": {},
          "stringMap": {},
          "strings": {}
        },
        {
          "start": "com.biznessapps.layout.views.scanning.CaptureActivity.onResume()V",
          "target": "PC@16",
          "type": "activity",
          "component": "com.biznessapps.layout.views.scanning.CaptureActivity",
          "constraintsFile": "constraints11_1.py",
          "variables": {},
          "stringMap": {},
          "strings": {}
        },
        {
          "start": "com.biznessapps.layout.views.scanning.CaptureActivity.onPause()V",
          "target": "invokevirtual \u003c Application, Ljava/lang/reflect/Method, invoke(Ljava/lang/Object;[Ljava/lang/Object;)Ljava/lang/Object; \u003e@7",
          "type": "activity",
          "component": "com.biznessapps.layout.views.scanning.CaptureActivity",
          "constraintsFile": "constraints11_2.py",
          "variables": {},
          "stringMap": {},
          "strings": {}
        }
      ]
    },
    "12": {
      "startMethod": "com.biznessapps.pushnotifications.C2DMMessagesReceiver.onReceive(Landroid/content/Context;Landroid/content/Intent;)V",
      "targetMethod": "org.apache.http.client.HttpClient.execute(Lorg/apache/http/client/methods/HttpUriRequest;)Lorg/apache/http/HttpResponse;",
      "eventChain": [
        {
          "start": "com.biznessapps.pushnotifications.C2DMMessagesReceiver.onReceive(Landroid/content/Context;Landroid/content/Intent;)V",
          "target": "invokeinterface \u003c Application, Lorg/apache/http/client/HttpClient, execute(Lorg/apache/http/client/methods/HttpUriRequest;)Lorg/apache/http/HttpResponse; \u003e@32",
          "type": "sms",
          "constraintsFile": "constraints12_0.py",
          "variables": {
            "\u003cInput2\u003e.getAction()": "IAAv0",
            "\u003cInput2\u003e.getStringExtra()": "IAAv3",
            "\u003cInput2\u003e.getStringExtra().indexOf()": "IAAv2"
          },
          "stringMap": {
            "7000": "com.google.android.c2dm.intent.RECEIVE"
          },
          "strings": {
            "IAAv3": "",
            "IAAv0": ""
          }
        }
      ]
    },
    "13": {
      "startMethod": "com.biznessapps.activities.GalleryActivity.onResume()V",
      "targetMethod": "org.apache.http.client.HttpClient.execute(Lorg/apache/http/client/methods/HttpUriRequest;)Lorg/apache/http/HttpResponse;",
      "eventChain": [
        {
          "start": "com.biznessapps.activities.GalleryActivity.onResume()V",
          "target": "invokeinterface \u003c Application, Lorg/apache/http/client/HttpClient, execute(Lorg/apache/http/client/methods/HttpUriRequest;)Lorg/apache/http/HttpResponse; \u003e@50",
          "type": "activity",
          "component": "com.biznessapps.activities.GalleryActivity"
        }
      ]
    },
    "14": {
      "startMethod": "com.biznessapps.activities.GalleryPreviewActivity$ImageGestureListener.onFling(Landroid/view/MotionEvent;Landroid/view/MotionEvent;FF)Z",
      "targetMethod": "org.apache.http.client.HttpClient.execute(Lorg/apache/http/client/methods/HttpUriRequest;)Lorg/apache/http/HttpResponse;",
      "eventChain": [
        {
          "start": "com.biznessapps.activities.GalleryPreviewActivity$ImageGestureListener.onFling(Landroid/view/MotionEvent;Landroid/view/MotionEvent;FF)Z",
          "target": "invokeinterface \u003c Application, Lorg/apache/http/client/HttpClient, execute(Lorg/apache/http/client/methods/HttpUriRequest;)Lorg/apache/http/HttpResponse; \u003e@29",
          "type": "ui",
          "activities": [
            "com.biznessapps.layout.MainController"
          ],
          "listener": "com.biznessapps.activities.GalleryPreviewActivity$ImageGestureListener",
          "listenerMethod": "onFling",
          "uiType": "onFling",
          "constraintsFile": "constraints14_0.py",
          "variables": {
            "\u003cChainedInput2\u003e.getX()": "IAAv1",
            "\u003cChainedInput1\u003e.getX()": "IAAv0",
            "\u003cChainedInput3\u003e.abs()": "IAAv2"
          },
          "stringMap": {},
          "strings": {
            "IAAv6": ""
          }
        }
      ]
    },
    "15": {
      "startMethod": "com.biznessapps.activities.GalleryPreviewActivity$ImageGestureListener.onFling(Landroid/view/MotionEvent;Landroid/view/MotionEvent;FF)Z",
      "targetMethod": "org.apache.http.client.HttpClient.execute(Lorg/apache/http/client/methods/HttpUriRequest;)Lorg/apache/http/HttpResponse;",
      "eventChain": [
        {
          "start": "com.biznessapps.activities.GalleryPreviewActivity$ImageGestureListener.onFling(Landroid/view/MotionEvent;Landroid/view/MotionEvent;FF)Z",
          "target": "invokeinterface \u003c Application, Lorg/apache/http/client/HttpClient, execute(Lorg/apache/http/client/methods/HttpUriRequest;)Lorg/apache/http/HttpResponse; \u003e@31",
          "type": "ui",
          "activities": [
            "com.biznessapps.layout.MainController"
          ],
          "listener": "com.biznessapps.activities.GalleryPreviewActivity$ImageGestureListener",
          "listenerMethod": "onFling",
          "uiType": "onFling",
          "constraintsFile": "constraints15_0.py",
          "variables": {
            "\u003cChainedInput2\u003e.getX()": "IAAv1",
            "\u003cChainedInput1\u003e.getX()": "IAAv0",
            "\u003cChainedInput3\u003e.abs()": "IAAv2"
          },
          "stringMap": {},
          "strings": {
            "IAAv6": ""
          }
        }
      ]
    },
    "16": {
      "startMethod": "com.biznessapps.fragments.events.EventV2DetailsFragment$3.onClick(Landroid/view/View;)V",
      "targetMethod": "org.apache.http.client.HttpClient.execute(Lorg/apache/http/client/methods/HttpUriRequest;)Lorg/apache/http/HttpResponse;",
      "eventChain": [
        {
          "start": "com.biznessapps.fragments.events.EventV2DetailsFragment$3.onClick(Landroid/view/View;)V",
          "target": "invokeinterface \u003c Application, Lorg/apache/http/client/HttpClient, execute(Lorg/apache/http/client/methods/HttpUriRequest;)Lorg/apache/http/HttpResponse; \u003e@32",
          "type": "ui",
          "activities": [
            "com.biznessapps.layout.MainController"
          ],
          "listener": "com.biznessapps.fragments.events.EventV2DetailsFragment$3",
          "listenerMethod": "onClick",
          "uiType": "onClick"
        }
      ]
    },
    "17": {
      "startMethod": "com.biznessapps.fragments.events.EventGoingTabUtils$1.onClick(Landroid/view/View;)V",
      "targetMethod": "org.apache.http.client.HttpClient.execute(Lorg/apache/http/client/methods/HttpUriRequest;)Lorg/apache/http/HttpResponse;",
      "eventChain": [
        {
          "start": "com.biznessapps.fragments.events.EventGoingTabUtils$1.onClick(Landroid/view/View;)V",
          "target": "invokeinterface \u003c Application, Lorg/apache/http/client/HttpClient, execute(Lorg/apache/http/client/methods/HttpUriRequest;)Lorg/apache/http/HttpResponse; \u003e@161",
          "type": "ui",
          "activities": [
            "com.biznessapps.layout.MainController"
          ],
          "listener": "com.biznessapps.fragments.events.EventGoingTabUtils$1",
          "listenerMethod": "onClick",
          "uiType": "onClick",
          "constraintsFile": "constraints17_0.py",
          "variables": {},
          "stringMap": {},
          "strings": {}
        }
      ]
    },
    "18": {
      "startMethod": "com.facebook.widget.LoginButton$LoginClickListener.onClick(Landroid/view/View;)V",
      "targetMethod": "java.net.URL.openConnection()Ljava/net/URLConnection;",
      "eventChain": [
        {
          "start": "com.facebook.widget.LoginButton$LoginClickListener.onClick(Landroid/view/View;)V",
          "target": "invokevirtual \u003c Application, Ljava/net/URL, openConnection()Ljava/net/URLConnection; \u003e@2",
          "type": "ui",
          "activities": [
            "com.biznessapps.layout.MainController"
          ],
          "listener": "com.facebook.widget.LoginButton$LoginClickListener",
          "listenerMethod": "onClick",
          "uiType": "onClick",
          "constraintsFile": "constraints18_0.py",
          "variables": {},
          "stringMap": {},
          "strings": {
            "IAAv10": ""
          }
        }
      ]
    },
    "19": {
      "startMethod": "com.biznessapps.fragments.events.EventV2DetailsFragment$4.onClick(Landroid/view/View;)V",
      "targetMethod": "org.apache.http.client.HttpClient.execute(Lorg/apache/http/client/methods/HttpUriRequest;)Lorg/apache/http/HttpResponse;",
      "eventChain": [
        {
          "start": "com.biznessapps.fragments.events.EventV2DetailsFragment$4.onClick(Landroid/view/View;)V",
          "target": "invokeinterface \u003c Application, Lorg/apache/http/client/HttpClient, execute(Lorg/apache/http/client/methods/HttpUriRequest;)Lorg/apache/http/HttpResponse; \u003e@32",
          "type": "ui",
          "activities": [
            "com.biznessapps.layout.MainController"
          ],
          "listener": "com.biznessapps.fragments.events.EventV2DetailsFragment$4",
          "listenerMethod": "onClick",
          "uiType": "onClick"
        }
      ]
    },
    "20": {
      "startMethod": "com.biznessapps.fragments.utils.TellFriendDelegate$4.onClick(Landroid/view/View;)V",
      "targetMethod": "java.net.URL.openConnection(Ljava/net/Proxy;)Ljava/net/URLConnection;",
      "eventChain": [
        {
          "start": "com.biznessapps.fragments.utils.TellFriendDelegate$4.\u003cinit\u003e(Ljava/lang/String;Ljava/lang/String;Landroid/content/Context;Landroid/app/Activity;Landroid/view/ViewGroup;)V",
          "target": "PC@8",
          "type": "",
          "constraintsFile": "constraints20_0.py",
          "variables": {
            "\u003cInput2\u003e": "IAAv2"
          },
          "stringMap": {},
          "strings": {
            "IAAv2": ""
          }
        },
        {
          "start": "com.biznessapps.fragments.utils.TellFriendDelegate$4.\u003cinit\u003e(Ljava/lang/String;Ljava/lang/String;Landroid/content/Context;Landroid/app/Activity;Landroid/view/ViewGroup;)V",
          "target": "PC@3",
          "type": "",
          "constraintsFile": "constraints20_1.py",
          "variables": {
            "\u003cInput1\u003e": "IAAv2"
          },
          "stringMap": {},
          "strings": {
            "IAAv2": ""
          }
        },
        {
          "start": "com.biznessapps.fragments.utils.TellFriendDelegate$4.onClick(Landroid/view/View;)V",
          "target": "invokevirtual \u003c Application, Ljava/net/URL, openConnection(Ljava/net/Proxy;)Ljava/net/URLConnection; \u003e@372",
          "type": "ui",
          "activities": [
            "com.biznessapps.layout.MainController"
          ],
          "listener": "com.biznessapps.fragments.utils.TellFriendDelegate$4",
          "listenerMethod": "onClick",
          "uiType": "onClick",
          "constraintsFile": "constraints20_2.py",
          "variables": {},
          "stringMap": {},
          "strings": {}
        }
      ]
    },
    "21": {
      "startMethod": "com.biznessapps.fragments.utils.TellFriendDelegate$4.onClick(Landroid/view/View;)V",
      "targetMethod": "java.net.URL.openConnection()Ljava/net/URLConnection;",
      "eventChain": [
        {
          "start": "com.biznessapps.fragments.utils.TellFriendDelegate$4.\u003cinit\u003e(Ljava/lang/String;Ljava/lang/String;Landroid/content/Context;Landroid/app/Activity;Landroid/view/ViewGroup;)V",
          "target": "PC@8",
          "type": "",
          "constraintsFile": "constraints21_0.py",
          "variables": {
            "\u003cInput2\u003e": "IAAv2"
          },
          "stringMap": {},
          "strings": {
            "IAAv2": ""
          }
        },
        {
          "start": "com.biznessapps.fragments.utils.TellFriendDelegate$4.\u003cinit\u003e(Ljava/lang/String;Ljava/lang/String;Landroid/content/Context;Landroid/app/Activity;Landroid/view/ViewGroup;)V",
          "target": "PC@3",
          "type": "",
          "constraintsFile": "constraints21_1.py",
          "variables": {
            "\u003cInput1\u003e": "IAAv2"
          },
          "stringMap": {},
          "strings": {
            "IAAv2": ""
          }
        },
        {
          "start": "com.biznessapps.fragments.utils.TellFriendDelegate$4.onClick(Landroid/view/View;)V",
          "target": "invokevirtual \u003c Application, Ljava/net/URL, openConnection()Ljava/net/URLConnection; \u003e@462",
          "type": "ui",
          "activities": [
            "com.biznessapps.layout.MainController"
          ],
          "listener": "com.biznessapps.fragments.utils.TellFriendDelegate$4",
          "listenerMethod": "onClick",
          "uiType": "onClick",
          "constraintsFile": "constraints21_2.py",
          "variables": {},
          "stringMap": {},
          "strings": {}
        }
      ]
    },
    "22": {
      "startMethod": "com.biznessapps.delegate.TellFriendDelegate$4.onClick(Landroid/view/View;)V",
      "targetMethod": "java.net.URL.openConnection()Ljava/net/URLConnection;",
      "eventChain": [
        {
          "start": "com.biznessapps.delegate.TellFriendDelegate$4.\u003cinit\u003e(Ljava/lang/String;Ljava/lang/String;Landroid/content/Context;Landroid/app/Activity;Landroid/view/ViewGroup;)V",
          "target": "PC@3",
          "type": "",
          "constraintsFile": "constraints22_0.py",
          "variables": {
            "\u003cInput1\u003e": "IAAv2"
          },
          "stringMap": {},
          "strings": {
            "IAAv2": ""
          }
        },
        {
          "start": "com.biznessapps.delegate.TellFriendDelegate$4.\u003cinit\u003e(Ljava/lang/String;Ljava/lang/String;Landroid/content/Context;Landroid/app/Activity;Landroid/view/ViewGroup;)V",
          "target": "PC@8",
          "type": "",
          "constraintsFile": "constraints22_1.py",
          "variables": {
            "\u003cInput2\u003e": "IAAv2"
          },
          "stringMap": {},
          "strings": {
            "IAAv2": ""
          }
        },
        {
          "start": "com.biznessapps.delegate.TellFriendDelegate$4.onClick(Landroid/view/View;)V",
          "target": "invokevirtual \u003c Application, Ljava/net/URL, openConnection()Ljava/net/URLConnection; \u003e@462",
          "type": "ui",
          "activities": [
            "com.biznessapps.layout.MainController"
          ],
          "listener": "com.biznessapps.delegate.TellFriendDelegate$4",
          "listenerMethod": "onClick",
          "uiType": "onClick",
          "constraintsFile": "constraints22_2.py",
          "variables": {},
          "stringMap": {},
          "strings": {}
        }
      ]
    },
    "23": {
      "startMethod": "com.biznessapps.delegate.TellFriendDelegate$4.onClick(Landroid/view/View;)V",
      "targetMethod": "java.net.URL.openConnection(Ljava/net/Proxy;)Ljava/net/URLConnection;",
      "eventChain": [
        {
          "start": "com.biznessapps.delegate.TellFriendDelegate$4.\u003cinit\u003e(Ljava/lang/String;Ljava/lang/String;Landroid/content/Context;Landroid/app/Activity;Landroid/view/ViewGroup;)V",
          "target": "PC@3",
          "type": "",
          "constraintsFile": "constraints23_0.py",
          "variables": {
            "\u003cInput1\u003e": "IAAv2"
          },
          "stringMap": {},
          "strings": {
            "IAAv2": ""
          }
        },
        {
          "start": "com.biznessapps.delegate.TellFriendDelegate$4.\u003cinit\u003e(Ljava/lang/String;Ljava/lang/String;Landroid/content/Context;Landroid/app/Activity;Landroid/view/ViewGroup;)V",
          "target": "PC@8",
          "type": "",
          "constraintsFile": "constraints23_1.py",
          "variables": {
            "\u003cInput2\u003e": "IAAv2"
          },
          "stringMap": {},
          "strings": {
            "IAAv2": ""
          }
        },
        {
          "start": "com.biznessapps.delegate.TellFriendDelegate$4.onClick(Landroid/view/View;)V",
          "target": "invokevirtual \u003c Application, Ljava/net/URL, openConnection(Ljava/net/Proxy;)Ljava/net/URLConnection; \u003e@372",
          "type": "ui",
          "activities": [
            "com.biznessapps.layout.MainController"
          ],
          "listener": "com.biznessapps.delegate.TellFriendDelegate$4",
          "listenerMethod": "onClick",
          "uiType": "onClick",
          "constraintsFile": "constraints23_2.py",
          "variables": {},
          "stringMap": {},
          "strings": {}
        }
      ]
    },
    "24": {
      "startMethod": "com.biznessapps.fragments.infoitems.InfoDetailFragment$3.onClick(Landroid/view/View;)V",
      "targetMethod": "org.apache.http.client.HttpClient.execute(Lorg/apache/http/client/methods/HttpUriRequest;)Lorg/apache/http/HttpResponse;",
      "eventChain": [
        {
          "start": "com.biznessapps.fragments.infoitems.InfoDetailFragment$3.onClick(Landroid/view/View;)V",
          "target": "invokeinterface \u003c Application, Lorg/apache/http/client/HttpClient, execute(Lorg/apache/http/client/methods/HttpUriRequest;)Lorg/apache/http/HttpResponse; \u003e@32",
          "type": "ui",
          "activities": [
            "com.biznessapps.layout.MainController"
          ],
          "listener": "com.biznessapps.fragments.infoitems.InfoDetailFragment$3",
          "listenerMethod": "onClick",
          "uiType": "onClick"
        }
      ]
    },
    "25": {
      "startMethod": "com.biznessapps.fragments.events.EventV2DetailsFragment$2.onClick(Landroid/view/View;)V",
      "targetMethod": "org.apache.http.client.HttpClient.execute(Lorg/apache/http/client/methods/HttpUriRequest;)Lorg/apache/http/HttpResponse;",
      "eventChain": [
        {
          "start": "com.biznessapps.fragments.events.EventV2DetailsFragment$2.onClick(Landroid/view/View;)V",
          "target": "invokeinterface \u003c Application, Lorg/apache/http/client/HttpClient, execute(Lorg/apache/http/client/methods/HttpUriRequest;)Lorg/apache/http/HttpResponse; \u003e@32",
          "type": "ui",
          "activities": [
            "com.biznessapps.layout.MainController"
          ],
          "listener": "com.biznessapps.fragments.events.EventV2DetailsFragment$2",
          "listenerMethod": "onClick",
          "uiType": "onClick"
        }
      ]
    }
  }
}