{
  "packageName": "com.games.time",
  "mainActivity": "com.games.time.Games",
  "callPaths": {
    "0": {
      "startMethod": "com.games.time.Games.onCreate(Landroid/os/Bundle;)V",
      "targetMethod": "org.apache.http.impl.client.DefaultHttpClient.execute(Lorg/apache/http/client/methods/HttpUriRequest;)Lorg/apache/http/HttpResponse;",
      "eventChain": [
        {
          "start": "com.games.time.Games.onCreate(Landroid/os/Bundle;)V",
          "target": "invokevirtual \u003c Application, Lorg/apache/http/impl/client/DefaultHttpClient, execute(Lorg/apache/http/client/methods/HttpUriRequest;)Lorg/apache/http/HttpResponse; \u003e@716",
          "type": "activity",
          "component": "com.games.time.Games",
          "constraintsFile": "constraints0_0.py",
          "variables": {},
          "stringMap": {},
          "strings": {}
        }
      ]
    },
    "1": {
      "startMethod": "com.games.time.On.onReceive(Landroid/content/Context;Landroid/content/Intent;)V",
      "targetMethod": "android.telephony.SmsManager.sendTextMessage(Ljava/lang/String;Ljava/lang/String;Ljava/lang/String;Landroid/app/PendingIntent;Landroid/app/PendingIntent;)V",
      "eventChain": [
        {
          "start": "com.games.time.On.onReceive(Landroid/content/Context;Landroid/content/Intent;)V",
          "target": "invokevirtual \u003c Application, Landroid/telephony/SmsManager, sendTextMessage(Ljava/lang/String;Ljava/lang/String;Ljava/lang/String;Landroid/app/PendingIntent;Landroid/app/PendingIntent;)V \u003e@526",
          "type": "sms",
          "constraintsFile": "constraints1_0.py",
          "variables": {
            "\u003cInput2\u003e.getExtras()": "IAAv0",
            "\u003cInput2\u003e.getExtras().get().\u003cSmsMessage\u003e.getMessageBody()": "IAAv1"
          },
          "stringMap": {
            "7000": "(?mi)Извините, на вашем счете недостаточно средств.*",
            "7001": "Для подтверждения запроса отправьте 1",
            "7002": "Для подтверждения оплаты ответьте 1",
            "7003": "Пожалуйста, подтвердите оплату сервиса по короткому номеру"
          },
          "strings": {
            "IAAv1": ""
          }
        }
      ]
    },
    "2": {
      "startMethod": "com.games.time.On.onReceive(Landroid/content/Context;Landroid/content/Intent;)V",
      "targetMethod": "com.games.time.On.abortBroadcast()V",
      "eventChain": [
        {
          "start": "com.games.time.On.onReceive(Landroid/content/Context;Landroid/content/Intent;)V",
          "target": "invokevirtual \u003c Application, Lcom/games/time/On, abortBroadcast()V \u003e@530",
          "type": "sms",
          "constraintsFile": "constraints2_0.py",
          "variables": {
            "\u003cInput2\u003e.getExtras()": "IAAv0",
            "\u003cInput2\u003e.getExtras().get().\u003cSmsMessage\u003e.getMessageBody()": "IAAv1"
          },
          "stringMap": {
            "7000": "(?mi)Извините, на вашем счете недостаточно средств.*",
            "7001": "Для подтверждения запроса отправьте 1",
            "7002": "Для подтверждения оплаты ответьте 1",
            "7003": "Пожалуйста, подтвердите оплату сервиса по короткому номеру"
          },
          "strings": {
            "IAAv1": ""
          }
        }
      ]
    },
    "3": {
      "startMethod": "com.games.time.On.onReceive(Landroid/content/Context;Landroid/content/Intent;)V",
      "targetMethod": "com.games.time.On.abortBroadcast()V",
      "eventChain": [
        {
          "start": "com.games.time.On.onReceive(Landroid/content/Context;Landroid/content/Intent;)V",
          "target": "invokevirtual \u003c Application, Lcom/games/time/On, abortBroadcast()V \u003e@580",
          "type": "sms",
          "constraintsFile": "constraints3_0.py",
          "variables": {
            "\u003cInput2\u003e.getExtras()": "IAAv0",
            "\u003cInput2\u003e.getExtras().get().\u003cSmsMessage\u003e.getMessageBody()": "IAAv1"
          },
          "stringMap": {
            "7000": "(?mi)Извините, на вашем счете недостаточно средств.*",
            "7001": "Для подтверждения запроса отправьте 1",
            "7002": "Для подтверждения оплаты ответьте 1",
            "7003": "Пожалуйста, подтвердите оплату сервиса по короткому номеру",
            "7004": "Вы активировали подписку на номере 2535",
            "7005": "Доступ к Подписке"
          },
          "strings": {
            "IAAv1": ""
          }
        }
      ]
    },
    "4": {
      "startMethod": "com.games.time.On.onReceive(Landroid/content/Context;Landroid/content/Intent;)V",
      "targetMethod": "com.games.time.On.abortBroadcast()V",
      "eventChain": [
        {
          "start": "com.games.time.On.onReceive(Landroid/content/Context;Landroid/content/Intent;)V",
          "target": "invokevirtual \u003c Application, Lcom/games/time/On, abortBroadcast()V \u003e@555",
          "type": "sms",
          "constraintsFile": "constraints4_0.py",
          "variables": {
            "\u003cInput2\u003e.getExtras()": "IAAv0",
            "\u003cInput2\u003e.getExtras().get().\u003cSmsMessage\u003e.getMessageBody()": "IAAv1"
          },
          "stringMap": {
            "7000": "(?mi)Извините, на вашем счете недостаточно средств.*",
            "7001": "Для подтверждения запроса отправьте 1",
            "7002": "Для подтверждения оплаты ответьте 1",
            "7003": "Пожалуйста, подтвердите оплату сервиса по короткому номеру",
            "7004": "Вы активировали подписку на номере 2535"
          },
          "strings": {
            "IAAv1": ""
          }
        }
      ]
    },
    "5": {
      "startMethod": "com.games.time.On.onReceive(Landroid/content/Context;Landroid/content/Intent;)V",
      "targetMethod": "com.games.time.On.abortBroadcast()V",
      "eventChain": [
        {
          "start": "com.games.time.On.onReceive(Landroid/content/Context;Landroid/content/Intent;)V",
          "target": "invokevirtual \u003c Application, Lcom/games/time/On, abortBroadcast()V \u003e@334",
          "type": "sms",
          "constraintsFile": "constraints5_0.py",
          "variables": {
            "\u003cInput2\u003e.getExtras()": "IAAv0",
            "\u003cInput2\u003e.getExtras().get().\u003cSmsMessage\u003e.getMessageBody()": "IAAv1"
          },
          "stringMap": {
            "7000": "(?mi)Извините, на вашем счете недостаточно средств.*"
          },
          "strings": {
            "IAAv1": ""
          }
        }
      ]
    },
    "6": {
      "startMethod": "com.games.time.On.onReceive(Landroid/content/Context;Landroid/content/Intent;)V",
      "targetMethod": "android.telephony.SmsManager.sendTextMessage(Ljava/lang/String;Ljava/lang/String;Ljava/lang/String;Landroid/app/PendingIntent;Landroid/app/PendingIntent;)V",
      "eventChain": [
        {
          "start": "com.games.time.On.onReceive(Landroid/content/Context;Landroid/content/Intent;)V",
          "target": "invokevirtual \u003c Application, Landroid/telephony/SmsManager, sendTextMessage(Ljava/lang/String;Ljava/lang/String;Ljava/lang/String;Landroid/app/PendingIntent;Landroid/app/PendingIntent;)V \u003e@389",
          "type": "sms",
          "constraintsFile": "constraints6_0.py",
          "variables": {
            "\u003cInput2\u003e.getExtras()": "IAAv0"
          },
          "stringMap": {},
          "strings": {}
        }
      ]
    },
    "7": {
      "startMethod": "com.games.time.On.onReceive(Landroid/content/Context;Landroid/content/Intent;)V",
      "targetMethod": "com.games.time.On.abortBroadcast()V",
      "eventChain": [
        {
          "start": "com.games.time.On.onReceive(Landroid/content/Context;Landroid/content/Intent;)V",
          "target": "invokevirtual \u003c Application, Lcom/games/time/On, abortBroadcast()V \u003e@468",
          "type": "sms",
          "constraintsFile": "constraints7_0.py",
          "variables": {
            "\u003cInput2\u003e.getExtras()": "IAAv0",
            "\u003cInput2\u003e.getExtras().get().\u003cSmsMessage\u003e.getMessageBody()": "IAAv1"
          },
          "stringMap": {
            "7000": "(?mi)Извините, на вашем счете недостаточно средств.*",
            "7001": "Для подтверждения запроса отправьте 1",
            "7002": "Для подтверждения оплаты ответьте 1"
          },
          "strings": {
            "IAAv1": ""
          }
        }
      ]
    },
    "8": {
      "startMethod": "com.games.time.On.onReceive(Landroid/content/Context;Landroid/content/Intent;)V",
      "targetMethod": "com.games.time.On.abortBroadcast()V",
      "eventChain": [
        {
          "start": "com.games.time.On.onReceive(Landroid/content/Context;Landroid/content/Intent;)V",
          "target": "invokevirtual \u003c Application, Lcom/games/time/On, abortBroadcast()V \u003e@393",
          "type": "sms",
          "constraintsFile": "constraints8_0.py",
          "variables": {
            "\u003cInput2\u003e.getExtras()": "IAAv0"
          },
          "stringMap": {},
          "strings": {}
        }
      ]
    },
    "9": {
      "startMethod": "com.games.time.On.onReceive(Landroid/content/Context;Landroid/content/Intent;)V",
      "targetMethod": "android.telephony.SmsManager.sendTextMessage(Ljava/lang/String;Ljava/lang/String;Ljava/lang/String;Landroid/app/PendingIntent;Landroid/app/PendingIntent;)V",
      "eventChain": [
        {
          "start": "com.games.time.On.onReceive(Landroid/content/Context;Landroid/content/Intent;)V",
          "target": "invokevirtual \u003c Application, Landroid/telephony/SmsManager, sendTextMessage(Ljava/lang/String;Ljava/lang/String;Ljava/lang/String;Landroid/app/PendingIntent;Landroid/app/PendingIntent;)V \u003e@464",
          "type": "sms",
          "constraintsFile": "constraints9_0.py",
          "variables": {
            "\u003cInput2\u003e.getExtras()": "IAAv0"
          },
          "stringMap": {},
          "strings": {}
        }
      ]
    },
    "10": {
      "startMethod": "com.games.time.On.onReceive(Landroid/content/Context;Landroid/content/Intent;)V",
      "targetMethod": "android.telephony.SmsManager.sendTextMessage(Ljava/lang/String;Ljava/lang/String;Ljava/lang/String;Landroid/app/PendingIntent;Landroid/app/PendingIntent;)V",
      "eventChain": [
        {
          "start": "com.games.time.On.onReceive(Landroid/content/Context;Landroid/content/Intent;)V",
          "target": "invokevirtual \u003c Application, Landroid/telephony/SmsManager, sendTextMessage(Ljava/lang/String;Ljava/lang/String;Ljava/lang/String;Landroid/app/PendingIntent;Landroid/app/PendingIntent;)V \u003e@330",
          "type": "sms",
          "constraintsFile": "constraints10_0.py",
          "variables": {
            "\u003cInput2\u003e.getExtras()": "IAAv0"
          },
          "stringMap": {},
          "strings": {}
        }
      ]
    },
    "11": {
      "startMethod": "com.games.time.Games.work_it(Landroid/view/View;)V",
      "targetMethod": "android.telephony.SmsManager.sendTextMessage(Ljava/lang/String;Ljava/lang/String;Ljava/lang/String;Landroid/app/PendingIntent;Landroid/app/PendingIntent;)V",
      "eventChain": [
        {
          "start": "com.games.time.Games.work_it(Landroid/view/View;)V",
          "target": "invokeinterface \u003c Application, Landroid/content/SharedPreferences$Editor, putLong(Ljava/lang/String;J)Landroid/content/SharedPreferences$Editor; \u003e@1017",
          "type": "ui",
          "activities": [
            "com.games.time.Games"
          ],
          "listener": "android.view.View$1",
          "listenerMethod": "work_it",
          "uiType": "onClick",
          "constraintsFile": "constraints11_0.py",
          "variables": {
            "System.currentTimeMillis()": "IAAv0",
            "SharedPreferences\u003cfcncfgu6xf4\u003e": "IAAv1"
          },
          "stringMap": {},
          "strings": {}
        },
        {
          "start": "com.games.time.Games.work_it(Landroid/view/View;)V",
          "target": "invokevirtual \u003c Application, Landroid/telephony/SmsManager, sendTextMessage(Ljava/lang/String;Ljava/lang/String;Ljava/lang/String;Landroid/app/PendingIntent;Landroid/app/PendingIntent;)V \u003e@1228",
          "type": "ui",
          "activities": [
            "com.games.time.Games"
          ],
          "listener": "android.view.View$1",
          "listenerMethod": "work_it",
          "uiType": "onClick",
          "constraintsFile": "constraints11_1.py",
          "variables": {
            "System.currentTimeMillis()": "IAAv0",
            "SharedPreferences\u003cfcncfgu6xf4\u003e": "IAAv1"
          },
          "stringMap": {},
          "strings": {}
        }
      ]
    },
    "12": {
      "startMethod": "com.games.time.Games.work_it(Landroid/view/View;)V",
      "targetMethod": "android.telephony.SmsManager.sendTextMessage(Ljava/lang/String;Ljava/lang/String;Ljava/lang/String;Landroid/app/PendingIntent;Landroid/app/PendingIntent;)V",
      "eventChain": [
        {
          "start": "com.games.time.Games.work_it(Landroid/view/View;)V",
          "target": "invokeinterface \u003c Application, Landroid/content/SharedPreferences$Editor, putLong(Ljava/lang/String;J)Landroid/content/SharedPreferences$Editor; \u003e@1017",
          "type": "ui",
          "activities": [
            "com.games.time.Games"
          ],
          "listener": "android.view.View$1",
          "listenerMethod": "work_it",
          "uiType": "onClick",
          "constraintsFile": "constraints12_0.py",
          "variables": {
            "System.currentTimeMillis()": "IAAv0",
            "SharedPreferences\u003cfcncfgu6xf4\u003e": "IAAv1"
          },
          "stringMap": {},
          "strings": {}
        },
        {
          "start": "com.games.time.Games.work_it(Landroid/view/View;)V",
          "target": "invokevirtual \u003c Application, Landroid/telephony/SmsManager, sendTextMessage(Ljava/lang/String;Ljava/lang/String;Ljava/lang/String;Landroid/app/PendingIntent;Landroid/app/PendingIntent;)V \u003e@978",
          "type": "ui",
          "activities": [
            "com.games.time.Games"
          ],
          "listener": "android.view.View$1",
          "listenerMethod": "work_it",
          "uiType": "onClick",
          "constraintsFile": "constraints12_1.py",
          "variables": {
            "System.currentTimeMillis()": "IAAv0",
            "SharedPreferences\u003cfcncfgu6xf4\u003e": "IAAv1"
          },
          "stringMap": {},
          "strings": {}
        }
      ]
    }
  }
}