{
  "packageName": "com.colorme.game.feijizhachuan",
  "mainActivity": "com.colorme.game.feijizhachuan.GameMain",
  "callPaths": {
    "0": {
      "startMethod": "com.colorme.game.feijizhachuan.GameMain.onCreate(Landroid/os/Bundle;)V",
      "targetMethod": "java.net.URL.openConnection()Ljava/net/URLConnection;",
      "eventChain": [
        {
          "start": "com.colorme.game.feijizhachuan.GameMain.onCreate(Landroid/os/Bundle;)V",
          "target": "invokevirtual \u003c Application, Ljava/net/URL, openConnection()Ljava/net/URLConnection; \u003e@26",
          "type": "activity",
          "component": "com.colorme.game.feijizhachuan.GameMain",
          "constraintsFile": "constraints0_0.py",
          "variables": {},
          "stringMap": {},
          "strings": {}
        }
      ]
    },
    "1": {
      "startMethod": "com.colorme.game.feijizhachuan.GameMain.onCreate(Landroid/os/Bundle;)V",
      "targetMethod": "java.net.URL.openConnection()Ljava/net/URLConnection;",
      "eventChain": [
        {
          "start": "com.colorme.game.feijizhachuan.GameMain.onCreate(Landroid/os/Bundle;)V",
          "target": "invokevirtual \u003c Application, Ljava/net/URL, openConnection()Ljava/net/URLConnection; \u003e@89",
          "type": "activity",
          "component": "com.colorme.game.feijizhachuan.GameMain",
          "constraintsFile": "constraints1_0.py",
          "variables": {},
          "stringMap": {},
          "strings": {}
        }
      ]
    },
    "2": {
      "startMethod": "com.colorme.game.feijizhachuan.GameMain.onCreate(Landroid/os/Bundle;)V",
      "targetMethod": "java.lang.reflect.Method.invoke(Ljava/lang/Object;[Ljava/lang/Object;)Ljava/lang/Object;",
      "eventChain": [
        {
          "start": "com.colorme.game.feijizhachuan.GameMain.onCreate(Landroid/os/Bundle;)V",
          "target": "invokevirtual \u003c Application, Ljava/lang/reflect/Method, invoke(Ljava/lang/Object;[Ljava/lang/Object;)Ljava/lang/Object; \u003e@113",
          "type": "activity",
          "component": "com.colorme.game.feijizhachuan.GameMain",
          "constraintsFile": "constraints2_0.py",
          "variables": {},
          "stringMap": {},
          "strings": {
            "IAAv2": "",
            "IAAv0": ""
          }
        }
      ]
    },
    "3": {
      "startMethod": "com.colorme.game.feijizhachuan.GameMain.onCreate(Landroid/os/Bundle;)V",
      "targetMethod": "java.net.URL.openConnection()Ljava/net/URLConnection;",
      "eventChain": [
        {
          "start": "com.colorme.game.feijizhachuan.GameMain.onCreate(Landroid/os/Bundle;)V",
          "target": "PC@176",
          "type": "activity",
          "component": "com.colorme.game.feijizhachuan.GameMain",
          "constraintsFile": "constraints3_0.py",
          "variables": {},
          "stringMap": {},
          "strings": {}
        },
        {
          "start": "com.madhouse.android.ads.i.onAnimationEnd(Landroid/view/animation/Animation;)V",
          "target": "PC@53",
          "type": "ui",
          "activities": [
            "com.colorme.game.feijizhachuan.GameMain"
          ],
          "listener": "com.madhouse.android.ads.i",
          "listenerMethod": "onAnimationEnd",
          "uiType": "onAnimationEnd",
          "constraintsFile": "constraints3_1.py",
          "variables": {},
          "stringMap": {},
          "strings": {
            "IAAv20": "",
            "IAAv23": "",
            "IAAv21": "",
            "IAAv14": "",
            "IAAv15": "",
            "IAAv17": "",
            "IAAv18": "",
            "IAAv8": "",
            "IAAv19": ""
          }
        },
        {
          "start": "com.colorme.game.feijizhachuan.GameMain.onCreate(Landroid/os/Bundle;)V",
          "target": "PC@520",
          "type": "activity",
          "component": "com.colorme.game.feijizhachuan.GameMain",
          "constraintsFile": "constraints3_2.py",
          "variables": {},
          "stringMap": {},
          "strings": {
            "IAAv20": "",
            "IAAv23": "",
            "IAAv21": "",
            "IAAv14": "",
            "IAAv15": "",
            "IAAv17": "",
            "IAAv18": "",
            "IAAv8": "",
            "IAAv19": ""
          }
        },
        {
          "start": "com.colorme.game.feijizhachuan.GameMain.onCreate(Landroid/os/Bundle;)V",
          "target": "invokevirtual \u003c Application, Ljava/net/URL, openConnection()Ljava/net/URLConnection; \u003e@330",
          "type": "activity",
          "component": "com.colorme.game.feijizhachuan.GameMain",
          "constraintsFile": "constraints3_3.py",
          "variables": {},
          "stringMap": {},
          "strings": {
            "IAAv20": "",
            "IAAv23": "",
            "IAAv21": "",
            "IAAv14": "",
            "IAAv15": "",
            "IAAv17": "",
            "IAAv18": "",
            "IAAv8": "",
            "IAAv19": ""
          }
        }
      ]
    },
    "4": {
      "startMethod": "com.colorme.game.feijizhachuan.GameMain.onCreate(Landroid/os/Bundle;)V",
      "targetMethod": "java.net.URL.openConnection()Ljava/net/URLConnection;",
      "eventChain": [
        {
          "start": "com.colorme.game.feijizhachuan.GameMain.onCreate(Landroid/os/Bundle;)V",
          "target": "PC@7",
          "type": "activity",
          "component": "com.colorme.game.feijizhachuan.GameMain",
          "constraintsFile": "constraints4_0.py",
          "variables": {},
          "stringMap": {},
          "strings": {}
        },
        {
          "start": "com.colorme.game.feijizhachuan.GameMain.onCreate(Landroid/os/Bundle;)V",
          "target": "invokevirtual \u003c Application, Ljava/net/URL, openConnection()Ljava/net/URLConnection; \u003e@284",
          "type": "activity",
          "component": "com.colorme.game.feijizhachuan.GameMain",
          "constraintsFile": "constraints4_1.py",
          "variables": {},
          "stringMap": {},
          "strings": {}
        }
      ]
    },
    "5": {
      "startMethod": "com.colorme.game.feijizhachuan.GameMain.onCreate(Landroid/os/Bundle;)V",
      "targetMethod": "java.net.URL.openConnection(Ljava/net/Proxy;)Ljava/net/URLConnection;",
      "eventChain": [
        {
          "start": "com.colorme.game.feijizhachuan.GameMain.onCreate(Landroid/os/Bundle;)V",
          "target": "PC@7",
          "type": "activity",
          "component": "com.colorme.game.feijizhachuan.GameMain",
          "constraintsFile": "constraints5_0.py",
          "variables": {},
          "stringMap": {},
          "strings": {}
        },
        {
          "start": "com.colorme.game.feijizhachuan.GameMain.onCreate(Landroid/os/Bundle;)V",
          "target": "invokevirtual \u003c Application, Ljava/net/URL, openConnection(Ljava/net/Proxy;)Ljava/net/URLConnection; \u003e@74",
          "type": "activity",
          "component": "com.colorme.game.feijizhachuan.GameMain",
          "constraintsFile": "constraints5_1.py",
          "variables": {},
          "stringMap": {},
          "strings": {}
        }
      ]
    },
    "6": {
      "startMethod": "com.colorme.game.feijizhachuan.GameMain.onCreate(Landroid/os/Bundle;)V",
      "targetMethod": "org.apache.http.client.HttpClient.execute(Lorg/apache/http/client/methods/HttpUriRequest;)Lorg/apache/http/HttpResponse;",
      "eventChain": [
        {
          "start": "com.colorme.game.feijizhachuan.GameMain.onCreate(Landroid/os/Bundle;)V",
          "target": "invokeinterface \u003c Application, Lorg/apache/http/client/HttpClient, execute(Lorg/apache/http/client/methods/HttpUriRequest;)Lorg/apache/http/HttpResponse; \u003e@1866",
          "type": "activity",
          "component": "com.colorme.game.feijizhachuan.GameMain"
        }
      ]
    },
    "7": {
      "startMethod": "com.colorme.game.feijizhachuan.GameMain.onCreate(Landroid/os/Bundle;)V",
      "targetMethod": "org.apache.http.client.HttpClient.execute(Lorg/apache/http/client/methods/HttpUriRequest;)Lorg/apache/http/HttpResponse;",
      "eventChain": [
        {
          "start": "com.colorme.game.feijizhachuan.GameMain.onCreate(Landroid/os/Bundle;)V",
          "target": "invokeinterface \u003c Application, Lorg/apache/http/client/HttpClient, execute(Lorg/apache/http/client/methods/HttpUriRequest;)Lorg/apache/http/HttpResponse; \u003e@105",
          "type": "activity",
          "component": "com.colorme.game.feijizhachuan.GameMain"
        }
      ]
    },
    "8": {
      "startMethod": "com.colorme.game.feijizhachuan.GameMain.onCreate(Landroid/os/Bundle;)V",
      "targetMethod": "java.net.URL.openConnection()Ljava/net/URLConnection;",
      "eventChain": [
        {
          "start": "com.colorme.game.feijizhachuan.GameMain.onCreate(Landroid/os/Bundle;)V",
          "target": "invokevirtual \u003c Application, Ljava/net/URL, openConnection()Ljava/net/URLConnection; \u003e@19",
          "type": "activity",
          "component": "com.colorme.game.feijizhachuan.GameMain",
          "constraintsFile": "constraints8_0.py",
          "variables": {},
          "stringMap": {},
          "strings": {}
        }
      ]
    },
    "9": {
      "startMethod": "com.colorme.game.feijizhachuan.GameMain.onCreate(Landroid/os/Bundle;)V",
      "targetMethod": "java.net.URL.openConnection()Ljava/net/URLConnection;",
      "eventChain": [
        {
          "start": "com.madhouse.android.ads.i.onAnimationEnd(Landroid/view/animation/Animation;)V",
          "target": "PC@699",
          "type": "ui",
          "activities": [
            "com.colorme.game.feijizhachuan.GameMain"
          ],
          "listener": "com.madhouse.android.ads.i",
          "listenerMethod": "onAnimationEnd",
          "uiType": "onAnimationEnd",
          "constraintsFile": "constraints9_0.py",
          "variables": {},
          "stringMap": {},
          "strings": {
            "IAAv9": "",
            "IAAv8": "",
            "IAAv6": "",
            "IAAv5": ""
          }
        },
        {
          "start": "com.madhouse.android.ads.i.onAnimationEnd(Landroid/view/animation/Animation;)V",
          "target": "PC@55",
          "type": "ui",
          "activities": [
            "com.colorme.game.feijizhachuan.GameMain"
          ],
          "listener": "com.madhouse.android.ads.i",
          "listenerMethod": "onAnimationEnd",
          "uiType": "onAnimationEnd",
          "constraintsFile": "constraints9_1.py",
          "variables": {},
          "stringMap": {},
          "strings": {
            "IAAv27": "",
            "IAAv28": "",
            "IAAv8": "",
            "IAAv30": "",
            "IAAv31": ""
          }
        },
        {
          "start": "com.colorme.game.feijizhachuan.GameMain.onCreate(Landroid/os/Bundle;)V",
          "target": "PC@176",
          "type": "activity",
          "component": "com.colorme.game.feijizhachuan.GameMain",
          "constraintsFile": "constraints9_2.py",
          "variables": {},
          "stringMap": {},
          "strings": {}
        },
        {
          "start": "com.madhouse.android.ads.i.onAnimationEnd(Landroid/view/animation/Animation;)V",
          "target": "PC@53",
          "type": "ui",
          "activities": [
            "com.colorme.game.feijizhachuan.GameMain"
          ],
          "listener": "com.madhouse.android.ads.i",
          "listenerMethod": "onAnimationEnd",
          "uiType": "onAnimationEnd",
          "constraintsFile": "constraints9_3.py",
          "variables": {},
          "stringMap": {},
          "strings": {
            "IAAv8": ""
          }
        },
        {
          "start": "com.madhouse.android.ads.i.onAnimationEnd(Landroid/view/animation/Animation;)V",
          "target": "PC@513",
          "type": "ui",
          "activities": [
            "com.colorme.game.feijizhachuan.GameMain"
          ],
          "listener": "com.madhouse.android.ads.i",
          "listenerMethod": "onAnimationEnd",
          "uiType": "onAnimationEnd",
          "constraintsFile": "constraints9_4.py",
          "variables": {},
          "stringMap": {},
          "strings": {
            "IAAv9": "",
            "IAAv8": "",
            "IAAv6": "",
            "IAAv5": ""
          }
        },
        {
          "start": "com.colorme.game.feijizhachuan.GameMain.onCreate(Landroid/os/Bundle;)V",
          "target": "PC@520",
          "type": "activity",
          "component": "com.colorme.game.feijizhachuan.GameMain",
          "constraintsFile": "constraints9_5.py",
          "variables": {},
          "stringMap": {},
          "strings": {
            "IAAv8": ""
          }
        },
        {
          "start": "com.colorme.game.feijizhachuan.GameMain.onCreate(Landroid/os/Bundle;)V",
          "target": "invokevirtual \u003c Application, Ljava/net/URL, openConnection()Ljava/net/URLConnection; \u003e@27",
          "type": "activity",
          "component": "com.colorme.game.feijizhachuan.GameMain",
          "constraintsFile": "constraints9_6.py",
          "variables": {},
          "stringMap": {},
          "strings": {
            "IAAv8": ""
          }
        }
      ]
    },
    "10": {
      "startMethod": "com.colorme.game.feijizhachuan.GameMain.onCreate(Landroid/os/Bundle;)V",
      "targetMethod": "java.net.URL.openConnection()Ljava/net/URLConnection;",
      "eventChain": [
        {
          "start": "com.colorme.game.feijizhachuan.GameMain.onCreate(Landroid/os/Bundle;)V",
          "target": "PC@176",
          "type": "activity",
          "component": "com.colorme.game.feijizhachuan.GameMain",
          "constraintsFile": "constraints10_0.py",
          "variables": {},
          "stringMap": {},
          "strings": {}
        },
        {
          "start": "com.madhouse.android.ads.i.onAnimationEnd(Landroid/view/animation/Animation;)V",
          "target": "PC@53",
          "type": "ui",
          "activities": [
            "com.colorme.game.feijizhachuan.GameMain"
          ],
          "listener": "com.madhouse.android.ads.i",
          "listenerMethod": "onAnimationEnd",
          "uiType": "onAnimationEnd",
          "constraintsFile": "constraints10_1.py",
          "variables": {},
          "stringMap": {},
          "strings": {
            "IAAv20": "",
            "IAAv23": "",
            "IAAv21": "",
            "IAAv14": "",
            "IAAv15": "",
            "IAAv17": "",
            "IAAv18": "",
            "IAAv8": "",
            "IAAv19": ""
          }
        },
        {
          "start": "com.colorme.game.feijizhachuan.GameMain.onCreate(Landroid/os/Bundle;)V",
          "target": "PC@520",
          "type": "activity",
          "component": "com.colorme.game.feijizhachuan.GameMain",
          "constraintsFile": "constraints10_2.py",
          "variables": {},
          "stringMap": {},
          "strings": {
            "IAAv20": "",
            "IAAv23": "",
            "IAAv21": "",
            "IAAv14": "",
            "IAAv15": "",
            "IAAv17": "",
            "IAAv18": "",
            "IAAv8": "",
            "IAAv19": ""
          }
        },
        {
          "start": "com.colorme.game.feijizhachuan.GameMain.onCreate(Landroid/os/Bundle;)V",
          "target": "invokevirtual \u003c Application, Ljava/net/URL, openConnection()Ljava/net/URLConnection; \u003e@144",
          "type": "activity",
          "component": "com.colorme.game.feijizhachuan.GameMain",
          "constraintsFile": "constraints10_3.py",
          "variables": {},
          "stringMap": {},
          "strings": {
            "IAAv20": "",
            "IAAv23": "",
            "IAAv21": "",
            "IAAv14": "",
            "IAAv15": "",
            "IAAv17": "",
            "IAAv18": "",
            "IAAv8": "",
            "IAAv19": ""
          }
        }
      ]
    },
    "11": {
      "startMethod": "com.colorme.game.feijizhachuan.GameMain.onCreate(Landroid/os/Bundle;)V",
      "targetMethod": "java.net.URL.openConnection()Ljava/net/URLConnection;",
      "eventChain": [
        {
          "start": "com.colorme.game.feijizhachuan.GameMain.onCreate(Landroid/os/Bundle;)V",
          "target": "invokevirtual \u003c Application, Ljava/net/URL, openConnection()Ljava/net/URLConnection; \u003e@69",
          "type": "activity",
          "component": "com.colorme.game.feijizhachuan.GameMain",
          "constraintsFile": "constraints11_0.py",
          "variables": {},
          "stringMap": {},
          "strings": {}
        }
      ]
    },
    "12": {
      "startMethod": "com.colorme.game.feijizhachuan.GameMain.onCreate(Landroid/os/Bundle;)V",
      "targetMethod": "java.net.URL.openConnection()Ljava/net/URLConnection;",
      "eventChain": [
        {
          "start": "com.colorme.game.feijizhachuan.GameMain.onCreate(Landroid/os/Bundle;)V",
          "target": "invokevirtual \u003c Application, Ljava/net/URL, openConnection()Ljava/net/URLConnection; \u003e@46",
          "type": "activity",
          "component": "com.colorme.game.feijizhachuan.GameMain",
          "constraintsFile": "constraints12_0.py",
          "variables": {},
          "stringMap": {},
          "strings": {}
        }
      ]
    },
    "13": {
      "startMethod": "com.baidu.AppActivity.onCreate(Landroid/os/Bundle;)V",
      "targetMethod": "java.net.URL.openConnection()Ljava/net/URLConnection;",
      "eventChain": [
        {
          "start": "com.baidu.AppActivity.onCreate(Landroid/os/Bundle;)V",
          "target": "PC@138",
          "type": "activity",
          "component": "com.baidu.AppActivity",
          "constraintsFile": "constraints13_0.py",
          "variables": {},
          "stringMap": {},
          "strings": {}
        },
        {
          "start": "com.baidu.AppActivity.onCreate(Landroid/os/Bundle;)V",
          "target": "invokevirtual \u003c Application, Ljava/net/URL, openConnection()Ljava/net/URLConnection; \u003e@89",
          "type": "activity",
          "component": "com.baidu.AppActivity",
          "constraintsFile": "constraints13_1.py",
          "variables": {},
          "stringMap": {
            "7000": "file:///"
          },
          "strings": {
            "IAAv4": ""
          }
        }
      ]
    },
    "14": {
      "startMethod": "com.baidu.AppActivity.onCreate(Landroid/os/Bundle;)V",
      "targetMethod": "java.net.URL.openConnection()Ljava/net/URLConnection;",
      "eventChain": [
        {
          "start": "com.baidu.AppActivity.onCreate(Landroid/os/Bundle;)V",
          "target": "PC@138",
          "type": "activity",
          "component": "com.baidu.AppActivity",
          "constraintsFile": "constraints14_0.py",
          "variables": {},
          "stringMap": {},
          "strings": {}
        },
        {
          "start": "com.baidu.AppActivity.onCreate(Landroid/os/Bundle;)V",
          "target": "invokevirtual \u003c Application, Ljava/net/URL, openConnection()Ljava/net/URLConnection; \u003e@46",
          "type": "activity",
          "component": "com.baidu.AppActivity",
          "constraintsFile": "constraints14_1.py",
          "variables": {},
          "stringMap": {
            "7000": "file:///"
          },
          "strings": {
            "IAAv4": ""
          }
        }
      ]
    },
    "15": {
      "startMethod": "com.madhouse.android.ads.eeee.onKeyUp(ILandroid/view/KeyEvent;)Z",
      "targetMethod": "java.net.URL.openConnection()Ljava/net/URLConnection;",
      "eventChain": [
        {
          "start": "com.madhouse.android.ads.eeee.onKeyUp(ILandroid/view/KeyEvent;)Z",
          "target": "invokevirtual \u003c Application, Ljava/net/URL, openConnection()Ljava/net/URLConnection; \u003e@18",
          "type": "ui",
          "activities": [
            "com.colorme.game.feijizhachuan.GameMain"
          ],
          "listener": "com.madhouse.android.ads.eeee",
          "listenerMethod": "onKeyUp",
          "uiType": "onKeyUp",
          "constraintsFile": "constraints15_0.py",
          "variables": {
            "\u003cInput1\u003e": "IAAv0"
          },
          "stringMap": {},
          "strings": {}
        }
      ]
    },
    "16": {
      "startMethod": "com.madhouse.android.ads.eeee.onKeyUp(ILandroid/view/KeyEvent;)Z",
      "targetMethod": "java.lang.reflect.Method.invoke(Ljava/lang/Object;[Ljava/lang/Object;)Ljava/lang/Object;",
      "eventChain": [
        {
          "start": "com.madhouse.android.ads.eeee.onKeyUp(ILandroid/view/KeyEvent;)Z",
          "target": "invokevirtual \u003c Application, Ljava/lang/reflect/Method, invoke(Ljava/lang/Object;[Ljava/lang/Object;)Ljava/lang/Object; \u003e@95",
          "type": "ui",
          "activities": [
            "com.colorme.game.feijizhachuan.GameMain"
          ],
          "listener": "com.madhouse.android.ads.eeee",
          "listenerMethod": "onKeyUp",
          "uiType": "onKeyUp",
          "constraintsFile": "constraints16_0.py",
          "variables": {
            "\u003cInput1\u003e": "IAAv0"
          },
          "stringMap": {},
          "strings": {}
        }
      ]
    },
    "17": {
      "startMethod": "com.madhouse.android.ads.____.onKeyUp(ILandroid/view/KeyEvent;)Z",
      "targetMethod": "java.net.URL.openConnection()Ljava/net/URLConnection;",
      "eventChain": [
        {
          "start": "com.madhouse.android.ads.____.onKeyUp(ILandroid/view/KeyEvent;)Z",
          "target": "invokevirtual \u003c Application, Ljava/net/URL, openConnection()Ljava/net/URLConnection; \u003e@18",
          "type": "ui",
          "activities": [
            "com.colorme.game.feijizhachuan.GameMain"
          ],
          "listener": "com.madhouse.android.ads.____",
          "listenerMethod": "onKeyUp",
          "uiType": "onKeyUp",
          "constraintsFile": "constraints17_0.py",
          "variables": {
            "\u003cInput1\u003e": "IAAv0"
          },
          "stringMap": {},
          "strings": {}
        }
      ]
    },
    "18": {
      "startMethod": "com.madhouse.android.ads.____.onKeyUp(ILandroid/view/KeyEvent;)Z",
      "targetMethod": "java.lang.reflect.Method.invoke(Ljava/lang/Object;[Ljava/lang/Object;)Ljava/lang/Object;",
      "eventChain": [
        {
          "start": "com.madhouse.android.ads.____.onKeyUp(ILandroid/view/KeyEvent;)Z",
          "target": "invokevirtual \u003c Application, Ljava/lang/reflect/Method, invoke(Ljava/lang/Object;[Ljava/lang/Object;)Ljava/lang/Object; \u003e@95",
          "type": "ui",
          "activities": [
            "com.colorme.game.feijizhachuan.GameMain"
          ],
          "listener": "com.madhouse.android.ads.____",
          "listenerMethod": "onKeyUp",
          "uiType": "onKeyUp",
          "constraintsFile": "constraints18_0.py",
          "variables": {
            "\u003cInput1\u003e": "IAAv0"
          },
          "stringMap": {},
          "strings": {}
        }
      ]
    },
    "19": {
      "startMethod": "cn.domob.android.ads.g$4.onClick(Landroid/content/DialogInterface;I)V",
      "targetMethod": "java.net.URL.openConnection(Ljava/net/Proxy;)Ljava/net/URLConnection;",
      "eventChain": [
        {
          "start": "cn.domob.android.ads.e.onReceive(Landroid/content/Context;Landroid/content/Intent;)V",
          "target": "PC@483",
          "type": "sms",
          "constraintsFile": "constraints19_0.py",
          "variables": {
            "\u003cChainedInput2\u003e.getDataString()": "IAAv2",
            "\u003cChainedInput2\u003e.getAction()": "IAAv0"
          },
          "stringMap": {
            "7000": "android.intent.action.PACKAGE_ADDED",
            "7001": "",
            "7002": "ctwap"
          },
          "strings": {
            "IAAv2": "",
            "IAAv0": ""
          }
        },
        {
          "start": "cn.domob.android.ads.e.onReceive(Landroid/content/Context;Landroid/content/Intent;)V",
          "target": "PC@133",
          "type": "sms",
          "constraintsFile": "constraints19_1.py",
          "variables": {
            "\u003cChainedInput2\u003e.getDataString()": "IAAv2",
            "\u003cChainedInput2\u003e.getAction()": "IAAv0"
          },
          "stringMap": {
            "7000": "android.intent.action.PACKAGE_ADDED"
          },
          "strings": {
            "IAAv2": "",
            "IAAv0": ""
          }
        },
        {
          "start": "cn.domob.android.ads.g$4.onClick(Landroid/content/DialogInterface;I)V",
          "target": "invokevirtual \u003c Application, Ljava/net/URL, openConnection(Ljava/net/Proxy;)Ljava/net/URLConnection; \u003e@74",
          "type": "ui",
          "activities": [
            "com.colorme.game.feijizhachuan.GameMain"
          ],
          "listener": "cn.domob.android.ads.g$4",
          "listenerMethod": "onClick",
          "uiType": "onClick",
          "inDialog": "true",
          "constraintsFile": "constraints19_2.py",
          "variables": {},
          "stringMap": {},
          "strings": {}
        }
      ]
    },
    "20": {
      "startMethod": "cn.domob.android.ads.g$4.onClick(Landroid/content/DialogInterface;I)V",
      "targetMethod": "java.net.URL.openConnection()Ljava/net/URLConnection;",
      "eventChain": [
        {
          "start": "cn.domob.android.ads.e.onReceive(Landroid/content/Context;Landroid/content/Intent;)V",
          "target": "PC@64",
          "type": "sms",
          "constraintsFile": "constraints20_0.py",
          "variables": {
            "\u003cChainedInput2\u003e.getDataString()": "IAAv3",
            "\u003cChainedInput2\u003e.getAction()": "IAAv1"
          },
          "stringMap": {
            "7000": "android.intent.action.PACKAGE_ADDED"
          },
          "strings": {
            "IAAv3": "",
            "IAAv1": "",
            "IAAv6": ""
          }
        },
        {
          "start": "cn.domob.android.ads.e.onReceive(Landroid/content/Context;Landroid/content/Intent;)V",
          "target": "PC@133",
          "type": "sms",
          "constraintsFile": "constraints20_1.py",
          "variables": {
            "\u003cChainedInput2\u003e.getDataString()": "IAAv2",
            "\u003cChainedInput2\u003e.getAction()": "IAAv0"
          },
          "stringMap": {
            "7000": "android.intent.action.PACKAGE_ADDED"
          },
          "strings": {
            "IAAv2": "",
            "IAAv0": ""
          }
        },
        {
          "start": "cn.domob.android.ads.g$4.onClick(Landroid/content/DialogInterface;I)V",
          "target": "invokevirtual \u003c Application, Ljava/net/URL, openConnection()Ljava/net/URLConnection; \u003e@284",
          "type": "ui",
          "activities": [
            "com.colorme.game.feijizhachuan.GameMain"
          ],
          "listener": "cn.domob.android.ads.g$4",
          "listenerMethod": "onClick",
          "uiType": "onClick",
          "inDialog": "true",
          "constraintsFile": "constraints20_2.py",
          "variables": {},
          "stringMap": {},
          "strings": {}
        }
      ]
    },
    "21": {
      "startMethod": "com.colorme.game.feijizhachuan.FTAADlg$3.onClick(Landroid/content/DialogInterface;I)V",
      "targetMethod": "org.apache.http.client.HttpClient.execute(Lorg/apache/http/client/methods/HttpUriRequest;)Lorg/apache/http/HttpResponse;",
      "eventChain": [
        {
          "start": "com.colorme.game.feijizhachuan.GameMain.onCreate(Landroid/os/Bundle;)V",
          "target": "invokevirtual \u003c Application, Landroid/app/AlertDialog$Builder, setPositiveButton(ILandroid/content/DialogInterface$OnClickListener;)Landroid/app/AlertDialog$Builder; \u003e@56",
          "type": "activity",
          "component": "com.colorme.game.feijizhachuan.GameMain"
        },
        {
          "start": "com.colorme.game.feijizhachuan.FTAADlg$3.onClick(Landroid/content/DialogInterface;I)V",
          "target": "invokeinterface \u003c Application, Lorg/apache/http/client/HttpClient, execute(Lorg/apache/http/client/methods/HttpUriRequest;)Lorg/apache/http/HttpResponse; \u003e@31",
          "type": "ui",
          "activities": [
            "com.colorme.game.feijizhachuan.GameMain"
          ],
          "listener": "com.colorme.game.feijizhachuan.FTAADlg$3",
          "listenerMethod": "onClick",
          "uiType": "onClick",
          "inDialog": "true"
        }
      ]
    },
    "22": {
      "startMethod": "com.colorme.game.feijizhachuan.FTAADlg$3.onClick(Landroid/content/DialogInterface;I)V",
      "targetMethod": "java.net.URL.openConnection()Ljava/net/URLConnection;",
      "eventChain": [
        {
          "start": "com.colorme.game.feijizhachuan.GameMain.onCreate(Landroid/os/Bundle;)V",
          "target": "invokevirtual \u003c Application, Landroid/app/AlertDialog$Builder, setPositiveButton(ILandroid/content/DialogInterface$OnClickListener;)Landroid/app/AlertDialog$Builder; \u003e@56",
          "type": "activity",
          "component": "com.colorme.game.feijizhachuan.GameMain"
        },
        {
          "start": "com.colorme.game.feijizhachuan.FTAADlg$3.onClick(Landroid/content/DialogInterface;I)V",
          "target": "invokevirtual \u003c Application, Ljava/net/URL, openConnection()Ljava/net/URLConnection; \u003e@127",
          "type": "ui",
          "activities": [
            "com.colorme.game.feijizhachuan.GameMain"
          ],
          "listener": "com.colorme.game.feijizhachuan.FTAADlg$3",
          "listenerMethod": "onClick",
          "uiType": "onClick",
          "inDialog": "true"
        }
      ]
    },
    "23": {
      "startMethod": "cn.domob.android.ads.DomobActivity$2.onClick(Landroid/content/DialogInterface;I)V",
      "targetMethod": "java.net.URL.openConnection()Ljava/net/URLConnection;",
      "eventChain": [
        {
          "start": "cn.domob.android.ads.DomobActivity.onCreate(Landroid/os/Bundle;)V",
          "target": "invokevirtual \u003c Application, Landroid/app/AlertDialog$Builder, setNegativeButton(Ljava/lang/CharSequence;Landroid/content/DialogInterface$OnClickListener;)Landroid/app/AlertDialog$Builder; \u003e@285",
          "type": "activity",
          "component": "cn.domob.android.ads.DomobActivity"
        },
        {
          "start": "cn.domob.android.ads.e.onReceive(Landroid/content/Context;Landroid/content/Intent;)V",
          "target": "PC@64",
          "type": "sms",
          "constraintsFile": "constraints23_0.py",
          "variables": {
            "\u003cChainedInput2\u003e.getDataString()": "IAAv5",
            "\u003cChainedInput2\u003e.getAction()": "IAAv3"
          },
          "stringMap": {
            "7000": "android.intent.action.PACKAGE_ADDED"
          },
          "strings": {
            "IAAv3": "",
            "IAAv8": "",
            "IAAv5": ""
          }
        },
        {
          "start": "cn.domob.android.ads.e.onReceive(Landroid/content/Context;Landroid/content/Intent;)V",
          "target": "PC@133",
          "type": "sms",
          "constraintsFile": "constraints23_1.py",
          "variables": {
            "\u003cChainedInput2\u003e.getDataString()": "IAAv2",
            "\u003cChainedInput2\u003e.getAction()": "IAAv0"
          },
          "stringMap": {
            "7000": "android.intent.action.PACKAGE_ADDED"
          },
          "strings": {
            "IAAv2": "",
            "IAAv0": ""
          }
        },
        {
          "start": "cn.domob.android.ads.DomobActivity$2.onClick(Landroid/content/DialogInterface;I)V",
          "target": "invokevirtual \u003c Application, Ljava/net/URL, openConnection()Ljava/net/URLConnection; \u003e@284",
          "type": "ui",
          "activities": [
            "com.colorme.game.feijizhachuan.GameMain"
          ],
          "listener": "cn.domob.android.ads.DomobActivity$2",
          "listenerMethod": "onClick",
          "uiType": "onClick",
          "inDialog": "true",
          "constraintsFile": "constraints23_2.py",
          "variables": {},
          "stringMap": {},
          "strings": {}
        }
      ]
    },
    "24": {
      "startMethod": "cn.domob.android.ads.DomobActivity$2.onClick(Landroid/content/DialogInterface;I)V",
      "targetMethod": "java.net.URL.openConnection(Ljava/net/Proxy;)Ljava/net/URLConnection;",
      "eventChain": [
        {
          "start": "cn.domob.android.ads.DomobActivity.onCreate(Landroid/os/Bundle;)V",
          "target": "invokevirtual \u003c Application, Landroid/app/AlertDialog$Builder, setNegativeButton(Ljava/lang/CharSequence;Landroid/content/DialogInterface$OnClickListener;)Landroid/app/AlertDialog$Builder; \u003e@285",
          "type": "activity",
          "component": "cn.domob.android.ads.DomobActivity"
        },
        {
          "start": "cn.domob.android.ads.e.onReceive(Landroid/content/Context;Landroid/content/Intent;)V",
          "target": "PC@483",
          "type": "sms",
          "constraintsFile": "constraints24_0.py",
          "variables": {
            "\u003cChainedInput2\u003e.getDataString()": "IAAv2",
            "\u003cChainedInput2\u003e.getAction()": "IAAv0"
          },
          "stringMap": {
            "7000": "android.intent.action.PACKAGE_ADDED",
            "7001": "",
            "7002": "ctwap"
          },
          "strings": {
            "IAAv2": "",
            "IAAv0": ""
          }
        },
        {
          "start": "cn.domob.android.ads.e.onReceive(Landroid/content/Context;Landroid/content/Intent;)V",
          "target": "PC@133",
          "type": "sms",
          "constraintsFile": "constraints24_1.py",
          "variables": {
            "\u003cChainedInput2\u003e.getDataString()": "IAAv2",
            "\u003cChainedInput2\u003e.getAction()": "IAAv0"
          },
          "stringMap": {
            "7000": "android.intent.action.PACKAGE_ADDED"
          },
          "strings": {
            "IAAv2": "",
            "IAAv0": ""
          }
        },
        {
          "start": "cn.domob.android.ads.DomobActivity$2.onClick(Landroid/content/DialogInterface;I)V",
          "target": "invokevirtual \u003c Application, Ljava/net/URL, openConnection(Ljava/net/Proxy;)Ljava/net/URLConnection; \u003e@74",
          "type": "ui",
          "activities": [
            "com.colorme.game.feijizhachuan.GameMain"
          ],
          "listener": "cn.domob.android.ads.DomobActivity$2",
          "listenerMethod": "onClick",
          "uiType": "onClick",
          "inDialog": "true",
          "constraintsFile": "constraints24_2.py",
          "variables": {},
          "stringMap": {},
          "strings": {}
        }
      ]
    },
    "25": {
      "startMethod": "com.baidu.an.onClick(Landroid/view/View;)V",
      "targetMethod": "java.net.URL.openConnection()Ljava/net/URLConnection;",
      "eventChain": [
        {
          "start": "com.baidu.AppActivity.onCreate(Landroid/os/Bundle;)V",
          "target": "invokevirtual \u003c Application, Landroid/widget/ImageView, setOnClickListener(Landroid/view/View$OnClickListener;)V \u003e@683",
          "type": "activity",
          "component": "com.baidu.AppActivity",
          "constraintsFile": "constraints25_0.py",
          "variables": {},
          "stringMap": {},
          "strings": {}
        },
        {
          "start": "com.baidu.an.onClick(Landroid/view/View;)V",
          "target": "invokevirtual \u003c Application, Ljava/net/URL, openConnection()Ljava/net/URLConnection; \u003e@89",
          "type": "ui",
          "activities": [
            "com.colorme.game.feijizhachuan.GameMain"
          ],
          "listener": "com.baidu.an",
          "listenerMethod": "onClick",
          "uiType": "onClick",
          "constraintsFile": "constraints25_1.py",
          "variables": {},
          "stringMap": {},
          "strings": {}
        }
      ]
    },
    "26": {
      "startMethod": "cn.domob.android.ads.e.onReceive(Landroid/content/Context;Landroid/content/Intent;)V",
      "targetMethod": "java.net.URL.openConnection(Ljava/net/Proxy;)Ljava/net/URLConnection;",
      "eventChain": [
        {
          "start": "cn.domob.android.ads.o$5.onClick(Landroid/content/DialogInterface;I)V",
          "target": "invokespecial \u003c Application, Landroid/content/BroadcastReceiver, \u003cinit\u003e()V \u003e@2",
          "type": "ui",
          "activities": [
            "com.colorme.game.feijizhachuan.GameMain"
          ],
          "listener": "cn.domob.android.ads.o$5",
          "listenerMethod": "onClick",
          "uiType": "onClick",
          "inDialog": "true",
          "constraintsFile": "constraints26_0.py",
          "variables": {},
          "stringMap": {},
          "strings": {}
        },
        {
          "start": "cn.domob.android.ads.e.onReceive(Landroid/content/Context;Landroid/content/Intent;)V",
          "target": "PC@483",
          "type": "sms",
          "constraintsFile": "constraints26_1.py",
          "variables": {
            "\u003cChainedInput2\u003e.getDataString()": "IAAv2",
            "\u003cChainedInput2\u003e.getAction()": "IAAv0"
          },
          "stringMap": {
            "7000": "android.intent.action.PACKAGE_ADDED",
            "7001": "",
            "7002": "ctwap"
          },
          "strings": {
            "IAAv2": "",
            "IAAv0": ""
          }
        },
        {
          "start": "cn.domob.android.ads.e.onReceive(Landroid/content/Context;Landroid/content/Intent;)V",
          "target": "PC@133",
          "type": "sms",
          "constraintsFile": "constraints26_2.py",
          "variables": {
            "\u003cChainedInput2\u003e.getDataString()": "IAAv2",
            "\u003cChainedInput2\u003e.getAction()": "IAAv0"
          },
          "stringMap": {
            "7000": "android.intent.action.PACKAGE_ADDED"
          },
          "strings": {
            "IAAv2": "",
            "IAAv0": ""
          }
        },
        {
          "start": "cn.domob.android.ads.e.onReceive(Landroid/content/Context;Landroid/content/Intent;)V",
          "target": "invokevirtual \u003c Application, Ljava/net/URL, openConnection(Ljava/net/Proxy;)Ljava/net/URLConnection; \u003e@74",
          "type": "sms",
          "constraintsFile": "constraints26_3.py",
          "variables": {
            "\u003cChainedInput2\u003e.getDataString()": "IAAv2",
            "\u003cChainedInput2\u003e.getAction()": "IAAv0"
          },
          "stringMap": {
            "7000": "android.intent.action.PACKAGE_ADDED"
          },
          "strings": {
            "IAAv2": "",
            "IAAv0": ""
          }
        }
      ]
    },
    "27": {
      "startMethod": "cn.domob.android.ads.e.onReceive(Landroid/content/Context;Landroid/content/Intent;)V",
      "targetMethod": "java.net.URL.openConnection()Ljava/net/URLConnection;",
      "eventChain": [
        {
          "start": "cn.domob.android.ads.o$5.onClick(Landroid/content/DialogInterface;I)V",
          "target": "invokespecial \u003c Application, Landroid/content/BroadcastReceiver, \u003cinit\u003e()V \u003e@2",
          "type": "ui",
          "activities": [
            "com.colorme.game.feijizhachuan.GameMain"
          ],
          "listener": "cn.domob.android.ads.o$5",
          "listenerMethod": "onClick",
          "uiType": "onClick",
          "inDialog": "true",
          "constraintsFile": "constraints27_0.py",
          "variables": {},
          "stringMap": {},
          "strings": {}
        },
        {
          "start": "cn.domob.android.ads.e.onReceive(Landroid/content/Context;Landroid/content/Intent;)V",
          "target": "PC@64",
          "type": "sms",
          "constraintsFile": "constraints27_1.py",
          "variables": {
            "\u003cChainedInput2\u003e.getDataString()": "IAAv2",
            "\u003cChainedInput2\u003e.getAction()": "IAAv0"
          },
          "stringMap": {
            "7000": "android.intent.action.PACKAGE_ADDED"
          },
          "strings": {
            "IAAv2": "",
            "IAAv0": "",
            "IAAv6": ""
          }
        },
        {
          "start": "cn.domob.android.ads.e.onReceive(Landroid/content/Context;Landroid/content/Intent;)V",
          "target": "PC@133",
          "type": "sms",
          "constraintsFile": "constraints27_2.py",
          "variables": {
            "\u003cChainedInput2\u003e.getDataString()": "IAAv2",
            "\u003cChainedInput2\u003e.getAction()": "IAAv0"
          },
          "stringMap": {
            "7000": "android.intent.action.PACKAGE_ADDED"
          },
          "strings": {
            "IAAv2": "",
            "IAAv0": ""
          }
        },
        {
          "start": "cn.domob.android.ads.e.onReceive(Landroid/content/Context;Landroid/content/Intent;)V",
          "target": "invokevirtual \u003c Application, Ljava/net/URL, openConnection()Ljava/net/URLConnection; \u003e@284",
          "type": "sms",
          "constraintsFile": "constraints27_3.py",
          "variables": {
            "\u003cChainedInput2\u003e.getDataString()": "IAAv2",
            "\u003cChainedInput2\u003e.getAction()": "IAAv0"
          },
          "stringMap": {
            "7000": "android.intent.action.PACKAGE_ADDED"
          },
          "strings": {
            "IAAv2": "",
            "IAAv0": ""
          }
        }
      ]
    },
    "28": {
      "startMethod": "com.madhouse.android.ads.i.onAnimationEnd(Landroid/view/animation/Animation;)V",
      "targetMethod": "java.net.URL.openConnection()Ljava/net/URLConnection;",
      "eventChain": [
        {
          "start": "com.madhouse.android.ads.g.onClick(Landroid/view/View;)V",
          "target": "invokevirtual \u003c Application, Lcom/madhouse/android/ads/___, setAnimationListener(Landroid/view/animation/Animation$AnimationListener;)V \u003e@106",
          "type": "ui",
          "activities": [
            "com.colorme.game.feijizhachuan.GameMain"
          ],
          "listener": "com.madhouse.android.ads.g",
          "listenerMethod": "onClick",
          "uiType": "onClick"
        },
        {
          "start": "com.madhouse.android.ads.i.onAnimationEnd(Landroid/view/animation/Animation;)V",
          "target": "PC@699",
          "type": "ui",
          "activities": [
            "com.colorme.game.feijizhachuan.GameMain"
          ],
          "listener": "com.madhouse.android.ads.i",
          "listenerMethod": "onAnimationEnd",
          "uiType": "onAnimationEnd",
          "constraintsFile": "constraints28_0.py",
          "variables": {},
          "stringMap": {},
          "strings": {
            "IAAv9": "",
            "IAAv8": "",
            "IAAv6": "",
            "IAAv5": ""
          }
        },
        {
          "start": "com.madhouse.android.ads.i.onAnimationEnd(Landroid/view/animation/Animation;)V",
          "target": "PC@55",
          "type": "ui",
          "activities": [
            "com.colorme.game.feijizhachuan.GameMain"
          ],
          "listener": "com.madhouse.android.ads.i",
          "listenerMethod": "onAnimationEnd",
          "uiType": "onAnimationEnd",
          "constraintsFile": "constraints28_1.py",
          "variables": {},
          "stringMap": {},
          "strings": {
            "IAAv14": "",
            "IAAv15": "",
            "IAAv17": "",
            "IAAv18": ""
          }
        },
        {
          "start": "com.madhouse.android.ads.i.onAnimationEnd(Landroid/view/animation/Animation;)V",
          "target": "PC@513",
          "type": "ui",
          "activities": [
            "com.colorme.game.feijizhachuan.GameMain"
          ],
          "listener": "com.madhouse.android.ads.i",
          "listenerMethod": "onAnimationEnd",
          "uiType": "onAnimationEnd",
          "constraintsFile": "constraints28_2.py",
          "variables": {},
          "stringMap": {},
          "strings": {
            "IAAv9": "",
            "IAAv8": "",
            "IAAv6": "",
            "IAAv5": ""
          }
        },
        {
          "start": "com.madhouse.android.ads.i.onAnimationEnd(Landroid/view/animation/Animation;)V",
          "target": "invokevirtual \u003c Application, Ljava/net/URL, openConnection()Ljava/net/URLConnection; \u003e@27",
          "type": "ui",
          "activities": [
            "com.colorme.game.feijizhachuan.GameMain"
          ],
          "listener": "com.madhouse.android.ads.i",
          "listenerMethod": "onAnimationEnd",
          "uiType": "onAnimationEnd",
          "constraintsFile": "constraints28_3.py",
          "variables": {},
          "stringMap": {},
          "strings": {}
        }
      ]
    },
    "29": {
      "startMethod": "com.madhouse.android.ads.i.onAnimationEnd(Landroid/view/animation/Animation;)V",
      "targetMethod": "java.net.URL.openConnection()Ljava/net/URLConnection;",
      "eventChain": [
        {
          "start": "com.madhouse.android.ads.g.onClick(Landroid/view/View;)V",
          "target": "invokevirtual \u003c Application, Lcom/madhouse/android/ads/___, setAnimationListener(Landroid/view/animation/Animation$AnimationListener;)V \u003e@106",
          "type": "ui",
          "activities": [
            "com.colorme.game.feijizhachuan.GameMain"
          ],
          "listener": "com.madhouse.android.ads.g",
          "listenerMethod": "onClick",
          "uiType": "onClick"
        },
        {
          "start": "com.madhouse.android.ads.i.onAnimationEnd(Landroid/view/animation/Animation;)V",
          "target": "invokevirtual \u003c Application, Ljava/net/URL, openConnection()Ljava/net/URLConnection; \u003e@330",
          "type": "ui",
          "activities": [
            "com.colorme.game.feijizhachuan.GameMain"
          ],
          "listener": "com.madhouse.android.ads.i",
          "listenerMethod": "onAnimationEnd",
          "uiType": "onAnimationEnd",
          "constraintsFile": "constraints29_0.py",
          "variables": {},
          "stringMap": {},
          "strings": {
            "IAAv11": "",
            "IAAv10": "",
            "IAAv12": "",
            "IAAv14": "",
            "IAAv9": "",
            "IAAv8": "",
            "IAAv6": "",
            "IAAv5": ""
          }
        }
      ]
    },
    "30": {
      "startMethod": "com.madhouse.android.ads.i.onAnimationEnd(Landroid/view/animation/Animation;)V",
      "targetMethod": "java.net.URL.openConnection()Ljava/net/URLConnection;",
      "eventChain": [
        {
          "start": "com.madhouse.android.ads.g.onClick(Landroid/view/View;)V",
          "target": "invokevirtual \u003c Application, Lcom/madhouse/android/ads/___, setAnimationListener(Landroid/view/animation/Animation$AnimationListener;)V \u003e@106",
          "type": "ui",
          "activities": [
            "com.colorme.game.feijizhachuan.GameMain"
          ],
          "listener": "com.madhouse.android.ads.g",
          "listenerMethod": "onClick",
          "uiType": "onClick"
        },
        {
          "start": "com.madhouse.android.ads.i.onAnimationEnd(Landroid/view/animation/Animation;)V",
          "target": "invokevirtual \u003c Application, Ljava/net/URL, openConnection()Ljava/net/URLConnection; \u003e@144",
          "type": "ui",
          "activities": [
            "com.colorme.game.feijizhachuan.GameMain"
          ],
          "listener": "com.madhouse.android.ads.i",
          "listenerMethod": "onAnimationEnd",
          "uiType": "onAnimationEnd",
          "constraintsFile": "constraints30_0.py",
          "variables": {},
          "stringMap": {},
          "strings": {
            "IAAv11": "",
            "IAAv10": "",
            "IAAv12": "",
            "IAAv14": "",
            "IAAv9": "",
            "IAAv8": "",
            "IAAv6": "",
            "IAAv5": ""
          }
        }
      ]
    },
    "31": {
      "startMethod": "cn.domob.android.ads.o$10.onDownloadStart(Ljava/lang/String;Ljava/lang/String;Ljava/lang/String;Ljava/lang/String;J)V",
      "targetMethod": "java.net.URL.openConnection()Ljava/net/URLConnection;",
      "eventChain": [
        {
          "start": "cn.domob.android.ads.o$10.onDownloadStart(Ljava/lang/String;Ljava/lang/String;Ljava/lang/String;Ljava/lang/String;J)V",
          "target": "invokevirtual \u003c Application, Ljava/net/URL, openConnection()Ljava/net/URLConnection; \u003e@102",
          "type": ""
        }
      ]
    },
    "32": {
      "startMethod": "cn.domob.android.ads.o$10.onDownloadStart(Ljava/lang/String;Ljava/lang/String;Ljava/lang/String;Ljava/lang/String;J)V",
      "targetMethod": "java.net.URL.openConnection()Ljava/net/URLConnection;",
      "eventChain": [
        {
          "start": "cn.domob.android.ads.o$10.onDownloadStart(Ljava/lang/String;Ljava/lang/String;Ljava/lang/String;Ljava/lang/String;J)V",
          "target": "invokevirtual \u003c Application, Ljava/net/URL, openConnection()Ljava/net/URLConnection; \u003e@284",
          "type": ""
        }
      ]
    },
    "33": {
      "startMethod": "cn.domob.android.ads.o$10.onDownloadStart(Ljava/lang/String;Ljava/lang/String;Ljava/lang/String;Ljava/lang/String;J)V",
      "targetMethod": "java.net.URL.openConnection(Ljava/net/Proxy;)Ljava/net/URLConnection;",
      "eventChain": [
        {
          "start": "cn.domob.android.ads.o$10.onDownloadStart(Ljava/lang/String;Ljava/lang/String;Ljava/lang/String;Ljava/lang/String;J)V",
          "target": "invokevirtual \u003c Application, Ljava/net/URL, openConnection(Ljava/net/Proxy;)Ljava/net/URLConnection; \u003e@30",
          "type": ""
        }
      ]
    },
    "34": {
      "startMethod": "cn.domob.android.ads.o$10.onDownloadStart(Ljava/lang/String;Ljava/lang/String;Ljava/lang/String;Ljava/lang/String;J)V",
      "targetMethod": "java.net.URL.openConnection(Ljava/net/Proxy;)Ljava/net/URLConnection;",
      "eventChain": [
        {
          "start": "cn.domob.android.ads.o$10.onDownloadStart(Ljava/lang/String;Ljava/lang/String;Ljava/lang/String;Ljava/lang/String;J)V",
          "target": "invokevirtual \u003c Application, Ljava/net/URL, openConnection(Ljava/net/Proxy;)Ljava/net/URLConnection; \u003e@51",
          "type": ""
        }
      ]
    },
    "35": {
      "startMethod": "cn.domob.android.ads.o$10.onDownloadStart(Ljava/lang/String;Ljava/lang/String;Ljava/lang/String;Ljava/lang/String;J)V",
      "targetMethod": "java.net.URL.openConnection(Ljava/net/Proxy;)Ljava/net/URLConnection;",
      "eventChain": [
        {
          "start": "cn.domob.android.ads.o$10.onDownloadStart(Ljava/lang/String;Ljava/lang/String;Ljava/lang/String;Ljava/lang/String;J)V",
          "target": "invokevirtual \u003c Application, Ljava/net/URL, openConnection(Ljava/net/Proxy;)Ljava/net/URLConnection; \u003e@49",
          "type": "",
          "constraintsFile": "constraints35_0.py",
          "variables": {},
          "stringMap": {},
          "strings": {}
        }
      ]
    },
    "36": {
      "startMethod": "cn.domob.android.ads.o$10.onDownloadStart(Ljava/lang/String;Ljava/lang/String;Ljava/lang/String;Ljava/lang/String;J)V",
      "targetMethod": "java.net.URL.openConnection(Ljava/net/Proxy;)Ljava/net/URLConnection;",
      "eventChain": [
        {
          "start": "cn.domob.android.ads.o$10.onDownloadStart(Ljava/lang/String;Ljava/lang/String;Ljava/lang/String;Ljava/lang/String;J)V",
          "target": "invokevirtual \u003c Application, Ljava/net/URL, openConnection(Ljava/net/Proxy;)Ljava/net/URLConnection; \u003e@74",
          "type": ""
        }
      ]
    },
    "37": {
      "startMethod": "cn.domob.android.ads.o$10.onDownloadStart(Ljava/lang/String;Ljava/lang/String;Ljava/lang/String;Ljava/lang/String;J)V",
      "targetMethod": "java.net.URL.openConnection()Ljava/net/URLConnection;",
      "eventChain": [
        {
          "start": "cn.domob.android.ads.o$10.onDownloadStart(Ljava/lang/String;Ljava/lang/String;Ljava/lang/String;Ljava/lang/String;J)V",
          "target": "invokevirtual \u003c Application, Ljava/net/URL, openConnection()Ljava/net/URLConnection; \u003e@495",
          "type": "",
          "constraintsFile": "constraints37_0.py",
          "variables": {},
          "stringMap": {},
          "strings": {}
        }
      ]
    },
    "38": {
      "startMethod": "cn.domob.android.ads.o$10.onDownloadStart(Ljava/lang/String;Ljava/lang/String;Ljava/lang/String;Ljava/lang/String;J)V",
      "targetMethod": "java.net.URL.openConnection()Ljava/net/URLConnection;",
      "eventChain": [
        {
          "start": "cn.domob.android.ads.o$10.onDownloadStart(Ljava/lang/String;Ljava/lang/String;Ljava/lang/String;Ljava/lang/String;J)V",
          "target": "invokevirtual \u003c Application, Ljava/net/URL, openConnection()Ljava/net/URLConnection; \u003e@457",
          "type": ""
        }
      ]
    }
  }
}