{
  "packageName": "vercoop.FGPCC.app",
  "mainActivity": "com.vercoop.app.ActMain",
  "callPaths": {
    "0": {
      "startMethod": "com.vercoop.app.friend.ActFriend.onCreate(Landroid/os/Bundle;)V",
      "targetMethod": "org.apache.http.client.HttpClient.execute(Lorg/apache/http/client/methods/HttpUriRequest;)Lorg/apache/http/HttpResponse;",
      "eventChain": [
        {
          "start": "com.vercoop.app.friend.ActFriend.onCreate(Landroid/os/Bundle;)V",
          "target": "PC@14",
          "type": "activity",
          "component": "com.vercoop.app.friend.ActFriend",
          "constraintsFile": "constraints0_0.py",
          "variables": {
            "\u003cChainedInput1\u003e": "IAAv0",
            "\u003cChainedInput1\u003e.getBoolean()": "IAAv1"
          },
          "stringMap": {
            "7000": "STORAGE_CONTENT_LIST",
            "7001": "http://www.vercoop.com/json/content.php",
            "7002": "SHW-M250L",
            "7003": "SHW-M250K",
            "7004": "SHV-E110S",
            "7005": "SHV-E120K",
            "7006": "SHV-E120L",
            "7007": "SHV-E120S",
            "7008": "SHW-M250S"
          },
          "strings": {
            "IAAv8": "",
            "IAAv6": ""
          }
        },
        {
          "start": "com.vercoop.app.friend.ActFriend.\u003cinit\u003e()V",
          "target": "PC@55",
          "type": ""
        },
        {
          "start": "com.vercoop.app.friend.ActFriend.onCreate(Landroid/os/Bundle;)V",
          "target": "invokeinterface \u003c Application, Lorg/apache/http/client/HttpClient, execute(Lorg/apache/http/client/methods/HttpUriRequest;)Lorg/apache/http/HttpResponse; \u003e@243",
          "type": "activity",
          "component": "com.vercoop.app.friend.ActFriend",
          "constraintsFile": "constraints0_1.py",
          "variables": {
            "\u003cChainedInput1\u003e": "IAAv0",
            "\u003cChainedInput1\u003e.getBoolean()": "IAAv1"
          },
          "stringMap": {
            "7000": "STORAGE_CONTENT_LIST",
            "7001": "http://www.vercoop.com/json/content.php",
            "7002": "SHW-M250L",
            "7003": "SHW-M250K",
            "7004": "SHV-E110S",
            "7005": "SHV-E120K",
            "7006": "SHV-E120L",
            "7007": "SHV-E120S",
            "7008": "SHW-M250S"
          },
          "strings": {
            "IAAv8": "",
            "IAAv6": ""
          }
        }
      ]
    },
    "1": {
      "startMethod": "com.vercoop.app.channel.ActChannelSpecificMatrix.onCreate(Landroid/os/Bundle;)V",
      "targetMethod": "org.apache.http.client.HttpClient.execute(Lorg/apache/http/client/methods/HttpUriRequest;)Lorg/apache/http/HttpResponse;",
      "eventChain": [
        {
          "start": "com.vercoop.app.channel.ActChannelSpecificMatrix.onCreate(Landroid/os/Bundle;)V",
          "target": "invokeinterface \u003c Application, Lorg/apache/http/client/HttpClient, execute(Lorg/apache/http/client/methods/HttpUriRequest;)Lorg/apache/http/HttpResponse; \u003e@243",
          "type": "activity",
          "component": "com.vercoop.app.channel.ActChannelSpecificMatrix",
          "constraintsFile": "constraints1_0.py",
          "variables": {
            "\u003cChainedInput1\u003e": "IAAv0",
            "\u003cChainedInput1\u003e.getBoolean()": "IAAv1"
          },
          "stringMap": {
            "7000": "SEARCH_CONTENT_LIST"
          },
          "strings": {
            "IAAv5": ""
          }
        }
      ]
    },
    "2": {
      "startMethod": "com.vercoop.app.channel.ActChannelSpecificMatrix.onCreate(Landroid/os/Bundle;)V",
      "targetMethod": "org.apache.http.client.HttpClient.execute(Lorg/apache/http/client/methods/HttpUriRequest;)Lorg/apache/http/HttpResponse;",
      "eventChain": [
        {
          "start": "com.vercoop.app.channel.ActChannelSpecificMatrix.onCreate(Landroid/os/Bundle;)V",
          "target": "invokeinterface \u003c Application, Lorg/apache/http/client/HttpClient, execute(Lorg/apache/http/client/methods/HttpUriRequest;)Lorg/apache/http/HttpResponse; \u003e@622",
          "type": "activity",
          "component": "com.vercoop.app.channel.ActChannelSpecificMatrix",
          "constraintsFile": "constraints2_0.py",
          "variables": {
            "\u003cChainedInput1\u003e": "IAAv0",
            "\u003cChainedInput1\u003e.getBoolean()": "IAAv1"
          },
          "stringMap": {
            "7000": "SEARCH_CONTENT_LIST"
          },
          "strings": {
            "IAAv5": ""
          }
        }
      ]
    },
    "3": {
      "startMethod": "com.vercoop.app.media.ActLiveAudioPlayer.onCreate(Landroid/os/Bundle;)V",
      "targetMethod": "org.apache.http.client.HttpClient.execute(Lorg/apache/http/client/methods/HttpUriRequest;)Lorg/apache/http/HttpResponse;",
      "eventChain": [
        {
          "start": "com.vercoop.app.media.ActLiveAudioPlayer.onCreate(Landroid/os/Bundle;)V",
          "target": "invokeinterface \u003c Application, Lorg/apache/http/client/HttpClient, execute(Lorg/apache/http/client/methods/HttpUriRequest;)Lorg/apache/http/HttpResponse; \u003e@243",
          "type": "activity",
          "component": "com.vercoop.app.media.ActLiveAudioPlayer",
          "constraintsFile": "constraints3_0.py",
          "variables": {
            "\u003cChainedInput1\u003e": "IAAv0",
            "\u003cChainedInput1\u003e.getBoolean()": "IAAv1"
          },
          "stringMap": {},
          "strings": {}
        }
      ]
    },
    "4": {
      "startMethod": "com.vercoop.app.channel.ActChannelCoverFlow.onCreate(Landroid/os/Bundle;)V",
      "targetMethod": "org.apache.http.client.HttpClient.execute(Lorg/apache/http/client/methods/HttpUriRequest;)Lorg/apache/http/HttpResponse;",
      "eventChain": [
        {
          "start": "com.vercoop.app.channel.ActChannelCoverFlow.\u003cinit\u003e()V",
          "target": "PC@67",
          "type": ""
        },
        {
          "start": "com.vercoop.app.channel.ActChannelCoverFlow.onCreate(Landroid/os/Bundle;)V",
          "target": "invokeinterface \u003c Application, Lorg/apache/http/client/HttpClient, execute(Lorg/apache/http/client/methods/HttpUriRequest;)Lorg/apache/http/HttpResponse; \u003e@243",
          "type": "activity",
          "component": "com.vercoop.app.channel.ActChannelCoverFlow",
          "constraintsFile": "constraints4_0.py",
          "variables": {
            "\u003cChainedInput1\u003e": "IAAv0",
            "\u003cChainedInput1\u003e.getBoolean()": "IAAv1"
          },
          "stringMap": {
            "7000": "SEARCH_CONTENT_LIST"
          },
          "strings": {
            "IAAv5": ""
          }
        }
      ]
    },
    "5": {
      "startMethod": "com.vercoop.app.home.ActLive.onCreate(Landroid/os/Bundle;)V",
      "targetMethod": "org.apache.http.client.HttpClient.execute(Lorg/apache/http/client/methods/HttpUriRequest;)Lorg/apache/http/HttpResponse;",
      "eventChain": [
        {
          "start": "com.vercoop.app.friend.ActFriend.onCreate(Landroid/os/Bundle;)V",
          "target": "PC@14",
          "type": "activity",
          "component": "com.vercoop.app.friend.ActFriend",
          "constraintsFile": "constraints5_0.py",
          "variables": {
            "\u003cChainedInput1\u003e": "IAAv0",
            "\u003cChainedInput1\u003e.getBoolean()": "IAAv1"
          },
          "stringMap": {
            "7000": "STORAGE_CONTENT_LIST",
            "7001": "http://www.vercoop.com/json/content.php",
            "7002": "SHW-M250L",
            "7003": "SHW-M250K",
            "7004": "SHV-E110S",
            "7005": "SHV-E120K",
            "7006": "SHV-E120L",
            "7007": "SHV-E120S",
            "7008": "SHW-M250S"
          },
          "strings": {
            "IAAv8": "",
            "IAAv6": ""
          }
        },
        {
          "start": "com.vercoop.app.friend.ActFriend.\u003cinit\u003e()V",
          "target": "PC@55",
          "type": ""
        },
        {
          "start": "com.vercoop.app.home.ActLive.onCreate(Landroid/os/Bundle;)V",
          "target": "invokeinterface \u003c Application, Lorg/apache/http/client/HttpClient, execute(Lorg/apache/http/client/methods/HttpUriRequest;)Lorg/apache/http/HttpResponse; \u003e@243",
          "type": "activity",
          "component": "com.vercoop.app.home.ActLive",
          "constraintsFile": "constraints5_1.py",
          "variables": {
            "\u003cChainedInput1\u003e": "IAAv0",
            "\u003cChainedInput1\u003e.getBoolean()": "IAAv1"
          },
          "stringMap": {
            "7000": "STORAGE_CONTENT_LIST",
            "7001": "http://www.vercoop.com/json/content.php",
            "7002": "SHW-M250L",
            "7003": "SHW-M250K",
            "7004": "SHV-E110S",
            "7005": "SHV-E120K",
            "7006": "SHV-E120L",
            "7007": "SHV-E120S",
            "7008": "SHW-M250S"
          },
          "strings": {
            "IAAv8": "",
            "IAAv6": ""
          }
        }
      ]
    },
    "6": {
      "startMethod": "com.vercoop.app.ActMain.onCreate(Landroid/os/Bundle;)V",
      "targetMethod": "org.apache.http.client.HttpClient.execute(Lorg/apache/http/client/methods/HttpUriRequest;)Lorg/apache/http/HttpResponse;",
      "eventChain": [
        {
          "start": "com.vercoop.app.ActMain.onCreate(Landroid/os/Bundle;)V",
          "target": "",
          "type": "activity",
          "component": "com.vercoop.app.ActMain",
          "constraintsFile": "constraints6_0.py",
          "variables": {},
          "stringMap": {},
          "strings": {}
        },
        {
          "start": "com.vercoop.app.ActMain.onCreate(Landroid/os/Bundle;)V",
          "target": "invokeinterface \u003c Application, Lorg/apache/http/client/HttpClient, execute(Lorg/apache/http/client/methods/HttpUriRequest;)Lorg/apache/http/HttpResponse; \u003e@243",
          "type": "activity",
          "component": "com.vercoop.app.ActMain",
          "constraintsFile": "constraints6_1.py",
          "variables": {},
          "stringMap": {
            "7000": ""
          },
          "strings": {}
        }
      ]
    },
    "7": {
      "startMethod": "com.vercoop.app.ActMain.onCreate(Landroid/os/Bundle;)V",
      "targetMethod": "org.apache.http.client.HttpClient.execute(Lorg/apache/http/client/methods/HttpUriRequest;)Lorg/apache/http/HttpResponse;",
      "eventChain": [
        {
          "start": "com.vercoop.app.ActMain.onCreate(Landroid/os/Bundle;)V",
          "target": "",
          "type": "activity",
          "component": "com.vercoop.app.ActMain",
          "constraintsFile": "constraints7_0.py",
          "variables": {},
          "stringMap": {},
          "strings": {}
        },
        {
          "start": "com.vercoop.app.ActMain.onCreate(Landroid/os/Bundle;)V",
          "target": "invokeinterface \u003c Application, Lorg/apache/http/client/HttpClient, execute(Lorg/apache/http/client/methods/HttpUriRequest;)Lorg/apache/http/HttpResponse; \u003e@622",
          "type": "activity",
          "component": "com.vercoop.app.ActMain",
          "constraintsFile": "constraints7_1.py",
          "variables": {},
          "stringMap": {
            "7000": ""
          },
          "strings": {}
        }
      ]
    },
    "8": {
      "startMethod": "com.vercoop.app.channel.ActChannelIcon.onCreate(Landroid/os/Bundle;)V",
      "targetMethod": "org.apache.http.client.HttpClient.execute(Lorg/apache/http/client/methods/HttpUriRequest;)Lorg/apache/http/HttpResponse;",
      "eventChain": [
        {
          "start": "com.vercoop.app.channel.ActChannelIcon.onCreate(Landroid/os/Bundle;)V",
          "target": "invokeinterface \u003c Application, Lorg/apache/http/client/HttpClient, execute(Lorg/apache/http/client/methods/HttpUriRequest;)Lorg/apache/http/HttpResponse; \u003e@243",
          "type": "activity",
          "component": "com.vercoop.app.channel.ActChannelIcon",
          "constraintsFile": "constraints8_0.py",
          "variables": {
            "\u003cChainedInput1\u003e": "IAAv0",
            "\u003cChainedInput1\u003e.getBoolean()": "IAAv1"
          },
          "stringMap": {
            "7000": "SEARCH_CONTENT_LIST"
          },
          "strings": {
            "IAAv5": ""
          }
        }
      ]
    },
    "9": {
      "startMethod": "com.vercoop.app.channel.ActChannelIcon.onCreate(Landroid/os/Bundle;)V",
      "targetMethod": "org.apache.http.client.HttpClient.execute(Lorg/apache/http/client/methods/HttpUriRequest;)Lorg/apache/http/HttpResponse;",
      "eventChain": [
        {
          "start": "com.vercoop.app.channel.ActChannelIcon.onCreate(Landroid/os/Bundle;)V",
          "target": "invokeinterface \u003c Application, Lorg/apache/http/client/HttpClient, execute(Lorg/apache/http/client/methods/HttpUriRequest;)Lorg/apache/http/HttpResponse; \u003e@622",
          "type": "activity",
          "component": "com.vercoop.app.channel.ActChannelIcon",
          "constraintsFile": "constraints9_0.py",
          "variables": {
            "\u003cChainedInput1\u003e": "IAAv0",
            "\u003cChainedInput1\u003e.getBoolean()": "IAAv1"
          },
          "stringMap": {
            "7000": "SEARCH_CONTENT_LIST"
          },
          "strings": {
            "IAAv5": ""
          }
        }
      ]
    },
    "10": {
      "startMethod": "com.vercoop.app.media.ActLiveVideoPlayer.onCreate(Landroid/os/Bundle;)V",
      "targetMethod": "org.apache.http.client.HttpClient.execute(Lorg/apache/http/client/methods/HttpUriRequest;)Lorg/apache/http/HttpResponse;",
      "eventChain": [
        {
          "start": "com.vercoop.app.media.ActLiveVideoPlayer.onCreate(Landroid/os/Bundle;)V",
          "target": "invokeinterface \u003c Application, Lorg/apache/http/client/HttpClient, execute(Lorg/apache/http/client/methods/HttpUriRequest;)Lorg/apache/http/HttpResponse; \u003e@243",
          "type": "activity",
          "component": "com.vercoop.app.media.ActLiveVideoPlayer",
          "constraintsFile": "constraints10_0.py",
          "variables": {
            "\u003cChainedInput1\u003e": "IAAv1",
            "\u003cChainedInput1\u003e.getBoolean()": "IAAv2"
          },
          "stringMap": {},
          "strings": {}
        }
      ]
    },
    "11": {
      "startMethod": "com.vercoop.app.channel.ActChannel.onCreate(Landroid/os/Bundle;)V",
      "targetMethod": "org.apache.http.client.HttpClient.execute(Lorg/apache/http/client/methods/HttpUriRequest;)Lorg/apache/http/HttpResponse;",
      "eventChain": [
        {
          "start": "com.vercoop.app.friend.ActFriend.onCreate(Landroid/os/Bundle;)V",
          "target": "PC@14",
          "type": "activity",
          "component": "com.vercoop.app.friend.ActFriend",
          "constraintsFile": "constraints11_0.py",
          "variables": {
            "\u003cChainedInput1\u003e": "IAAv0",
            "\u003cChainedInput1\u003e.getBoolean()": "IAAv1"
          },
          "stringMap": {
            "7000": "SEARCH_CONTENT_LIST",
            "7001": "STORAGE_CONTENT_LIST",
            "7002": "http://www.vercoop.com/json/content.php",
            "7003": "SHW-M250L",
            "7004": "SHW-M250K",
            "7005": "SHV-E110S",
            "7006": "SHV-E120K",
            "7007": "SHV-E120L",
            "7008": "SHV-E120S",
            "7009": "SHW-M250S"
          },
          "strings": {
            "IAAv13": "",
            "IAAv15": "",
            "IAAv8": "",
            "IAAv6": ""
          }
        },
        {
          "start": "com.vercoop.app.friend.ActFriend.\u003cinit\u003e()V",
          "target": "PC@55",
          "type": ""
        },
        {
          "start": "com.vercoop.app.channel.ActChannel.onCreate(Landroid/os/Bundle;)V",
          "target": "invokeinterface \u003c Application, Lorg/apache/http/client/HttpClient, execute(Lorg/apache/http/client/methods/HttpUriRequest;)Lorg/apache/http/HttpResponse; \u003e@243",
          "type": "activity",
          "component": "com.vercoop.app.channel.ActChannel",
          "constraintsFile": "constraints11_1.py",
          "variables": {
            "\u003cChainedInput1\u003e": "IAAv0",
            "\u003cChainedInput1\u003e.getBoolean()": "IAAv1"
          },
          "stringMap": {
            "7000": "SEARCH_CONTENT_LIST",
            "7001": "STORAGE_CONTENT_LIST",
            "7002": "http://www.vercoop.com/json/content.php",
            "7003": "SHW-M250L",
            "7004": "SHW-M250K",
            "7005": "SHV-E110S",
            "7006": "SHV-E120K",
            "7007": "SHV-E120L",
            "7008": "SHV-E120S",
            "7009": "SHW-M250S"
          },
          "strings": {
            "IAAv13": "",
            "IAAv15": "",
            "IAAv8": "",
            "IAAv5": ""
          }
        }
      ]
    },
    "12": {
      "startMethod": "com.vercoop.app.content.ActDetailVideo.onCreate(Landroid/os/Bundle;)V",
      "targetMethod": "org.apache.http.client.HttpClient.execute(Lorg/apache/http/client/methods/HttpUriRequest;)Lorg/apache/http/HttpResponse;",
      "eventChain": [
        {
          "start": "com.vercoop.app.content.ActDetailVideo.onCreate(Landroid/os/Bundle;)V",
          "target": "invokeinterface \u003c Application, Lorg/apache/http/client/HttpClient, execute(Lorg/apache/http/client/methods/HttpUriRequest;)Lorg/apache/http/HttpResponse; \u003e@243",
          "type": "activity",
          "component": "com.vercoop.app.content.ActDetailVideo",
          "constraintsFile": "constraints12_0.py",
          "variables": {
            "\u003cChainedInput1\u003e": "IAAv0",
            "\u003cChainedInput1\u003e.getBoolean()": "IAAv1"
          },
          "stringMap": {},
          "strings": {}
        }
      ]
    },
    "13": {
      "startMethod": "com.vercoop.gcm.NotificationReceiver.onReceive(Landroid/content/Context;Landroid/content/Intent;)V",
      "targetMethod": "org.apache.http.client.HttpClient.execute(Lorg/apache/http/client/methods/HttpUriRequest;)Lorg/apache/http/HttpResponse;",
      "eventChain": [
        {
          "start": "com.vercoop.app.ActMain.onCreate(Landroid/os/Bundle;)V",
          "target": "",
          "type": "activity",
          "component": "com.vercoop.app.ActMain",
          "constraintsFile": "constraints13_0.py",
          "variables": {},
          "stringMap": {},
          "strings": {}
        },
        {
          "start": "com.vercoop.gcm.NotificationReceiver.onReceive(Landroid/content/Context;Landroid/content/Intent;)V",
          "target": "invokeinterface \u003c Application, Lorg/apache/http/client/HttpClient, execute(Lorg/apache/http/client/methods/HttpUriRequest;)Lorg/apache/http/HttpResponse; \u003e@622",
          "type": "sms",
          "constraintsFile": "constraints13_1.py",
          "variables": {
            "\u003cChainedInput2\u003e.getAction()": "IAAv0"
          },
          "stringMap": {},
          "strings": {
            "IAAv0": ""
          }
        }
      ]
    },
    "14": {
      "startMethod": "com.vercoop.gcm.NotificationReceiver.onReceive(Landroid/content/Context;Landroid/content/Intent;)V",
      "targetMethod": "org.apache.http.client.HttpClient.execute(Lorg/apache/http/client/methods/HttpUriRequest;)Lorg/apache/http/HttpResponse;",
      "eventChain": [
        {
          "start": "com.vercoop.app.ActMain.onCreate(Landroid/os/Bundle;)V",
          "target": "",
          "type": "activity",
          "component": "com.vercoop.app.ActMain",
          "constraintsFile": "constraints14_0.py",
          "variables": {},
          "stringMap": {},
          "strings": {}
        },
        {
          "start": "com.vercoop.gcm.NotificationReceiver.onReceive(Landroid/content/Context;Landroid/content/Intent;)V",
          "target": "invokeinterface \u003c Application, Lorg/apache/http/client/HttpClient, execute(Lorg/apache/http/client/methods/HttpUriRequest;)Lorg/apache/http/HttpResponse; \u003e@243",
          "type": "sms",
          "constraintsFile": "constraints14_1.py",
          "variables": {
            "\u003cChainedInput2\u003e.getAction()": "IAAv0"
          },
          "stringMap": {},
          "strings": {
            "IAAv0": ""
          }
        }
      ]
    },
    "15": {
      "startMethod": "com.vercoop.app.home.ActHome.onCreate(Landroid/os/Bundle;)V",
      "targetMethod": "org.apache.http.client.HttpClient.execute(Lorg/apache/http/client/methods/HttpUriRequest;)Lorg/apache/http/HttpResponse;",
      "eventChain": [
        {
          "start": "com.vercoop.app.friend.ActFriend.onCreate(Landroid/os/Bundle;)V",
          "target": "PC@14",
          "type": "activity",
          "component": "com.vercoop.app.friend.ActFriend",
          "constraintsFile": "constraints15_0.py",
          "variables": {
            "\u003cChainedInput1\u003e": "IAAv0",
            "\u003cChainedInput1\u003e.getBoolean()": "IAAv1"
          },
          "stringMap": {
            "7000": "STORAGE_CONTENT_LIST",
            "7001": "http://www.vercoop.com/json/content.php",
            "7002": "SHW-M250L",
            "7003": "SHW-M250K",
            "7004": "SHV-E110S",
            "7005": "SHV-E120K",
            "7006": "SHV-E120L",
            "7007": "SHV-E120S",
            "7008": "SHW-M250S"
          },
          "strings": {
            "IAAv9": "",
            "IAAv7": ""
          }
        },
        {
          "start": "com.vercoop.app.friend.ActFriend.\u003cinit\u003e()V",
          "target": "PC@55",
          "type": ""
        },
        {
          "start": "com.vercoop.app.home.ActHome.onCreate(Landroid/os/Bundle;)V",
          "target": "invokeinterface \u003c Application, Lorg/apache/http/client/HttpClient, execute(Lorg/apache/http/client/methods/HttpUriRequest;)Lorg/apache/http/HttpResponse; \u003e@243",
          "type": "activity",
          "component": "com.vercoop.app.home.ActHome",
          "constraintsFile": "constraints15_1.py",
          "variables": {
            "\u003cChainedInput1\u003e": "IAAv0",
            "\u003cChainedInput1\u003e.getBoolean()": "IAAv1"
          },
          "stringMap": {
            "7000": "STORAGE_CONTENT_LIST",
            "7001": "http://www.vercoop.com/json/content.php",
            "7002": "SHW-M250L",
            "7003": "SHW-M250K",
            "7004": "SHV-E110S",
            "7005": "SHV-E120K",
            "7006": "SHV-E120L",
            "7007": "SHV-E120S",
            "7008": "SHW-M250S"
          },
          "strings": {
            "IAAv9": "",
            "IAAv7": ""
          }
        }
      ]
    },
    "16": {
      "startMethod": "com.vercoop.app.more.SettingNotificationChannel.onCreate(Landroid/os/Bundle;)V",
      "targetMethod": "org.apache.http.client.HttpClient.execute(Lorg/apache/http/client/methods/HttpUriRequest;)Lorg/apache/http/HttpResponse;",
      "eventChain": [
        {
          "start": "com.vercoop.app.more.SettingNotificationChannel.onCreate(Landroid/os/Bundle;)V",
          "target": "invokeinterface \u003c Application, Lorg/apache/http/client/HttpClient, execute(Lorg/apache/http/client/methods/HttpUriRequest;)Lorg/apache/http/HttpResponse; \u003e@243",
          "type": "activity",
          "component": "com.vercoop.app.more.SettingNotificationChannel",
          "constraintsFile": "constraints16_0.py",
          "variables": {},
          "stringMap": {},
          "strings": {}
        }
      ]
    },
    "17": {
      "startMethod": "com.vercoop.app.chat.ActChatWindow$6.onEditorAction(Landroid/widget/TextView;ILandroid/view/KeyEvent;)Z",
      "targetMethod": "org.apache.http.client.HttpClient.execute(Lorg/apache/http/client/methods/HttpUriRequest;)Lorg/apache/http/HttpResponse;",
      "eventChain": [
        {
          "start": "com.vercoop.app.chat.ActChatWindow.onCreate(Landroid/os/Bundle;)V",
          "target": "invokevirtual \u003c Application, Landroid/widget/EditText, setOnEditorActionListener(Landroid/widget/TextView$OnEditorActionListener;)V \u003e@559",
          "type": "activity",
          "component": "com.vercoop.app.chat.ActChatWindow"
        },
        {
          "start": "com.vercoop.app.chat.ActChatWindow$6.onEditorAction(Landroid/widget/TextView;ILandroid/view/KeyEvent;)Z",
          "target": "invokeinterface \u003c Application, Lorg/apache/http/client/HttpClient, execute(Lorg/apache/http/client/methods/HttpUriRequest;)Lorg/apache/http/HttpResponse; \u003e@243",
          "type": "ui",
          "activities": [
            "com.vercoop.app.chat.ActChatWindow"
          ],
          "listener": "com.vercoop.app.chat.ActChatWindow$6",
          "listenerMethod": "onEditorAction",
          "uiType": "onEditorAction",
          "constraintsFile": "constraints17_0.py",
          "variables": {
            "\u003cChainedInput2\u003e": "IAAv0"
          },
          "stringMap": {
            "7000": ""
          },
          "strings": {}
        }
      ]
    },
    "18": {
      "startMethod": "com.vercoop.app.chat.ActChatWindow$6.onEditorAction(Landroid/widget/TextView;ILandroid/view/KeyEvent;)Z",
      "targetMethod": "org.apache.http.client.HttpClient.execute(Lorg/apache/http/client/methods/HttpUriRequest;)Lorg/apache/http/HttpResponse;",
      "eventChain": [
        {
          "start": "com.vercoop.app.chat.ActChatWindow.onCreate(Landroid/os/Bundle;)V",
          "target": "invokevirtual \u003c Application, Landroid/widget/EditText, setOnEditorActionListener(Landroid/widget/TextView$OnEditorActionListener;)V \u003e@559",
          "type": "activity",
          "component": "com.vercoop.app.chat.ActChatWindow"
        },
        {
          "start": "com.vercoop.app.chat.ActChatWindow$6.onEditorAction(Landroid/widget/TextView;ILandroid/view/KeyEvent;)Z",
          "target": "invokeinterface \u003c Application, Lorg/apache/http/client/HttpClient, execute(Lorg/apache/http/client/methods/HttpUriRequest;)Lorg/apache/http/HttpResponse; \u003e@622",
          "type": "ui",
          "activities": [
            "com.vercoop.app.chat.ActChatWindow"
          ],
          "listener": "com.vercoop.app.chat.ActChatWindow$6",
          "listenerMethod": "onEditorAction",
          "uiType": "onEditorAction",
          "constraintsFile": "constraints18_0.py",
          "variables": {
            "\u003cChainedInput2\u003e": "IAAv0"
          },
          "stringMap": {
            "7000": ""
          },
          "strings": {}
        }
      ]
    },
    "19": {
      "startMethod": "com.vercoop.app.home.ActContent.onItemClick(Landroid/widget/AdapterView;Landroid/view/View;IJ)V",
      "targetMethod": "org.apache.http.client.HttpClient.execute(Lorg/apache/http/client/methods/HttpUriRequest;)Lorg/apache/http/HttpResponse;",
      "eventChain": [
        {
          "start": "com.vercoop.app.home.ActLive.onCreate(Landroid/os/Bundle;)V",
          "target": "invokevirtual \u003c Application, Landroid/widget/ListView, setOnItemClickListener(Landroid/widget/AdapterView$OnItemClickListener;)V \u003e@84",
          "type": "activity",
          "component": "com.vercoop.app.home.ActLive",
          "constraintsFile": "constraints19_0.py",
          "variables": {
            "\u003cInput1\u003e": "IAAv0",
            "\u003cInput1\u003e.getBoolean()": "IAAv1"
          },
          "stringMap": {},
          "strings": {}
        },
        {
          "start": "com.vercoop.app.home.ActContent.onItemClick(Landroid/widget/AdapterView;Landroid/view/View;IJ)V",
          "target": "invokeinterface \u003c Application, Lorg/apache/http/client/HttpClient, execute(Lorg/apache/http/client/methods/HttpUriRequest;)Lorg/apache/http/HttpResponse; \u003e@622",
          "type": "ui",
          "activities": [
            "com.vercoop.app.ActMain"
          ],
          "listener": "com.vercoop.app.home.ActContent",
          "listenerMethod": "onItemClick",
          "uiType": "onItemClick"
        }
      ]
    },
    "20": {
      "startMethod": "com.vercoop.app.home.ActContent.onItemClick(Landroid/widget/AdapterView;Landroid/view/View;IJ)V",
      "targetMethod": "org.apache.http.client.HttpClient.execute(Lorg/apache/http/client/methods/HttpUriRequest;)Lorg/apache/http/HttpResponse;",
      "eventChain": [
        {
          "start": "com.vercoop.app.home.ActLive.onCreate(Landroid/os/Bundle;)V",
          "target": "invokevirtual \u003c Application, Landroid/widget/ListView, setOnItemClickListener(Landroid/widget/AdapterView$OnItemClickListener;)V \u003e@84",
          "type": "activity",
          "component": "com.vercoop.app.home.ActLive",
          "constraintsFile": "constraints20_0.py",
          "variables": {
            "\u003cInput1\u003e": "IAAv0",
            "\u003cInput1\u003e.getBoolean()": "IAAv1"
          },
          "stringMap": {},
          "strings": {}
        },
        {
          "start": "com.vercoop.app.home.ActContent.onItemClick(Landroid/widget/AdapterView;Landroid/view/View;IJ)V",
          "target": "invokeinterface \u003c Application, Lorg/apache/http/client/HttpClient, execute(Lorg/apache/http/client/methods/HttpUriRequest;)Lorg/apache/http/HttpResponse; \u003e@243",
          "type": "ui",
          "activities": [
            "com.vercoop.app.ActMain"
          ],
          "listener": "com.vercoop.app.home.ActContent",
          "listenerMethod": "onItemClick",
          "uiType": "onItemClick"
        }
      ]
    },
    "21": {
      "startMethod": "com.vercoop.app.media.TransparentScheduleDialog.onClick(Landroid/view/View;)V",
      "targetMethod": "org.apache.http.client.HttpClient.execute(Lorg/apache/http/client/methods/HttpUriRequest;)Lorg/apache/http/HttpResponse;",
      "eventChain": [
        {
          "start": "com.vercoop.app.media.TransparentScheduleDialog.onCreate(Landroid/os/Bundle;)V",
          "target": "invokevirtual \u003c Application, Landroid/widget/ImageButton, setOnClickListener(Landroid/view/View$OnClickListener;)V \u003e@154",
          "type": "activity",
          "component": "com.vercoop.app.media.TransparentScheduleDialog"
        },
        {
          "start": "com.vercoop.app.media.TransparentScheduleDialog.onCreate(Landroid/os/Bundle;)V",
          "target": "PC@72",
          "type": "activity",
          "component": "com.vercoop.app.media.TransparentScheduleDialog"
        },
        {
          "start": "com.vercoop.app.media.TransparentScheduleDialog.onClick(Landroid/view/View;)V",
          "target": "invokeinterface \u003c Application, Lorg/apache/http/client/HttpClient, execute(Lorg/apache/http/client/methods/HttpUriRequest;)Lorg/apache/http/HttpResponse; \u003e@243",
          "type": "ui",
          "activities": [
            "com.vercoop.app.ActMain"
          ],
          "listener": "com.vercoop.app.media.TransparentScheduleDialog",
          "listenerMethod": "onClick",
          "uiType": "onClick",
          "constraintsFile": "constraints21_0.py",
          "variables": {
            "\u003cChainedInput1\u003e": "IAAv0"
          },
          "stringMap": {},
          "strings": {}
        }
      ]
    },
    "22": {
      "startMethod": "com.vercoop.app.channel.ActChannel.onClick(Landroid/view/View;)V",
      "targetMethod": "org.apache.http.client.HttpClient.execute(Lorg/apache/http/client/methods/HttpUriRequest;)Lorg/apache/http/HttpResponse;",
      "eventChain": [
        {
          "start": "com.vercoop.app.channel.ActChannel.onClick(Landroid/view/View;)V",
          "target": "invokeinterface \u003c Application, Lorg/apache/http/client/HttpClient, execute(Lorg/apache/http/client/methods/HttpUriRequest;)Lorg/apache/http/HttpResponse; \u003e@622",
          "type": "ui",
          "activities": [
            "com.vercoop.app.ActMain"
          ],
          "listener": "com.vercoop.app.channel.ActChannel",
          "listenerMethod": "onClick",
          "uiType": "onClick",
          "constraintsFile": "constraints22_0.py",
          "variables": {
            "\u003cChainedInput1\u003e": "IAAv1"
          },
          "stringMap": {},
          "strings": {}
        }
      ]
    },
    "23": {
      "startMethod": "com.vercoop.app.channel.ActChannel.onClick(Landroid/view/View;)V",
      "targetMethod": "org.apache.http.client.HttpClient.execute(Lorg/apache/http/client/methods/HttpUriRequest;)Lorg/apache/http/HttpResponse;",
      "eventChain": [
        {
          "start": "com.vercoop.app.channel.ActChannel.onClick(Landroid/view/View;)V",
          "target": "invokeinterface \u003c Application, Lorg/apache/http/client/HttpClient, execute(Lorg/apache/http/client/methods/HttpUriRequest;)Lorg/apache/http/HttpResponse; \u003e@243",
          "type": "ui",
          "activities": [
            "com.vercoop.app.ActMain"
          ],
          "listener": "com.vercoop.app.channel.ActChannel",
          "listenerMethod": "onClick",
          "uiType": "onClick",
          "constraintsFile": "constraints23_0.py",
          "variables": {
            "\u003cChainedInput1\u003e": "IAAv1"
          },
          "stringMap": {},
          "strings": {}
        }
      ]
    },
    "24": {
      "startMethod": "com.vercoop.app.fragment.FragmentDialog$2.onClick(Landroid/view/View;)V",
      "targetMethod": "org.apache.http.client.HttpClient.execute(Lorg/apache/http/client/methods/HttpUriRequest;)Lorg/apache/http/HttpResponse;",
      "eventChain": [
        {
          "start": "com.vercoop.app.fragment.FragmentDialog$2.onClick(Landroid/view/View;)V",
          "target": "invokeinterface \u003c Application, Lorg/apache/http/client/HttpClient, execute(Lorg/apache/http/client/methods/HttpUriRequest;)Lorg/apache/http/HttpResponse; \u003e@243",
          "type": "ui",
          "activities": [
            "com.vercoop.app.ActMain"
          ],
          "listener": "com.vercoop.app.fragment.FragmentDialog$2",
          "listenerMethod": "onClick",
          "uiType": "onClick",
          "constraintsFile": "constraints24_0.py",
          "variables": {},
          "stringMap": {
            "7000": ""
          },
          "strings": {
            "IAAv0": ""
          }
        }
      ]
    },
    "25": {
      "startMethod": "com.vercoop.app.fragment.FragmentDialog$2.onClick(Landroid/view/View;)V",
      "targetMethod": "org.apache.http.client.HttpClient.execute(Lorg/apache/http/client/methods/HttpUriRequest;)Lorg/apache/http/HttpResponse;",
      "eventChain": [
        {
          "start": "com.vercoop.app.fragment.FragmentDialog$2.onClick(Landroid/view/View;)V",
          "target": "invokeinterface \u003c Application, Lorg/apache/http/client/HttpClient, execute(Lorg/apache/http/client/methods/HttpUriRequest;)Lorg/apache/http/HttpResponse; \u003e@622",
          "type": "ui",
          "activities": [
            "com.vercoop.app.ActMain"
          ],
          "listener": "com.vercoop.app.fragment.FragmentDialog$2",
          "listenerMethod": "onClick",
          "uiType": "onClick",
          "constraintsFile": "constraints25_0.py",
          "variables": {},
          "stringMap": {
            "7000": ""
          },
          "strings": {
            "IAAv0": ""
          }
        }
      ]
    },
    "26": {
      "startMethod": "com.vercoop.app.channel.ActChannelIcon.onClick(Landroid/view/View;)V",
      "targetMethod": "org.apache.http.client.HttpClient.execute(Lorg/apache/http/client/methods/HttpUriRequest;)Lorg/apache/http/HttpResponse;",
      "eventChain": [
        {
          "start": "com.vercoop.app.channel.ActChannelIcon.onClick(Landroid/view/View;)V",
          "target": "invokeinterface \u003c Application, Lorg/apache/http/client/HttpClient, execute(Lorg/apache/http/client/methods/HttpUriRequest;)Lorg/apache/http/HttpResponse; \u003e@243",
          "type": "ui",
          "activities": [
            "com.vercoop.app.ActMain"
          ],
          "listener": "com.vercoop.app.channel.ActChannelIcon",
          "listenerMethod": "onClick",
          "uiType": "onClick",
          "constraintsFile": "constraints26_0.py",
          "variables": {
            "\u003cChainedInput1\u003e": "IAAv1"
          },
          "stringMap": {},
          "strings": {}
        }
      ]
    },
    "27": {
      "startMethod": "com.vercoop.app.channel.ActChannelIcon.onClick(Landroid/view/View;)V",
      "targetMethod": "org.apache.http.client.HttpClient.execute(Lorg/apache/http/client/methods/HttpUriRequest;)Lorg/apache/http/HttpResponse;",
      "eventChain": [
        {
          "start": "com.vercoop.app.channel.ActChannelIcon.onClick(Landroid/view/View;)V",
          "target": "invokeinterface \u003c Application, Lorg/apache/http/client/HttpClient, execute(Lorg/apache/http/client/methods/HttpUriRequest;)Lorg/apache/http/HttpResponse; \u003e@622",
          "type": "ui",
          "activities": [
            "com.vercoop.app.ActMain"
          ],
          "listener": "com.vercoop.app.channel.ActChannelIcon",
          "listenerMethod": "onClick",
          "uiType": "onClick",
          "constraintsFile": "constraints27_0.py",
          "variables": {
            "\u003cChainedInput1\u003e": "IAAv1"
          },
          "stringMap": {},
          "strings": {}
        }
      ]
    },
    "28": {
      "startMethod": "com.vercoop.app.media.ActLiveAudioPlayer.onClick(Landroid/view/View;)V",
      "targetMethod": "org.apache.http.client.HttpClient.execute(Lorg/apache/http/client/methods/HttpUriRequest;)Lorg/apache/http/HttpResponse;",
      "eventChain": [
        {
          "start": "com.vercoop.app.media.ActLiveAudioPlayer.onCreate(Landroid/os/Bundle;)V",
          "target": "invokevirtual \u003c Application, Lcom/vercoop/control/WebImage, setOnClickListener(Landroid/view/View$OnClickListener;)V \u003e@183",
          "type": "activity",
          "component": "com.vercoop.app.media.ActLiveAudioPlayer",
          "constraintsFile": "constraints28_0.py",
          "variables": {
            "\u003cInput1\u003e": "IAAv0",
            "\u003cInput1\u003e.getBoolean()": "IAAv1"
          },
          "stringMap": {},
          "strings": {}
        },
        {
          "start": "com.vercoop.app.media.ActLiveAudioPlayer.onCreate(Landroid/os/Bundle;)V",
          "target": "PC@285",
          "type": "activity",
          "component": "com.vercoop.app.media.ActLiveAudioPlayer",
          "constraintsFile": "constraints28_1.py",
          "variables": {
            "\u003cChainedInput1\u003e": "IAAv0",
            "\u003cInput1\u003e": "IAAv5",
            "\u003cInput1\u003e.getBoolean()": "IAAv6"
          },
          "stringMap": {
            "7000": "\u003cUI\u003e"
          },
          "strings": {}
        },
        {
          "start": "com.vercoop.app.media.ActLiveAudioPlayer.onCreate(Landroid/os/Bundle;)V",
          "target": "PC@247",
          "type": "activity",
          "component": "com.vercoop.app.media.ActLiveAudioPlayer",
          "constraintsFile": "constraints28_2.py",
          "variables": {
            "\u003cChainedInput1\u003e": "IAAv0",
            "\u003cInput1\u003e": "IAAv5",
            "\u003cInput1\u003e.getBoolean()": "IAAv6"
          },
          "stringMap": {
            "7000": "\u003cUI\u003e"
          },
          "strings": {}
        },
        {
          "start": "com.vercoop.app.media.ActLiveAudioPlayer.onCreate(Landroid/os/Bundle;)V",
          "target": "",
          "type": "activity",
          "component": "com.vercoop.app.media.ActLiveAudioPlayer",
          "constraintsFile": "constraints28_3.py",
          "variables": {
            "\u003cChainedInput1\u003e": "IAAv0",
            "\u003cChainedInput1\u003e.getBoolean()": "IAAv5"
          },
          "stringMap": {},
          "strings": {}
        },
        {
          "start": "com.vercoop.app.media.ActLiveAudioPlayer.onClick(Landroid/view/View;)V",
          "target": "invokeinterface \u003c Application, Lorg/apache/http/client/HttpClient, execute(Lorg/apache/http/client/methods/HttpUriRequest;)Lorg/apache/http/HttpResponse; \u003e@622",
          "type": "ui",
          "activities": [
            "com.vercoop.app.media.ActLiveAudioPlayer"
          ],
          "listener": "com.vercoop.app.media.ActLiveAudioPlayer",
          "listenerMethod": "onClick",
          "uiType": "onClick",
          "constraintsFile": "constraints28_4.py",
          "variables": {
            "\u003cChainedInput1\u003e": "IAAv0"
          },
          "stringMap": {},
          "strings": {}
        }
      ]
    },
    "29": {
      "startMethod": "com.vercoop.app.media.ActLiveAudioPlayer.onClick(Landroid/view/View;)V",
      "targetMethod": "org.apache.http.client.HttpClient.execute(Lorg/apache/http/client/methods/HttpUriRequest;)Lorg/apache/http/HttpResponse;",
      "eventChain": [
        {
          "start": "com.vercoop.app.media.ActLiveAudioPlayer.onCreate(Landroid/os/Bundle;)V",
          "target": "invokevirtual \u003c Application, Lcom/vercoop/control/WebImage, setOnClickListener(Landroid/view/View$OnClickListener;)V \u003e@183",
          "type": "activity",
          "component": "com.vercoop.app.media.ActLiveAudioPlayer",
          "constraintsFile": "constraints29_0.py",
          "variables": {
            "\u003cInput1\u003e": "IAAv0",
            "\u003cInput1\u003e.getBoolean()": "IAAv1"
          },
          "stringMap": {},
          "strings": {}
        },
        {
          "start": "com.vercoop.app.media.ActLiveAudioPlayer.onCreate(Landroid/os/Bundle;)V",
          "target": "PC@285",
          "type": "activity",
          "component": "com.vercoop.app.media.ActLiveAudioPlayer",
          "constraintsFile": "constraints29_1.py",
          "variables": {
            "\u003cChainedInput1\u003e": "IAAv0",
            "\u003cInput1\u003e": "IAAv5",
            "\u003cInput1\u003e.getBoolean()": "IAAv6"
          },
          "stringMap": {
            "7000": "\u003cUI\u003e"
          },
          "strings": {}
        },
        {
          "start": "com.vercoop.app.media.ActLiveAudioPlayer.onCreate(Landroid/os/Bundle;)V",
          "target": "PC@247",
          "type": "activity",
          "component": "com.vercoop.app.media.ActLiveAudioPlayer",
          "constraintsFile": "constraints29_2.py",
          "variables": {
            "\u003cChainedInput1\u003e": "IAAv0",
            "\u003cInput1\u003e": "IAAv5",
            "\u003cInput1\u003e.getBoolean()": "IAAv6"
          },
          "stringMap": {
            "7000": "\u003cUI\u003e"
          },
          "strings": {}
        },
        {
          "start": "com.vercoop.app.media.ActLiveAudioPlayer.onCreate(Landroid/os/Bundle;)V",
          "target": "",
          "type": "activity",
          "component": "com.vercoop.app.media.ActLiveAudioPlayer",
          "constraintsFile": "constraints29_3.py",
          "variables": {
            "\u003cChainedInput1\u003e": "IAAv0",
            "\u003cChainedInput1\u003e.getBoolean()": "IAAv5"
          },
          "stringMap": {},
          "strings": {}
        },
        {
          "start": "com.vercoop.app.media.ActLiveAudioPlayer.onClick(Landroid/view/View;)V",
          "target": "invokeinterface \u003c Application, Lorg/apache/http/client/HttpClient, execute(Lorg/apache/http/client/methods/HttpUriRequest;)Lorg/apache/http/HttpResponse; \u003e@243",
          "type": "ui",
          "activities": [
            "com.vercoop.app.media.ActLiveAudioPlayer"
          ],
          "listener": "com.vercoop.app.media.ActLiveAudioPlayer",
          "listenerMethod": "onClick",
          "uiType": "onClick",
          "constraintsFile": "constraints29_4.py",
          "variables": {
            "\u003cChainedInput1\u003e": "IAAv0"
          },
          "stringMap": {},
          "strings": {}
        }
      ]
    },
    "30": {
      "startMethod": "com.vercoop.app.channel.ActChannelSpecificMatrix.onClick(Landroid/view/View;)V",
      "targetMethod": "org.apache.http.client.HttpClient.execute(Lorg/apache/http/client/methods/HttpUriRequest;)Lorg/apache/http/HttpResponse;",
      "eventChain": [
        {
          "start": "com.vercoop.app.channel.ActChannelSpecificMatrix.onClick(Landroid/view/View;)V",
          "target": "invokeinterface \u003c Application, Lorg/apache/http/client/HttpClient, execute(Lorg/apache/http/client/methods/HttpUriRequest;)Lorg/apache/http/HttpResponse; \u003e@622",
          "type": "ui",
          "activities": [
            "com.vercoop.app.ActMain"
          ],
          "listener": "com.vercoop.app.channel.ActChannelSpecificMatrix",
          "listenerMethod": "onClick",
          "uiType": "onClick",
          "constraintsFile": "constraints30_0.py",
          "variables": {
            "\u003cChainedInput1\u003e": "IAAv1"
          },
          "stringMap": {},
          "strings": {}
        }
      ]
    },
    "31": {
      "startMethod": "com.vercoop.app.channel.ActChannelSpecificMatrix.onClick(Landroid/view/View;)V",
      "targetMethod": "org.apache.http.client.HttpClient.execute(Lorg/apache/http/client/methods/HttpUriRequest;)Lorg/apache/http/HttpResponse;",
      "eventChain": [
        {
          "start": "com.vercoop.app.channel.ActChannelSpecificMatrix.onClick(Landroid/view/View;)V",
          "target": "invokeinterface \u003c Application, Lorg/apache/http/client/HttpClient, execute(Lorg/apache/http/client/methods/HttpUriRequest;)Lorg/apache/http/HttpResponse; \u003e@243",
          "type": "ui",
          "activities": [
            "com.vercoop.app.ActMain"
          ],
          "listener": "com.vercoop.app.channel.ActChannelSpecificMatrix",
          "listenerMethod": "onClick",
          "uiType": "onClick",
          "constraintsFile": "constraints31_0.py",
          "variables": {
            "\u003cChainedInput1\u003e": "IAAv1"
          },
          "stringMap": {},
          "strings": {}
        }
      ]
    },
    "32": {
      "startMethod": "com.vercoop.app.fragment.FragmentDetailContents$DetailContents$1.onClick(Landroid/view/View;)V",
      "targetMethod": "org.apache.http.client.HttpClient.execute(Lorg/apache/http/client/methods/HttpUriRequest;)Lorg/apache/http/HttpResponse;",
      "eventChain": [
        {
          "start": "com.vercoop.app.fragment.FragmentDetailContents$DetailContents$1.onClick(Landroid/view/View;)V",
          "target": "invokeinterface \u003c Application, Lorg/apache/http/client/HttpClient, execute(Lorg/apache/http/client/methods/HttpUriRequest;)Lorg/apache/http/HttpResponse; \u003e@243",
          "type": "ui",
          "activities": [
            "com.vercoop.app.ActMain"
          ],
          "listener": "com.vercoop.app.fragment.FragmentDetailContents$DetailContents$1",
          "listenerMethod": "onClick",
          "uiType": "onClick",
          "constraintsFile": "constraints32_0.py",
          "variables": {},
          "stringMap": {
            "7000": "true"
          },
          "strings": {
            "IAAv1": ""
          }
        }
      ]
    },
    "33": {
      "startMethod": "com.vercoop.app.fragment.FragmentDetailContents$DetailContents$1.onClick(Landroid/view/View;)V",
      "targetMethod": "org.apache.http.client.HttpClient.execute(Lorg/apache/http/client/methods/HttpUriRequest;)Lorg/apache/http/HttpResponse;",
      "eventChain": [
        {
          "start": "com.vercoop.app.fragment.FragmentDetailContents$DetailContents$1.onClick(Landroid/view/View;)V",
          "target": "invokeinterface \u003c Application, Lorg/apache/http/client/HttpClient, execute(Lorg/apache/http/client/methods/HttpUriRequest;)Lorg/apache/http/HttpResponse; \u003e@622",
          "type": "ui",
          "activities": [
            "com.vercoop.app.ActMain"
          ],
          "listener": "com.vercoop.app.fragment.FragmentDetailContents$DetailContents$1",
          "listenerMethod": "onClick",
          "uiType": "onClick",
          "constraintsFile": "constraints33_0.py",
          "variables": {},
          "stringMap": {
            "7000": "true"
          },
          "strings": {
            "IAAv1": ""
          }
        }
      ]
    },
    "34": {
      "startMethod": "com.vercoop.app.fragment.FragmentComment$DetailComment$3.onClick(Landroid/view/View;)V",
      "targetMethod": "org.apache.http.client.HttpClient.execute(Lorg/apache/http/client/methods/HttpUriRequest;)Lorg/apache/http/HttpResponse;",
      "eventChain": [
        {
          "start": "com.vercoop.app.fragment.FragmentComment$DetailComment$3.onClick(Landroid/view/View;)V",
          "target": "invokeinterface \u003c Application, Lorg/apache/http/client/HttpClient, execute(Lorg/apache/http/client/methods/HttpUriRequest;)Lorg/apache/http/HttpResponse; \u003e@243",
          "type": "ui",
          "activities": [
            "com.vercoop.app.ActMain"
          ],
          "listener": "com.vercoop.app.fragment.FragmentComment$DetailComment$3",
          "listenerMethod": "onClick",
          "uiType": "onClick"
        }
      ]
    },
    "35": {
      "startMethod": "com.vercoop.app.fragment.FragmentComment$DetailComment$3.onClick(Landroid/view/View;)V",
      "targetMethod": "org.apache.http.client.HttpClient.execute(Lorg/apache/http/client/methods/HttpUriRequest;)Lorg/apache/http/HttpResponse;",
      "eventChain": [
        {
          "start": "com.vercoop.app.fragment.FragmentComment$DetailComment$3.onClick(Landroid/view/View;)V",
          "target": "invokeinterface \u003c Application, Lorg/apache/http/client/HttpClient, execute(Lorg/apache/http/client/methods/HttpUriRequest;)Lorg/apache/http/HttpResponse; \u003e@622",
          "type": "ui",
          "activities": [
            "com.vercoop.app.ActMain"
          ],
          "listener": "com.vercoop.app.fragment.FragmentComment$DetailComment$3",
          "listenerMethod": "onClick",
          "uiType": "onClick"
        }
      ]
    },
    "36": {
      "startMethod": "com.vercoop.app.more.ActMoreList.onClick(Landroid/view/View;)V",
      "targetMethod": "org.apache.http.client.HttpClient.execute(Lorg/apache/http/client/methods/HttpUriRequest;)Lorg/apache/http/HttpResponse;",
      "eventChain": [
        {
          "start": "com.vercoop.app.more.ActMoreList.onClick(Landroid/view/View;)V",
          "target": "invokeinterface \u003c Application, Lorg/apache/http/client/HttpClient, execute(Lorg/apache/http/client/methods/HttpUriRequest;)Lorg/apache/http/HttpResponse; \u003e@243",
          "type": "ui",
          "activities": [
            "com.vercoop.app.ActMain"
          ],
          "listener": "com.vercoop.app.more.ActMoreList",
          "listenerMethod": "onClick",
          "uiType": "onClick",
          "constraintsFile": "constraints36_0.py",
          "variables": {
            "\u003cChainedInput1\u003e": "IAAv1"
          },
          "stringMap": {},
          "strings": {}
        }
      ]
    },
    "37": {
      "startMethod": "com.vercoop.app.friend.ActMessage$5.onClick(Landroid/view/View;)V",
      "targetMethod": "org.apache.http.client.HttpClient.execute(Lorg/apache/http/client/methods/HttpUriRequest;)Lorg/apache/http/HttpResponse;",
      "eventChain": [
        {
          "start": "com.vercoop.app.friend.ActMessage.onCreate(Landroid/os/Bundle;)V",
          "target": "invokevirtual \u003c Application, Landroid/widget/Button, setOnClickListener(Landroid/view/View$OnClickListener;)V \u003e@549",
          "type": "activity",
          "component": "com.vercoop.app.friend.ActMessage",
          "constraintsFile": "constraints37_0.py",
          "variables": {},
          "stringMap": {},
          "strings": {}
        },
        {
          "start": "com.vercoop.app.friend.ActMessage$5.onClick(Landroid/view/View;)V",
          "target": "invokeinterface \u003c Application, Lorg/apache/http/client/HttpClient, execute(Lorg/apache/http/client/methods/HttpUriRequest;)Lorg/apache/http/HttpResponse; \u003e@243",
          "type": "ui",
          "activities": [
            "com.vercoop.app.friend.ActMessage"
          ],
          "listener": "com.vercoop.app.friend.ActMessage$5",
          "listenerMethod": "onClick",
          "uiType": "onClick",
          "constraintsFile": "constraints37_1.py",
          "variables": {},
          "stringMap": {},
          "strings": {}
        }
      ]
    },
    "38": {
      "startMethod": "com.vercoop.app.home.ActContent.onClick(Landroid/view/View;)V",
      "targetMethod": "org.apache.http.client.HttpClient.execute(Lorg/apache/http/client/methods/HttpUriRequest;)Lorg/apache/http/HttpResponse;",
      "eventChain": [
        {
          "start": "com.vercoop.app.home.ActContent.onClick(Landroid/view/View;)V",
          "target": "invokeinterface \u003c Application, Lorg/apache/http/client/HttpClient, execute(Lorg/apache/http/client/methods/HttpUriRequest;)Lorg/apache/http/HttpResponse; \u003e@243",
          "type": "ui",
          "activities": [
            "com.vercoop.app.ActMain"
          ],
          "listener": "com.vercoop.app.home.ActContent",
          "listenerMethod": "onClick",
          "uiType": "onClick",
          "constraintsFile": "constraints38_0.py",
          "variables": {
            "\u003cChainedInput1\u003e": "IAAv1"
          },
          "stringMap": {},
          "strings": {}
        }
      ]
    },
    "39": {
      "startMethod": "com.vercoop.app.home.ActContent.onClick(Landroid/view/View;)V",
      "targetMethod": "org.apache.http.client.HttpClient.execute(Lorg/apache/http/client/methods/HttpUriRequest;)Lorg/apache/http/HttpResponse;",
      "eventChain": [
        {
          "start": "com.vercoop.app.home.ActContent.onClick(Landroid/view/View;)V",
          "target": "invokeinterface \u003c Application, Lorg/apache/http/client/HttpClient, execute(Lorg/apache/http/client/methods/HttpUriRequest;)Lorg/apache/http/HttpResponse; \u003e@622",
          "type": "ui",
          "activities": [
            "com.vercoop.app.ActMain"
          ],
          "listener": "com.vercoop.app.home.ActContent",
          "listenerMethod": "onClick",
          "uiType": "onClick",
          "constraintsFile": "constraints39_0.py",
          "variables": {
            "\u003cChainedInput1\u003e": "IAAv1"
          },
          "stringMap": {},
          "strings": {}
        }
      ]
    },
    "40": {
      "startMethod": "com.vercoop.app.chat.ActChatWindow.onClick(Landroid/view/View;)V",
      "targetMethod": "org.apache.http.client.HttpClient.execute(Lorg/apache/http/client/methods/HttpUriRequest;)Lorg/apache/http/HttpResponse;",
      "eventChain": [
        {
          "start": "com.vercoop.app.chat.ActChatWindow.onCreate(Landroid/os/Bundle;)V",
          "target": "invokevirtual \u003c Application, Landroid/widget/Button, setOnClickListener(Landroid/view/View$OnClickListener;)V \u003e@571",
          "type": "activity",
          "component": "com.vercoop.app.chat.ActChatWindow"
        },
        {
          "start": "com.vercoop.app.chat.ActChatWindow.onCreate(Landroid/os/Bundle;)V",
          "target": "PC@509",
          "type": "activity",
          "component": "com.vercoop.app.chat.ActChatWindow",
          "constraintsFile": "constraints40_0.py",
          "variables": {
            "\u003cChainedInput1\u003e": "IAAv0"
          },
          "stringMap": {
            "7000": "\u003cUI\u003e"
          },
          "strings": {}
        },
        {
          "start": "com.vercoop.app.chat.ActChatWindow.onCreate(Landroid/os/Bundle;)V",
          "target": "PC@327",
          "type": "activity",
          "component": "com.vercoop.app.chat.ActChatWindow",
          "constraintsFile": "constraints40_1.py",
          "variables": {
            "\u003cChainedInput1\u003e": "IAAv0"
          },
          "stringMap": {
            "7000": "\u003cUI\u003e"
          },
          "strings": {}
        },
        {
          "start": "com.vercoop.app.chat.ActChatWindow.onClick(Landroid/view/View;)V",
          "target": "invokeinterface \u003c Application, Lorg/apache/http/client/HttpClient, execute(Lorg/apache/http/client/methods/HttpUriRequest;)Lorg/apache/http/HttpResponse; \u003e@622",
          "type": "ui",
          "activities": [
            "com.vercoop.app.chat.ActChatWindow"
          ],
          "listener": "com.vercoop.app.chat.ActChatWindow",
          "listenerMethod": "onClick",
          "uiType": "onClick",
          "constraintsFile": "constraints40_2.py",
          "variables": {
            "\u003cChainedInput1\u003e": "IAAv0"
          },
          "stringMap": {},
          "strings": {}
        }
      ]
    },
    "41": {
      "startMethod": "com.vercoop.app.chat.ActChatWindow.onClick(Landroid/view/View;)V",
      "targetMethod": "org.apache.http.client.HttpClient.execute(Lorg/apache/http/client/methods/HttpUriRequest;)Lorg/apache/http/HttpResponse;",
      "eventChain": [
        {
          "start": "com.vercoop.app.chat.ActChatWindow.onCreate(Landroid/os/Bundle;)V",
          "target": "invokevirtual \u003c Application, Landroid/widget/Button, setOnClickListener(Landroid/view/View$OnClickListener;)V \u003e@571",
          "type": "activity",
          "component": "com.vercoop.app.chat.ActChatWindow"
        },
        {
          "start": "com.vercoop.app.chat.ActChatWindow.onCreate(Landroid/os/Bundle;)V",
          "target": "PC@509",
          "type": "activity",
          "component": "com.vercoop.app.chat.ActChatWindow",
          "constraintsFile": "constraints41_0.py",
          "variables": {
            "\u003cChainedInput1\u003e": "IAAv0"
          },
          "stringMap": {
            "7000": "\u003cUI\u003e"
          },
          "strings": {}
        },
        {
          "start": "com.vercoop.app.chat.ActChatWindow.onCreate(Landroid/os/Bundle;)V",
          "target": "PC@327",
          "type": "activity",
          "component": "com.vercoop.app.chat.ActChatWindow",
          "constraintsFile": "constraints41_1.py",
          "variables": {
            "\u003cChainedInput1\u003e": "IAAv0"
          },
          "stringMap": {
            "7000": "\u003cUI\u003e"
          },
          "strings": {}
        },
        {
          "start": "com.vercoop.app.chat.ActChatWindow.onClick(Landroid/view/View;)V",
          "target": "invokeinterface \u003c Application, Lorg/apache/http/client/HttpClient, execute(Lorg/apache/http/client/methods/HttpUriRequest;)Lorg/apache/http/HttpResponse; \u003e@243",
          "type": "ui",
          "activities": [
            "com.vercoop.app.chat.ActChatWindow"
          ],
          "listener": "com.vercoop.app.chat.ActChatWindow",
          "listenerMethod": "onClick",
          "uiType": "onClick",
          "constraintsFile": "constraints41_2.py",
          "variables": {
            "\u003cChainedInput1\u003e": "IAAv0"
          },
          "stringMap": {},
          "strings": {}
        }
      ]
    },
    "42": {
      "startMethod": "com.vercoop.app.friend.ActFriend.onClick(Landroid/view/View;)V",
      "targetMethod": "org.apache.http.client.HttpClient.execute(Lorg/apache/http/client/methods/HttpUriRequest;)Lorg/apache/http/HttpResponse;",
      "eventChain": [
        {
          "start": "com.vercoop.app.friend.ActFriend.onClick(Landroid/view/View;)V",
          "target": "invokeinterface \u003c Application, Lorg/apache/http/client/HttpClient, execute(Lorg/apache/http/client/methods/HttpUriRequest;)Lorg/apache/http/HttpResponse; \u003e@622",
          "type": "ui",
          "activities": [
            "com.vercoop.app.ActMain"
          ],
          "listener": "com.vercoop.app.friend.ActFriend",
          "listenerMethod": "onClick",
          "uiType": "onClick",
          "constraintsFile": "constraints42_0.py",
          "variables": {
            "\u003cChainedInput1\u003e": "IAAv1"
          },
          "stringMap": {},
          "strings": {}
        }
      ]
    },
    "43": {
      "startMethod": "com.vercoop.app.friend.ActFriend.onClick(Landroid/view/View;)V",
      "targetMethod": "org.apache.http.client.HttpClient.execute(Lorg/apache/http/client/methods/HttpUriRequest;)Lorg/apache/http/HttpResponse;",
      "eventChain": [
        {
          "start": "com.vercoop.app.friend.ActFriend.onClick(Landroid/view/View;)V",
          "target": "invokeinterface \u003c Application, Lorg/apache/http/client/HttpClient, execute(Lorg/apache/http/client/methods/HttpUriRequest;)Lorg/apache/http/HttpResponse; \u003e@243",
          "type": "ui",
          "activities": [
            "com.vercoop.app.ActMain"
          ],
          "listener": "com.vercoop.app.friend.ActFriend",
          "listenerMethod": "onClick",
          "uiType": "onClick",
          "constraintsFile": "constraints43_0.py",
          "variables": {
            "\u003cChainedInput1\u003e": "IAAv1"
          },
          "stringMap": {},
          "strings": {}
        }
      ]
    },
    "44": {
      "startMethod": "com.vercoop.app.content.ActDetailVideo.onClick(Landroid/view/View;)V",
      "targetMethod": "org.apache.http.client.HttpClient.execute(Lorg/apache/http/client/methods/HttpUriRequest;)Lorg/apache/http/HttpResponse;",
      "eventChain": [
        {
          "start": "com.vercoop.app.content.ActDetailVideo.onCreate(Landroid/os/Bundle;)V",
          "target": "invokevirtual \u003c Application, Landroid/widget/ImageButton, setOnClickListener(Landroid/view/View$OnClickListener;)V \u003e@197",
          "type": "activity",
          "component": "com.vercoop.app.content.ActDetailVideo",
          "constraintsFile": "constraints44_0.py",
          "variables": {
            "\u003cChainedInput1\u003e": "IAAv0",
            "\u003cChainedInput1\u003e.getBoolean()": "IAAv1"
          },
          "stringMap": {},
          "strings": {}
        },
        {
          "start": "com.vercoop.app.content.ActDetailVideo.onCreate(Landroid/os/Bundle;)V",
          "target": "PC@161",
          "type": "activity",
          "component": "com.vercoop.app.content.ActDetailVideo",
          "constraintsFile": "constraints44_1.py",
          "variables": {
            "\u003cChainedInput1\u003e": "IAAv1",
            "\u003cChainedInput1\u003e.getBoolean()": "IAAv8"
          },
          "stringMap": {
            "7000": "\u003cUI\u003e"
          },
          "strings": {}
        },
        {
          "start": "com.vercoop.app.content.ActDetailVideo.onCreate(Landroid/os/Bundle;)V",
          "target": "PC@191",
          "type": "activity",
          "component": "com.vercoop.app.content.ActDetailVideo",
          "constraintsFile": "constraints44_2.py",
          "variables": {
            "\u003cChainedInput1\u003e": "IAAv1",
            "\u003cChainedInput1\u003e.getBoolean()": "IAAv8"
          },
          "stringMap": {
            "7000": "\u003cUI\u003e"
          },
          "strings": {}
        },
        {
          "start": "com.vercoop.app.content.ActDetailVideo.onCreate(Landroid/os/Bundle;)V",
          "target": "PC@281",
          "type": "activity",
          "component": "com.vercoop.app.content.ActDetailVideo",
          "constraintsFile": "constraints44_3.py",
          "variables": {
            "\u003cChainedInput1\u003e": "IAAv1",
            "\u003cChainedInput1\u003e.getBoolean()": "IAAv8"
          },
          "stringMap": {
            "7000": "\u003cUI\u003e"
          },
          "strings": {}
        },
        {
          "start": "com.vercoop.app.content.ActDetailVideo.onCreate(Landroid/os/Bundle;)V",
          "target": "PC@221",
          "type": "activity",
          "component": "com.vercoop.app.content.ActDetailVideo",
          "constraintsFile": "constraints44_4.py",
          "variables": {
            "\u003cChainedInput1\u003e": "IAAv1",
            "\u003cChainedInput1\u003e.getBoolean()": "IAAv8"
          },
          "stringMap": {
            "7000": "\u003cUI\u003e"
          },
          "strings": {}
        },
        {
          "start": "com.vercoop.app.content.ActDetailVideo.onCreate(Landroid/os/Bundle;)V",
          "target": "PC@251",
          "type": "activity",
          "component": "com.vercoop.app.content.ActDetailVideo",
          "constraintsFile": "constraints44_5.py",
          "variables": {
            "\u003cChainedInput1\u003e": "IAAv1",
            "\u003cChainedInput1\u003e.getBoolean()": "IAAv8"
          },
          "stringMap": {
            "7000": "\u003cUI\u003e"
          },
          "strings": {}
        },
        {
          "start": "com.vercoop.app.content.ActDetailVideo.\u003cinit\u003e()V",
          "target": "PC@46",
          "type": "",
          "constraintsFile": "constraints44_6.py",
          "variables": {
            "\u003cChainedInput1\u003e": "IAAv1"
          },
          "stringMap": {},
          "strings": {}
        },
        {
          "start": "com.vercoop.app.content.ActDetailVideo.onClick(Landroid/view/View;)V",
          "target": "invokeinterface \u003c Application, Lorg/apache/http/client/HttpClient, execute(Lorg/apache/http/client/methods/HttpUriRequest;)Lorg/apache/http/HttpResponse; \u003e@243",
          "type": "ui",
          "activities": [
            "com.vercoop.app.content.ActDetailVideo"
          ],
          "listener": "com.vercoop.app.content.ActDetailVideo",
          "listenerMethod": "onClick",
          "uiType": "onClick",
          "constraintsFile": "constraints44_7.py",
          "variables": {
            "\u003cChainedInput1\u003e": "IAAv1"
          },
          "stringMap": {},
          "strings": {}
        }
      ]
    },
    "45": {
      "startMethod": "com.vercoop.app.channel.ActChannelCoverFlow.onClick(Landroid/view/View;)V",
      "targetMethod": "org.apache.http.client.HttpClient.execute(Lorg/apache/http/client/methods/HttpUriRequest;)Lorg/apache/http/HttpResponse;",
      "eventChain": [
        {
          "start": "com.vercoop.app.channel.ActChannelCoverFlow.onClick(Landroid/view/View;)V",
          "target": "invokeinterface \u003c Application, Lorg/apache/http/client/HttpClient, execute(Lorg/apache/http/client/methods/HttpUriRequest;)Lorg/apache/http/HttpResponse; \u003e@622",
          "type": "ui",
          "activities": [
            "com.vercoop.app.ActMain"
          ],
          "listener": "com.vercoop.app.channel.ActChannelCoverFlow",
          "listenerMethod": "onClick",
          "uiType": "onClick",
          "constraintsFile": "constraints45_0.py",
          "variables": {
            "\u003cChainedInput1\u003e": "IAAv1"
          },
          "stringMap": {},
          "strings": {}
        }
      ]
    },
    "46": {
      "startMethod": "com.vercoop.app.channel.ActChannelCoverFlow.onClick(Landroid/view/View;)V",
      "targetMethod": "org.apache.http.client.HttpClient.execute(Lorg/apache/http/client/methods/HttpUriRequest;)Lorg/apache/http/HttpResponse;",
      "eventChain": [
        {
          "start": "com.vercoop.app.channel.ActChannelCoverFlow.onClick(Landroid/view/View;)V",
          "target": "invokeinterface \u003c Application, Lorg/apache/http/client/HttpClient, execute(Lorg/apache/http/client/methods/HttpUriRequest;)Lorg/apache/http/HttpResponse; \u003e@243",
          "type": "ui",
          "activities": [
            "com.vercoop.app.ActMain"
          ],
          "listener": "com.vercoop.app.channel.ActChannelCoverFlow",
          "listenerMethod": "onClick",
          "uiType": "onClick",
          "constraintsFile": "constraints46_0.py",
          "variables": {
            "\u003cChainedInput1\u003e": "IAAv1"
          },
          "stringMap": {},
          "strings": {}
        }
      ]
    },
    "47": {
      "startMethod": "com.vercoop.app.fragment.FragmentDialog$1.onEditorAction(Landroid/widget/TextView;ILandroid/view/KeyEvent;)Z",
      "targetMethod": "org.apache.http.client.HttpClient.execute(Lorg/apache/http/client/methods/HttpUriRequest;)Lorg/apache/http/HttpResponse;",
      "eventChain": [
        {
          "start": "com.vercoop.app.fragment.FragmentDialog$1.onEditorAction(Landroid/widget/TextView;ILandroid/view/KeyEvent;)Z",
          "target": "invokeinterface \u003c Application, Lorg/apache/http/client/HttpClient, execute(Lorg/apache/http/client/methods/HttpUriRequest;)Lorg/apache/http/HttpResponse; \u003e@622",
          "type": "ui",
          "activities": [
            "com.vercoop.app.ActMain"
          ],
          "listener": "com.vercoop.app.fragment.FragmentDialog$1",
          "listenerMethod": "onEditorAction",
          "uiType": "onEditorAction",
          "constraintsFile": "constraints47_0.py",
          "variables": {
            "\u003cInput2\u003e": "IAAv0"
          },
          "stringMap": {},
          "strings": {}
        }
      ]
    },
    "48": {
      "startMethod": "com.vercoop.app.fragment.FragmentDialog$1.onEditorAction(Landroid/widget/TextView;ILandroid/view/KeyEvent;)Z",
      "targetMethod": "org.apache.http.client.HttpClient.execute(Lorg/apache/http/client/methods/HttpUriRequest;)Lorg/apache/http/HttpResponse;",
      "eventChain": [
        {
          "start": "com.vercoop.app.fragment.FragmentDialog$1.onEditorAction(Landroid/widget/TextView;ILandroid/view/KeyEvent;)Z",
          "target": "invokeinterface \u003c Application, Lorg/apache/http/client/HttpClient, execute(Lorg/apache/http/client/methods/HttpUriRequest;)Lorg/apache/http/HttpResponse; \u003e@243",
          "type": "ui",
          "activities": [
            "com.vercoop.app.ActMain"
          ],
          "listener": "com.vercoop.app.fragment.FragmentDialog$1",
          "listenerMethod": "onEditorAction",
          "uiType": "onEditorAction",
          "constraintsFile": "constraints48_0.py",
          "variables": {
            "\u003cInput2\u003e": "IAAv0"
          },
          "stringMap": {},
          "strings": {}
        }
      ]
    }
  }
}