{
  "packageName": "luckycom.Wallpaper083111wallpaper11",
  "mainActivity": "luckycom.Wallpaper083111wallpaper11.StartView",
  "callPaths": {
    "0": {
      "startMethod": "com.gfan.sdk.statistics.CommentActivity$2.onClick(Landroid/view/View;)V",
      "targetMethod": "org.apache.http.client.HttpClient.execute(Lorg/apache/http/client/methods/HttpUriRequest;)Lorg/apache/http/HttpResponse;",
      "eventChain": [
        {
          "start": "com.gfan.sdk.statistics.CommentActivity$2.onClick(Landroid/view/View;)V",
          "target": "invokeinterface \u003c Application, Lorg/apache/http/client/HttpClient, execute(Lorg/apache/http/client/methods/HttpUriRequest;)Lorg/apache/http/HttpResponse; \u003e@109",
          "type": "ui",
          "activities": [
            "luckycom.Wallpaper083111wallpaper11.StartView"
          ],
          "listener": "com.gfan.sdk.statistics.CommentActivity$2",
          "listenerMethod": "onClick",
          "uiType": "onClick",
          "constraintsFile": "constraints0_0.py",
          "variables": {},
          "stringMap": {
            "7000": ""
          },
          "strings": {}
        }
      ]
    }
  }
}