{
  "packageName": "com.gouwu.project.browser_electric.dku0",
  "mainActivity": "cn.cf.shop_ele.ui.activities.MainActivity",
  "callPaths": {
    "0": {
      "startMethod": "cn.cf.shop_ele.ui.activities.MainActivity.onResume()V",
      "targetMethod": "java.lang.reflect.Method.invoke(Ljava/lang/Object;[Ljava/lang/Object;)Ljava/lang/Object;",
      "eventChain": [
        {
          "start": "cn.cf.shop_ele.ui.activities.MainActivity.onCreate(Landroid/os/Bundle;)V",
          "target": "",
          "type": "activity",
          "component": "cn.cf.shop_ele.ui.activities.MainActivity",
          "constraintsFile": "constraints0_0.py",
          "variables": {
            "SharedPreferences\u003cGeneralHideTitleBars\u003e": "IAAv1",
            "SharedPreferences\u003cGeneralFullScreen\u003e": "IAAv0"
          },
          "stringMap": {},
          "strings": {}
        },
        {
          "start": "cn.cf.shop_ele.ui.activities.MainActivity.onCreate(Landroid/os/Bundle;)V",
          "target": "PC@123",
          "type": "activity",
          "component": "cn.cf.shop_ele.ui.activities.MainActivity",
          "constraintsFile": "constraints0_1.py",
          "variables": {
            "SharedPreferences\u003cGeneralHideTitleBars\u003e": "IAAv1",
            "SharedPreferences\u003cGeneralFullScreen\u003e": "IAAv0"
          },
          "stringMap": {
            "7000": "\u003cUI\u003e"
          },
          "strings": {}
        },
        {
          "start": "cn.cf.shop_ele.ui.activities.MainActivity.onResume()V",
          "target": "invokevirtual \u003c Application, Ljava/lang/reflect/Method, invoke(Ljava/lang/Object;[Ljava/lang/Object;)Ljava/lang/Object; \u003e@35",
          "type": "activity",
          "component": "cn.cf.shop_ele.ui.activities.MainActivity",
          "constraintsFile": "constraints0_2.py",
          "variables": {},
          "stringMap": {},
          "strings": {}
        }
      ]
    },
    "1": {
      "startMethod": "cn.cf.shop_ele.download.DownloadService.onCreate()V",
      "targetMethod": "java.net.URL.openConnection()Ljava/net/URLConnection;",
      "eventChain": [
        {
          "start": "cn.cf.shop_ele.download.DownloadService.onCreate()V",
          "target": "invokevirtual \u003c Application, Ljava/net/URL, openConnection()Ljava/net/URLConnection; \u003e@36",
          "type": "service",
          "component": "cn.cf.shop_ele.download.DownloadService"
        }
      ]
    },
    "2": {
      "startMethod": "cn.cf.shop_ele.ui.activities.ElectricMainActivity.onCreate(Landroid/os/Bundle;)V",
      "targetMethod": "org.apache.http.client.HttpClient.execute(Lorg/apache/http/client/methods/HttpUriRequest;)Lorg/apache/http/HttpResponse;",
      "eventChain": [
        {
          "start": "cn.cf.shop_ele.ui.activities.ElectricMainActivity.onCreate(Landroid/os/Bundle;)V",
          "target": "invokeinterface \u003c Application, Lorg/apache/http/client/HttpClient, execute(Lorg/apache/http/client/methods/HttpUriRequest;)Lorg/apache/http/HttpResponse; \u003e@22",
          "type": "activity",
          "component": "cn.cf.shop_ele.ui.activities.ElectricMainActivity"
        }
      ]
    },
    "3": {
      "startMethod": "cn.cf.shop_ele.ui.activities.ElectricMainActivity.onCreate(Landroid/os/Bundle;)V",
      "targetMethod": "org.apache.http.client.HttpClient.execute(Lorg/apache/http/client/methods/HttpUriRequest;)Lorg/apache/http/HttpResponse;",
      "eventChain": [
        {
          "start": "cn.cf.shop_ele.ui.activities.ElectricMainActivity.onCreate(Landroid/os/Bundle;)V",
          "target": "invokeinterface \u003c Application, Landroid/content/SharedPreferences$Editor, putString(Ljava/lang/String;Ljava/lang/String;)Landroid/content/SharedPreferences$Editor; \u003e@18",
          "type": "activity",
          "component": "cn.cf.shop_ele.ui.activities.ElectricMainActivity",
          "constraintsFile": "constraints3_0.py",
          "variables": {
            "SharedPreferences\u003cuuid\u003e": "IAAv2"
          },
          "stringMap": {},
          "strings": {
            "IAAv2": ""
          }
        },
        {
          "start": "cn.cf.shop_ele.ui.activities.ElectricMainActivity.onCreate(Landroid/os/Bundle;)V",
          "target": "",
          "type": "activity",
          "component": "cn.cf.shop_ele.ui.activities.ElectricMainActivity",
          "constraintsFile": "constraints3_1.py",
          "variables": {},
          "stringMap": {},
          "strings": {}
        },
        {
          "start": "cn.cf.shop_ele.ui.activities.ElectricMainActivity.onCreate(Landroid/os/Bundle;)V",
          "target": "invokeinterface \u003c Application, Lorg/apache/http/client/HttpClient, execute(Lorg/apache/http/client/methods/HttpUriRequest;)Lorg/apache/http/HttpResponse; \u003e@46",
          "type": "activity",
          "component": "cn.cf.shop_ele.ui.activities.ElectricMainActivity",
          "constraintsFile": "constraints3_2.py",
          "variables": {
            "SharedPreferences\u003cuuid\u003e": "IAAv2"
          },
          "stringMap": {},
          "strings": {
            "IAAv2": ""
          }
        }
      ]
    },
    "4": {
      "startMethod": "cn.cf.shop_ele.ui.activities.MainActivity.onPause()V",
      "targetMethod": "java.lang.reflect.Method.invoke(Ljava/lang/Object;[Ljava/lang/Object;)Ljava/lang/Object;",
      "eventChain": [
        {
          "start": "cn.cf.shop_ele.ui.activities.MainActivity.onCreate(Landroid/os/Bundle;)V",
          "target": "",
          "type": "activity",
          "component": "cn.cf.shop_ele.ui.activities.MainActivity",
          "constraintsFile": "constraints4_0.py",
          "variables": {
            "SharedPreferences\u003cGeneralHideTitleBars\u003e": "IAAv1",
            "SharedPreferences\u003cGeneralFullScreen\u003e": "IAAv0"
          },
          "stringMap": {},
          "strings": {}
        },
        {
          "start": "cn.cf.shop_ele.ui.activities.MainActivity.onCreate(Landroid/os/Bundle;)V",
          "target": "PC@123",
          "type": "activity",
          "component": "cn.cf.shop_ele.ui.activities.MainActivity",
          "constraintsFile": "constraints4_1.py",
          "variables": {
            "SharedPreferences\u003cGeneralHideTitleBars\u003e": "IAAv1",
            "SharedPreferences\u003cGeneralFullScreen\u003e": "IAAv0"
          },
          "stringMap": {
            "7000": "\u003cUI\u003e"
          },
          "strings": {}
        },
        {
          "start": "cn.cf.shop_ele.ui.activities.MainActivity.onPause()V",
          "target": "invokevirtual \u003c Application, Ljava/lang/reflect/Method, invoke(Ljava/lang/Object;[Ljava/lang/Object;)Ljava/lang/Object; \u003e@36",
          "type": "activity",
          "component": "cn.cf.shop_ele.ui.activities.MainActivity",
          "constraintsFile": "constraints4_2.py",
          "variables": {},
          "stringMap": {},
          "strings": {}
        }
      ]
    },
    "5": {
      "startMethod": "com.vee.foxzone.MyDownloadReceiver.onReceive(Landroid/content/Context;Landroid/content/Intent;)V",
      "targetMethod": "org.apache.http.impl.client.DefaultHttpClient.execute(Lorg/apache/http/client/methods/HttpUriRequest;)Lorg/apache/http/HttpResponse;",
      "eventChain": [
        {
          "start": "com.vee.foxzone.MyDownloadReceiver.onReceive(Landroid/content/Context;Landroid/content/Intent;)V",
          "target": "invokevirtual \u003c Application, Lorg/apache/http/impl/client/DefaultHttpClient, execute(Lorg/apache/http/client/methods/HttpUriRequest;)Lorg/apache/http/HttpResponse; \u003e@49",
          "type": "sms",
          "constraintsFile": "constraints5_0.py",
          "variables": {
            "\u003cInput1\u003e.getInstance().db.query()": "IAAv1",
            "\u003cInput1\u003e.getInstance().downloadManager.query().getInt()": "IAAv0"
          },
          "stringMap": {},
          "strings": {}
        }
      ]
    },
    "6": {
      "startMethod": "cn.cf.shop_ele.utils.ProxyChangeReceiver.onReceive(Landroid/content/Context;Landroid/content/Intent;)V",
      "targetMethod": "java.lang.reflect.Method.invoke(Ljava/lang/Object;[Ljava/lang/Object;)Ljava/lang/Object;",
      "eventChain": [
        {
          "start": "cn.cf.shop_ele.ui.activities.MainActivity.onCreate(Landroid/os/Bundle;)V",
          "target": "",
          "type": "activity",
          "component": "cn.cf.shop_ele.ui.activities.MainActivity"
        },
        {
          "start": "cn.cf.shop_ele.utils.ProxyChangeReceiver.onReceive(Landroid/content/Context;Landroid/content/Intent;)V",
          "target": "invokevirtual \u003c Application, Ljava/lang/reflect/Method, invoke(Ljava/lang/Object;[Ljava/lang/Object;)Ljava/lang/Object; \u003e@42",
          "type": "sms",
          "constraintsFile": "constraints6_0.py",
          "variables": {
            "SharedPreferences\u003cBrowserEnableProxySettings\u003e": "IAAv2"
          },
          "stringMap": {},
          "strings": {}
        }
      ]
    },
    "7": {
      "startMethod": "cn.cf.shop_ele.utils.ProxyChangeReceiver.onReceive(Landroid/content/Context;Landroid/content/Intent;)V",
      "targetMethod": "java.lang.reflect.Method.invoke(Ljava/lang/Object;[Ljava/lang/Object;)Ljava/lang/Object;",
      "eventChain": [
        {
          "start": "cn.cf.shop_ele.ui.activities.MainActivity.onCreate(Landroid/os/Bundle;)V",
          "target": "",
          "type": "activity",
          "component": "cn.cf.shop_ele.ui.activities.MainActivity"
        },
        {
          "start": "cn.cf.shop_ele.utils.ProxyChangeReceiver.onReceive(Landroid/content/Context;Landroid/content/Intent;)V",
          "target": "invokevirtual \u003c Application, Ljava/lang/reflect/Method, invoke(Ljava/lang/Object;[Ljava/lang/Object;)Ljava/lang/Object; \u003e@88",
          "type": "sms",
          "constraintsFile": "constraints7_0.py",
          "variables": {
            "SharedPreferences\u003cBrowserEnableProxySettings\u003e": "IAAv2"
          },
          "stringMap": {},
          "strings": {}
        }
      ]
    },
    "8": {
      "startMethod": "cn.cf.shop_ele.utils.ProxyChangeReceiver.onReceive(Landroid/content/Context;Landroid/content/Intent;)V",
      "targetMethod": "org.apache.http.impl.client.DefaultHttpClient.execute(Lorg/apache/http/client/methods/HttpUriRequest;)Lorg/apache/http/HttpResponse;",
      "eventChain": [
        {
          "start": "cn.cf.shop_ele.ui.activities.MainActivity.onCreate(Landroid/os/Bundle;)V",
          "target": "",
          "type": "activity",
          "component": "cn.cf.shop_ele.ui.activities.MainActivity"
        },
        {
          "start": "cn.cf.shop_ele.utils.ProxyChangeReceiver.onReceive(Landroid/content/Context;Landroid/content/Intent;)V",
          "target": "invokevirtual \u003c Application, Lorg/apache/http/impl/client/DefaultHttpClient, execute(Lorg/apache/http/client/methods/HttpUriRequest;)Lorg/apache/http/HttpResponse; \u003e@80",
          "type": "sms",
          "constraintsFile": "constraints8_0.py",
          "variables": {
            "SharedPreferences\u003cBrowserEnableProxySettings\u003e": "IAAv2"
          },
          "stringMap": {},
          "strings": {}
        }
      ]
    },
    "9": {
      "startMethod": "cn.cf.shop_ele.ui.activities.MainActivity.onCreate(Landroid/os/Bundle;)V",
      "targetMethod": "java.lang.reflect.Method.invoke(Ljava/lang/Object;[Ljava/lang/Object;)Ljava/lang/Object;",
      "eventChain": [
        {
          "start": "cn.cf.shop_ele.ui.activities.MainActivity.onCreate(Landroid/os/Bundle;)V",
          "target": "invokevirtual \u003c Application, Ljava/lang/reflect/Method, invoke(Ljava/lang/Object;[Ljava/lang/Object;)Ljava/lang/Object; \u003e@42",
          "type": "activity",
          "component": "cn.cf.shop_ele.ui.activities.MainActivity",
          "constraintsFile": "constraints9_0.py",
          "variables": {
            "SharedPreferences\u003cGeneralHideTitleBars\u003e": "IAAv1",
            "SharedPreferences\u003cBrowserEnableProxySettings\u003e": "IAAv3",
            "SharedPreferences\u003cGeneralFullScreen\u003e": "IAAv0"
          },
          "stringMap": {},
          "strings": {}
        }
      ]
    },
    "10": {
      "startMethod": "cn.cf.shop_ele.ui.activities.MainActivity.onCreate(Landroid/os/Bundle;)V",
      "targetMethod": "org.apache.http.client.HttpClient.execute(Lorg/apache/http/client/methods/HttpUriRequest;)Lorg/apache/http/HttpResponse;",
      "eventChain": [
        {
          "start": "cn.cf.shop_ele.ui.activities.MainActivity.onCreate(Landroid/os/Bundle;)V",
          "target": "invokeinterface \u003c Application, Lorg/apache/http/client/HttpClient, execute(Lorg/apache/http/client/methods/HttpUriRequest;)Lorg/apache/http/HttpResponse; \u003e@22",
          "type": "activity",
          "component": "cn.cf.shop_ele.ui.activities.MainActivity",
          "constraintsFile": "constraints10_0.py",
          "variables": {
            "SharedPreferences\u003cGeneralHideTitleBars\u003e": "IAAv1",
            "SharedPreferences\u003cGeneralFullScreen\u003e": "IAAv0"
          },
          "stringMap": {},
          "strings": {}
        }
      ]
    },
    "11": {
      "startMethod": "cn.cf.shop_ele.ui.activities.MainActivity.onCreate(Landroid/os/Bundle;)V",
      "targetMethod": "java.net.URL.openConnection()Ljava/net/URLConnection;",
      "eventChain": [
        {
          "start": "cn.cf.shop_ele.ui.activities.MainActivity.onCreate(Landroid/os/Bundle;)V",
          "target": "invokevirtual \u003c Application, Ljava/net/URL, openConnection()Ljava/net/URLConnection; \u003e@125",
          "type": "activity",
          "component": "cn.cf.shop_ele.ui.activities.MainActivity",
          "constraintsFile": "constraints11_0.py",
          "variables": {
            "SharedPreferences\u003cGeneralHideTitleBars\u003e": "IAAv1",
            "SharedPreferences\u003cGeneralFullScreen\u003e": "IAAv0"
          },
          "stringMap": {},
          "strings": {}
        }
      ]
    },
    "12": {
      "startMethod": "cn.cf.shop_ele.ui.activities.MainActivity.onCreate(Landroid/os/Bundle;)V",
      "targetMethod": "org.apache.http.impl.client.DefaultHttpClient.execute(Lorg/apache/http/client/methods/HttpUriRequest;)Lorg/apache/http/HttpResponse;",
      "eventChain": [
        {
          "start": "cn.cf.shop_ele.ui.activities.MainActivity.onCreate(Landroid/os/Bundle;)V",
          "target": "invokevirtual \u003c Application, Lorg/apache/http/impl/client/DefaultHttpClient, execute(Lorg/apache/http/client/methods/HttpUriRequest;)Lorg/apache/http/HttpResponse; \u003e@80",
          "type": "activity",
          "component": "cn.cf.shop_ele.ui.activities.MainActivity",
          "constraintsFile": "constraints12_0.py",
          "variables": {
            "SharedPreferences\u003cGeneralHideTitleBars\u003e": "IAAv1",
            "SharedPreferences\u003cBrowserEnableProxySettings\u003e": "IAAv3",
            "SharedPreferences\u003cGeneralFullScreen\u003e": "IAAv0"
          },
          "stringMap": {},
          "strings": {}
        }
      ]
    },
    "13": {
      "startMethod": "cn.cf.shop_ele.ui.activities.MainActivity.onCreate(Landroid/os/Bundle;)V",
      "targetMethod": "java.net.URL.openConnection(Ljava/net/Proxy;)Ljava/net/URLConnection;",
      "eventChain": [
        {
          "start": "cn.cf.shop_ele.ui.activities.MainActivity.onCreate(Landroid/os/Bundle;)V",
          "target": "invokevirtual \u003c Application, Ljava/net/URL, openConnection(Ljava/net/Proxy;)Ljava/net/URLConnection; \u003e@62",
          "type": "activity",
          "component": "cn.cf.shop_ele.ui.activities.MainActivity",
          "constraintsFile": "constraints13_0.py",
          "variables": {
            "SharedPreferences\u003cGeneralHideTitleBars\u003e": "IAAv1",
            "SharedPreferences\u003cGeneralFullScreen\u003e": "IAAv0"
          },
          "stringMap": {},
          "strings": {}
        }
      ]
    },
    "14": {
      "startMethod": "cn.cf.shop_ele.ui.activities.MainActivity.onCreate(Landroid/os/Bundle;)V",
      "targetMethod": "java.lang.reflect.Method.invoke(Ljava/lang/Object;[Ljava/lang/Object;)Ljava/lang/Object;",
      "eventChain": [
        {
          "start": "cn.cf.shop_ele.ui.activities.MainActivity.onCreate(Landroid/os/Bundle;)V",
          "target": "invokevirtual \u003c Application, Ljava/lang/reflect/Method, invoke(Ljava/lang/Object;[Ljava/lang/Object;)Ljava/lang/Object; \u003e@88",
          "type": "activity",
          "component": "cn.cf.shop_ele.ui.activities.MainActivity",
          "constraintsFile": "constraints14_0.py",
          "variables": {
            "SharedPreferences\u003cGeneralHideTitleBars\u003e": "IAAv1",
            "SharedPreferences\u003cBrowserEnableProxySettings\u003e": "IAAv3",
            "SharedPreferences\u003cGeneralFullScreen\u003e": "IAAv0"
          },
          "stringMap": {},
          "strings": {}
        }
      ]
    },
    "15": {
      "startMethod": "cn.cf.shop_ele.games.download.DownloadActivity.onItemClick(Landroid/widget/AdapterView;Landroid/view/View;IJ)V",
      "targetMethod": "java.net.URL.openConnection()Ljava/net/URLConnection;",
      "eventChain": [
        {
          "start": "cn.cf.shop_ele.games.download.DownloadActivity.onCreate(Landroid/os/Bundle;)V",
          "target": "invokevirtual \u003c Application, Landroid/widget/ListView, setOnItemClickListener(Landroid/widget/AdapterView$OnItemClickListener;)V \u003e@210",
          "type": "activity",
          "component": "cn.cf.shop_ele.games.download.DownloadActivity"
        },
        {
          "start": "cn.cf.shop_ele.games.download.DownloadActivity.onResume()V",
          "target": "PC@13",
          "type": "activity",
          "component": "cn.cf.shop_ele.games.download.DownloadActivity",
          "constraintsFile": "constraints15_0.py",
          "variables": {},
          "stringMap": {},
          "strings": {}
        },
        {
          "start": "cn.cf.shop_ele.games.download.DownloadActivity.onItemClick(Landroid/widget/AdapterView;Landroid/view/View;IJ)V",
          "target": "invokevirtual \u003c Application, Ljava/net/URL, openConnection()Ljava/net/URLConnection; \u003e@36",
          "type": "ui",
          "activities": [
            "cn.cf.shop_ele.games.download.DownloadActivity"
          ],
          "listener": "cn.cf.shop_ele.games.download.DownloadActivity",
          "listenerMethod": "onItemClick",
          "uiType": "onItemClick",
          "constraintsFile": "constraints15_1.py",
          "variables": {},
          "stringMap": {},
          "strings": {}
        }
      ]
    },
    "16": {
      "startMethod": "cn.cf.shop_ele.ui.activities.MainActivity.onKeyDown(ILandroid/view/KeyEvent;)Z",
      "targetMethod": "java.lang.reflect.Method.invoke(Ljava/lang/Object;[Ljava/lang/Object;)Ljava/lang/Object;",
      "eventChain": [
        {
          "start": "cn.cf.shop_ele.ui.activities.MainActivity.onKeyDown(ILandroid/view/KeyEvent;)Z",
          "target": "invokevirtual \u003c Application, Ljava/lang/reflect/Method, invoke(Ljava/lang/Object;[Ljava/lang/Object;)Ljava/lang/Object; \u003e@35",
          "type": "ui",
          "activities": [
            "cn.cf.shop_ele.ui.activities.MainActivity"
          ],
          "listener": "cn.cf.shop_ele.ui.activities.MainActivity",
          "listenerMethod": "onKeyDown",
          "uiType": "onKeyDown",
          "constraintsFile": "constraints16_0.py",
          "variables": {
            "SharedPreferences\u003cGeneralVolumeKeysBehaviour\u003e": "IAAv1",
            "\u003cInput1\u003e": "IAAv0"
          },
          "stringMap": {
            "7000": "SWITCH_TABS"
          },
          "strings": {
            "IAAv1": ""
          }
        }
      ]
    },
    "17": {
      "startMethod": "cn.cf.shop_ele.ui.activities.MainActivity.onKeyDown(ILandroid/view/KeyEvent;)Z",
      "targetMethod": "java.lang.reflect.Method.invoke(Ljava/lang/Object;[Ljava/lang/Object;)Ljava/lang/Object;",
      "eventChain": [
        {
          "start": "cn.cf.shop_ele.ui.activities.MainActivity.onKeyDown(ILandroid/view/KeyEvent;)Z",
          "target": "invokevirtual \u003c Application, Ljava/lang/reflect/Method, invoke(Ljava/lang/Object;[Ljava/lang/Object;)Ljava/lang/Object; \u003e@36",
          "type": "ui",
          "activities": [
            "cn.cf.shop_ele.ui.activities.MainActivity"
          ],
          "listener": "cn.cf.shop_ele.ui.activities.MainActivity",
          "listenerMethod": "onKeyDown",
          "uiType": "onKeyDown",
          "constraintsFile": "constraints17_0.py",
          "variables": {
            "SharedPreferences\u003cGeneralVolumeKeysBehaviour\u003e": "IAAv1",
            "\u003cInput1\u003e": "IAAv0"
          },
          "stringMap": {
            "7000": "SWITCH_TABS"
          },
          "strings": {
            "IAAv1": ""
          }
        }
      ]
    },
    "18": {
      "startMethod": "cn.cf.shop_ele.ui.activities.preferences.PreferencesActivity$18.onClick(Landroid/content/DialogInterface;I)V",
      "targetMethod": "android.content.ContentResolver.delete(Landroid/net/Uri;Ljava/lang/String;[Ljava/lang/String;)I",
      "eventChain": [
        {
          "start": "cn.cf.shop_ele.ui.activities.preferences.PreferencesActivity$8.onPreferenceClick(Landroid/preference/Preference;)Z",
          "target": "invokevirtual \u003c Application, Landroid/app/AlertDialog$Builder, setSingleChoiceItems([Ljava/lang/CharSequence;ILandroid/content/DialogInterface$OnClickListener;)Landroid/app/AlertDialog$Builder; \u003e@127",
          "type": ""
        },
        {
          "start": "cn.cf.shop_ele.ui.activities.preferences.PreferencesActivity$18.onClick(Landroid/content/DialogInterface;I)V",
          "target": "invokevirtual \u003c Application, Landroid/content/ContentResolver, delete(Landroid/net/Uri;Ljava/lang/String;[Ljava/lang/String;)I \u003e@262",
          "type": "ui",
          "activities": [
            "cn.cf.shop_ele.ui.activities.MainActivity"
          ],
          "listener": "cn.cf.shop_ele.ui.activities.preferences.PreferencesActivity$18",
          "listenerMethod": "onClick",
          "uiType": "onClick",
          "inDialog": "true",
          "constraintsFile": "constraints18_0.py",
          "variables": {},
          "stringMap": {},
          "strings": {}
        }
      ]
    },
    "19": {
      "startMethod": "cn.cf.shop_ele.ui.activities.preferences.PreferencesActivity$19.onClick(Landroid/content/DialogInterface;I)V",
      "targetMethod": "android.content.ContentResolver.delete(Landroid/net/Uri;Ljava/lang/String;[Ljava/lang/String;)I",
      "eventChain": [
        {
          "start": "cn.cf.shop_ele.ui.activities.preferences.PreferencesActivity$19.onClick(Landroid/content/DialogInterface;I)V",
          "target": "invokevirtual \u003c Application, Landroid/content/ContentResolver, delete(Landroid/net/Uri;Ljava/lang/String;[Ljava/lang/String;)I \u003e@262",
          "type": "ui",
          "activities": [
            "cn.cf.shop_ele.ui.activities.MainActivity"
          ],
          "listener": "cn.cf.shop_ele.ui.activities.preferences.PreferencesActivity$19",
          "listenerMethod": "onClick",
          "uiType": "onClick",
          "inDialog": "true",
          "constraintsFile": "constraints19_0.py",
          "variables": {},
          "stringMap": {},
          "strings": {}
        }
      ]
    },
    "20": {
      "startMethod": "cn.cf.shop_ele.games.download.DownloadActivity$6.onClick(Landroid/content/DialogInterface;I)V",
      "targetMethod": "java.net.URL.openConnection()Ljava/net/URLConnection;",
      "eventChain": [
        {
          "start": "cn.cf.shop_ele.games.download.DownloadActivity.onItemLongClick(Landroid/widget/AdapterView;Landroid/view/View;IJ)Z",
          "target": "invokevirtual \u003c Application, Landroid/app/AlertDialog$Builder, setPositiveButton(Ljava/lang/CharSequence;Landroid/content/DialogInterface$OnClickListener;)Landroid/app/AlertDialog$Builder; \u003e@219",
          "type": "ui",
          "activities": [
            "cn.cf.shop_ele.games.download.DownloadActivity"
          ],
          "listener": "cn.cf.shop_ele.games.download.DownloadActivity",
          "listenerMethod": "onItemLongClick",
          "uiType": "onItemLongClick",
          "constraintsFile": "constraints20_0.py",
          "variables": {},
          "stringMap": {},
          "strings": {}
        },
        {
          "start": "cn.cf.shop_ele.games.download.DownloadActivity$6.onClick(Landroid/content/DialogInterface;I)V",
          "target": "invokevirtual \u003c Application, Ljava/net/URL, openConnection()Ljava/net/URLConnection; \u003e@36",
          "type": "ui",
          "activities": [
            "cn.cf.shop_ele.ui.activities.MainActivity"
          ],
          "listener": "cn.cf.shop_ele.games.download.DownloadActivity$6",
          "listenerMethod": "onClick",
          "uiType": "onClick",
          "inDialog": "true",
          "constraintsFile": "constraints20_1.py",
          "variables": {},
          "stringMap": {},
          "strings": {}
        }
      ]
    },
    "21": {
      "startMethod": "cn.cf.shop_ele.ui.activities.WeaveBookmarksListActivity$4.onClick(Landroid/view/View;)V",
      "targetMethod": "android.content.ContentResolver.delete(Landroid/net/Uri;Ljava/lang/String;[Ljava/lang/String;)I",
      "eventChain": [
        {
          "start": "cn.cf.shop_ele.ui.activities.WeaveBookmarksListActivity.onCreate(Landroid/os/Bundle;)V",
          "target": "invokevirtual \u003c Application, Landroid/widget/Button, setOnClickListener(Landroid/view/View$OnClickListener;)V \u003e@452",
          "type": "activity",
          "component": "cn.cf.shop_ele.ui.activities.WeaveBookmarksListActivity"
        },
        {
          "start": "cn.cf.shop_ele.ui.activities.WeaveBookmarksListActivity$4.onClick(Landroid/view/View;)V",
          "target": "invokeinterface \u003c Application, Landroid/content/SharedPreferences$Editor, putLong(Ljava/lang/String;J)Landroid/content/SharedPreferences$Editor; \u003e@188",
          "type": "ui",
          "activities": [
            "cn.cf.shop_ele.ui.activities.WeaveBookmarksListActivity"
          ],
          "listener": "cn.cf.shop_ele.ui.activities.WeaveBookmarksListActivity$4",
          "listenerMethod": "onClick",
          "uiType": "onClick",
          "constraintsFile": "constraints21_0.py",
          "variables": {},
          "stringMap": {},
          "strings": {
            "IAAv0": ""
          }
        },
        {
          "start": "cn.cf.shop_ele.ui.activities.WeaveBookmarksListActivity$4.onClick(Landroid/view/View;)V",
          "target": "invokevirtual \u003c Application, Landroid/content/ContentResolver, delete(Landroid/net/Uri;Ljava/lang/String;[Ljava/lang/String;)I \u003e@61",
          "type": "ui",
          "activities": [
            "cn.cf.shop_ele.ui.activities.WeaveBookmarksListActivity"
          ],
          "listener": "cn.cf.shop_ele.ui.activities.WeaveBookmarksListActivity$4",
          "listenerMethod": "onClick",
          "uiType": "onClick",
          "constraintsFile": "constraints21_1.py",
          "variables": {
            "SharedPreferences\u003cPREFERENCE_WEAVE_LAST_SYNC_DATE\u003e": "IAAv2"
          },
          "stringMap": {},
          "strings": {
            "IAAv0": ""
          }
        }
      ]
    },
    "22": {
      "startMethod": "cn.cf.shop_ele.ui.activities.WeaveBookmarksListActivity$4.onClick(Landroid/view/View;)V",
      "targetMethod": "android.content.ContentResolver.delete(Landroid/net/Uri;Ljava/lang/String;[Ljava/lang/String;)I",
      "eventChain": [
        {
          "start": "cn.cf.shop_ele.ui.activities.WeaveBookmarksListActivity.onCreate(Landroid/os/Bundle;)V",
          "target": "invokevirtual \u003c Application, Landroid/widget/Button, setOnClickListener(Landroid/view/View$OnClickListener;)V \u003e@452",
          "type": "activity",
          "component": "cn.cf.shop_ele.ui.activities.WeaveBookmarksListActivity"
        },
        {
          "start": "cn.cf.shop_ele.ui.activities.WeaveBookmarksListActivity$4.onClick(Landroid/view/View;)V",
          "target": "invokeinterface \u003c Application, Landroid/content/SharedPreferences$Editor, putLong(Ljava/lang/String;J)Landroid/content/SharedPreferences$Editor; \u003e@188",
          "type": "ui",
          "activities": [
            "cn.cf.shop_ele.ui.activities.WeaveBookmarksListActivity"
          ],
          "listener": "cn.cf.shop_ele.ui.activities.WeaveBookmarksListActivity$4",
          "listenerMethod": "onClick",
          "uiType": "onClick",
          "constraintsFile": "constraints22_0.py",
          "variables": {},
          "stringMap": {},
          "strings": {
            "IAAv0": ""
          }
        },
        {
          "start": "cn.cf.shop_ele.ui.activities.WeaveBookmarksListActivity$4.onClick(Landroid/view/View;)V",
          "target": "invokevirtual \u003c Application, Landroid/content/ContentResolver, delete(Landroid/net/Uri;Ljava/lang/String;[Ljava/lang/String;)I \u003e@11",
          "type": "ui",
          "activities": [
            "cn.cf.shop_ele.ui.activities.WeaveBookmarksListActivity"
          ],
          "listener": "cn.cf.shop_ele.ui.activities.WeaveBookmarksListActivity$4",
          "listenerMethod": "onClick",
          "uiType": "onClick",
          "constraintsFile": "constraints22_1.py",
          "variables": {
            "SharedPreferences\u003cPREFERENCE_WEAVE_LAST_SYNC_DATE\u003e": "IAAv2"
          },
          "stringMap": {},
          "strings": {
            "IAAv0": ""
          }
        }
      ]
    },
    "23": {
      "startMethod": "cn.cf.shop_ele.ui.activities.WeaveBookmarksListActivity$4.onClick(Landroid/view/View;)V",
      "targetMethod": "android.content.ContentResolver.delete(Landroid/net/Uri;Ljava/lang/String;[Ljava/lang/String;)I",
      "eventChain": [
        {
          "start": "cn.cf.shop_ele.ui.activities.WeaveBookmarksListActivity.onCreate(Landroid/os/Bundle;)V",
          "target": "invokevirtual \u003c Application, Landroid/widget/Button, setOnClickListener(Landroid/view/View$OnClickListener;)V \u003e@452",
          "type": "activity",
          "component": "cn.cf.shop_ele.ui.activities.WeaveBookmarksListActivity"
        },
        {
          "start": "cn.cf.shop_ele.ui.activities.WeaveBookmarksListActivity$4.onClick(Landroid/view/View;)V",
          "target": "invokeinterface \u003c Application, Landroid/content/SharedPreferences$Editor, putLong(Ljava/lang/String;J)Landroid/content/SharedPreferences$Editor; \u003e@188",
          "type": "ui",
          "activities": [
            "cn.cf.shop_ele.ui.activities.WeaveBookmarksListActivity"
          ],
          "listener": "cn.cf.shop_ele.ui.activities.WeaveBookmarksListActivity$4",
          "listenerMethod": "onClick",
          "uiType": "onClick",
          "constraintsFile": "constraints23_0.py",
          "variables": {},
          "stringMap": {},
          "strings": {
            "IAAv0": ""
          }
        },
        {
          "start": "cn.cf.shop_ele.ui.activities.WeaveBookmarksListActivity$4.onClick(Landroid/view/View;)V",
          "target": "invokevirtual \u003c Application, Landroid/content/ContentResolver, delete(Landroid/net/Uri;Ljava/lang/String;[Ljava/lang/String;)I \u003e@54",
          "type": "ui",
          "activities": [
            "cn.cf.shop_ele.ui.activities.WeaveBookmarksListActivity"
          ],
          "listener": "cn.cf.shop_ele.ui.activities.WeaveBookmarksListActivity$4",
          "listenerMethod": "onClick",
          "uiType": "onClick",
          "constraintsFile": "constraints23_1.py",
          "variables": {
            "SharedPreferences\u003cPREFERENCE_WEAVE_LAST_SYNC_DATE\u003e": "IAAv2"
          },
          "stringMap": {},
          "strings": {
            "IAAv0": ""
          }
        }
      ]
    },
    "24": {
      "startMethod": "cn.cf.shop_ele.ui.activities.preferences.PreferencesActivity$10.onSharedPreferenceChanged(Landroid/content/SharedPreferences;Ljava/lang/String;)V",
      "targetMethod": "org.apache.http.impl.client.DefaultHttpClient.execute(Lorg/apache/http/client/methods/HttpUriRequest;)Lorg/apache/http/HttpResponse;",
      "eventChain": [
        {
          "start": "cn.cf.shop_ele.ui.activities.preferences.PreferencesActivity$10.onSharedPreferenceChanged(Landroid/content/SharedPreferences;Ljava/lang/String;)V",
          "target": "invokevirtual \u003c Application, Lorg/apache/http/impl/client/DefaultHttpClient, execute(Lorg/apache/http/client/methods/HttpUriRequest;)Lorg/apache/http/HttpResponse; \u003e@80",
          "type": "",
          "constraintsFile": "constraints24_0.py",
          "variables": {
            "SharedPreferences\u003cBrowserEnableProxySettings\u003e": "IAAv1"
          },
          "stringMap": {},
          "strings": {}
        }
      ]
    },
    "25": {
      "startMethod": "cn.cf.shop_ele.ui.activities.preferences.PreferencesActivity$10.onSharedPreferenceChanged(Landroid/content/SharedPreferences;Ljava/lang/String;)V",
      "targetMethod": "java.lang.reflect.Method.invoke(Ljava/lang/Object;[Ljava/lang/Object;)Ljava/lang/Object;",
      "eventChain": [
        {
          "start": "cn.cf.shop_ele.ui.activities.preferences.PreferencesActivity$10.onSharedPreferenceChanged(Landroid/content/SharedPreferences;Ljava/lang/String;)V",
          "target": "invokevirtual \u003c Application, Ljava/lang/reflect/Method, invoke(Ljava/lang/Object;[Ljava/lang/Object;)Ljava/lang/Object; \u003e@42",
          "type": "",
          "constraintsFile": "constraints25_0.py",
          "variables": {
            "SharedPreferences\u003cBrowserEnableProxySettings\u003e": "IAAv1"
          },
          "stringMap": {},
          "strings": {}
        }
      ]
    },
    "26": {
      "startMethod": "cn.cf.shop_ele.ui.activities.preferences.PreferencesActivity$10.onSharedPreferenceChanged(Landroid/content/SharedPreferences;Ljava/lang/String;)V",
      "targetMethod": "java.lang.reflect.Method.invoke(Ljava/lang/Object;[Ljava/lang/Object;)Ljava/lang/Object;",
      "eventChain": [
        {
          "start": "cn.cf.shop_ele.ui.activities.preferences.PreferencesActivity$10.onSharedPreferenceChanged(Landroid/content/SharedPreferences;Ljava/lang/String;)V",
          "target": "invokevirtual \u003c Application, Ljava/lang/reflect/Method, invoke(Ljava/lang/Object;[Ljava/lang/Object;)Ljava/lang/Object; \u003e@88",
          "type": "",
          "constraintsFile": "constraints26_0.py",
          "variables": {
            "SharedPreferences\u003cBrowserEnableProxySettings\u003e": "IAAv1"
          },
          "stringMap": {},
          "strings": {}
        }
      ]
    },
    "27": {
      "startMethod": "cn.cf.shop_ele.download.DownloadService$DownloadOperationReceiver.onReceive(Landroid/content/Context;Landroid/content/Intent;)V",
      "targetMethod": "java.net.URL.openConnection()Ljava/net/URLConnection;",
      "eventChain": [
        {
          "start": "cn.cf.shop_ele.download.DownloadService.onCreate()V",
          "target": "invokespecial \u003c Application, Landroid/content/BroadcastReceiver, \u003cinit\u003e()V \u003e@7",
          "type": "service",
          "component": "cn.cf.shop_ele.download.DownloadService"
        },
        {
          "start": "cn.cf.shop_ele.download.DownloadService$DownloadOperationReceiver.onReceive(Landroid/content/Context;Landroid/content/Intent;)V",
          "target": "invokevirtual \u003c Application, Ljava/net/URL, openConnection()Ljava/net/URLConnection; \u003e@36",
          "type": "sms",
          "constraintsFile": "constraints27_0.py",
          "variables": {
            "\u003cInput2\u003e.getAction()": "IAAv0"
          },
          "stringMap": {
            "7000": "download_cmd_begin_download"
          },
          "strings": {
            "IAAv0": ""
          }
        }
      ]
    },
    "28": {
      "startMethod": "cn.cf.shop_ele.ui.activities.preferences.PreferencesActivity$12.onClick(Landroid/content/DialogInterface;I)V",
      "targetMethod": "android.content.ContentResolver.delete(Landroid/net/Uri;Ljava/lang/String;[Ljava/lang/String;)I",
      "eventChain": [
        {
          "start": "cn.cf.shop_ele.ui.activities.MainActivity.onCreate(Landroid/os/Bundle;)V",
          "target": "",
          "type": "activity",
          "component": "cn.cf.shop_ele.ui.activities.MainActivity",
          "constraintsFile": "constraints28_0.py",
          "variables": {
            "SharedPreferences\u003cPREFERENCE_BOOKMARKS_DATABASE\u003e": "IAAv3",
            "SharedPreferences\u003cGeneralHideTitleBars\u003e": "IAAv1",
            "SharedPreferences\u003cGeneralFullScreen\u003e": "IAAv0"
          },
          "stringMap": {
            "7000": "STOCK"
          },
          "strings": {
            "IAAv3": ""
          }
        },
        {
          "start": "cn.cf.shop_ele.ui.activities.preferences.PreferencesActivity$12.onClick(Landroid/content/DialogInterface;I)V",
          "target": "invokevirtual \u003c Application, Landroid/content/ContentResolver, delete(Landroid/net/Uri;Ljava/lang/String;[Ljava/lang/String;)I \u003e@262",
          "type": "ui",
          "activities": [
            "cn.cf.shop_ele.ui.activities.MainActivity"
          ],
          "listener": "cn.cf.shop_ele.ui.activities.preferences.PreferencesActivity$12",
          "listenerMethod": "onClick",
          "uiType": "onClick",
          "inDialog": "true"
        }
      ]
    }
  }
}