{
  "packageName": "cmh.cmh",
  "mainActivity": "cmh.cmh.Welcome",
  "callPaths": {
    "0": {
      "startMethod": "cn.domob.android.ads.g$4.onClick(Landroid/content/DialogInterface;I)V",
      "targetMethod": "java.net.URL.openConnection(Ljava/net/Proxy;)Ljava/net/URLConnection;",
      "eventChain": [
        {
          "start": "cn.domob.android.ads.e.onReceive(Landroid/content/Context;Landroid/content/Intent;)V",
          "target": "PC@483",
          "type": "sms",
          "constraintsFile": "constraints0_0.py",
          "variables": {
            "\u003cChainedInput2\u003e.getDataString()": "IAAv2",
            "\u003cChainedInput2\u003e.getAction()": "IAAv0"
          },
          "stringMap": {
            "7000": "android.intent.action.PACKAGE_ADDED",
            "7001": "",
            "7002": "ctwap"
          },
          "strings": {
            "IAAv2": "",
            "IAAv0": ""
          }
        },
        {
          "start": "cn.domob.android.ads.e.onReceive(Landroid/content/Context;Landroid/content/Intent;)V",
          "target": "PC@133",
          "type": "sms",
          "constraintsFile": "constraints0_1.py",
          "variables": {
            "\u003cChainedInput2\u003e.getDataString()": "IAAv2",
            "\u003cChainedInput2\u003e.getAction()": "IAAv0"
          },
          "stringMap": {
            "7000": "android.intent.action.PACKAGE_ADDED"
          },
          "strings": {
            "IAAv2": "",
            "IAAv0": ""
          }
        },
        {
          "start": "cn.domob.android.ads.g$4.onClick(Landroid/content/DialogInterface;I)V",
          "target": "invokevirtual \u003c Application, Ljava/net/URL, openConnection(Ljava/net/Proxy;)Ljava/net/URLConnection; \u003e@73",
          "type": "ui",
          "activities": [
            "cmh.cmh.Welcome"
          ],
          "listener": "cn.domob.android.ads.g$4",
          "listenerMethod": "onClick",
          "uiType": "onClick",
          "inDialog": "true",
          "constraintsFile": "constraints0_2.py",
          "variables": {},
          "stringMap": {},
          "strings": {}
        }
      ]
    },
    "1": {
      "startMethod": "cn.domob.android.ads.g$4.onClick(Landroid/content/DialogInterface;I)V",
      "targetMethod": "java.net.URL.openConnection()Ljava/net/URLConnection;",
      "eventChain": [
        {
          "start": "cn.domob.android.ads.e.onReceive(Landroid/content/Context;Landroid/content/Intent;)V",
          "target": "PC@64",
          "type": "sms",
          "constraintsFile": "constraints1_0.py",
          "variables": {
            "\u003cChainedInput2\u003e.getDataString()": "IAAv3",
            "\u003cChainedInput2\u003e.getAction()": "IAAv1"
          },
          "stringMap": {
            "7000": "android.intent.action.PACKAGE_ADDED"
          },
          "strings": {
            "IAAv3": "",
            "IAAv1": "",
            "IAAv6": ""
          }
        },
        {
          "start": "cn.domob.android.ads.e.onReceive(Landroid/content/Context;Landroid/content/Intent;)V",
          "target": "PC@133",
          "type": "sms",
          "constraintsFile": "constraints1_1.py",
          "variables": {
            "\u003cChainedInput2\u003e.getDataString()": "IAAv2",
            "\u003cChainedInput2\u003e.getAction()": "IAAv0"
          },
          "stringMap": {
            "7000": "android.intent.action.PACKAGE_ADDED"
          },
          "strings": {
            "IAAv2": "",
            "IAAv0": ""
          }
        },
        {
          "start": "cn.domob.android.ads.g$4.onClick(Landroid/content/DialogInterface;I)V",
          "target": "invokevirtual \u003c Application, Ljava/net/URL, openConnection()Ljava/net/URLConnection; \u003e@285",
          "type": "ui",
          "activities": [
            "cmh.cmh.Welcome"
          ],
          "listener": "cn.domob.android.ads.g$4",
          "listenerMethod": "onClick",
          "uiType": "onClick",
          "inDialog": "true",
          "constraintsFile": "constraints1_2.py",
          "variables": {},
          "stringMap": {},
          "strings": {}
        }
      ]
    },
    "2": {
      "startMethod": "cn.appmedia.ad.d.o.onAnimationStart(Landroid/view/animation/Animation;)V",
      "targetMethod": "org.apache.http.client.HttpClient.execute(Lorg/apache/http/client/methods/HttpUriRequest;)Lorg/apache/http/HttpResponse;",
      "eventChain": [
        {
          "start": "cn.appmedia.ad.d.o.onAnimationStart(Landroid/view/animation/Animation;)V",
          "target": "invokevirtual \u003c Application, Landroid/view/animation/Animation, setAnimationListener(Landroid/view/animation/Animation$AnimationListener;)V \u003e@357",
          "type": "ui",
          "activities": [
            "cmh.cmh.Welcome"
          ],
          "listener": "cn.appmedia.ad.d.o",
          "listenerMethod": "onAnimationStart",
          "uiType": "onAnimationStart"
        },
        {
          "start": "cn.appmedia.ad.d.o.onAnimationStart(Landroid/view/animation/Animation;)V",
          "target": "invokeinterface \u003c Application, Lorg/apache/http/client/HttpClient, execute(Lorg/apache/http/client/methods/HttpUriRequest;)Lorg/apache/http/HttpResponse; \u003e@135",
          "type": "ui",
          "activities": [
            "cmh.cmh.Welcome"
          ],
          "listener": "cn.appmedia.ad.d.o",
          "listenerMethod": "onAnimationStart",
          "uiType": "onAnimationStart"
        }
      ]
    },
    "3": {
      "startMethod": "cn.appmedia.ad.d.b.onAnimationStart(Landroid/view/animation/Animation;)V",
      "targetMethod": "org.apache.http.client.HttpClient.execute(Lorg/apache/http/client/methods/HttpUriRequest;)Lorg/apache/http/HttpResponse;",
      "eventChain": [
        {
          "start": "cn.appmedia.ad.d.o.onAnimationStart(Landroid/view/animation/Animation;)V",
          "target": "invokevirtual \u003c Application, Landroid/view/animation/Animation, setAnimationListener(Landroid/view/animation/Animation$AnimationListener;)V \u003e@289",
          "type": "ui",
          "activities": [
            "cmh.cmh.Welcome"
          ],
          "listener": "cn.appmedia.ad.d.o",
          "listenerMethod": "onAnimationStart",
          "uiType": "onAnimationStart"
        },
        {
          "start": "cn.appmedia.ad.d.b.onAnimationStart(Landroid/view/animation/Animation;)V",
          "target": "invokeinterface \u003c Application, Lorg/apache/http/client/HttpClient, execute(Lorg/apache/http/client/methods/HttpUriRequest;)Lorg/apache/http/HttpResponse; \u003e@135",
          "type": "ui",
          "activities": [
            "cmh.cmh.Welcome"
          ],
          "listener": "cn.appmedia.ad.d.b",
          "listenerMethod": "onAnimationStart",
          "uiType": "onAnimationStart",
          "constraintsFile": "constraints3_0.py",
          "variables": {},
          "stringMap": {
            "7000": ""
          },
          "strings": {
            "IAAv7": ""
          }
        }
      ]
    },
    "4": {
      "startMethod": "cn.domob.android.ads.e.onReceive(Landroid/content/Context;Landroid/content/Intent;)V",
      "targetMethod": "java.net.URL.openConnection()Ljava/net/URLConnection;",
      "eventChain": [
        {
          "start": "cn.domob.android.ads.g$1.onClick(Landroid/content/DialogInterface;I)V",
          "target": "invokevirtual \u003c Application, Landroid/content/Context, registerReceiver(Landroid/content/BroadcastReceiver;Landroid/content/IntentFilter;)Landroid/content/Intent; \u003e@57",
          "type": "ui",
          "activities": [
            "cmh.cmh.Welcome"
          ],
          "listener": "cn.domob.android.ads.g$1",
          "listenerMethod": "onClick",
          "uiType": "onClick",
          "inDialog": "true"
        },
        {
          "start": "cn.domob.android.ads.e.onReceive(Landroid/content/Context;Landroid/content/Intent;)V",
          "target": "PC@64",
          "type": "sms",
          "constraintsFile": "constraints4_0.py",
          "variables": {
            "\u003cChainedInput2\u003e.getDataString()": "IAAv2",
            "\u003cChainedInput2\u003e.getAction()": "IAAv0"
          },
          "stringMap": {
            "7000": "android.intent.action.PACKAGE_ADDED"
          },
          "strings": {
            "IAAv2": "",
            "IAAv0": "",
            "IAAv6": ""
          }
        },
        {
          "start": "cn.domob.android.ads.e.onReceive(Landroid/content/Context;Landroid/content/Intent;)V",
          "target": "PC@133",
          "type": "sms",
          "constraintsFile": "constraints4_1.py",
          "variables": {
            "\u003cChainedInput2\u003e.getDataString()": "IAAv2",
            "\u003cChainedInput2\u003e.getAction()": "IAAv0"
          },
          "stringMap": {
            "7000": "android.intent.action.PACKAGE_ADDED"
          },
          "strings": {
            "IAAv2": "",
            "IAAv0": ""
          }
        },
        {
          "start": "cn.domob.android.ads.e.onReceive(Landroid/content/Context;Landroid/content/Intent;)V",
          "target": "invokevirtual \u003c Application, Ljava/net/URL, openConnection()Ljava/net/URLConnection; \u003e@285",
          "type": "sms",
          "constraintsFile": "constraints4_2.py",
          "variables": {
            "\u003cChainedInput2\u003e.getDataString()": "IAAv2",
            "\u003cChainedInput2\u003e.getAction()": "IAAv0"
          },
          "stringMap": {
            "7000": "android.intent.action.PACKAGE_ADDED"
          },
          "strings": {
            "IAAv2": "",
            "IAAv0": ""
          }
        }
      ]
    },
    "5": {
      "startMethod": "cn.domob.android.ads.e.onReceive(Landroid/content/Context;Landroid/content/Intent;)V",
      "targetMethod": "java.net.URL.openConnection(Ljava/net/Proxy;)Ljava/net/URLConnection;",
      "eventChain": [
        {
          "start": "cn.domob.android.ads.g$1.onClick(Landroid/content/DialogInterface;I)V",
          "target": "invokevirtual \u003c Application, Landroid/content/Context, registerReceiver(Landroid/content/BroadcastReceiver;Landroid/content/IntentFilter;)Landroid/content/Intent; \u003e@57",
          "type": "ui",
          "activities": [
            "cmh.cmh.Welcome"
          ],
          "listener": "cn.domob.android.ads.g$1",
          "listenerMethod": "onClick",
          "uiType": "onClick",
          "inDialog": "true"
        },
        {
          "start": "cn.domob.android.ads.e.onReceive(Landroid/content/Context;Landroid/content/Intent;)V",
          "target": "PC@483",
          "type": "sms",
          "constraintsFile": "constraints5_0.py",
          "variables": {
            "\u003cChainedInput2\u003e.getDataString()": "IAAv2",
            "\u003cChainedInput2\u003e.getAction()": "IAAv0"
          },
          "stringMap": {
            "7000": "android.intent.action.PACKAGE_ADDED",
            "7001": "",
            "7002": "ctwap"
          },
          "strings": {
            "IAAv2": "",
            "IAAv0": ""
          }
        },
        {
          "start": "cn.domob.android.ads.e.onReceive(Landroid/content/Context;Landroid/content/Intent;)V",
          "target": "PC@133",
          "type": "sms",
          "constraintsFile": "constraints5_1.py",
          "variables": {
            "\u003cChainedInput2\u003e.getDataString()": "IAAv2",
            "\u003cChainedInput2\u003e.getAction()": "IAAv0"
          },
          "stringMap": {
            "7000": "android.intent.action.PACKAGE_ADDED"
          },
          "strings": {
            "IAAv2": "",
            "IAAv0": ""
          }
        },
        {
          "start": "cn.domob.android.ads.e.onReceive(Landroid/content/Context;Landroid/content/Intent;)V",
          "target": "invokevirtual \u003c Application, Ljava/net/URL, openConnection(Ljava/net/Proxy;)Ljava/net/URLConnection; \u003e@73",
          "type": "sms",
          "constraintsFile": "constraints5_2.py",
          "variables": {
            "\u003cChainedInput2\u003e.getDataString()": "IAAv2",
            "\u003cChainedInput2\u003e.getAction()": "IAAv0"
          },
          "stringMap": {
            "7000": "android.intent.action.PACKAGE_ADDED"
          },
          "strings": {
            "IAAv2": "",
            "IAAv0": ""
          }
        }
      ]
    }
  }
}