{
  "packageName": "com.fungames777.casino",
  "mainActivity": "com.fungames777.casino.StartActivity",
  "callPaths": {
    "0": {
      "startMethod": "com.facebook.LoginActivity.onResume()V",
      "targetMethod": "java.lang.reflect.Method.invoke(Ljava/lang/Object;[Ljava/lang/Object;)Ljava/lang/Object;",
      "eventChain": [
        {
          "start": "com.facebook.widget.LoginButton$LoginClickListener.onClick(Landroid/view/View;)V",
          "target": "PC@18",
          "type": "ui",
          "activities": [
            "com.fungames777.casino.StartActivity"
          ],
          "listener": "com.facebook.widget.LoginButton$LoginClickListener",
          "listenerMethod": "onClick",
          "uiType": "onClick",
          "constraintsFile": "constraints0_0.py",
          "variables": {},
          "stringMap": {
            "7000": ""
          },
          "strings": {
            "IAAv21": "",
            "IAAv19": ""
          }
        },
        {
          "start": "com.facebook.widget.LoginButton$LoginClickListener.onClick(Landroid/view/View;)V",
          "target": "PC@29",
          "type": "ui",
          "activities": [
            "com.fungames777.casino.StartActivity"
          ],
          "listener": "com.facebook.widget.LoginButton$LoginClickListener",
          "listenerMethod": "onClick",
          "uiType": "onClick",
          "constraintsFile": "constraints0_1.py",
          "variables": {},
          "stringMap": {
            "7000": ""
          },
          "strings": {
            "IAAv21": "",
            "IAAv19": ""
          }
        },
        {
          "start": "com.facebook.LoginActivity.onCreate(Landroid/os/Bundle;)V",
          "target": "PC@30",
          "type": "activity",
          "component": "com.facebook.LoginActivity",
          "constraintsFile": "constraints0_2.py",
          "variables": {
            "\u003cInput1\u003e": "IAAv13"
          },
          "stringMap": {},
          "strings": {
            "IAAv8": ""
          }
        },
        {
          "start": "com.facebook.LoginActivity.onResume()V",
          "target": "invokevirtual \u003c Application, Ljava/lang/reflect/Method, invoke(Ljava/lang/Object;[Ljava/lang/Object;)Ljava/lang/Object; \u003e@48",
          "type": "activity",
          "component": "com.facebook.LoginActivity",
          "constraintsFile": "constraints0_3.py",
          "variables": {},
          "stringMap": {},
          "strings": {
            "IAAv8": ""
          }
        }
      ]
    },
    "1": {
      "startMethod": "com.facebook.LoginActivity.onResume()V",
      "targetMethod": "java.net.URL.openConnection()Ljava/net/URLConnection;",
      "eventChain": [
        {
          "start": "com.facebook.widget.LoginButton$LoginClickListener.onClick(Landroid/view/View;)V",
          "target": "PC@18",
          "type": "ui",
          "activities": [
            "com.fungames777.casino.StartActivity"
          ],
          "listener": "com.facebook.widget.LoginButton$LoginClickListener",
          "listenerMethod": "onClick",
          "uiType": "onClick",
          "constraintsFile": "constraints1_0.py",
          "variables": {},
          "stringMap": {
            "7000": ""
          },
          "strings": {
            "IAAv21": "",
            "IAAv19": ""
          }
        },
        {
          "start": "com.facebook.widget.LoginButton$LoginClickListener.onClick(Landroid/view/View;)V",
          "target": "PC@29",
          "type": "ui",
          "activities": [
            "com.fungames777.casino.StartActivity"
          ],
          "listener": "com.facebook.widget.LoginButton$LoginClickListener",
          "listenerMethod": "onClick",
          "uiType": "onClick",
          "constraintsFile": "constraints1_1.py",
          "variables": {},
          "stringMap": {
            "7000": ""
          },
          "strings": {
            "IAAv21": "",
            "IAAv19": ""
          }
        },
        {
          "start": "com.facebook.LoginActivity.onCreate(Landroid/os/Bundle;)V",
          "target": "PC@30",
          "type": "activity",
          "component": "com.facebook.LoginActivity",
          "constraintsFile": "constraints1_2.py",
          "variables": {
            "\u003cInput1\u003e": "IAAv13"
          },
          "stringMap": {},
          "strings": {
            "IAAv8": ""
          }
        },
        {
          "start": "com.facebook.LoginActivity.onResume()V",
          "target": "invokevirtual \u003c Application, Ljava/net/URL, openConnection()Ljava/net/URLConnection; \u003e@2",
          "type": "activity",
          "component": "com.facebook.LoginActivity",
          "constraintsFile": "constraints1_3.py",
          "variables": {},
          "stringMap": {},
          "strings": {
            "IAAv8": ""
          }
        }
      ]
    },
    "2": {
      "startMethod": "com.facebook.unity.FBUnityLoginActivity.onCreate(Landroid/os/Bundle;)V",
      "targetMethod": "java.net.URL.openConnection()Ljava/net/URLConnection;",
      "eventChain": [
        {
          "start": "com.facebook.unity.FBUnityLoginActivity.onCreate(Landroid/os/Bundle;)V",
          "target": "invokevirtual \u003c Application, Ljava/net/URL, openConnection()Ljava/net/URLConnection; \u003e@2",
          "type": "activity",
          "component": "com.facebook.unity.FBUnityLoginActivity"
        }
      ]
    },
    "3": {
      "startMethod": "com.facebook.unity.FBUnityLoginActivity.onCreate(Landroid/os/Bundle;)V",
      "targetMethod": "java.lang.reflect.Method.invoke(Ljava/lang/Object;[Ljava/lang/Object;)Ljava/lang/Object;",
      "eventChain": [
        {
          "start": "com.facebook.unity.FBUnityLoginActivity.onCreate(Landroid/os/Bundle;)V",
          "target": "invokevirtual \u003c Application, Ljava/lang/reflect/Method, invoke(Ljava/lang/Object;[Ljava/lang/Object;)Ljava/lang/Object; \u003e@48",
          "type": "activity",
          "component": "com.facebook.unity.FBUnityLoginActivity"
        }
      ]
    },
    "4": {
      "startMethod": "com.c4mprod.ezcodescanner.camera.CameraActivity.onStart()V",
      "targetMethod": "java.lang.reflect.Method.invoke(Ljava/lang/Object;[Ljava/lang/Object;)Ljava/lang/Object;",
      "eventChain": [
        {
          "start": "com.c4mprod.ezcodescanner.camera.CameraActivity.onStart()V",
          "target": "invokevirtual \u003c Application, Ljava/lang/reflect/Method, invoke(Ljava/lang/Object;[Ljava/lang/Object;)Ljava/lang/Object; \u003e@129",
          "type": "activity",
          "component": "com.c4mprod.ezcodescanner.camera.CameraActivity"
        }
      ]
    },
    "5": {
      "startMethod": "com.facebook.widget.LoginButton$LoginClickListener$1.onClick(Landroid/content/DialogInterface;I)V",
      "targetMethod": "java.lang.reflect.Method.invoke(Ljava/lang/Object;[Ljava/lang/Object;)Ljava/lang/Object;",
      "eventChain": [
        {
          "start": "com.facebook.widget.LoginButton$LoginClickListener.onClick(Landroid/view/View;)V",
          "target": "invokevirtual \u003c Application, Landroid/app/AlertDialog$Builder, setPositiveButton(Ljava/lang/CharSequence;Landroid/content/DialogInterface$OnClickListener;)Landroid/app/AlertDialog$Builder; \u003e@282",
          "type": "ui",
          "activities": [
            "com.fungames777.casino.StartActivity"
          ],
          "listener": "com.facebook.widget.LoginButton$LoginClickListener",
          "listenerMethod": "onClick",
          "uiType": "onClick",
          "constraintsFile": "constraints5_0.py",
          "variables": {},
          "stringMap": {},
          "strings": {
            "IAAv3": ""
          }
        },
        {
          "start": "com.facebook.widget.LoginButton$LoginClickListener$1.onClick(Landroid/content/DialogInterface;I)V",
          "target": "invokevirtual \u003c Application, Ljava/lang/reflect/Method, invoke(Ljava/lang/Object;[Ljava/lang/Object;)Ljava/lang/Object; \u003e@48",
          "type": "ui",
          "activities": [
            "com.fungames777.casino.StartActivity"
          ],
          "listener": "com.facebook.widget.LoginButton$LoginClickListener$1",
          "listenerMethod": "onClick",
          "uiType": "onClick",
          "inDialog": "true",
          "constraintsFile": "constraints5_1.py",
          "variables": {},
          "stringMap": {
            "7000": ""
          },
          "strings": {
            "IAAv14": ""
          }
        }
      ]
    },
    "6": {
      "startMethod": "com.facebook.widget.LoginButton$LoginClickListener$1.onClick(Landroid/content/DialogInterface;I)V",
      "targetMethod": "java.net.URL.openConnection()Ljava/net/URLConnection;",
      "eventChain": [
        {
          "start": "com.facebook.widget.LoginButton$LoginClickListener.onClick(Landroid/view/View;)V",
          "target": "invokevirtual \u003c Application, Landroid/app/AlertDialog$Builder, setPositiveButton(Ljava/lang/CharSequence;Landroid/content/DialogInterface$OnClickListener;)Landroid/app/AlertDialog$Builder; \u003e@282",
          "type": "ui",
          "activities": [
            "com.fungames777.casino.StartActivity"
          ],
          "listener": "com.facebook.widget.LoginButton$LoginClickListener",
          "listenerMethod": "onClick",
          "uiType": "onClick",
          "constraintsFile": "constraints6_0.py",
          "variables": {},
          "stringMap": {},
          "strings": {
            "IAAv3": ""
          }
        },
        {
          "start": "com.facebook.widget.LoginButton$LoginClickListener.onClick(Landroid/view/View;)V",
          "target": "PC@96",
          "type": "ui",
          "activities": [
            "com.fungames777.casino.StartActivity"
          ],
          "listener": "com.facebook.widget.LoginButton$LoginClickListener",
          "listenerMethod": "onClick",
          "uiType": "onClick",
          "constraintsFile": "constraints6_1.py",
          "variables": {},
          "stringMap": {
            "7000": ""
          },
          "strings": {
            "IAAv37": "",
            "IAAv12": "",
            "IAAv14": "",
            "IAAv29": ""
          }
        },
        {
          "start": "com.facebook.widget.LoginButton$LoginClickListener.onClick(Landroid/view/View;)V",
          "target": "PC@24",
          "type": "ui",
          "activities": [
            "com.fungames777.casino.StartActivity"
          ],
          "listener": "com.facebook.widget.LoginButton$LoginClickListener",
          "listenerMethod": "onClick",
          "uiType": "onClick",
          "constraintsFile": "constraints6_2.py",
          "variables": {},
          "stringMap": {
            "7000": ""
          },
          "strings": {
            "IAAv12": "",
            "IAAv14": "",
            "IAAv29": ""
          }
        },
        {
          "start": "com.facebook.widget.LoginButton$LoginClickListener.onClick(Landroid/view/View;)V",
          "target": "PC@54",
          "type": "ui",
          "activities": [
            "com.fungames777.casino.StartActivity"
          ],
          "listener": "com.facebook.widget.LoginButton$LoginClickListener",
          "listenerMethod": "onClick",
          "uiType": "onClick",
          "constraintsFile": "constraints6_3.py",
          "variables": {},
          "stringMap": {
            "7000": ""
          },
          "strings": {
            "IAAv21": "",
            "IAAv19": ""
          }
        },
        {
          "start": "com.facebook.widget.LoginButton$LoginClickListener.onClick(Landroid/view/View;)V",
          "target": "PC@12",
          "type": "ui",
          "activities": [
            "com.fungames777.casino.StartActivity"
          ],
          "listener": "com.facebook.widget.LoginButton$LoginClickListener",
          "listenerMethod": "onClick",
          "uiType": "onClick",
          "constraintsFile": "constraints6_4.py",
          "variables": {},
          "stringMap": {
            "7000": ""
          },
          "strings": {
            "IAAv12": "",
            "IAAv14": "",
            "IAAv29": ""
          }
        },
        {
          "start": "com.facebook.widget.LoginButton$LoginClickListener.onClick(Landroid/view/View;)V",
          "target": "PC@118",
          "type": "ui",
          "activities": [
            "com.fungames777.casino.StartActivity"
          ],
          "listener": "com.facebook.widget.LoginButton$LoginClickListener",
          "listenerMethod": "onClick",
          "uiType": "onClick",
          "constraintsFile": "constraints6_5.py",
          "variables": {},
          "stringMap": {
            "7000": ""
          },
          "strings": {
            "IAAv12": "",
            "IAAv14": "",
            "IAAv28": ""
          }
        },
        {
          "start": "com.facebook.widget.LoginButton$LoginClickListener$1.onClick(Landroid/content/DialogInterface;I)V",
          "target": "invokevirtual \u003c Application, Ljava/net/URL, openConnection()Ljava/net/URLConnection; \u003e@2",
          "type": "ui",
          "activities": [
            "com.fungames777.casino.StartActivity"
          ],
          "listener": "com.facebook.widget.LoginButton$LoginClickListener$1",
          "listenerMethod": "onClick",
          "uiType": "onClick",
          "inDialog": "true",
          "constraintsFile": "constraints6_6.py",
          "variables": {},
          "stringMap": {
            "7000": ""
          },
          "strings": {
            "IAAv12": "",
            "IAAv14": "",
            "IAAv29": ""
          }
        }
      ]
    },
    "7": {
      "startMethod": "com.facebook.widget.LoginButton$LoginClickListener.onClick(Landroid/view/View;)V",
      "targetMethod": "java.net.URL.openConnection()Ljava/net/URLConnection;",
      "eventChain": [
        {
          "start": "com.facebook.widget.LoginButton$LoginClickListener.onClick(Landroid/view/View;)V",
          "target": "PC@96",
          "type": "ui",
          "activities": [
            "com.fungames777.casino.StartActivity"
          ],
          "listener": "com.facebook.widget.LoginButton$LoginClickListener",
          "listenerMethod": "onClick",
          "uiType": "onClick",
          "constraintsFile": "constraints7_0.py",
          "variables": {},
          "stringMap": {
            "7000": ""
          },
          "strings": {
            "IAAv36": "",
            "IAAv21": "",
            "IAAv41": "",
            "IAAv19": ""
          }
        },
        {
          "start": "com.facebook.widget.LoginButton$LoginClickListener.onClick(Landroid/view/View;)V",
          "target": "PC@24",
          "type": "ui",
          "activities": [
            "com.fungames777.casino.StartActivity"
          ],
          "listener": "com.facebook.widget.LoginButton$LoginClickListener",
          "listenerMethod": "onClick",
          "uiType": "onClick",
          "constraintsFile": "constraints7_1.py",
          "variables": {},
          "stringMap": {
            "7000": ""
          },
          "strings": {
            "IAAv36": "",
            "IAAv21": "",
            "IAAv19": ""
          }
        },
        {
          "start": "com.facebook.widget.LoginButton$LoginClickListener.onClick(Landroid/view/View;)V",
          "target": "PC@54",
          "type": "ui",
          "activities": [
            "com.fungames777.casino.StartActivity"
          ],
          "listener": "com.facebook.widget.LoginButton$LoginClickListener",
          "listenerMethod": "onClick",
          "uiType": "onClick",
          "constraintsFile": "constraints7_2.py",
          "variables": {},
          "stringMap": {
            "7000": ""
          },
          "strings": {
            "IAAv21": "",
            "IAAv19": ""
          }
        },
        {
          "start": "com.facebook.widget.LoginButton$LoginClickListener.onClick(Landroid/view/View;)V",
          "target": "PC@12",
          "type": "ui",
          "activities": [
            "com.fungames777.casino.StartActivity"
          ],
          "listener": "com.facebook.widget.LoginButton$LoginClickListener",
          "listenerMethod": "onClick",
          "uiType": "onClick",
          "constraintsFile": "constraints7_3.py",
          "variables": {},
          "stringMap": {
            "7000": ""
          },
          "strings": {
            "IAAv36": "",
            "IAAv21": "",
            "IAAv19": ""
          }
        },
        {
          "start": "com.facebook.widget.LoginButton$LoginClickListener.onClick(Landroid/view/View;)V",
          "target": "PC@118",
          "type": "ui",
          "activities": [
            "com.fungames777.casino.StartActivity"
          ],
          "listener": "com.facebook.widget.LoginButton$LoginClickListener",
          "listenerMethod": "onClick",
          "uiType": "onClick",
          "constraintsFile": "constraints7_4.py",
          "variables": {},
          "stringMap": {
            "7000": ""
          },
          "strings": {
            "IAAv21": "",
            "IAAv35": "",
            "IAAv19": ""
          }
        },
        {
          "start": "com.facebook.widget.LoginButton$LoginClickListener.onClick(Landroid/view/View;)V",
          "target": "invokevirtual \u003c Application, Ljava/net/URL, openConnection()Ljava/net/URLConnection; \u003e@2",
          "type": "ui",
          "activities": [
            "com.fungames777.casino.StartActivity"
          ],
          "listener": "com.facebook.widget.LoginButton$LoginClickListener",
          "listenerMethod": "onClick",
          "uiType": "onClick",
          "constraintsFile": "constraints7_5.py",
          "variables": {},
          "stringMap": {
            "7000": ""
          },
          "strings": {
            "IAAv36": "",
            "IAAv21": "",
            "IAAv19": ""
          }
        }
      ]
    },
    "8": {
      "startMethod": "com.facebook.widget.LoginButton$LoginClickListener.onClick(Landroid/view/View;)V",
      "targetMethod": "java.lang.reflect.Method.invoke(Ljava/lang/Object;[Ljava/lang/Object;)Ljava/lang/Object;",
      "eventChain": [
        {
          "start": "com.facebook.widget.LoginButton$LoginClickListener.onClick(Landroid/view/View;)V",
          "target": "invokevirtual \u003c Application, Ljava/lang/reflect/Method, invoke(Ljava/lang/Object;[Ljava/lang/Object;)Ljava/lang/Object; \u003e@48",
          "type": "ui",
          "activities": [
            "com.fungames777.casino.StartActivity"
          ],
          "listener": "com.facebook.widget.LoginButton$LoginClickListener",
          "listenerMethod": "onClick",
          "uiType": "onClick",
          "constraintsFile": "constraints8_0.py",
          "variables": {},
          "stringMap": {
            "7000": ""
          },
          "strings": {
            "IAAv21": ""
          }
        }
      ]
    }
  }
}