{
  "packageName": "com.xexpress.transportupdate",
  "mainActivity": "md5a97e0ef152a7178fd6f5baaa71d2dffb.SplashScreen",
  "callPaths": {
    "0": {
      "startMethod": "com.google.android.gms.maps.StreetViewPanoramaFragment.onCreate(Landroid/os/Bundle;)V",
      "targetMethod": "java.lang.ClassLoader.loadClass(Ljava/lang/String;)Ljava/lang/Class;",
      "eventChain": [
        {
          "start": "com.google.android.gms.maps.StreetViewPanoramaFragment.onResume()V",
          "target": "invokespecial \u003c Application, Landroid/app/Fragment, onResume()V \u003e@2",
          "type": ""
        },
        {
          "start": "com.google.android.gms.maps.StreetViewPanoramaFragment.onCreate(Landroid/os/Bundle;)V",
          "target": "invokevirtual \u003c Application, Ljava/lang/ClassLoader, loadClass(Ljava/lang/String;)Ljava/lang/Class; \u003e@13",
          "type": "",
          "constraintsFile": "constraints0_0.py",
          "variables": {
            "\u003cChainedInput1\u003e": "IAAv2"
          },
          "stringMap": {},
          "strings": {}
        }
      ]
    },
    "1": {
      "startMethod": "com.google.android.gms.maps.StreetViewPanoramaFragment.onAttach(Landroid/app/Activity;)V",
      "targetMethod": "java.lang.ClassLoader.loadClass(Ljava/lang/String;)Ljava/lang/Class;",
      "eventChain": [
        {
          "start": "com.google.android.gms.maps.StreetViewPanoramaFragment.onResume()V",
          "target": "invokespecial \u003c Application, Landroid/app/Fragment, onResume()V \u003e@2",
          "type": ""
        },
        {
          "start": "com.google.android.gms.maps.StreetViewPanoramaFragment.onCreate(Landroid/os/Bundle;)V",
          "target": "",
          "type": "",
          "constraintsFile": "constraints1_0.py",
          "variables": {
            "\u003cChainedInput1\u003e": "IAAv7"
          },
          "stringMap": {},
          "strings": {}
        },
        {
          "start": "com.google.android.gms.maps.StreetViewPanoramaFragment.onCreate(Landroid/os/Bundle;)V",
          "target": "",
          "type": "",
          "constraintsFile": "constraints1_1.py",
          "variables": {
            "\u003cChainedInput1\u003e": "IAAv7"
          },
          "stringMap": {},
          "strings": {}
        },
        {
          "start": "com.google.android.gms.maps.StreetViewPanoramaFragment.onAttach(Landroid/app/Activity;)V",
          "target": "invokevirtual \u003c Application, Ljava/lang/ClassLoader, loadClass(Ljava/lang/String;)Ljava/lang/Class; \u003e@13",
          "type": "",
          "constraintsFile": "constraints1_2.py",
          "variables": {},
          "stringMap": {},
          "strings": {}
        }
      ]
    },
    "2": {
      "startMethod": "com.google.android.gms.maps.MapFragment.onResume()V",
      "targetMethod": "java.lang.ClassLoader.loadClass(Ljava/lang/String;)Ljava/lang/Class;",
      "eventChain": [
        {
          "start": "com.google.android.gms.maps.MapFragment.onDestroy()V",
          "target": "invokespecial \u003c Application, Landroid/app/Fragment, onDestroy()V \u003e@11",
          "type": ""
        },
        {
          "start": "com.google.android.gms.maps.MapFragment.onResume()V",
          "target": "invokevirtual \u003c Application, Ljava/lang/ClassLoader, loadClass(Ljava/lang/String;)Ljava/lang/Class; \u003e@13",
          "type": "",
          "constraintsFile": "constraints2_0.py",
          "variables": {},
          "stringMap": {},
          "strings": {}
        }
      ]
    },
    "3": {
      "startMethod": "com.google.android.gms.maps.StreetViewPanoramaFragment.onCreateView(Landroid/view/LayoutInflater;Landroid/view/ViewGroup;Landroid/os/Bundle;)Landroid/view/View;",
      "targetMethod": "java.lang.ClassLoader.loadClass(Ljava/lang/String;)Ljava/lang/Class;",
      "eventChain": [
        {
          "start": "com.google.android.gms.maps.StreetViewPanoramaFragment.onResume()V",
          "target": "invokespecial \u003c Application, Landroid/app/Fragment, onResume()V \u003e@2",
          "type": ""
        },
        {
          "start": "com.google.android.gms.maps.StreetViewPanoramaFragment.onCreateView(Landroid/view/LayoutInflater;Landroid/view/ViewGroup;Landroid/os/Bundle;)Landroid/view/View;",
          "target": "invokevirtual \u003c Application, Ljava/lang/ClassLoader, loadClass(Ljava/lang/String;)Ljava/lang/Class; \u003e@13",
          "type": "",
          "constraintsFile": "constraints3_0.py",
          "variables": {
            "\u003cChainedInput3\u003e": "IAAv2"
          },
          "stringMap": {},
          "strings": {}
        }
      ]
    },
    "4": {
      "startMethod": "com.google.android.gms.maps.MapFragment.onCreate(Landroid/os/Bundle;)V",
      "targetMethod": "java.lang.ClassLoader.loadClass(Ljava/lang/String;)Ljava/lang/Class;",
      "eventChain": [
        {
          "start": "com.google.android.gms.maps.MapFragment.onDestroy()V",
          "target": "invokespecial \u003c Application, Landroid/app/Fragment, onDestroy()V \u003e@11",
          "type": ""
        },
        {
          "start": "com.google.android.gms.maps.MapFragment.onCreate(Landroid/os/Bundle;)V",
          "target": "invokevirtual \u003c Application, Ljava/lang/ClassLoader, loadClass(Ljava/lang/String;)Ljava/lang/Class; \u003e@13",
          "type": "",
          "constraintsFile": "constraints4_0.py",
          "variables": {
            "\u003cChainedInput1\u003e": "IAAv2"
          },
          "stringMap": {},
          "strings": {}
        }
      ]
    },
    "5": {
      "startMethod": "com.google.android.gms.maps.MapFragment.onAttach(Landroid/app/Activity;)V",
      "targetMethod": "java.lang.ClassLoader.loadClass(Ljava/lang/String;)Ljava/lang/Class;",
      "eventChain": [
        {
          "start": "com.google.android.gms.maps.MapFragment.onDestroy()V",
          "target": "invokespecial \u003c Application, Landroid/app/Fragment, onDestroy()V \u003e@11",
          "type": ""
        },
        {
          "start": "com.google.android.gms.maps.StreetViewPanoramaFragment.onCreate(Landroid/os/Bundle;)V",
          "target": "",
          "type": "",
          "constraintsFile": "constraints5_0.py",
          "variables": {
            "\u003cChainedInput1\u003e": "IAAv7"
          },
          "stringMap": {},
          "strings": {}
        },
        {
          "start": "com.google.android.gms.maps.StreetViewPanoramaFragment.onCreate(Landroid/os/Bundle;)V",
          "target": "",
          "type": "",
          "constraintsFile": "constraints5_1.py",
          "variables": {
            "\u003cChainedInput1\u003e": "IAAv7"
          },
          "stringMap": {},
          "strings": {}
        },
        {
          "start": "com.google.android.gms.maps.MapFragment.onAttach(Landroid/app/Activity;)V",
          "target": "invokevirtual \u003c Application, Ljava/lang/ClassLoader, loadClass(Ljava/lang/String;)Ljava/lang/Class; \u003e@13",
          "type": "",
          "constraintsFile": "constraints5_2.py",
          "variables": {},
          "stringMap": {},
          "strings": {}
        }
      ]
    },
    "6": {
      "startMethod": "com.google.android.gms.maps.MapFragment.onCreateView(Landroid/view/LayoutInflater;Landroid/view/ViewGroup;Landroid/os/Bundle;)Landroid/view/View;",
      "targetMethod": "java.lang.ClassLoader.loadClass(Ljava/lang/String;)Ljava/lang/Class;",
      "eventChain": [
        {
          "start": "com.google.android.gms.maps.MapFragment.onDestroy()V",
          "target": "invokespecial \u003c Application, Landroid/app/Fragment, onDestroy()V \u003e@11",
          "type": ""
        },
        {
          "start": "com.google.android.gms.maps.MapFragment.onCreateView(Landroid/view/LayoutInflater;Landroid/view/ViewGroup;Landroid/os/Bundle;)Landroid/view/View;",
          "target": "invokevirtual \u003c Application, Ljava/lang/ClassLoader, loadClass(Ljava/lang/String;)Ljava/lang/Class; \u003e@13",
          "type": "",
          "constraintsFile": "constraints6_0.py",
          "variables": {
            "\u003cChainedInput3\u003e": "IAAv2"
          },
          "stringMap": {},
          "strings": {}
        }
      ]
    },
    "7": {
      "startMethod": "com.google.android.gms.maps.StreetViewPanoramaFragment.onResume()V",
      "targetMethod": "java.lang.ClassLoader.loadClass(Ljava/lang/String;)Ljava/lang/Class;",
      "eventChain": [
        {
          "start": "com.google.android.gms.maps.StreetViewPanoramaFragment.onResume()V",
          "target": "invokespecial \u003c Application, Landroid/app/Fragment, onResume()V \u003e@2",
          "type": ""
        },
        {
          "start": "com.google.android.gms.maps.StreetViewPanoramaFragment.onResume()V",
          "target": "invokevirtual \u003c Application, Ljava/lang/ClassLoader, loadClass(Ljava/lang/String;)Ljava/lang/Class; \u003e@13",
          "type": "",
          "constraintsFile": "constraints7_0.py",
          "variables": {},
          "stringMap": {},
          "strings": {}
        }
      ]
    },
    "8": {
      "startMethod": "com.google.android.gms.maps.StreetViewPanoramaFragment.onInflate(Landroid/app/Activity;Landroid/util/AttributeSet;Landroid/os/Bundle;)V",
      "targetMethod": "java.lang.ClassLoader.loadClass(Ljava/lang/String;)Ljava/lang/Class;",
      "eventChain": [
        {
          "start": "com.google.android.gms.maps.StreetViewPanoramaFragment.onResume()V",
          "target": "invokespecial \u003c Application, Landroid/app/Fragment, onResume()V \u003e@2",
          "type": ""
        },
        {
          "start": "com.google.android.gms.maps.StreetViewPanoramaFragment.onCreate(Landroid/os/Bundle;)V",
          "target": "",
          "type": "",
          "constraintsFile": "constraints8_0.py",
          "variables": {
            "\u003cChainedInput1\u003e": "IAAv7"
          },
          "stringMap": {},
          "strings": {}
        },
        {
          "start": "com.google.android.gms.maps.StreetViewPanoramaFragment.onCreate(Landroid/os/Bundle;)V",
          "target": "",
          "type": "",
          "constraintsFile": "constraints8_1.py",
          "variables": {
            "\u003cChainedInput1\u003e": "IAAv7"
          },
          "stringMap": {},
          "strings": {}
        },
        {
          "start": "com.google.android.gms.maps.StreetViewPanoramaFragment.onInflate(Landroid/app/Activity;Landroid/util/AttributeSet;Landroid/os/Bundle;)V",
          "target": "invokevirtual \u003c Application, Ljava/lang/ClassLoader, loadClass(Ljava/lang/String;)Ljava/lang/Class; \u003e@13",
          "type": "",
          "constraintsFile": "constraints8_2.py",
          "variables": {},
          "stringMap": {},
          "strings": {}
        }
      ]
    },
    "9": {
      "startMethod": "com.google.android.gms.maps.MapFragment.onInflate(Landroid/app/Activity;Landroid/util/AttributeSet;Landroid/os/Bundle;)V",
      "targetMethod": "java.lang.ClassLoader.loadClass(Ljava/lang/String;)Ljava/lang/Class;",
      "eventChain": [
        {
          "start": "com.google.android.gms.maps.MapFragment.onDestroy()V",
          "target": "invokespecial \u003c Application, Landroid/app/Fragment, onDestroy()V \u003e@11",
          "type": ""
        },
        {
          "start": "com.google.android.gms.maps.StreetViewPanoramaFragment.onCreate(Landroid/os/Bundle;)V",
          "target": "",
          "type": "",
          "constraintsFile": "constraints9_0.py",
          "variables": {
            "\u003cChainedInput1\u003e": "IAAv7"
          },
          "stringMap": {},
          "strings": {}
        },
        {
          "start": "com.google.android.gms.maps.StreetViewPanoramaFragment.onCreate(Landroid/os/Bundle;)V",
          "target": "",
          "type": "",
          "constraintsFile": "constraints9_1.py",
          "variables": {
            "\u003cChainedInput1\u003e": "IAAv7"
          },
          "stringMap": {},
          "strings": {}
        },
        {
          "start": "com.google.android.gms.maps.MapFragment.onInflate(Landroid/app/Activity;Landroid/util/AttributeSet;Landroid/os/Bundle;)V",
          "target": "invokevirtual \u003c Application, Ljava/lang/ClassLoader, loadClass(Ljava/lang/String;)Ljava/lang/Class; \u003e@13",
          "type": "",
          "constraintsFile": "constraints9_2.py",
          "variables": {},
          "stringMap": {},
          "strings": {}
        }
      ]
    }
  }
}