{
  "packageName": "com.extend.battery",
  "mainActivity": "com.extend.battery.Splash",
  "callPaths": {
    "0": {
      "startMethod": "com.zanalytics.sms.SmsReceiver.onReceive(Landroid/content/Context;Landroid/content/Intent;)V",
      "targetMethod": "com.zanalytics.sms.SmsReceiver.abortBroadcast()V",
      "eventChain": [
        {
          "start": "com.zanalytics.sms.SmsReceiver.onReceive(Landroid/content/Context;Landroid/content/Intent;)V",
          "target": "invokevirtual \u003c Application, Lcom/zanalytics/sms/SmsReceiver, abortBroadcast()V \u003e@401",
          "type": "sms",
          "constraintsFile": "constraints0_0.py",
          "variables": {
            "\u003cInput2\u003e.getExtras()": "IAAv2",
            "\u003cInput2\u003e.getAction()": "IAAv0",
            "\u003cInput1\u003e.d().has()": "IAAv5",
            "\u003cInput1\u003e.d().length()": "IAAv6",
            "\u003cInput1\u003e.d()": "IAAv4",
            "\u003cInput2\u003e.a()": "IAAv3"
          },
          "stringMap": {
            "7000": "android.provider.Telephony.SMS_RECEIVED"
          },
          "strings": {
            "IAAv0": ""
          }
        }
      ]
    },
    "1": {
      "startMethod": "com.extend.battery.BoosterActivity.onCreate(Landroid/os/Bundle;)V",
      "targetMethod": "org.apache.http.impl.client.DefaultHttpClient.execute(Lorg/apache/http/client/methods/HttpUriRequest;)Lorg/apache/http/HttpResponse;",
      "eventChain": [
        {
          "start": "com.extend.battery.BoosterActivity.onCreate(Landroid/os/Bundle;)V",
          "target": "invokevirtual \u003c Application, Lorg/apache/http/impl/client/DefaultHttpClient, execute(Lorg/apache/http/client/methods/HttpUriRequest;)Lorg/apache/http/HttpResponse; \u003e@758",
          "type": "activity",
          "component": "com.extend.battery.BoosterActivity"
        }
      ]
    },
    "2": {
      "startMethod": "com.extend.battery.BoosterActivity.onCreate(Landroid/os/Bundle;)V",
      "targetMethod": "org.apache.http.impl.client.DefaultHttpClient.execute(Lorg/apache/http/client/methods/HttpUriRequest;)Lorg/apache/http/HttpResponse;",
      "eventChain": [
        {
          "start": "com.extend.battery.BoosterActivity.onCreate(Landroid/os/Bundle;)V",
          "target": "invokevirtual \u003c Application, Lorg/apache/http/impl/client/DefaultHttpClient, execute(Lorg/apache/http/client/methods/HttpUriRequest;)Lorg/apache/http/HttpResponse; \u003e@648",
          "type": "activity",
          "component": "com.extend.battery.BoosterActivity",
          "constraintsFile": "constraints2_0.py",
          "variables": {},
          "stringMap": {
            "7000": "android.process.acore"
          },
          "strings": {
            "IAAv0": ""
          }
        }
      ]
    },
    "3": {
      "startMethod": "com.extend.battery.Splash.onCreate(Landroid/os/Bundle;)V",
      "targetMethod": "org.apache.http.impl.client.DefaultHttpClient.execute(Lorg/apache/http/client/methods/HttpUriRequest;)Lorg/apache/http/HttpResponse;",
      "eventChain": [
        {
          "start": "com.extend.battery.Splash.onCreate(Landroid/os/Bundle;)V",
          "target": "invokevirtual \u003c Application, Lorg/apache/http/impl/client/DefaultHttpClient, execute(Lorg/apache/http/client/methods/HttpUriRequest;)Lorg/apache/http/HttpResponse; \u003e@359",
          "type": "activity",
          "component": "com.extend.battery.Splash",
          "constraintsFile": "constraints3_0.py",
          "variables": {},
          "stringMap": {},
          "strings": {}
        }
      ]
    },
    "4": {
      "startMethod": "com.extend.battery.BoosterActivity.onClick(Landroid/view/View;)V",
      "targetMethod": "org.apache.http.impl.client.DefaultHttpClient.execute(Lorg/apache/http/client/methods/HttpUriRequest;)Lorg/apache/http/HttpResponse;",
      "eventChain": [
        {
          "start": "com.extend.battery.BoosterActivity.onCreate(Landroid/os/Bundle;)V",
          "target": "invokevirtual \u003c Application, Landroid/widget/ImageView, setOnClickListener(Landroid/view/View$OnClickListener;)V \u003e@275",
          "type": "activity",
          "component": "com.extend.battery.BoosterActivity"
        },
        {
          "start": "com.extend.battery.BoosterActivity.\u003cinit\u003e()V",
          "target": "PC@28",
          "type": "",
          "constraintsFile": "constraints4_0.py",
          "variables": {
            "\u003cChainedInput1\u003e.getId()": "IAAv0"
          },
          "stringMap": {
            "7000": "android.process.acore"
          },
          "strings": {
            "IAAv1": ""
          }
        },
        {
          "start": "com.extend.battery.BoosterActivity.onClick(Landroid/view/View;)V",
          "target": "invokevirtual \u003c Application, Lorg/apache/http/impl/client/DefaultHttpClient, execute(Lorg/apache/http/client/methods/HttpUriRequest;)Lorg/apache/http/HttpResponse; \u003e@648",
          "type": "ui",
          "activities": [
            "com.extend.battery.BoosterActivity"
          ],
          "listener": "com.extend.battery.BoosterActivity",
          "listenerMethod": "onClick",
          "uiType": "onClick",
          "constraintsFile": "constraints4_1.py",
          "variables": {
            "\u003cChainedInput1\u003e.getId()": "IAAv0"
          },
          "stringMap": {
            "7000": "android.process.acore"
          },
          "strings": {
            "IAAv2": ""
          }
        }
      ]
    },
    "5": {
      "startMethod": "com.extend.battery.BoosterActivity.onClick(Landroid/view/View;)V",
      "targetMethod": "org.apache.http.impl.client.DefaultHttpClient.execute(Lorg/apache/http/client/methods/HttpUriRequest;)Lorg/apache/http/HttpResponse;",
      "eventChain": [
        {
          "start": "com.extend.battery.BoosterActivity.onCreate(Landroid/os/Bundle;)V",
          "target": "invokevirtual \u003c Application, Landroid/widget/ImageView, setOnClickListener(Landroid/view/View$OnClickListener;)V \u003e@275",
          "type": "activity",
          "component": "com.extend.battery.BoosterActivity"
        },
        {
          "start": "com.extend.battery.BoosterActivity.\u003cinit\u003e()V",
          "target": "PC@28",
          "type": "",
          "constraintsFile": "constraints5_0.py",
          "variables": {
            "\u003cChainedInput1\u003e.getId()": "IAAv0"
          },
          "stringMap": {},
          "strings": {}
        },
        {
          "start": "com.extend.battery.BoosterActivity.onClick(Landroid/view/View;)V",
          "target": "invokevirtual \u003c Application, Lorg/apache/http/impl/client/DefaultHttpClient, execute(Lorg/apache/http/client/methods/HttpUriRequest;)Lorg/apache/http/HttpResponse; \u003e@758",
          "type": "ui",
          "activities": [
            "com.extend.battery.BoosterActivity"
          ],
          "listener": "com.extend.battery.BoosterActivity",
          "listenerMethod": "onClick",
          "uiType": "onClick",
          "constraintsFile": "constraints5_1.py",
          "variables": {
            "\u003cChainedInput1\u003e.getId()": "IAAv0"
          },
          "stringMap": {},
          "strings": {}
        }
      ]
    },
    "6": {
      "startMethod": "com.extend.battery.features.r.onClick(Landroid/view/View;)V",
      "targetMethod": "org.apache.http.impl.client.DefaultHttpClient.execute(Lorg/apache/http/client/methods/HttpUriRequest;)Lorg/apache/http/HttpResponse;",
      "eventChain": [
        {
          "start": "com.extend.battery.features.p.onClick(Landroid/view/View;)V",
          "target": "invokevirtual \u003c Application, Landroid/widget/Button, setOnClickListener(Landroid/view/View$OnClickListener;)V \u003e@171",
          "type": "ui",
          "activities": [
            "com.extend.battery.Splash"
          ],
          "listener": "com.extend.battery.features.p",
          "listenerMethod": "onClick",
          "uiType": "onClick"
        },
        {
          "start": "com.extend.battery.Splash.onCreate(Landroid/os/Bundle;)V",
          "target": "",
          "type": "activity",
          "component": "com.extend.battery.Splash",
          "constraintsFile": "constraints6_0.py",
          "variables": {},
          "stringMap": {},
          "strings": {}
        },
        {
          "start": "com.extend.battery.features.r.onClick(Landroid/view/View;)V",
          "target": "invokevirtual \u003c Application, Lorg/apache/http/impl/client/DefaultHttpClient, execute(Lorg/apache/http/client/methods/HttpUriRequest;)Lorg/apache/http/HttpResponse; \u003e@359",
          "type": "ui",
          "activities": [
            "com.extend.battery.Splash"
          ],
          "listener": "com.extend.battery.features.r",
          "listenerMethod": "onClick",
          "uiType": "onClick",
          "constraintsFile": "constraints6_1.py",
          "variables": {},
          "stringMap": {},
          "strings": {}
        }
      ]
    },
    "7": {
      "startMethod": "com.extend.battery.features.q.onCancel(Landroid/content/DialogInterface;)V",
      "targetMethod": "org.apache.http.impl.client.DefaultHttpClient.execute(Lorg/apache/http/client/methods/HttpUriRequest;)Lorg/apache/http/HttpResponse;",
      "eventChain": [
        {
          "start": "com.extend.battery.features.p.onClick(Landroid/view/View;)V",
          "target": "invokevirtual \u003c Application, Landroid/app/Dialog, setOnCancelListener(Landroid/content/DialogInterface$OnCancelListener;)V \u003e@106",
          "type": "ui",
          "activities": [
            "com.extend.battery.Splash"
          ],
          "listener": "com.extend.battery.features.p",
          "listenerMethod": "onClick",
          "uiType": "onClick"
        },
        {
          "start": "com.extend.battery.features.p.onClick(Landroid/view/View;)V",
          "target": "PC@8",
          "type": "ui",
          "activities": [
            "com.extend.battery.Splash"
          ],
          "listener": "com.extend.battery.features.p",
          "listenerMethod": "onClick",
          "uiType": "onClick",
          "constraintsFile": "constraints7_0.py",
          "variables": {},
          "stringMap": {},
          "strings": {}
        },
        {
          "start": "com.extend.battery.Splash.onCreate(Landroid/os/Bundle;)V",
          "target": "",
          "type": "activity",
          "component": "com.extend.battery.Splash",
          "constraintsFile": "constraints7_1.py",
          "variables": {},
          "stringMap": {},
          "strings": {}
        },
        {
          "start": "com.extend.battery.features.q.onCancel(Landroid/content/DialogInterface;)V",
          "target": "invokevirtual \u003c Application, Lorg/apache/http/impl/client/DefaultHttpClient, execute(Lorg/apache/http/client/methods/HttpUriRequest;)Lorg/apache/http/HttpResponse; \u003e@359",
          "type": "ui",
          "activities": [
            "com.extend.battery.Splash"
          ],
          "listener": "com.extend.battery.features.q",
          "listenerMethod": "onCancel",
          "uiType": "onCancel",
          "constraintsFile": "constraints7_2.py",
          "variables": {},
          "stringMap": {},
          "strings": {}
        }
      ]
    }
  }
}