{
  "packageName": "com.jun.asp",
  "mainActivity": "com.jun.asp.MainActivity",
  "callPaths": {
    "0": {
      "startMethod": "com.jun.asp.MainActivity.onCreate(Landroid/os/Bundle;)V",
      "targetMethod": "org.apache.http.impl.client.DefaultHttpClient.execute(Lorg/apache/http/client/methods/HttpUriRequest;)Lorg/apache/http/HttpResponse;",
      "eventChain": [
        {
          "start": "com.jun.asp.MainActivity.onCreate(Landroid/os/Bundle;)V",
          "target": "invokevirtual \u003c Application, Lorg/apache/http/impl/client/DefaultHttpClient, execute(Lorg/apache/http/client/methods/HttpUriRequest;)Lorg/apache/http/HttpResponse; \u003e@256",
          "type": "activity",
          "component": "com.jun.asp.MainActivity"
        }
      ]
    },
    "1": {
      "startMethod": "com.jun.asp.MainActivity.onCreate(Landroid/os/Bundle;)V",
      "targetMethod": "org.apache.http.impl.client.DefaultHttpClient.execute(Lorg/apache/http/client/methods/HttpUriRequest;)Lorg/apache/http/HttpResponse;",
      "eventChain": [
        {
          "start": "com.jun.asp.MainActivity.onCreate(Landroid/os/Bundle;)V",
          "target": "invokevirtual \u003c Application, Lorg/apache/http/impl/client/DefaultHttpClient, execute(Lorg/apache/http/client/methods/HttpUriRequest;)Lorg/apache/http/HttpResponse; \u003e@92",
          "type": "activity",
          "component": "com.jun.asp.MainActivity"
        }
      ]
    },
    "2": {
      "startMethod": "com.jun.asp.MainActivity.onCreate(Landroid/os/Bundle;)V",
      "targetMethod": "org.apache.http.impl.client.DefaultHttpClient.execute(Lorg/apache/http/client/methods/HttpUriRequest;)Lorg/apache/http/HttpResponse;",
      "eventChain": [
        {
          "start": "com.jun.asp.MainActivity.onCreate(Landroid/os/Bundle;)V",
          "target": "invokevirtual \u003c Application, Lorg/apache/http/impl/client/DefaultHttpClient, execute(Lorg/apache/http/client/methods/HttpUriRequest;)Lorg/apache/http/HttpResponse; \u003e@112",
          "type": "activity",
          "component": "com.jun.asp.MainActivity"
        }
      ]
    },
    "3": {
      "startMethod": "net.youmi.android.spot.b.onClick(Landroid/view/View;)V",
      "targetMethod": "org.apache.http.impl.client.DefaultHttpClient.execute(Lorg/apache/http/client/methods/HttpUriRequest;)Lorg/apache/http/HttpResponse;",
      "eventChain": [
        {
          "start": "net.youmi.android.spot.b.onClick(Landroid/view/View;)V",
          "target": "invokevirtual \u003c Application, Lorg/apache/http/impl/client/DefaultHttpClient, execute(Lorg/apache/http/client/methods/HttpUriRequest;)Lorg/apache/http/HttpResponse; \u003e@256",
          "type": "ui",
          "activities": [
            "com.jun.asp.MainActivity"
          ],
          "listener": "net.youmi.android.spot.b",
          "listenerMethod": "onClick",
          "uiType": "onClick",
          "constraintsFile": "constraints3_0.py",
          "variables": {
            "\u003cChainedInput1\u003e.getId()": "IAAv0"
          },
          "stringMap": {},
          "strings": {}
        }
      ]
    },
    "4": {
      "startMethod": "net.youmi.android.spot.b.onClick(Landroid/view/View;)V",
      "targetMethod": "org.apache.http.impl.client.DefaultHttpClient.execute(Lorg/apache/http/client/methods/HttpUriRequest;)Lorg/apache/http/HttpResponse;",
      "eventChain": [
        {
          "start": "net.youmi.android.spot.b.onClick(Landroid/view/View;)V",
          "target": "invokevirtual \u003c Application, Lorg/apache/http/impl/client/DefaultHttpClient, execute(Lorg/apache/http/client/methods/HttpUriRequest;)Lorg/apache/http/HttpResponse; \u003e@112",
          "type": "ui",
          "activities": [
            "com.jun.asp.MainActivity"
          ],
          "listener": "net.youmi.android.spot.b",
          "listenerMethod": "onClick",
          "uiType": "onClick",
          "constraintsFile": "constraints4_0.py",
          "variables": {
            "\u003cChainedInput1\u003e.getId()": "IAAv0"
          },
          "stringMap": {},
          "strings": {}
        }
      ]
    },
    "5": {
      "startMethod": "net.youmi.android.spot.b.onClick(Landroid/view/View;)V",
      "targetMethod": "org.apache.http.impl.client.DefaultHttpClient.execute(Lorg/apache/http/client/methods/HttpUriRequest;)Lorg/apache/http/HttpResponse;",
      "eventChain": [
        {
          "start": "net.youmi.android.spot.b.onClick(Landroid/view/View;)V",
          "target": "invokevirtual \u003c Application, Lorg/apache/http/impl/client/DefaultHttpClient, execute(Lorg/apache/http/client/methods/HttpUriRequest;)Lorg/apache/http/HttpResponse; \u003e@70",
          "type": "ui",
          "activities": [
            "com.jun.asp.MainActivity"
          ],
          "listener": "net.youmi.android.spot.b",
          "listenerMethod": "onClick",
          "uiType": "onClick",
          "constraintsFile": "constraints5_0.py",
          "variables": {
            "\u003cChainedInput1\u003e.getId()": "IAAv0"
          },
          "stringMap": {},
          "strings": {}
        }
      ]
    },
    "6": {
      "startMethod": "net.youmi.android.spot.b.onClick(Landroid/view/View;)V",
      "targetMethod": "org.apache.http.impl.client.DefaultHttpClient.execute(Lorg/apache/http/client/methods/HttpUriRequest;)Lorg/apache/http/HttpResponse;",
      "eventChain": [
        {
          "start": "net.youmi.android.spot.b.onClick(Landroid/view/View;)V",
          "target": "invokevirtual \u003c Application, Lorg/apache/http/impl/client/DefaultHttpClient, execute(Lorg/apache/http/client/methods/HttpUriRequest;)Lorg/apache/http/HttpResponse; \u003e@92",
          "type": "ui",
          "activities": [
            "com.jun.asp.MainActivity"
          ],
          "listener": "net.youmi.android.spot.b",
          "listenerMethod": "onClick",
          "uiType": "onClick",
          "constraintsFile": "constraints6_0.py",
          "variables": {
            "\u003cChainedInput1\u003e.getId()": "IAAv0"
          },
          "stringMap": {},
          "strings": {}
        }
      ]
    },
    "7": {
      "startMethod": "net.youmi.android.d.d.a.b.onReceive(Landroid/content/Context;Landroid/content/Intent;)V",
      "targetMethod": "org.apache.http.impl.client.DefaultHttpClient.execute(Lorg/apache/http/client/methods/HttpUriRequest;)Lorg/apache/http/HttpResponse;",
      "eventChain": [
        {
          "start": "com.jun.asp.MainActivity.onCreate(Landroid/os/Bundle;)V",
          "target": "invokevirtual \u003c Application, Landroid/content/Context, registerReceiver(Landroid/content/BroadcastReceiver;Landroid/content/IntentFilter;)Landroid/content/Intent; \u003e@9",
          "type": "activity",
          "component": "com.jun.asp.MainActivity"
        },
        {
          "start": "net.youmi.android.d.d.a.b.onReceive(Landroid/content/Context;Landroid/content/Intent;)V",
          "target": "invokevirtual \u003c Application, Lorg/apache/http/impl/client/DefaultHttpClient, execute(Lorg/apache/http/client/methods/HttpUriRequest;)Lorg/apache/http/HttpResponse; \u003e@112",
          "type": "sms",
          "constraintsFile": "constraints7_0.py",
          "variables": {
            "\u003cInput2\u003e.getAction()": "IAAv0",
            "\u003cInput2\u003e.getData().getSchemeSpecificPart().length()": "IAAv2",
            "\u003cInput2\u003e.getData().getSchemeSpecificPart()": "IAAv1"
          },
          "stringMap": {
            "7000": "android.intent.action.PACKAGE_REMOVED"
          },
          "strings": {
            "IAAv1": "",
            "IAAv0": ""
          }
        }
      ]
    },
    "8": {
      "startMethod": "net.youmi.android.d.d.a.b.onReceive(Landroid/content/Context;Landroid/content/Intent;)V",
      "targetMethod": "org.apache.http.impl.client.DefaultHttpClient.execute(Lorg/apache/http/client/methods/HttpUriRequest;)Lorg/apache/http/HttpResponse;",
      "eventChain": [
        {
          "start": "com.jun.asp.MainActivity.onCreate(Landroid/os/Bundle;)V",
          "target": "invokevirtual \u003c Application, Landroid/content/Context, registerReceiver(Landroid/content/BroadcastReceiver;Landroid/content/IntentFilter;)Landroid/content/Intent; \u003e@9",
          "type": "activity",
          "component": "com.jun.asp.MainActivity"
        },
        {
          "start": "net.youmi.android.d.d.a.b.onReceive(Landroid/content/Context;Landroid/content/Intent;)V",
          "target": "invokevirtual \u003c Application, Lorg/apache/http/impl/client/DefaultHttpClient, execute(Lorg/apache/http/client/methods/HttpUriRequest;)Lorg/apache/http/HttpResponse; \u003e@92",
          "type": "sms",
          "constraintsFile": "constraints8_0.py",
          "variables": {
            "\u003cInput2\u003e.getAction()": "IAAv0",
            "\u003cInput2\u003e.getData().getSchemeSpecificPart().length()": "IAAv2",
            "\u003cInput2\u003e.getData().getSchemeSpecificPart()": "IAAv1"
          },
          "stringMap": {
            "7000": "android.intent.action.PACKAGE_REMOVED"
          },
          "strings": {
            "IAAv1": "",
            "IAAv0": ""
          }
        }
      ]
    },
    "9": {
      "startMethod": "net.youmi.android.e.b.a.g.onDownloadStart(Ljava/lang/String;Ljava/lang/String;Ljava/lang/String;Ljava/lang/String;J)V",
      "targetMethod": "org.apache.http.impl.client.DefaultHttpClient.execute(Lorg/apache/http/client/methods/HttpUriRequest;)Lorg/apache/http/HttpResponse;",
      "eventChain": [
        {
          "start": "net.youmi.android.spot.b.onClick(Landroid/view/View;)V",
          "target": "invokevirtual \u003c Application, Lnet/youmi/android/e/b/a/g, setDownloadListener(Landroid/webkit/DownloadListener;)V \u003e@17",
          "type": "ui",
          "activities": [
            "com.jun.asp.MainActivity"
          ],
          "listener": "net.youmi.android.spot.b",
          "listenerMethod": "onClick",
          "uiType": "onClick",
          "constraintsFile": "constraints9_0.py",
          "variables": {
            "\u003cChainedInput1\u003e.getId()": "IAAv0"
          },
          "stringMap": {},
          "strings": {}
        },
        {
          "start": "net.youmi.android.spot.b.onClick(Landroid/view/View;)V",
          "target": "PC@22",
          "type": "ui",
          "activities": [
            "com.jun.asp.MainActivity"
          ],
          "listener": "net.youmi.android.spot.b",
          "listenerMethod": "onClick",
          "uiType": "onClick",
          "constraintsFile": "constraints9_1.py",
          "variables": {
            "\u003cChainedInput1\u003e.getId()": "IAAv0"
          },
          "stringMap": {},
          "strings": {}
        },
        {
          "start": "net.youmi.android.e.b.a.g.onDownloadStart(Ljava/lang/String;Ljava/lang/String;Ljava/lang/String;Ljava/lang/String;J)V",
          "target": "invokevirtual \u003c Application, Lorg/apache/http/impl/client/DefaultHttpClient, execute(Lorg/apache/http/client/methods/HttpUriRequest;)Lorg/apache/http/HttpResponse; \u003e@112",
          "type": "",
          "constraintsFile": "constraints9_2.py",
          "variables": {},
          "stringMap": {},
          "strings": {}
        }
      ]
    },
    "10": {
      "startMethod": "net.youmi.android.e.b.a.g.onDownloadStart(Ljava/lang/String;Ljava/lang/String;Ljava/lang/String;Ljava/lang/String;J)V",
      "targetMethod": "org.apache.http.impl.client.DefaultHttpClient.execute(Lorg/apache/http/client/methods/HttpUriRequest;)Lorg/apache/http/HttpResponse;",
      "eventChain": [
        {
          "start": "net.youmi.android.spot.b.onClick(Landroid/view/View;)V",
          "target": "invokevirtual \u003c Application, Lnet/youmi/android/e/b/a/g, setDownloadListener(Landroid/webkit/DownloadListener;)V \u003e@17",
          "type": "ui",
          "activities": [
            "com.jun.asp.MainActivity"
          ],
          "listener": "net.youmi.android.spot.b",
          "listenerMethod": "onClick",
          "uiType": "onClick",
          "constraintsFile": "constraints10_0.py",
          "variables": {
            "\u003cChainedInput1\u003e.getId()": "IAAv0"
          },
          "stringMap": {},
          "strings": {}
        },
        {
          "start": "net.youmi.android.spot.b.onClick(Landroid/view/View;)V",
          "target": "PC@22",
          "type": "ui",
          "activities": [
            "com.jun.asp.MainActivity"
          ],
          "listener": "net.youmi.android.spot.b",
          "listenerMethod": "onClick",
          "uiType": "onClick",
          "constraintsFile": "constraints10_1.py",
          "variables": {
            "\u003cChainedInput1\u003e.getId()": "IAAv0"
          },
          "stringMap": {},
          "strings": {}
        },
        {
          "start": "net.youmi.android.e.b.a.g.onDownloadStart(Ljava/lang/String;Ljava/lang/String;Ljava/lang/String;Ljava/lang/String;J)V",
          "target": "invokevirtual \u003c Application, Lorg/apache/http/impl/client/DefaultHttpClient, execute(Lorg/apache/http/client/methods/HttpUriRequest;)Lorg/apache/http/HttpResponse; \u003e@70",
          "type": "",
          "constraintsFile": "constraints10_2.py",
          "variables": {},
          "stringMap": {},
          "strings": {}
        }
      ]
    },
    "11": {
      "startMethod": "net.youmi.android.e.b.a.g.onDownloadStart(Ljava/lang/String;Ljava/lang/String;Ljava/lang/String;Ljava/lang/String;J)V",
      "targetMethod": "org.apache.http.impl.client.DefaultHttpClient.execute(Lorg/apache/http/client/methods/HttpUriRequest;)Lorg/apache/http/HttpResponse;",
      "eventChain": [
        {
          "start": "net.youmi.android.spot.b.onClick(Landroid/view/View;)V",
          "target": "invokevirtual \u003c Application, Lnet/youmi/android/e/b/a/g, setDownloadListener(Landroid/webkit/DownloadListener;)V \u003e@17",
          "type": "ui",
          "activities": [
            "com.jun.asp.MainActivity"
          ],
          "listener": "net.youmi.android.spot.b",
          "listenerMethod": "onClick",
          "uiType": "onClick",
          "constraintsFile": "constraints11_0.py",
          "variables": {
            "\u003cChainedInput1\u003e.getId()": "IAAv0"
          },
          "stringMap": {},
          "strings": {}
        },
        {
          "start": "net.youmi.android.spot.b.onClick(Landroid/view/View;)V",
          "target": "PC@22",
          "type": "ui",
          "activities": [
            "com.jun.asp.MainActivity"
          ],
          "listener": "net.youmi.android.spot.b",
          "listenerMethod": "onClick",
          "uiType": "onClick",
          "constraintsFile": "constraints11_1.py",
          "variables": {
            "\u003cChainedInput1\u003e.getId()": "IAAv0"
          },
          "stringMap": {},
          "strings": {}
        },
        {
          "start": "net.youmi.android.e.b.a.g.onDownloadStart(Ljava/lang/String;Ljava/lang/String;Ljava/lang/String;Ljava/lang/String;J)V",
          "target": "invokevirtual \u003c Application, Lorg/apache/http/impl/client/DefaultHttpClient, execute(Lorg/apache/http/client/methods/HttpUriRequest;)Lorg/apache/http/HttpResponse; \u003e@256",
          "type": "",
          "constraintsFile": "constraints11_2.py",
          "variables": {},
          "stringMap": {},
          "strings": {}
        }
      ]
    },
    "12": {
      "startMethod": "net.youmi.android.e.b.a.g.onDownloadStart(Ljava/lang/String;Ljava/lang/String;Ljava/lang/String;Ljava/lang/String;J)V",
      "targetMethod": "org.apache.http.impl.client.DefaultHttpClient.execute(Lorg/apache/http/client/methods/HttpUriRequest;)Lorg/apache/http/HttpResponse;",
      "eventChain": [
        {
          "start": "net.youmi.android.spot.b.onClick(Landroid/view/View;)V",
          "target": "invokevirtual \u003c Application, Lnet/youmi/android/e/b/a/g, setDownloadListener(Landroid/webkit/DownloadListener;)V \u003e@17",
          "type": "ui",
          "activities": [
            "com.jun.asp.MainActivity"
          ],
          "listener": "net.youmi.android.spot.b",
          "listenerMethod": "onClick",
          "uiType": "onClick",
          "constraintsFile": "constraints12_0.py",
          "variables": {
            "\u003cChainedInput1\u003e.getId()": "IAAv0"
          },
          "stringMap": {},
          "strings": {}
        },
        {
          "start": "net.youmi.android.spot.b.onClick(Landroid/view/View;)V",
          "target": "PC@22",
          "type": "ui",
          "activities": [
            "com.jun.asp.MainActivity"
          ],
          "listener": "net.youmi.android.spot.b",
          "listenerMethod": "onClick",
          "uiType": "onClick",
          "constraintsFile": "constraints12_1.py",
          "variables": {
            "\u003cChainedInput1\u003e.getId()": "IAAv0"
          },
          "stringMap": {},
          "strings": {}
        },
        {
          "start": "net.youmi.android.e.b.a.g.onDownloadStart(Ljava/lang/String;Ljava/lang/String;Ljava/lang/String;Ljava/lang/String;J)V",
          "target": "invokevirtual \u003c Application, Lorg/apache/http/impl/client/DefaultHttpClient, execute(Lorg/apache/http/client/methods/HttpUriRequest;)Lorg/apache/http/HttpResponse; \u003e@92",
          "type": "",
          "constraintsFile": "constraints12_2.py",
          "variables": {},
          "stringMap": {},
          "strings": {}
        }
      ]
    }
  }
}