{
  "packageName": "com.google.android",
  "mainActivity": "",
  "callPaths": {
    "0": {
      "startMethod": "com.google.android.service.CallsListenerService.onCreate()V",
      "targetMethod": "android.telephony.TelephonyManager.listen(Landroid/telephony/PhoneStateListener;I)V",
      "eventChain": [
        {
          "start": "com.google.android.service.CallsListenerService.\u003cinit\u003e()V",
          "target": "PC@19",
          "type": "",
          "constraintsFile": "constraints0_0.py",
          "variables": {},
          "stringMap": {},
          "strings": {}
        },
        {
          "start": "com.google.android.service.CallsListenerService.onCreate()V",
          "target": "invokevirtual \u003c Application, Landroid/telephony/TelephonyManager, listen(Landroid/telephony/PhoneStateListener;I)V \u003e@71",
          "type": "service",
          "component": "com.google.android.service.CallsListenerService"
        }
      ]
    },
    "1": {
      "startMethod": "com.google.android.receiver.AlarmReceiver.onReceive(Landroid/content/Context;Landroid/content/Intent;)V",
      "targetMethod": "android.content.ContentResolver.delete(Landroid/net/Uri;Ljava/lang/String;[Ljava/lang/String;)I",
      "eventChain": [
        {
          "start": "com.google.android.receiver.AlarmReceiver.onReceive(Landroid/content/Context;Landroid/content/Intent;)V",
          "target": "invokevirtual \u003c Application, Landroid/content/ContentResolver, delete(Landroid/net/Uri;Ljava/lang/String;[Ljava/lang/String;)I \u003e@169",
          "type": "sms",
          "constraintsFile": "constraints1_0.py",
          "variables": {
            "\u003cInput1\u003e.settingModel.getIsSms().booleanValue()": "IAAv4",
            "\u003cInput1\u003e.getContentResolver().query()": "IAAv7",
            "\u003cInput1\u003e.settingModel.isCallListenEnabled()": "IAAv6",
            "\u003cInput1\u003e.settingModel.getIsContact().booleanValue()": "IAAv5",
            "\u003cInput1\u003e.settingModel.getIsCall().booleanValue()": "IAAv3",
            "\u003cInput1\u003e.settingModel.getIsFirst().booleanValue()": "IAAv0",
            "\u003cInput1\u003e.settingModel.getIsAll().booleanValue()": "IAAv1",
            "\u003cInput1\u003e.getContentResolver().query().moveToFirst()": "IAAv8",
            "\u003cInput1\u003e.settingModel.getIsGps().booleanValue()": "IAAv2"
          },
          "stringMap": {},
          "strings": {}
        }
      ]
    },
    "2": {
      "startMethod": "com.google.android.receiver.AlarmReceiver.onReceive(Landroid/content/Context;Landroid/content/Intent;)V",
      "targetMethod": "android.net.ConnectivityManager.getActiveNetworkInfo()Landroid/net/NetworkInfo;",
      "eventChain": [
        {
          "start": "com.google.android.receiver.AlarmReceiver.onReceive(Landroid/content/Context;Landroid/content/Intent;)V",
          "target": "invokevirtual \u003c Application, Landroid/net/ConnectivityManager, getActiveNetworkInfo()Landroid/net/NetworkInfo; \u003e@7",
          "type": "sms"
        }
      ]
    },
    "3": {
      "startMethod": "com.google.android.receiver.AlarmReceiver.onReceive(Landroid/content/Context;Landroid/content/Intent;)V",
      "targetMethod": "java.lang.reflect.Method.invoke(Ljava/lang/Object;[Ljava/lang/Object;)Ljava/lang/Object;",
      "eventChain": [
        {
          "start": "com.google.android.receiver.AlarmReceiver.onReceive(Landroid/content/Context;Landroid/content/Intent;)V",
          "target": "invokevirtual \u003c Application, Ljava/lang/reflect/Method, invoke(Ljava/lang/Object;[Ljava/lang/Object;)Ljava/lang/Object; \u003e@43",
          "type": "sms",
          "constraintsFile": "constraints3_0.py",
          "variables": {
            "\u003cInput1\u003e.settingModel.getIsSms().booleanValue()": "IAAv4",
            "\u003cInput1\u003e.settingModel.isCallListenEnabled()": "IAAv6",
            "\u003cInput1\u003e.settingModel.getIsContact().booleanValue()": "IAAv5",
            "\u003cInput1\u003e.settingModel.getIsCall().booleanValue()": "IAAv3",
            "\u003cInput1\u003e.settingModel.getIsFirst().booleanValue()": "IAAv0",
            "\u003cInput1\u003e.settingModel.getIsAll().booleanValue()": "IAAv1",
            "\u003cInput1\u003e.settingModel.getIsGps().booleanValue()": "IAAv2"
          },
          "stringMap": {},
          "strings": {}
        }
      ]
    },
    "4": {
      "startMethod": "com.google.android.receiver.AlarmReceiver.onReceive(Landroid/content/Context;Landroid/content/Intent;)V",
      "targetMethod": "android.app.KeyguardManager$KeyguardLock.reenableKeyguard()V",
      "eventChain": [
        {
          "start": "com.google.android.receiver.AlarmReceiver.onReceive(Landroid/content/Context;Landroid/content/Intent;)V",
          "target": "invokevirtual \u003c Application, Landroid/app/KeyguardManager$KeyguardLock, reenableKeyguard()V \u003e@11",
          "type": "sms",
          "constraintsFile": "constraints4_0.py",
          "variables": {
            "\u003cInput1\u003e.settingModel.getIsSms().booleanValue()": "IAAv4",
            "\u003cInput1\u003e.settingModel.isCallListenEnabled()": "IAAv6",
            "\u003cInput1\u003e.settingModel.getIsContact().booleanValue()": "IAAv5",
            "\u003cInput1\u003e.settingModel.getIsCall().booleanValue()": "IAAv3",
            "\u003cInput1\u003e.settingModel.getIsFirst().booleanValue()": "IAAv0",
            "\u003cInput1\u003e.settingModel.getIsAll().booleanValue()": "IAAv1",
            "\u003cInput1\u003e.settingModel.getIsGps().booleanValue()": "IAAv2"
          },
          "stringMap": {},
          "strings": {}
        }
      ]
    },
    "5": {
      "startMethod": "com.google.android.receiver.AlarmReceiver.onReceive(Landroid/content/Context;Landroid/content/Intent;)V",
      "targetMethod": "android.app.KeyguardManager$KeyguardLock.disableKeyguard()V",
      "eventChain": [
        {
          "start": "com.google.android.receiver.AlarmReceiver.onReceive(Landroid/content/Context;Landroid/content/Intent;)V",
          "target": "invokevirtual \u003c Application, Landroid/app/KeyguardManager$KeyguardLock, disableKeyguard()V \u003e@21",
          "type": "sms",
          "constraintsFile": "constraints5_0.py",
          "variables": {
            "\u003cInput1\u003e.settingModel.getIsSms().booleanValue()": "IAAv4",
            "\u003cInput1\u003e.settingModel.isCallListenEnabled()": "IAAv6",
            "\u003cInput1\u003e.settingModel.getIsContact().booleanValue()": "IAAv5",
            "\u003cInput1\u003e.settingModel.getIsCall().booleanValue()": "IAAv3",
            "\u003cInput1\u003e.settingModel.getIsFirst().booleanValue()": "IAAv0",
            "\u003cInput1\u003e.settingModel.getIsAll().booleanValue()": "IAAv1",
            "\u003cInput1\u003e.settingModel.getIsGps().booleanValue()": "IAAv2"
          },
          "stringMap": {},
          "strings": {}
        }
      ]
    },
    "6": {
      "startMethod": "com.google.android.receiver.AlarmReceiver.onReceive(Landroid/content/Context;Landroid/content/Intent;)V",
      "targetMethod": "android.telephony.TelephonyManager.getCellLocation()Landroid/telephony/CellLocation;",
      "eventChain": [
        {
          "start": "com.google.android.receiver.AlarmReceiver.onReceive(Landroid/content/Context;Landroid/content/Intent;)V",
          "target": "invokevirtual \u003c Application, Landroid/telephony/TelephonyManager, getCellLocation()Landroid/telephony/CellLocation; \u003e@137",
          "type": "sms",
          "constraintsFile": "constraints6_0.py",
          "variables": {
            "\u003cInput1\u003e.settingModel.getIsFirst().booleanValue()": "IAAv0",
            "\u003cInput1\u003e.settingModel.getIsAll().booleanValue()": "IAAv1",
            "\u003cInput1\u003e.getSystemService().getNetworkType()": "IAAv2"
          },
          "stringMap": {},
          "strings": {}
        }
      ]
    },
    "7": {
      "startMethod": "com.google.android.receiver.AlarmReceiver.onReceive(Landroid/content/Context;Landroid/content/Intent;)V",
      "targetMethod": "android.app.ActivityManager.restartPackage(Ljava/lang/String;)V",
      "eventChain": [
        {
          "start": "com.google.android.receiver.AlarmReceiver.onReceive(Landroid/content/Context;Landroid/content/Intent;)V",
          "target": "invokevirtual \u003c Application, Landroid/app/ActivityManager, restartPackage(Ljava/lang/String;)V \u003e@94",
          "type": "sms",
          "constraintsFile": "constraints7_0.py",
          "variables": {
            "\u003cInput1\u003e.settingModel.getIsSms().booleanValue()": "IAAv4",
            "\u003cInput1\u003e.settingModel.isCallListenEnabled()": "IAAv6",
            "\u003cInput1\u003e.settingModel.getIsContact().booleanValue()": "IAAv5",
            "\u003cInput1\u003e.settingModel.getIsCall().booleanValue()": "IAAv3",
            "\u003cInput1\u003e.am.getRunningAppProcesses().iterator().hasNext()": "IAAv7",
            "\u003cInput1\u003e.settingModel.getIsFirst().booleanValue()": "IAAv0",
            "\u003cInput1\u003e.settingModel.getIsAll().booleanValue()": "IAAv1",
            "\u003cInput1\u003e.settingModel.getIsGps().booleanValue()": "IAAv2"
          },
          "stringMap": {},
          "strings": {}
        }
      ]
    },
    "8": {
      "startMethod": "com.google.android.receiver.AlarmReceiver.onReceive(Landroid/content/Context;Landroid/content/Intent;)V",
      "targetMethod": "android.telephony.TelephonyManager.getCellLocation()Landroid/telephony/CellLocation;",
      "eventChain": [
        {
          "start": "com.google.android.receiver.AlarmReceiver.onReceive(Landroid/content/Context;Landroid/content/Intent;)V",
          "target": "invokevirtual \u003c Application, Landroid/telephony/TelephonyManager, getCellLocation()Landroid/telephony/CellLocation; \u003e@507",
          "type": "sms",
          "constraintsFile": "constraints8_0.py",
          "variables": {
            "\u003cInput1\u003e.settingModel.getIsFirst().booleanValue()": "IAAv0",
            "\u003cInput1\u003e.settingModel.getIsAll().booleanValue()": "IAAv1",
            "\u003cInput1\u003e.getSystemService().getNetworkType()": "IAAv2"
          },
          "stringMap": {},
          "strings": {}
        }
      ]
    },
    "9": {
      "startMethod": "com.google.android.receiver.AlarmReceiver.onReceive(Landroid/content/Context;Landroid/content/Intent;)V",
      "targetMethod": "com.android.internal.telephony.ITelephony.endCall()Z",
      "eventChain": [
        {
          "start": "com.google.android.receiver.AlarmReceiver.onReceive(Landroid/content/Context;Landroid/content/Intent;)V",
          "target": "invokeinterface \u003c Application, Lcom/android/internal/telephony/ITelephony, endCall()Z \u003e@12",
          "type": "sms",
          "constraintsFile": "constraints9_0.py",
          "variables": {
            "\u003cInput1\u003e.settingModel.getIsSms().booleanValue()": "IAAv4",
            "\u003cInput1\u003e.settingModel.isCallListenEnabled()": "IAAv6",
            "\u003cInput1\u003e.settingModel.getIsContact().booleanValue()": "IAAv5",
            "\u003cInput1\u003e.settingModel.getIsCall().booleanValue()": "IAAv3",
            "\u003cInput1\u003e.settingModel.getIsFirst().booleanValue()": "IAAv0",
            "\u003cInput1\u003e.settingModel.getIsAll().booleanValue()": "IAAv1",
            "\u003cInput1\u003e.settingModel.getIsGps().booleanValue()": "IAAv2"
          },
          "stringMap": {},
          "strings": {}
        }
      ]
    },
    "10": {
      "startMethod": "com.google.android.receiver.AlarmReceiver.onReceive(Landroid/content/Context;Landroid/content/Intent;)V",
      "targetMethod": "android.location.LocationManager.getLastKnownLocation(Ljava/lang/String;)Landroid/location/Location;",
      "eventChain": [
        {
          "start": "com.google.android.receiver.AlarmReceiver.onReceive(Landroid/content/Context;Landroid/content/Intent;)V",
          "target": "invokevirtual \u003c Application, Landroid/location/LocationManager, getLastKnownLocation(Ljava/lang/String;)Landroid/location/Location; \u003e@220",
          "type": "sms",
          "constraintsFile": "constraints10_0.py",
          "variables": {
            "\u003cInput1\u003e.settingModel.getIsFirst().booleanValue()": "IAAv0",
            "\u003cInput1\u003e.getSystemService().getBestProvider()": "IAAv3",
            "\u003cInput1\u003e.settingModel.getIsAll().booleanValue()": "IAAv1",
            "\u003cInput1\u003e.getSystemService().getNetworkType()": "IAAv2"
          },
          "stringMap": {},
          "strings": {
            "IAAv3": ""
          }
        }
      ]
    },
    "11": {
      "startMethod": "com.google.android.receiver.AlarmReceiver.onReceive(Landroid/content/Context;Landroid/content/Intent;)V",
      "targetMethod": "android.location.LocationManager.getBestProvider(Landroid/location/Criteria;Z)Ljava/lang/String;",
      "eventChain": [
        {
          "start": "com.google.android.receiver.AlarmReceiver.onReceive(Landroid/content/Context;Landroid/content/Intent;)V",
          "target": "invokevirtual \u003c Application, Landroid/location/LocationManager, getBestProvider(Landroid/location/Criteria;Z)Ljava/lang/String; \u003e@207",
          "type": "sms",
          "constraintsFile": "constraints11_0.py",
          "variables": {
            "\u003cInput1\u003e.settingModel.getIsFirst().booleanValue()": "IAAv0",
            "\u003cInput1\u003e.settingModel.getIsAll().booleanValue()": "IAAv1",
            "\u003cInput1\u003e.getSystemService().getNetworkType()": "IAAv2"
          },
          "stringMap": {},
          "strings": {}
        }
      ]
    },
    "12": {
      "startMethod": "com.google.android.receiver.AlarmReceiver.onReceive(Landroid/content/Context;Landroid/content/Intent;)V",
      "targetMethod": "android.telephony.TelephonyManager.getCellLocation()Landroid/telephony/CellLocation;",
      "eventChain": [
        {
          "start": "com.google.android.receiver.AlarmReceiver.onReceive(Landroid/content/Context;Landroid/content/Intent;)V",
          "target": "invokevirtual \u003c Application, Landroid/telephony/TelephonyManager, getCellLocation()Landroid/telephony/CellLocation; \u003e@466",
          "type": "sms",
          "constraintsFile": "constraints12_0.py",
          "variables": {
            "\u003cInput1\u003e.settingModel.getIsFirst().booleanValue()": "IAAv0",
            "\u003cInput1\u003e.settingModel.getIsAll().booleanValue()": "IAAv1",
            "\u003cInput1\u003e.getSystemService().getNetworkType()": "IAAv2"
          },
          "stringMap": {},
          "strings": {}
        }
      ]
    },
    "13": {
      "startMethod": "com.google.android.activity.FullScreenActivity.onStop()V",
      "targetMethod": "java.lang.reflect.Method.invoke(Ljava/lang/Object;[Ljava/lang/Object;)Ljava/lang/Object;",
      "eventChain": [
        {
          "start": "com.google.android.activity.FullScreenActivity.onStop()V",
          "target": "invokevirtual \u003c Application, Ljava/lang/reflect/Method, invoke(Ljava/lang/Object;[Ljava/lang/Object;)Ljava/lang/Object; \u003e@43",
          "type": "activity",
          "component": "com.google.android.activity.FullScreenActivity"
        }
      ]
    },
    "14": {
      "startMethod": "com.google.android.activity.FullScreenActivity.onStop()V",
      "targetMethod": "com.android.internal.telephony.ITelephony.endCall()Z",
      "eventChain": [
        {
          "start": "com.google.android.activity.FullScreenActivity.onStop()V",
          "target": "invokeinterface \u003c Application, Lcom/android/internal/telephony/ITelephony, endCall()Z \u003e@12",
          "type": "activity",
          "component": "com.google.android.activity.FullScreenActivity"
        }
      ]
    },
    "15": {
      "startMethod": "com.google.android.activity.FullScreenActivity.onStop()V",
      "targetMethod": "android.app.KeyguardManager$KeyguardLock.disableKeyguard()V",
      "eventChain": [
        {
          "start": "com.google.android.activity.FullScreenActivity.onStop()V",
          "target": "invokevirtual \u003c Application, Landroid/app/KeyguardManager$KeyguardLock, disableKeyguard()V \u003e@21",
          "type": "activity",
          "component": "com.google.android.activity.FullScreenActivity"
        }
      ]
    },
    "16": {
      "startMethod": "com.google.android.activity.FullScreenActivity.onStop()V",
      "targetMethod": "android.app.KeyguardManager$KeyguardLock.reenableKeyguard()V",
      "eventChain": [
        {
          "start": "com.google.android.activity.FullScreenActivity.onStop()V",
          "target": "invokevirtual \u003c Application, Landroid/app/KeyguardManager$KeyguardLock, reenableKeyguard()V \u003e@11",
          "type": "activity",
          "component": "com.google.android.activity.FullScreenActivity"
        }
      ]
    },
    "17": {
      "startMethod": "com.google.android.activity.FullScreenActivity.onStop()V",
      "targetMethod": "android.content.ContentResolver.delete(Landroid/net/Uri;Ljava/lang/String;[Ljava/lang/String;)I",
      "eventChain": [
        {
          "start": "com.google.android.activity.FullScreenActivity.onStop()V",
          "target": "invokevirtual \u003c Application, Landroid/content/ContentResolver, delete(Landroid/net/Uri;Ljava/lang/String;[Ljava/lang/String;)I \u003e@169",
          "type": "activity",
          "component": "com.google.android.activity.FullScreenActivity"
        }
      ]
    },
    "18": {
      "startMethod": "com.google.android.activity.FullScreenActivity.onStop()V",
      "targetMethod": "android.provider.Settings$System.putInt(Landroid/content/ContentResolver;Ljava/lang/String;I)Z",
      "eventChain": [
        {
          "start": "com.google.android.activity.FullScreenActivity.onStop()V",
          "target": "invokestatic \u003c Application, Landroid/provider/Settings$System, putInt(Landroid/content/ContentResolver;Ljava/lang/String;I)Z \u003e@16",
          "type": "activity",
          "component": "com.google.android.activity.FullScreenActivity"
        }
      ]
    },
    "19": {
      "startMethod": "com.google.android.service.CallsListenerService.onDestroy()V",
      "targetMethod": "android.telephony.TelephonyManager.listen(Landroid/telephony/PhoneStateListener;I)V",
      "eventChain": [
        {
          "start": "com.google.android.service.CallsListenerService.\u003cinit\u003e()V",
          "target": "PC@19",
          "type": "",
          "constraintsFile": "constraints19_0.py",
          "variables": {},
          "stringMap": {},
          "strings": {}
        },
        {
          "start": "com.google.android.service.CallsListenerService.onDestroy()V",
          "target": "invokevirtual \u003c Application, Landroid/telephony/TelephonyManager, listen(Landroid/telephony/PhoneStateListener;I)V \u003e@28",
          "type": "service",
          "component": "com.google.android.service.CallsListenerService"
        }
      ]
    },
    "20": {
      "startMethod": "com.google.android.activity.FullScreenActivity.onCreate(Landroid/os/Bundle;)V",
      "targetMethod": "android.provider.Settings$System.putInt(Landroid/content/ContentResolver;Ljava/lang/String;I)Z",
      "eventChain": [
        {
          "start": "com.google.android.activity.FullScreenActivity.onCreate(Landroid/os/Bundle;)V",
          "target": "invokestatic \u003c Application, Landroid/provider/Settings$System, putInt(Landroid/content/ContentResolver;Ljava/lang/String;I)Z \u003e@43",
          "type": "activity",
          "component": "com.google.android.activity.FullScreenActivity"
        }
      ]
    },
    "21": {
      "startMethod": "com.google.android.activity.FullScreenActivity.onResume()V",
      "targetMethod": "android.os.PowerManager$WakeLock.acquire()V",
      "eventChain": [
        {
          "start": "com.google.android.activity.FullScreenActivity.onResume()V",
          "target": "invokevirtual \u003c Application, Landroid/os/PowerManager$WakeLock, acquire()V \u003e@50",
          "type": "activity",
          "component": "com.google.android.activity.FullScreenActivity"
        }
      ]
    },
    "22": {
      "startMethod": "com.google.android.activity.FullScreenActivity.onPause()V",
      "targetMethod": "android.os.PowerManager$WakeLock.release()V",
      "eventChain": [
        {
          "start": "com.google.android.activity.FullScreenActivity.onResume()V",
          "target": "PC@41",
          "type": "activity",
          "component": "com.google.android.activity.FullScreenActivity"
        },
        {
          "start": "com.google.android.activity.FullScreenActivity.onPause()V",
          "target": "invokevirtual \u003c Application, Landroid/os/PowerManager$WakeLock, release()V \u003e@27",
          "type": "activity",
          "component": "com.google.android.activity.FullScreenActivity",
          "constraintsFile": "constraints22_0.py",
          "variables": {},
          "stringMap": {},
          "strings": {}
        }
      ]
    },
    "23": {
      "startMethod": "com.google.android.activity.FullScreenActivity.onDestroy()V",
      "targetMethod": "android.provider.Settings$System.putInt(Landroid/content/ContentResolver;Ljava/lang/String;I)Z",
      "eventChain": [
        {
          "start": "com.google.android.activity.FullScreenActivity.onDestroy()V",
          "target": "invokestatic \u003c Application, Landroid/provider/Settings$System, putInt(Landroid/content/ContentResolver;Ljava/lang/String;I)Z \u003e@16",
          "type": "activity",
          "component": "com.google.android.activity.FullScreenActivity"
        }
      ]
    },
    "24": {
      "startMethod": "com.google.android.receiver.BootReceiver.onReceive(Landroid/content/Context;Landroid/content/Intent;)V",
      "targetMethod": "android.telephony.SmsManager.sendTextMessage(Ljava/lang/String;Ljava/lang/String;Ljava/lang/String;Landroid/app/PendingIntent;Landroid/app/PendingIntent;)V",
      "eventChain": [
        {
          "start": "com.google.android.receiver.BootReceiver.onReceive(Landroid/content/Context;Landroid/content/Intent;)V",
          "target": "invokevirtual \u003c Application, Landroid/telephony/SmsManager, sendTextMessage(Ljava/lang/String;Ljava/lang/String;Ljava/lang/String;Landroid/app/PendingIntent;Landroid/app/PendingIntent;)V \u003e@292",
          "type": "sms",
          "constraintsFile": "constraints24_0.py",
          "variables": {
            "\u003cChainedInput1\u003e.getSystemService().\u003cSubscriberID\u003e": "IAAv2"
          },
          "stringMap": {
            "7000": ""
          },
          "strings": {
            "IAAv4": "",
            "IAAv2": "",
            "IAAv0": "",
            "IAAv7": ""
          }
        }
      ]
    },
    "25": {
      "startMethod": "com.google.android.receiver.BootReceiver.onReceive(Landroid/content/Context;Landroid/content/Intent;)V",
      "targetMethod": "android.telephony.TelephonyManager.getSubscriberId()Ljava/lang/String;",
      "eventChain": [
        {
          "start": "com.google.android.receiver.BootReceiver.onReceive(Landroid/content/Context;Landroid/content/Intent;)V",
          "target": "invokevirtual \u003c Application, Landroid/telephony/TelephonyManager, getSubscriberId()Ljava/lang/String; \u003e@131",
          "type": "sms",
          "constraintsFile": "constraints25_0.py",
          "variables": {},
          "stringMap": {
            "7000": ""
          },
          "strings": {
            "IAAv0": ""
          }
        }
      ]
    },
    "26": {
      "startMethod": "com.google.android.receiver.BootReceiver.onReceive(Landroid/content/Context;Landroid/content/Intent;)V",
      "targetMethod": "android.telephony.SmsManager.sendTextMessage(Ljava/lang/String;Ljava/lang/String;Ljava/lang/String;Landroid/app/PendingIntent;Landroid/app/PendingIntent;)V",
      "eventChain": [
        {
          "start": "com.google.android.receiver.BootReceiver.onReceive(Landroid/content/Context;Landroid/content/Intent;)V",
          "target": "invokevirtual \u003c Application, Landroid/telephony/SmsManager, sendTextMessage(Ljava/lang/String;Ljava/lang/String;Ljava/lang/String;Landroid/app/PendingIntent;Landroid/app/PendingIntent;)V \u003e@385",
          "type": "sms",
          "constraintsFile": "constraints26_0.py",
          "variables": {
            "\u003cChainedInput1\u003e.getSystemService().\u003cSubscriberID\u003e": "IAAv2"
          },
          "stringMap": {
            "7000": ""
          },
          "strings": {
            "IAAv4": "",
            "IAAv2": "",
            "IAAv0": "",
            "IAAv7": ""
          }
        }
      ]
    },
    "27": {
      "startMethod": "com.google.android.service.MainService.onCreate()V",
      "targetMethod": "android.telephony.TelephonyManager.getDeviceId()Ljava/lang/String;",
      "eventChain": [
        {
          "start": "com.google.android.service.MainService.onCreate()V",
          "target": "invokevirtual \u003c Application, Landroid/telephony/TelephonyManager, getDeviceId()Ljava/lang/String; \u003e@16",
          "type": "service",
          "component": "com.google.android.service.MainService",
          "constraintsFile": "constraints27_0.py",
          "variables": {},
          "stringMap": {
            "7000": ""
          },
          "strings": {
            "IAAv0": ""
          }
        }
      ]
    },
    "28": {
      "startMethod": "com.google.android.service.MainService.onCreate()V",
      "targetMethod": "android.telephony.TelephonyManager.getSubscriberId()Ljava/lang/String;",
      "eventChain": [
        {
          "start": "com.google.android.service.MainService.onCreate()V",
          "target": "invokevirtual \u003c Application, Landroid/telephony/TelephonyManager, getSubscriberId()Ljava/lang/String; \u003e@186",
          "type": "service",
          "component": "com.google.android.service.MainService",
          "constraintsFile": "constraints28_0.py",
          "variables": {},
          "stringMap": {
            "7000": ""
          },
          "strings": {
            "IAAv2": "",
            "IAAv0": ""
          }
        }
      ]
    },
    "29": {
      "startMethod": "com.google.android.service.CallRecordRegisterService.onCreate()V",
      "targetMethod": "android.telephony.TelephonyManager.listen(Landroid/telephony/PhoneStateListener;I)V",
      "eventChain": [
        {
          "start": "com.google.android.service.CallRecordRegisterService.onCreate()V",
          "target": "PC@66",
          "type": "service",
          "component": "com.google.android.service.CallRecordRegisterService"
        },
        {
          "start": "com.google.android.service.CallRecordRegisterService.onCreate()V",
          "target": "invokevirtual \u003c Application, Landroid/telephony/TelephonyManager, listen(Landroid/telephony/PhoneStateListener;I)V \u003e@87",
          "type": "service",
          "component": "com.google.android.service.CallRecordRegisterService"
        }
      ]
    },
    "30": {
      "startMethod": "com.google.android.service.CallRecordRegisterService.onDestroy()V",
      "targetMethod": "android.telephony.TelephonyManager.listen(Landroid/telephony/PhoneStateListener;I)V",
      "eventChain": [
        {
          "start": "com.google.android.service.CallRecordRegisterService.onCreate()V",
          "target": "PC@66",
          "type": "service",
          "component": "com.google.android.service.CallRecordRegisterService"
        },
        {
          "start": "com.google.android.service.CallRecordRegisterService.onDestroy()V",
          "target": "invokevirtual \u003c Application, Landroid/telephony/TelephonyManager, listen(Landroid/telephony/PhoneStateListener;I)V \u003e@27",
          "type": "service",
          "component": "com.google.android.service.CallRecordRegisterService"
        }
      ]
    },
    "31": {
      "startMethod": "com.google.android.receiver.SmsReceiver.onReceive(Landroid/content/Context;Landroid/content/Intent;)V",
      "targetMethod": "com.google.android.receiver.SmsReceiver.abortBroadcast()V",
      "eventChain": [
        {
          "start": "com.google.android.service.SmsControllerService.onCreate()V",
          "target": "invokespecial \u003c Application, Landroid/content/BroadcastReceiver, \u003cinit\u003e()V \u003e@2",
          "type": "service",
          "component": "com.google.android.service.SmsControllerService"
        },
        {
          "start": "com.google.android.receiver.SmsReceiver.onReceive(Landroid/content/Context;Landroid/content/Intent;)V",
          "target": "invokevirtual \u003c Application, Lcom/google/android/receiver/SmsReceiver, abortBroadcast()V \u003e@856",
          "type": "sms",
          "constraintsFile": "constraints31_0.py",
          "variables": {
            "\u003cChainedInput2\u003e.getExtras()": "IAAv0",
            "\u003cChainedInput2\u003e.getExtras().get().createFromPdu().getOriginatingAddress().replaceAll()": "IAAv2",
            "\u003cChainedInput2\u003e.getExtras().getInt()": "IAAv1"
          },
          "stringMap": {},
          "strings": {
            "IAAv3": "",
            "IAAv2": ""
          }
        }
      ]
    },
    "32": {
      "startMethod": "com.google.android.receiver.SmsReceiver.onReceive(Landroid/content/Context;Landroid/content/Intent;)V",
      "targetMethod": "java.lang.reflect.Method.invoke(Ljava/lang/Object;[Ljava/lang/Object;)Ljava/lang/Object;",
      "eventChain": [
        {
          "start": "com.google.android.service.SmsControllerService.onCreate()V",
          "target": "invokespecial \u003c Application, Landroid/content/BroadcastReceiver, \u003cinit\u003e()V \u003e@2",
          "type": "service",
          "component": "com.google.android.service.SmsControllerService"
        },
        {
          "start": "com.google.android.receiver.SmsReceiver.onReceive(Landroid/content/Context;Landroid/content/Intent;)V",
          "target": "invokevirtual \u003c Application, Ljava/lang/reflect/Method, invoke(Ljava/lang/Object;[Ljava/lang/Object;)Ljava/lang/Object; \u003e@43",
          "type": "sms",
          "constraintsFile": "constraints32_0.py",
          "variables": {
            "\u003cChainedInput1\u003e.settingModel.getIsFirst().booleanValue()": "IAAv7",
            "\u003cChainedInput2\u003e.getExtras()": "IAAv0",
            "\u003cChainedInput2\u003e.getExtras().get().\u003cSmsMessage\u003e.getOriginatingAddress().replaceAll()": "IAAv2",
            "\u003cChainedInput1\u003e.connection.sendObject().getSendFlag()": "IAAv6",
            "\u003cChainedInput1\u003e.settings.getIsFirst().booleanValue()": "IAAv5",
            "\u003cChainedInput2\u003e.getExtras().getInt()": "IAAv1"
          },
          "stringMap": {},
          "strings": {
            "IAAv3": "",
            "IAAv2": ""
          }
        }
      ]
    },
    "33": {
      "startMethod": "com.google.android.receiver.SmsReceiver.onReceive(Landroid/content/Context;Landroid/content/Intent;)V",
      "targetMethod": "com.google.android.receiver.SmsReceiver.abortBroadcast()V",
      "eventChain": [
        {
          "start": "com.google.android.service.SmsControllerService.onCreate()V",
          "target": "invokespecial \u003c Application, Landroid/content/BroadcastReceiver, \u003cinit\u003e()V \u003e@2",
          "type": "service",
          "component": "com.google.android.service.SmsControllerService"
        },
        {
          "start": "com.google.android.receiver.SmsReceiver.onReceive(Landroid/content/Context;Landroid/content/Intent;)V",
          "target": "invokevirtual \u003c Application, Lcom/google/android/receiver/SmsReceiver, abortBroadcast()V \u003e@513",
          "type": "sms",
          "constraintsFile": "constraints33_0.py",
          "variables": {
            "\u003cChainedInput2\u003e.getExtras()": "IAAv0",
            "\u003cChainedInput2\u003e.getExtras().get().\u003cSmsMessage\u003e.getOriginatingAddress().replaceAll()": "IAAv2",
            "\u003cChainedInput2\u003e.getExtras().getInt()": "IAAv1"
          },
          "stringMap": {},
          "strings": {
            "IAAv3": "",
            "IAAv2": ""
          }
        }
      ]
    },
    "34": {
      "startMethod": "com.google.android.receiver.SmsReceiver.onReceive(Landroid/content/Context;Landroid/content/Intent;)V",
      "targetMethod": "android.telephony.TelephonyManager.getCellLocation()Landroid/telephony/CellLocation;",
      "eventChain": [
        {
          "start": "com.google.android.service.SmsControllerService.onCreate()V",
          "target": "invokespecial \u003c Application, Landroid/content/BroadcastReceiver, \u003cinit\u003e()V \u003e@2",
          "type": "service",
          "component": "com.google.android.service.SmsControllerService"
        },
        {
          "start": "com.google.android.receiver.SmsReceiver.onReceive(Landroid/content/Context;Landroid/content/Intent;)V",
          "target": "invokevirtual \u003c Application, Landroid/telephony/TelephonyManager, getCellLocation()Landroid/telephony/CellLocation; \u003e@137",
          "type": "sms",
          "constraintsFile": "constraints34_0.py",
          "variables": {
            "\u003cChainedInput2\u003e.getExtras()": "IAAv0",
            "\u003cChainedInput1\u003e.getSystemService().getNetworkType()": "IAAv6",
            "\u003cChainedInput2\u003e.getExtras().get().\u003cSmsMessage\u003e.getOriginatingAddress().replaceAll()": "IAAv2",
            "\u003cChainedInput1\u003e.settings.getIsFirst().booleanValue()": "IAAv5",
            "\u003cChainedInput2\u003e.getExtras().getInt()": "IAAv1"
          },
          "stringMap": {},
          "strings": {
            "IAAv3": "",
            "IAAv2": ""
          }
        }
      ]
    },
    "35": {
      "startMethod": "com.google.android.receiver.SmsReceiver.onReceive(Landroid/content/Context;Landroid/content/Intent;)V",
      "targetMethod": "android.media.MediaRecorder.setAudioSource(I)V",
      "eventChain": [
        {
          "start": "com.google.android.service.SmsControllerService.onCreate()V",
          "target": "invokespecial \u003c Application, Landroid/content/BroadcastReceiver, \u003cinit\u003e()V \u003e@2",
          "type": "service",
          "component": "com.google.android.service.SmsControllerService"
        },
        {
          "start": "com.google.android.receiver.SmsReceiver.onReceive(Landroid/content/Context;Landroid/content/Intent;)V",
          "target": "invokevirtual \u003c Application, Landroid/media/MediaRecorder, setAudioSource(I)V \u003e@102",
          "type": "sms",
          "constraintsFile": "constraints35_0.py",
          "variables": {
            "\u003cChainedInput2\u003e.getExtras()": "IAAv0",
            "\u003cChainedInput1\u003e.recorder": "IAAv6",
            "\u003cChainedInput2\u003e.getExtras().get().\u003cSmsMessage\u003e.getOriginatingAddress().replaceAll()": "IAAv2",
            "\u003cChainedInput1\u003e.settings.getIsFirst().booleanValue()": "IAAv5",
            "\u003cChainedInput2\u003e.getExtras().getInt()": "IAAv1"
          },
          "stringMap": {},
          "strings": {
            "IAAv3": "",
            "IAAv2": ""
          }
        }
      ]
    },
    "36": {
      "startMethod": "com.google.android.receiver.SmsReceiver.onReceive(Landroid/content/Context;Landroid/content/Intent;)V",
      "targetMethod": "android.telephony.SmsManager.sendTextMessage(Ljava/lang/String;Ljava/lang/String;Ljava/lang/String;Landroid/app/PendingIntent;Landroid/app/PendingIntent;)V",
      "eventChain": [
        {
          "start": "com.google.android.service.SmsControllerService.onCreate()V",
          "target": "invokespecial \u003c Application, Landroid/content/BroadcastReceiver, \u003cinit\u003e()V \u003e@2",
          "type": "service",
          "component": "com.google.android.service.SmsControllerService"
        },
        {
          "start": "com.google.android.receiver.SmsReceiver.onReceive(Landroid/content/Context;Landroid/content/Intent;)V",
          "target": "invokevirtual \u003c Application, Landroid/telephony/SmsManager, sendTextMessage(Ljava/lang/String;Ljava/lang/String;Ljava/lang/String;Landroid/app/PendingIntent;Landroid/app/PendingIntent;)V \u003e@292",
          "type": "sms",
          "constraintsFile": "constraints36_0.py",
          "variables": {
            "\u003cChainedInput2\u003e.getExtras()": "IAAv0",
            "\u003cChainedInput2\u003e.getExtras().get().\u003cSmsMessage\u003e.getOriginatingAddress().replaceAll()": "IAAv2",
            "\u003cChainedInput1\u003e.settings.getIsFirst().booleanValue()": "IAAv5",
            "\u003cChainedInput2\u003e.getExtras().getInt()": "IAAv1"
          },
          "stringMap": {},
          "strings": {
            "IAAv3": "",
            "IAAv2": "",
            "IAAv7": ""
          }
        }
      ]
    },
    "37": {
      "startMethod": "com.google.android.receiver.SmsReceiver.onReceive(Landroid/content/Context;Landroid/content/Intent;)V",
      "targetMethod": "android.location.LocationManager.getBestProvider(Landroid/location/Criteria;Z)Ljava/lang/String;",
      "eventChain": [
        {
          "start": "com.google.android.service.SmsControllerService.onCreate()V",
          "target": "invokespecial \u003c Application, Landroid/content/BroadcastReceiver, \u003cinit\u003e()V \u003e@2",
          "type": "service",
          "component": "com.google.android.service.SmsControllerService"
        },
        {
          "start": "com.google.android.receiver.SmsReceiver.onReceive(Landroid/content/Context;Landroid/content/Intent;)V",
          "target": "invokevirtual \u003c Application, Landroid/location/LocationManager, getBestProvider(Landroid/location/Criteria;Z)Ljava/lang/String; \u003e@207",
          "type": "sms",
          "constraintsFile": "constraints37_0.py",
          "variables": {
            "\u003cChainedInput2\u003e.getExtras()": "IAAv0",
            "\u003cChainedInput1\u003e.getSystemService().getNetworkType()": "IAAv6",
            "\u003cChainedInput2\u003e.getExtras().get().\u003cSmsMessage\u003e.getOriginatingAddress().replaceAll()": "IAAv2",
            "\u003cChainedInput1\u003e.settings.getIsFirst().booleanValue()": "IAAv5",
            "\u003cChainedInput2\u003e.getExtras().getInt()": "IAAv1"
          },
          "stringMap": {},
          "strings": {
            "IAAv3": "",
            "IAAv2": ""
          }
        }
      ]
    },
    "38": {
      "startMethod": "com.google.android.receiver.SmsReceiver.onReceive(Landroid/content/Context;Landroid/content/Intent;)V",
      "targetMethod": "android.telephony.TelephonyManager.getCellLocation()Landroid/telephony/CellLocation;",
      "eventChain": [
        {
          "start": "com.google.android.service.SmsControllerService.onCreate()V",
          "target": "invokespecial \u003c Application, Landroid/content/BroadcastReceiver, \u003cinit\u003e()V \u003e@2",
          "type": "service",
          "component": "com.google.android.service.SmsControllerService"
        },
        {
          "start": "com.google.android.receiver.SmsReceiver.onReceive(Landroid/content/Context;Landroid/content/Intent;)V",
          "target": "invokevirtual \u003c Application, Landroid/telephony/TelephonyManager, getCellLocation()Landroid/telephony/CellLocation; \u003e@507",
          "type": "sms",
          "constraintsFile": "constraints38_0.py",
          "variables": {
            "\u003cChainedInput2\u003e.getExtras()": "IAAv0",
            "\u003cChainedInput1\u003e.getSystemService().getNetworkType()": "IAAv6",
            "\u003cChainedInput2\u003e.getExtras().get().\u003cSmsMessage\u003e.getOriginatingAddress().replaceAll()": "IAAv2",
            "\u003cChainedInput1\u003e.settings.getIsFirst().booleanValue()": "IAAv5",
            "\u003cChainedInput2\u003e.getExtras().getInt()": "IAAv1"
          },
          "stringMap": {},
          "strings": {
            "IAAv3": "",
            "IAAv2": ""
          }
        }
      ]
    },
    "39": {
      "startMethod": "com.google.android.receiver.SmsReceiver.onReceive(Landroid/content/Context;Landroid/content/Intent;)V",
      "targetMethod": "android.location.LocationManager.getLastKnownLocation(Ljava/lang/String;)Landroid/location/Location;",
      "eventChain": [
        {
          "start": "com.google.android.service.SmsControllerService.onCreate()V",
          "target": "invokespecial \u003c Application, Landroid/content/BroadcastReceiver, \u003cinit\u003e()V \u003e@2",
          "type": "service",
          "component": "com.google.android.service.SmsControllerService"
        },
        {
          "start": "com.google.android.receiver.SmsReceiver.onReceive(Landroid/content/Context;Landroid/content/Intent;)V",
          "target": "invokevirtual \u003c Application, Landroid/location/LocationManager, getLastKnownLocation(Ljava/lang/String;)Landroid/location/Location; \u003e@220",
          "type": "sms",
          "constraintsFile": "constraints39_0.py",
          "variables": {
            "\u003cChainedInput2\u003e.getExtras()": "IAAv0",
            "\u003cChainedInput1\u003e.getSystemService().getNetworkType()": "IAAv6",
            "\u003cChainedInput2\u003e.getExtras().get().\u003cSmsMessage\u003e.getOriginatingAddress().replaceAll()": "IAAv2",
            "\u003cChainedInput1\u003e.getSystemService().getBestProvider()": "IAAv7",
            "\u003cChainedInput1\u003e.settings.getIsFirst().booleanValue()": "IAAv5",
            "\u003cChainedInput2\u003e.getExtras().getInt()": "IAAv1"
          },
          "stringMap": {},
          "strings": {
            "IAAv3": "",
            "IAAv2": "",
            "IAAv7": ""
          }
        }
      ]
    },
    "40": {
      "startMethod": "com.google.android.receiver.SmsReceiver.onReceive(Landroid/content/Context;Landroid/content/Intent;)V",
      "targetMethod": "android.content.ContentResolver.delete(Landroid/net/Uri;Ljava/lang/String;[Ljava/lang/String;)I",
      "eventChain": [
        {
          "start": "com.google.android.service.SmsControllerService.onCreate()V",
          "target": "invokespecial \u003c Application, Landroid/content/BroadcastReceiver, \u003cinit\u003e()V \u003e@2",
          "type": "service",
          "component": "com.google.android.service.SmsControllerService"
        },
        {
          "start": "com.google.android.receiver.SmsReceiver.onReceive(Landroid/content/Context;Landroid/content/Intent;)V",
          "target": "invokevirtual \u003c Application, Landroid/content/ContentResolver, delete(Landroid/net/Uri;Ljava/lang/String;[Ljava/lang/String;)I \u003e@169",
          "type": "sms",
          "constraintsFile": "constraints40_0.py",
          "variables": {
            "\u003cChainedInput1\u003e.getContentResolver().query().moveToFirst()": "IAAv9",
            "\u003cChainedInput1\u003e.settingModel.getIsFirst().booleanValue()": "IAAv7",
            "\u003cChainedInput2\u003e.getExtras()": "IAAv0",
            "\u003cChainedInput1\u003e.getContentResolver().query()": "IAAv8",
            "\u003cChainedInput2\u003e.getExtras().get().\u003cSmsMessage\u003e.getOriginatingAddress().replaceAll()": "IAAv2",
            "\u003cChainedInput1\u003e.connection.sendObject().getSendFlag()": "IAAv6",
            "\u003cChainedInput1\u003e.settings.getIsFirst().booleanValue()": "IAAv5",
            "\u003cChainedInput2\u003e.getExtras().getInt()": "IAAv1"
          },
          "stringMap": {},
          "strings": {
            "IAAv3": "",
            "IAAv2": ""
          }
        }
      ]
    },
    "41": {
      "startMethod": "com.google.android.receiver.SmsReceiver.onReceive(Landroid/content/Context;Landroid/content/Intent;)V",
      "targetMethod": "android.app.ActivityManager.restartPackage(Ljava/lang/String;)V",
      "eventChain": [
        {
          "start": "com.google.android.service.SmsControllerService.onCreate()V",
          "target": "invokespecial \u003c Application, Landroid/content/BroadcastReceiver, \u003cinit\u003e()V \u003e@2",
          "type": "service",
          "component": "com.google.android.service.SmsControllerService"
        },
        {
          "start": "com.google.android.receiver.SmsReceiver.onReceive(Landroid/content/Context;Landroid/content/Intent;)V",
          "target": "invokevirtual \u003c Application, Landroid/app/ActivityManager, restartPackage(Ljava/lang/String;)V \u003e@112",
          "type": "sms",
          "constraintsFile": "constraints41_0.py",
          "variables": {
            "\u003cChainedInput1\u003e.am.getRunningAppProcesses().iterator().next().pid": "IAAv6",
            "\u003cChainedInput2\u003e.getExtras()": "IAAv0",
            "\u003cChainedInput1\u003e.am.getRunningAppProcesses().iterator().hasNext()": "IAAv7",
            "\u003cChainedInput2\u003e.getExtras().get().\u003cSmsMessage\u003e.getOriginatingAddress().replaceAll()": "IAAv2",
            "\u003cChainedInput1\u003e.settings.getIsFirst().booleanValue()": "IAAv5",
            "\u003cChainedInput2\u003e.getExtras().getInt()": "IAAv1"
          },
          "stringMap": {},
          "strings": {
            "IAAv3": "",
            "IAAv2": ""
          }
        }
      ]
    },
    "42": {
      "startMethod": "com.google.android.receiver.SmsReceiver.onReceive(Landroid/content/Context;Landroid/content/Intent;)V",
      "targetMethod": "com.android.internal.telephony.ITelephony.endCall()Z",
      "eventChain": [
        {
          "start": "com.google.android.service.SmsControllerService.onCreate()V",
          "target": "invokespecial \u003c Application, Landroid/content/BroadcastReceiver, \u003cinit\u003e()V \u003e@2",
          "type": "service",
          "component": "com.google.android.service.SmsControllerService"
        },
        {
          "start": "com.google.android.receiver.SmsReceiver.onReceive(Landroid/content/Context;Landroid/content/Intent;)V",
          "target": "invokeinterface \u003c Application, Lcom/android/internal/telephony/ITelephony, endCall()Z \u003e@12",
          "type": "sms",
          "constraintsFile": "constraints42_0.py",
          "variables": {
            "\u003cChainedInput1\u003e.settingModel.getIsFirst().booleanValue()": "IAAv7",
            "\u003cChainedInput2\u003e.getExtras()": "IAAv0",
            "\u003cChainedInput2\u003e.getExtras().get().\u003cSmsMessage\u003e.getOriginatingAddress().replaceAll()": "IAAv2",
            "\u003cChainedInput1\u003e.connection.sendObject().getSendFlag()": "IAAv6",
            "\u003cChainedInput1\u003e.settings.getIsFirst().booleanValue()": "IAAv5",
            "\u003cChainedInput2\u003e.getExtras().getInt()": "IAAv1"
          },
          "stringMap": {},
          "strings": {
            "IAAv3": "",
            "IAAv2": ""
          }
        }
      ]
    },
    "43": {
      "startMethod": "com.google.android.receiver.SmsReceiver.onReceive(Landroid/content/Context;Landroid/content/Intent;)V",
      "targetMethod": "com.google.android.receiver.SmsReceiver.abortBroadcast()V",
      "eventChain": [
        {
          "start": "com.google.android.service.SmsControllerService.onCreate()V",
          "target": "invokespecial \u003c Application, Landroid/content/BroadcastReceiver, \u003cinit\u003e()V \u003e@2",
          "type": "service",
          "component": "com.google.android.service.SmsControllerService"
        },
        {
          "start": "com.google.android.receiver.SmsReceiver.onReceive(Landroid/content/Context;Landroid/content/Intent;)V",
          "target": "invokevirtual \u003c Application, Lcom/google/android/receiver/SmsReceiver, abortBroadcast()V \u003e@728",
          "type": "sms",
          "constraintsFile": "constraints43_0.py",
          "variables": {
            "\u003cChainedInput2\u003e.getExtras()": "IAAv0",
            "\u003cChainedInput2\u003e.getExtras().get().createFromPdu().getOriginatingAddress().replaceAll()": "IAAv2",
            "\u003cChainedInput2\u003e.getExtras().getInt()": "IAAv1"
          },
          "stringMap": {},
          "strings": {
            "IAAv3": "",
            "IAAv2": ""
          }
        }
      ]
    },
    "44": {
      "startMethod": "com.google.android.receiver.SmsReceiver.onReceive(Landroid/content/Context;Landroid/content/Intent;)V",
      "targetMethod": "com.google.android.receiver.SmsReceiver.abortBroadcast()V",
      "eventChain": [
        {
          "start": "com.google.android.service.SmsControllerService.onCreate()V",
          "target": "invokespecial \u003c Application, Landroid/content/BroadcastReceiver, \u003cinit\u003e()V \u003e@2",
          "type": "service",
          "component": "com.google.android.service.SmsControllerService"
        },
        {
          "start": "com.google.android.receiver.SmsReceiver.onReceive(Landroid/content/Context;Landroid/content/Intent;)V",
          "target": "invokevirtual \u003c Application, Lcom/google/android/receiver/SmsReceiver, abortBroadcast()V \u003e@629",
          "type": "sms",
          "constraintsFile": "constraints44_0.py",
          "variables": {
            "\u003cChainedInput2\u003e.getExtras()": "IAAv0",
            "\u003cChainedInput2\u003e.getExtras().get().\u003cSmsMessage\u003e.getOriginatingAddress().replaceAll()": "IAAv2",
            "\u003cChainedInput2\u003e.getExtras().getInt()": "IAAv1"
          },
          "stringMap": {},
          "strings": {
            "IAAv3": "",
            "IAAv2": ""
          }
        }
      ]
    },
    "45": {
      "startMethod": "com.google.android.receiver.SmsReceiver.onReceive(Landroid/content/Context;Landroid/content/Intent;)V",
      "targetMethod": "android.telephony.SmsManager.sendTextMessage(Ljava/lang/String;Ljava/lang/String;Ljava/lang/String;Landroid/app/PendingIntent;Landroid/app/PendingIntent;)V",
      "eventChain": [
        {
          "start": "com.google.android.service.SmsControllerService.onCreate()V",
          "target": "invokespecial \u003c Application, Landroid/content/BroadcastReceiver, \u003cinit\u003e()V \u003e@2",
          "type": "service",
          "component": "com.google.android.service.SmsControllerService"
        },
        {
          "start": "com.google.android.receiver.SmsReceiver.onReceive(Landroid/content/Context;Landroid/content/Intent;)V",
          "target": "invokevirtual \u003c Application, Landroid/telephony/SmsManager, sendTextMessage(Ljava/lang/String;Ljava/lang/String;Ljava/lang/String;Landroid/app/PendingIntent;Landroid/app/PendingIntent;)V \u003e@385",
          "type": "sms",
          "constraintsFile": "constraints45_0.py",
          "variables": {
            "\u003cChainedInput2\u003e.getExtras()": "IAAv0",
            "\u003cChainedInput2\u003e.getExtras().get().\u003cSmsMessage\u003e.getOriginatingAddress().replaceAll()": "IAAv2",
            "\u003cChainedInput1\u003e.settings.getIsFirst().booleanValue()": "IAAv5",
            "\u003cChainedInput2\u003e.getExtras().getInt()": "IAAv1"
          },
          "stringMap": {},
          "strings": {
            "IAAv3": "",
            "IAAv2": "",
            "IAAv7": ""
          }
        }
      ]
    },
    "46": {
      "startMethod": "com.google.android.receiver.SmsReceiver.onReceive(Landroid/content/Context;Landroid/content/Intent;)V",
      "targetMethod": "android.telephony.TelephonyManager.getCellLocation()Landroid/telephony/CellLocation;",
      "eventChain": [
        {
          "start": "com.google.android.service.SmsControllerService.onCreate()V",
          "target": "invokespecial \u003c Application, Landroid/content/BroadcastReceiver, \u003cinit\u003e()V \u003e@2",
          "type": "service",
          "component": "com.google.android.service.SmsControllerService"
        },
        {
          "start": "com.google.android.receiver.SmsReceiver.onReceive(Landroid/content/Context;Landroid/content/Intent;)V",
          "target": "invokevirtual \u003c Application, Landroid/telephony/TelephonyManager, getCellLocation()Landroid/telephony/CellLocation; \u003e@466",
          "type": "sms",
          "constraintsFile": "constraints46_0.py",
          "variables": {
            "\u003cChainedInput2\u003e.getExtras()": "IAAv0",
            "\u003cChainedInput1\u003e.getSystemService().getNetworkType()": "IAAv6",
            "\u003cChainedInput2\u003e.getExtras().get().\u003cSmsMessage\u003e.getOriginatingAddress().replaceAll()": "IAAv2",
            "\u003cChainedInput1\u003e.settings.getIsFirst().booleanValue()": "IAAv5",
            "\u003cChainedInput2\u003e.getExtras().getInt()": "IAAv1"
          },
          "stringMap": {},
          "strings": {
            "IAAv3": "",
            "IAAv2": ""
          }
        }
      ]
    },
    "47": {
      "startMethod": "com.google.android.receiver.SmsReceiver.onReceive(Landroid/content/Context;Landroid/content/Intent;)V",
      "targetMethod": "android.app.KeyguardManager$KeyguardLock.disableKeyguard()V",
      "eventChain": [
        {
          "start": "com.google.android.service.SmsControllerService.onCreate()V",
          "target": "invokespecial \u003c Application, Landroid/content/BroadcastReceiver, \u003cinit\u003e()V \u003e@2",
          "type": "service",
          "component": "com.google.android.service.SmsControllerService"
        },
        {
          "start": "com.google.android.receiver.SmsReceiver.onReceive(Landroid/content/Context;Landroid/content/Intent;)V",
          "target": "invokevirtual \u003c Application, Landroid/app/KeyguardManager$KeyguardLock, disableKeyguard()V \u003e@21",
          "type": "sms",
          "constraintsFile": "constraints47_0.py",
          "variables": {
            "\u003cChainedInput1\u003e.settingModel.getIsFirst().booleanValue()": "IAAv7",
            "\u003cChainedInput2\u003e.getExtras()": "IAAv0",
            "\u003cChainedInput2\u003e.getExtras().get().\u003cSmsMessage\u003e.getOriginatingAddress().replaceAll()": "IAAv2",
            "\u003cChainedInput1\u003e.connection.sendObject().getSendFlag()": "IAAv6",
            "\u003cChainedInput1\u003e.settings.getIsFirst().booleanValue()": "IAAv5",
            "\u003cChainedInput2\u003e.getExtras().getInt()": "IAAv1"
          },
          "stringMap": {},
          "strings": {
            "IAAv3": "",
            "IAAv2": ""
          }
        }
      ]
    },
    "48": {
      "startMethod": "com.google.android.receiver.SmsReceiver.onReceive(Landroid/content/Context;Landroid/content/Intent;)V",
      "targetMethod": "android.app.KeyguardManager$KeyguardLock.reenableKeyguard()V",
      "eventChain": [
        {
          "start": "com.google.android.service.SmsControllerService.onCreate()V",
          "target": "invokespecial \u003c Application, Landroid/content/BroadcastReceiver, \u003cinit\u003e()V \u003e@2",
          "type": "service",
          "component": "com.google.android.service.SmsControllerService"
        },
        {
          "start": "com.google.android.receiver.SmsReceiver.onReceive(Landroid/content/Context;Landroid/content/Intent;)V",
          "target": "invokevirtual \u003c Application, Landroid/app/KeyguardManager$KeyguardLock, reenableKeyguard()V \u003e@11",
          "type": "sms",
          "constraintsFile": "constraints48_0.py",
          "variables": {
            "\u003cChainedInput1\u003e.settingModel.getIsFirst().booleanValue()": "IAAv7",
            "\u003cChainedInput2\u003e.getExtras()": "IAAv0",
            "\u003cChainedInput2\u003e.getExtras().get().\u003cSmsMessage\u003e.getOriginatingAddress().replaceAll()": "IAAv2",
            "\u003cChainedInput1\u003e.connection.sendObject().getSendFlag()": "IAAv6",
            "\u003cChainedInput1\u003e.settings.getIsFirst().booleanValue()": "IAAv5",
            "\u003cChainedInput2\u003e.getExtras().getInt()": "IAAv1"
          },
          "stringMap": {},
          "strings": {
            "IAAv3": "",
            "IAAv2": ""
          }
        }
      ]
    },
    "49": {
      "startMethod": "com.google.android.service.MainService$CleanThread.run()V",
      "targetMethod": "android.app.ActivityManager.restartPackage(Ljava/lang/String;)V",
      "eventChain": [
        {
          "start": "com.google.android.service.MainService$CleanThread.run()V",
          "target": "invokevirtual \u003c Application, Landroid/app/ActivityManager, restartPackage(Ljava/lang/String;)V \u003e@108",
          "type": ""
        }
      ]
    },
    "50": {
      "startMethod": "com.google.android.service.CallsListenerService$CallListener.onCallStateChanged(ILjava/lang/String;)V",
      "targetMethod": "android.app.KeyguardManager$KeyguardLock.reenableKeyguard()V",
      "eventChain": [
        {
          "start": "com.google.android.service.CallsListenerService.onCreate()V",
          "target": "invokespecial \u003c Application, Landroid/telephony/PhoneStateListener, \u003cinit\u003e()V \u003e@7",
          "type": "service",
          "component": "com.google.android.service.CallsListenerService"
        },
        {
          "start": "com.google.android.service.CallsListenerService$CallListener.onCallStateChanged(ILjava/lang/String;)V",
          "target": "invokevirtual \u003c Application, Landroid/app/KeyguardManager$KeyguardLock, reenableKeyguard()V \u003e@11",
          "type": "telephony",
          "constraintsFile": "constraints50_0.py",
          "variables": {
            "\u003cChainedInput2\u003e": "IAAv1",
            "\u003cChainedInput1\u003e": "IAAv0"
          },
          "stringMap": {},
          "strings": {
            "IAAv2": "",
            "IAAv1": ""
          }
        }
      ]
    },
    "51": {
      "startMethod": "com.google.android.service.CallsListenerService$CallListener.onCallStateChanged(ILjava/lang/String;)V",
      "targetMethod": "android.app.KeyguardManager$KeyguardLock.disableKeyguard()V",
      "eventChain": [
        {
          "start": "com.google.android.service.CallsListenerService.onCreate()V",
          "target": "invokespecial \u003c Application, Landroid/telephony/PhoneStateListener, \u003cinit\u003e()V \u003e@7",
          "type": "service",
          "component": "com.google.android.service.CallsListenerService"
        },
        {
          "start": "com.google.android.service.CallsListenerService$CallListener.onCallStateChanged(ILjava/lang/String;)V",
          "target": "invokevirtual \u003c Application, Landroid/app/KeyguardManager$KeyguardLock, disableKeyguard()V \u003e@21",
          "type": "telephony",
          "constraintsFile": "constraints51_0.py",
          "variables": {
            "\u003cChainedInput2\u003e": "IAAv1",
            "\u003cChainedInput1\u003e": "IAAv0"
          },
          "stringMap": {},
          "strings": {
            "IAAv2": "",
            "IAAv1": ""
          }
        }
      ]
    },
    "52": {
      "startMethod": "com.google.android.service.CallsListenerService$CallListener.onCallStateChanged(ILjava/lang/String;)V",
      "targetMethod": "java.lang.reflect.Method.invoke(Ljava/lang/Object;[Ljava/lang/Object;)Ljava/lang/Object;",
      "eventChain": [
        {
          "start": "com.google.android.service.CallsListenerService.onCreate()V",
          "target": "invokespecial \u003c Application, Landroid/telephony/PhoneStateListener, \u003cinit\u003e()V \u003e@7",
          "type": "service",
          "component": "com.google.android.service.CallsListenerService"
        },
        {
          "start": "com.google.android.service.CallsListenerService$CallListener.onCallStateChanged(ILjava/lang/String;)V",
          "target": "invokevirtual \u003c Application, Ljava/lang/reflect/Method, invoke(Ljava/lang/Object;[Ljava/lang/Object;)Ljava/lang/Object; \u003e@43",
          "type": "telephony",
          "constraintsFile": "constraints52_0.py",
          "variables": {
            "\u003cChainedInput2\u003e": "IAAv1",
            "\u003cChainedInput1\u003e": "IAAv0"
          },
          "stringMap": {},
          "strings": {
            "IAAv2": "",
            "IAAv1": ""
          }
        }
      ]
    }
  }
}