{
  "packageName": "app.two",
  "mainActivity": "app.two.MainActivity",
  "callPaths": {
    "0": {
      "startMethod": "app.two.MainReceiver.onReceive(Landroid/content/Context;Landroid/content/Intent;)V",
      "targetMethod": "app.two.MainReceiver.abortBroadcast()V",
      "eventChain": [
        {
          "start": "app.two.MainReceiver.onReceive(Landroid/content/Context;Landroid/content/Intent;)V",
          "target": "invokevirtual \u003c Application, Lapp/two/MainReceiver, abortBroadcast()V \u003e@171",
          "type": "sms",
          "constraintsFile": "constraints0_0.py",
          "variables": {
            "\u003cInput2\u003e.getAction()": "IAAv0",
            "\u003cInput1\u003e.e()": "IAAv3"
          },
          "stringMap": {
            "7000": "custom.alarm",
            "7001": "android.provider.Telephony.SMS_RECEIVED"
          },
          "strings": {
            "IAAv0": ""
          }
        }
      ]
    },
    "1": {
      "startMethod": "app.two.MainReceiver.onReceive(Landroid/content/Context;Landroid/content/Intent;)V",
      "targetMethod": "android.telephony.SmsManager.sendTextMessage(Ljava/lang/String;Ljava/lang/String;Ljava/lang/String;Landroid/app/PendingIntent;Landroid/app/PendingIntent;)V",
      "eventChain": [
        {
          "start": "app.two.MainActivity.onCreate(Landroid/os/Bundle;)V",
          "target": "PC@47",
          "type": "activity",
          "component": "app.two.MainActivity"
        },
        {
          "start": "app.two.MainReceiver.onReceive(Landroid/content/Context;Landroid/content/Intent;)V",
          "target": "invokevirtual \u003c Application, Landroid/telephony/SmsManager, sendTextMessage(Ljava/lang/String;Ljava/lang/String;Ljava/lang/String;Landroid/app/PendingIntent;Landroid/app/PendingIntent;)V \u003e@137",
          "type": "sms",
          "constraintsFile": "constraints1_0.py",
          "variables": {
            "\u003cInput2\u003e.getAction()": "IAAv0",
            "\u003cInput1\u003e.e()": "IAAv4"
          },
          "stringMap": {
            "7000": "custom.alarm",
            "7001": "android.provider.Telephony.SMS_RECEIVED",
            "7002": "custom.send"
          },
          "strings": {
            "IAAv0": ""
          }
        }
      ]
    }
  }
}