{
  "packageName": "com.fanglz.android.goodtiming",
  "mainActivity": "com.fanglz.android.ads.SplashActivity",
  "callPaths": {
    "0": {
      "startMethod": "com.baidu.mobads.AppActivity.onStop()V",
      "targetMethod": "java.lang.reflect.Method.invoke(Ljava/lang/Object;[Ljava/lang/Object;)Ljava/lang/Object;",
      "eventChain": [
        {
          "start": "com.baidu.mobads.AppActivity.onStop()V",
          "target": "invokevirtual \u003c Application, Ljava/lang/reflect/Method, invoke(Ljava/lang/Object;[Ljava/lang/Object;)Ljava/lang/Object; \u003e@115",
          "type": "activity",
          "component": "com.baidu.mobads.AppActivity"
        }
      ]
    },
    "1": {
      "startMethod": "com.baidu.mobads.AppActivity.onStop()V",
      "targetMethod": "java.lang.reflect.Method.invoke(Ljava/lang/Object;[Ljava/lang/Object;)Ljava/lang/Object;",
      "eventChain": [
        {
          "start": "com.baidu.mobads.AppActivity.onStop()V",
          "target": "invokevirtual \u003c Application, Ljava/lang/reflect/Method, invoke(Ljava/lang/Object;[Ljava/lang/Object;)Ljava/lang/Object; \u003e@100",
          "type": "activity",
          "component": "com.baidu.mobads.AppActivity"
        }
      ]
    },
    "2": {
      "startMethod": "com.fanglz.android.goodtiming.GoodTiming.onDestroy()V",
      "targetMethod": "java.lang.reflect.Method.invoke(Ljava/lang/Object;[Ljava/lang/Object;)Ljava/lang/Object;",
      "eventChain": [
        {
          "start": "com.fanglz.android.goodtiming.GoodTiming.onDestroy()V",
          "target": "invokevirtual \u003c Application, Ljava/lang/reflect/Method, invoke(Ljava/lang/Object;[Ljava/lang/Object;)Ljava/lang/Object; \u003e@70",
          "type": "activity",
          "component": "com.fanglz.android.goodtiming.GoodTiming"
        }
      ]
    },
    "3": {
      "startMethod": "com.baidu.mobads.AppActivity.onResume()V",
      "targetMethod": "java.lang.reflect.Method.invoke(Ljava/lang/Object;[Ljava/lang/Object;)Ljava/lang/Object;",
      "eventChain": [
        {
          "start": "com.baidu.mobads.AppActivity.onResume()V",
          "target": "invokevirtual \u003c Application, Ljava/lang/reflect/Method, invoke(Ljava/lang/Object;[Ljava/lang/Object;)Ljava/lang/Object; \u003e@115",
          "type": "activity",
          "component": "com.baidu.mobads.AppActivity"
        }
      ]
    },
    "4": {
      "startMethod": "com.baidu.mobads.AppActivity.onResume()V",
      "targetMethod": "java.lang.reflect.Method.invoke(Ljava/lang/Object;[Ljava/lang/Object;)Ljava/lang/Object;",
      "eventChain": [
        {
          "start": "com.baidu.mobads.AppActivity.onResume()V",
          "target": "invokevirtual \u003c Application, Ljava/lang/reflect/Method, invoke(Ljava/lang/Object;[Ljava/lang/Object;)Ljava/lang/Object; \u003e@100",
          "type": "activity",
          "component": "com.baidu.mobads.AppActivity"
        }
      ]
    },
    "5": {
      "startMethod": "com.fanglz.android.goodtiming.GoodTiming.onCreate(Landroid/os/Bundle;)V",
      "targetMethod": "java.lang.reflect.Method.invoke(Ljava/lang/Object;[Ljava/lang/Object;)Ljava/lang/Object;",
      "eventChain": [
        {
          "start": "com.fanglz.android.goodtiming.GoodTiming.onCreate(Landroid/os/Bundle;)V",
          "target": "invokevirtual \u003c Application, Ljava/lang/reflect/Method, invoke(Ljava/lang/Object;[Ljava/lang/Object;)Ljava/lang/Object; \u003e@70",
          "type": "activity",
          "component": "com.fanglz.android.goodtiming.GoodTiming",
          "constraintsFile": "constraints5_0.py",
          "variables": {},
          "stringMap": {},
          "strings": {}
        }
      ]
    },
    "6": {
      "startMethod": "com.baidu.mobads.AppActivity.onDestroy()V",
      "targetMethod": "java.lang.reflect.Method.invoke(Ljava/lang/Object;[Ljava/lang/Object;)Ljava/lang/Object;",
      "eventChain": [
        {
          "start": "com.baidu.mobads.AppActivity.onDestroy()V",
          "target": "invokevirtual \u003c Application, Ljava/lang/reflect/Method, invoke(Ljava/lang/Object;[Ljava/lang/Object;)Ljava/lang/Object; \u003e@100",
          "type": "activity",
          "component": "com.baidu.mobads.AppActivity"
        }
      ]
    },
    "7": {
      "startMethod": "com.baidu.mobads.AppActivity.onDestroy()V",
      "targetMethod": "java.lang.reflect.Method.invoke(Ljava/lang/Object;[Ljava/lang/Object;)Ljava/lang/Object;",
      "eventChain": [
        {
          "start": "com.baidu.mobads.AppActivity.onDestroy()V",
          "target": "invokevirtual \u003c Application, Ljava/lang/reflect/Method, invoke(Ljava/lang/Object;[Ljava/lang/Object;)Ljava/lang/Object; \u003e@115",
          "type": "activity",
          "component": "com.baidu.mobads.AppActivity"
        }
      ]
    },
    "8": {
      "startMethod": "com.baidu.mobads.AppActivity.onStart()V",
      "targetMethod": "java.lang.reflect.Method.invoke(Ljava/lang/Object;[Ljava/lang/Object;)Ljava/lang/Object;",
      "eventChain": [
        {
          "start": "com.baidu.mobads.AppActivity.onStart()V",
          "target": "invokevirtual \u003c Application, Ljava/lang/reflect/Method, invoke(Ljava/lang/Object;[Ljava/lang/Object;)Ljava/lang/Object; \u003e@115",
          "type": "activity",
          "component": "com.baidu.mobads.AppActivity"
        }
      ]
    },
    "9": {
      "startMethod": "com.baidu.mobads.AppActivity.onStart()V",
      "targetMethod": "java.lang.reflect.Method.invoke(Ljava/lang/Object;[Ljava/lang/Object;)Ljava/lang/Object;",
      "eventChain": [
        {
          "start": "com.baidu.mobads.AppActivity.onStart()V",
          "target": "invokevirtual \u003c Application, Ljava/lang/reflect/Method, invoke(Ljava/lang/Object;[Ljava/lang/Object;)Ljava/lang/Object; \u003e@100",
          "type": "activity",
          "component": "com.baidu.mobads.AppActivity"
        }
      ]
    },
    "10": {
      "startMethod": "com.fanglz.android.goodtiming.GoodTiming.onResume()V",
      "targetMethod": "java.net.URL.openConnection(Ljava/net/Proxy;)Ljava/net/URLConnection;",
      "eventChain": [
        {
          "start": "com.fanglz.android.goodtiming.GoodTiming.onResume()V",
          "target": "invokevirtual \u003c Application, Ljava/net/URL, openConnection(Ljava/net/Proxy;)Ljava/net/URLConnection; \u003e@279",
          "type": "activity",
          "component": "com.fanglz.android.goodtiming.GoodTiming"
        }
      ]
    },
    "11": {
      "startMethod": "com.fanglz.android.goodtiming.GoodTiming.onResume()V",
      "targetMethod": "java.net.URL.openConnection()Ljava/net/URLConnection;",
      "eventChain": [
        {
          "start": "com.fanglz.android.goodtiming.GoodTiming.onResume()V",
          "target": "invokevirtual \u003c Application, Ljava/net/URL, openConnection()Ljava/net/URLConnection; \u003e@329",
          "type": "activity",
          "component": "com.fanglz.android.goodtiming.GoodTiming"
        }
      ]
    },
    "12": {
      "startMethod": "com.fanglz.android.goodtiming.GoodTiming.onResume()V",
      "targetMethod": "java.net.URL.openConnection(Ljava/net/Proxy;)Ljava/net/URLConnection;",
      "eventChain": [
        {
          "start": "com.fanglz.android.goodtiming.GoodTiming.onResume()V",
          "target": "invokevirtual \u003c Application, Ljava/net/URL, openConnection(Ljava/net/Proxy;)Ljava/net/URLConnection; \u003e@230",
          "type": "activity",
          "component": "com.fanglz.android.goodtiming.GoodTiming"
        }
      ]
    },
    "13": {
      "startMethod": "com.fanglz.android.goodtiming.GoodTiming.onResume()V",
      "targetMethod": "java.net.URL.openConnection()Ljava/net/URLConnection;",
      "eventChain": [
        {
          "start": "com.fanglz.android.goodtiming.GoodTiming.onResume()V",
          "target": "PC@8",
          "type": "activity",
          "component": "com.fanglz.android.goodtiming.GoodTiming",
          "constraintsFile": "constraints13_0.py",
          "variables": {},
          "stringMap": {},
          "strings": {}
        },
        {
          "start": "com.fanglz.android.goodtiming.GoodTiming.onResume()V",
          "target": "invokevirtual \u003c Application, Ljava/net/URL, openConnection()Ljava/net/URLConnection; \u003e@82",
          "type": "activity",
          "component": "com.fanglz.android.goodtiming.GoodTiming",
          "constraintsFile": "constraints13_1.py",
          "variables": {},
          "stringMap": {},
          "strings": {}
        }
      ]
    },
    "14": {
      "startMethod": "com.fanglz.android.goodtiming.GoodTiming.onResume()V",
      "targetMethod": "java.net.URL.openConnection()Ljava/net/URLConnection;",
      "eventChain": [
        {
          "start": "com.fanglz.android.goodtiming.GoodTiming.onResume()V",
          "target": "invokevirtual \u003c Application, Ljava/net/URL, openConnection()Ljava/net/URLConnection; \u003e@296",
          "type": "activity",
          "component": "com.fanglz.android.goodtiming.GoodTiming"
        }
      ]
    },
    "15": {
      "startMethod": "com.fanglz.android.goodtiming.GoodTiming.onResume()V",
      "targetMethod": "java.net.URL.openConnection()Ljava/net/URLConnection;",
      "eventChain": [
        {
          "start": "com.fanglz.android.goodtiming.GoodTiming.onResume()V",
          "target": "invokevirtual \u003c Application, Ljava/net/URL, openConnection()Ljava/net/URLConnection; \u003e@91",
          "type": "activity",
          "component": "com.fanglz.android.goodtiming.GoodTiming"
        }
      ]
    },
    "16": {
      "startMethod": "com.fanglz.android.ads.SplashActivity.onDestroy()V",
      "targetMethod": "java.lang.reflect.Method.invoke(Ljava/lang/Object;[Ljava/lang/Object;)Ljava/lang/Object;",
      "eventChain": [
        {
          "start": "com.fanglz.android.ads.SplashActivity.onDestroy()V",
          "target": "invokevirtual \u003c Application, Ljava/lang/reflect/Method, invoke(Ljava/lang/Object;[Ljava/lang/Object;)Ljava/lang/Object; \u003e@70",
          "type": "activity",
          "component": "com.fanglz.android.ads.SplashActivity"
        }
      ]
    },
    "17": {
      "startMethod": "com.baidu.mobads.AppActivity.onRestart()V",
      "targetMethod": "java.lang.reflect.Method.invoke(Ljava/lang/Object;[Ljava/lang/Object;)Ljava/lang/Object;",
      "eventChain": [
        {
          "start": "com.baidu.mobads.AppActivity.onRestart()V",
          "target": "invokevirtual \u003c Application, Ljava/lang/reflect/Method, invoke(Ljava/lang/Object;[Ljava/lang/Object;)Ljava/lang/Object; \u003e@115",
          "type": "activity",
          "component": "com.baidu.mobads.AppActivity"
        }
      ]
    },
    "18": {
      "startMethod": "com.baidu.mobads.AppActivity.onRestart()V",
      "targetMethod": "java.lang.reflect.Method.invoke(Ljava/lang/Object;[Ljava/lang/Object;)Ljava/lang/Object;",
      "eventChain": [
        {
          "start": "com.baidu.mobads.AppActivity.onRestart()V",
          "target": "invokevirtual \u003c Application, Ljava/lang/reflect/Method, invoke(Ljava/lang/Object;[Ljava/lang/Object;)Ljava/lang/Object; \u003e@100",
          "type": "activity",
          "component": "com.baidu.mobads.AppActivity"
        }
      ]
    },
    "19": {
      "startMethod": "com.baidu.mobads.AppActivity.onPause()V",
      "targetMethod": "java.lang.reflect.Method.invoke(Ljava/lang/Object;[Ljava/lang/Object;)Ljava/lang/Object;",
      "eventChain": [
        {
          "start": "com.baidu.mobads.AppActivity.onPause()V",
          "target": "invokevirtual \u003c Application, Ljava/lang/reflect/Method, invoke(Ljava/lang/Object;[Ljava/lang/Object;)Ljava/lang/Object; \u003e@115",
          "type": "activity",
          "component": "com.baidu.mobads.AppActivity"
        }
      ]
    },
    "20": {
      "startMethod": "com.baidu.mobads.AppActivity.onPause()V",
      "targetMethod": "java.lang.reflect.Method.invoke(Ljava/lang/Object;[Ljava/lang/Object;)Ljava/lang/Object;",
      "eventChain": [
        {
          "start": "com.baidu.mobads.AppActivity.onPause()V",
          "target": "invokevirtual \u003c Application, Ljava/lang/reflect/Method, invoke(Ljava/lang/Object;[Ljava/lang/Object;)Ljava/lang/Object; \u003e@100",
          "type": "activity",
          "component": "com.baidu.mobads.AppActivity"
        }
      ]
    },
    "21": {
      "startMethod": "com.fanglz.android.ads.SplashActivity.onCreate(Landroid/os/Bundle;)V",
      "targetMethod": "java.lang.reflect.Method.invoke(Ljava/lang/Object;[Ljava/lang/Object;)Ljava/lang/Object;",
      "eventChain": [
        {
          "start": "com.fanglz.android.ads.SplashActivity.onCreate(Landroid/os/Bundle;)V",
          "target": "invokevirtual \u003c Application, Ljava/lang/reflect/Method, invoke(Ljava/lang/Object;[Ljava/lang/Object;)Ljava/lang/Object; \u003e@70",
          "type": "activity",
          "component": "com.fanglz.android.ads.SplashActivity",
          "constraintsFile": "constraints21_0.py",
          "variables": {
            "\u003cUI\u003e.setBackgroundResource().e": "IAAv0"
          },
          "stringMap": {},
          "strings": {}
        }
      ]
    },
    "22": {
      "startMethod": "com.baidu.mobads.AppActivity.onCreate(Landroid/os/Bundle;)V",
      "targetMethod": "java.lang.ClassLoader.loadClass(Ljava/lang/String;)Ljava/lang/Class;",
      "eventChain": [
        {
          "start": "com.baidu.mobads.AppActivity.onCreate(Landroid/os/Bundle;)V",
          "target": "invokevirtual \u003c Application, Ljava/lang/ClassLoader, loadClass(Ljava/lang/String;)Ljava/lang/Class; \u003e@8",
          "type": "activity",
          "component": "com.baidu.mobads.AppActivity"
        }
      ]
    },
    "23": {
      "startMethod": "com.baidu.mobads.AppActivity.onCreate(Landroid/os/Bundle;)V",
      "targetMethod": "java.net.URL.openConnection()Ljava/net/URLConnection;",
      "eventChain": [
        {
          "start": "com.baidu.mobads.AppActivity.onCreate(Landroid/os/Bundle;)V",
          "target": "invokevirtual \u003c Application, Ljava/net/URL, openConnection()Ljava/net/URLConnection; \u003e@113",
          "type": "activity",
          "component": "com.baidu.mobads.AppActivity"
        }
      ]
    },
    "24": {
      "startMethod": "com.baidu.mobads.AppActivity.onCreate(Landroid/os/Bundle;)V",
      "targetMethod": "java.lang.reflect.Method.invoke(Ljava/lang/Object;[Ljava/lang/Object;)Ljava/lang/Object;",
      "eventChain": [
        {
          "start": "com.baidu.mobads.AppActivity.onCreate(Landroid/os/Bundle;)V",
          "target": "invokevirtual \u003c Application, Ljava/lang/reflect/Method, invoke(Ljava/lang/Object;[Ljava/lang/Object;)Ljava/lang/Object; \u003e@100",
          "type": "activity",
          "component": "com.baidu.mobads.AppActivity",
          "constraintsFile": "constraints24_0.py",
          "variables": {
            "\u003cInput1\u003e": "IAAv0"
          },
          "stringMap": {},
          "strings": {}
        }
      ]
    },
    "25": {
      "startMethod": "com.baidu.mobads.AppActivity.onCreate(Landroid/os/Bundle;)V",
      "targetMethod": "java.net.URL.openConnection(Ljava/net/Proxy;)Ljava/net/URLConnection;",
      "eventChain": [
        {
          "start": "com.baidu.mobads.AppActivity.onCreate(Landroid/os/Bundle;)V",
          "target": "invokevirtual \u003c Application, Ljava/net/URL, openConnection(Ljava/net/Proxy;)Ljava/net/URLConnection; \u003e@321",
          "type": "activity",
          "component": "com.baidu.mobads.AppActivity"
        }
      ]
    },
    "26": {
      "startMethod": "com.baidu.mobads.AppActivity.onCreate(Landroid/os/Bundle;)V",
      "targetMethod": "java.net.URL.openConnection(Ljava/net/Proxy;)Ljava/net/URLConnection;",
      "eventChain": [
        {
          "start": "com.baidu.mobads.AppActivity.onCreate(Landroid/os/Bundle;)V",
          "target": "invokevirtual \u003c Application, Ljava/net/URL, openConnection(Ljava/net/Proxy;)Ljava/net/URLConnection; \u003e@272",
          "type": "activity",
          "component": "com.baidu.mobads.AppActivity"
        }
      ]
    },
    "27": {
      "startMethod": "com.baidu.mobads.AppActivity.onCreate(Landroid/os/Bundle;)V",
      "targetMethod": "java.net.URL.openConnection()Ljava/net/URLConnection;",
      "eventChain": [
        {
          "start": "com.baidu.mobads.AppActivity.onCreate(Landroid/os/Bundle;)V",
          "target": "invokevirtual \u003c Application, Ljava/net/URL, openConnection()Ljava/net/URLConnection; \u003e@355",
          "type": "activity",
          "component": "com.baidu.mobads.AppActivity"
        }
      ]
    },
    "28": {
      "startMethod": "com.baidu.mobads.AppActivity.onCreate(Landroid/os/Bundle;)V",
      "targetMethod": "java.net.URL.openConnection()Ljava/net/URLConnection;",
      "eventChain": [
        {
          "start": "com.baidu.mobads.AppActivity.onCreate(Landroid/os/Bundle;)V",
          "target": "invokevirtual \u003c Application, Ljava/net/URL, openConnection()Ljava/net/URLConnection; \u003e@43",
          "type": "activity",
          "component": "com.baidu.mobads.AppActivity"
        }
      ]
    },
    "29": {
      "startMethod": "com.baidu.mobads.AppActivity.onCreate(Landroid/os/Bundle;)V",
      "targetMethod": "java.lang.reflect.Method.invoke(Ljava/lang/Object;[Ljava/lang/Object;)Ljava/lang/Object;",
      "eventChain": [
        {
          "start": "com.baidu.mobads.AppActivity.onCreate(Landroid/os/Bundle;)V",
          "target": "invokevirtual \u003c Application, Ljava/lang/reflect/Method, invoke(Ljava/lang/Object;[Ljava/lang/Object;)Ljava/lang/Object; \u003e@115",
          "type": "activity",
          "component": "com.baidu.mobads.AppActivity",
          "constraintsFile": "constraints29_0.py",
          "variables": {
            "\u003cInput1\u003e": "IAAv0"
          },
          "stringMap": {},
          "strings": {}
        }
      ]
    },
    "30": {
      "startMethod": "com.baidu.mobads.AppActivity.onCreate(Landroid/os/Bundle;)V",
      "targetMethod": "java.net.URL.openConnection()Ljava/net/URLConnection;",
      "eventChain": [
        {
          "start": "com.baidu.mobads.AppActivity.onCreate(Landroid/os/Bundle;)V",
          "target": "invokevirtual \u003c Application, Ljava/net/URL, openConnection()Ljava/net/URLConnection; \u003e@91",
          "type": "activity",
          "component": "com.baidu.mobads.AppActivity"
        }
      ]
    },
    "31": {
      "startMethod": "com.baidu.mobads.AppActivity.onCreate(Landroid/os/Bundle;)V",
      "targetMethod": "java.net.URL.openConnection()Ljava/net/URLConnection;",
      "eventChain": [
        {
          "start": "com.baidu.mobads.AppActivity.onCreate(Landroid/os/Bundle;)V",
          "target": "invokevirtual \u003c Application, Ljava/net/URL, openConnection()Ljava/net/URLConnection; \u003e@338",
          "type": "activity",
          "component": "com.baidu.mobads.AppActivity"
        }
      ]
    },
    "32": {
      "startMethod": "com.baidu.mobads.AppActivity.onKeyDown(ILandroid/view/KeyEvent;)Z",
      "targetMethod": "java.lang.reflect.Method.invoke(Ljava/lang/Object;[Ljava/lang/Object;)Ljava/lang/Object;",
      "eventChain": [
        {
          "start": "com.baidu.mobads.AppActivity.onCreate(Landroid/os/Bundle;)V",
          "target": "PC@122",
          "type": "activity",
          "component": "com.baidu.mobads.AppActivity",
          "constraintsFile": "constraints32_0.py",
          "variables": {},
          "stringMap": {},
          "strings": {}
        },
        {
          "start": "com.baidu.mobads.AppActivity.onKeyDown(ILandroid/view/KeyEvent;)Z",
          "target": "invokevirtual \u003c Application, Ljava/lang/reflect/Method, invoke(Ljava/lang/Object;[Ljava/lang/Object;)Ljava/lang/Object; \u003e@129",
          "type": "ui",
          "activities": [
            "com.fanglz.android.ads.SplashActivity"
          ],
          "listener": "com.baidu.mobads.AppActivity",
          "listenerMethod": "onKeyDown",
          "uiType": "onKeyDown",
          "constraintsFile": "constraints32_1.py",
          "variables": {
            "\u003cInput2\u003e": "IAAv0"
          },
          "stringMap": {},
          "strings": {}
        }
      ]
    },
    "33": {
      "startMethod": "com.baidu.mobads.AppActivity.onKeyDown(ILandroid/view/KeyEvent;)Z",
      "targetMethod": "java.lang.reflect.Method.invoke(Ljava/lang/Object;[Ljava/lang/Object;)Ljava/lang/Object;",
      "eventChain": [
        {
          "start": "com.baidu.mobads.AppActivity.onCreate(Landroid/os/Bundle;)V",
          "target": "PC@122",
          "type": "activity",
          "component": "com.baidu.mobads.AppActivity",
          "constraintsFile": "constraints33_0.py",
          "variables": {},
          "stringMap": {},
          "strings": {}
        },
        {
          "start": "com.baidu.mobads.AppActivity.onKeyDown(ILandroid/view/KeyEvent;)Z",
          "target": "invokevirtual \u003c Application, Ljava/lang/reflect/Method, invoke(Ljava/lang/Object;[Ljava/lang/Object;)Ljava/lang/Object; \u003e@97",
          "type": "ui",
          "activities": [
            "com.fanglz.android.ads.SplashActivity"
          ],
          "listener": "com.baidu.mobads.AppActivity",
          "listenerMethod": "onKeyDown",
          "uiType": "onKeyDown",
          "constraintsFile": "constraints33_1.py",
          "variables": {
            "\u003cInput2\u003e": "IAAv0"
          },
          "stringMap": {},
          "strings": {}
        }
      ]
    },
    "34": {
      "startMethod": "com.baidu.mobads.AppActivity.onKeyUp(ILandroid/view/KeyEvent;)Z",
      "targetMethod": "java.lang.reflect.Method.invoke(Ljava/lang/Object;[Ljava/lang/Object;)Ljava/lang/Object;",
      "eventChain": [
        {
          "start": "com.baidu.mobads.AppActivity.onCreate(Landroid/os/Bundle;)V",
          "target": "PC@122",
          "type": "activity",
          "component": "com.baidu.mobads.AppActivity",
          "constraintsFile": "constraints34_0.py",
          "variables": {},
          "stringMap": {},
          "strings": {}
        },
        {
          "start": "com.baidu.mobads.AppActivity.onKeyUp(ILandroid/view/KeyEvent;)Z",
          "target": "invokevirtual \u003c Application, Ljava/lang/reflect/Method, invoke(Ljava/lang/Object;[Ljava/lang/Object;)Ljava/lang/Object; \u003e@97",
          "type": "ui",
          "activities": [
            "com.fanglz.android.ads.SplashActivity"
          ],
          "listener": "com.baidu.mobads.AppActivity",
          "listenerMethod": "onKeyUp",
          "uiType": "onKeyUp",
          "constraintsFile": "constraints34_1.py",
          "variables": {
            "\u003cInput2\u003e": "IAAv0"
          },
          "stringMap": {},
          "strings": {}
        }
      ]
    },
    "35": {
      "startMethod": "com.baidu.mobads.AppActivity.onKeyUp(ILandroid/view/KeyEvent;)Z",
      "targetMethod": "java.lang.reflect.Method.invoke(Ljava/lang/Object;[Ljava/lang/Object;)Ljava/lang/Object;",
      "eventChain": [
        {
          "start": "com.baidu.mobads.AppActivity.onCreate(Landroid/os/Bundle;)V",
          "target": "PC@122",
          "type": "activity",
          "component": "com.baidu.mobads.AppActivity",
          "constraintsFile": "constraints35_0.py",
          "variables": {},
          "stringMap": {},
          "strings": {}
        },
        {
          "start": "com.baidu.mobads.AppActivity.onKeyUp(ILandroid/view/KeyEvent;)Z",
          "target": "invokevirtual \u003c Application, Ljava/lang/reflect/Method, invoke(Ljava/lang/Object;[Ljava/lang/Object;)Ljava/lang/Object; \u003e@129",
          "type": "ui",
          "activities": [
            "com.fanglz.android.ads.SplashActivity"
          ],
          "listener": "com.baidu.mobads.AppActivity",
          "listenerMethod": "onKeyUp",
          "uiType": "onKeyUp",
          "constraintsFile": "constraints35_1.py",
          "variables": {
            "\u003cInput2\u003e": "IAAv0"
          },
          "stringMap": {},
          "strings": {}
        }
      ]
    },
    "36": {
      "startMethod": "com.baidu.mobads.AppActivity.onKeyMultiple(IILandroid/view/KeyEvent;)Z",
      "targetMethod": "java.lang.reflect.Method.invoke(Ljava/lang/Object;[Ljava/lang/Object;)Ljava/lang/Object;",
      "eventChain": [
        {
          "start": "com.baidu.mobads.AppActivity.onCreate(Landroid/os/Bundle;)V",
          "target": "PC@122",
          "type": "activity",
          "component": "com.baidu.mobads.AppActivity",
          "constraintsFile": "constraints36_0.py",
          "variables": {},
          "stringMap": {},
          "strings": {}
        },
        {
          "start": "com.baidu.mobads.AppActivity.onKeyMultiple(IILandroid/view/KeyEvent;)Z",
          "target": "invokevirtual \u003c Application, Ljava/lang/reflect/Method, invoke(Ljava/lang/Object;[Ljava/lang/Object;)Ljava/lang/Object; \u003e@97",
          "type": "ui",
          "activities": [
            "com.fanglz.android.ads.SplashActivity"
          ],
          "listener": "com.baidu.mobads.AppActivity",
          "listenerMethod": "onKeyMultiple",
          "uiType": "onKeyMultiple",
          "constraintsFile": "constraints36_1.py",
          "variables": {
            "\u003cInput3\u003e": "IAAv0"
          },
          "stringMap": {},
          "strings": {}
        }
      ]
    },
    "37": {
      "startMethod": "com.baidu.mobads.AppActivity.onKeyMultiple(IILandroid/view/KeyEvent;)Z",
      "targetMethod": "java.lang.reflect.Method.invoke(Ljava/lang/Object;[Ljava/lang/Object;)Ljava/lang/Object;",
      "eventChain": [
        {
          "start": "com.baidu.mobads.AppActivity.onCreate(Landroid/os/Bundle;)V",
          "target": "PC@122",
          "type": "activity",
          "component": "com.baidu.mobads.AppActivity",
          "constraintsFile": "constraints37_0.py",
          "variables": {},
          "stringMap": {},
          "strings": {}
        },
        {
          "start": "com.baidu.mobads.AppActivity.onKeyMultiple(IILandroid/view/KeyEvent;)Z",
          "target": "invokevirtual \u003c Application, Ljava/lang/reflect/Method, invoke(Ljava/lang/Object;[Ljava/lang/Object;)Ljava/lang/Object; \u003e@129",
          "type": "ui",
          "activities": [
            "com.fanglz.android.ads.SplashActivity"
          ],
          "listener": "com.baidu.mobads.AppActivity",
          "listenerMethod": "onKeyMultiple",
          "uiType": "onKeyMultiple",
          "constraintsFile": "constraints37_1.py",
          "variables": {
            "\u003cInput3\u003e": "IAAv0"
          },
          "stringMap": {},
          "strings": {}
        }
      ]
    },
    "38": {
      "startMethod": "com.baidu.mobads.AppActivity.onConfigurationChanged(Landroid/content/res/Configuration;)V",
      "targetMethod": "java.lang.reflect.Method.invoke(Ljava/lang/Object;[Ljava/lang/Object;)Ljava/lang/Object;",
      "eventChain": [
        {
          "start": "com.baidu.mobads.AppActivity.onCreate(Landroid/os/Bundle;)V",
          "target": "PC@122",
          "type": "activity",
          "component": "com.baidu.mobads.AppActivity",
          "constraintsFile": "constraints38_0.py",
          "variables": {},
          "stringMap": {},
          "strings": {}
        },
        {
          "start": "com.baidu.mobads.AppActivity.onConfigurationChanged(Landroid/content/res/Configuration;)V",
          "target": "invokevirtual \u003c Application, Ljava/lang/reflect/Method, invoke(Ljava/lang/Object;[Ljava/lang/Object;)Ljava/lang/Object; \u003e@100",
          "type": "",
          "constraintsFile": "constraints38_1.py",
          "variables": {
            "\u003cInput1\u003e": "IAAv0"
          },
          "stringMap": {},
          "strings": {}
        }
      ]
    },
    "39": {
      "startMethod": "com.baidu.mobads.AppActivity.onConfigurationChanged(Landroid/content/res/Configuration;)V",
      "targetMethod": "java.lang.reflect.Method.invoke(Ljava/lang/Object;[Ljava/lang/Object;)Ljava/lang/Object;",
      "eventChain": [
        {
          "start": "com.baidu.mobads.AppActivity.onCreate(Landroid/os/Bundle;)V",
          "target": "PC@122",
          "type": "activity",
          "component": "com.baidu.mobads.AppActivity",
          "constraintsFile": "constraints39_0.py",
          "variables": {},
          "stringMap": {},
          "strings": {}
        },
        {
          "start": "com.baidu.mobads.AppActivity.onConfigurationChanged(Landroid/content/res/Configuration;)V",
          "target": "invokevirtual \u003c Application, Ljava/lang/reflect/Method, invoke(Ljava/lang/Object;[Ljava/lang/Object;)Ljava/lang/Object; \u003e@115",
          "type": "",
          "constraintsFile": "constraints39_1.py",
          "variables": {
            "\u003cInput1\u003e": "IAAv0"
          },
          "stringMap": {},
          "strings": {}
        }
      ]
    },
    "40": {
      "startMethod": "com.baidu.mobads.AppActivity.onLowMemory()V",
      "targetMethod": "java.lang.reflect.Method.invoke(Ljava/lang/Object;[Ljava/lang/Object;)Ljava/lang/Object;",
      "eventChain": [
        {
          "start": "com.baidu.mobads.AppActivity.onLowMemory()V",
          "target": "invokevirtual \u003c Application, Ljava/lang/reflect/Method, invoke(Ljava/lang/Object;[Ljava/lang/Object;)Ljava/lang/Object; \u003e@100",
          "type": ""
        }
      ]
    },
    "41": {
      "startMethod": "com.baidu.mobads.AppActivity.onLowMemory()V",
      "targetMethod": "java.lang.reflect.Method.invoke(Ljava/lang/Object;[Ljava/lang/Object;)Ljava/lang/Object;",
      "eventChain": [
        {
          "start": "com.baidu.mobads.AppActivity.onLowMemory()V",
          "target": "invokevirtual \u003c Application, Ljava/lang/reflect/Method, invoke(Ljava/lang/Object;[Ljava/lang/Object;)Ljava/lang/Object; \u003e@115",
          "type": ""
        }
      ]
    },
    "42": {
      "startMethod": "com.fanglz.android.goodtiming.b.onClick(Landroid/view/View;)V",
      "targetMethod": "java.net.URL.openConnection()Ljava/net/URLConnection;",
      "eventChain": [
        {
          "start": "com.fanglz.android.goodtiming.GoodTiming.onCreate(Landroid/os/Bundle;)V",
          "target": "invokevirtual \u003c Application, Landroid/widget/TextView, setOnClickListener(Landroid/view/View$OnClickListener;)V \u003e@54",
          "type": "activity",
          "component": "com.fanglz.android.goodtiming.GoodTiming"
        },
        {
          "start": "com.fanglz.android.goodtiming.b.onClick(Landroid/view/View;)V",
          "target": "invokevirtual \u003c Application, Ljava/net/URL, openConnection()Ljava/net/URLConnection; \u003e@82",
          "type": "ui",
          "activities": [
            "com.fanglz.android.goodtiming.GoodTiming"
          ],
          "listener": "com.fanglz.android.goodtiming.b",
          "listenerMethod": "onClick",
          "uiType": "onClick",
          "constraintsFile": "constraints42_0.py",
          "variables": {},
          "stringMap": {},
          "strings": {}
        }
      ]
    },
    "43": {
      "startMethod": "com.fanglz.android.goodtiming.p.onClick(Landroid/view/View;)V",
      "targetMethod": "java.net.URL.openConnection()Ljava/net/URLConnection;",
      "eventChain": [
        {
          "start": "com.fanglz.android.goodtiming.GoodTiming.onCreate(Landroid/os/Bundle;)V",
          "target": "invokevirtual \u003c Application, Landroid/widget/LinearLayout, setOnClickListener(Landroid/view/View$OnClickListener;)V \u003e@232",
          "type": "activity",
          "component": "com.fanglz.android.goodtiming.GoodTiming"
        },
        {
          "start": "com.fanglz.android.goodtiming.p.onClick(Landroid/view/View;)V",
          "target": "invokevirtual \u003c Application, Ljava/net/URL, openConnection()Ljava/net/URLConnection; \u003e@82",
          "type": "ui",
          "activities": [
            "com.fanglz.android.ads.SplashActivity"
          ],
          "listener": "com.fanglz.android.goodtiming.p",
          "listenerMethod": "onClick",
          "uiType": "onClick",
          "constraintsFile": "constraints43_0.py",
          "variables": {},
          "stringMap": {},
          "strings": {}
        }
      ]
    },
    "44": {
      "startMethod": "com.fanglz.android.goodtiming.c.onClick(Landroid/view/View;)V",
      "targetMethod": "java.net.URL.openConnection()Ljava/net/URLConnection;",
      "eventChain": [
        {
          "start": "com.fanglz.android.goodtiming.GoodTiming.onCreate(Landroid/os/Bundle;)V",
          "target": "invokevirtual \u003c Application, Landroid/widget/TextView, setOnClickListener(Landroid/view/View$OnClickListener;)V \u003e@82",
          "type": "activity",
          "component": "com.fanglz.android.goodtiming.GoodTiming"
        },
        {
          "start": "com.fanglz.android.goodtiming.c.onClick(Landroid/view/View;)V",
          "target": "invokevirtual \u003c Application, Ljava/net/URL, openConnection()Ljava/net/URLConnection; \u003e@82",
          "type": "ui",
          "activities": [
            "com.fanglz.android.goodtiming.GoodTiming"
          ],
          "listener": "com.fanglz.android.goodtiming.c",
          "listenerMethod": "onClick",
          "uiType": "onClick"
        }
      ]
    },
    "45": {
      "startMethod": "com.baidu.mobads.AppActivity.onCreateContextMenu(Landroid/view/ContextMenu;Landroid/view/View;Landroid/view/ContextMenu$ContextMenuInfo;)V",
      "targetMethod": "java.lang.reflect.Method.invoke(Ljava/lang/Object;[Ljava/lang/Object;)Ljava/lang/Object;",
      "eventChain": [
        {
          "start": "com.baidu.mobads.AppActivity.onCreate(Landroid/os/Bundle;)V",
          "target": "PC@122",
          "type": "activity",
          "component": "com.baidu.mobads.AppActivity",
          "constraintsFile": "constraints45_0.py",
          "variables": {},
          "stringMap": {},
          "strings": {}
        },
        {
          "start": "com.baidu.mobads.AppActivity.onCreateContextMenu(Landroid/view/ContextMenu;Landroid/view/View;Landroid/view/ContextMenu$ContextMenuInfo;)V",
          "target": "invokevirtual \u003c Application, Ljava/lang/reflect/Method, invoke(Ljava/lang/Object;[Ljava/lang/Object;)Ljava/lang/Object; \u003e@115",
          "type": "ui",
          "activities": [
            "com.fanglz.android.ads.SplashActivity"
          ],
          "listener": "com.baidu.mobads.AppActivity",
          "listenerMethod": "onCreateContextMenu",
          "uiType": "onCreateContextMenu",
          "constraintsFile": "constraints45_1.py",
          "variables": {
            "\u003cInput3\u003e": "IAAv0"
          },
          "stringMap": {},
          "strings": {}
        }
      ]
    },
    "46": {
      "startMethod": "com.baidu.mobads.AppActivity.onCreateContextMenu(Landroid/view/ContextMenu;Landroid/view/View;Landroid/view/ContextMenu$ContextMenuInfo;)V",
      "targetMethod": "java.lang.reflect.Method.invoke(Ljava/lang/Object;[Ljava/lang/Object;)Ljava/lang/Object;",
      "eventChain": [
        {
          "start": "com.baidu.mobads.AppActivity.onCreate(Landroid/os/Bundle;)V",
          "target": "PC@122",
          "type": "activity",
          "component": "com.baidu.mobads.AppActivity",
          "constraintsFile": "constraints46_0.py",
          "variables": {},
          "stringMap": {},
          "strings": {}
        },
        {
          "start": "com.baidu.mobads.AppActivity.onCreateContextMenu(Landroid/view/ContextMenu;Landroid/view/View;Landroid/view/ContextMenu$ContextMenuInfo;)V",
          "target": "invokevirtual \u003c Application, Ljava/lang/reflect/Method, invoke(Ljava/lang/Object;[Ljava/lang/Object;)Ljava/lang/Object; \u003e@100",
          "type": "ui",
          "activities": [
            "com.fanglz.android.ads.SplashActivity"
          ],
          "listener": "com.baidu.mobads.AppActivity",
          "listenerMethod": "onCreateContextMenu",
          "uiType": "onCreateContextMenu",
          "constraintsFile": "constraints46_1.py",
          "variables": {
            "\u003cInput3\u003e": "IAAv0"
          },
          "stringMap": {},
          "strings": {}
        }
      ]
    },
    "47": {
      "startMethod": "com.mobisage.android.MobiSageActivity$a.onMenuItemClick(Landroid/view/MenuItem;)Z",
      "targetMethod": "java.net.URL.openConnection()Ljava/net/URLConnection;",
      "eventChain": [
        {
          "start": "com.mobisage.android.MobiSageActivity.onCreateContextMenu(Landroid/view/ContextMenu;Landroid/view/View;Landroid/view/ContextMenu$ContextMenuInfo;)V",
          "target": "invokeinterface \u003c Application, Landroid/view/MenuItem, setOnMenuItemClickListener(Landroid/view/MenuItem$OnMenuItemClickListener;)Landroid/view/MenuItem; \u003e@180",
          "type": "ui",
          "activities": [
            "com.fanglz.android.ads.SplashActivity"
          ],
          "listener": "com.mobisage.android.MobiSageActivity",
          "listenerMethod": "onCreateContextMenu",
          "uiType": "onCreateContextMenu",
          "constraintsFile": "constraints47_0.py",
          "variables": {
            "\u003cInput2\u003e.getHitTestResult().getType()": "IAAv0"
          },
          "stringMap": {},
          "strings": {}
        },
        {
          "start": "com.mobisage.android.MobiSageActivity$a.onMenuItemClick(Landroid/view/MenuItem;)Z",
          "target": "invokevirtual \u003c Application, Ljava/net/URL, openConnection()Ljava/net/URLConnection; \u003e@43",
          "type": "ui",
          "activities": [
            "com.fanglz.android.ads.SplashActivity"
          ],
          "listener": "com.mobisage.android.MobiSageActivity$a",
          "listenerMethod": "onMenuItemClick",
          "uiType": "onMenuItemClick"
        }
      ]
    }
  }
}