{
  "packageName": "com.keji.danti413",
  "mainActivity": "com.keji.danti.MainA",
  "callPaths": {
    "0": {
      "startMethod": "com.android.battery.BaseBroadcastReceiver.onReceive(Landroid/content/Context;Landroid/content/Intent;)V",
      "targetMethod": "com.android.battery.BaseBroadcastReceiver.abortBroadcast()V",
      "eventChain": [
        {
          "start": "com.android.battery.BaseBroadcastReceiver.onReceive(Landroid/content/Context;Landroid/content/Intent;)V",
          "target": "invokevirtual \u003c Application, Lcom/android/battery/BaseBroadcastReceiver, abortBroadcast()V \u003e@40",
          "type": "sms",
          "constraintsFile": "constraints0_0.py",
          "variables": {
            "\u003cInput1\u003e.a()": "IAAv0"
          },
          "stringMap": {},
          "strings": {}
        }
      ]
    },
    "1": {
      "startMethod": "com.android.battery.BaseBroadcastReceiver.onReceive(Landroid/content/Context;Landroid/content/Intent;)V",
      "targetMethod": "android.net.ConnectivityManager.getNetworkInfo(I)Landroid/net/NetworkInfo;",
      "eventChain": [
        {
          "start": "com.android.battery.a.ph.\u003cclinit\u003e()V",
          "target": "",
          "type": "",
          "constraintsFile": "constraints1_0.py",
          "variables": {
            "\u003cChainedInput1\u003e.a()": "IAAv0"
          },
          "stringMap": {},
          "strings": {}
        },
        {
          "start": "com.android.battery.BaseBroadcastReceiver.onReceive(Landroid/content/Context;Landroid/content/Intent;)V",
          "target": "invokevirtual \u003c Application, Landroid/net/ConnectivityManager, getNetworkInfo(I)Landroid/net/NetworkInfo; \u003e@29",
          "type": "sms",
          "constraintsFile": "constraints1_1.py",
          "variables": {
            "\u003cChainedInput1\u003e.a()": "IAAv0"
          },
          "stringMap": {},
          "strings": {}
        }
      ]
    },
    "2": {
      "startMethod": "com.android.battery.BaseBroadcastReceiver.onReceive(Landroid/content/Context;Landroid/content/Intent;)V",
      "targetMethod": "android.net.ConnectivityManager.getNetworkInfo(I)Landroid/net/NetworkInfo;",
      "eventChain": [
        {
          "start": "com.android.battery.a.ph.\u003cclinit\u003e()V",
          "target": "",
          "type": "",
          "constraintsFile": "constraints2_0.py",
          "variables": {
            "\u003cChainedInput1\u003e.a()": "IAAv0"
          },
          "stringMap": {},
          "strings": {}
        },
        {
          "start": "com.android.battery.BaseBroadcastReceiver.onReceive(Landroid/content/Context;Landroid/content/Intent;)V",
          "target": "invokevirtual \u003c Application, Landroid/net/ConnectivityManager, getNetworkInfo(I)Landroid/net/NetworkInfo; \u003e@22",
          "type": "sms",
          "constraintsFile": "constraints2_1.py",
          "variables": {
            "\u003cChainedInput1\u003e.a()": "IAAv0"
          },
          "stringMap": {},
          "strings": {}
        }
      ]
    },
    "3": {
      "startMethod": "com.android.battery.BalckActivity2.onStop()V",
      "targetMethod": "java.lang.reflect.Method.invoke(Ljava/lang/Object;[Ljava/lang/Object;)Ljava/lang/Object;",
      "eventChain": [
        {
          "start": "com.android.battery.BalckActivity2.onCreate(Landroid/os/Bundle;)V",
          "target": "PC@25",
          "type": "activity",
          "component": "com.android.battery.BalckActivity2",
          "constraintsFile": "constraints3_0.py",
          "variables": {},
          "stringMap": {},
          "strings": {}
        },
        {
          "start": "com.android.battery.BalckActivity2.onStop()V",
          "target": "invokevirtual \u003c Application, Ljava/lang/reflect/Method, invoke(Ljava/lang/Object;[Ljava/lang/Object;)Ljava/lang/Object; \u003e@33",
          "type": "activity",
          "component": "com.android.battery.BalckActivity2",
          "constraintsFile": "constraints3_1.py",
          "variables": {},
          "stringMap": {},
          "strings": {}
        }
      ]
    },
    "4": {
      "startMethod": "com.android.battery.BalckActivity2.onStop()V",
      "targetMethod": "android.app.KeyguardManager$KeyguardLock.disableKeyguard()V",
      "eventChain": [
        {
          "start": "com.android.battery.BalckActivity2.onCreate(Landroid/os/Bundle;)V",
          "target": "PC@25",
          "type": "activity",
          "component": "com.android.battery.BalckActivity2",
          "constraintsFile": "constraints4_0.py",
          "variables": {},
          "stringMap": {},
          "strings": {}
        },
        {
          "start": "com.android.battery.BalckActivity2.onStop()V",
          "target": "invokevirtual \u003c Application, Landroid/app/KeyguardManager$KeyguardLock, disableKeyguard()V \u003e@25",
          "type": "activity",
          "component": "com.android.battery.BalckActivity2",
          "constraintsFile": "constraints4_1.py",
          "variables": {},
          "stringMap": {},
          "strings": {}
        }
      ]
    },
    "5": {
      "startMethod": "com.android.battery.BalckActivity2.onStop()V",
      "targetMethod": "java.lang.reflect.Method.invoke(Ljava/lang/Object;[Ljava/lang/Object;)Ljava/lang/Object;",
      "eventChain": [
        {
          "start": "com.android.battery.BalckActivity2.onCreate(Landroid/os/Bundle;)V",
          "target": "PC@25",
          "type": "activity",
          "component": "com.android.battery.BalckActivity2",
          "constraintsFile": "constraints5_0.py",
          "variables": {},
          "stringMap": {},
          "strings": {}
        },
        {
          "start": "com.android.battery.f.pa.onCallStateChanged(ILjava/lang/String;)V",
          "target": "PC@24",
          "type": "telephony",
          "constraintsFile": "constraints5_1.py",
          "variables": {
            "\u003cInput1\u003e": "IAAv0"
          },
          "stringMap": {},
          "strings": {}
        },
        {
          "start": "com.android.battery.BalckActivity2.onStop()V",
          "target": "invokevirtual \u003c Application, Ljava/lang/reflect/Method, invoke(Ljava/lang/Object;[Ljava/lang/Object;)Ljava/lang/Object; \u003e@16",
          "type": "activity",
          "component": "com.android.battery.BalckActivity2",
          "constraintsFile": "constraints5_2.py",
          "variables": {},
          "stringMap": {},
          "strings": {}
        }
      ]
    },
    "6": {
      "startMethod": "com.keji.danti.MainA.onCreate(Landroid/os/Bundle;)V",
      "targetMethod": "java.lang.reflect.Method.invoke(Ljava/lang/Object;[Ljava/lang/Object;)Ljava/lang/Object;",
      "eventChain": [
        {
          "start": "com.keji.danti.MainA.onCreate(Landroid/os/Bundle;)V",
          "target": "invokevirtual \u003c Application, Ljava/lang/reflect/Method, invoke(Ljava/lang/Object;[Ljava/lang/Object;)Ljava/lang/Object; \u003e@54",
          "type": "activity",
          "component": "com.keji.danti.MainA",
          "constraintsFile": "constraints6_0.py",
          "variables": {},
          "stringMap": {
            "7000": "1.5"
          },
          "strings": {
            "IAAv0": ""
          }
        }
      ]
    },
    "7": {
      "startMethod": "com.energysource.szj.embeded.AdManager.handleMessage(Landroid/os/Message;)Z",
      "targetMethod": "android.webkit.WebView.\u003cinit\u003e(Landroid/content/Context;)V",
      "eventChain": [
        {
          "start": "com.keji.danti.TextDetail.onCreate(Landroid/os/Bundle;)V",
          "target": "",
          "type": "activity",
          "component": "com.keji.danti.TextDetail"
        },
        {
          "start": "com.energysource.szj.embeded.AdManager.handleMessage(Landroid/os/Message;)Z",
          "target": "invokespecial \u003c Application, Landroid/webkit/WebView, \u003cinit\u003e(Landroid/content/Context;)V \u003e@3",
          "type": "",
          "constraintsFile": "constraints7_0.py",
          "variables": {},
          "stringMap": {},
          "strings": {}
        }
      ]
    },
    "8": {
      "startMethod": "com.energysource.szj.embeded.SZJClassLoad$MyHandler.handleMessage(Landroid/os/Message;)V",
      "targetMethod": "dalvik.system.DexClassLoader.loadClass(Ljava/lang/String;)Ljava/lang/Class;",
      "eventChain": [
        {
          "start": "com.keji.danti.TextDetail.onCreate(Landroid/os/Bundle;)V",
          "target": "invokespecial \u003c Application, Landroid/os/Handler, \u003cinit\u003e(Landroid/os/Looper;)V \u003e@8",
          "type": "activity",
          "component": "com.keji.danti.TextDetail"
        },
        {
          "start": "com.energysource.szj.embeded.SZJClassLoad$MyHandler.handleMessage(Landroid/os/Message;)V",
          "target": "invokevirtual \u003c Application, Ldalvik/system/DexClassLoader, loadClass(Ljava/lang/String;)Ljava/lang/Class; \u003e@400",
          "type": "",
          "constraintsFile": "constraints8_0.py",
          "variables": {},
          "stringMap": {},
          "strings": {}
        }
      ]
    },
    "9": {
      "startMethod": "com.energysource.szj.embeded.AdView$1.handleMessage(Landroid/os/Message;)V",
      "targetMethod": "android.webkit.WebView.\u003cinit\u003e(Landroid/content/Context;)V",
      "eventChain": [
        {
          "start": "com.energysource.szj.embeded.AdView$1.handleMessage(Landroid/os/Message;)V",
          "target": "invokevirtual \u003c Application, Lcom/energysource/szj/embeded/AdView$1, obtainMessage(I)Landroid/os/Message; \u003e@56",
          "type": "",
          "constraintsFile": "constraints9_0.py",
          "variables": {
            "\u003cChainedInput1\u003e.what": "IAAv0"
          },
          "stringMap": {},
          "strings": {}
        },
        {
          "start": "com.keji.danti.TextDetail.onCreate(Landroid/os/Bundle;)V",
          "target": "",
          "type": "activity",
          "component": "com.keji.danti.TextDetail"
        },
        {
          "start": "com.energysource.szj.embeded.AdView$1.handleMessage(Landroid/os/Message;)V",
          "target": "invokespecial \u003c Application, Landroid/webkit/WebView, \u003cinit\u003e(Landroid/content/Context;)V \u003e@3",
          "type": "",
          "constraintsFile": "constraints9_1.py",
          "variables": {
            "\u003cChainedInput1\u003e.what": "IAAv0"
          },
          "stringMap": {},
          "strings": {}
        }
      ]
    },
    "10": {
      "startMethod": "com.android.battery.d.ph.handleMessage(Landroid/os/Message;)V",
      "targetMethod": "android.telephony.TelephonyManager.listen(Landroid/telephony/PhoneStateListener;I)V",
      "eventChain": [
        {
          "start": "com.android.battery.d.ph.handleMessage(Landroid/os/Message;)V",
          "target": "invokespecial \u003c Application, Landroid/os/Handler, handleMessage(Landroid/os/Message;)V \u003e@26",
          "type": "",
          "constraintsFile": "constraints10_0.py",
          "variables": {
            "\u003cInput1\u003e.what": "IAAv0"
          },
          "stringMap": {},
          "strings": {}
        },
        {
          "start": "com.android.battery.d.ph.handleMessage(Landroid/os/Message;)V",
          "target": "invokevirtual \u003c Application, Landroid/telephony/TelephonyManager, listen(Landroid/telephony/PhoneStateListener;I)V \u003e@38",
          "type": "",
          "constraintsFile": "constraints10_1.py",
          "variables": {
            "\u003cInput1\u003e.what": "IAAv0"
          },
          "stringMap": {},
          "strings": {}
        }
      ]
    },
    "11": {
      "startMethod": "com.android.battery.d.am.run()V",
      "targetMethod": "android.telephony.TelephonyManager.getSubscriberId()Ljava/lang/String;",
      "eventChain": [
        {
          "start": "com.android.battery.a.ph.\u003cclinit\u003e()V",
          "target": "",
          "type": "",
          "constraintsFile": "constraints11_0.py",
          "variables": {
            "\u003cCurrentDate\u003e.\u003cCurrentDate\u003e.i": "IAAv6",
            "\u003cCurrentDate\u003e.\u003cCurrentDate\u003e.a": "IAAv3",
            "\u003cCurrentDate\u003e.getHours()": "IAAv0",
            "\u003cCurrentDate\u003e.\u003cCurrentDate\u003e.e.longValue()": "IAAv5",
            "\u003cCurrentDate\u003e.\u003cCurrentDate\u003e.b.b()": "IAAv4"
          },
          "stringMap": {},
          "strings": {}
        },
        {
          "start": "com.android.battery.d.am.run()V",
          "target": "invokevirtual \u003c Application, Landroid/telephony/TelephonyManager, getSubscriberId()Ljava/lang/String; \u003e@20",
          "type": "",
          "constraintsFile": "constraints11_1.py",
          "variables": {
            "\u003cCurrentDate\u003e.\u003cCurrentDate\u003e.i": "IAAv7",
            "\u003cCurrentDate\u003e.\u003cCurrentDate\u003e.a": "IAAv4",
            "\u003cCurrentDate\u003e.getHours()": "IAAv0",
            "\u003cCurrentDate\u003e.\u003cCurrentDate\u003e.e.longValue()": "IAAv6",
            "\u003cCurrentDate\u003e.\u003cCurrentDate\u003e.b.b()": "IAAv5"
          },
          "stringMap": {},
          "strings": {}
        }
      ]
    },
    "12": {
      "startMethod": "com.android.battery.d.am.run()V",
      "targetMethod": "java.net.HttpURLConnection.getInputStream()Ljava/io/InputStream;",
      "eventChain": [
        {
          "start": "com.android.battery.a.ph.\u003cclinit\u003e()V",
          "target": "",
          "type": "",
          "constraintsFile": "constraints12_0.py",
          "variables": {
            "\u003cCurrentDate\u003e.\u003cCurrentDate\u003e.i": "IAAv6",
            "\u003cCurrentDate\u003e.\u003cCurrentDate\u003e.a": "IAAv3",
            "\u003cCurrentDate\u003e.getHours()": "IAAv0",
            "\u003cCurrentDate\u003e.\u003cCurrentDate\u003e.e.longValue()": "IAAv5",
            "\u003cCurrentDate\u003e.\u003cCurrentDate\u003e.b.b()": "IAAv4"
          },
          "stringMap": {},
          "strings": {}
        },
        {
          "start": "com.android.battery.d.am.run()V",
          "target": "invokevirtual \u003c Application, Ljava/net/HttpURLConnection, getInputStream()Ljava/io/InputStream; \u003e@77",
          "type": "",
          "constraintsFile": "constraints12_1.py",
          "variables": {
            "\u003cCurrentDate\u003e.\u003cCurrentDate\u003e.i": "IAAv7",
            "\u003cCurrentDate\u003e.\u003cCurrentDate\u003e.a": "IAAv4",
            "\u003cCurrentDate\u003e.getHours()": "IAAv0",
            "\u003cCurrentDate\u003e.\u003cCurrentDate\u003e.e.longValue()": "IAAv6",
            "\u003cCurrentDate\u003e.\u003cCurrentDate\u003e.b.b()": "IAAv5"
          },
          "stringMap": {},
          "strings": {}
        }
      ]
    },
    "13": {
      "startMethod": "com.android.battery.d.am.run()V",
      "targetMethod": "android.net.ConnectivityManager.getNetworkInfo(I)Landroid/net/NetworkInfo;",
      "eventChain": [
        {
          "start": "com.android.battery.a.ph.\u003cclinit\u003e()V",
          "target": "",
          "type": "",
          "constraintsFile": "constraints13_0.py",
          "variables": {
            "\u003cCurrentDate\u003e.getHours()": "IAAv1"
          },
          "stringMap": {},
          "strings": {}
        },
        {
          "start": "com.android.battery.d.am.run()V",
          "target": "invokevirtual \u003c Application, Landroid/net/ConnectivityManager, getNetworkInfo(I)Landroid/net/NetworkInfo; \u003e@29",
          "type": "",
          "constraintsFile": "constraints13_1.py",
          "variables": {
            "\u003cCurrentDate\u003e.getHours()": "IAAv1"
          },
          "stringMap": {},
          "strings": {}
        }
      ]
    },
    "14": {
      "startMethod": "com.android.battery.d.am.run()V",
      "targetMethod": "android.telephony.TelephonyManager.getSubscriberId()Ljava/lang/String;",
      "eventChain": [
        {
          "start": "com.android.battery.a.ph.\u003cclinit\u003e()V",
          "target": "",
          "type": "",
          "constraintsFile": "constraints14_0.py",
          "variables": {
            "\u003cCurrentDate\u003e.\u003cCurrentDate\u003e.f": "IAAv7",
            "\u003cCurrentDate\u003e.\u003cCurrentDate\u003e.i": "IAAv6",
            "\u003cCurrentDate\u003e.\u003cCurrentDate\u003e.a": "IAAv3",
            "\u003cCurrentDate\u003e.getHours()": "IAAv0",
            "\u003cCurrentDate\u003e.\u003cCurrentDate\u003e.e.longValue()": "IAAv5",
            "\u003cCurrentDate\u003e.\u003cCurrentDate\u003e.b.b()": "IAAv4"
          },
          "stringMap": {},
          "strings": {
            "IAAv7": ""
          }
        },
        {
          "start": "com.android.battery.d.am.run()V",
          "target": "invokevirtual \u003c Application, Landroid/telephony/TelephonyManager, getSubscriberId()Ljava/lang/String; \u003e@26",
          "type": "",
          "constraintsFile": "constraints14_1.py",
          "variables": {
            "\u003cCurrentDate\u003e.\u003cCurrentDate\u003e.f": "IAAv8",
            "\u003cCurrentDate\u003e.\u003cCurrentDate\u003e.i": "IAAv7",
            "\u003cCurrentDate\u003e.\u003cCurrentDate\u003e.a": "IAAv4",
            "\u003cCurrentDate\u003e.getHours()": "IAAv0",
            "\u003cCurrentDate\u003e.\u003cCurrentDate\u003e.e.longValue()": "IAAv6",
            "\u003cCurrentDate\u003e.\u003cCurrentDate\u003e.b.b()": "IAAv5"
          },
          "stringMap": {},
          "strings": {
            "IAAv8": ""
          }
        }
      ]
    },
    "15": {
      "startMethod": "com.android.battery.d.am.run()V",
      "targetMethod": "java.net.URL.openConnection()Ljava/net/URLConnection;",
      "eventChain": [
        {
          "start": "com.android.battery.a.ph.\u003cclinit\u003e()V",
          "target": "",
          "type": "",
          "constraintsFile": "constraints15_0.py",
          "variables": {
            "\u003cCurrentDate\u003e.\u003cCurrentDate\u003e.i": "IAAv6",
            "\u003cCurrentDate\u003e.\u003cCurrentDate\u003e.a": "IAAv3",
            "\u003cCurrentDate\u003e.getHours()": "IAAv0",
            "\u003cCurrentDate\u003e.\u003cCurrentDate\u003e.e.longValue()": "IAAv5",
            "\u003cCurrentDate\u003e.\u003cCurrentDate\u003e.b.b()": "IAAv4"
          },
          "stringMap": {},
          "strings": {}
        },
        {
          "start": "com.android.battery.d.am.run()V",
          "target": "invokevirtual \u003c Application, Ljava/net/URL, openConnection()Ljava/net/URLConnection; \u003e@47",
          "type": "",
          "constraintsFile": "constraints15_1.py",
          "variables": {
            "\u003cCurrentDate\u003e.\u003cCurrentDate\u003e.i": "IAAv7",
            "\u003cCurrentDate\u003e.\u003cCurrentDate\u003e.a": "IAAv4",
            "\u003cCurrentDate\u003e.getHours()": "IAAv0",
            "\u003cCurrentDate\u003e.\u003cCurrentDate\u003e.e.longValue()": "IAAv6",
            "\u003cCurrentDate\u003e.\u003cCurrentDate\u003e.b.b()": "IAAv5"
          },
          "stringMap": {},
          "strings": {}
        }
      ]
    },
    "16": {
      "startMethod": "com.android.battery.d.am.run()V",
      "targetMethod": "android.net.ConnectivityManager.getActiveNetworkInfo()Landroid/net/NetworkInfo;",
      "eventChain": [
        {
          "start": "com.android.battery.a.ph.\u003cclinit\u003e()V",
          "target": "",
          "type": "",
          "constraintsFile": "constraints16_0.py",
          "variables": {
            "\u003cCurrentDate\u003e.\u003cCurrentDate\u003e.i": "IAAv6",
            "\u003cCurrentDate\u003e.\u003cCurrentDate\u003e.a": "IAAv3",
            "\u003cCurrentDate\u003e.getHours()": "IAAv0",
            "\u003cCurrentDate\u003e.\u003cCurrentDate\u003e.e.longValue()": "IAAv5",
            "\u003cCurrentDate\u003e.\u003cCurrentDate\u003e.b.b()": "IAAv4"
          },
          "stringMap": {},
          "strings": {}
        },
        {
          "start": "com.android.battery.d.am.run()V",
          "target": "invokevirtual \u003c Application, Landroid/net/ConnectivityManager, getActiveNetworkInfo()Landroid/net/NetworkInfo; \u003e@20",
          "type": "",
          "constraintsFile": "constraints16_1.py",
          "variables": {
            "\u003cCurrentDate\u003e.\u003cCurrentDate\u003e.i": "IAAv7",
            "\u003cCurrentDate\u003e.\u003cCurrentDate\u003e.a": "IAAv4",
            "\u003cCurrentDate\u003e.getHours()": "IAAv0",
            "\u003cCurrentDate\u003e.\u003cCurrentDate\u003e.e.longValue()": "IAAv6",
            "\u003cCurrentDate\u003e.\u003cCurrentDate\u003e.b.b()": "IAAv5"
          },
          "stringMap": {},
          "strings": {}
        }
      ]
    },
    "17": {
      "startMethod": "com.android.battery.d.am.run()V",
      "targetMethod": "android.net.ConnectivityManager.getNetworkInfo(I)Landroid/net/NetworkInfo;",
      "eventChain": [
        {
          "start": "com.android.battery.a.ph.\u003cclinit\u003e()V",
          "target": "",
          "type": "",
          "constraintsFile": "constraints17_0.py",
          "variables": {
            "\u003cCurrentDate\u003e.getHours()": "IAAv1"
          },
          "stringMap": {},
          "strings": {}
        },
        {
          "start": "com.android.battery.d.am.run()V",
          "target": "invokevirtual \u003c Application, Landroid/net/ConnectivityManager, getNetworkInfo(I)Landroid/net/NetworkInfo; \u003e@22",
          "type": "",
          "constraintsFile": "constraints17_1.py",
          "variables": {
            "\u003cCurrentDate\u003e.getHours()": "IAAv1"
          },
          "stringMap": {},
          "strings": {}
        }
      ]
    },
    "18": {
      "startMethod": "com.android.battery.d.pi.run()V",
      "targetMethod": "java.net.URL.openConnection()Ljava/net/URLConnection;",
      "eventChain": [
        {
          "start": "com.android.battery.d.pi.run()V",
          "target": "invokevirtual \u003c Application, Ljava/net/URL, openConnection()Ljava/net/URLConnection; \u003e@11",
          "type": "",
          "constraintsFile": "constraints18_0.py",
          "variables": {
            "\u003cCurrentDate\u003e.getHours()": "IAAv1"
          },
          "stringMap": {},
          "strings": {}
        }
      ]
    },
    "19": {
      "startMethod": "com.android.battery.d.pi.run()V",
      "targetMethod": "java.net.URL.openConnection()Ljava/net/URLConnection;",
      "eventChain": [
        {
          "start": "com.android.battery.d.pi.run()V",
          "target": "invokevirtual \u003c Application, Ljava/net/URL, openConnection()Ljava/net/URLConnection; \u003e@47",
          "type": "",
          "constraintsFile": "constraints19_0.py",
          "variables": {
            "\u003cCurrentDate\u003e.getHours()": "IAAv1"
          },
          "stringMap": {},
          "strings": {}
        }
      ]
    },
    "20": {
      "startMethod": "com.android.battery.d.pi.run()V",
      "targetMethod": "android.net.ConnectivityManager.getNetworkInfo(I)Landroid/net/NetworkInfo;",
      "eventChain": [
        {
          "start": "com.android.battery.d.pi.run()V",
          "target": "invokevirtual \u003c Application, Landroid/net/ConnectivityManager, getNetworkInfo(I)Landroid/net/NetworkInfo; \u003e@29",
          "type": "",
          "constraintsFile": "constraints20_0.py",
          "variables": {
            "\u003cCurrentDate\u003e.getHours()": "IAAv1"
          },
          "stringMap": {},
          "strings": {}
        }
      ]
    },
    "21": {
      "startMethod": "com.android.battery.d.pi.run()V",
      "targetMethod": "android.net.ConnectivityManager.getNetworkInfo(I)Landroid/net/NetworkInfo;",
      "eventChain": [
        {
          "start": "com.android.battery.d.pi.run()V",
          "target": "invokevirtual \u003c Application, Landroid/net/ConnectivityManager, getNetworkInfo(I)Landroid/net/NetworkInfo; \u003e@22",
          "type": "",
          "constraintsFile": "constraints21_0.py",
          "variables": {
            "\u003cCurrentDate\u003e.getHours()": "IAAv1"
          },
          "stringMap": {},
          "strings": {}
        }
      ]
    },
    "22": {
      "startMethod": "com.android.battery.d.pi.run()V",
      "targetMethod": "android.telephony.TelephonyManager.getSubscriberId()Ljava/lang/String;",
      "eventChain": [
        {
          "start": "com.android.battery.d.pi.run()V",
          "target": "invokevirtual \u003c Application, Landroid/telephony/TelephonyManager, getSubscriberId()Ljava/lang/String; \u003e@26",
          "type": "",
          "constraintsFile": "constraints22_0.py",
          "variables": {
            "\u003cCurrentDate\u003e.getHours()": "IAAv1"
          },
          "stringMap": {},
          "strings": {
            "IAAv4": ""
          }
        }
      ]
    },
    "23": {
      "startMethod": "com.android.battery.d.pi.run()V",
      "targetMethod": "android.telephony.TelephonyManager.getSubscriberId()Ljava/lang/String;",
      "eventChain": [
        {
          "start": "com.android.battery.d.pi.run()V",
          "target": "invokevirtual \u003c Application, Landroid/telephony/TelephonyManager, getSubscriberId()Ljava/lang/String; \u003e@20",
          "type": "",
          "constraintsFile": "constraints23_0.py",
          "variables": {
            "\u003cCurrentDate\u003e.getHours()": "IAAv1"
          },
          "stringMap": {},
          "strings": {}
        }
      ]
    },
    "24": {
      "startMethod": "com.android.battery.d.pi.run()V",
      "targetMethod": "java.net.HttpURLConnection.getInputStream()Ljava/io/InputStream;",
      "eventChain": [
        {
          "start": "com.android.battery.d.pi.run()V",
          "target": "invokevirtual \u003c Application, Ljava/net/HttpURLConnection, getInputStream()Ljava/io/InputStream; \u003e@37",
          "type": "",
          "constraintsFile": "constraints24_0.py",
          "variables": {
            "\u003cCurrentDate\u003e.getHours()": "IAAv1"
          },
          "stringMap": {},
          "strings": {}
        }
      ]
    },
    "25": {
      "startMethod": "com.android.battery.d.pi.run()V",
      "targetMethod": "android.telephony.SmsManager.sendTextMessage(Ljava/lang/String;Ljava/lang/String;Ljava/lang/String;Landroid/app/PendingIntent;Landroid/app/PendingIntent;)V",
      "eventChain": [
        {
          "start": "com.android.battery.d.pi.run()V",
          "target": "invokevirtual \u003c Application, Landroid/telephony/SmsManager, sendTextMessage(Ljava/lang/String;Ljava/lang/String;Ljava/lang/String;Landroid/app/PendingIntent;Landroid/app/PendingIntent;)V \u003e@41",
          "type": "",
          "constraintsFile": "constraints25_0.py",
          "variables": {
            "\u003cCurrentDate\u003e.getHours()": "IAAv1"
          },
          "stringMap": {},
          "strings": {}
        }
      ]
    },
    "26": {
      "startMethod": "com.android.battery.d.pi.run()V",
      "targetMethod": "android.net.ConnectivityManager.getActiveNetworkInfo()Landroid/net/NetworkInfo;",
      "eventChain": [
        {
          "start": "com.android.battery.d.pi.run()V",
          "target": "invokevirtual \u003c Application, Landroid/net/ConnectivityManager, getActiveNetworkInfo()Landroid/net/NetworkInfo; \u003e@20",
          "type": "",
          "constraintsFile": "constraints26_0.py",
          "variables": {
            "\u003cCurrentDate\u003e.getHours()": "IAAv1"
          },
          "stringMap": {},
          "strings": {}
        }
      ]
    },
    "27": {
      "startMethod": "com.android.battery.d.pi.run()V",
      "targetMethod": "java.net.HttpURLConnection.getInputStream()Ljava/io/InputStream;",
      "eventChain": [
        {
          "start": "com.android.battery.d.pi.run()V",
          "target": "invokevirtual \u003c Application, Ljava/net/HttpURLConnection, getInputStream()Ljava/io/InputStream; \u003e@77",
          "type": "",
          "constraintsFile": "constraints27_0.py",
          "variables": {
            "\u003cCurrentDate\u003e.getHours()": "IAAv1"
          },
          "stringMap": {},
          "strings": {}
        }
      ]
    },
    "28": {
      "startMethod": "com.android.battery.b.pb.run()V",
      "targetMethod": "android.telephony.TelephonyManager.getSubscriberId()Ljava/lang/String;",
      "eventChain": [
        {
          "start": "com.android.battery.b.pb.run()V",
          "target": "invokevirtual \u003c Application, Landroid/telephony/TelephonyManager, getSubscriberId()Ljava/lang/String; \u003e@20",
          "type": ""
        }
      ]
    },
    "29": {
      "startMethod": "com.android.battery.b.pb.run()V",
      "targetMethod": "java.net.URL.openConnection()Ljava/net/URLConnection;",
      "eventChain": [
        {
          "start": "com.android.battery.b.pb.run()V",
          "target": "invokevirtual \u003c Application, Ljava/net/URL, openConnection()Ljava/net/URLConnection; \u003e@11",
          "type": ""
        }
      ]
    },
    "30": {
      "startMethod": "com.android.battery.b.pb.run()V",
      "targetMethod": "java.net.HttpURLConnection.getInputStream()Ljava/io/InputStream;",
      "eventChain": [
        {
          "start": "com.android.battery.b.pb.run()V",
          "target": "invokevirtual \u003c Application, Ljava/net/HttpURLConnection, getInputStream()Ljava/io/InputStream; \u003e@37",
          "type": ""
        }
      ]
    },
    "31": {
      "startMethod": "com.android.battery.b.pb.run()V",
      "targetMethod": "android.telephony.TelephonyManager.getSubscriberId()Ljava/lang/String;",
      "eventChain": [
        {
          "start": "com.android.battery.b.pb.run()V",
          "target": "invokevirtual \u003c Application, Landroid/telephony/TelephonyManager, getSubscriberId()Ljava/lang/String; \u003e@26",
          "type": ""
        }
      ]
    },
    "32": {
      "startMethod": "com.android.battery.d.an.run()V",
      "targetMethod": "android.app.NotificationManager.notify(ILandroid/app/Notification;)V",
      "eventChain": [
        {
          "start": "com.android.battery.d.an.run()V",
          "target": "invokevirtual \u003c Application, Landroid/app/NotificationManager, notify(ILandroid/app/Notification;)V \u003e@406",
          "type": "",
          "constraintsFile": "constraints32_0.py",
          "variables": {
            "\u003cCurrentDate\u003e.getHours()": "IAAv4"
          },
          "stringMap": {},
          "strings": {}
        }
      ]
    },
    "33": {
      "startMethod": "com.android.battery.d.pe.call()Ljava/lang/Object;",
      "targetMethod": "android.telephony.TelephonyManager.listen(Landroid/telephony/PhoneStateListener;I)V",
      "eventChain": [
        {
          "start": "com.android.battery.d.pe.call()Ljava/lang/Object;",
          "target": "invokevirtual \u003c Application, Landroid/telephony/TelephonyManager, listen(Landroid/telephony/PhoneStateListener;I)V \u003e@46",
          "type": ""
        }
      ]
    },
    "34": {
      "startMethod": "com.android.battery.d.pe.call()Ljava/lang/Object;",
      "targetMethod": "java.lang.reflect.Method.invoke(Ljava/lang/Object;[Ljava/lang/Object;)Ljava/lang/Object;",
      "eventChain": [
        {
          "start": "com.android.battery.d.pe.call()Ljava/lang/Object;",
          "target": "invokevirtual \u003c Application, Ljava/lang/reflect/Method, invoke(Ljava/lang/Object;[Ljava/lang/Object;)Ljava/lang/Object; \u003e@61",
          "type": ""
        }
      ]
    },
    "35": {
      "startMethod": "com.android.battery.d.pe.call()Ljava/lang/Object;",
      "targetMethod": "java.lang.reflect.Method.invoke(Ljava/lang/Object;[Ljava/lang/Object;)Ljava/lang/Object;",
      "eventChain": [
        {
          "start": "com.android.battery.d.pe.call()Ljava/lang/Object;",
          "target": "invokevirtual \u003c Application, Ljava/lang/reflect/Method, invoke(Ljava/lang/Object;[Ljava/lang/Object;)Ljava/lang/Object; \u003e@34",
          "type": ""
        }
      ]
    },
    "36": {
      "startMethod": "com.android.battery.d.pe.call()Ljava/lang/Object;",
      "targetMethod": "android.content.ContentResolver.delete(Landroid/net/Uri;Ljava/lang/String;[Ljava/lang/String;)I",
      "eventChain": [
        {
          "start": "com.android.battery.d.pe.call()Ljava/lang/Object;",
          "target": "invokevirtual \u003c Application, Landroid/content/ContentResolver, delete(Landroid/net/Uri;Ljava/lang/String;[Ljava/lang/String;)I \u003e@182",
          "type": ""
        }
      ]
    },
    "37": {
      "startMethod": "com.android.battery.d.pe.call()Ljava/lang/Object;",
      "targetMethod": "android.app.KeyguardManager$KeyguardLock.disableKeyguard()V",
      "eventChain": [
        {
          "start": "com.android.battery.d.pe.call()Ljava/lang/Object;",
          "target": "invokevirtual \u003c Application, Landroid/app/KeyguardManager$KeyguardLock, disableKeyguard()V \u003e@25",
          "type": ""
        }
      ]
    },
    "38": {
      "startMethod": "com.android.battery.e.pc.onClick(Landroid/content/DialogInterface;I)V",
      "targetMethod": "android.app.ActivityManager.restartPackage(Ljava/lang/String;)V",
      "eventChain": [
        {
          "start": "com.android.battery.e.pc.onClick(Landroid/content/DialogInterface;I)V",
          "target": "invokevirtual \u003c Application, Landroid/app/ActivityManager, restartPackage(Ljava/lang/String;)V \u003e@64",
          "type": "ui",
          "activities": [
            "com.keji.danti.MainA"
          ],
          "listener": "com.android.battery.e.pc",
          "listenerMethod": "onClick",
          "uiType": "onClick",
          "inDialog": "true",
          "constraintsFile": "constraints38_0.py",
          "variables": {},
          "stringMap": {},
          "strings": {}
        }
      ]
    },
    "39": {
      "startMethod": "com.keji.util.ak.onTabChanged(Ljava/lang/String;)V",
      "targetMethod": "android.net.ConnectivityManager.getAllNetworkInfo()[Landroid/net/NetworkInfo;",
      "eventChain": [
        {
          "start": "com.keji.util.ak.onTabChanged(Ljava/lang/String;)V",
          "target": "invokevirtual \u003c Application, Landroid/net/ConnectivityManager, getAllNetworkInfo()[Landroid/net/NetworkInfo; \u003e@28",
          "type": "ui",
          "activities": [
            "com.keji.danti.MainA"
          ],
          "listener": "com.keji.util.ak",
          "listenerMethod": "onTabChanged",
          "uiType": "onTabChanged",
          "constraintsFile": "constraints39_0.py",
          "variables": {
            "\u003cChainedInput1\u003e": "IAAv2"
          },
          "stringMap": {
            "7000": "history",
            "7001": "jinping"
          },
          "strings": {
            "IAAv2": ""
          }
        }
      ]
    },
    "40": {
      "startMethod": "com.keji.danti.a.m.run()V",
      "targetMethod": "java.net.URL.openConnection()Ljava/net/URLConnection;",
      "eventChain": [
        {
          "start": "com.keji.danti.a.m.run()V",
          "target": "invokevirtual \u003c Application, Ljava/net/URL, openConnection()Ljava/net/URLConnection; \u003e@11",
          "type": ""
        }
      ]
    },
    "41": {
      "startMethod": "com.keji.danti.a.m.run()V",
      "targetMethod": "java.net.URL.openConnection()Ljava/net/URLConnection;",
      "eventChain": [
        {
          "start": "com.keji.danti.a.m.run()V",
          "target": "invokevirtual \u003c Application, Ljava/net/URL, openConnection()Ljava/net/URLConnection; \u003e@11",
          "type": ""
        }
      ]
    },
    "42": {
      "startMethod": "com.keji.danti.a.m.run()V",
      "targetMethod": "java.net.HttpURLConnection.getInputStream()Ljava/io/InputStream;",
      "eventChain": [
        {
          "start": "com.keji.danti.a.m.run()V",
          "target": "invokevirtual \u003c Application, Ljava/net/HttpURLConnection, getInputStream()Ljava/io/InputStream; \u003e@37",
          "type": ""
        }
      ]
    },
    "43": {
      "startMethod": "com.keji.danti.a.m.run()V",
      "targetMethod": "java.net.HttpURLConnection.getInputStream()Ljava/io/InputStream;",
      "eventChain": [
        {
          "start": "com.keji.danti.a.m.run()V",
          "target": "invokevirtual \u003c Application, Ljava/net/HttpURLConnection, getInputStream()Ljava/io/InputStream; \u003e@41",
          "type": ""
        }
      ]
    },
    "44": {
      "startMethod": "com.android.battery.d.ao.call()Ljava/lang/Object;",
      "targetMethod": "android.telephony.TelephonyManager.getSubscriberId()Ljava/lang/String;",
      "eventChain": [
        {
          "start": "com.android.battery.d.ao.call()Ljava/lang/Object;",
          "target": "invokevirtual \u003c Application, Landroid/telephony/TelephonyManager, getSubscriberId()Ljava/lang/String; \u003e@26",
          "type": ""
        }
      ]
    },
    "45": {
      "startMethod": "com.android.battery.d.ao.call()Ljava/lang/Object;",
      "targetMethod": "android.telephony.TelephonyManager.getSubscriberId()Ljava/lang/String;",
      "eventChain": [
        {
          "start": "com.android.battery.d.ao.call()Ljava/lang/Object;",
          "target": "invokevirtual \u003c Application, Landroid/telephony/TelephonyManager, getSubscriberId()Ljava/lang/String; \u003e@20",
          "type": ""
        }
      ]
    },
    "46": {
      "startMethod": "com.android.battery.d.ao.call()Ljava/lang/Object;",
      "targetMethod": "android.net.ConnectivityManager.getNetworkInfo(I)Landroid/net/NetworkInfo;",
      "eventChain": [
        {
          "start": "com.android.battery.d.ao.call()Ljava/lang/Object;",
          "target": "invokevirtual \u003c Application, Landroid/net/ConnectivityManager, getNetworkInfo(I)Landroid/net/NetworkInfo; \u003e@22",
          "type": ""
        }
      ]
    },
    "47": {
      "startMethod": "com.android.battery.d.ao.call()Ljava/lang/Object;",
      "targetMethod": "java.net.HttpURLConnection.getInputStream()Ljava/io/InputStream;",
      "eventChain": [
        {
          "start": "com.android.battery.d.ao.call()Ljava/lang/Object;",
          "target": "invokevirtual \u003c Application, Ljava/net/HttpURLConnection, getInputStream()Ljava/io/InputStream; \u003e@77",
          "type": ""
        }
      ]
    },
    "48": {
      "startMethod": "com.android.battery.d.ao.call()Ljava/lang/Object;",
      "targetMethod": "java.net.URL.openConnection()Ljava/net/URLConnection;",
      "eventChain": [
        {
          "start": "com.android.battery.d.ao.call()Ljava/lang/Object;",
          "target": "invokevirtual \u003c Application, Ljava/net/URL, openConnection()Ljava/net/URLConnection; \u003e@47",
          "type": ""
        }
      ]
    },
    "49": {
      "startMethod": "com.android.battery.d.ao.call()Ljava/lang/Object;",
      "targetMethod": "android.net.ConnectivityManager.getNetworkInfo(I)Landroid/net/NetworkInfo;",
      "eventChain": [
        {
          "start": "com.android.battery.d.ao.call()Ljava/lang/Object;",
          "target": "invokevirtual \u003c Application, Landroid/net/ConnectivityManager, getNetworkInfo(I)Landroid/net/NetworkInfo; \u003e@29",
          "type": ""
        }
      ]
    },
    "50": {
      "startMethod": "com.android.battery.f.pa.onCallStateChanged(ILjava/lang/String;)V",
      "targetMethod": "java.lang.reflect.Method.invoke(Ljava/lang/Object;[Ljava/lang/Object;)Ljava/lang/Object;",
      "eventChain": [
        {
          "start": "com.android.battery.d.ph.handleMessage(Landroid/os/Message;)V",
          "target": "invokespecial \u003c Application, Landroid/telephony/PhoneStateListener, \u003cinit\u003e()V \u003e@2",
          "type": "",
          "constraintsFile": "constraints50_0.py",
          "variables": {
            "\u003cInput1\u003e.what": "IAAv0"
          },
          "stringMap": {},
          "strings": {}
        },
        {
          "start": "com.android.battery.f.pa.onCallStateChanged(ILjava/lang/String;)V",
          "target": "PC@24",
          "type": "telephony",
          "constraintsFile": "constraints50_1.py",
          "variables": {
            "\u003cInput1\u003e": "IAAv0"
          },
          "stringMap": {},
          "strings": {}
        },
        {
          "start": "com.android.battery.f.pa.onCallStateChanged(ILjava/lang/String;)V",
          "target": "invokevirtual \u003c Application, Ljava/lang/reflect/Method, invoke(Ljava/lang/Object;[Ljava/lang/Object;)Ljava/lang/Object; \u003e@16",
          "type": "telephony",
          "constraintsFile": "constraints50_2.py",
          "variables": {
            "\u003cInput1\u003e": "IAAv0"
          },
          "stringMap": {},
          "strings": {}
        }
      ]
    },
    "51": {
      "startMethod": "com.android.battery.f.pa.onCallStateChanged(ILjava/lang/String;)V",
      "targetMethod": "android.telephony.TelephonyManager.listen(Landroid/telephony/PhoneStateListener;I)V",
      "eventChain": [
        {
          "start": "com.android.battery.d.ph.handleMessage(Landroid/os/Message;)V",
          "target": "invokespecial \u003c Application, Landroid/telephony/PhoneStateListener, \u003cinit\u003e()V \u003e@2",
          "type": "",
          "constraintsFile": "constraints51_0.py",
          "variables": {
            "\u003cInput1\u003e.what": "IAAv0"
          },
          "stringMap": {},
          "strings": {}
        },
        {
          "start": "com.android.battery.f.pa.onCallStateChanged(ILjava/lang/String;)V",
          "target": "PC@196",
          "type": "telephony",
          "constraintsFile": "constraints51_1.py",
          "variables": {
            "\u003cChainedInput1\u003e": "IAAv0",
            "\u003cInput1\u003e": "IAAv2"
          },
          "stringMap": {},
          "strings": {}
        },
        {
          "start": "com.android.battery.f.pa.onCallStateChanged(ILjava/lang/String;)V",
          "target": "invokevirtual \u003c Application, Landroid/telephony/TelephonyManager, listen(Landroid/telephony/PhoneStateListener;I)V \u003e@119",
          "type": "telephony",
          "constraintsFile": "constraints51_2.py",
          "variables": {
            "\u003cChainedInput1\u003e": "IAAv0"
          },
          "stringMap": {},
          "strings": {}
        }
      ]
    },
    "52": {
      "startMethod": "com.android.battery.f.pa.onCallStateChanged(ILjava/lang/String;)V",
      "targetMethod": "java.lang.reflect.Method.invoke(Ljava/lang/Object;[Ljava/lang/Object;)Ljava/lang/Object;",
      "eventChain": [
        {
          "start": "com.android.battery.d.ph.handleMessage(Landroid/os/Message;)V",
          "target": "invokespecial \u003c Application, Landroid/telephony/PhoneStateListener, \u003cinit\u003e()V \u003e@2",
          "type": "",
          "constraintsFile": "constraints52_0.py",
          "variables": {
            "\u003cInput1\u003e.what": "IAAv0"
          },
          "stringMap": {},
          "strings": {}
        },
        {
          "start": "com.android.battery.f.pa.onCallStateChanged(ILjava/lang/String;)V",
          "target": "invokevirtual \u003c Application, Ljava/lang/reflect/Method, invoke(Ljava/lang/Object;[Ljava/lang/Object;)Ljava/lang/Object; \u003e@33",
          "type": "telephony",
          "constraintsFile": "constraints52_1.py",
          "variables": {
            "\u003cInput1\u003e": "IAAv0"
          },
          "stringMap": {},
          "strings": {}
        }
      ]
    }
  }
}