{
  "packageName": "de.app4eyes.amd",
  "mainActivity": "de.app4eyes.amd.MainActivity",
  "callPaths": {
    "0": {
      "startMethod": "de.app4eyes.amd.MainActivity.onCreate(Landroid/os/Bundle;)V",
      "targetMethod": "android.net.ConnectivityManager.getNetworkInfo(I)Landroid/net/NetworkInfo;",
      "eventChain": [
        {
          "start": "de.app4eyes.amd.SettingsActivity.onStop()V",
          "target": "invokeinterface \u003c Application, Landroid/content/SharedPreferences$Editor, putString(Ljava/lang/String;Ljava/lang/String;)Landroid/content/SharedPreferences$Editor; \u003e@89",
          "type": "activity",
          "component": "de.app4eyes.amd.SettingsActivity"
        },
        {
          "start": "de.app4eyes.amd.MainActivity.onCreate(Landroid/os/Bundle;)V",
          "target": "invokevirtual \u003c Application, Landroid/net/ConnectivityManager, getNetworkInfo(I)Landroid/net/NetworkInfo; \u003e@30",
          "type": "activity",
          "component": "de.app4eyes.amd.MainActivity",
          "constraintsFile": "constraints0_0.py",
          "variables": {
            "SharedPreferences\u003cDoctorsMail\u003e": "IAAv2"
          },
          "stringMap": {
            "7000": ""
          },
          "strings": {
            "IAAv2": ""
          }
        }
      ]
    },
    "1": {
      "startMethod": "de.app4eyes.amd.MainActivity.onCreate(Landroid/os/Bundle;)V",
      "targetMethod": "org.apache.http.impl.client.DefaultHttpClient.execute(Lorg/apache/http/client/methods/HttpUriRequest;)Lorg/apache/http/HttpResponse;",
      "eventChain": [
        {
          "start": "de.app4eyes.amd.SettingsActivity.onStop()V",
          "target": "invokeinterface \u003c Application, Landroid/content/SharedPreferences$Editor, putString(Ljava/lang/String;Ljava/lang/String;)Landroid/content/SharedPreferences$Editor; \u003e@89",
          "type": "activity",
          "component": "de.app4eyes.amd.SettingsActivity"
        },
        {
          "start": "de.app4eyes.amd.MainActivity.onCreate(Landroid/os/Bundle;)V",
          "target": "invokevirtual \u003c Application, Lorg/apache/http/impl/client/DefaultHttpClient, execute(Lorg/apache/http/client/methods/HttpUriRequest;)Lorg/apache/http/HttpResponse; \u003e@48",
          "type": "activity",
          "component": "de.app4eyes.amd.MainActivity",
          "constraintsFile": "constraints1_0.py",
          "variables": {
            "SharedPreferences\u003cDoctorsMail\u003e": "IAAv2"
          },
          "stringMap": {
            "7000": ""
          },
          "strings": {
            "IAAv2": ""
          }
        }
      ]
    },
    "2": {
      "startMethod": "de.app4eyes.amd.MainActivity.onCreate(Landroid/os/Bundle;)V",
      "targetMethod": "android.net.ConnectivityManager.getNetworkInfo(I)Landroid/net/NetworkInfo;",
      "eventChain": [
        {
          "start": "de.app4eyes.amd.SettingsActivity.onStop()V",
          "target": "invokeinterface \u003c Application, Landroid/content/SharedPreferences$Editor, putString(Ljava/lang/String;Ljava/lang/String;)Landroid/content/SharedPreferences$Editor; \u003e@89",
          "type": "activity",
          "component": "de.app4eyes.amd.SettingsActivity"
        },
        {
          "start": "de.app4eyes.amd.MainActivity.onCreate(Landroid/os/Bundle;)V",
          "target": "invokevirtual \u003c Application, Landroid/net/ConnectivityManager, getNetworkInfo(I)Landroid/net/NetworkInfo; \u003e@72",
          "type": "activity",
          "component": "de.app4eyes.amd.MainActivity",
          "constraintsFile": "constraints2_0.py",
          "variables": {
            "SharedPreferences\u003cDoctorsMail\u003e": "IAAv2"
          },
          "stringMap": {
            "7000": ""
          },
          "strings": {
            "IAAv2": ""
          }
        }
      ]
    },
    "3": {
      "startMethod": "de.app4eyes.amd.MainActivity.onOptionsItemSelected(Landroid/view/MenuItem;)Z",
      "targetMethod": "android.accounts.AccountManager.getAccountsByType(Ljava/lang/String;)[Landroid/accounts/Account;",
      "eventChain": [
        {
          "start": "de.app4eyes.amd.MainActivity.onOptionsItemSelected(Landroid/view/MenuItem;)Z",
          "target": "invokevirtual \u003c Application, Landroid/accounts/AccountManager, getAccountsByType(Ljava/lang/String;)[Landroid/accounts/Account; \u003e@7",
          "type": "activity",
          "component": "de.app4eyes.amd.MainActivity",
          "constraintsFile": "constraints3_0.py",
          "variables": {
            "\u003cInput1\u003e.getItemId()": "IAAv0"
          },
          "stringMap": {},
          "strings": {}
        }
      ]
    },
    "4": {
      "startMethod": "de.app4eyes.amd.MainActivity.onActivityResult(IILandroid/content/Intent;)V",
      "targetMethod": "android.net.ConnectivityManager.getNetworkInfo(I)Landroid/net/NetworkInfo;",
      "eventChain": [
        {
          "start": "de.app4eyes.amd.SettingsActivity.onStop()V",
          "target": "invokeinterface \u003c Application, Landroid/content/SharedPreferences$Editor, putString(Ljava/lang/String;Ljava/lang/String;)Landroid/content/SharedPreferences$Editor; \u003e@89",
          "type": "activity",
          "component": "de.app4eyes.amd.SettingsActivity"
        },
        {
          "start": "de.app4eyes.amd.MainActivity.onActivityResult(IILandroid/content/Intent;)V",
          "target": "invokevirtual \u003c Application, Landroid/net/ConnectivityManager, getNetworkInfo(I)Landroid/net/NetworkInfo; \u003e@72",
          "type": "activity",
          "component": "de.app4eyes.amd.MainActivity",
          "constraintsFile": "constraints4_0.py",
          "variables": {
            "\u003cChainedInput2\u003e": "IAAv0",
            "SharedPreferences\u003cDoctorsMail\u003e": "IAAv2"
          },
          "stringMap": {
            "7000": ""
          },
          "strings": {
            "IAAv2": ""
          }
        }
      ]
    },
    "5": {
      "startMethod": "de.app4eyes.amd.MainActivity.onActivityResult(IILandroid/content/Intent;)V",
      "targetMethod": "android.net.ConnectivityManager.getNetworkInfo(I)Landroid/net/NetworkInfo;",
      "eventChain": [
        {
          "start": "de.app4eyes.amd.SettingsActivity.onStop()V",
          "target": "invokeinterface \u003c Application, Landroid/content/SharedPreferences$Editor, putString(Ljava/lang/String;Ljava/lang/String;)Landroid/content/SharedPreferences$Editor; \u003e@89",
          "type": "activity",
          "component": "de.app4eyes.amd.SettingsActivity"
        },
        {
          "start": "de.app4eyes.amd.MainActivity.onActivityResult(IILandroid/content/Intent;)V",
          "target": "invokevirtual \u003c Application, Landroid/net/ConnectivityManager, getNetworkInfo(I)Landroid/net/NetworkInfo; \u003e@30",
          "type": "activity",
          "component": "de.app4eyes.amd.MainActivity",
          "constraintsFile": "constraints5_0.py",
          "variables": {
            "\u003cChainedInput2\u003e": "IAAv0",
            "SharedPreferences\u003cDoctorsMail\u003e": "IAAv2"
          },
          "stringMap": {
            "7000": ""
          },
          "strings": {
            "IAAv2": ""
          }
        }
      ]
    },
    "6": {
      "startMethod": "de.app4eyes.amd.MainActivity.onActivityResult(IILandroid/content/Intent;)V",
      "targetMethod": "org.apache.http.impl.client.DefaultHttpClient.execute(Lorg/apache/http/client/methods/HttpUriRequest;)Lorg/apache/http/HttpResponse;",
      "eventChain": [
        {
          "start": "de.app4eyes.amd.SettingsActivity.onStop()V",
          "target": "invokeinterface \u003c Application, Landroid/content/SharedPreferences$Editor, putString(Ljava/lang/String;Ljava/lang/String;)Landroid/content/SharedPreferences$Editor; \u003e@89",
          "type": "activity",
          "component": "de.app4eyes.amd.SettingsActivity"
        },
        {
          "start": "de.app4eyes.amd.MainActivity.onActivityResult(IILandroid/content/Intent;)V",
          "target": "invokevirtual \u003c Application, Lorg/apache/http/impl/client/DefaultHttpClient, execute(Lorg/apache/http/client/methods/HttpUriRequest;)Lorg/apache/http/HttpResponse; \u003e@48",
          "type": "activity",
          "component": "de.app4eyes.amd.MainActivity",
          "constraintsFile": "constraints6_0.py",
          "variables": {
            "\u003cChainedInput2\u003e": "IAAv0",
            "SharedPreferences\u003cDoctorsMail\u003e": "IAAv2"
          },
          "stringMap": {
            "7000": ""
          },
          "strings": {
            "IAAv2": ""
          }
        }
      ]
    }
  }
}