{
  "packageName": "radio.visao.m12.app",
  "mainActivity": "radio.visao.m12.app.RadioActivity",
  "callPaths": {
    "0": {
      "startMethod": "radio.visao.m12.app.MyService.onCreate()V",
      "targetMethod": "android.telephony.TelephonyManager.listen(Landroid/telephony/PhoneStateListener;I)V",
      "eventChain": [
        {
          "start": "radio.visao.m12.app.MyService.onCreate()V",
          "target": "invokevirtual \u003c Application, Landroid/telephony/TelephonyManager, listen(Landroid/telephony/PhoneStateListener;I)V \u003e@51",
          "type": "service",
          "component": "radio.visao.m12.app.MyService"
        }
      ]
    },
    "1": {
      "startMethod": "radio.visao.m12.app.RadioActivity.onCreate(Landroid/os/Bundle;)V",
      "targetMethod": "android.net.ConnectivityManager.getActiveNetworkInfo()Landroid/net/NetworkInfo;",
      "eventChain": [
        {
          "start": "radio.visao.m12.app.RadioActivity.onCreate(Landroid/os/Bundle;)V",
          "target": "invokevirtual \u003c Application, Landroid/net/ConnectivityManager, getActiveNetworkInfo()Landroid/net/NetworkInfo; \u003e@50",
          "type": "activity",
          "component": "radio.visao.m12.app.RadioActivity"
        }
      ]
    },
    "2": {
      "startMethod": "radio.visao.m12.app.MyService.onStartCommand(Landroid/content/Intent;II)I",
      "targetMethod": "java.net.URLConnection.getInputStream()Ljava/io/InputStream;",
      "eventChain": [
        {
          "start": "radio.visao.m12.app.RadioActivity.onDestroy()V",
          "target": "",
          "type": "activity",
          "component": "radio.visao.m12.app.RadioActivity",
          "constraintsFile": "constraints2_0.py",
          "variables": {},
          "stringMap": {
            "7000": "aac",
            "7001": "rtsp"
          },
          "strings": {
            "IAAv0": ""
          }
        },
        {
          "start": "radio.visao.m12.app.MyService.\u003cinit\u003e()V",
          "target": "PC@76",
          "type": "",
          "constraintsFile": "constraints2_1.py",
          "variables": {},
          "stringMap": {
            "7000": "aac",
            "7001": "rtsp",
            "7002": "mp3"
          },
          "strings": {
            "IAAv1": ""
          }
        },
        {
          "start": "radio.visao.m12.app.MyService.onStartCommand(Landroid/content/Intent;II)I",
          "target": "invokevirtual \u003c Application, Ljava/net/URLConnection, getInputStream()Ljava/io/InputStream; \u003e@40",
          "type": "service",
          "component": "radio.visao.m12.app.MyService",
          "constraintsFile": "constraints2_2.py",
          "variables": {},
          "stringMap": {
            "7000": "aac",
            "7001": "rtsp"
          },
          "strings": {
            "IAAv1": ""
          }
        }
      ]
    },
    "3": {
      "startMethod": "radio.visao.m12.app.MyService.onStartCommand(Landroid/content/Intent;II)I",
      "targetMethod": "java.net.URLConnection.getInputStream()Ljava/io/InputStream;",
      "eventChain": [
        {
          "start": "radio.visao.m12.app.RadioActivity.onDestroy()V",
          "target": "",
          "type": "activity",
          "component": "radio.visao.m12.app.RadioActivity",
          "constraintsFile": "constraints3_0.py",
          "variables": {},
          "stringMap": {
            "7000": "aac",
            "7001": "rtsp"
          },
          "strings": {
            "IAAv0": ""
          }
        },
        {
          "start": "radio.visao.m12.app.MyService.\u003cinit\u003e()V",
          "target": "PC@76",
          "type": "",
          "constraintsFile": "constraints3_1.py",
          "variables": {},
          "stringMap": {
            "7000": "aac",
            "7001": "rtsp",
            "7002": "mp3"
          },
          "strings": {
            "IAAv1": ""
          }
        },
        {
          "start": "radio.visao.m12.app.MyService.onStartCommand(Landroid/content/Intent;II)I",
          "target": "invokevirtual \u003c Application, Ljava/net/URLConnection, getInputStream()Ljava/io/InputStream; \u003e@14",
          "type": "service",
          "component": "radio.visao.m12.app.MyService",
          "constraintsFile": "constraints3_2.py",
          "variables": {},
          "stringMap": {
            "7000": "aac",
            "7001": "rtsp"
          },
          "strings": {
            "IAAv1": ""
          }
        }
      ]
    },
    "4": {
      "startMethod": "radio.visao.m12.app.MyService.onStartCommand(Landroid/content/Intent;II)I",
      "targetMethod": "android.media.MediaPlayer.pause()V",
      "eventChain": [
        {
          "start": "radio.visao.m12.app.MyService.onStartCommand(Landroid/content/Intent;II)I",
          "target": "PC@14",
          "type": "service",
          "component": "radio.visao.m12.app.MyService",
          "constraintsFile": "constraints4_0.py",
          "variables": {},
          "stringMap": {},
          "strings": {}
        },
        {
          "start": "radio.visao.m12.app.RadioActivity.onDestroy()V",
          "target": "",
          "type": "activity",
          "component": "radio.visao.m12.app.RadioActivity",
          "constraintsFile": "constraints4_1.py",
          "variables": {},
          "stringMap": {},
          "strings": {}
        },
        {
          "start": "radio.visao.m12.app.MyService.onStartCommand(Landroid/content/Intent;II)I",
          "target": "invokevirtual \u003c Application, Landroid/media/MediaPlayer, pause()V \u003e@16",
          "type": "service",
          "component": "radio.visao.m12.app.MyService",
          "constraintsFile": "constraints4_2.py",
          "variables": {},
          "stringMap": {},
          "strings": {}
        }
      ]
    },
    "5": {
      "startMethod": "radio.visao.m12.app.MyService.onStartCommand(Landroid/content/Intent;II)I",
      "targetMethod": "java.net.URLConnection.connect()V",
      "eventChain": [
        {
          "start": "radio.visao.m12.app.RadioActivity.onDestroy()V",
          "target": "",
          "type": "activity",
          "component": "radio.visao.m12.app.RadioActivity",
          "constraintsFile": "constraints5_0.py",
          "variables": {},
          "stringMap": {
            "7000": "aac",
            "7001": "rtsp"
          },
          "strings": {
            "IAAv0": ""
          }
        },
        {
          "start": "radio.visao.m12.app.MyService.\u003cinit\u003e()V",
          "target": "PC@76",
          "type": "",
          "constraintsFile": "constraints5_1.py",
          "variables": {},
          "stringMap": {
            "7000": "aac",
            "7001": "rtsp",
            "7002": "mp3"
          },
          "strings": {
            "IAAv1": ""
          }
        },
        {
          "start": "radio.visao.m12.app.MyService.onStartCommand(Landroid/content/Intent;II)I",
          "target": "invokevirtual \u003c Application, Ljava/net/URLConnection, connect()V \u003e@36",
          "type": "service",
          "component": "radio.visao.m12.app.MyService",
          "constraintsFile": "constraints5_2.py",
          "variables": {},
          "stringMap": {
            "7000": "aac",
            "7001": "rtsp"
          },
          "strings": {
            "IAAv1": ""
          }
        }
      ]
    },
    "6": {
      "startMethod": "radio.visao.m12.app.MyService.onStartCommand(Landroid/content/Intent;II)I",
      "targetMethod": "java.net.URLConnection.connect()V",
      "eventChain": [
        {
          "start": "radio.visao.m12.app.RadioActivity.onDestroy()V",
          "target": "",
          "type": "activity",
          "component": "radio.visao.m12.app.RadioActivity",
          "constraintsFile": "constraints6_0.py",
          "variables": {},
          "stringMap": {
            "7000": "aac",
            "7001": "rtsp"
          },
          "strings": {
            "IAAv0": ""
          }
        },
        {
          "start": "radio.visao.m12.app.MyService.\u003cinit\u003e()V",
          "target": "PC@76",
          "type": "",
          "constraintsFile": "constraints6_1.py",
          "variables": {},
          "stringMap": {
            "7000": "aac",
            "7001": "rtsp",
            "7002": "mp3"
          },
          "strings": {
            "IAAv1": ""
          }
        },
        {
          "start": "radio.visao.m12.app.MyService.onStartCommand(Landroid/content/Intent;II)I",
          "target": "invokevirtual \u003c Application, Ljava/net/URLConnection, connect()V \u003e@32",
          "type": "service",
          "component": "radio.visao.m12.app.MyService",
          "constraintsFile": "constraints6_2.py",
          "variables": {},
          "stringMap": {
            "7000": "aac",
            "7001": "rtsp"
          },
          "strings": {
            "IAAv1": ""
          }
        }
      ]
    },
    "7": {
      "startMethod": "radio.visao.m12.app.MyService.onStartCommand(Landroid/content/Intent;II)I",
      "targetMethod": "java.net.URL.openConnection()Ljava/net/URLConnection;",
      "eventChain": [
        {
          "start": "radio.visao.m12.app.RadioActivity.onDestroy()V",
          "target": "",
          "type": "activity",
          "component": "radio.visao.m12.app.RadioActivity",
          "constraintsFile": "constraints7_0.py",
          "variables": {},
          "stringMap": {
            "7000": "aac",
            "7001": "rtsp"
          },
          "strings": {
            "IAAv0": ""
          }
        },
        {
          "start": "radio.visao.m12.app.MyService.\u003cinit\u003e()V",
          "target": "PC@76",
          "type": "",
          "constraintsFile": "constraints7_1.py",
          "variables": {},
          "stringMap": {
            "7000": "aac",
            "7001": "rtsp",
            "7002": "mp3"
          },
          "strings": {
            "IAAv1": ""
          }
        },
        {
          "start": "radio.visao.m12.app.MyService.onStartCommand(Landroid/content/Intent;II)I",
          "target": "invokevirtual \u003c Application, Ljava/net/URL, openConnection()Ljava/net/URLConnection; \u003e@31",
          "type": "service",
          "component": "radio.visao.m12.app.MyService",
          "constraintsFile": "constraints7_2.py",
          "variables": {},
          "stringMap": {
            "7000": "aac",
            "7001": "rtsp"
          },
          "strings": {
            "IAAv1": ""
          }
        }
      ]
    },
    "8": {
      "startMethod": "radio.visao.m12.app.MyService.onStartCommand(Landroid/content/Intent;II)I",
      "targetMethod": "java.net.URL.openConnection()Ljava/net/URLConnection;",
      "eventChain": [
        {
          "start": "radio.visao.m12.app.RadioActivity.onDestroy()V",
          "target": "",
          "type": "activity",
          "component": "radio.visao.m12.app.RadioActivity",
          "constraintsFile": "constraints8_0.py",
          "variables": {},
          "stringMap": {
            "7000": "aac",
            "7001": "rtsp"
          },
          "strings": {
            "IAAv0": ""
          }
        },
        {
          "start": "radio.visao.m12.app.MyService.\u003cinit\u003e()V",
          "target": "PC@76",
          "type": "",
          "constraintsFile": "constraints8_1.py",
          "variables": {},
          "stringMap": {
            "7000": "aac",
            "7001": "rtsp",
            "7002": "mp3"
          },
          "strings": {
            "IAAv1": ""
          }
        },
        {
          "start": "radio.visao.m12.app.MyService.onStartCommand(Landroid/content/Intent;II)I",
          "target": "invokevirtual \u003c Application, Ljava/net/URL, openConnection()Ljava/net/URLConnection; \u003e@19",
          "type": "service",
          "component": "radio.visao.m12.app.MyService",
          "constraintsFile": "constraints8_2.py",
          "variables": {},
          "stringMap": {
            "7000": "aac",
            "7001": "rtsp"
          },
          "strings": {
            "IAAv1": ""
          }
        }
      ]
    },
    "9": {
      "startMethod": "radio.visao.m12.app.MyService.onStartCommand(Landroid/content/Intent;II)I",
      "targetMethod": "android.media.MediaPlayer.start()V",
      "eventChain": [
        {
          "start": "radio.visao.m12.app.RadioActivity.onDestroy()V",
          "target": "",
          "type": "activity",
          "component": "radio.visao.m12.app.RadioActivity",
          "constraintsFile": "constraints9_0.py",
          "variables": {},
          "stringMap": {
            "7000": "aac",
            "7001": "rtsp"
          },
          "strings": {
            "IAAv0": ""
          }
        },
        {
          "start": "radio.visao.m12.app.MyService.\u003cinit\u003e()V",
          "target": "PC@76",
          "type": "",
          "constraintsFile": "constraints9_1.py",
          "variables": {},
          "stringMap": {
            "7000": "aac",
            "7001": "rtsp",
            "7002": "mp3"
          },
          "strings": {
            "IAAv1": ""
          }
        },
        {
          "start": "radio.visao.m12.app.MyService.onStartCommand(Landroid/content/Intent;II)I",
          "target": "invokevirtual \u003c Application, Landroid/media/MediaPlayer, start()V \u003e@100",
          "type": "service",
          "component": "radio.visao.m12.app.MyService",
          "constraintsFile": "constraints9_2.py",
          "variables": {},
          "stringMap": {
            "7000": "aac",
            "7001": "rtsp"
          },
          "strings": {
            "IAAv1": ""
          }
        }
      ]
    },
    "10": {
      "startMethod": "radio.visao.m12.app.MyService.onStartCommand(Landroid/content/Intent;II)I",
      "targetMethod": "android.media.MediaPlayer.start()V",
      "eventChain": [
        {
          "start": "radio.visao.m12.app.RadioActivity.onDestroy()V",
          "target": "",
          "type": "activity",
          "component": "radio.visao.m12.app.RadioActivity",
          "constraintsFile": "constraints10_0.py",
          "variables": {},
          "stringMap": {
            "7000": "aac",
            "7001": "rtsp"
          },
          "strings": {
            "IAAv0": ""
          }
        },
        {
          "start": "radio.visao.m12.app.MyService.\u003cinit\u003e()V",
          "target": "PC@76",
          "type": "",
          "constraintsFile": "constraints10_1.py",
          "variables": {},
          "stringMap": {
            "7000": "aac",
            "7001": "rtsp",
            "7002": "mp3"
          },
          "strings": {
            "IAAv1": ""
          }
        },
        {
          "start": "radio.visao.m12.app.MyService.onStartCommand(Landroid/content/Intent;II)I",
          "target": "invokevirtual \u003c Application, Landroid/media/MediaPlayer, start()V \u003e@201",
          "type": "service",
          "component": "radio.visao.m12.app.MyService",
          "constraintsFile": "constraints10_2.py",
          "variables": {},
          "stringMap": {
            "7000": "aac",
            "7001": "rtsp"
          },
          "strings": {
            "IAAv1": ""
          }
        }
      ]
    },
    "11": {
      "startMethod": "radio.visao.m12.app.MyService.onStartCommand(Landroid/content/Intent;II)I",
      "targetMethod": "android.media.MediaPlayer.release()V",
      "eventChain": [
        {
          "start": "radio.visao.m12.app.MyService.onStartCommand(Landroid/content/Intent;II)I",
          "target": "PC@14",
          "type": "service",
          "component": "radio.visao.m12.app.MyService",
          "constraintsFile": "constraints11_0.py",
          "variables": {},
          "stringMap": {},
          "strings": {}
        },
        {
          "start": "radio.visao.m12.app.RadioActivity.onDestroy()V",
          "target": "",
          "type": "activity",
          "component": "radio.visao.m12.app.RadioActivity",
          "constraintsFile": "constraints11_1.py",
          "variables": {},
          "stringMap": {},
          "strings": {}
        },
        {
          "start": "radio.visao.m12.app.MyService.onStartCommand(Landroid/content/Intent;II)I",
          "target": "invokevirtual \u003c Application, Landroid/media/MediaPlayer, release()V \u003e@29",
          "type": "service",
          "component": "radio.visao.m12.app.MyService",
          "constraintsFile": "constraints11_2.py",
          "variables": {},
          "stringMap": {},
          "strings": {}
        }
      ]
    },
    "12": {
      "startMethod": "radio.visao.m12.app.MyService$5$1.onCompletion(Landroid/media/MediaPlayer;)V",
      "targetMethod": "android.media.MediaPlayer.release()V",
      "eventChain": [
        {
          "start": "radio.visao.m12.app.MyService$5$1.onCompletion(Landroid/media/MediaPlayer;)V",
          "target": "invokevirtual \u003c Application, Landroid/media/MediaPlayer, release()V \u003e@102",
          "type": "",
          "constraintsFile": "constraints12_0.py",
          "variables": {},
          "stringMap": {},
          "strings": {}
        }
      ]
    },
    "13": {
      "startMethod": "radio.visao.m12.app.MyService$5$1.onCompletion(Landroid/media/MediaPlayer;)V",
      "targetMethod": "android.media.MediaPlayer.start()V",
      "eventChain": [
        {
          "start": "radio.visao.m12.app.MyService$5$1.onCompletion(Landroid/media/MediaPlayer;)V",
          "target": "invokevirtual \u003c Application, Landroid/media/MediaPlayer, start()V \u003e@98",
          "type": "",
          "constraintsFile": "constraints13_0.py",
          "variables": {},
          "stringMap": {},
          "strings": {}
        }
      ]
    },
    "14": {
      "startMethod": "radio.visao.m12.app.Contato$5.onClick(Landroid/view/View;)V",
      "targetMethod": "org.apache.http.client.HttpClient.execute(Lorg/apache/http/client/methods/HttpUriRequest;)Lorg/apache/http/HttpResponse;",
      "eventChain": [
        {
          "start": "radio.visao.m12.app.Contato$5.onClick(Landroid/view/View;)V",
          "target": "invokeinterface \u003c Application, Lorg/apache/http/client/HttpClient, execute(Lorg/apache/http/client/methods/HttpUriRequest;)Lorg/apache/http/HttpResponse; \u003e@361",
          "type": "ui",
          "activities": [
            "radio.visao.m12.app.RadioActivity"
          ],
          "listener": "radio.visao.m12.app.Contato$5",
          "listenerMethod": "onClick",
          "uiType": "onClick",
          "constraintsFile": "constraints14_0.py",
          "variables": {},
          "stringMap": {},
          "strings": {}
        }
      ]
    },
    "15": {
      "startMethod": "radio.visao.m12.app.MyService$1.onCallStateChanged(ILjava/lang/String;)V",
      "targetMethod": "android.media.MediaPlayer.pause()V",
      "eventChain": [
        {
          "start": "radio.visao.m12.app.MyService.onCreate()V",
          "target": "invokespecial \u003c Application, Landroid/telephony/PhoneStateListener, \u003cinit\u003e()V \u003e@7",
          "type": "service",
          "component": "radio.visao.m12.app.MyService"
        },
        {
          "start": "radio.visao.m12.app.MyService$1.onCallStateChanged(ILjava/lang/String;)V",
          "target": "invokevirtual \u003c Application, Landroid/media/MediaPlayer, pause()V \u003e@16",
          "type": "telephony",
          "constraintsFile": "constraints15_0.py",
          "variables": {
            "\u003cChainedInput1\u003e": "IAAv0"
          },
          "stringMap": {},
          "strings": {}
        }
      ]
    },
    "16": {
      "startMethod": "radio.visao.m12.app.MyService$1.onCallStateChanged(ILjava/lang/String;)V",
      "targetMethod": "android.media.MediaPlayer.release()V",
      "eventChain": [
        {
          "start": "radio.visao.m12.app.MyService.onCreate()V",
          "target": "invokespecial \u003c Application, Landroid/telephony/PhoneStateListener, \u003cinit\u003e()V \u003e@7",
          "type": "service",
          "component": "radio.visao.m12.app.MyService"
        },
        {
          "start": "radio.visao.m12.app.MyService$1.onCallStateChanged(ILjava/lang/String;)V",
          "target": "invokevirtual \u003c Application, Landroid/media/MediaPlayer, release()V \u003e@29",
          "type": "telephony",
          "constraintsFile": "constraints16_0.py",
          "variables": {
            "\u003cChainedInput1\u003e": "IAAv0"
          },
          "stringMap": {},
          "strings": {}
        }
      ]
    }
  }
}