{
  "packageName": "es.novacreative.vivirenpriego",
  "mainActivity": "es.novacreative.vivirenpriego.vivirenpriego",
  "callPaths": {
    "0": {
      "startMethod": "es.novacreative.vivirenpriego.vivirenpriego.onCreate(Landroid/os/Bundle;)V",
      "targetMethod": "java.lang.reflect.Method.invoke(Ljava/lang/Object;[Ljava/lang/Object;)Ljava/lang/Object;",
      "eventChain": [
        {
          "start": "es.novacreative.vivirenpriego.vivirenpriego.onCreate(Landroid/os/Bundle;)V",
          "target": "invokevirtual \u003c Application, Ljava/lang/reflect/Method, invoke(Ljava/lang/Object;[Ljava/lang/Object;)Ljava/lang/Object; \u003e@104",
          "type": "activity",
          "component": "es.novacreative.vivirenpriego.vivirenpriego"
        }
      ]
    },
    "1": {
      "startMethod": "es.novacreative.vivirenpriego.vivirenpriego.onCreate(Landroid/os/Bundle;)V",
      "targetMethod": "java.lang.reflect.Method.invoke(Ljava/lang/Object;[Ljava/lang/Object;)Ljava/lang/Object;",
      "eventChain": [
        {
          "start": "es.novacreative.vivirenpriego.vivirenpriego.onCreate(Landroid/os/Bundle;)V",
          "target": "invokevirtual \u003c Application, Ljava/lang/reflect/Method, invoke(Ljava/lang/Object;[Ljava/lang/Object;)Ljava/lang/Object; \u003e@246",
          "type": "activity",
          "component": "es.novacreative.vivirenpriego.vivirenpriego"
        }
      ]
    }
  }
}