{
  "packageName": "com.readsoft.mobile.worklist2",
  "mainActivity": "com.readsoft.mobile.worklist2.ReadSoft2",
  "callPaths": {
    "0": {
      "startMethod": "com.readsoft.mobile.worklist2.ReadSoft2.onCreate(Landroid/os/Bundle;)V",
      "targetMethod": "java.lang.reflect.Method.invoke(Ljava/lang/Object;[Ljava/lang/Object;)Ljava/lang/Object;",
      "eventChain": [
        {
          "start": "org.apache.cordova.CordovaChromeClient.onJsPrompt(Landroid/webkit/WebView;Ljava/lang/String;Ljava/lang/String;Ljava/lang/String;Landroid/webkit/JsPromptResult;)Z",
          "target": "PC@40",
          "type": "",
          "constraintsFile": "constraints0_0.py",
          "variables": {
            "\u003cChainedInput4\u003e": "IAAv0",
            "\u003cChainedInput4\u003e.length()": "IAAv1",
            "\u003cChainedInput3\u003e": "IAAv4"
          },
          "stringMap": {
            "7000": "gap:"
          },
          "strings": {
            "IAAv4": "",
            "IAAv0": ""
          }
        },
        {
          "start": "com.readsoft.mobile.worklist2.ReadSoft2.onCreate(Landroid/os/Bundle;)V",
          "target": "PC@140",
          "type": "activity",
          "component": "com.readsoft.mobile.worklist2.ReadSoft2",
          "constraintsFile": "constraints0_1.py",
          "variables": {},
          "stringMap": {
            "7000": "about:blank",
            "7001": "javascript:"
          },
          "strings": {}
        },
        {
          "start": "com.readsoft.mobile.worklist2.ReadSoft2.onCreate(Landroid/os/Bundle;)V",
          "target": "PC@24",
          "type": "activity",
          "component": "com.readsoft.mobile.worklist2.ReadSoft2",
          "constraintsFile": "constraints0_2.py",
          "variables": {},
          "stringMap": {},
          "strings": {}
        },
        {
          "start": "com.readsoft.mobile.worklist2.ReadSoft2.\u003cinit\u003e()V",
          "target": "PC@35",
          "type": ""
        },
        {
          "start": "com.readsoft.mobile.worklist2.ReadSoft2.\u003cinit\u003e()V",
          "target": "PC@44",
          "type": ""
        },
        {
          "start": "com.readsoft.mobile.worklist2.ReadSoft2.onCreate(Landroid/os/Bundle;)V",
          "target": "PC@40",
          "type": "activity",
          "component": "com.readsoft.mobile.worklist2.ReadSoft2",
          "constraintsFile": "constraints0_3.py",
          "variables": {},
          "stringMap": {
            "7000": "about:blank",
            "7001": "javascript:"
          },
          "strings": {}
        },
        {
          "start": "com.readsoft.mobile.worklist2.ReadSoft2.onCreate(Landroid/os/Bundle;)V",
          "target": "PC@21",
          "type": "activity",
          "component": "com.readsoft.mobile.worklist2.ReadSoft2"
        },
        {
          "start": "com.readsoft.mobile.worklist2.ReadSoft2.onCreate(Landroid/os/Bundle;)V",
          "target": "PC@81",
          "type": "activity",
          "component": "com.readsoft.mobile.worklist2.ReadSoft2"
        },
        {
          "start": "com.readsoft.mobile.worklist2.ReadSoft2.onCreate(Landroid/os/Bundle;)V",
          "target": "invokevirtual \u003c Application, Ljava/lang/reflect/Method, invoke(Ljava/lang/Object;[Ljava/lang/Object;)Ljava/lang/Object; \u003e@104",
          "type": "activity",
          "component": "com.readsoft.mobile.worklist2.ReadSoft2",
          "constraintsFile": "constraints0_4.py",
          "variables": {},
          "stringMap": {
            "7000": "about:blank",
            "7001": "javascript:"
          },
          "strings": {}
        }
      ]
    },
    "1": {
      "startMethod": "com.readsoft.mobile.worklist2.ReadSoft2.onCreate(Landroid/os/Bundle;)V",
      "targetMethod": "java.lang.reflect.Method.invoke(Ljava/lang/Object;[Ljava/lang/Object;)Ljava/lang/Object;",
      "eventChain": [
        {
          "start": "com.readsoft.mobile.worklist2.ReadSoft2.onCreate(Landroid/os/Bundle;)V",
          "target": "PC@24",
          "type": "activity",
          "component": "com.readsoft.mobile.worklist2.ReadSoft2",
          "constraintsFile": "constraints1_0.py",
          "variables": {},
          "stringMap": {},
          "strings": {}
        },
        {
          "start": "com.readsoft.mobile.worklist2.ReadSoft2.\u003cinit\u003e()V",
          "target": "PC@35",
          "type": ""
        },
        {
          "start": "com.readsoft.mobile.worklist2.ReadSoft2.\u003cinit\u003e()V",
          "target": "PC@44",
          "type": ""
        },
        {
          "start": "com.readsoft.mobile.worklist2.ReadSoft2.onCreate(Landroid/os/Bundle;)V",
          "target": "PC@21",
          "type": "activity",
          "component": "com.readsoft.mobile.worklist2.ReadSoft2"
        },
        {
          "start": "com.readsoft.mobile.worklist2.ReadSoft2.onCreate(Landroid/os/Bundle;)V",
          "target": "PC@81",
          "type": "activity",
          "component": "com.readsoft.mobile.worklist2.ReadSoft2"
        },
        {
          "start": "com.readsoft.mobile.worklist2.ReadSoft2.onCreate(Landroid/os/Bundle;)V",
          "target": "invokevirtual \u003c Application, Ljava/lang/reflect/Method, invoke(Ljava/lang/Object;[Ljava/lang/Object;)Ljava/lang/Object; \u003e@246",
          "type": "activity",
          "component": "com.readsoft.mobile.worklist2.ReadSoft2",
          "constraintsFile": "constraints1_1.py",
          "variables": {},
          "stringMap": {
            "7000": "about:blank",
            "7001": "javascript:",
            "7002": "HTC"
          },
          "strings": {
            "IAAv12": ""
          }
        }
      ]
    },
    "2": {
      "startMethod": "com.readsoft.mobile.worklist2.ReadSoft2.onCreate(Landroid/os/Bundle;)V",
      "targetMethod": "android.webkit.WebView.\u003cinit\u003e(Landroid/content/Context;Landroid/util/AttributeSet;)V",
      "eventChain": [
        {
          "start": "com.readsoft.mobile.worklist2.ReadSoft2.onCreate(Landroid/os/Bundle;)V",
          "target": "PC@24",
          "type": "activity",
          "component": "com.readsoft.mobile.worklist2.ReadSoft2",
          "constraintsFile": "constraints2_0.py",
          "variables": {},
          "stringMap": {},
          "strings": {}
        },
        {
          "start": "com.readsoft.mobile.worklist2.ReadSoft2.onCreate(Landroid/os/Bundle;)V",
          "target": "invokespecial \u003c Application, Landroid/webkit/WebView, \u003cinit\u003e(Landroid/content/Context;Landroid/util/AttributeSet;)V \u003e@4",
          "type": "activity",
          "component": "com.readsoft.mobile.worklist2.ReadSoft2",
          "constraintsFile": "constraints2_1.py",
          "variables": {},
          "stringMap": {},
          "strings": {}
        }
      ]
    },
    "3": {
      "startMethod": "org.apache.cordova.CordovaWebView.onKeyDown(ILandroid/view/KeyEvent;)Z",
      "targetMethod": "java.lang.reflect.Method.invoke(Ljava/lang/Object;[Ljava/lang/Object;)Ljava/lang/Object;",
      "eventChain": [
        {
          "start": "com.readsoft.mobile.worklist2.ReadSoft2.onCreate(Landroid/os/Bundle;)V",
          "target": "invokevirtual \u003c Application, Lorg/apache/cordova/CordovaWebView, addJavascriptInterface(Ljava/lang/Object;Ljava/lang/String;)V \u003e@49",
          "type": "activity",
          "component": "com.readsoft.mobile.worklist2.ReadSoft2",
          "constraintsFile": "constraints3_0.py",
          "variables": {},
          "stringMap": {
            "7000": "about:blank",
            "7001": "javascript:"
          },
          "strings": {}
        },
        {
          "start": "com.readsoft.mobile.worklist2.ReadSoft2.onCreate(Landroid/os/Bundle;)V",
          "target": "PC@17",
          "type": "activity",
          "component": "com.readsoft.mobile.worklist2.ReadSoft2",
          "constraintsFile": "constraints3_1.py",
          "variables": {},
          "stringMap": {},
          "strings": {}
        },
        {
          "start": "org.apache.cordova.CordovaWebView.onKeyDown(ILandroid/view/KeyEvent;)Z",
          "target": "invokevirtual \u003c Application, Ljava/lang/reflect/Method, invoke(Ljava/lang/Object;[Ljava/lang/Object;)Ljava/lang/Object; \u003e@246",
          "type": "",
          "constraintsFile": "constraints3_2.py",
          "variables": {
            "\u003cChainedInput1\u003e": "IAAv1"
          },
          "stringMap": {},
          "strings": {}
        }
      ]
    },
    "4": {
      "startMethod": "org.apache.cordova.CordovaWebView.onKeyDown(ILandroid/view/KeyEvent;)Z",
      "targetMethod": "java.lang.reflect.Method.invoke(Ljava/lang/Object;[Ljava/lang/Object;)Ljava/lang/Object;",
      "eventChain": [
        {
          "start": "com.readsoft.mobile.worklist2.ReadSoft2.onCreate(Landroid/os/Bundle;)V",
          "target": "invokevirtual \u003c Application, Lorg/apache/cordova/CordovaWebView, addJavascriptInterface(Ljava/lang/Object;Ljava/lang/String;)V \u003e@49",
          "type": "activity",
          "component": "com.readsoft.mobile.worklist2.ReadSoft2",
          "constraintsFile": "constraints4_0.py",
          "variables": {},
          "stringMap": {
            "7000": "about:blank",
            "7001": "javascript:"
          },
          "strings": {}
        },
        {
          "start": "com.readsoft.mobile.worklist2.ReadSoft2.onCreate(Landroid/os/Bundle;)V",
          "target": "PC@17",
          "type": "activity",
          "component": "com.readsoft.mobile.worklist2.ReadSoft2",
          "constraintsFile": "constraints4_1.py",
          "variables": {},
          "stringMap": {},
          "strings": {}
        },
        {
          "start": "org.apache.cordova.CordovaWebView.onKeyDown(ILandroid/view/KeyEvent;)Z",
          "target": "invokevirtual \u003c Application, Ljava/lang/reflect/Method, invoke(Ljava/lang/Object;[Ljava/lang/Object;)Ljava/lang/Object; \u003e@104",
          "type": "",
          "constraintsFile": "constraints4_2.py",
          "variables": {
            "\u003cChainedInput1\u003e": "IAAv1"
          },
          "stringMap": {},
          "strings": {}
        }
      ]
    },
    "5": {
      "startMethod": "org.apache.cordova.CordovaWebView.onKeyUp(ILandroid/view/KeyEvent;)Z",
      "targetMethod": "java.lang.reflect.Method.invoke(Ljava/lang/Object;[Ljava/lang/Object;)Ljava/lang/Object;",
      "eventChain": [
        {
          "start": "com.readsoft.mobile.worklist2.ReadSoft2.onCreate(Landroid/os/Bundle;)V",
          "target": "invokevirtual \u003c Application, Lorg/apache/cordova/CordovaWebView, addJavascriptInterface(Ljava/lang/Object;Ljava/lang/String;)V \u003e@49",
          "type": "activity",
          "component": "com.readsoft.mobile.worklist2.ReadSoft2",
          "constraintsFile": "constraints5_0.py",
          "variables": {},
          "stringMap": {
            "7000": "about:blank",
            "7001": "javascript:"
          },
          "strings": {}
        },
        {
          "start": "org.apache.cordova.CordovaWebView.onKeyUp(ILandroid/view/KeyEvent;)Z",
          "target": "PC@62",
          "type": "",
          "constraintsFile": "constraints5_1.py",
          "variables": {
            "\u003cChainedInput1\u003e": "IAAv0"
          },
          "stringMap": {},
          "strings": {}
        },
        {
          "start": "org.apache.cordova.CordovaWebView.onKeyUp(ILandroid/view/KeyEvent;)Z",
          "target": "invokevirtual \u003c Application, Ljava/lang/reflect/Method, invoke(Ljava/lang/Object;[Ljava/lang/Object;)Ljava/lang/Object; \u003e@246",
          "type": "",
          "constraintsFile": "constraints5_2.py",
          "variables": {
            "\u003cChainedInput1\u003e": "IAAv0"
          },
          "stringMap": {},
          "strings": {}
        }
      ]
    },
    "6": {
      "startMethod": "org.apache.cordova.CordovaWebView.onKeyUp(ILandroid/view/KeyEvent;)Z",
      "targetMethod": "java.lang.reflect.Method.invoke(Ljava/lang/Object;[Ljava/lang/Object;)Ljava/lang/Object;",
      "eventChain": [
        {
          "start": "com.readsoft.mobile.worklist2.ReadSoft2.onCreate(Landroid/os/Bundle;)V",
          "target": "invokevirtual \u003c Application, Lorg/apache/cordova/CordovaWebView, addJavascriptInterface(Ljava/lang/Object;Ljava/lang/String;)V \u003e@49",
          "type": "activity",
          "component": "com.readsoft.mobile.worklist2.ReadSoft2",
          "constraintsFile": "constraints6_0.py",
          "variables": {},
          "stringMap": {
            "7000": "about:blank",
            "7001": "javascript:"
          },
          "strings": {}
        },
        {
          "start": "org.apache.cordova.CordovaWebView.onKeyUp(ILandroid/view/KeyEvent;)Z",
          "target": "PC@62",
          "type": "",
          "constraintsFile": "constraints6_1.py",
          "variables": {
            "\u003cChainedInput1\u003e": "IAAv0"
          },
          "stringMap": {},
          "strings": {}
        },
        {
          "start": "org.apache.cordova.CordovaWebView.onKeyUp(ILandroid/view/KeyEvent;)Z",
          "target": "invokevirtual \u003c Application, Ljava/lang/reflect/Method, invoke(Ljava/lang/Object;[Ljava/lang/Object;)Ljava/lang/Object; \u003e@104",
          "type": "",
          "constraintsFile": "constraints6_2.py",
          "variables": {
            "\u003cChainedInput1\u003e": "IAAv0"
          },
          "stringMap": {},
          "strings": {}
        }
      ]
    },
    "7": {
      "startMethod": "org.apache.cordova.LinearLayoutSoftKeyboardDetect.onMeasure(II)V",
      "targetMethod": "java.lang.reflect.Method.invoke(Ljava/lang/Object;[Ljava/lang/Object;)Ljava/lang/Object;",
      "eventChain": [
        {
          "start": "org.apache.cordova.LinearLayoutSoftKeyboardDetect.onMeasure(II)V",
          "target": "invokespecial \u003c Application, Landroid/widget/LinearLayout, onMeasure(II)V \u003e@10",
          "type": "ui",
          "activities": [
            "com.readsoft.mobile.worklist2.ReadSoft2"
          ],
          "listener": "org.apache.cordova.LinearLayoutSoftKeyboardDetect",
          "listenerMethod": "onMeasure",
          "uiType": "onMeasure"
        },
        {
          "start": "com.readsoft.mobile.worklist2.ReadSoft2.onCreate(Landroid/os/Bundle;)V",
          "target": "PC@59",
          "type": "activity",
          "component": "com.readsoft.mobile.worklist2.ReadSoft2",
          "constraintsFile": "constraints7_0.py",
          "variables": {},
          "stringMap": {},
          "strings": {}
        },
        {
          "start": "com.readsoft.mobile.worklist2.ReadSoft2.onCreate(Landroid/os/Bundle;)V",
          "target": "PC@30",
          "type": "activity",
          "component": "com.readsoft.mobile.worklist2.ReadSoft2",
          "constraintsFile": "constraints7_1.py",
          "variables": {},
          "stringMap": {},
          "strings": {}
        },
        {
          "start": "org.apache.cordova.LinearLayoutSoftKeyboardDetect.onMeasure(II)V",
          "target": "invokevirtual \u003c Application, Ljava/lang/reflect/Method, invoke(Ljava/lang/Object;[Ljava/lang/Object;)Ljava/lang/Object; \u003e@104",
          "type": "ui",
          "activities": [
            "com.readsoft.mobile.worklist2.ReadSoft2"
          ],
          "listener": "org.apache.cordova.LinearLayoutSoftKeyboardDetect",
          "listenerMethod": "onMeasure",
          "uiType": "onMeasure",
          "constraintsFile": "constraints7_2.py",
          "variables": {
            "\u003cChainedInput1\u003e.getSize()": "IAAv3",
            "\u003cChainedInput2\u003e.getSize()": "IAAv1"
          },
          "stringMap": {},
          "strings": {}
        }
      ]
    },
    "8": {
      "startMethod": "org.apache.cordova.CordovaWebViewClient.onPageStarted(Landroid/webkit/WebView;Ljava/lang/String;Landroid/graphics/Bitmap;)V",
      "targetMethod": "java.lang.reflect.Method.invoke(Ljava/lang/Object;[Ljava/lang/Object;)Ljava/lang/Object;",
      "eventChain": [
        {
          "start": "org.apache.cordova.CordovaWebViewClient.onPageFinished(Landroid/webkit/WebView;Ljava/lang/String;)V",
          "target": "invokespecial \u003c Application, Landroid/webkit/WebViewClient, onPageFinished(Landroid/webkit/WebView;Ljava/lang/String;)V \u003e@7",
          "type": ""
        },
        {
          "start": "org.apache.cordova.CordovaWebViewClient.onPageStarted(Landroid/webkit/WebView;Ljava/lang/String;Landroid/graphics/Bitmap;)V",
          "target": "invokevirtual \u003c Application, Ljava/lang/reflect/Method, invoke(Ljava/lang/Object;[Ljava/lang/Object;)Ljava/lang/Object; \u003e@104",
          "type": "",
          "constraintsFile": "constraints8_0.py",
          "variables": {},
          "stringMap": {},
          "strings": {}
        }
      ]
    },
    "9": {
      "startMethod": "org.apache.cordova.IceCreamCordovaWebViewClient.shouldInterceptRequest(Landroid/webkit/WebView;Ljava/lang/String;)Landroid/webkit/WebResourceResponse;",
      "targetMethod": "java.lang.reflect.Method.invoke(Ljava/lang/Object;[Ljava/lang/Object;)Ljava/lang/Object;",
      "eventChain": [
        {
          "start": "org.apache.cordova.IceCreamCordovaWebViewClient.shouldInterceptRequest(Landroid/webkit/WebView;Ljava/lang/String;)Landroid/webkit/WebResourceResponse;",
          "target": "invokevirtual \u003c Application, Ljava/lang/reflect/Method, invoke(Ljava/lang/Object;[Ljava/lang/Object;)Ljava/lang/Object; \u003e@101",
          "type": "",
          "constraintsFile": "constraints9_0.py",
          "variables": {
            "\u003cChainedInput2\u003e.parse().needsKitKatContentUrlFix()": "IAAv4",
            "\u003cChainedInput2\u003e.parse()": "IAAv0",
            "\u003cChainedInput2\u003e.parse().needsSpecialsInAssetUrlFix()": "IAAv3"
          },
          "stringMap": {
            "7000": "https"
          },
          "strings": {
            "IAAv15": "",
            "IAAv16": ""
          }
        }
      ]
    },
    "10": {
      "startMethod": "org.apache.cordova.IceCreamCordovaWebViewClient.shouldInterceptRequest(Landroid/webkit/WebView;Ljava/lang/String;)Landroid/webkit/WebResourceResponse;",
      "targetMethod": "java.net.HttpURLConnection.getInputStream()Ljava/io/InputStream;",
      "eventChain": [
        {
          "start": "org.apache.cordova.IceCreamCordovaWebViewClient.shouldInterceptRequest(Landroid/webkit/WebView;Ljava/lang/String;)Landroid/webkit/WebResourceResponse;",
          "target": "invokevirtual \u003c Application, Ljava/net/HttpURLConnection, getInputStream()Ljava/io/InputStream; \u003e@479",
          "type": "",
          "constraintsFile": "constraints10_0.py",
          "variables": {
            "\u003cChainedInput2\u003e.parse().needsKitKatContentUrlFix()": "IAAv4",
            "\u003cChainedInput2\u003e.parse()": "IAAv0",
            "\u003cChainedInput2\u003e.parse().needsSpecialsInAssetUrlFix()": "IAAv3"
          },
          "stringMap": {},
          "strings": {}
        }
      ]
    },
    "11": {
      "startMethod": "org.apache.cordova.IceCreamCordovaWebViewClient.shouldInterceptRequest(Landroid/webkit/WebView;Ljava/lang/String;)Landroid/webkit/WebResourceResponse;",
      "targetMethod": "java.lang.reflect.Method.invoke(Ljava/lang/Object;[Ljava/lang/Object;)Ljava/lang/Object;",
      "eventChain": [
        {
          "start": "org.apache.cordova.IceCreamCordovaWebViewClient.shouldInterceptRequest(Landroid/webkit/WebView;Ljava/lang/String;)Landroid/webkit/WebResourceResponse;",
          "target": "invokevirtual \u003c Application, Ljava/lang/reflect/Method, invoke(Ljava/lang/Object;[Ljava/lang/Object;)Ljava/lang/Object; \u003e@39",
          "type": "",
          "constraintsFile": "constraints11_0.py",
          "variables": {
            "\u003cChainedInput2\u003e.parse().needsKitKatContentUrlFix()": "IAAv4",
            "\u003cChainedInput2\u003e.parse()": "IAAv0",
            "\u003cChainedInput2\u003e.parse().needsSpecialsInAssetUrlFix()": "IAAv3"
          },
          "stringMap": {
            "7000": "https",
            "7001": "spdy/3"
          },
          "strings": {
            "IAAv15": "",
            "IAAv16": ""
          }
        }
      ]
    },
    "12": {
      "startMethod": "org.apache.cordova.IceCreamCordovaWebViewClient.shouldInterceptRequest(Landroid/webkit/WebView;Ljava/lang/String;)Landroid/webkit/WebResourceResponse;",
      "targetMethod": "java.lang.reflect.Method.invoke(Ljava/lang/Object;[Ljava/lang/Object;)Ljava/lang/Object;",
      "eventChain": [
        {
          "start": "org.apache.cordova.IceCreamCordovaWebViewClient.shouldInterceptRequest(Landroid/webkit/WebView;Ljava/lang/String;)Landroid/webkit/WebResourceResponse;",
          "target": "invokevirtual \u003c Application, Ljava/lang/reflect/Method, invoke(Ljava/lang/Object;[Ljava/lang/Object;)Ljava/lang/Object; \u003e@206",
          "type": "",
          "constraintsFile": "constraints12_0.py",
          "variables": {
            "\u003cChainedInput2\u003e.parse().needsKitKatContentUrlFix()": "IAAv4",
            "\u003cChainedInput2\u003e.parse()": "IAAv0",
            "\u003cChainedInput2\u003e.parse().needsSpecialsInAssetUrlFix()": "IAAv3"
          },
          "stringMap": {
            "7000": "https",
            "7001": "spdy/3"
          },
          "strings": {
            "IAAv15": "",
            "IAAv16": ""
          }
        }
      ]
    },
    "13": {
      "startMethod": "org.apache.cordova.IceCreamCordovaWebViewClient.shouldInterceptRequest(Landroid/webkit/WebView;Ljava/lang/String;)Landroid/webkit/WebResourceResponse;",
      "targetMethod": "java.lang.reflect.Method.invoke(Ljava/lang/Object;[Ljava/lang/Object;)Ljava/lang/Object;",
      "eventChain": [
        {
          "start": "org.apache.cordova.IceCreamCordovaWebViewClient.shouldInterceptRequest(Landroid/webkit/WebView;Ljava/lang/String;)Landroid/webkit/WebResourceResponse;",
          "target": "invokevirtual \u003c Application, Ljava/lang/reflect/Method, invoke(Ljava/lang/Object;[Ljava/lang/Object;)Ljava/lang/Object; \u003e@51",
          "type": "",
          "constraintsFile": "constraints13_0.py",
          "variables": {
            "\u003cChainedInput2\u003e.parse().needsKitKatContentUrlFix()": "IAAv4",
            "\u003cChainedInput2\u003e.parse()": "IAAv0",
            "\u003cChainedInput2\u003e.parse().needsSpecialsInAssetUrlFix()": "IAAv3"
          },
          "stringMap": {
            "7000": "https",
            "7001": "spdy/3"
          },
          "strings": {
            "IAAv15": "",
            "IAAv16": ""
          }
        }
      ]
    },
    "14": {
      "startMethod": "org.apache.cordova.IceCreamCordovaWebViewClient.shouldInterceptRequest(Landroid/webkit/WebView;Ljava/lang/String;)Landroid/webkit/WebResourceResponse;",
      "targetMethod": "java.lang.reflect.Method.invoke(Ljava/lang/Object;[Ljava/lang/Object;)Ljava/lang/Object;",
      "eventChain": [
        {
          "start": "org.apache.cordova.IceCreamCordovaWebViewClient.shouldInterceptRequest(Landroid/webkit/WebView;Ljava/lang/String;)Landroid/webkit/WebResourceResponse;",
          "target": "invokevirtual \u003c Application, Ljava/lang/reflect/Method, invoke(Ljava/lang/Object;[Ljava/lang/Object;)Ljava/lang/Object; \u003e@38",
          "type": "",
          "constraintsFile": "constraints14_0.py",
          "variables": {
            "\u003cChainedInput2\u003e.parse().needsKitKatContentUrlFix()": "IAAv4",
            "\u003cChainedInput2\u003e.parse()": "IAAv0",
            "\u003cChainedInput2\u003e.parse().needsSpecialsInAssetUrlFix()": "IAAv3"
          },
          "stringMap": {
            "7000": "https",
            "7001": "spdy/3"
          },
          "strings": {
            "IAAv15": "",
            "IAAv16": ""
          }
        }
      ]
    },
    "15": {
      "startMethod": "org.apache.cordova.IceCreamCordovaWebViewClient.shouldInterceptRequest(Landroid/webkit/WebView;Ljava/lang/String;)Landroid/webkit/WebResourceResponse;",
      "targetMethod": "java.lang.reflect.Method.invoke(Ljava/lang/Object;[Ljava/lang/Object;)Ljava/lang/Object;",
      "eventChain": [
        {
          "start": "org.apache.cordova.IceCreamCordovaWebViewClient.shouldInterceptRequest(Landroid/webkit/WebView;Ljava/lang/String;)Landroid/webkit/WebResourceResponse;",
          "target": "invokevirtual \u003c Application, Ljava/lang/reflect/Method, invoke(Ljava/lang/Object;[Ljava/lang/Object;)Ljava/lang/Object; \u003e@67",
          "type": "",
          "constraintsFile": "constraints15_0.py",
          "variables": {
            "\u003cChainedInput2\u003e.parse().needsKitKatContentUrlFix()": "IAAv4",
            "\u003cChainedInput2\u003e.parse()": "IAAv0",
            "\u003cChainedInput2\u003e.parse().needsSpecialsInAssetUrlFix()": "IAAv3"
          },
          "stringMap": {
            "7000": "https"
          },
          "strings": {
            "IAAv15": "",
            "IAAv16": ""
          }
        }
      ]
    },
    "16": {
      "startMethod": "org.apache.cordova.inappbrowser.InAppBrowser$1.run()V",
      "targetMethod": "java.lang.reflect.Method.invoke(Ljava/lang/Object;[Ljava/lang/Object;)Ljava/lang/Object;",
      "eventChain": [
        {
          "start": "org.apache.cordova.inappbrowser.InAppBrowser$1.\u003cinit\u003e(Lorg/apache/cordova/inappbrowser/InAppBrowser;Ljava/lang/String;Ljava/lang/String;Ljava/util/HashMap;Lorg/apache/cordova/CallbackContext;)V",
          "target": "PC@13",
          "type": "",
          "constraintsFile": "constraints16_0.py",
          "variables": {
            "\u003cInput3\u003e": "IAAv13"
          },
          "stringMap": {
            "7000": "_self",
            "7001": "file://",
            "7002": "javascript:",
            "7003": "tel:",
            "7004": "_system"
          },
          "strings": {
            "IAAv13": "",
            "IAAv9": ""
          }
        },
        {
          "start": "org.apache.cordova.inappbrowser.InAppBrowser$1.\u003cinit\u003e(Lorg/apache/cordova/inappbrowser/InAppBrowser;Ljava/lang/String;Ljava/lang/String;Ljava/util/HashMap;Lorg/apache/cordova/CallbackContext;)V",
          "target": "PC@8",
          "type": "",
          "constraintsFile": "constraints16_1.py",
          "variables": {
            "\u003cInput2\u003e": "IAAv13"
          },
          "stringMap": {
            "7000": "_self",
            "7001": "file://",
            "7002": "javascript:",
            "7003": "tel:",
            "7004": "_system"
          },
          "strings": {
            "IAAv13": "",
            "IAAv9": ""
          }
        },
        {
          "start": "org.apache.cordova.inappbrowser.InAppBrowser$1.run()V",
          "target": "invokevirtual \u003c Application, Ljava/lang/reflect/Method, invoke(Ljava/lang/Object;[Ljava/lang/Object;)Ljava/lang/Object; \u003e@104",
          "type": "",
          "constraintsFile": "constraints16_2.py",
          "variables": {},
          "stringMap": {
            "7000": "_self",
            "7001": "file://",
            "7002": "javascript:",
            "7003": "tel:",
            "7004": "_system"
          },
          "strings": {
            "IAAv9": ""
          }
        }
      ]
    },
    "17": {
      "startMethod": "com.squareup.okhttp.Job.run()V",
      "targetMethod": "java.lang.reflect.Method.invoke(Ljava/lang/Object;[Ljava/lang/Object;)Ljava/lang/Object;",
      "eventChain": [
        {
          "start": "com.squareup.okhttp.Job.run()V",
          "target": "invokevirtual \u003c Application, Ljava/lang/reflect/Method, invoke(Ljava/lang/Object;[Ljava/lang/Object;)Ljava/lang/Object; \u003e@51",
          "type": ""
        }
      ]
    },
    "18": {
      "startMethod": "com.squareup.okhttp.Job.run()V",
      "targetMethod": "java.lang.reflect.Method.invoke(Ljava/lang/Object;[Ljava/lang/Object;)Ljava/lang/Object;",
      "eventChain": [
        {
          "start": "com.squareup.okhttp.Job.run()V",
          "target": "invokevirtual \u003c Application, Ljava/lang/reflect/Method, invoke(Ljava/lang/Object;[Ljava/lang/Object;)Ljava/lang/Object; \u003e@38",
          "type": ""
        }
      ]
    },
    "19": {
      "startMethod": "com.squareup.okhttp.Job.run()V",
      "targetMethod": "java.lang.reflect.Method.invoke(Ljava/lang/Object;[Ljava/lang/Object;)Ljava/lang/Object;",
      "eventChain": [
        {
          "start": "com.squareup.okhttp.Job.run()V",
          "target": "invokevirtual \u003c Application, Ljava/lang/reflect/Method, invoke(Ljava/lang/Object;[Ljava/lang/Object;)Ljava/lang/Object; \u003e@101",
          "type": ""
        }
      ]
    },
    "20": {
      "startMethod": "com.squareup.okhttp.Job.run()V",
      "targetMethod": "java.lang.reflect.Method.invoke(Ljava/lang/Object;[Ljava/lang/Object;)Ljava/lang/Object;",
      "eventChain": [
        {
          "start": "com.squareup.okhttp.Job.run()V",
          "target": "invokevirtual \u003c Application, Ljava/lang/reflect/Method, invoke(Ljava/lang/Object;[Ljava/lang/Object;)Ljava/lang/Object; \u003e@39",
          "type": ""
        }
      ]
    },
    "21": {
      "startMethod": "com.squareup.okhttp.Job.run()V",
      "targetMethod": "java.lang.reflect.Method.invoke(Ljava/lang/Object;[Ljava/lang/Object;)Ljava/lang/Object;",
      "eventChain": [
        {
          "start": "com.squareup.okhttp.Job.run()V",
          "target": "invokevirtual \u003c Application, Ljava/lang/reflect/Method, invoke(Ljava/lang/Object;[Ljava/lang/Object;)Ljava/lang/Object; \u003e@206",
          "type": ""
        }
      ]
    },
    "22": {
      "startMethod": "com.squareup.okhttp.Job.run()V",
      "targetMethod": "java.lang.reflect.Method.invoke(Ljava/lang/Object;[Ljava/lang/Object;)Ljava/lang/Object;",
      "eventChain": [
        {
          "start": "com.squareup.okhttp.Job.run()V",
          "target": "invokevirtual \u003c Application, Ljava/lang/reflect/Method, invoke(Ljava/lang/Object;[Ljava/lang/Object;)Ljava/lang/Object; \u003e@67",
          "type": ""
        }
      ]
    },
    "23": {
      "startMethod": "com.ionic.keyboard.IonicKeyboard$2.run()V",
      "targetMethod": "java.lang.reflect.Method.invoke(Ljava/lang/Object;[Ljava/lang/Object;)Ljava/lang/Object;",
      "eventChain": [
        {
          "start": "com.ionic.keyboard.IonicKeyboard$2.run()V",
          "target": "invokevirtual \u003c Application, Ljava/lang/reflect/Method, invoke(Ljava/lang/Object;[Ljava/lang/Object;)Ljava/lang/Object; \u003e@104",
          "type": "",
          "constraintsFile": "constraints23_0.py",
          "variables": {},
          "stringMap": {},
          "strings": {
            "IAAv2": ""
          }
        }
      ]
    },
    "24": {
      "startMethod": "org.apache.cordova.inappbrowser.InAppBrowser$5.run()V",
      "targetMethod": "android.webkit.WebView.\u003cinit\u003e(Landroid/content/Context;)V",
      "eventChain": [
        {
          "start": "org.apache.cordova.inappbrowser.InAppBrowser$5.run()V",
          "target": "invokespecial \u003c Application, Landroid/webkit/WebView, \u003cinit\u003e(Landroid/content/Context;)V \u003e@1762",
          "type": "",
          "constraintsFile": "constraints24_0.py",
          "variables": {},
          "stringMap": {},
          "strings": {}
        }
      ]
    },
    "25": {
      "startMethod": "com.ionic.keyboard.IonicKeyboard$3.run()V",
      "targetMethod": "java.lang.reflect.Method.invoke(Ljava/lang/Object;[Ljava/lang/Object;)Ljava/lang/Object;",
      "eventChain": [
        {
          "start": "com.ionic.keyboard.IonicKeyboard$3.run()V",
          "target": "invokevirtual \u003c Application, Ljava/lang/reflect/Method, invoke(Ljava/lang/Object;[Ljava/lang/Object;)Ljava/lang/Object; \u003e@104",
          "type": "",
          "constraintsFile": "constraints25_0.py",
          "variables": {},
          "stringMap": {},
          "strings": {
            "IAAv1": ""
          }
        }
      ]
    },
    "26": {
      "startMethod": "org.apache.cordova.CordovaActivity$2.run()V",
      "targetMethod": "java.lang.reflect.Method.invoke(Ljava/lang/Object;[Ljava/lang/Object;)Ljava/lang/Object;",
      "eventChain": [
        {
          "start": "org.apache.cordova.CordovaWebView.onScrollChanged(IIII)V",
          "target": "PC@13",
          "type": ""
        },
        {
          "start": "org.apache.cordova.CordovaActivity$2.run()V",
          "target": "invokevirtual \u003c Application, Ljava/lang/reflect/Method, invoke(Ljava/lang/Object;[Ljava/lang/Object;)Ljava/lang/Object; \u003e@101",
          "type": "",
          "constraintsFile": "constraints26_0.py",
          "variables": {},
          "stringMap": {
            "7000": "file://",
            "7001": "file",
            "7002": "https"
          },
          "strings": {
            "IAAv3": "",
            "IAAv14": "",
            "IAAv15": ""
          }
        }
      ]
    },
    "27": {
      "startMethod": "org.apache.cordova.CordovaActivity$2.run()V",
      "targetMethod": "java.lang.reflect.Method.invoke(Ljava/lang/Object;[Ljava/lang/Object;)Ljava/lang/Object;",
      "eventChain": [
        {
          "start": "org.apache.cordova.CordovaWebView.onScrollChanged(IIII)V",
          "target": "PC@13",
          "type": ""
        },
        {
          "start": "org.apache.cordova.CordovaActivity$2.run()V",
          "target": "invokevirtual \u003c Application, Ljava/lang/reflect/Method, invoke(Ljava/lang/Object;[Ljava/lang/Object;)Ljava/lang/Object; \u003e@246",
          "type": "",
          "constraintsFile": "constraints27_0.py",
          "variables": {},
          "stringMap": {
            "7000": "file://",
            "7001": "about:blank",
            "7002": "javascript:",
            "7003": "HTC"
          },
          "strings": {
            "IAAv9": ""
          }
        }
      ]
    },
    "28": {
      "startMethod": "org.apache.cordova.CordovaActivity$2.run()V",
      "targetMethod": "java.lang.reflect.Method.invoke(Ljava/lang/Object;[Ljava/lang/Object;)Ljava/lang/Object;",
      "eventChain": [
        {
          "start": "org.apache.cordova.CordovaChromeClient.onJsPrompt(Landroid/webkit/WebView;Ljava/lang/String;Ljava/lang/String;Ljava/lang/String;Landroid/webkit/JsPromptResult;)Z",
          "target": "PC@40",
          "type": "",
          "constraintsFile": "constraints28_0.py",
          "variables": {
            "\u003cChainedInput4\u003e": "IAAv0",
            "\u003cChainedInput4\u003e.length()": "IAAv1",
            "\u003cChainedInput3\u003e": "IAAv4"
          },
          "stringMap": {
            "7000": "gap:"
          },
          "strings": {
            "IAAv4": "",
            "IAAv0": ""
          }
        },
        {
          "start": "com.readsoft.mobile.worklist2.ReadSoft2.onCreate(Landroid/os/Bundle;)V",
          "target": "PC@140",
          "type": "activity",
          "component": "com.readsoft.mobile.worklist2.ReadSoft2",
          "constraintsFile": "constraints28_1.py",
          "variables": {},
          "stringMap": {
            "7000": "file://",
            "7001": "about:blank",
            "7002": "javascript:"
          },
          "strings": {}
        },
        {
          "start": "org.apache.cordova.CordovaWebView.onScrollChanged(IIII)V",
          "target": "PC@13",
          "type": ""
        },
        {
          "start": "com.readsoft.mobile.worklist2.ReadSoft2.onCreate(Landroid/os/Bundle;)V",
          "target": "PC@40",
          "type": "activity",
          "component": "com.readsoft.mobile.worklist2.ReadSoft2",
          "constraintsFile": "constraints28_2.py",
          "variables": {},
          "stringMap": {
            "7000": "about:blank",
            "7001": "javascript:"
          },
          "strings": {}
        },
        {
          "start": "org.apache.cordova.CordovaActivity$2.run()V",
          "target": "invokevirtual \u003c Application, Ljava/lang/reflect/Method, invoke(Ljava/lang/Object;[Ljava/lang/Object;)Ljava/lang/Object; \u003e@104",
          "type": "",
          "constraintsFile": "constraints28_3.py",
          "variables": {},
          "stringMap": {
            "7000": "file://",
            "7001": "about:blank",
            "7002": "javascript:"
          },
          "strings": {}
        }
      ]
    },
    "29": {
      "startMethod": "org.apache.cordova.CordovaActivity$2.run()V",
      "targetMethod": "java.lang.reflect.Method.invoke(Ljava/lang/Object;[Ljava/lang/Object;)Ljava/lang/Object;",
      "eventChain": [
        {
          "start": "org.apache.cordova.CordovaWebView.onScrollChanged(IIII)V",
          "target": "PC@13",
          "type": ""
        },
        {
          "start": "org.apache.cordova.CordovaActivity$2.run()V",
          "target": "invokevirtual \u003c Application, Ljava/lang/reflect/Method, invoke(Ljava/lang/Object;[Ljava/lang/Object;)Ljava/lang/Object; \u003e@51",
          "type": "",
          "constraintsFile": "constraints29_0.py",
          "variables": {},
          "stringMap": {
            "7000": "file://",
            "7001": "file",
            "7002": "https",
            "7003": "spdy/3"
          },
          "strings": {
            "IAAv3": "",
            "IAAv14": "",
            "IAAv15": ""
          }
        }
      ]
    },
    "30": {
      "startMethod": "org.apache.cordova.CordovaActivity$2.run()V",
      "targetMethod": "java.lang.reflect.Method.invoke(Ljava/lang/Object;[Ljava/lang/Object;)Ljava/lang/Object;",
      "eventChain": [
        {
          "start": "org.apache.cordova.CordovaWebView.onScrollChanged(IIII)V",
          "target": "PC@13",
          "type": ""
        },
        {
          "start": "org.apache.cordova.CordovaActivity$2.run()V",
          "target": "invokevirtual \u003c Application, Ljava/lang/reflect/Method, invoke(Ljava/lang/Object;[Ljava/lang/Object;)Ljava/lang/Object; \u003e@67",
          "type": "",
          "constraintsFile": "constraints30_0.py",
          "variables": {},
          "stringMap": {
            "7000": "file://",
            "7001": "file",
            "7002": "https"
          },
          "strings": {
            "IAAv3": "",
            "IAAv14": "",
            "IAAv15": ""
          }
        }
      ]
    },
    "31": {
      "startMethod": "org.apache.cordova.CordovaActivity$2.run()V",
      "targetMethod": "java.lang.reflect.Method.invoke(Ljava/lang/Object;[Ljava/lang/Object;)Ljava/lang/Object;",
      "eventChain": [
        {
          "start": "org.apache.cordova.CordovaWebView.onScrollChanged(IIII)V",
          "target": "PC@13",
          "type": ""
        },
        {
          "start": "org.apache.cordova.CordovaActivity$2.run()V",
          "target": "invokevirtual \u003c Application, Ljava/lang/reflect/Method, invoke(Ljava/lang/Object;[Ljava/lang/Object;)Ljava/lang/Object; \u003e@38",
          "type": "",
          "constraintsFile": "constraints31_0.py",
          "variables": {},
          "stringMap": {
            "7000": "file://",
            "7001": "file",
            "7002": "https",
            "7003": "spdy/3"
          },
          "strings": {
            "IAAv3": "",
            "IAAv14": "",
            "IAAv15": ""
          }
        }
      ]
    },
    "32": {
      "startMethod": "org.apache.cordova.CordovaActivity$2.run()V",
      "targetMethod": "java.lang.reflect.Method.invoke(Ljava/lang/Object;[Ljava/lang/Object;)Ljava/lang/Object;",
      "eventChain": [
        {
          "start": "org.apache.cordova.CordovaWebView.onScrollChanged(IIII)V",
          "target": "PC@13",
          "type": ""
        },
        {
          "start": "org.apache.cordova.CordovaActivity$2.run()V",
          "target": "invokevirtual \u003c Application, Ljava/lang/reflect/Method, invoke(Ljava/lang/Object;[Ljava/lang/Object;)Ljava/lang/Object; \u003e@39",
          "type": "",
          "constraintsFile": "constraints32_0.py",
          "variables": {},
          "stringMap": {
            "7000": "file://",
            "7001": "file",
            "7002": "https",
            "7003": "spdy/3"
          },
          "strings": {
            "IAAv3": "",
            "IAAv14": "",
            "IAAv15": ""
          }
        }
      ]
    },
    "33": {
      "startMethod": "org.apache.cordova.CordovaActivity$2.run()V",
      "targetMethod": "java.lang.reflect.Method.invoke(Ljava/lang/Object;[Ljava/lang/Object;)Ljava/lang/Object;",
      "eventChain": [
        {
          "start": "org.apache.cordova.CordovaWebView.onScrollChanged(IIII)V",
          "target": "PC@13",
          "type": ""
        },
        {
          "start": "org.apache.cordova.CordovaActivity$2.run()V",
          "target": "invokevirtual \u003c Application, Ljava/lang/reflect/Method, invoke(Ljava/lang/Object;[Ljava/lang/Object;)Ljava/lang/Object; \u003e@206",
          "type": "",
          "constraintsFile": "constraints33_0.py",
          "variables": {},
          "stringMap": {
            "7000": "file://",
            "7001": "file",
            "7002": "https",
            "7003": "spdy/3"
          },
          "strings": {
            "IAAv3": "",
            "IAAv14": "",
            "IAAv15": ""
          }
        }
      ]
    },
    "34": {
      "startMethod": "org.apache.cordova.CordovaChromeClient.onJsPrompt(Landroid/webkit/WebView;Ljava/lang/String;Ljava/lang/String;Ljava/lang/String;Landroid/webkit/JsPromptResult;)Z",
      "targetMethod": "java.lang.reflect.Method.invoke(Ljava/lang/Object;[Ljava/lang/Object;)Ljava/lang/Object;",
      "eventChain": [
        {
          "start": "com.readsoft.mobile.worklist2.ReadSoft2.onCreate(Landroid/os/Bundle;)V",
          "target": "invokespecial \u003c Application, Landroid/webkit/WebChromeClient, \u003cinit\u003e()V \u003e@2",
          "type": "activity",
          "component": "com.readsoft.mobile.worklist2.ReadSoft2",
          "constraintsFile": "constraints34_0.py",
          "variables": {},
          "stringMap": {
            "7000": "about:blank",
            "7001": "javascript:"
          },
          "strings": {}
        },
        {
          "start": "org.apache.cordova.CordovaChromeClient.onJsPrompt(Landroid/webkit/WebView;Ljava/lang/String;Ljava/lang/String;Ljava/lang/String;Landroid/webkit/JsPromptResult;)Z",
          "target": "invokevirtual \u003c Application, Ljava/lang/reflect/Method, invoke(Ljava/lang/Object;[Ljava/lang/Object;)Ljava/lang/Object; \u003e@104",
          "type": "",
          "constraintsFile": "constraints34_1.py",
          "variables": {
            "\u003cChainedInput4\u003e.length()": "IAAv0",
            "\u003cChainedInput2\u003e": "IAAv6",
            "\u003cChainedInput4\u003e": "IAAv1"
          },
          "stringMap": {
            "7000": "gap:",
            "7001": "gap_bridge_mode:",
            "7002": "gap_poll:",
            "7003": "gap_init:",
            "7004": "file:",
            "7005": "http"
          },
          "strings": {
            "IAAv1": "",
            "IAAv9": "",
            "IAAv6": ""
          }
        }
      ]
    },
    "35": {
      "startMethod": "com.squareup.okhttp.internal.http.HttpsURLConnectionImpl.getHeaderFieldKey(I)Ljava/lang/String;",
      "targetMethod": "java.lang.reflect.Method.invoke(Ljava/lang/Object;[Ljava/lang/Object;)Ljava/lang/Object;",
      "eventChain": [
        {
          "start": "com.squareup.okhttp.internal.http.HttpsURLConnectionImpl.getHeaderFieldKey(I)Ljava/lang/String;",
          "target": "invokevirtual \u003c Application, Ljava/lang/reflect/Method, invoke(Ljava/lang/Object;[Ljava/lang/Object;)Ljava/lang/Object; \u003e@67",
          "type": "",
          "constraintsFile": "constraints35_0.py",
          "variables": {},
          "stringMap": {
            "7000": "https"
          },
          "strings": {
            "IAAv9": "",
            "IAAv8": ""
          }
        }
      ]
    },
    "36": {
      "startMethod": "com.squareup.okhttp.internal.http.HttpsURLConnectionImpl.getHeaderFieldKey(I)Ljava/lang/String;",
      "targetMethod": "java.lang.reflect.Method.invoke(Ljava/lang/Object;[Ljava/lang/Object;)Ljava/lang/Object;",
      "eventChain": [
        {
          "start": "com.squareup.okhttp.internal.http.HttpsURLConnectionImpl.getHeaderFieldKey(I)Ljava/lang/String;",
          "target": "invokevirtual \u003c Application, Ljava/lang/reflect/Method, invoke(Ljava/lang/Object;[Ljava/lang/Object;)Ljava/lang/Object; \u003e@51",
          "type": "",
          "constraintsFile": "constraints36_0.py",
          "variables": {},
          "stringMap": {
            "7000": "https",
            "7001": "spdy/3"
          },
          "strings": {
            "IAAv9": "",
            "IAAv8": ""
          }
        }
      ]
    },
    "37": {
      "startMethod": "com.squareup.okhttp.internal.http.HttpsURLConnectionImpl.getHeaderFieldKey(I)Ljava/lang/String;",
      "targetMethod": "java.lang.reflect.Method.invoke(Ljava/lang/Object;[Ljava/lang/Object;)Ljava/lang/Object;",
      "eventChain": [
        {
          "start": "com.squareup.okhttp.internal.http.HttpsURLConnectionImpl.getHeaderFieldKey(I)Ljava/lang/String;",
          "target": "invokevirtual \u003c Application, Ljava/lang/reflect/Method, invoke(Ljava/lang/Object;[Ljava/lang/Object;)Ljava/lang/Object; \u003e@101",
          "type": "",
          "constraintsFile": "constraints37_0.py",
          "variables": {},
          "stringMap": {
            "7000": "https"
          },
          "strings": {
            "IAAv9": "",
            "IAAv8": ""
          }
        }
      ]
    },
    "38": {
      "startMethod": "com.squareup.okhttp.internal.http.HttpsURLConnectionImpl.getHeaderFieldKey(I)Ljava/lang/String;",
      "targetMethod": "java.lang.reflect.Method.invoke(Ljava/lang/Object;[Ljava/lang/Object;)Ljava/lang/Object;",
      "eventChain": [
        {
          "start": "com.squareup.okhttp.internal.http.HttpsURLConnectionImpl.getHeaderFieldKey(I)Ljava/lang/String;",
          "target": "invokevirtual \u003c Application, Ljava/lang/reflect/Method, invoke(Ljava/lang/Object;[Ljava/lang/Object;)Ljava/lang/Object; \u003e@38",
          "type": "",
          "constraintsFile": "constraints38_0.py",
          "variables": {},
          "stringMap": {
            "7000": "https",
            "7001": "spdy/3"
          },
          "strings": {
            "IAAv9": "",
            "IAAv8": ""
          }
        }
      ]
    },
    "39": {
      "startMethod": "com.squareup.okhttp.internal.http.HttpsURLConnectionImpl.getHeaderFieldKey(I)Ljava/lang/String;",
      "targetMethod": "java.lang.reflect.Method.invoke(Ljava/lang/Object;[Ljava/lang/Object;)Ljava/lang/Object;",
      "eventChain": [
        {
          "start": "com.squareup.okhttp.internal.http.HttpsURLConnectionImpl.getHeaderFieldKey(I)Ljava/lang/String;",
          "target": "invokevirtual \u003c Application, Ljava/lang/reflect/Method, invoke(Ljava/lang/Object;[Ljava/lang/Object;)Ljava/lang/Object; \u003e@206",
          "type": "",
          "constraintsFile": "constraints39_0.py",
          "variables": {},
          "stringMap": {
            "7000": "https",
            "7001": "spdy/3"
          },
          "strings": {
            "IAAv9": "",
            "IAAv8": ""
          }
        }
      ]
    },
    "40": {
      "startMethod": "com.squareup.okhttp.internal.http.HttpsURLConnectionImpl.getHeaderFieldKey(I)Ljava/lang/String;",
      "targetMethod": "java.lang.reflect.Method.invoke(Ljava/lang/Object;[Ljava/lang/Object;)Ljava/lang/Object;",
      "eventChain": [
        {
          "start": "com.squareup.okhttp.internal.http.HttpsURLConnectionImpl.getHeaderFieldKey(I)Ljava/lang/String;",
          "target": "invokevirtual \u003c Application, Ljava/lang/reflect/Method, invoke(Ljava/lang/Object;[Ljava/lang/Object;)Ljava/lang/Object; \u003e@39",
          "type": "",
          "constraintsFile": "constraints40_0.py",
          "variables": {},
          "stringMap": {
            "7000": "https",
            "7001": "spdy/3"
          },
          "strings": {
            "IAAv9": "",
            "IAAv8": ""
          }
        }
      ]
    },
    "41": {
      "startMethod": "com.squareup.okhttp.internal.http.HttpsURLConnectionImpl.getHeaderField(I)Ljava/lang/String;",
      "targetMethod": "java.lang.reflect.Method.invoke(Ljava/lang/Object;[Ljava/lang/Object;)Ljava/lang/Object;",
      "eventChain": [
        {
          "start": "com.squareup.okhttp.internal.http.HttpsURLConnectionImpl.getHeaderField(I)Ljava/lang/String;",
          "target": "invokevirtual \u003c Application, Ljava/lang/reflect/Method, invoke(Ljava/lang/Object;[Ljava/lang/Object;)Ljava/lang/Object; \u003e@38",
          "type": "",
          "constraintsFile": "constraints41_0.py",
          "variables": {},
          "stringMap": {
            "7000": "https",
            "7001": "spdy/3"
          },
          "strings": {
            "IAAv9": "",
            "IAAv8": ""
          }
        }
      ]
    },
    "42": {
      "startMethod": "com.squareup.okhttp.internal.http.HttpsURLConnectionImpl.getHeaderField(I)Ljava/lang/String;",
      "targetMethod": "java.lang.reflect.Method.invoke(Ljava/lang/Object;[Ljava/lang/Object;)Ljava/lang/Object;",
      "eventChain": [
        {
          "start": "com.squareup.okhttp.internal.http.HttpsURLConnectionImpl.getHeaderField(I)Ljava/lang/String;",
          "target": "invokevirtual \u003c Application, Ljava/lang/reflect/Method, invoke(Ljava/lang/Object;[Ljava/lang/Object;)Ljava/lang/Object; \u003e@51",
          "type": "",
          "constraintsFile": "constraints42_0.py",
          "variables": {},
          "stringMap": {
            "7000": "https",
            "7001": "spdy/3"
          },
          "strings": {
            "IAAv9": "",
            "IAAv8": ""
          }
        }
      ]
    },
    "43": {
      "startMethod": "com.squareup.okhttp.internal.http.HttpsURLConnectionImpl.getHeaderField(I)Ljava/lang/String;",
      "targetMethod": "java.lang.reflect.Method.invoke(Ljava/lang/Object;[Ljava/lang/Object;)Ljava/lang/Object;",
      "eventChain": [
        {
          "start": "com.squareup.okhttp.internal.http.HttpsURLConnectionImpl.getHeaderField(I)Ljava/lang/String;",
          "target": "invokevirtual \u003c Application, Ljava/lang/reflect/Method, invoke(Ljava/lang/Object;[Ljava/lang/Object;)Ljava/lang/Object; \u003e@206",
          "type": "",
          "constraintsFile": "constraints43_0.py",
          "variables": {},
          "stringMap": {
            "7000": "https",
            "7001": "spdy/3"
          },
          "strings": {
            "IAAv9": "",
            "IAAv8": ""
          }
        }
      ]
    },
    "44": {
      "startMethod": "com.squareup.okhttp.internal.http.HttpsURLConnectionImpl.getHeaderField(I)Ljava/lang/String;",
      "targetMethod": "java.lang.reflect.Method.invoke(Ljava/lang/Object;[Ljava/lang/Object;)Ljava/lang/Object;",
      "eventChain": [
        {
          "start": "com.squareup.okhttp.internal.http.HttpsURLConnectionImpl.getHeaderField(I)Ljava/lang/String;",
          "target": "invokevirtual \u003c Application, Ljava/lang/reflect/Method, invoke(Ljava/lang/Object;[Ljava/lang/Object;)Ljava/lang/Object; \u003e@67",
          "type": "",
          "constraintsFile": "constraints44_0.py",
          "variables": {},
          "stringMap": {
            "7000": "https"
          },
          "strings": {
            "IAAv9": "",
            "IAAv8": ""
          }
        }
      ]
    },
    "45": {
      "startMethod": "com.squareup.okhttp.internal.http.HttpsURLConnectionImpl.getHeaderField(I)Ljava/lang/String;",
      "targetMethod": "java.lang.reflect.Method.invoke(Ljava/lang/Object;[Ljava/lang/Object;)Ljava/lang/Object;",
      "eventChain": [
        {
          "start": "com.squareup.okhttp.internal.http.HttpsURLConnectionImpl.getHeaderField(I)Ljava/lang/String;",
          "target": "invokevirtual \u003c Application, Ljava/lang/reflect/Method, invoke(Ljava/lang/Object;[Ljava/lang/Object;)Ljava/lang/Object; \u003e@101",
          "type": "",
          "constraintsFile": "constraints45_0.py",
          "variables": {},
          "stringMap": {
            "7000": "https"
          },
          "strings": {
            "IAAv9": "",
            "IAAv8": ""
          }
        }
      ]
    },
    "46": {
      "startMethod": "com.squareup.okhttp.internal.http.HttpsURLConnectionImpl.getHeaderField(I)Ljava/lang/String;",
      "targetMethod": "java.lang.reflect.Method.invoke(Ljava/lang/Object;[Ljava/lang/Object;)Ljava/lang/Object;",
      "eventChain": [
        {
          "start": "com.squareup.okhttp.internal.http.HttpsURLConnectionImpl.getHeaderField(I)Ljava/lang/String;",
          "target": "invokevirtual \u003c Application, Ljava/lang/reflect/Method, invoke(Ljava/lang/Object;[Ljava/lang/Object;)Ljava/lang/Object; \u003e@39",
          "type": "",
          "constraintsFile": "constraints46_0.py",
          "variables": {},
          "stringMap": {
            "7000": "https",
            "7001": "spdy/3"
          },
          "strings": {
            "IAAv9": "",
            "IAAv8": ""
          }
        }
      ]
    },
    "47": {
      "startMethod": "com.squareup.okhttp.internal.http.HttpsURLConnectionImpl.getResponseCode()I",
      "targetMethod": "java.lang.reflect.Method.invoke(Ljava/lang/Object;[Ljava/lang/Object;)Ljava/lang/Object;",
      "eventChain": [
        {
          "start": "com.squareup.okhttp.internal.http.HttpsURLConnectionImpl.getResponseCode()I",
          "target": "invokevirtual \u003c Application, Ljava/lang/reflect/Method, invoke(Ljava/lang/Object;[Ljava/lang/Object;)Ljava/lang/Object; \u003e@39",
          "type": "",
          "constraintsFile": "constraints47_0.py",
          "variables": {},
          "stringMap": {
            "7000": "https",
            "7001": "spdy/3"
          },
          "strings": {
            "IAAv9": "",
            "IAAv8": ""
          }
        }
      ]
    },
    "48": {
      "startMethod": "com.squareup.okhttp.internal.http.HttpsURLConnectionImpl.getResponseCode()I",
      "targetMethod": "java.lang.reflect.Method.invoke(Ljava/lang/Object;[Ljava/lang/Object;)Ljava/lang/Object;",
      "eventChain": [
        {
          "start": "com.squareup.okhttp.internal.http.HttpsURLConnectionImpl.getResponseCode()I",
          "target": "invokevirtual \u003c Application, Ljava/lang/reflect/Method, invoke(Ljava/lang/Object;[Ljava/lang/Object;)Ljava/lang/Object; \u003e@101",
          "type": "",
          "constraintsFile": "constraints48_0.py",
          "variables": {},
          "stringMap": {
            "7000": "https"
          },
          "strings": {
            "IAAv9": "",
            "IAAv8": ""
          }
        }
      ]
    },
    "49": {
      "startMethod": "com.squareup.okhttp.internal.http.HttpsURLConnectionImpl.getResponseCode()I",
      "targetMethod": "java.lang.reflect.Method.invoke(Ljava/lang/Object;[Ljava/lang/Object;)Ljava/lang/Object;",
      "eventChain": [
        {
          "start": "com.squareup.okhttp.internal.http.HttpsURLConnectionImpl.getResponseCode()I",
          "target": "invokevirtual \u003c Application, Ljava/lang/reflect/Method, invoke(Ljava/lang/Object;[Ljava/lang/Object;)Ljava/lang/Object; \u003e@67",
          "type": "",
          "constraintsFile": "constraints49_0.py",
          "variables": {},
          "stringMap": {
            "7000": "https"
          },
          "strings": {
            "IAAv9": "",
            "IAAv8": ""
          }
        }
      ]
    },
    "50": {
      "startMethod": "com.squareup.okhttp.internal.http.HttpsURLConnectionImpl.getResponseCode()I",
      "targetMethod": "java.lang.reflect.Method.invoke(Ljava/lang/Object;[Ljava/lang/Object;)Ljava/lang/Object;",
      "eventChain": [
        {
          "start": "com.squareup.okhttp.internal.http.HttpsURLConnectionImpl.getResponseCode()I",
          "target": "invokevirtual \u003c Application, Ljava/lang/reflect/Method, invoke(Ljava/lang/Object;[Ljava/lang/Object;)Ljava/lang/Object; \u003e@51",
          "type": "",
          "constraintsFile": "constraints50_0.py",
          "variables": {},
          "stringMap": {
            "7000": "https",
            "7001": "spdy/3"
          },
          "strings": {
            "IAAv9": "",
            "IAAv8": ""
          }
        }
      ]
    },
    "51": {
      "startMethod": "com.squareup.okhttp.internal.http.HttpsURLConnectionImpl.getResponseCode()I",
      "targetMethod": "java.lang.reflect.Method.invoke(Ljava/lang/Object;[Ljava/lang/Object;)Ljava/lang/Object;",
      "eventChain": [
        {
          "start": "com.squareup.okhttp.internal.http.HttpsURLConnectionImpl.getResponseCode()I",
          "target": "invokevirtual \u003c Application, Ljava/lang/reflect/Method, invoke(Ljava/lang/Object;[Ljava/lang/Object;)Ljava/lang/Object; \u003e@38",
          "type": "",
          "constraintsFile": "constraints51_0.py",
          "variables": {},
          "stringMap": {
            "7000": "https",
            "7001": "spdy/3"
          },
          "strings": {
            "IAAv9": "",
            "IAAv8": ""
          }
        }
      ]
    },
    "52": {
      "startMethod": "com.squareup.okhttp.internal.http.HttpsURLConnectionImpl.getResponseCode()I",
      "targetMethod": "java.lang.reflect.Method.invoke(Ljava/lang/Object;[Ljava/lang/Object;)Ljava/lang/Object;",
      "eventChain": [
        {
          "start": "com.squareup.okhttp.internal.http.HttpsURLConnectionImpl.getResponseCode()I",
          "target": "invokevirtual \u003c Application, Ljava/lang/reflect/Method, invoke(Ljava/lang/Object;[Ljava/lang/Object;)Ljava/lang/Object; \u003e@206",
          "type": "",
          "constraintsFile": "constraints52_0.py",
          "variables": {},
          "stringMap": {
            "7000": "https",
            "7001": "spdy/3"
          },
          "strings": {
            "IAAv9": "",
            "IAAv8": ""
          }
        }
      ]
    },
    "53": {
      "startMethod": "com.squareup.okhttp.internal.http.HttpsURLConnectionImpl.getResponseMessage()Ljava/lang/String;",
      "targetMethod": "java.lang.reflect.Method.invoke(Ljava/lang/Object;[Ljava/lang/Object;)Ljava/lang/Object;",
      "eventChain": [
        {
          "start": "com.squareup.okhttp.internal.http.HttpsURLConnectionImpl.getResponseMessage()Ljava/lang/String;",
          "target": "invokevirtual \u003c Application, Ljava/lang/reflect/Method, invoke(Ljava/lang/Object;[Ljava/lang/Object;)Ljava/lang/Object; \u003e@67",
          "type": "",
          "constraintsFile": "constraints53_0.py",
          "variables": {},
          "stringMap": {
            "7000": "https"
          },
          "strings": {
            "IAAv9": "",
            "IAAv8": ""
          }
        }
      ]
    },
    "54": {
      "startMethod": "com.squareup.okhttp.internal.http.HttpsURLConnectionImpl.getResponseMessage()Ljava/lang/String;",
      "targetMethod": "java.lang.reflect.Method.invoke(Ljava/lang/Object;[Ljava/lang/Object;)Ljava/lang/Object;",
      "eventChain": [
        {
          "start": "com.squareup.okhttp.internal.http.HttpsURLConnectionImpl.getResponseMessage()Ljava/lang/String;",
          "target": "invokevirtual \u003c Application, Ljava/lang/reflect/Method, invoke(Ljava/lang/Object;[Ljava/lang/Object;)Ljava/lang/Object; \u003e@206",
          "type": "",
          "constraintsFile": "constraints54_0.py",
          "variables": {},
          "stringMap": {
            "7000": "https",
            "7001": "spdy/3"
          },
          "strings": {
            "IAAv9": "",
            "IAAv8": ""
          }
        }
      ]
    },
    "55": {
      "startMethod": "com.squareup.okhttp.internal.http.HttpsURLConnectionImpl.getResponseMessage()Ljava/lang/String;",
      "targetMethod": "java.lang.reflect.Method.invoke(Ljava/lang/Object;[Ljava/lang/Object;)Ljava/lang/Object;",
      "eventChain": [
        {
          "start": "com.squareup.okhttp.internal.http.HttpsURLConnectionImpl.getResponseMessage()Ljava/lang/String;",
          "target": "invokevirtual \u003c Application, Ljava/lang/reflect/Method, invoke(Ljava/lang/Object;[Ljava/lang/Object;)Ljava/lang/Object; \u003e@51",
          "type": "",
          "constraintsFile": "constraints55_0.py",
          "variables": {},
          "stringMap": {
            "7000": "https",
            "7001": "spdy/3"
          },
          "strings": {
            "IAAv9": "",
            "IAAv8": ""
          }
        }
      ]
    },
    "56": {
      "startMethod": "com.squareup.okhttp.internal.http.HttpsURLConnectionImpl.getResponseMessage()Ljava/lang/String;",
      "targetMethod": "java.lang.reflect.Method.invoke(Ljava/lang/Object;[Ljava/lang/Object;)Ljava/lang/Object;",
      "eventChain": [
        {
          "start": "com.squareup.okhttp.internal.http.HttpsURLConnectionImpl.getResponseMessage()Ljava/lang/String;",
          "target": "invokevirtual \u003c Application, Ljava/lang/reflect/Method, invoke(Ljava/lang/Object;[Ljava/lang/Object;)Ljava/lang/Object; \u003e@101",
          "type": "",
          "constraintsFile": "constraints56_0.py",
          "variables": {},
          "stringMap": {
            "7000": "https"
          },
          "strings": {
            "IAAv9": "",
            "IAAv8": ""
          }
        }
      ]
    },
    "57": {
      "startMethod": "com.squareup.okhttp.internal.http.HttpsURLConnectionImpl.getResponseMessage()Ljava/lang/String;",
      "targetMethod": "java.lang.reflect.Method.invoke(Ljava/lang/Object;[Ljava/lang/Object;)Ljava/lang/Object;",
      "eventChain": [
        {
          "start": "com.squareup.okhttp.internal.http.HttpsURLConnectionImpl.getResponseMessage()Ljava/lang/String;",
          "target": "invokevirtual \u003c Application, Ljava/lang/reflect/Method, invoke(Ljava/lang/Object;[Ljava/lang/Object;)Ljava/lang/Object; \u003e@39",
          "type": "",
          "constraintsFile": "constraints57_0.py",
          "variables": {},
          "stringMap": {
            "7000": "https",
            "7001": "spdy/3"
          },
          "strings": {
            "IAAv9": "",
            "IAAv8": ""
          }
        }
      ]
    },
    "58": {
      "startMethod": "com.squareup.okhttp.internal.http.HttpsURLConnectionImpl.getResponseMessage()Ljava/lang/String;",
      "targetMethod": "java.lang.reflect.Method.invoke(Ljava/lang/Object;[Ljava/lang/Object;)Ljava/lang/Object;",
      "eventChain": [
        {
          "start": "com.squareup.okhttp.internal.http.HttpsURLConnectionImpl.getResponseMessage()Ljava/lang/String;",
          "target": "invokevirtual \u003c Application, Ljava/lang/reflect/Method, invoke(Ljava/lang/Object;[Ljava/lang/Object;)Ljava/lang/Object; \u003e@38",
          "type": "",
          "constraintsFile": "constraints58_0.py",
          "variables": {},
          "stringMap": {
            "7000": "https",
            "7001": "spdy/3"
          },
          "strings": {
            "IAAv9": "",
            "IAAv8": ""
          }
        }
      ]
    },
    "59": {
      "startMethod": "com.squareup.okhttp.internal.http.HttpsURLConnectionImpl.getErrorStream()Ljava/io/InputStream;",
      "targetMethod": "java.lang.reflect.Method.invoke(Ljava/lang/Object;[Ljava/lang/Object;)Ljava/lang/Object;",
      "eventChain": [
        {
          "start": "com.squareup.okhttp.internal.http.HttpsURLConnectionImpl.getErrorStream()Ljava/io/InputStream;",
          "target": "invokevirtual \u003c Application, Ljava/lang/reflect/Method, invoke(Ljava/lang/Object;[Ljava/lang/Object;)Ljava/lang/Object; \u003e@38",
          "type": "",
          "constraintsFile": "constraints59_0.py",
          "variables": {},
          "stringMap": {
            "7000": "https",
            "7001": "spdy/3"
          },
          "strings": {
            "IAAv9": "",
            "IAAv8": ""
          }
        }
      ]
    },
    "60": {
      "startMethod": "com.squareup.okhttp.internal.http.HttpsURLConnectionImpl.getErrorStream()Ljava/io/InputStream;",
      "targetMethod": "java.lang.reflect.Method.invoke(Ljava/lang/Object;[Ljava/lang/Object;)Ljava/lang/Object;",
      "eventChain": [
        {
          "start": "com.squareup.okhttp.internal.http.HttpsURLConnectionImpl.getErrorStream()Ljava/io/InputStream;",
          "target": "invokevirtual \u003c Application, Ljava/lang/reflect/Method, invoke(Ljava/lang/Object;[Ljava/lang/Object;)Ljava/lang/Object; \u003e@51",
          "type": "",
          "constraintsFile": "constraints60_0.py",
          "variables": {},
          "stringMap": {
            "7000": "https",
            "7001": "spdy/3"
          },
          "strings": {
            "IAAv9": "",
            "IAAv8": ""
          }
        }
      ]
    },
    "61": {
      "startMethod": "com.squareup.okhttp.internal.http.HttpsURLConnectionImpl.getErrorStream()Ljava/io/InputStream;",
      "targetMethod": "java.lang.reflect.Method.invoke(Ljava/lang/Object;[Ljava/lang/Object;)Ljava/lang/Object;",
      "eventChain": [
        {
          "start": "com.squareup.okhttp.internal.http.HttpsURLConnectionImpl.getErrorStream()Ljava/io/InputStream;",
          "target": "invokevirtual \u003c Application, Ljava/lang/reflect/Method, invoke(Ljava/lang/Object;[Ljava/lang/Object;)Ljava/lang/Object; \u003e@101",
          "type": "",
          "constraintsFile": "constraints61_0.py",
          "variables": {},
          "stringMap": {
            "7000": "https"
          },
          "strings": {
            "IAAv9": "",
            "IAAv8": ""
          }
        }
      ]
    },
    "62": {
      "startMethod": "com.squareup.okhttp.internal.http.HttpsURLConnectionImpl.getErrorStream()Ljava/io/InputStream;",
      "targetMethod": "java.lang.reflect.Method.invoke(Ljava/lang/Object;[Ljava/lang/Object;)Ljava/lang/Object;",
      "eventChain": [
        {
          "start": "com.squareup.okhttp.internal.http.HttpsURLConnectionImpl.getErrorStream()Ljava/io/InputStream;",
          "target": "invokevirtual \u003c Application, Ljava/lang/reflect/Method, invoke(Ljava/lang/Object;[Ljava/lang/Object;)Ljava/lang/Object; \u003e@206",
          "type": "",
          "constraintsFile": "constraints62_0.py",
          "variables": {},
          "stringMap": {
            "7000": "https",
            "7001": "spdy/3"
          },
          "strings": {
            "IAAv9": "",
            "IAAv8": ""
          }
        }
      ]
    },
    "63": {
      "startMethod": "com.squareup.okhttp.internal.http.HttpsURLConnectionImpl.getErrorStream()Ljava/io/InputStream;",
      "targetMethod": "java.lang.reflect.Method.invoke(Ljava/lang/Object;[Ljava/lang/Object;)Ljava/lang/Object;",
      "eventChain": [
        {
          "start": "com.squareup.okhttp.internal.http.HttpsURLConnectionImpl.getErrorStream()Ljava/io/InputStream;",
          "target": "invokevirtual \u003c Application, Ljava/lang/reflect/Method, invoke(Ljava/lang/Object;[Ljava/lang/Object;)Ljava/lang/Object; \u003e@39",
          "type": "",
          "constraintsFile": "constraints63_0.py",
          "variables": {},
          "stringMap": {
            "7000": "https",
            "7001": "spdy/3"
          },
          "strings": {
            "IAAv9": "",
            "IAAv8": ""
          }
        }
      ]
    },
    "64": {
      "startMethod": "com.squareup.okhttp.internal.http.HttpsURLConnectionImpl.getErrorStream()Ljava/io/InputStream;",
      "targetMethod": "java.lang.reflect.Method.invoke(Ljava/lang/Object;[Ljava/lang/Object;)Ljava/lang/Object;",
      "eventChain": [
        {
          "start": "com.squareup.okhttp.internal.http.HttpsURLConnectionImpl.getErrorStream()Ljava/io/InputStream;",
          "target": "invokevirtual \u003c Application, Ljava/lang/reflect/Method, invoke(Ljava/lang/Object;[Ljava/lang/Object;)Ljava/lang/Object; \u003e@67",
          "type": "",
          "constraintsFile": "constraints64_0.py",
          "variables": {},
          "stringMap": {
            "7000": "https"
          },
          "strings": {
            "IAAv9": "",
            "IAAv8": ""
          }
        }
      ]
    },
    "65": {
      "startMethod": "com.squareup.okhttp.internal.http.HttpsURLConnectionImpl.connect()V",
      "targetMethod": "java.lang.reflect.Method.invoke(Ljava/lang/Object;[Ljava/lang/Object;)Ljava/lang/Object;",
      "eventChain": [
        {
          "start": "com.squareup.okhttp.internal.http.HttpsURLConnectionImpl.connect()V",
          "target": "invokevirtual \u003c Application, Ljava/lang/reflect/Method, invoke(Ljava/lang/Object;[Ljava/lang/Object;)Ljava/lang/Object; \u003e@51",
          "type": "",
          "constraintsFile": "constraints65_0.py",
          "variables": {},
          "stringMap": {
            "7000": "https",
            "7001": "spdy/3"
          },
          "strings": {
            "IAAv8": "",
            "IAAv7": ""
          }
        }
      ]
    },
    "66": {
      "startMethod": "com.squareup.okhttp.internal.http.HttpsURLConnectionImpl.connect()V",
      "targetMethod": "java.lang.reflect.Method.invoke(Ljava/lang/Object;[Ljava/lang/Object;)Ljava/lang/Object;",
      "eventChain": [
        {
          "start": "com.squareup.okhttp.internal.http.HttpsURLConnectionImpl.connect()V",
          "target": "invokevirtual \u003c Application, Ljava/lang/reflect/Method, invoke(Ljava/lang/Object;[Ljava/lang/Object;)Ljava/lang/Object; \u003e@39",
          "type": "",
          "constraintsFile": "constraints66_0.py",
          "variables": {},
          "stringMap": {
            "7000": "https",
            "7001": "spdy/3"
          },
          "strings": {
            "IAAv8": "",
            "IAAv7": ""
          }
        }
      ]
    },
    "67": {
      "startMethod": "com.squareup.okhttp.internal.http.HttpsURLConnectionImpl.connect()V",
      "targetMethod": "java.lang.reflect.Method.invoke(Ljava/lang/Object;[Ljava/lang/Object;)Ljava/lang/Object;",
      "eventChain": [
        {
          "start": "com.squareup.okhttp.internal.http.HttpsURLConnectionImpl.connect()V",
          "target": "invokevirtual \u003c Application, Ljava/lang/reflect/Method, invoke(Ljava/lang/Object;[Ljava/lang/Object;)Ljava/lang/Object; \u003e@206",
          "type": "",
          "constraintsFile": "constraints67_0.py",
          "variables": {},
          "stringMap": {
            "7000": "https",
            "7001": "spdy/3"
          },
          "strings": {
            "IAAv8": "",
            "IAAv7": ""
          }
        }
      ]
    },
    "68": {
      "startMethod": "com.squareup.okhttp.internal.http.HttpsURLConnectionImpl.connect()V",
      "targetMethod": "java.lang.reflect.Method.invoke(Ljava/lang/Object;[Ljava/lang/Object;)Ljava/lang/Object;",
      "eventChain": [
        {
          "start": "com.squareup.okhttp.internal.http.HttpsURLConnectionImpl.connect()V",
          "target": "invokevirtual \u003c Application, Ljava/lang/reflect/Method, invoke(Ljava/lang/Object;[Ljava/lang/Object;)Ljava/lang/Object; \u003e@38",
          "type": "",
          "constraintsFile": "constraints68_0.py",
          "variables": {},
          "stringMap": {
            "7000": "https",
            "7001": "spdy/3"
          },
          "strings": {
            "IAAv8": "",
            "IAAv7": ""
          }
        }
      ]
    },
    "69": {
      "startMethod": "com.squareup.okhttp.internal.http.HttpsURLConnectionImpl.connect()V",
      "targetMethod": "java.lang.reflect.Method.invoke(Ljava/lang/Object;[Ljava/lang/Object;)Ljava/lang/Object;",
      "eventChain": [
        {
          "start": "com.squareup.okhttp.internal.http.HttpsURLConnectionImpl.connect()V",
          "target": "invokevirtual \u003c Application, Ljava/lang/reflect/Method, invoke(Ljava/lang/Object;[Ljava/lang/Object;)Ljava/lang/Object; \u003e@67",
          "type": "",
          "constraintsFile": "constraints69_0.py",
          "variables": {},
          "stringMap": {
            "7000": "https"
          },
          "strings": {
            "IAAv8": "",
            "IAAv7": ""
          }
        }
      ]
    },
    "70": {
      "startMethod": "com.squareup.okhttp.internal.http.HttpsURLConnectionImpl.connect()V",
      "targetMethod": "java.lang.reflect.Method.invoke(Ljava/lang/Object;[Ljava/lang/Object;)Ljava/lang/Object;",
      "eventChain": [
        {
          "start": "com.squareup.okhttp.internal.http.HttpsURLConnectionImpl.connect()V",
          "target": "invokevirtual \u003c Application, Ljava/lang/reflect/Method, invoke(Ljava/lang/Object;[Ljava/lang/Object;)Ljava/lang/Object; \u003e@101",
          "type": "",
          "constraintsFile": "constraints70_0.py",
          "variables": {},
          "stringMap": {
            "7000": "https"
          },
          "strings": {
            "IAAv8": "",
            "IAAv7": ""
          }
        }
      ]
    },
    "71": {
      "startMethod": "com.squareup.okhttp.internal.http.HttpsURLConnectionImpl.getHeaderFields()Ljava/util/Map;",
      "targetMethod": "java.lang.reflect.Method.invoke(Ljava/lang/Object;[Ljava/lang/Object;)Ljava/lang/Object;",
      "eventChain": [
        {
          "start": "com.squareup.okhttp.internal.http.HttpsURLConnectionImpl.getHeaderFields()Ljava/util/Map;",
          "target": "invokevirtual \u003c Application, Ljava/lang/reflect/Method, invoke(Ljava/lang/Object;[Ljava/lang/Object;)Ljava/lang/Object; \u003e@38",
          "type": "",
          "constraintsFile": "constraints71_0.py",
          "variables": {},
          "stringMap": {
            "7000": "https",
            "7001": "spdy/3"
          },
          "strings": {
            "IAAv9": "",
            "IAAv8": ""
          }
        }
      ]
    },
    "72": {
      "startMethod": "com.squareup.okhttp.internal.http.HttpsURLConnectionImpl.getHeaderFields()Ljava/util/Map;",
      "targetMethod": "java.lang.reflect.Method.invoke(Ljava/lang/Object;[Ljava/lang/Object;)Ljava/lang/Object;",
      "eventChain": [
        {
          "start": "com.squareup.okhttp.internal.http.HttpsURLConnectionImpl.getHeaderFields()Ljava/util/Map;",
          "target": "invokevirtual \u003c Application, Ljava/lang/reflect/Method, invoke(Ljava/lang/Object;[Ljava/lang/Object;)Ljava/lang/Object; \u003e@67",
          "type": "",
          "constraintsFile": "constraints72_0.py",
          "variables": {},
          "stringMap": {
            "7000": "https"
          },
          "strings": {
            "IAAv9": "",
            "IAAv8": ""
          }
        }
      ]
    },
    "73": {
      "startMethod": "com.squareup.okhttp.internal.http.HttpsURLConnectionImpl.getHeaderFields()Ljava/util/Map;",
      "targetMethod": "java.lang.reflect.Method.invoke(Ljava/lang/Object;[Ljava/lang/Object;)Ljava/lang/Object;",
      "eventChain": [
        {
          "start": "com.squareup.okhttp.internal.http.HttpsURLConnectionImpl.getHeaderFields()Ljava/util/Map;",
          "target": "invokevirtual \u003c Application, Ljava/lang/reflect/Method, invoke(Ljava/lang/Object;[Ljava/lang/Object;)Ljava/lang/Object; \u003e@39",
          "type": "",
          "constraintsFile": "constraints73_0.py",
          "variables": {},
          "stringMap": {
            "7000": "https",
            "7001": "spdy/3"
          },
          "strings": {
            "IAAv9": "",
            "IAAv8": ""
          }
        }
      ]
    },
    "74": {
      "startMethod": "com.squareup.okhttp.internal.http.HttpsURLConnectionImpl.getHeaderFields()Ljava/util/Map;",
      "targetMethod": "java.lang.reflect.Method.invoke(Ljava/lang/Object;[Ljava/lang/Object;)Ljava/lang/Object;",
      "eventChain": [
        {
          "start": "com.squareup.okhttp.internal.http.HttpsURLConnectionImpl.getHeaderFields()Ljava/util/Map;",
          "target": "invokevirtual \u003c Application, Ljava/lang/reflect/Method, invoke(Ljava/lang/Object;[Ljava/lang/Object;)Ljava/lang/Object; \u003e@101",
          "type": "",
          "constraintsFile": "constraints74_0.py",
          "variables": {},
          "stringMap": {
            "7000": "https"
          },
          "strings": {
            "IAAv9": "",
            "IAAv8": ""
          }
        }
      ]
    },
    "75": {
      "startMethod": "com.squareup.okhttp.internal.http.HttpsURLConnectionImpl.getHeaderFields()Ljava/util/Map;",
      "targetMethod": "java.lang.reflect.Method.invoke(Ljava/lang/Object;[Ljava/lang/Object;)Ljava/lang/Object;",
      "eventChain": [
        {
          "start": "com.squareup.okhttp.internal.http.HttpsURLConnectionImpl.getHeaderFields()Ljava/util/Map;",
          "target": "invokevirtual \u003c Application, Ljava/lang/reflect/Method, invoke(Ljava/lang/Object;[Ljava/lang/Object;)Ljava/lang/Object; \u003e@51",
          "type": "",
          "constraintsFile": "constraints75_0.py",
          "variables": {},
          "stringMap": {
            "7000": "https",
            "7001": "spdy/3"
          },
          "strings": {
            "IAAv9": "",
            "IAAv8": ""
          }
        }
      ]
    },
    "76": {
      "startMethod": "com.squareup.okhttp.internal.http.HttpsURLConnectionImpl.getHeaderFields()Ljava/util/Map;",
      "targetMethod": "java.lang.reflect.Method.invoke(Ljava/lang/Object;[Ljava/lang/Object;)Ljava/lang/Object;",
      "eventChain": [
        {
          "start": "com.squareup.okhttp.internal.http.HttpsURLConnectionImpl.getHeaderFields()Ljava/util/Map;",
          "target": "invokevirtual \u003c Application, Ljava/lang/reflect/Method, invoke(Ljava/lang/Object;[Ljava/lang/Object;)Ljava/lang/Object; \u003e@206",
          "type": "",
          "constraintsFile": "constraints76_0.py",
          "variables": {},
          "stringMap": {
            "7000": "https",
            "7001": "spdy/3"
          },
          "strings": {
            "IAAv9": "",
            "IAAv8": ""
          }
        }
      ]
    },
    "77": {
      "startMethod": "com.squareup.okhttp.internal.http.HttpsURLConnectionImpl.getOutputStream()Ljava/io/OutputStream;",
      "targetMethod": "java.lang.reflect.Method.invoke(Ljava/lang/Object;[Ljava/lang/Object;)Ljava/lang/Object;",
      "eventChain": [
        {
          "start": "com.squareup.okhttp.internal.http.HttpsURLConnectionImpl.getOutputStream()Ljava/io/OutputStream;",
          "target": "invokevirtual \u003c Application, Ljava/lang/reflect/Method, invoke(Ljava/lang/Object;[Ljava/lang/Object;)Ljava/lang/Object; \u003e@67",
          "type": "",
          "constraintsFile": "constraints77_0.py",
          "variables": {},
          "stringMap": {
            "7000": "https"
          },
          "strings": {
            "IAAv8": "",
            "IAAv7": ""
          }
        }
      ]
    },
    "78": {
      "startMethod": "com.squareup.okhttp.internal.http.HttpsURLConnectionImpl.getOutputStream()Ljava/io/OutputStream;",
      "targetMethod": "java.lang.reflect.Method.invoke(Ljava/lang/Object;[Ljava/lang/Object;)Ljava/lang/Object;",
      "eventChain": [
        {
          "start": "com.squareup.okhttp.internal.http.HttpsURLConnectionImpl.getOutputStream()Ljava/io/OutputStream;",
          "target": "invokevirtual \u003c Application, Ljava/lang/reflect/Method, invoke(Ljava/lang/Object;[Ljava/lang/Object;)Ljava/lang/Object; \u003e@206",
          "type": "",
          "constraintsFile": "constraints78_0.py",
          "variables": {},
          "stringMap": {
            "7000": "https",
            "7001": "spdy/3"
          },
          "strings": {
            "IAAv8": "",
            "IAAv7": ""
          }
        }
      ]
    },
    "79": {
      "startMethod": "com.squareup.okhttp.internal.http.HttpsURLConnectionImpl.getOutputStream()Ljava/io/OutputStream;",
      "targetMethod": "java.lang.reflect.Method.invoke(Ljava/lang/Object;[Ljava/lang/Object;)Ljava/lang/Object;",
      "eventChain": [
        {
          "start": "com.squareup.okhttp.internal.http.HttpsURLConnectionImpl.getOutputStream()Ljava/io/OutputStream;",
          "target": "invokevirtual \u003c Application, Ljava/lang/reflect/Method, invoke(Ljava/lang/Object;[Ljava/lang/Object;)Ljava/lang/Object; \u003e@51",
          "type": "",
          "constraintsFile": "constraints79_0.py",
          "variables": {},
          "stringMap": {
            "7000": "https",
            "7001": "spdy/3"
          },
          "strings": {
            "IAAv8": "",
            "IAAv7": ""
          }
        }
      ]
    },
    "80": {
      "startMethod": "com.squareup.okhttp.internal.http.HttpsURLConnectionImpl.getOutputStream()Ljava/io/OutputStream;",
      "targetMethod": "java.lang.reflect.Method.invoke(Ljava/lang/Object;[Ljava/lang/Object;)Ljava/lang/Object;",
      "eventChain": [
        {
          "start": "com.squareup.okhttp.internal.http.HttpsURLConnectionImpl.getOutputStream()Ljava/io/OutputStream;",
          "target": "invokevirtual \u003c Application, Ljava/lang/reflect/Method, invoke(Ljava/lang/Object;[Ljava/lang/Object;)Ljava/lang/Object; \u003e@38",
          "type": "",
          "constraintsFile": "constraints80_0.py",
          "variables": {},
          "stringMap": {
            "7000": "https",
            "7001": "spdy/3"
          },
          "strings": {
            "IAAv8": "",
            "IAAv7": ""
          }
        }
      ]
    },
    "81": {
      "startMethod": "com.squareup.okhttp.internal.http.HttpsURLConnectionImpl.getOutputStream()Ljava/io/OutputStream;",
      "targetMethod": "java.lang.reflect.Method.invoke(Ljava/lang/Object;[Ljava/lang/Object;)Ljava/lang/Object;",
      "eventChain": [
        {
          "start": "com.squareup.okhttp.internal.http.HttpsURLConnectionImpl.getOutputStream()Ljava/io/OutputStream;",
          "target": "invokevirtual \u003c Application, Ljava/lang/reflect/Method, invoke(Ljava/lang/Object;[Ljava/lang/Object;)Ljava/lang/Object; \u003e@101",
          "type": "",
          "constraintsFile": "constraints81_0.py",
          "variables": {},
          "stringMap": {
            "7000": "https"
          },
          "strings": {
            "IAAv8": "",
            "IAAv7": ""
          }
        }
      ]
    },
    "82": {
      "startMethod": "com.squareup.okhttp.internal.http.HttpsURLConnectionImpl.getOutputStream()Ljava/io/OutputStream;",
      "targetMethod": "java.lang.reflect.Method.invoke(Ljava/lang/Object;[Ljava/lang/Object;)Ljava/lang/Object;",
      "eventChain": [
        {
          "start": "com.squareup.okhttp.internal.http.HttpsURLConnectionImpl.getOutputStream()Ljava/io/OutputStream;",
          "target": "invokevirtual \u003c Application, Ljava/lang/reflect/Method, invoke(Ljava/lang/Object;[Ljava/lang/Object;)Ljava/lang/Object; \u003e@39",
          "type": "",
          "constraintsFile": "constraints82_0.py",
          "variables": {},
          "stringMap": {
            "7000": "https",
            "7001": "spdy/3"
          },
          "strings": {
            "IAAv8": "",
            "IAAv7": ""
          }
        }
      ]
    },
    "83": {
      "startMethod": "org.apache.cordova.inappbrowser.InAppChromeClient.onJsPrompt(Landroid/webkit/WebView;Ljava/lang/String;Ljava/lang/String;Ljava/lang/String;Landroid/webkit/JsPromptResult;)Z",
      "targetMethod": "java.lang.reflect.Method.invoke(Ljava/lang/Object;[Ljava/lang/Object;)Ljava/lang/Object;",
      "eventChain": [
        {
          "start": "org.apache.cordova.inappbrowser.InAppChromeClient.onGeolocationPermissionsShowPrompt(Ljava/lang/String;Landroid/webkit/GeolocationPermissions$Callback;)V",
          "target": "invokespecial \u003c Application, Landroid/webkit/WebChromeClient, onGeolocationPermissionsShowPrompt(Ljava/lang/String;Landroid/webkit/GeolocationPermissions$Callback;)V \u003e@4",
          "type": ""
        },
        {
          "start": "org.apache.cordova.inappbrowser.InAppChromeClient.onJsPrompt(Landroid/webkit/WebView;Ljava/lang/String;Ljava/lang/String;Ljava/lang/String;Landroid/webkit/JsPromptResult;)Z",
          "target": "invokevirtual \u003c Application, Ljava/lang/reflect/Method, invoke(Ljava/lang/Object;[Ljava/lang/Object;)Ljava/lang/Object; \u003e@104",
          "type": "",
          "constraintsFile": "constraints83_0.py",
          "variables": {
            "\u003cChainedInput4\u003e": "IAAv0",
            "\u003cChainedInput3\u003e.length()": "IAAv6",
            "\u003cChainedInput3\u003e": "IAAv5"
          },
          "stringMap": {
            "7000": "gap",
            "7001": "gap-iab://",
            "7002": "InAppBrowser"
          },
          "strings": {
            "IAAv0": "",
            "IAAv5": ""
          }
        }
      ]
    }
  }
}