{
  "packageName": "com.aileajykaf.jgadqfacdd",
  "mainActivity": "com.gallery.HomeActivity",
  "callPaths": {
    "0": {
      "startMethod": "com.google.android.gms.wallet.fragment.WalletFragment.onResume()V",
      "targetMethod": "java.lang.ClassLoader.loadClass(Ljava/lang/String;)Ljava/lang/Class;",
      "eventChain": [
        {
          "start": "com.google.android.gms.wallet.fragment.WalletFragment.onResume()V",
          "target": "PC@7",
          "type": "",
          "constraintsFile": "constraints0_0.py",
          "variables": {},
          "stringMap": {},
          "strings": {}
        },
        {
          "start": "com.google.android.gms.wallet.fragment.WalletFragment.onResume()V",
          "target": "invokevirtual \u003c Application, Ljava/lang/ClassLoader, loadClass(Ljava/lang/String;)Ljava/lang/Class; \u003e@50",
          "type": "",
          "constraintsFile": "constraints0_1.py",
          "variables": {},
          "stringMap": {},
          "strings": {}
        }
      ]
    },
    "1": {
      "startMethod": "com.google.android.gms.wallet.fragment.WalletFragment.onResume()V",
      "targetMethod": "java.lang.ClassLoader.loadClass(Ljava/lang/String;)Ljava/lang/Class;",
      "eventChain": [
        {
          "start": "com.google.android.gms.wallet.fragment.WalletFragment.onResume()V",
          "target": "invokevirtual \u003c Application, Ljava/lang/ClassLoader, loadClass(Ljava/lang/String;)Ljava/lang/Class; \u003e@13",
          "type": "",
          "constraintsFile": "constraints1_0.py",
          "variables": {},
          "stringMap": {},
          "strings": {}
        }
      ]
    },
    "2": {
      "startMethod": "com.google.android.gms.maps.MapFragment.onResume()V",
      "targetMethod": "java.lang.ClassLoader.loadClass(Ljava/lang/String;)Ljava/lang/Class;",
      "eventChain": [
        {
          "start": "com.google.android.gms.maps.MapFragment.onResume()V",
          "target": "invokevirtual \u003c Application, Ljava/lang/ClassLoader, loadClass(Ljava/lang/String;)Ljava/lang/Class; \u003e@13",
          "type": "",
          "constraintsFile": "constraints2_0.py",
          "variables": {},
          "stringMap": {},
          "strings": {}
        }
      ]
    },
    "3": {
      "startMethod": "com.google.android.gms.maps.MapFragment.onResume()V",
      "targetMethod": "java.lang.ClassLoader.loadClass(Ljava/lang/String;)Ljava/lang/Class;",
      "eventChain": [
        {
          "start": "com.google.android.gms.wallet.fragment.WalletFragment.onResume()V",
          "target": "PC@7",
          "type": "",
          "constraintsFile": "constraints3_0.py",
          "variables": {},
          "stringMap": {},
          "strings": {}
        },
        {
          "start": "com.google.android.gms.maps.MapFragment.onResume()V",
          "target": "invokevirtual \u003c Application, Ljava/lang/ClassLoader, loadClass(Ljava/lang/String;)Ljava/lang/Class; \u003e@50",
          "type": "",
          "constraintsFile": "constraints3_1.py",
          "variables": {},
          "stringMap": {},
          "strings": {}
        }
      ]
    },
    "4": {
      "startMethod": "com.gallery.HomeActivity.onCreate(Landroid/os/Bundle;)V",
      "targetMethod": "java.net.URL.openConnection()Ljava/net/URLConnection;",
      "eventChain": [
        {
          "start": "com.gallery.HomeActivity.onCreate(Landroid/os/Bundle;)V",
          "target": "invokevirtual \u003c Application, Ljava/net/URL, openConnection()Ljava/net/URLConnection; \u003e@151",
          "type": "activity",
          "component": "com.gallery.HomeActivity"
        }
      ]
    },
    "5": {
      "startMethod": "com.google.android.gms.maps.StreetViewPanoramaFragment.onCreateView(Landroid/view/LayoutInflater;Landroid/view/ViewGroup;Landroid/os/Bundle;)Landroid/view/View;",
      "targetMethod": "java.lang.ClassLoader.loadClass(Ljava/lang/String;)Ljava/lang/Class;",
      "eventChain": [
        {
          "start": "com.google.android.gms.wallet.fragment.WalletFragment.onResume()V",
          "target": "PC@7",
          "type": "",
          "constraintsFile": "constraints5_0.py",
          "variables": {},
          "stringMap": {},
          "strings": {}
        },
        {
          "start": "com.google.android.gms.maps.StreetViewPanoramaFragment.onCreateView(Landroid/view/LayoutInflater;Landroid/view/ViewGroup;Landroid/os/Bundle;)Landroid/view/View;",
          "target": "invokevirtual \u003c Application, Ljava/lang/ClassLoader, loadClass(Ljava/lang/String;)Ljava/lang/Class; \u003e@50",
          "type": "",
          "constraintsFile": "constraints5_1.py",
          "variables": {
            "\u003cChainedInput3\u003e": "IAAv2"
          },
          "stringMap": {},
          "strings": {}
        }
      ]
    },
    "6": {
      "startMethod": "com.google.android.gms.maps.StreetViewPanoramaFragment.onCreateView(Landroid/view/LayoutInflater;Landroid/view/ViewGroup;Landroid/os/Bundle;)Landroid/view/View;",
      "targetMethod": "java.lang.ClassLoader.loadClass(Ljava/lang/String;)Ljava/lang/Class;",
      "eventChain": [
        {
          "start": "com.google.android.gms.maps.StreetViewPanoramaFragment.onCreateView(Landroid/view/LayoutInflater;Landroid/view/ViewGroup;Landroid/os/Bundle;)Landroid/view/View;",
          "target": "invokevirtual \u003c Application, Ljava/lang/ClassLoader, loadClass(Ljava/lang/String;)Ljava/lang/Class; \u003e@13",
          "type": "",
          "constraintsFile": "constraints6_0.py",
          "variables": {
            "\u003cChainedInput3\u003e": "IAAv2"
          },
          "stringMap": {},
          "strings": {}
        }
      ]
    },
    "7": {
      "startMethod": "com.google.android.gms.ads.AdActivity.onCreate(Landroid/os/Bundle;)V",
      "targetMethod": "java.lang.ClassLoader.loadClass(Ljava/lang/String;)Ljava/lang/Class;",
      "eventChain": [
        {
          "start": "com.google.android.gms.ads.AdActivity.onCreate(Landroid/os/Bundle;)V",
          "target": "invokevirtual \u003c Application, Ljava/lang/ClassLoader, loadClass(Ljava/lang/String;)Ljava/lang/Class; \u003e@50",
          "type": "activity",
          "component": "com.google.android.gms.ads.AdActivity"
        }
      ]
    },
    "8": {
      "startMethod": "com.revmob.ads.fullscreen.FullscreenActivity.onCreate(Landroid/os/Bundle;)V",
      "targetMethod": "java.net.URL.openConnection()Ljava/net/URLConnection;",
      "eventChain": [
        {
          "start": "com.revmob.ads.fullscreen.FullscreenActivity.onCreate(Landroid/os/Bundle;)V",
          "target": "invokevirtual \u003c Application, Ljava/net/URL, openConnection()Ljava/net/URLConnection; \u003e@204",
          "type": "activity",
          "component": "com.revmob.ads.fullscreen.FullscreenActivity",
          "constraintsFile": "constraints8_0.py",
          "variables": {},
          "stringMap": {},
          "strings": {
            "IAAv0": ""
          }
        }
      ]
    },
    "9": {
      "startMethod": "com.google.android.gms.maps.MapFragment.onAttach(Landroid/app/Activity;)V",
      "targetMethod": "java.lang.ClassLoader.loadClass(Ljava/lang/String;)Ljava/lang/Class;",
      "eventChain": [
        {
          "start": "com.google.android.gms.wallet.fragment.WalletFragment.onResume()V",
          "target": "",
          "type": "",
          "constraintsFile": "constraints9_0.py",
          "variables": {},
          "stringMap": {},
          "strings": {}
        },
        {
          "start": "com.google.android.gms.maps.MapFragment.onAttach(Landroid/app/Activity;)V",
          "target": "invokevirtual \u003c Application, Ljava/lang/ClassLoader, loadClass(Ljava/lang/String;)Ljava/lang/Class; \u003e@13",
          "type": "",
          "constraintsFile": "constraints9_1.py",
          "variables": {},
          "stringMap": {},
          "strings": {}
        }
      ]
    },
    "10": {
      "startMethod": "com.startapp.android.publish.AppWallActivity.onResume()V",
      "targetMethod": "java.net.URL.openConnection()Ljava/net/URLConnection;",
      "eventChain": [
        {
          "start": "com.startapp.android.publish.AppWallActivity.onResume()V",
          "target": "invokevirtual \u003c Application, Ljava/net/URL, openConnection()Ljava/net/URLConnection; \u003e@19",
          "type": "activity",
          "component": "com.startapp.android.publish.AppWallActivity",
          "constraintsFile": "constraints10_0.py",
          "variables": {},
          "stringMap": {},
          "strings": {}
        }
      ]
    },
    "11": {
      "startMethod": "com.google.android.gms.maps.StreetViewPanoramaFragment.onResume()V",
      "targetMethod": "java.lang.ClassLoader.loadClass(Ljava/lang/String;)Ljava/lang/Class;",
      "eventChain": [
        {
          "start": "com.google.android.gms.wallet.fragment.WalletFragment.onResume()V",
          "target": "PC@7",
          "type": "",
          "constraintsFile": "constraints11_0.py",
          "variables": {},
          "stringMap": {},
          "strings": {}
        },
        {
          "start": "com.google.android.gms.maps.StreetViewPanoramaFragment.onResume()V",
          "target": "invokevirtual \u003c Application, Ljava/lang/ClassLoader, loadClass(Ljava/lang/String;)Ljava/lang/Class; \u003e@50",
          "type": "",
          "constraintsFile": "constraints11_1.py",
          "variables": {},
          "stringMap": {},
          "strings": {}
        }
      ]
    },
    "12": {
      "startMethod": "com.google.android.gms.maps.StreetViewPanoramaFragment.onResume()V",
      "targetMethod": "java.lang.ClassLoader.loadClass(Ljava/lang/String;)Ljava/lang/Class;",
      "eventChain": [
        {
          "start": "com.google.android.gms.maps.StreetViewPanoramaFragment.onResume()V",
          "target": "invokevirtual \u003c Application, Ljava/lang/ClassLoader, loadClass(Ljava/lang/String;)Ljava/lang/Class; \u003e@13",
          "type": "",
          "constraintsFile": "constraints12_0.py",
          "variables": {},
          "stringMap": {},
          "strings": {}
        }
      ]
    },
    "13": {
      "startMethod": "com.google.android.gms.maps.StreetViewPanoramaFragment.onCreate(Landroid/os/Bundle;)V",
      "targetMethod": "java.lang.ClassLoader.loadClass(Ljava/lang/String;)Ljava/lang/Class;",
      "eventChain": [
        {
          "start": "com.google.android.gms.wallet.fragment.WalletFragment.onResume()V",
          "target": "PC@7",
          "type": "",
          "constraintsFile": "constraints13_0.py",
          "variables": {},
          "stringMap": {},
          "strings": {}
        },
        {
          "start": "com.google.android.gms.maps.StreetViewPanoramaFragment.onCreate(Landroid/os/Bundle;)V",
          "target": "invokevirtual \u003c Application, Ljava/lang/ClassLoader, loadClass(Ljava/lang/String;)Ljava/lang/Class; \u003e@50",
          "type": "",
          "constraintsFile": "constraints13_1.py",
          "variables": {
            "\u003cChainedInput1\u003e": "IAAv2"
          },
          "stringMap": {},
          "strings": {}
        }
      ]
    },
    "14": {
      "startMethod": "com.google.android.gms.maps.StreetViewPanoramaFragment.onCreate(Landroid/os/Bundle;)V",
      "targetMethod": "java.lang.ClassLoader.loadClass(Ljava/lang/String;)Ljava/lang/Class;",
      "eventChain": [
        {
          "start": "com.google.android.gms.maps.StreetViewPanoramaFragment.onCreate(Landroid/os/Bundle;)V",
          "target": "invokevirtual \u003c Application, Ljava/lang/ClassLoader, loadClass(Ljava/lang/String;)Ljava/lang/Class; \u003e@13",
          "type": "",
          "constraintsFile": "constraints14_0.py",
          "variables": {
            "\u003cChainedInput1\u003e": "IAAv2"
          },
          "stringMap": {},
          "strings": {}
        }
      ]
    },
    "15": {
      "startMethod": "com.google.android.gms.maps.StreetViewPanoramaFragment.onAttach(Landroid/app/Activity;)V",
      "targetMethod": "java.lang.ClassLoader.loadClass(Ljava/lang/String;)Ljava/lang/Class;",
      "eventChain": [
        {
          "start": "com.google.android.gms.wallet.fragment.WalletFragment.onResume()V",
          "target": "",
          "type": "",
          "constraintsFile": "constraints15_0.py",
          "variables": {},
          "stringMap": {},
          "strings": {}
        },
        {
          "start": "com.google.android.gms.maps.StreetViewPanoramaFragment.onAttach(Landroid/app/Activity;)V",
          "target": "invokevirtual \u003c Application, Ljava/lang/ClassLoader, loadClass(Ljava/lang/String;)Ljava/lang/Class; \u003e@13",
          "type": "",
          "constraintsFile": "constraints15_1.py",
          "variables": {},
          "stringMap": {},
          "strings": {}
        }
      ]
    },
    "16": {
      "startMethod": "com.jirbo.adcolony.AdColonyBrowser.onCreate(Landroid/os/Bundle;)V",
      "targetMethod": "java.lang.reflect.Method.invoke(Ljava/lang/Object;[Ljava/lang/Object;)Ljava/lang/Object;",
      "eventChain": [
        {
          "start": "com.jirbo.adcolony.AdColonyBrowser.onCreate(Landroid/os/Bundle;)V",
          "target": "invokevirtual \u003c Application, Ljava/lang/reflect/Method, invoke(Ljava/lang/Object;[Ljava/lang/Object;)Ljava/lang/Object; \u003e@191",
          "type": "activity",
          "component": "com.jirbo.adcolony.AdColonyBrowser",
          "constraintsFile": "constraints16_0.py",
          "variables": {},
          "stringMap": {},
          "strings": {}
        }
      ]
    },
    "17": {
      "startMethod": "com.google.android.gms.maps.MapFragment.onCreate(Landroid/os/Bundle;)V",
      "targetMethod": "java.lang.ClassLoader.loadClass(Ljava/lang/String;)Ljava/lang/Class;",
      "eventChain": [
        {
          "start": "com.google.android.gms.maps.MapFragment.onCreate(Landroid/os/Bundle;)V",
          "target": "invokevirtual \u003c Application, Ljava/lang/ClassLoader, loadClass(Ljava/lang/String;)Ljava/lang/Class; \u003e@13",
          "type": "",
          "constraintsFile": "constraints17_0.py",
          "variables": {
            "\u003cChainedInput1\u003e": "IAAv2"
          },
          "stringMap": {},
          "strings": {}
        }
      ]
    },
    "18": {
      "startMethod": "com.google.android.gms.maps.MapFragment.onCreate(Landroid/os/Bundle;)V",
      "targetMethod": "java.lang.ClassLoader.loadClass(Ljava/lang/String;)Ljava/lang/Class;",
      "eventChain": [
        {
          "start": "com.google.android.gms.wallet.fragment.WalletFragment.onResume()V",
          "target": "PC@7",
          "type": "",
          "constraintsFile": "constraints18_0.py",
          "variables": {},
          "stringMap": {},
          "strings": {}
        },
        {
          "start": "com.google.android.gms.maps.MapFragment.onCreate(Landroid/os/Bundle;)V",
          "target": "invokevirtual \u003c Application, Ljava/lang/ClassLoader, loadClass(Ljava/lang/String;)Ljava/lang/Class; \u003e@50",
          "type": "",
          "constraintsFile": "constraints18_1.py",
          "variables": {
            "\u003cChainedInput1\u003e": "IAAv2"
          },
          "stringMap": {},
          "strings": {}
        }
      ]
    },
    "19": {
      "startMethod": "com.google.android.gms.wallet.fragment.WalletFragment.onCreate(Landroid/os/Bundle;)V",
      "targetMethod": "java.lang.ClassLoader.loadClass(Ljava/lang/String;)Ljava/lang/Class;",
      "eventChain": [
        {
          "start": "com.google.android.gms.wallet.fragment.WalletFragment.onCreate(Landroid/os/Bundle;)V",
          "target": "PC@94",
          "type": "",
          "constraintsFile": "constraints19_0.py",
          "variables": {
            "\u003cChainedInput1\u003e": "IAAv0",
            "\u003cChainedInput1\u003e.containsKey()": "IAAv5",
            "\u003cChainedInput1\u003e.getParcelable()": "IAAv1",
            "\u003cInput1\u003e.getParcelable()": "IAAv15",
            "\u003cChainedInput1\u003e.setClassLoader().aah": "IAAv14"
          },
          "stringMap": {},
          "strings": {}
        },
        {
          "start": "com.google.android.gms.wallet.fragment.WalletFragment.onCreate(Landroid/os/Bundle;)V",
          "target": "PC@122",
          "type": "",
          "constraintsFile": "constraints19_1.py",
          "variables": {
            "\u003cChainedInput1\u003e": "IAAv0",
            "\u003cChainedInput1\u003e.containsKey()": "IAAv5",
            "\u003cChainedInput1\u003e.getParcelable()": "IAAv1",
            "\u003cInput1\u003e.getParcelable()": "IAAv15",
            "\u003cChainedInput1\u003e.setClassLoader().aah": "IAAv14"
          },
          "stringMap": {},
          "strings": {}
        },
        {
          "start": "com.google.android.gms.wallet.fragment.WalletFragment.onCreate(Landroid/os/Bundle;)V",
          "target": "PC@66",
          "type": "",
          "constraintsFile": "constraints19_2.py",
          "variables": {
            "\u003cChainedInput1\u003e": "IAAv0",
            "\u003cChainedInput1\u003e.containsKey()": "IAAv5",
            "\u003cChainedInput1\u003e.getParcelable()": "IAAv1",
            "\u003cInput1\u003e.getParcelable()": "IAAv15",
            "\u003cChainedInput1\u003e.setClassLoader().aah": "IAAv14"
          },
          "stringMap": {},
          "strings": {}
        },
        {
          "start": "com.google.android.gms.wallet.fragment.WalletFragment.onCreate(Landroid/os/Bundle;)V",
          "target": "invokevirtual \u003c Application, Ljava/lang/ClassLoader, loadClass(Ljava/lang/String;)Ljava/lang/Class; \u003e@13",
          "type": "",
          "constraintsFile": "constraints19_3.py",
          "variables": {
            "\u003cChainedInput1\u003e": "IAAv0",
            "\u003cChainedInput1\u003e.containsKey()": "IAAv5",
            "\u003cChainedInput1\u003e.getParcelable()": "IAAv1",
            "\u003cChainedInput1\u003e.setClassLoader().aah": "IAAv14"
          },
          "stringMap": {},
          "strings": {}
        }
      ]
    },
    "20": {
      "startMethod": "com.google.android.gms.wallet.fragment.WalletFragment.onCreate(Landroid/os/Bundle;)V",
      "targetMethod": "java.lang.ClassLoader.loadClass(Ljava/lang/String;)Ljava/lang/Class;",
      "eventChain": [
        {
          "start": "com.google.android.gms.wallet.fragment.WalletFragment.onCreate(Landroid/os/Bundle;)V",
          "target": "PC@94",
          "type": "",
          "constraintsFile": "constraints20_0.py",
          "variables": {
            "\u003cChainedInput1\u003e": "IAAv0",
            "\u003cChainedInput1\u003e.containsKey()": "IAAv5",
            "\u003cChainedInput1\u003e.getParcelable()": "IAAv1",
            "\u003cInput1\u003e.getParcelable()": "IAAv17"
          },
          "stringMap": {},
          "strings": {}
        },
        {
          "start": "com.google.android.gms.wallet.fragment.WalletFragment.onCreate(Landroid/os/Bundle;)V",
          "target": "PC@122",
          "type": "",
          "constraintsFile": "constraints20_1.py",
          "variables": {
            "\u003cChainedInput1\u003e": "IAAv0",
            "\u003cChainedInput1\u003e.containsKey()": "IAAv5",
            "\u003cChainedInput1\u003e.getParcelable()": "IAAv1",
            "\u003cInput1\u003e.getParcelable()": "IAAv17"
          },
          "stringMap": {},
          "strings": {}
        },
        {
          "start": "com.google.android.gms.wallet.fragment.WalletFragment.onResume()V",
          "target": "PC@7",
          "type": "",
          "constraintsFile": "constraints20_2.py",
          "variables": {},
          "stringMap": {},
          "strings": {}
        },
        {
          "start": "com.google.android.gms.wallet.fragment.WalletFragment.onCreate(Landroid/os/Bundle;)V",
          "target": "PC@66",
          "type": "",
          "constraintsFile": "constraints20_3.py",
          "variables": {
            "\u003cChainedInput1\u003e": "IAAv0",
            "\u003cChainedInput1\u003e.containsKey()": "IAAv5",
            "\u003cChainedInput1\u003e.getParcelable()": "IAAv1",
            "\u003cInput1\u003e.getParcelable()": "IAAv17"
          },
          "stringMap": {},
          "strings": {}
        },
        {
          "start": "com.google.android.gms.wallet.fragment.WalletFragment.onCreate(Landroid/os/Bundle;)V",
          "target": "invokevirtual \u003c Application, Ljava/lang/ClassLoader, loadClass(Ljava/lang/String;)Ljava/lang/Class; \u003e@50",
          "type": "",
          "constraintsFile": "constraints20_4.py",
          "variables": {
            "\u003cChainedInput1\u003e": "IAAv0",
            "\u003cChainedInput1\u003e.containsKey()": "IAAv5",
            "\u003cChainedInput1\u003e.getParcelable()": "IAAv1"
          },
          "stringMap": {},
          "strings": {}
        }
      ]
    },
    "21": {
      "startMethod": "com.smaato.soma.interstitial.InterstitialActivity.onDestroy()V",
      "targetMethod": "java.net.URL.openConnection()Ljava/net/URLConnection;",
      "eventChain": [
        {
          "start": "com.smaato.soma.interstitial.InterstitialActivity.onDestroy()V",
          "target": "invokevirtual \u003c Application, Ljava/net/URL, openConnection()Ljava/net/URLConnection; \u003e@171",
          "type": "activity",
          "component": "com.smaato.soma.interstitial.InterstitialActivity"
        }
      ]
    },
    "22": {
      "startMethod": "com.smaato.soma.interstitial.InterstitialActivity.onDestroy()V",
      "targetMethod": "java.net.URL.openConnection()Ljava/net/URLConnection;",
      "eventChain": [
        {
          "start": "com.smaato.soma.interstitial.InterstitialActivity.onDestroy()V",
          "target": "invokevirtual \u003c Application, Ljava/net/URL, openConnection()Ljava/net/URLConnection; \u003e@26",
          "type": "activity",
          "component": "com.smaato.soma.interstitial.InterstitialActivity"
        }
      ]
    },
    "23": {
      "startMethod": "com.google.android.gms.wallet.fragment.WalletFragment.onCreateView(Landroid/view/LayoutInflater;Landroid/view/ViewGroup;Landroid/os/Bundle;)Landroid/view/View;",
      "targetMethod": "java.lang.ClassLoader.loadClass(Ljava/lang/String;)Ljava/lang/Class;",
      "eventChain": [
        {
          "start": "com.google.android.gms.wallet.fragment.WalletFragment.onCreateView(Landroid/view/LayoutInflater;Landroid/view/ViewGroup;Landroid/os/Bundle;)Landroid/view/View;",
          "target": "invokevirtual \u003c Application, Ljava/lang/ClassLoader, loadClass(Ljava/lang/String;)Ljava/lang/Class; \u003e@13",
          "type": "",
          "constraintsFile": "constraints23_0.py",
          "variables": {
            "\u003cChainedInput3\u003e": "IAAv2"
          },
          "stringMap": {},
          "strings": {}
        }
      ]
    },
    "24": {
      "startMethod": "com.google.android.gms.wallet.fragment.WalletFragment.onCreateView(Landroid/view/LayoutInflater;Landroid/view/ViewGroup;Landroid/os/Bundle;)Landroid/view/View;",
      "targetMethod": "java.lang.ClassLoader.loadClass(Ljava/lang/String;)Ljava/lang/Class;",
      "eventChain": [
        {
          "start": "com.google.android.gms.wallet.fragment.WalletFragment.onResume()V",
          "target": "PC@7",
          "type": "",
          "constraintsFile": "constraints24_0.py",
          "variables": {},
          "stringMap": {},
          "strings": {}
        },
        {
          "start": "com.google.android.gms.wallet.fragment.WalletFragment.onCreateView(Landroid/view/LayoutInflater;Landroid/view/ViewGroup;Landroid/os/Bundle;)Landroid/view/View;",
          "target": "invokevirtual \u003c Application, Ljava/lang/ClassLoader, loadClass(Ljava/lang/String;)Ljava/lang/Class; \u003e@50",
          "type": "",
          "constraintsFile": "constraints24_1.py",
          "variables": {
            "\u003cChainedInput3\u003e": "IAAv2"
          },
          "stringMap": {},
          "strings": {}
        }
      ]
    },
    "25": {
      "startMethod": "com.smaato.soma.interstitial.InterstitialActivity.onCreate(Landroid/os/Bundle;)V",
      "targetMethod": "java.net.URL.openConnection()Ljava/net/URLConnection;",
      "eventChain": [
        {
          "start": "com.smaato.soma.interstitial.InterstitialActivity.onCreate(Landroid/os/Bundle;)V",
          "target": "invokevirtual \u003c Application, Ljava/net/URL, openConnection()Ljava/net/URLConnection; \u003e@26",
          "type": "activity",
          "component": "com.smaato.soma.interstitial.InterstitialActivity"
        }
      ]
    },
    "26": {
      "startMethod": "com.smaato.soma.interstitial.InterstitialActivity.onCreate(Landroid/os/Bundle;)V",
      "targetMethod": "java.net.URL.openConnection()Ljava/net/URLConnection;",
      "eventChain": [
        {
          "start": "com.smaato.soma.interstitial.InterstitialActivity.onCreate(Landroid/os/Bundle;)V",
          "target": "invokevirtual \u003c Application, Ljava/net/URL, openConnection()Ljava/net/URLConnection; \u003e@171",
          "type": "activity",
          "component": "com.smaato.soma.interstitial.InterstitialActivity"
        }
      ]
    },
    "27": {
      "startMethod": "com.google.android.gms.wallet.fragment.WalletFragment.onStart()V",
      "targetMethod": "java.lang.ClassLoader.loadClass(Ljava/lang/String;)Ljava/lang/Class;",
      "eventChain": [
        {
          "start": "com.google.android.gms.wallet.fragment.WalletFragment.onResume()V",
          "target": "PC@7",
          "type": "",
          "constraintsFile": "constraints27_0.py",
          "variables": {},
          "stringMap": {},
          "strings": {}
        },
        {
          "start": "com.google.android.gms.wallet.fragment.WalletFragment.onStart()V",
          "target": "invokevirtual \u003c Application, Ljava/lang/ClassLoader, loadClass(Ljava/lang/String;)Ljava/lang/Class; \u003e@50",
          "type": "",
          "constraintsFile": "constraints27_1.py",
          "variables": {},
          "stringMap": {},
          "strings": {}
        }
      ]
    },
    "28": {
      "startMethod": "com.google.android.gms.wallet.fragment.WalletFragment.onStart()V",
      "targetMethod": "java.lang.ClassLoader.loadClass(Ljava/lang/String;)Ljava/lang/Class;",
      "eventChain": [
        {
          "start": "com.google.android.gms.wallet.fragment.WalletFragment.onStart()V",
          "target": "invokevirtual \u003c Application, Ljava/lang/ClassLoader, loadClass(Ljava/lang/String;)Ljava/lang/Class; \u003e@13",
          "type": "",
          "constraintsFile": "constraints28_0.py",
          "variables": {},
          "stringMap": {},
          "strings": {}
        }
      ]
    },
    "29": {
      "startMethod": "com.google.android.gms.maps.MapFragment.onCreateView(Landroid/view/LayoutInflater;Landroid/view/ViewGroup;Landroid/os/Bundle;)Landroid/view/View;",
      "targetMethod": "java.lang.ClassLoader.loadClass(Ljava/lang/String;)Ljava/lang/Class;",
      "eventChain": [
        {
          "start": "com.google.android.gms.maps.MapFragment.onCreateView(Landroid/view/LayoutInflater;Landroid/view/ViewGroup;Landroid/os/Bundle;)Landroid/view/View;",
          "target": "invokevirtual \u003c Application, Ljava/lang/ClassLoader, loadClass(Ljava/lang/String;)Ljava/lang/Class; \u003e@13",
          "type": "",
          "constraintsFile": "constraints29_0.py",
          "variables": {
            "\u003cChainedInput3\u003e": "IAAv2"
          },
          "stringMap": {},
          "strings": {}
        }
      ]
    },
    "30": {
      "startMethod": "com.google.android.gms.maps.MapFragment.onCreateView(Landroid/view/LayoutInflater;Landroid/view/ViewGroup;Landroid/os/Bundle;)Landroid/view/View;",
      "targetMethod": "java.lang.ClassLoader.loadClass(Ljava/lang/String;)Ljava/lang/Class;",
      "eventChain": [
        {
          "start": "com.google.android.gms.wallet.fragment.WalletFragment.onResume()V",
          "target": "PC@7",
          "type": "",
          "constraintsFile": "constraints30_0.py",
          "variables": {},
          "stringMap": {},
          "strings": {}
        },
        {
          "start": "com.google.android.gms.maps.MapFragment.onCreateView(Landroid/view/LayoutInflater;Landroid/view/ViewGroup;Landroid/os/Bundle;)Landroid/view/View;",
          "target": "invokevirtual \u003c Application, Ljava/lang/ClassLoader, loadClass(Ljava/lang/String;)Ljava/lang/Class; \u003e@50",
          "type": "",
          "constraintsFile": "constraints30_1.py",
          "variables": {
            "\u003cChainedInput3\u003e": "IAAv2"
          },
          "stringMap": {},
          "strings": {}
        }
      ]
    },
    "31": {
      "startMethod": "com.startapp.android.publish.list3d.List3DActivity$2.onItemClick(Landroid/widget/AdapterView;Landroid/view/View;IJ)V",
      "targetMethod": "java.net.URL.openConnection()Ljava/net/URLConnection;",
      "eventChain": [
        {
          "start": "com.startapp.android.publish.list3d.List3DActivity.onCreate(Landroid/os/Bundle;)V",
          "target": "invokevirtual \u003c Application, Lcom/startapp/android/publish/list3d/c, setOnItemClickListener(Landroid/widget/AdapterView$OnItemClickListener;)V \u003e@357",
          "type": "activity",
          "component": "com.startapp.android.publish.list3d.List3DActivity",
          "constraintsFile": "constraints31_0.py",
          "variables": {},
          "stringMap": {},
          "strings": {}
        },
        {
          "start": "com.startapp.android.publish.list3d.List3DActivity$2.onItemClick(Landroid/widget/AdapterView;Landroid/view/View;IJ)V",
          "target": "invokevirtual \u003c Application, Ljava/net/URL, openConnection()Ljava/net/URLConnection; \u003e@19",
          "type": "ui",
          "activities": [
            "com.gallery.HomeActivity"
          ],
          "listener": "com.startapp.android.publish.list3d.List3DActivity$2",
          "listenerMethod": "onItemClick",
          "uiType": "onItemClick",
          "constraintsFile": "constraints31_1.py",
          "variables": {},
          "stringMap": {},
          "strings": {
            "IAAv0": ""
          }
        }
      ]
    },
    "32": {
      "startMethod": "com.smaato.soma.interstitial.InterstitialActivity.onKeyDown(ILandroid/view/KeyEvent;)Z",
      "targetMethod": "java.net.URL.openConnection()Ljava/net/URLConnection;",
      "eventChain": [
        {
          "start": "com.smaato.soma.interstitial.InterstitialActivity.onKeyDown(ILandroid/view/KeyEvent;)Z",
          "target": "invokevirtual \u003c Application, Ljava/net/URL, openConnection()Ljava/net/URLConnection; \u003e@171",
          "type": "ui",
          "activities": [
            "com.gallery.HomeActivity"
          ],
          "listener": "com.smaato.soma.interstitial.InterstitialActivity",
          "listenerMethod": "onKeyDown",
          "uiType": "onKeyDown"
        }
      ]
    },
    "33": {
      "startMethod": "com.smaato.soma.interstitial.InterstitialActivity.onKeyDown(ILandroid/view/KeyEvent;)Z",
      "targetMethod": "java.net.URL.openConnection()Ljava/net/URLConnection;",
      "eventChain": [
        {
          "start": "com.smaato.soma.interstitial.InterstitialActivity.onKeyDown(ILandroid/view/KeyEvent;)Z",
          "target": "invokevirtual \u003c Application, Ljava/net/URL, openConnection()Ljava/net/URLConnection; \u003e@26",
          "type": "ui",
          "activities": [
            "com.gallery.HomeActivity"
          ],
          "listener": "com.smaato.soma.interstitial.InterstitialActivity",
          "listenerMethod": "onKeyDown",
          "uiType": "onKeyDown"
        }
      ]
    },
    "34": {
      "startMethod": "com.smaato.soma.internal.connector.OrmmaBridge$11$1$2.onClick(Landroid/content/DialogInterface;I)V",
      "targetMethod": "java.net.URL.openConnection()Ljava/net/URLConnection;",
      "eventChain": [
        {
          "start": "com.smaato.soma.internal.connector.OrmmaBridge$11$1$2.onClick(Landroid/content/DialogInterface;I)V",
          "target": "invokevirtual \u003c Application, Ljava/net/URL, openConnection()Ljava/net/URLConnection; \u003e@171",
          "type": "ui",
          "activities": [
            "com.gallery.HomeActivity"
          ],
          "listener": "com.smaato.soma.internal.connector.OrmmaBridge$11$1$2",
          "listenerMethod": "onClick",
          "uiType": "onClick",
          "inDialog": "true"
        }
      ]
    },
    "35": {
      "startMethod": "com.smaato.soma.internal.connector.OrmmaBridge$11$1$2.onClick(Landroid/content/DialogInterface;I)V",
      "targetMethod": "java.net.URL.openConnection()Ljava/net/URLConnection;",
      "eventChain": [
        {
          "start": "com.smaato.soma.internal.connector.OrmmaBridge$11$1$2.onClick(Landroid/content/DialogInterface;I)V",
          "target": "invokevirtual \u003c Application, Ljava/net/URL, openConnection()Ljava/net/URLConnection; \u003e@26",
          "type": "ui",
          "activities": [
            "com.gallery.HomeActivity"
          ],
          "listener": "com.smaato.soma.internal.connector.OrmmaBridge$11$1$2",
          "listenerMethod": "onClick",
          "uiType": "onClick",
          "inDialog": "true"
        }
      ]
    },
    "36": {
      "startMethod": "com.gallery.ImagePagerActivity$6.onClick(Landroid/content/DialogInterface;I)V",
      "targetMethod": "java.net.URL.openConnection()Ljava/net/URLConnection;",
      "eventChain": [
        {
          "start": "com.gallery.ImagePagerActivity$2.onClick(Landroid/view/View;)V",
          "target": "invokevirtual \u003c Application, Landroid/app/AlertDialog$Builder, setNegativeButton(ILandroid/content/DialogInterface$OnClickListener;)Landroid/app/AlertDialog$Builder; \u003e@80",
          "type": "ui",
          "activities": [
            "com.gallery.ImagePagerActivity"
          ],
          "listener": "com.gallery.ImagePagerActivity$2",
          "listenerMethod": "onClick",
          "uiType": "onClick",
          "constraintsFile": "constraints36_0.py",
          "variables": {
            "\u003cInput1\u003e.setBackgroundResource().mikleModule.isVideoAvailable()": "IAAv0"
          },
          "stringMap": {},
          "strings": {}
        },
        {
          "start": "com.gallery.ImagePagerActivity$6.onClick(Landroid/content/DialogInterface;I)V",
          "target": "invokevirtual \u003c Application, Ljava/net/URL, openConnection()Ljava/net/URLConnection; \u003e@21",
          "type": "ui",
          "activities": [
            "com.gallery.HomeActivity"
          ],
          "listener": "com.gallery.ImagePagerActivity$6",
          "listenerMethod": "onClick",
          "uiType": "onClick",
          "inDialog": "true",
          "constraintsFile": "constraints36_1.py",
          "variables": {},
          "stringMap": {},
          "strings": {}
        }
      ]
    },
    "37": {
      "startMethod": "com.smaato.soma.AlertBanner$AdListenerImpl$2.onClick(Landroid/content/DialogInterface;I)V",
      "targetMethod": "java.net.URL.openConnection()Ljava/net/URLConnection;",
      "eventChain": [
        {
          "start": "com.smaato.soma.AlertBanner$AdListenerImpl$2.onClick(Landroid/content/DialogInterface;I)V",
          "target": "invokevirtual \u003c Application, Ljava/net/URL, openConnection()Ljava/net/URLConnection; \u003e@171",
          "type": "ui",
          "activities": [
            "com.gallery.HomeActivity"
          ],
          "listener": "com.smaato.soma.AlertBanner$AdListenerImpl$2",
          "listenerMethod": "onClick",
          "uiType": "onClick",
          "inDialog": "true"
        }
      ]
    },
    "38": {
      "startMethod": "com.smaato.soma.AlertBanner$AdListenerImpl$2.onClick(Landroid/content/DialogInterface;I)V",
      "targetMethod": "java.net.URL.openConnection()Ljava/net/URLConnection;",
      "eventChain": [
        {
          "start": "com.smaato.soma.AlertBanner$AdListenerImpl$2.onClick(Landroid/content/DialogInterface;I)V",
          "target": "invokevirtual \u003c Application, Ljava/net/URL, openConnection()Ljava/net/URLConnection; \u003e@26",
          "type": "ui",
          "activities": [
            "com.gallery.HomeActivity"
          ],
          "listener": "com.smaato.soma.AlertBanner$AdListenerImpl$2",
          "listenerMethod": "onClick",
          "uiType": "onClick",
          "inDialog": "true"
        }
      ]
    },
    "39": {
      "startMethod": "com.smaato.soma.FullScreenBanner$FullScreenView$2.onClick(Landroid/content/DialogInterface;I)V",
      "targetMethod": "java.net.URL.openConnection()Ljava/net/URLConnection;",
      "eventChain": [
        {
          "start": "com.smaato.soma.FullScreenBanner$FullScreenView$2.onClick(Landroid/content/DialogInterface;I)V",
          "target": "invokevirtual \u003c Application, Ljava/net/URL, openConnection()Ljava/net/URLConnection; \u003e@171",
          "type": "ui",
          "activities": [
            "com.gallery.HomeActivity"
          ],
          "listener": "com.smaato.soma.FullScreenBanner$FullScreenView$2",
          "listenerMethod": "onClick",
          "uiType": "onClick",
          "inDialog": "true"
        }
      ]
    },
    "40": {
      "startMethod": "com.smaato.soma.FullScreenBanner$FullScreenView$2.onClick(Landroid/content/DialogInterface;I)V",
      "targetMethod": "java.net.URL.openConnection()Ljava/net/URLConnection;",
      "eventChain": [
        {
          "start": "com.smaato.soma.FullScreenBanner$FullScreenView$2.onClick(Landroid/content/DialogInterface;I)V",
          "target": "invokevirtual \u003c Application, Ljava/net/URL, openConnection()Ljava/net/URLConnection; \u003e@26",
          "type": "ui",
          "activities": [
            "com.gallery.HomeActivity"
          ],
          "listener": "com.smaato.soma.FullScreenBanner$FullScreenView$2",
          "listenerMethod": "onClick",
          "uiType": "onClick",
          "inDialog": "true"
        }
      ]
    },
    "41": {
      "startMethod": "com.gallery.ImagePagerActivity$4.onClick(Landroid/content/DialogInterface;I)V",
      "targetMethod": "java.net.URL.openConnection()Ljava/net/URLConnection;",
      "eventChain": [
        {
          "start": "com.gallery.ImagePagerActivity$1.onClick(Landroid/view/View;)V",
          "target": "invokevirtual \u003c Application, Landroid/app/AlertDialog$Builder, setNegativeButton(ILandroid/content/DialogInterface$OnClickListener;)Landroid/app/AlertDialog$Builder; \u003e@80",
          "type": "ui",
          "activities": [
            "com.gallery.ImagePagerActivity"
          ],
          "listener": "com.gallery.ImagePagerActivity$1",
          "listenerMethod": "onClick",
          "uiType": "onClick",
          "constraintsFile": "constraints41_0.py",
          "variables": {
            "\u003cInput1\u003e.setBackgroundResource().mikleModule.isVideoAvailable()": "IAAv0"
          },
          "stringMap": {},
          "strings": {}
        },
        {
          "start": "com.gallery.ImagePagerActivity$4.onClick(Landroid/content/DialogInterface;I)V",
          "target": "invokevirtual \u003c Application, Ljava/net/URL, openConnection()Ljava/net/URLConnection; \u003e@21",
          "type": "ui",
          "activities": [
            "com.gallery.HomeActivity"
          ],
          "listener": "com.gallery.ImagePagerActivity$4",
          "listenerMethod": "onClick",
          "uiType": "onClick",
          "inDialog": "true",
          "constraintsFile": "constraints41_1.py",
          "variables": {},
          "stringMap": {},
          "strings": {}
        }
      ]
    },
    "42": {
      "startMethod": "com.smaato.soma.bannerutilities.VideoChrome$VideoSubView$6.onClick(Landroid/view/View;)V",
      "targetMethod": "java.net.URL.openConnection()Ljava/net/URLConnection;",
      "eventChain": [
        {
          "start": "com.smaato.soma.bannerutilities.VideoChrome$VideoSubView$6.onClick(Landroid/view/View;)V",
          "target": "invokevirtual \u003c Application, Ljava/net/URL, openConnection()Ljava/net/URLConnection; \u003e@26",
          "type": "ui",
          "activities": [
            "com.gallery.HomeActivity"
          ],
          "listener": "com.smaato.soma.bannerutilities.VideoChrome$VideoSubView$6",
          "listenerMethod": "onClick",
          "uiType": "onClick"
        }
      ]
    },
    "43": {
      "startMethod": "com.smaato.soma.bannerutilities.VideoChrome$VideoSubView$6.onClick(Landroid/view/View;)V",
      "targetMethod": "java.net.URL.openConnection()Ljava/net/URLConnection;",
      "eventChain": [
        {
          "start": "com.smaato.soma.bannerutilities.VideoChrome$VideoSubView$6.onClick(Landroid/view/View;)V",
          "target": "invokevirtual \u003c Application, Ljava/net/URL, openConnection()Ljava/net/URLConnection; \u003e@171",
          "type": "ui",
          "activities": [
            "com.gallery.HomeActivity"
          ],
          "listener": "com.smaato.soma.bannerutilities.VideoChrome$VideoSubView$6",
          "listenerMethod": "onClick",
          "uiType": "onClick"
        }
      ]
    },
    "44": {
      "startMethod": "com.gallery.ImagePagerActivity$2.onClick(Landroid/view/View;)V",
      "targetMethod": "java.net.URL.openConnection()Ljava/net/URLConnection;",
      "eventChain": [
        {
          "start": "com.gallery.ImagePagerActivity$2.onClick(Landroid/view/View;)V",
          "target": "invokevirtual \u003c Application, Ljava/net/URL, openConnection()Ljava/net/URLConnection; \u003e@21",
          "type": "ui",
          "activities": [
            "com.gallery.ImagePagerActivity"
          ],
          "listener": "com.gallery.ImagePagerActivity$2",
          "listenerMethod": "onClick",
          "uiType": "onClick",
          "constraintsFile": "constraints44_0.py",
          "variables": {
            "\u003cChainedInput1\u003e.setBackgroundResource().mikleModule.isVideoAvailable()": "IAAv0"
          },
          "stringMap": {},
          "strings": {}
        }
      ]
    },
    "45": {
      "startMethod": "com.smaato.soma.bannerutilities.BannerAnimator$4$1$1.onClick(Landroid/view/View;)V",
      "targetMethod": "java.net.URL.openConnection()Ljava/net/URLConnection;",
      "eventChain": [
        {
          "start": "com.smaato.soma.interstitial.InterstitialActivity.onDestroy()V",
          "target": "invokevirtual \u003c Application, Lcom/smaato/soma/toaster/CloseButtonView, setOnClickListener(Landroid/view/View$OnClickListener;)V \u003e@94",
          "type": "activity",
          "component": "com.smaato.soma.interstitial.InterstitialActivity"
        },
        {
          "start": "com.smaato.soma.bannerutilities.BannerAnimator$4$1$1.onClick(Landroid/view/View;)V",
          "target": "invokevirtual \u003c Application, Ljava/net/URL, openConnection()Ljava/net/URLConnection; \u003e@171",
          "type": "ui",
          "activities": [
            "com.gallery.HomeActivity"
          ],
          "listener": "com.smaato.soma.bannerutilities.BannerAnimator$4$1$1",
          "listenerMethod": "onClick",
          "uiType": "onClick"
        }
      ]
    },
    "46": {
      "startMethod": "com.smaato.soma.bannerutilities.BannerAnimator$4$1$1.onClick(Landroid/view/View;)V",
      "targetMethod": "java.net.URL.openConnection()Ljava/net/URLConnection;",
      "eventChain": [
        {
          "start": "com.smaato.soma.interstitial.InterstitialActivity.onDestroy()V",
          "target": "invokevirtual \u003c Application, Lcom/smaato/soma/toaster/CloseButtonView, setOnClickListener(Landroid/view/View$OnClickListener;)V \u003e@94",
          "type": "activity",
          "component": "com.smaato.soma.interstitial.InterstitialActivity"
        },
        {
          "start": "com.smaato.soma.bannerutilities.BannerAnimator$4$1$1.onClick(Landroid/view/View;)V",
          "target": "invokevirtual \u003c Application, Ljava/net/URL, openConnection()Ljava/net/URLConnection; \u003e@26",
          "type": "ui",
          "activities": [
            "com.gallery.HomeActivity"
          ],
          "listener": "com.smaato.soma.bannerutilities.BannerAnimator$4$1$1",
          "listenerMethod": "onClick",
          "uiType": "onClick"
        }
      ]
    },
    "47": {
      "startMethod": "com.appnext.appnextsdk.Appnext$28.onClick(Landroid/view/View;)V",
      "targetMethod": "org.apache.http.client.HttpClient.execute(Lorg/apache/http/client/methods/HttpUriRequest;)Lorg/apache/http/HttpResponse;",
      "eventChain": [
        {
          "start": "com.appnext.appnextsdk.Appnext$28.onClick(Landroid/view/View;)V",
          "target": "invokeinterface \u003c Application, Lorg/apache/http/client/HttpClient, execute(Lorg/apache/http/client/methods/HttpUriRequest;)Lorg/apache/http/HttpResponse; \u003e@631",
          "type": "ui",
          "activities": [
            "com.gallery.HomeActivity"
          ],
          "listener": "com.appnext.appnextsdk.Appnext$28",
          "listenerMethod": "onClick",
          "uiType": "onClick",
          "constraintsFile": "constraints47_0.py",
          "variables": {},
          "stringMap": {
            "7000": "com.android.email",
            "7001": "",
            "7002": "com.google"
          },
          "strings": {
            "IAAv4": "",
            "IAAv2": ""
          }
        }
      ]
    },
    "48": {
      "startMethod": "com.appnext.appnextsdk.Appnext$23.onClick(Landroid/view/View;)V",
      "targetMethod": "org.apache.http.client.HttpClient.execute(Lorg/apache/http/client/methods/HttpUriRequest;)Lorg/apache/http/HttpResponse;",
      "eventChain": [
        {
          "start": "com.appnext.appnextsdk.Appnext$23.onClick(Landroid/view/View;)V",
          "target": "invokeinterface \u003c Application, Lorg/apache/http/client/HttpClient, execute(Lorg/apache/http/client/methods/HttpUriRequest;)Lorg/apache/http/HttpResponse; \u003e@631",
          "type": "ui",
          "activities": [
            "com.gallery.HomeActivity"
          ],
          "listener": "com.appnext.appnextsdk.Appnext$23",
          "listenerMethod": "onClick",
          "uiType": "onClick",
          "constraintsFile": "constraints48_0.py",
          "variables": {},
          "stringMap": {
            "7000": "com.android.email",
            "7001": "",
            "7002": "com.google"
          },
          "strings": {
            "IAAv4": "",
            "IAAv2": ""
          }
        }
      ]
    },
    "49": {
      "startMethod": "com.appnext.appnextsdk.Appnext$34.onClick(Landroid/view/View;)V",
      "targetMethod": "org.apache.http.client.HttpClient.execute(Lorg/apache/http/client/methods/HttpUriRequest;)Lorg/apache/http/HttpResponse;",
      "eventChain": [
        {
          "start": "com.appnext.appnextsdk.Appnext$34.\u003cinit\u003e(Lcom/appnext/appnextsdk/Appnext;Ljava/lang/String;Lcom/appnext/appnextsdk/Ad;Landroid/app/Dialog;)V",
          "target": "PC@8",
          "type": "",
          "constraintsFile": "constraints49_0.py",
          "variables": {
            "\u003cInput2\u003e": "IAAv3"
          },
          "stringMap": {
            "7000": "2"
          },
          "strings": {
            "IAAv3": ""
          }
        },
        {
          "start": "com.appnext.appnextsdk.Appnext$34.onClick(Landroid/view/View;)V",
          "target": "invokeinterface \u003c Application, Lorg/apache/http/client/HttpClient, execute(Lorg/apache/http/client/methods/HttpUriRequest;)Lorg/apache/http/HttpResponse; \u003e@233",
          "type": "ui",
          "activities": [
            "com.gallery.HomeActivity"
          ],
          "listener": "com.appnext.appnextsdk.Appnext$34",
          "listenerMethod": "onClick",
          "uiType": "onClick",
          "constraintsFile": "constraints49_1.py",
          "variables": {},
          "stringMap": {
            "7000": "2"
          },
          "strings": {}
        }
      ]
    },
    "50": {
      "startMethod": "com.appnext.appnextsdk.Appnext$34.onClick(Landroid/view/View;)V",
      "targetMethod": "org.apache.http.client.HttpClient.execute(Lorg/apache/http/client/methods/HttpUriRequest;)Lorg/apache/http/HttpResponse;",
      "eventChain": [
        {
          "start": "com.appnext.appnextsdk.Appnext$34.\u003cinit\u003e(Lcom/appnext/appnextsdk/Appnext;Ljava/lang/String;Lcom/appnext/appnextsdk/Ad;Landroid/app/Dialog;)V",
          "target": "PC@8",
          "type": "",
          "constraintsFile": "constraints50_0.py",
          "variables": {
            "\u003cInput2\u003e": "IAAv3"
          },
          "stringMap": {
            "7000": "2"
          },
          "strings": {
            "IAAv3": ""
          }
        },
        {
          "start": "com.appnext.appnextsdk.Appnext$34.onClick(Landroid/view/View;)V",
          "target": "invokeinterface \u003c Application, Lorg/apache/http/client/HttpClient, execute(Lorg/apache/http/client/methods/HttpUriRequest;)Lorg/apache/http/HttpResponse; \u003e@394",
          "type": "ui",
          "activities": [
            "com.gallery.HomeActivity"
          ],
          "listener": "com.appnext.appnextsdk.Appnext$34",
          "listenerMethod": "onClick",
          "uiType": "onClick",
          "constraintsFile": "constraints50_1.py",
          "variables": {},
          "stringMap": {
            "7000": "2"
          },
          "strings": {}
        }
      ]
    },
    "51": {
      "startMethod": "com.smaato.soma.ToasterBanner$3.onClick(Landroid/view/View;)V",
      "targetMethod": "java.net.URL.openConnection()Ljava/net/URLConnection;",
      "eventChain": [
        {
          "start": "com.smaato.soma.ToasterBanner$3.onClick(Landroid/view/View;)V",
          "target": "invokevirtual \u003c Application, Ljava/net/URL, openConnection()Ljava/net/URLConnection; \u003e@171",
          "type": "ui",
          "activities": [
            "com.gallery.HomeActivity"
          ],
          "listener": "com.smaato.soma.ToasterBanner$3",
          "listenerMethod": "onClick",
          "uiType": "onClick"
        }
      ]
    },
    "52": {
      "startMethod": "com.smaato.soma.ToasterBanner$3.onClick(Landroid/view/View;)V",
      "targetMethod": "java.net.URL.openConnection()Ljava/net/URLConnection;",
      "eventChain": [
        {
          "start": "com.smaato.soma.ToasterBanner$3.onClick(Landroid/view/View;)V",
          "target": "invokevirtual \u003c Application, Ljava/net/URL, openConnection()Ljava/net/URLConnection; \u003e@26",
          "type": "ui",
          "activities": [
            "com.gallery.HomeActivity"
          ],
          "listener": "com.smaato.soma.ToasterBanner$3",
          "listenerMethod": "onClick",
          "uiType": "onClick"
        }
      ]
    },
    "53": {
      "startMethod": "com.gallery.ImagePagerActivity$1.onClick(Landroid/view/View;)V",
      "targetMethod": "java.net.URL.openConnection()Ljava/net/URLConnection;",
      "eventChain": [
        {
          "start": "com.gallery.ImagePagerActivity$1.onClick(Landroid/view/View;)V",
          "target": "invokevirtual \u003c Application, Ljava/net/URL, openConnection()Ljava/net/URLConnection; \u003e@21",
          "type": "ui",
          "activities": [
            "com.gallery.ImagePagerActivity"
          ],
          "listener": "com.gallery.ImagePagerActivity$1",
          "listenerMethod": "onClick",
          "uiType": "onClick",
          "constraintsFile": "constraints53_0.py",
          "variables": {
            "\u003cChainedInput1\u003e.setBackgroundResource().mikleModule.isVideoAvailable()": "IAAv0"
          },
          "stringMap": {},
          "strings": {}
        }
      ]
    },
    "54": {
      "startMethod": "com.smaato.soma.interstitial.BaseActivity$2.onClick(Landroid/view/View;)V",
      "targetMethod": "java.net.URL.openConnection()Ljava/net/URLConnection;",
      "eventChain": [
        {
          "start": "com.smaato.soma.interstitial.InterstitialActivity.onDestroy()V",
          "target": "invokevirtual \u003c Application, Lcom/smaato/soma/toaster/CloseButtonView, setOnClickListener(Landroid/view/View$OnClickListener;)V \u003e@36",
          "type": "activity",
          "component": "com.smaato.soma.interstitial.InterstitialActivity"
        },
        {
          "start": "com.smaato.soma.interstitial.BaseActivity$2.onClick(Landroid/view/View;)V",
          "target": "invokevirtual \u003c Application, Ljava/net/URL, openConnection()Ljava/net/URLConnection; \u003e@26",
          "type": "ui",
          "activities": [
            "com.gallery.HomeActivity"
          ],
          "listener": "com.smaato.soma.interstitial.BaseActivity$2",
          "listenerMethod": "onClick",
          "uiType": "onClick"
        }
      ]
    },
    "55": {
      "startMethod": "com.smaato.soma.interstitial.BaseActivity$2.onClick(Landroid/view/View;)V",
      "targetMethod": "java.net.URL.openConnection()Ljava/net/URLConnection;",
      "eventChain": [
        {
          "start": "com.smaato.soma.interstitial.InterstitialActivity.onDestroy()V",
          "target": "invokevirtual \u003c Application, Lcom/smaato/soma/toaster/CloseButtonView, setOnClickListener(Landroid/view/View$OnClickListener;)V \u003e@36",
          "type": "activity",
          "component": "com.smaato.soma.interstitial.InterstitialActivity"
        },
        {
          "start": "com.smaato.soma.interstitial.BaseActivity$2.onClick(Landroid/view/View;)V",
          "target": "invokevirtual \u003c Application, Ljava/net/URL, openConnection()Ljava/net/URLConnection; \u003e@171",
          "type": "ui",
          "activities": [
            "com.gallery.HomeActivity"
          ],
          "listener": "com.smaato.soma.interstitial.BaseActivity$2",
          "listenerMethod": "onClick",
          "uiType": "onClick"
        }
      ]
    },
    "56": {
      "startMethod": "com.lvzoqvqybcxg.ReEngagement.onReceive(Landroid/content/Context;Landroid/content/Intent;)V",
      "targetMethod": "java.lang.reflect.Method.invoke(Ljava/lang/Object;[Ljava/lang/Object;)Ljava/lang/Object;",
      "eventChain": [
        {
          "start": "com.lvzoqvqybcxg.ReEngagement.onReceive(Landroid/content/Context;Landroid/content/Intent;)V",
          "target": "invokevirtual \u003c Application, Ljava/lang/reflect/Method, invoke(Ljava/lang/Object;[Ljava/lang/Object;)Ljava/lang/Object; \u003e@97",
          "type": "sms"
        }
      ]
    },
    "57": {
      "startMethod": "com.smaato.soma.bannerutilities.BannerAnimator$6.onAnimationStart(Landroid/view/animation/Animation;)V",
      "targetMethod": "java.net.URL.openConnection()Ljava/net/URLConnection;",
      "eventChain": [
        {
          "start": "com.smaato.soma.bannerutilities.BannerAnimator$6.onAnimationStart(Landroid/view/animation/Animation;)V",
          "target": "invokevirtual \u003c Application, Ljava/net/URL, openConnection()Ljava/net/URLConnection; \u003e@171",
          "type": "ui",
          "activities": [
            "com.gallery.HomeActivity"
          ],
          "listener": "com.smaato.soma.bannerutilities.BannerAnimator$6",
          "listenerMethod": "onAnimationStart",
          "uiType": "onAnimationStart",
          "constraintsFile": "constraints57_0.py",
          "variables": {},
          "stringMap": {},
          "strings": {}
        }
      ]
    },
    "58": {
      "startMethod": "com.smaato.soma.bannerutilities.BannerAnimator$6.onAnimationStart(Landroid/view/animation/Animation;)V",
      "targetMethod": "java.net.URL.openConnection()Ljava/net/URLConnection;",
      "eventChain": [
        {
          "start": "com.smaato.soma.bannerutilities.BannerAnimator$6.onAnimationStart(Landroid/view/animation/Animation;)V",
          "target": "invokevirtual \u003c Application, Ljava/net/URL, openConnection()Ljava/net/URLConnection; \u003e@26",
          "type": "ui",
          "activities": [
            "com.gallery.HomeActivity"
          ],
          "listener": "com.smaato.soma.bannerutilities.BannerAnimator$6",
          "listenerMethod": "onAnimationStart",
          "uiType": "onAnimationStart",
          "constraintsFile": "constraints58_0.py",
          "variables": {},
          "stringMap": {},
          "strings": {}
        }
      ]
    },
    "59": {
      "startMethod": "com.smaato.soma.bannerutilities.BannerAnimator$6.onAnimationEnd(Landroid/view/animation/Animation;)V",
      "targetMethod": "java.net.URL.openConnection()Ljava/net/URLConnection;",
      "eventChain": [
        {
          "start": "com.smaato.soma.bannerutilities.BannerAnimator$6.onAnimationEnd(Landroid/view/animation/Animation;)V",
          "target": "invokevirtual \u003c Application, Ljava/net/URL, openConnection()Ljava/net/URLConnection; \u003e@171",
          "type": "ui",
          "activities": [
            "com.gallery.HomeActivity"
          ],
          "listener": "com.smaato.soma.bannerutilities.BannerAnimator$6",
          "listenerMethod": "onAnimationEnd",
          "uiType": "onAnimationEnd",
          "constraintsFile": "constraints59_0.py",
          "variables": {},
          "stringMap": {},
          "strings": {}
        }
      ]
    },
    "60": {
      "startMethod": "com.smaato.soma.bannerutilities.BannerAnimator$6.onAnimationEnd(Landroid/view/animation/Animation;)V",
      "targetMethod": "java.net.URL.openConnection()Ljava/net/URLConnection;",
      "eventChain": [
        {
          "start": "com.smaato.soma.bannerutilities.BannerAnimator$6.onAnimationEnd(Landroid/view/animation/Animation;)V",
          "target": "invokevirtual \u003c Application, Ljava/net/URL, openConnection()Ljava/net/URLConnection; \u003e@26",
          "type": "ui",
          "activities": [
            "com.gallery.HomeActivity"
          ],
          "listener": "com.smaato.soma.bannerutilities.BannerAnimator$6",
          "listenerMethod": "onAnimationEnd",
          "uiType": "onAnimationEnd",
          "constraintsFile": "constraints60_0.py",
          "variables": {},
          "stringMap": {},
          "strings": {}
        }
      ]
    },
    "61": {
      "startMethod": "com.smaato.soma.bannerutilities.BannerAnimator$4.onAnimationEnd(Landroid/view/animation/Animation;)V",
      "targetMethod": "java.net.URL.openConnection()Ljava/net/URLConnection;",
      "eventChain": [
        {
          "start": "com.smaato.soma.bannerutilities.BannerAnimator$4.onAnimationEnd(Landroid/view/animation/Animation;)V",
          "target": "invokevirtual \u003c Application, Ljava/net/URL, openConnection()Ljava/net/URLConnection; \u003e@26",
          "type": "ui",
          "activities": [
            "com.gallery.HomeActivity"
          ],
          "listener": "com.smaato.soma.bannerutilities.BannerAnimator$4",
          "listenerMethod": "onAnimationEnd",
          "uiType": "onAnimationEnd"
        }
      ]
    },
    "62": {
      "startMethod": "com.smaato.soma.bannerutilities.BannerAnimator$4.onAnimationEnd(Landroid/view/animation/Animation;)V",
      "targetMethod": "java.net.URL.openConnection()Ljava/net/URLConnection;",
      "eventChain": [
        {
          "start": "com.smaato.soma.bannerutilities.BannerAnimator$4.onAnimationEnd(Landroid/view/animation/Animation;)V",
          "target": "invokevirtual \u003c Application, Ljava/net/URL, openConnection()Ljava/net/URLConnection; \u003e@171",
          "type": "ui",
          "activities": [
            "com.gallery.HomeActivity"
          ],
          "listener": "com.smaato.soma.bannerutilities.BannerAnimator$4",
          "listenerMethod": "onAnimationEnd",
          "uiType": "onAnimationEnd"
        }
      ]
    },
    "63": {
      "startMethod": "com.smaato.soma.bannerutilities.VideoChrome$VideoSubView.onCompletion(Landroid/media/MediaPlayer;)V",
      "targetMethod": "java.net.URL.openConnection()Ljava/net/URLConnection;",
      "eventChain": [
        {
          "start": "com.smaato.soma.bannerutilities.VideoChrome$VideoSubView.onCompletion(Landroid/media/MediaPlayer;)V",
          "target": "invokevirtual \u003c Application, Ljava/net/URL, openConnection()Ljava/net/URLConnection; \u003e@26",
          "type": ""
        }
      ]
    },
    "64": {
      "startMethod": "com.smaato.soma.bannerutilities.VideoChrome$VideoSubView.onCompletion(Landroid/media/MediaPlayer;)V",
      "targetMethod": "java.net.URL.openConnection()Ljava/net/URLConnection;",
      "eventChain": [
        {
          "start": "com.smaato.soma.bannerutilities.VideoChrome$VideoSubView.onCompletion(Landroid/media/MediaPlayer;)V",
          "target": "invokevirtual \u003c Application, Ljava/net/URL, openConnection()Ljava/net/URLConnection; \u003e@171",
          "type": ""
        }
      ]
    },
    "65": {
      "startMethod": "com.smaato.soma.internal.VideoPlayerView$7.onCompletion(Landroid/media/MediaPlayer;)V",
      "targetMethod": "java.net.URL.openConnection()Ljava/net/URLConnection;",
      "eventChain": [
        {
          "start": "com.smaato.soma.internal.VideoPlayerView$7.onCompletion(Landroid/media/MediaPlayer;)V",
          "target": "invokevirtual \u003c Application, Ljava/net/URL, openConnection()Ljava/net/URLConnection; \u003e@26",
          "type": ""
        }
      ]
    },
    "66": {
      "startMethod": "com.smaato.soma.internal.VideoPlayerView$7.onCompletion(Landroid/media/MediaPlayer;)V",
      "targetMethod": "java.net.URL.openConnection()Ljava/net/URLConnection;",
      "eventChain": [
        {
          "start": "com.smaato.soma.internal.VideoPlayerView$7.onCompletion(Landroid/media/MediaPlayer;)V",
          "target": "invokevirtual \u003c Application, Ljava/net/URL, openConnection()Ljava/net/URLConnection; \u003e@171",
          "type": ""
        }
      ]
    },
    "67": {
      "startMethod": "com.smaato.soma.bannerutilities.VideoChrome$VideoSubView.onError(Landroid/media/MediaPlayer;II)Z",
      "targetMethod": "java.net.URL.openConnection()Ljava/net/URLConnection;",
      "eventChain": [
        {
          "start": "com.smaato.soma.bannerutilities.VideoChrome$VideoSubView.onError(Landroid/media/MediaPlayer;II)Z",
          "target": "invokevirtual \u003c Application, Ljava/net/URL, openConnection()Ljava/net/URLConnection; \u003e@171",
          "type": ""
        }
      ]
    },
    "68": {
      "startMethod": "com.smaato.soma.bannerutilities.VideoChrome$VideoSubView.onError(Landroid/media/MediaPlayer;II)Z",
      "targetMethod": "java.net.URL.openConnection()Ljava/net/URLConnection;",
      "eventChain": [
        {
          "start": "com.smaato.soma.bannerutilities.VideoChrome$VideoSubView.onError(Landroid/media/MediaPlayer;II)Z",
          "target": "invokevirtual \u003c Application, Ljava/net/URL, openConnection()Ljava/net/URLConnection; \u003e@26",
          "type": ""
        }
      ]
    },
    "69": {
      "startMethod": "com.smaato.soma.AlertBanner$AdListenerImpl$3.onClick(Landroid/content/DialogInterface;I)V",
      "targetMethod": "java.net.URL.openConnection()Ljava/net/URLConnection;",
      "eventChain": [
        {
          "start": "com.smaato.soma.AlertBanner$AdListenerImpl$3.onClick(Landroid/content/DialogInterface;I)V",
          "target": "invokevirtual \u003c Application, Ljava/net/URL, openConnection()Ljava/net/URLConnection; \u003e@26",
          "type": "ui",
          "activities": [
            "com.gallery.HomeActivity"
          ],
          "listener": "com.smaato.soma.AlertBanner$AdListenerImpl$3",
          "listenerMethod": "onClick",
          "uiType": "onClick",
          "inDialog": "true"
        }
      ]
    },
    "70": {
      "startMethod": "com.smaato.soma.AlertBanner$AdListenerImpl$3.onClick(Landroid/content/DialogInterface;I)V",
      "targetMethod": "java.net.URL.openConnection()Ljava/net/URLConnection;",
      "eventChain": [
        {
          "start": "com.smaato.soma.AlertBanner$AdListenerImpl$3.onClick(Landroid/content/DialogInterface;I)V",
          "target": "invokevirtual \u003c Application, Ljava/net/URL, openConnection()Ljava/net/URLConnection; \u003e@171",
          "type": "ui",
          "activities": [
            "com.gallery.HomeActivity"
          ],
          "listener": "com.smaato.soma.AlertBanner$AdListenerImpl$3",
          "listenerMethod": "onClick",
          "uiType": "onClick",
          "inDialog": "true"
        }
      ]
    },
    "71": {
      "startMethod": "com.smaato.soma.internal.connector.OrmmaBridge$11$1$1.onClick(Landroid/content/DialogInterface;I)V",
      "targetMethod": "java.net.URL.openConnection()Ljava/net/URLConnection;",
      "eventChain": [
        {
          "start": "com.smaato.soma.internal.connector.OrmmaBridge$11$1$1.onClick(Landroid/content/DialogInterface;I)V",
          "target": "invokevirtual \u003c Application, Ljava/net/URL, openConnection()Ljava/net/URLConnection; \u003e@171",
          "type": "ui",
          "activities": [
            "com.gallery.HomeActivity"
          ],
          "listener": "com.smaato.soma.internal.connector.OrmmaBridge$11$1$1",
          "listenerMethod": "onClick",
          "uiType": "onClick",
          "inDialog": "true"
        }
      ]
    },
    "72": {
      "startMethod": "com.smaato.soma.internal.connector.OrmmaBridge$11$1$1.onClick(Landroid/content/DialogInterface;I)V",
      "targetMethod": "java.net.URL.openConnection()Ljava/net/URLConnection;",
      "eventChain": [
        {
          "start": "com.smaato.soma.internal.connector.OrmmaBridge$11$1$1.onClick(Landroid/content/DialogInterface;I)V",
          "target": "invokevirtual \u003c Application, Ljava/net/URL, openConnection()Ljava/net/URLConnection; \u003e@26",
          "type": "ui",
          "activities": [
            "com.gallery.HomeActivity"
          ],
          "listener": "com.smaato.soma.internal.connector.OrmmaBridge$11$1$1",
          "listenerMethod": "onClick",
          "uiType": "onClick",
          "inDialog": "true"
        }
      ]
    },
    "73": {
      "startMethod": "com.smaato.soma.FullScreenBanner$FullScreenView$1.onClick(Landroid/content/DialogInterface;I)V",
      "targetMethod": "java.net.URL.openConnection()Ljava/net/URLConnection;",
      "eventChain": [
        {
          "start": "com.smaato.soma.FullScreenBanner$FullScreenView$1.onClick(Landroid/content/DialogInterface;I)V",
          "target": "invokevirtual \u003c Application, Ljava/net/URL, openConnection()Ljava/net/URLConnection; \u003e@171",
          "type": "ui",
          "activities": [
            "com.gallery.HomeActivity"
          ],
          "listener": "com.smaato.soma.FullScreenBanner$FullScreenView$1",
          "listenerMethod": "onClick",
          "uiType": "onClick",
          "inDialog": "true"
        }
      ]
    },
    "74": {
      "startMethod": "com.smaato.soma.FullScreenBanner$FullScreenView$1.onClick(Landroid/content/DialogInterface;I)V",
      "targetMethod": "java.net.URL.openConnection()Ljava/net/URLConnection;",
      "eventChain": [
        {
          "start": "com.smaato.soma.FullScreenBanner$FullScreenView$1.onClick(Landroid/content/DialogInterface;I)V",
          "target": "invokevirtual \u003c Application, Ljava/net/URL, openConnection()Ljava/net/URLConnection; \u003e@26",
          "type": "ui",
          "activities": [
            "com.gallery.HomeActivity"
          ],
          "listener": "com.smaato.soma.FullScreenBanner$FullScreenView$1",
          "listenerMethod": "onClick",
          "uiType": "onClick",
          "inDialog": "true"
        }
      ]
    }
  }
}