{
  "packageName": "kr.i77_cu_221",
  "mainActivity": "kr.i77_cu_221.splash",
  "callPaths": {
    "0": {
      "startMethod": "kr.i77_cu_221.main$7.onClick(Landroid/content/DialogInterface;I)V",
      "targetMethod": "java.net.URL.openConnection()Ljava/net/URLConnection;",
      "eventChain": [
        {
          "start": "kr.i77_cu_221.main$3.onLongClick(Landroid/view/View;)Z",
          "target": "invokevirtual \u003c Application, Landroid/app/AlertDialog$Builder, setItems([Ljava/lang/CharSequence;Landroid/content/DialogInterface$OnClickListener;)Landroid/app/AlertDialog$Builder; \u003e@95",
          "type": "ui",
          "activities": [
            "kr.i77_cu_221.main"
          ],
          "listener": "kr.i77_cu_221.main$3",
          "listenerMethod": "onLongClick",
          "uiType": "onLongClick",
          "constraintsFile": "constraints0_0.py",
          "variables": {
            "\u003cInput1\u003e.getHitTestResult().getType()": "IAAv0"
          },
          "stringMap": {},
          "strings": {}
        },
        {
          "start": "kr.i77_cu_221.main$7.onClick(Landroid/content/DialogInterface;I)V",
          "target": "invokevirtual \u003c Application, Ljava/net/URL, openConnection()Ljava/net/URLConnection; \u003e@24",
          "type": "ui",
          "activities": [
            "kr.i77_cu_221.splash"
          ],
          "listener": "kr.i77_cu_221.main$7",
          "listenerMethod": "onClick",
          "uiType": "onClick",
          "inDialog": "true",
          "constraintsFile": "constraints0_1.py",
          "variables": {
            "\u003cInput2\u003e": "IAAv0"
          },
          "stringMap": {},
          "strings": {}
        }
      ]
    }
  }
}