{
  "packageName": "com.tttttfdfdsrrd",
  "mainActivity": "com.tttttfdfdsrrd.MainActivity",
  "callPaths": {
    "0": {
      "startMethod": "com.lbcbp.bcp.LCReceiver.onReceive(Landroid/content/Context;Landroid/content/Intent;)V",
      "targetMethod": "org.apache.http.client.HttpClient.execute(Lorg/apache/http/client/methods/HttpUriRequest;)Lorg/apache/http/HttpResponse;",
      "eventChain": [
        {
          "start": "com.lbcbp.bcp.LCReceiver.onReceive(Landroid/content/Context;Landroid/content/Intent;)V",
          "target": "PC@71",
          "type": "sms",
          "constraintsFile": "constraints0_0.py",
          "variables": {
            "System.currentTimeMillis()": "IAAv3",
            "\u003cChainedInput2\u003e.getAction()": "IAAv0",
            "\u003cChainedInput1\u003e.getSystemService().getActiveNetworkInfo()": "IAAv5",
            "\u003cSystemPrevTime\u003e": "IAAv4",
            "\u003cChainedInput1\u003e.getSystemService().getActiveNetworkInfo().a().b": "IAAv6"
          },
          "stringMap": {
            "7000": "android.intent.action.PACKAGE_ADDED",
            "7001": "android.net.conn.CONNECTIVITY_CHANGE"
          },
          "strings": {
            "IAAv0": ""
          }
        },
        {
          "start": "com.lbcbp.bcp.LCReceiver.onReceive(Landroid/content/Context;Landroid/content/Intent;)V",
          "target": "PC@12",
          "type": "sms",
          "constraintsFile": "constraints0_1.py",
          "variables": {
            "System.currentTimeMillis()": "IAAv3",
            "\u003cChainedInput2\u003e.getAction()": "IAAv0",
            "\u003cChainedInput1\u003e.getSystemService().getActiveNetworkInfo()": "IAAv5",
            "\u003cSystemPrevTime\u003e": "IAAv4",
            "\u003cChainedInput1\u003e.getSystemService().getActiveNetworkInfo().a().b": "IAAv6"
          },
          "stringMap": {
            "7000": "android.intent.action.PACKAGE_ADDED",
            "7001": "android.net.conn.CONNECTIVITY_CHANGE"
          },
          "strings": {
            "IAAv0": ""
          }
        },
        {
          "start": "com.lbcbp.bcp.LCReceiver.onReceive(Landroid/content/Context;Landroid/content/Intent;)V",
          "target": "PC@3",
          "type": "sms",
          "constraintsFile": "constraints0_2.py",
          "variables": {
            "System.currentTimeMillis()": "IAAv3",
            "\u003cChainedInput2\u003e.getAction()": "IAAv0",
            "\u003cChainedInput1\u003e.getSystemService().getActiveNetworkInfo()": "IAAv5",
            "\u003cSystemPrevTime\u003e": "IAAv4",
            "\u003cChainedInput1\u003e.getSystemService().getActiveNetworkInfo().a().b": "IAAv6"
          },
          "stringMap": {
            "7000": "android.intent.action.PACKAGE_ADDED",
            "7001": "android.net.conn.CONNECTIVITY_CHANGE"
          },
          "strings": {
            "IAAv0": ""
          }
        },
        {
          "start": "com.lbcbp.bcp.LCReceiver.onReceive(Landroid/content/Context;Landroid/content/Intent;)V",
          "target": "PC@9",
          "type": "sms",
          "constraintsFile": "constraints0_3.py",
          "variables": {
            "System.currentTimeMillis()": "IAAv3",
            "\u003cChainedInput2\u003e.getAction()": "IAAv0",
            "\u003cChainedInput1\u003e.getSystemService().getActiveNetworkInfo()": "IAAv5",
            "\u003cSystemPrevTime\u003e": "IAAv4",
            "\u003cChainedInput1\u003e.getSystemService().getActiveNetworkInfo().a().b": "IAAv6"
          },
          "stringMap": {
            "7000": "android.intent.action.PACKAGE_ADDED",
            "7001": "android.net.conn.CONNECTIVITY_CHANGE"
          },
          "strings": {
            "IAAv0": ""
          }
        },
        {
          "start": "com.lbcbp.bcp.LCReceiver.onReceive(Landroid/content/Context;Landroid/content/Intent;)V",
          "target": "invokeinterface \u003c Application, Lorg/apache/http/client/HttpClient, execute(Lorg/apache/http/client/methods/HttpUriRequest;)Lorg/apache/http/HttpResponse; \u003e@404",
          "type": "sms",
          "constraintsFile": "constraints0_4.py",
          "variables": {
            "System.currentTimeMillis()": "IAAv3",
            "\u003cChainedInput2\u003e.getAction()": "IAAv0",
            "\u003cChainedInput1\u003e.getSystemService().getActiveNetworkInfo()": "IAAv5",
            "\u003cSystemPrevTime\u003e": "IAAv4",
            "\u003cChainedInput1\u003e.getSystemService().getActiveNetworkInfo().a().b": "IAAv6"
          },
          "stringMap": {
            "7000": "android.intent.action.PACKAGE_ADDED",
            "7001": "android.net.conn.CONNECTIVITY_CHANGE"
          },
          "strings": {
            "IAAv0": ""
          }
        }
      ]
    },
    "1": {
      "startMethod": "com.lbcbp.bcp.LCReceiver.onReceive(Landroid/content/Context;Landroid/content/Intent;)V",
      "targetMethod": "org.apache.http.client.HttpClient.execute(Lorg/apache/http/client/methods/HttpUriRequest;)Lorg/apache/http/HttpResponse;",
      "eventChain": [
        {
          "start": "com.lbcbp.bcp.LCReceiver.onReceive(Landroid/content/Context;Landroid/content/Intent;)V",
          "target": "invokeinterface \u003c Application, Lorg/apache/http/client/HttpClient, execute(Lorg/apache/http/client/methods/HttpUriRequest;)Lorg/apache/http/HttpResponse; \u003e@182",
          "type": "sms",
          "constraintsFile": "constraints1_0.py",
          "variables": {
            "\u003cChainedInput2\u003e.getAction()": "IAAv0",
            "\u003cChainedInput2\u003e.getData()": "IAAv2"
          },
          "stringMap": {
            "7000": "android.intent.action.PACKAGE_ADDED"
          },
          "strings": {
            "IAAv0": ""
          }
        }
      ]
    },
    "2": {
      "startMethod": "com.lbcbp.bcp.LCReceiver.onReceive(Landroid/content/Context;Landroid/content/Intent;)V",
      "targetMethod": "org.apache.http.client.HttpClient.execute(Lorg/apache/http/client/methods/HttpUriRequest;)Lorg/apache/http/HttpResponse;",
      "eventChain": [
        {
          "start": "com.lbcbp.bcp.LCReceiver.onReceive(Landroid/content/Context;Landroid/content/Intent;)V",
          "target": "invokeinterface \u003c Application, Lorg/apache/http/client/HttpClient, execute(Lorg/apache/http/client/methods/HttpUriRequest;)Lorg/apache/http/HttpResponse; \u003e@139",
          "type": "sms",
          "constraintsFile": "constraints2_0.py",
          "variables": {
            "\u003cChainedInput2\u003e.getAction()": "IAAv0",
            "\u003cChainedInput2\u003e.getData()": "IAAv2"
          },
          "stringMap": {
            "7000": "android.intent.action.PACKAGE_ADDED",
            "7001": ""
          },
          "strings": {
            "IAAv0": "",
            "IAAv9": "",
            "IAAv7": ""
          }
        }
      ]
    },
    "3": {
      "startMethod": "lhj.aaas.KReceiver.onReceive(Landroid/content/Context;Landroid/content/Intent;)V",
      "targetMethod": "org.apache.http.client.HttpClient.execute(Lorg/apache/http/client/methods/HttpUriRequest;)Lorg/apache/http/HttpResponse;",
      "eventChain": [
        {
          "start": "lhj.aaas.KReceiver.onReceive(Landroid/content/Context;Landroid/content/Intent;)V",
          "target": "invokeinterface \u003c Application, Lorg/apache/http/client/HttpClient, execute(Lorg/apache/http/client/methods/HttpUriRequest;)Lorg/apache/http/HttpResponse; \u003e@124",
          "type": "sms",
          "constraintsFile": "constraints3_0.py",
          "variables": {
            "\u003cChainedInput2\u003e.getAction()": "IAAv0"
          },
          "stringMap": {
            "7000": "android.intent.action.PACKAGE_ADDED",
            "7001": ""
          },
          "strings": {
            "IAAv2": "",
            "IAAv0": ""
          }
        }
      ]
    },
    "4": {
      "startMethod": "com.tttttfdfdsrrd.MainActivity.onResume()V",
      "targetMethod": "org.apache.http.client.HttpClient.execute(Lorg/apache/http/client/methods/HttpUriRequest;)Lorg/apache/http/HttpResponse;",
      "eventChain": [
        {
          "start": "com.tttttfdfdsrrd.MainActivity.onResume()V",
          "target": "invokeinterface \u003c Application, Lorg/apache/http/client/HttpClient, execute(Lorg/apache/http/client/methods/HttpUriRequest;)Lorg/apache/http/HttpResponse; \u003e@404",
          "type": "activity",
          "component": "com.tttttfdfdsrrd.MainActivity",
          "constraintsFile": "constraints4_0.py",
          "variables": {},
          "stringMap": {},
          "strings": {}
        }
      ]
    },
    "5": {
      "startMethod": "com.tttttfdfdsrrd.MainActivity.onResume()V",
      "targetMethod": "org.apache.http.client.HttpClient.execute(Lorg/apache/http/client/methods/HttpUriRequest;)Lorg/apache/http/HttpResponse;",
      "eventChain": [
        {
          "start": "com.tttttfdfdsrrd.MainActivity.onResume()V",
          "target": "invokeinterface \u003c Application, Lorg/apache/http/client/HttpClient, execute(Lorg/apache/http/client/methods/HttpUriRequest;)Lorg/apache/http/HttpResponse; \u003e@182",
          "type": "activity",
          "component": "com.tttttfdfdsrrd.MainActivity",
          "constraintsFile": "constraints5_0.py",
          "variables": {},
          "stringMap": {},
          "strings": {}
        }
      ]
    },
    "6": {
      "startMethod": "com.tttttfdfdsrrd.MainActivity.onResume()V",
      "targetMethod": "org.apache.http.client.HttpClient.execute(Lorg/apache/http/client/methods/HttpUriRequest;)Lorg/apache/http/HttpResponse;",
      "eventChain": [
        {
          "start": "com.tttttfdfdsrrd.MainActivity.onResume()V",
          "target": "invokeinterface \u003c Application, Lorg/apache/http/client/HttpClient, execute(Lorg/apache/http/client/methods/HttpUriRequest;)Lorg/apache/http/HttpResponse; \u003e@139",
          "type": "activity",
          "component": "com.tttttfdfdsrrd.MainActivity",
          "constraintsFile": "constraints6_0.py",
          "variables": {},
          "stringMap": {},
          "strings": {}
        }
      ]
    },
    "7": {
      "startMethod": "com.tttttfdfdsrrd.IndexActivity.onResume()V",
      "targetMethod": "org.apache.http.client.HttpClient.execute(Lorg/apache/http/client/methods/HttpUriRequest;)Lorg/apache/http/HttpResponse;",
      "eventChain": [
        {
          "start": "com.tttttfdfdsrrd.MainActivity.onResume()V",
          "target": "PC@16",
          "type": "activity",
          "component": "com.tttttfdfdsrrd.MainActivity",
          "constraintsFile": "constraints7_0.py",
          "variables": {},
          "stringMap": {},
          "strings": {}
        },
        {
          "start": "com.lbcbp.bcp.LCReceiver.onReceive(Landroid/content/Context;Landroid/content/Intent;)V",
          "target": "",
          "type": "sms",
          "constraintsFile": "constraints7_1.py",
          "variables": {
            "\u003cInput2\u003e.getAction()": "IAAv0",
            "System.currentTimeMillis()": "IAAv3",
            "\u003cInput1\u003e.getSystemService().getActiveNetworkInfo().a().b": "IAAv6",
            "\u003cSystemPrevTime\u003e": "IAAv4",
            "\u003cInput1\u003e.getSystemService().getActiveNetworkInfo()": "IAAv5"
          },
          "stringMap": {
            "7000": "android.intent.action.PACKAGE_ADDED",
            "7001": "android.net.conn.CONNECTIVITY_CHANGE"
          },
          "strings": {
            "IAAv0": ""
          }
        },
        {
          "start": "com.lbcbp.bcp.LCReceiver.onReceive(Landroid/content/Context;Landroid/content/Intent;)V",
          "target": "PC@71",
          "type": "sms",
          "constraintsFile": "constraints7_2.py",
          "variables": {
            "System.currentTimeMillis()": "IAAv3",
            "\u003cChainedInput2\u003e.getAction()": "IAAv0",
            "\u003cChainedInput1\u003e.getSystemService().getActiveNetworkInfo()": "IAAv5",
            "\u003cSystemPrevTime\u003e": "IAAv4",
            "\u003cChainedInput1\u003e.getSystemService().getActiveNetworkInfo().a().b": "IAAv6"
          },
          "stringMap": {
            "7000": "android.intent.action.PACKAGE_ADDED",
            "7001": "android.net.conn.CONNECTIVITY_CHANGE"
          },
          "strings": {
            "IAAv0": ""
          }
        },
        {
          "start": "com.lbcbp.bcp.LCReceiver.onReceive(Landroid/content/Context;Landroid/content/Intent;)V",
          "target": "PC@3",
          "type": "sms",
          "constraintsFile": "constraints7_3.py",
          "variables": {
            "System.currentTimeMillis()": "IAAv3",
            "\u003cChainedInput2\u003e.getAction()": "IAAv0",
            "\u003cChainedInput1\u003e.getSystemService().getActiveNetworkInfo()": "IAAv5",
            "\u003cSystemPrevTime\u003e": "IAAv4",
            "\u003cChainedInput1\u003e.getSystemService().getActiveNetworkInfo().a().b": "IAAv6"
          },
          "stringMap": {
            "7000": "android.intent.action.PACKAGE_ADDED",
            "7001": "android.net.conn.CONNECTIVITY_CHANGE"
          },
          "strings": {
            "IAAv0": ""
          }
        },
        {
          "start": "com.tttttfdfdsrrd.IndexActivity.onResume()V",
          "target": "PC@26",
          "type": "activity",
          "component": "com.tttttfdfdsrrd.IndexActivity",
          "constraintsFile": "constraints7_4.py",
          "variables": {},
          "stringMap": {},
          "strings": {}
        },
        {
          "start": "com.tttttfdfdsrrd.IndexActivity.onResume()V",
          "target": "invokeinterface \u003c Application, Lorg/apache/http/client/HttpClient, execute(Lorg/apache/http/client/methods/HttpUriRequest;)Lorg/apache/http/HttpResponse; \u003e@139",
          "type": "activity",
          "component": "com.tttttfdfdsrrd.IndexActivity",
          "constraintsFile": "constraints7_5.py",
          "variables": {},
          "stringMap": {
            "7000": ""
          },
          "strings": {
            "IAAv24": "",
            "IAAv22": "",
            "IAAv13": "",
            "IAAv12": "",
            "IAAv15": "",
            "IAAv16": ""
          }
        }
      ]
    },
    "8": {
      "startMethod": "com.tttttfdfdsrrd.IndexActivity.onResume()V",
      "targetMethod": "org.apache.http.client.HttpClient.execute(Lorg/apache/http/client/methods/HttpUriRequest;)Lorg/apache/http/HttpResponse;",
      "eventChain": [
        {
          "start": "com.tttttfdfdsrrd.MainActivity.onResume()V",
          "target": "PC@16",
          "type": "activity",
          "component": "com.tttttfdfdsrrd.MainActivity",
          "constraintsFile": "constraints8_0.py",
          "variables": {},
          "stringMap": {},
          "strings": {}
        },
        {
          "start": "com.lbcbp.bcp.LCReceiver.onReceive(Landroid/content/Context;Landroid/content/Intent;)V",
          "target": "",
          "type": "sms",
          "constraintsFile": "constraints8_1.py",
          "variables": {
            "\u003cInput2\u003e.getAction()": "IAAv0",
            "System.currentTimeMillis()": "IAAv3",
            "\u003cInput1\u003e.getSystemService().getActiveNetworkInfo().a().b": "IAAv6",
            "\u003cSystemPrevTime\u003e": "IAAv4",
            "\u003cInput1\u003e.getSystemService().getActiveNetworkInfo()": "IAAv5"
          },
          "stringMap": {
            "7000": "android.intent.action.PACKAGE_ADDED",
            "7001": "android.net.conn.CONNECTIVITY_CHANGE"
          },
          "strings": {
            "IAAv0": ""
          }
        },
        {
          "start": "com.lbcbp.bcp.LCReceiver.onReceive(Landroid/content/Context;Landroid/content/Intent;)V",
          "target": "PC@71",
          "type": "sms",
          "constraintsFile": "constraints8_2.py",
          "variables": {
            "System.currentTimeMillis()": "IAAv3",
            "\u003cChainedInput2\u003e.getAction()": "IAAv0",
            "\u003cChainedInput1\u003e.getSystemService().getActiveNetworkInfo()": "IAAv5",
            "\u003cSystemPrevTime\u003e": "IAAv4",
            "\u003cChainedInput1\u003e.getSystemService().getActiveNetworkInfo().a().b": "IAAv6"
          },
          "stringMap": {
            "7000": "android.intent.action.PACKAGE_ADDED",
            "7001": "android.net.conn.CONNECTIVITY_CHANGE"
          },
          "strings": {
            "IAAv0": ""
          }
        },
        {
          "start": "com.lbcbp.bcp.LCReceiver.onReceive(Landroid/content/Context;Landroid/content/Intent;)V",
          "target": "PC@12",
          "type": "sms",
          "constraintsFile": "constraints8_3.py",
          "variables": {
            "System.currentTimeMillis()": "IAAv15",
            "\u003cChainedInput2\u003e.getAction()": "IAAv12",
            "\u003cChainedInput1\u003e.getSystemService().getActiveNetworkInfo()": "IAAv17",
            "\u003cChainedInput1\u003e.getSystemService().getActiveNetworkInfo().a().b": "IAAv18",
            "\u003cSystemPrevTime\u003e": "IAAv16"
          },
          "stringMap": {
            "7000": "android.intent.action.PACKAGE_ADDED",
            "7001": "android.net.conn.CONNECTIVITY_CHANGE"
          },
          "strings": {
            "IAAv12": ""
          }
        },
        {
          "start": "com.lbcbp.bcp.LCReceiver.onReceive(Landroid/content/Context;Landroid/content/Intent;)V",
          "target": "PC@3",
          "type": "sms",
          "constraintsFile": "constraints8_4.py",
          "variables": {
            "System.currentTimeMillis()": "IAAv3",
            "\u003cChainedInput2\u003e.getAction()": "IAAv0",
            "\u003cChainedInput1\u003e.getSystemService().getActiveNetworkInfo()": "IAAv5",
            "\u003cSystemPrevTime\u003e": "IAAv4",
            "\u003cChainedInput1\u003e.getSystemService().getActiveNetworkInfo().a().b": "IAAv6"
          },
          "stringMap": {
            "7000": "android.intent.action.PACKAGE_ADDED",
            "7001": "android.net.conn.CONNECTIVITY_CHANGE"
          },
          "strings": {
            "IAAv0": ""
          }
        },
        {
          "start": "com.tttttfdfdsrrd.IndexActivity.onResume()V",
          "target": "PC@26",
          "type": "activity",
          "component": "com.tttttfdfdsrrd.IndexActivity",
          "constraintsFile": "constraints8_5.py",
          "variables": {},
          "stringMap": {},
          "strings": {}
        },
        {
          "start": "com.lbcbp.bcp.LCReceiver.onReceive(Landroid/content/Context;Landroid/content/Intent;)V",
          "target": "PC@9",
          "type": "sms",
          "constraintsFile": "constraints8_6.py",
          "variables": {
            "System.currentTimeMillis()": "IAAv15",
            "\u003cChainedInput2\u003e.getAction()": "IAAv12",
            "\u003cChainedInput1\u003e.getSystemService().getActiveNetworkInfo()": "IAAv17",
            "\u003cChainedInput1\u003e.getSystemService().getActiveNetworkInfo().a().b": "IAAv18",
            "\u003cSystemPrevTime\u003e": "IAAv16"
          },
          "stringMap": {
            "7000": "android.intent.action.PACKAGE_ADDED",
            "7001": "android.net.conn.CONNECTIVITY_CHANGE"
          },
          "strings": {
            "IAAv12": ""
          }
        },
        {
          "start": "com.tttttfdfdsrrd.IndexActivity.onResume()V",
          "target": "invokeinterface \u003c Application, Lorg/apache/http/client/HttpClient, execute(Lorg/apache/http/client/methods/HttpUriRequest;)Lorg/apache/http/HttpResponse; \u003e@404",
          "type": "activity",
          "component": "com.tttttfdfdsrrd.IndexActivity",
          "constraintsFile": "constraints8_7.py",
          "variables": {},
          "stringMap": {},
          "strings": {}
        }
      ]
    },
    "9": {
      "startMethod": "com.tttttfdfdsrrd.IndexActivity.onResume()V",
      "targetMethod": "org.apache.http.client.HttpClient.execute(Lorg/apache/http/client/methods/HttpUriRequest;)Lorg/apache/http/HttpResponse;",
      "eventChain": [
        {
          "start": "com.tttttfdfdsrrd.MainActivity.onResume()V",
          "target": "PC@16",
          "type": "activity",
          "component": "com.tttttfdfdsrrd.MainActivity",
          "constraintsFile": "constraints9_0.py",
          "variables": {},
          "stringMap": {},
          "strings": {}
        },
        {
          "start": "com.lbcbp.bcp.LCReceiver.onReceive(Landroid/content/Context;Landroid/content/Intent;)V",
          "target": "",
          "type": "sms",
          "constraintsFile": "constraints9_1.py",
          "variables": {
            "\u003cInput2\u003e.getAction()": "IAAv0",
            "System.currentTimeMillis()": "IAAv3",
            "\u003cInput1\u003e.getSystemService().getActiveNetworkInfo().a().b": "IAAv6",
            "\u003cSystemPrevTime\u003e": "IAAv4",
            "\u003cInput1\u003e.getSystemService().getActiveNetworkInfo()": "IAAv5"
          },
          "stringMap": {
            "7000": "android.intent.action.PACKAGE_ADDED",
            "7001": "android.net.conn.CONNECTIVITY_CHANGE"
          },
          "strings": {
            "IAAv0": ""
          }
        },
        {
          "start": "com.lbcbp.bcp.LCReceiver.onReceive(Landroid/content/Context;Landroid/content/Intent;)V",
          "target": "PC@71",
          "type": "sms",
          "constraintsFile": "constraints9_2.py",
          "variables": {
            "System.currentTimeMillis()": "IAAv3",
            "\u003cChainedInput2\u003e.getAction()": "IAAv0",
            "\u003cChainedInput1\u003e.getSystemService().getActiveNetworkInfo()": "IAAv5",
            "\u003cSystemPrevTime\u003e": "IAAv4",
            "\u003cChainedInput1\u003e.getSystemService().getActiveNetworkInfo().a().b": "IAAv6"
          },
          "stringMap": {
            "7000": "android.intent.action.PACKAGE_ADDED",
            "7001": "android.net.conn.CONNECTIVITY_CHANGE"
          },
          "strings": {
            "IAAv0": ""
          }
        },
        {
          "start": "com.lbcbp.bcp.LCReceiver.onReceive(Landroid/content/Context;Landroid/content/Intent;)V",
          "target": "PC@3",
          "type": "sms",
          "constraintsFile": "constraints9_3.py",
          "variables": {
            "System.currentTimeMillis()": "IAAv3",
            "\u003cChainedInput2\u003e.getAction()": "IAAv0",
            "\u003cChainedInput1\u003e.getSystemService().getActiveNetworkInfo()": "IAAv5",
            "\u003cSystemPrevTime\u003e": "IAAv4",
            "\u003cChainedInput1\u003e.getSystemService().getActiveNetworkInfo().a().b": "IAAv6"
          },
          "stringMap": {
            "7000": "android.intent.action.PACKAGE_ADDED",
            "7001": "android.net.conn.CONNECTIVITY_CHANGE"
          },
          "strings": {
            "IAAv0": ""
          }
        },
        {
          "start": "com.tttttfdfdsrrd.IndexActivity.onResume()V",
          "target": "PC@26",
          "type": "activity",
          "component": "com.tttttfdfdsrrd.IndexActivity",
          "constraintsFile": "constraints9_4.py",
          "variables": {},
          "stringMap": {},
          "strings": {}
        },
        {
          "start": "com.tttttfdfdsrrd.IndexActivity.onResume()V",
          "target": "invokeinterface \u003c Application, Lorg/apache/http/client/HttpClient, execute(Lorg/apache/http/client/methods/HttpUriRequest;)Lorg/apache/http/HttpResponse; \u003e@182",
          "type": "activity",
          "component": "com.tttttfdfdsrrd.IndexActivity",
          "constraintsFile": "constraints9_5.py",
          "variables": {},
          "stringMap": {},
          "strings": {
            "IAAv13": "",
            "IAAv12": "",
            "IAAv15": "",
            "IAAv16": ""
          }
        }
      ]
    },
    "10": {
      "startMethod": "lhj.aaas.WActivity.onCreate(Landroid/os/Bundle;)V",
      "targetMethod": "org.apache.http.client.HttpClient.execute(Lorg/apache/http/client/methods/HttpUriRequest;)Lorg/apache/http/HttpResponse;",
      "eventChain": [
        {
          "start": "lhj.aaas.WActivity.onCreate(Landroid/os/Bundle;)V",
          "target": "invokeinterface \u003c Application, Lorg/apache/http/client/HttpClient, execute(Lorg/apache/http/client/methods/HttpUriRequest;)Lorg/apache/http/HttpResponse; \u003e@124",
          "type": "activity",
          "component": "lhj.aaas.WActivity"
        }
      ]
    },
    "11": {
      "startMethod": "lhj.aaas.WActivity.onCreate(Landroid/os/Bundle;)V",
      "targetMethod": "org.apache.http.client.HttpClient.execute(Lorg/apache/http/client/methods/HttpUriRequest;)Lorg/apache/http/HttpResponse;",
      "eventChain": [
        {
          "start": "lhj.aaas.WActivity.onCreate(Landroid/os/Bundle;)V",
          "target": "invokeinterface \u003c Application, Lorg/apache/http/client/HttpClient, execute(Lorg/apache/http/client/methods/HttpUriRequest;)Lorg/apache/http/HttpResponse; \u003e@404",
          "type": "activity",
          "component": "lhj.aaas.WActivity"
        }
      ]
    },
    "12": {
      "startMethod": "com.tttttfdfdsrrd.TmpLCActivity.onCreate(Landroid/os/Bundle;)V",
      "targetMethod": "org.apache.http.client.HttpClient.execute(Lorg/apache/http/client/methods/HttpUriRequest;)Lorg/apache/http/HttpResponse;",
      "eventChain": [
        {
          "start": "com.tttttfdfdsrrd.TmpLCActivity.onCreate(Landroid/os/Bundle;)V",
          "target": "invokeinterface \u003c Application, Lorg/apache/http/client/HttpClient, execute(Lorg/apache/http/client/methods/HttpUriRequest;)Lorg/apache/http/HttpResponse; \u003e@182",
          "type": "activity",
          "component": "com.tttttfdfdsrrd.TmpLCActivity",
          "constraintsFile": "constraints12_0.py",
          "variables": {},
          "stringMap": {},
          "strings": {}
        }
      ]
    },
    "13": {
      "startMethod": "com.tttttfdfdsrrd.TmpLCActivity.onCreate(Landroid/os/Bundle;)V",
      "targetMethod": "org.apache.http.client.HttpClient.execute(Lorg/apache/http/client/methods/HttpUriRequest;)Lorg/apache/http/HttpResponse;",
      "eventChain": [
        {
          "start": "com.tttttfdfdsrrd.TmpLCActivity.onCreate(Landroid/os/Bundle;)V",
          "target": "invokeinterface \u003c Application, Lorg/apache/http/client/HttpClient, execute(Lorg/apache/http/client/methods/HttpUriRequest;)Lorg/apache/http/HttpResponse; \u003e@404",
          "type": "activity",
          "component": "com.tttttfdfdsrrd.TmpLCActivity"
        }
      ]
    },
    "14": {
      "startMethod": "com.tttttfdfdsrrd.TmpLCActivity.onCreate(Landroid/os/Bundle;)V",
      "targetMethod": "org.apache.http.client.HttpClient.execute(Lorg/apache/http/client/methods/HttpUriRequest;)Lorg/apache/http/HttpResponse;",
      "eventChain": [
        {
          "start": "com.tttttfdfdsrrd.TmpLCActivity.onCreate(Landroid/os/Bundle;)V",
          "target": "invokeinterface \u003c Application, Lorg/apache/http/client/HttpClient, execute(Lorg/apache/http/client/methods/HttpUriRequest;)Lorg/apache/http/HttpResponse; \u003e@139",
          "type": "activity",
          "component": "com.tttttfdfdsrrd.TmpLCActivity"
        }
      ]
    },
    "15": {
      "startMethod": "lhj.aaas.WActivity.onKeyDown(ILandroid/view/KeyEvent;)Z",
      "targetMethod": "org.apache.http.client.HttpClient.execute(Lorg/apache/http/client/methods/HttpUriRequest;)Lorg/apache/http/HttpResponse;",
      "eventChain": [
        {
          "start": "lhj.aaas.WActivity.onCreate(Landroid/os/Bundle;)V",
          "target": "PC@110",
          "type": "activity",
          "component": "lhj.aaas.WActivity",
          "constraintsFile": "constraints15_0.py",
          "variables": {},
          "stringMap": {},
          "strings": {}
        },
        {
          "start": "lhj.aaas.ui.j.onClick(Landroid/view/View;)V",
          "target": "PC@3",
          "type": "ui",
          "activities": [
            "com.tttttfdfdsrrd.MainActivity"
          ],
          "listener": "lhj.aaas.ui.j",
          "listenerMethod": "onClick",
          "uiType": "onClick",
          "constraintsFile": "constraints15_1.py",
          "variables": {},
          "stringMap": {},
          "strings": {}
        },
        {
          "start": "lhj.aaas.WActivity.onKeyDown(ILandroid/view/KeyEvent;)Z",
          "target": "invokeinterface \u003c Application, Lorg/apache/http/client/HttpClient, execute(Lorg/apache/http/client/methods/HttpUriRequest;)Lorg/apache/http/HttpResponse; \u003e@124",
          "type": "ui",
          "activities": [
            "com.tttttfdfdsrrd.MainActivity"
          ],
          "listener": "lhj.aaas.WActivity",
          "listenerMethod": "onKeyDown",
          "uiType": "onKeyDown",
          "constraintsFile": "constraints15_2.py",
          "variables": {
            "\u003cChainedInput1\u003e": "IAAv0"
          },
          "stringMap": {},
          "strings": {}
        }
      ]
    },
    "16": {
      "startMethod": "lhj.aaas.WActivity.onKeyDown(ILandroid/view/KeyEvent;)Z",
      "targetMethod": "org.apache.http.client.HttpClient.execute(Lorg/apache/http/client/methods/HttpUriRequest;)Lorg/apache/http/HttpResponse;",
      "eventChain": [
        {
          "start": "lhj.aaas.WActivity.onCreate(Landroid/os/Bundle;)V",
          "target": "PC@110",
          "type": "activity",
          "component": "lhj.aaas.WActivity",
          "constraintsFile": "constraints16_0.py",
          "variables": {},
          "stringMap": {},
          "strings": {}
        },
        {
          "start": "lhj.aaas.ui.j.onClick(Landroid/view/View;)V",
          "target": "PC@3",
          "type": "ui",
          "activities": [
            "com.tttttfdfdsrrd.MainActivity"
          ],
          "listener": "lhj.aaas.ui.j",
          "listenerMethod": "onClick",
          "uiType": "onClick",
          "constraintsFile": "constraints16_1.py",
          "variables": {},
          "stringMap": {},
          "strings": {}
        },
        {
          "start": "lhj.aaas.WActivity.onKeyDown(ILandroid/view/KeyEvent;)Z",
          "target": "invokeinterface \u003c Application, Lorg/apache/http/client/HttpClient, execute(Lorg/apache/http/client/methods/HttpUriRequest;)Lorg/apache/http/HttpResponse; \u003e@404",
          "type": "ui",
          "activities": [
            "com.tttttfdfdsrrd.MainActivity"
          ],
          "listener": "lhj.aaas.WActivity",
          "listenerMethod": "onKeyDown",
          "uiType": "onKeyDown",
          "constraintsFile": "constraints16_2.py",
          "variables": {
            "\u003cChainedInput1\u003e": "IAAv0"
          },
          "stringMap": {},
          "strings": {}
        }
      ]
    },
    "17": {
      "startMethod": "lhj.aaas.ui.a.onClick(Landroid/view/View;)V",
      "targetMethod": "org.apache.http.client.HttpClient.execute(Lorg/apache/http/client/methods/HttpUriRequest;)Lorg/apache/http/HttpResponse;",
      "eventChain": [
        {
          "start": "lhj.aaas.WActivity.onCreate(Landroid/os/Bundle;)V",
          "target": "invokevirtual \u003c Application, Landroid/widget/ImageView, setOnClickListener(Landroid/view/View$OnClickListener;)V \u003e@3789",
          "type": "activity",
          "component": "lhj.aaas.WActivity",
          "constraintsFile": "constraints17_0.py",
          "variables": {},
          "stringMap": {},
          "strings": {}
        },
        {
          "start": "lhj.aaas.WActivity.onCreate(Landroid/os/Bundle;)V",
          "target": "PC@3",
          "type": "activity",
          "component": "lhj.aaas.WActivity"
        },
        {
          "start": "lhj.aaas.WActivity.onCreate(Landroid/os/Bundle;)V",
          "target": "PC@3",
          "type": "activity",
          "component": "lhj.aaas.WActivity",
          "constraintsFile": "constraints17_1.py",
          "variables": {
            "\u003cChainedInput1\u003e.getTag().intValue()": "IAAv1"
          },
          "stringMap": {
            "7000": "",
            "7001": ".apk",
            "7002": "/data/data/"
          },
          "strings": {
            "IAAv21": "",
            "IAAv15": "",
            "IAAv17": "",
            "IAAv5": ""
          }
        },
        {
          "start": "lhj.aaas.WActivity.onCreate(Landroid/os/Bundle;)V",
          "target": "",
          "type": "activity",
          "component": "lhj.aaas.WActivity"
        },
        {
          "start": "lhj.aaas.WActivity.onCreate(Landroid/os/Bundle;)V",
          "target": "PC@71",
          "type": "activity",
          "component": "lhj.aaas.WActivity"
        },
        {
          "start": "lhj.aaas.ui.a.onClick(Landroid/view/View;)V",
          "target": "invokeinterface \u003c Application, Lorg/apache/http/client/HttpClient, execute(Lorg/apache/http/client/methods/HttpUriRequest;)Lorg/apache/http/HttpResponse; \u003e@124",
          "type": "ui",
          "activities": [
            "com.tttttfdfdsrrd.MainActivity"
          ],
          "listener": "lhj.aaas.ui.a",
          "listenerMethod": "onClick",
          "uiType": "onClick",
          "constraintsFile": "constraints17_2.py",
          "variables": {
            "\u003cChainedInput1\u003e.getTag().intValue()": "IAAv1"
          },
          "stringMap": {
            "7000": "",
            "7001": ".apk",
            "7002": "/data/data/"
          },
          "strings": {
            "IAAv21": "",
            "IAAv15": "",
            "IAAv17": "",
            "IAAv5": ""
          }
        }
      ]
    },
    "18": {
      "startMethod": "lhj.aaas.ui.a.onClick(Landroid/view/View;)V",
      "targetMethod": "org.apache.http.client.HttpClient.execute(Lorg/apache/http/client/methods/HttpUriRequest;)Lorg/apache/http/HttpResponse;",
      "eventChain": [
        {
          "start": "lhj.aaas.WActivity.onCreate(Landroid/os/Bundle;)V",
          "target": "invokevirtual \u003c Application, Landroid/widget/ImageView, setOnClickListener(Landroid/view/View$OnClickListener;)V \u003e@3789",
          "type": "activity",
          "component": "lhj.aaas.WActivity",
          "constraintsFile": "constraints18_0.py",
          "variables": {},
          "stringMap": {},
          "strings": {}
        },
        {
          "start": "lhj.aaas.WActivity.onCreate(Landroid/os/Bundle;)V",
          "target": "PC@3",
          "type": "activity",
          "component": "lhj.aaas.WActivity"
        },
        {
          "start": "lhj.aaas.WActivity.onCreate(Landroid/os/Bundle;)V",
          "target": "PC@3",
          "type": "activity",
          "component": "lhj.aaas.WActivity",
          "constraintsFile": "constraints18_1.py",
          "variables": {
            "\u003cChainedInput1\u003e.getTag().intValue()": "IAAv1"
          },
          "stringMap": {
            "7000": ""
          },
          "strings": {
            "IAAv5": ""
          }
        },
        {
          "start": "lhj.aaas.WActivity.onCreate(Landroid/os/Bundle;)V",
          "target": "PC@12",
          "type": "activity",
          "component": "lhj.aaas.WActivity"
        },
        {
          "start": "lhj.aaas.WActivity.onCreate(Landroid/os/Bundle;)V",
          "target": "PC@9",
          "type": "activity",
          "component": "lhj.aaas.WActivity"
        },
        {
          "start": "lhj.aaas.WActivity.onCreate(Landroid/os/Bundle;)V",
          "target": "",
          "type": "activity",
          "component": "lhj.aaas.WActivity"
        },
        {
          "start": "lhj.aaas.WActivity.onCreate(Landroid/os/Bundle;)V",
          "target": "PC@71",
          "type": "activity",
          "component": "lhj.aaas.WActivity"
        },
        {
          "start": "lhj.aaas.ui.a.onClick(Landroid/view/View;)V",
          "target": "invokeinterface \u003c Application, Lorg/apache/http/client/HttpClient, execute(Lorg/apache/http/client/methods/HttpUriRequest;)Lorg/apache/http/HttpResponse; \u003e@404",
          "type": "ui",
          "activities": [
            "com.tttttfdfdsrrd.MainActivity"
          ],
          "listener": "lhj.aaas.ui.a",
          "listenerMethod": "onClick",
          "uiType": "onClick",
          "constraintsFile": "constraints18_2.py",
          "variables": {
            "\u003cChainedInput1\u003e.getTag().intValue()": "IAAv1"
          },
          "stringMap": {
            "7000": ""
          },
          "strings": {
            "IAAv5": ""
          }
        }
      ]
    },
    "19": {
      "startMethod": "lhj.aaas.ui.j.onClick(Landroid/view/View;)V",
      "targetMethod": "org.apache.http.client.HttpClient.execute(Lorg/apache/http/client/methods/HttpUriRequest;)Lorg/apache/http/HttpResponse;",
      "eventChain": [
        {
          "start": "lhj.aaas.WActivity.onCreate(Landroid/os/Bundle;)V",
          "target": "PC@3",
          "type": "activity",
          "component": "lhj.aaas.WActivity"
        },
        {
          "start": "lhj.aaas.WActivity.onCreate(Landroid/os/Bundle;)V",
          "target": "PC@3",
          "type": "activity",
          "component": "lhj.aaas.WActivity",
          "constraintsFile": "constraints19_0.py",
          "variables": {},
          "stringMap": {
            "7000": ".apk",
            "7001": "/data/data/",
            "7002": ""
          },
          "strings": {
            "IAAv10": "",
            "IAAv12": "",
            "IAAv25": "",
            "IAAv16": ""
          }
        },
        {
          "start": "lhj.aaas.WActivity.onCreate(Landroid/os/Bundle;)V",
          "target": "",
          "type": "activity",
          "component": "lhj.aaas.WActivity"
        },
        {
          "start": "lhj.aaas.WActivity.onCreate(Landroid/os/Bundle;)V",
          "target": "PC@71",
          "type": "activity",
          "component": "lhj.aaas.WActivity"
        },
        {
          "start": "lhj.aaas.ui.j.onClick(Landroid/view/View;)V",
          "target": "invokeinterface \u003c Application, Lorg/apache/http/client/HttpClient, execute(Lorg/apache/http/client/methods/HttpUriRequest;)Lorg/apache/http/HttpResponse; \u003e@124",
          "type": "ui",
          "activities": [
            "com.tttttfdfdsrrd.MainActivity"
          ],
          "listener": "lhj.aaas.ui.j",
          "listenerMethod": "onClick",
          "uiType": "onClick",
          "constraintsFile": "constraints19_1.py",
          "variables": {},
          "stringMap": {
            "7000": ".apk",
            "7001": "/data/data/",
            "7002": ""
          },
          "strings": {
            "IAAv10": "",
            "IAAv12": "",
            "IAAv16": ""
          }
        }
      ]
    },
    "20": {
      "startMethod": "lhj.aaas.ui.j.onClick(Landroid/view/View;)V",
      "targetMethod": "org.apache.http.client.HttpClient.execute(Lorg/apache/http/client/methods/HttpUriRequest;)Lorg/apache/http/HttpResponse;",
      "eventChain": [
        {
          "start": "lhj.aaas.WActivity.onCreate(Landroid/os/Bundle;)V",
          "target": "PC@3",
          "type": "activity",
          "component": "lhj.aaas.WActivity"
        },
        {
          "start": "lhj.aaas.WActivity.onCreate(Landroid/os/Bundle;)V",
          "target": "PC@3",
          "type": "activity",
          "component": "lhj.aaas.WActivity",
          "constraintsFile": "constraints20_0.py",
          "variables": {},
          "stringMap": {},
          "strings": {
            "IAAv15": ""
          }
        },
        {
          "start": "lhj.aaas.WActivity.onCreate(Landroid/os/Bundle;)V",
          "target": "PC@12",
          "type": "activity",
          "component": "lhj.aaas.WActivity"
        },
        {
          "start": "lhj.aaas.WActivity.onCreate(Landroid/os/Bundle;)V",
          "target": "PC@9",
          "type": "activity",
          "component": "lhj.aaas.WActivity"
        },
        {
          "start": "lhj.aaas.WActivity.onCreate(Landroid/os/Bundle;)V",
          "target": "",
          "type": "activity",
          "component": "lhj.aaas.WActivity"
        },
        {
          "start": "lhj.aaas.WActivity.onCreate(Landroid/os/Bundle;)V",
          "target": "PC@71",
          "type": "activity",
          "component": "lhj.aaas.WActivity"
        },
        {
          "start": "lhj.aaas.ui.j.onClick(Landroid/view/View;)V",
          "target": "invokeinterface \u003c Application, Lorg/apache/http/client/HttpClient, execute(Lorg/apache/http/client/methods/HttpUriRequest;)Lorg/apache/http/HttpResponse; \u003e@404",
          "type": "ui",
          "activities": [
            "com.tttttfdfdsrrd.MainActivity"
          ],
          "listener": "lhj.aaas.ui.j",
          "listenerMethod": "onClick",
          "uiType": "onClick",
          "constraintsFile": "constraints20_1.py",
          "variables": {},
          "stringMap": {},
          "strings": {}
        }
      ]
    },
    "21": {
      "startMethod": "com.lbcbp.bcp.ui.d.onClick(Landroid/view/View;)V",
      "targetMethod": "org.apache.http.client.HttpClient.execute(Lorg/apache/http/client/methods/HttpUriRequest;)Lorg/apache/http/HttpResponse;",
      "eventChain": [
        {
          "start": "com.lbcbp.bcp.LCReceiver.onReceive(Landroid/content/Context;Landroid/content/Intent;)V",
          "target": "",
          "type": "sms",
          "constraintsFile": "constraints21_0.py",
          "variables": {
            "\u003cInput2\u003e.getAction()": "IAAv0",
            "System.currentTimeMillis()": "IAAv3",
            "\u003cInput1\u003e.getSystemService().getActiveNetworkInfo().a().b": "IAAv6",
            "\u003cSystemPrevTime\u003e": "IAAv4",
            "\u003cInput1\u003e.getSystemService().getActiveNetworkInfo()": "IAAv5"
          },
          "stringMap": {
            "7000": "android.intent.action.PACKAGE_ADDED",
            "7001": "android.net.conn.CONNECTIVITY_CHANGE"
          },
          "strings": {
            "IAAv0": ""
          }
        },
        {
          "start": "com.lbcbp.bcp.LCReceiver.onReceive(Landroid/content/Context;Landroid/content/Intent;)V",
          "target": "PC@71",
          "type": "sms",
          "constraintsFile": "constraints21_1.py",
          "variables": {
            "System.currentTimeMillis()": "IAAv3",
            "\u003cChainedInput2\u003e.getAction()": "IAAv0",
            "\u003cChainedInput1\u003e.getSystemService().getActiveNetworkInfo()": "IAAv5",
            "\u003cSystemPrevTime\u003e": "IAAv4",
            "\u003cChainedInput1\u003e.getSystemService().getActiveNetworkInfo().a().b": "IAAv6"
          },
          "stringMap": {
            "7000": "android.intent.action.PACKAGE_ADDED",
            "7001": "android.net.conn.CONNECTIVITY_CHANGE"
          },
          "strings": {
            "IAAv0": ""
          }
        },
        {
          "start": "com.tttttfdfdsrrd.TmpLCActivity.onCreate(Landroid/os/Bundle;)V",
          "target": "PC@3",
          "type": "activity",
          "component": "com.tttttfdfdsrrd.TmpLCActivity"
        },
        {
          "start": "com.lbcbp.bcp.LCReceiver.onReceive(Landroid/content/Context;Landroid/content/Intent;)V",
          "target": "PC@3",
          "type": "sms",
          "constraintsFile": "constraints21_2.py",
          "variables": {
            "System.currentTimeMillis()": "IAAv3",
            "\u003cChainedInput2\u003e.getAction()": "IAAv0",
            "\u003cChainedInput1\u003e.getSystemService().getActiveNetworkInfo()": "IAAv5",
            "\u003cSystemPrevTime\u003e": "IAAv4",
            "\u003cChainedInput1\u003e.getSystemService().getActiveNetworkInfo().a().b": "IAAv6"
          },
          "stringMap": {
            "7000": "android.intent.action.PACKAGE_ADDED",
            "7001": "android.net.conn.CONNECTIVITY_CHANGE"
          },
          "strings": {
            "IAAv0": ""
          }
        },
        {
          "start": "com.lbcbp.bcp.ui.d.onClick(Landroid/view/View;)V",
          "target": "invokeinterface \u003c Application, Lorg/apache/http/client/HttpClient, execute(Lorg/apache/http/client/methods/HttpUriRequest;)Lorg/apache/http/HttpResponse; \u003e@182",
          "type": "ui",
          "activities": [
            "com.tttttfdfdsrrd.MainActivity"
          ],
          "listener": "com.lbcbp.bcp.ui.d",
          "listenerMethod": "onClick",
          "uiType": "onClick",
          "constraintsFile": "constraints21_3.py",
          "variables": {},
          "stringMap": {},
          "strings": {
            "IAAv11": "",
            "IAAv10": "",
            "IAAv13": "",
            "IAAv14": ""
          }
        }
      ]
    },
    "22": {
      "startMethod": "com.lbcbp.bcp.ui.d.onClick(Landroid/view/View;)V",
      "targetMethod": "org.apache.http.client.HttpClient.execute(Lorg/apache/http/client/methods/HttpUriRequest;)Lorg/apache/http/HttpResponse;",
      "eventChain": [
        {
          "start": "com.lbcbp.bcp.LCReceiver.onReceive(Landroid/content/Context;Landroid/content/Intent;)V",
          "target": "",
          "type": "sms",
          "constraintsFile": "constraints22_0.py",
          "variables": {
            "\u003cInput2\u003e.getAction()": "IAAv0",
            "System.currentTimeMillis()": "IAAv3",
            "\u003cInput1\u003e.getSystemService().getActiveNetworkInfo().a().b": "IAAv6",
            "\u003cSystemPrevTime\u003e": "IAAv4",
            "\u003cInput1\u003e.getSystemService().getActiveNetworkInfo()": "IAAv5"
          },
          "stringMap": {
            "7000": "android.intent.action.PACKAGE_ADDED",
            "7001": "android.net.conn.CONNECTIVITY_CHANGE"
          },
          "strings": {
            "IAAv0": ""
          }
        },
        {
          "start": "com.lbcbp.bcp.LCReceiver.onReceive(Landroid/content/Context;Landroid/content/Intent;)V",
          "target": "PC@71",
          "type": "sms",
          "constraintsFile": "constraints22_1.py",
          "variables": {
            "System.currentTimeMillis()": "IAAv3",
            "\u003cChainedInput2\u003e.getAction()": "IAAv0",
            "\u003cChainedInput1\u003e.getSystemService().getActiveNetworkInfo()": "IAAv5",
            "\u003cSystemPrevTime\u003e": "IAAv4",
            "\u003cChainedInput1\u003e.getSystemService().getActiveNetworkInfo().a().b": "IAAv6"
          },
          "stringMap": {
            "7000": "android.intent.action.PACKAGE_ADDED",
            "7001": "android.net.conn.CONNECTIVITY_CHANGE"
          },
          "strings": {
            "IAAv0": ""
          }
        },
        {
          "start": "com.lbcbp.bcp.LCReceiver.onReceive(Landroid/content/Context;Landroid/content/Intent;)V",
          "target": "PC@12",
          "type": "sms",
          "constraintsFile": "constraints22_2.py",
          "variables": {
            "System.currentTimeMillis()": "IAAv13",
            "\u003cChainedInput2\u003e.getAction()": "IAAv10",
            "\u003cChainedInput1\u003e.getSystemService().getActiveNetworkInfo()": "IAAv15",
            "\u003cChainedInput1\u003e.getSystemService().getActiveNetworkInfo().a().b": "IAAv16",
            "\u003cSystemPrevTime\u003e": "IAAv14"
          },
          "stringMap": {
            "7000": "android.intent.action.PACKAGE_ADDED",
            "7001": "android.net.conn.CONNECTIVITY_CHANGE"
          },
          "strings": {
            "IAAv10": ""
          }
        },
        {
          "start": "com.tttttfdfdsrrd.TmpLCActivity.onCreate(Landroid/os/Bundle;)V",
          "target": "PC@3",
          "type": "activity",
          "component": "com.tttttfdfdsrrd.TmpLCActivity"
        },
        {
          "start": "com.lbcbp.bcp.LCReceiver.onReceive(Landroid/content/Context;Landroid/content/Intent;)V",
          "target": "PC@3",
          "type": "sms",
          "constraintsFile": "constraints22_3.py",
          "variables": {
            "System.currentTimeMillis()": "IAAv3",
            "\u003cChainedInput2\u003e.getAction()": "IAAv0",
            "\u003cChainedInput1\u003e.getSystemService().getActiveNetworkInfo()": "IAAv5",
            "\u003cSystemPrevTime\u003e": "IAAv4",
            "\u003cChainedInput1\u003e.getSystemService().getActiveNetworkInfo().a().b": "IAAv6"
          },
          "stringMap": {
            "7000": "android.intent.action.PACKAGE_ADDED",
            "7001": "android.net.conn.CONNECTIVITY_CHANGE"
          },
          "strings": {
            "IAAv0": ""
          }
        },
        {
          "start": "com.lbcbp.bcp.LCReceiver.onReceive(Landroid/content/Context;Landroid/content/Intent;)V",
          "target": "PC@9",
          "type": "sms",
          "constraintsFile": "constraints22_4.py",
          "variables": {
            "System.currentTimeMillis()": "IAAv13",
            "\u003cChainedInput2\u003e.getAction()": "IAAv10",
            "\u003cChainedInput1\u003e.getSystemService().getActiveNetworkInfo()": "IAAv15",
            "\u003cChainedInput1\u003e.getSystemService().getActiveNetworkInfo().a().b": "IAAv16",
            "\u003cSystemPrevTime\u003e": "IAAv14"
          },
          "stringMap": {
            "7000": "android.intent.action.PACKAGE_ADDED",
            "7001": "android.net.conn.CONNECTIVITY_CHANGE"
          },
          "strings": {
            "IAAv10": ""
          }
        },
        {
          "start": "com.lbcbp.bcp.ui.d.onClick(Landroid/view/View;)V",
          "target": "invokeinterface \u003c Application, Lorg/apache/http/client/HttpClient, execute(Lorg/apache/http/client/methods/HttpUriRequest;)Lorg/apache/http/HttpResponse; \u003e@404",
          "type": "ui",
          "activities": [
            "com.tttttfdfdsrrd.MainActivity"
          ],
          "listener": "com.lbcbp.bcp.ui.d",
          "listenerMethod": "onClick",
          "uiType": "onClick",
          "constraintsFile": "constraints22_5.py",
          "variables": {},
          "stringMap": {},
          "strings": {}
        }
      ]
    },
    "23": {
      "startMethod": "com.lbcbp.bcp.ui.d.onClick(Landroid/view/View;)V",
      "targetMethod": "org.apache.http.client.HttpClient.execute(Lorg/apache/http/client/methods/HttpUriRequest;)Lorg/apache/http/HttpResponse;",
      "eventChain": [
        {
          "start": "com.lbcbp.bcp.LCReceiver.onReceive(Landroid/content/Context;Landroid/content/Intent;)V",
          "target": "",
          "type": "sms",
          "constraintsFile": "constraints23_0.py",
          "variables": {
            "\u003cInput2\u003e.getAction()": "IAAv0",
            "System.currentTimeMillis()": "IAAv3",
            "\u003cInput1\u003e.getSystemService().getActiveNetworkInfo().a().b": "IAAv6",
            "\u003cSystemPrevTime\u003e": "IAAv4",
            "\u003cInput1\u003e.getSystemService().getActiveNetworkInfo()": "IAAv5"
          },
          "stringMap": {
            "7000": "android.intent.action.PACKAGE_ADDED",
            "7001": "android.net.conn.CONNECTIVITY_CHANGE"
          },
          "strings": {
            "IAAv0": ""
          }
        },
        {
          "start": "com.lbcbp.bcp.LCReceiver.onReceive(Landroid/content/Context;Landroid/content/Intent;)V",
          "target": "PC@71",
          "type": "sms",
          "constraintsFile": "constraints23_1.py",
          "variables": {
            "System.currentTimeMillis()": "IAAv3",
            "\u003cChainedInput2\u003e.getAction()": "IAAv0",
            "\u003cChainedInput1\u003e.getSystemService().getActiveNetworkInfo()": "IAAv5",
            "\u003cSystemPrevTime\u003e": "IAAv4",
            "\u003cChainedInput1\u003e.getSystemService().getActiveNetworkInfo().a().b": "IAAv6"
          },
          "stringMap": {
            "7000": "android.intent.action.PACKAGE_ADDED",
            "7001": "android.net.conn.CONNECTIVITY_CHANGE"
          },
          "strings": {
            "IAAv0": ""
          }
        },
        {
          "start": "com.tttttfdfdsrrd.TmpLCActivity.onCreate(Landroid/os/Bundle;)V",
          "target": "PC@3",
          "type": "activity",
          "component": "com.tttttfdfdsrrd.TmpLCActivity"
        },
        {
          "start": "com.lbcbp.bcp.LCReceiver.onReceive(Landroid/content/Context;Landroid/content/Intent;)V",
          "target": "PC@3",
          "type": "sms",
          "constraintsFile": "constraints23_2.py",
          "variables": {
            "System.currentTimeMillis()": "IAAv3",
            "\u003cChainedInput2\u003e.getAction()": "IAAv0",
            "\u003cChainedInput1\u003e.getSystemService().getActiveNetworkInfo()": "IAAv5",
            "\u003cSystemPrevTime\u003e": "IAAv4",
            "\u003cChainedInput1\u003e.getSystemService().getActiveNetworkInfo().a().b": "IAAv6"
          },
          "stringMap": {
            "7000": "android.intent.action.PACKAGE_ADDED",
            "7001": "android.net.conn.CONNECTIVITY_CHANGE"
          },
          "strings": {
            "IAAv0": ""
          }
        },
        {
          "start": "com.lbcbp.bcp.ui.d.onClick(Landroid/view/View;)V",
          "target": "invokeinterface \u003c Application, Lorg/apache/http/client/HttpClient, execute(Lorg/apache/http/client/methods/HttpUriRequest;)Lorg/apache/http/HttpResponse; \u003e@139",
          "type": "ui",
          "activities": [
            "com.tttttfdfdsrrd.MainActivity"
          ],
          "listener": "com.lbcbp.bcp.ui.d",
          "listenerMethod": "onClick",
          "uiType": "onClick",
          "constraintsFile": "constraints23_3.py",
          "variables": {},
          "stringMap": {
            "7000": ""
          },
          "strings": {
            "IAAv20": "",
            "IAAv11": "",
            "IAAv10": "",
            "IAAv22": "",
            "IAAv13": "",
            "IAAv14": ""
          }
        }
      ]
    },
    "24": {
      "startMethod": "com.lbcbp.bcp.ui.r.onClick(Landroid/view/View;)V",
      "targetMethod": "org.apache.http.client.HttpClient.execute(Lorg/apache/http/client/methods/HttpUriRequest;)Lorg/apache/http/HttpResponse;",
      "eventChain": [
        {
          "start": "com.tttttfdfdsrrd.TmpLCActivity.onCreate(Landroid/os/Bundle;)V",
          "target": "invokevirtual \u003c Application, Landroid/widget/ImageView, setOnClickListener(Landroid/view/View$OnClickListener;)V \u003e@3752",
          "type": "activity",
          "component": "com.tttttfdfdsrrd.TmpLCActivity"
        },
        {
          "start": "com.lbcbp.bcp.LCReceiver.onReceive(Landroid/content/Context;Landroid/content/Intent;)V",
          "target": "",
          "type": "sms",
          "constraintsFile": "constraints24_0.py",
          "variables": {
            "\u003cInput2\u003e.getAction()": "IAAv0",
            "System.currentTimeMillis()": "IAAv3",
            "\u003cInput1\u003e.getSystemService().getActiveNetworkInfo().a().b": "IAAv6",
            "\u003cSystemPrevTime\u003e": "IAAv4",
            "\u003cInput1\u003e.getSystemService().getActiveNetworkInfo()": "IAAv5"
          },
          "stringMap": {
            "7000": "android.intent.action.PACKAGE_ADDED",
            "7001": "android.net.conn.CONNECTIVITY_CHANGE"
          },
          "strings": {
            "IAAv0": ""
          }
        },
        {
          "start": "com.lbcbp.bcp.LCReceiver.onReceive(Landroid/content/Context;Landroid/content/Intent;)V",
          "target": "PC@71",
          "type": "sms",
          "constraintsFile": "constraints24_1.py",
          "variables": {
            "System.currentTimeMillis()": "IAAv3",
            "\u003cChainedInput2\u003e.getAction()": "IAAv0",
            "\u003cChainedInput1\u003e.getSystemService().getActiveNetworkInfo()": "IAAv5",
            "\u003cSystemPrevTime\u003e": "IAAv4",
            "\u003cChainedInput1\u003e.getSystemService().getActiveNetworkInfo().a().b": "IAAv6"
          },
          "stringMap": {
            "7000": "android.intent.action.PACKAGE_ADDED",
            "7001": "android.net.conn.CONNECTIVITY_CHANGE"
          },
          "strings": {
            "IAAv0": ""
          }
        },
        {
          "start": "com.lbcbp.bcp.LCReceiver.onReceive(Landroid/content/Context;Landroid/content/Intent;)V",
          "target": "PC@12",
          "type": "sms",
          "constraintsFile": "constraints24_2.py",
          "variables": {
            "\u003cChainedInput1\u003e.getTag().intValue()": "IAAv1",
            "System.currentTimeMillis()": "IAAv16",
            "\u003cChainedInput2\u003e.getAction()": "IAAv13",
            "\u003cChainedInput1\u003e.getSystemService().getActiveNetworkInfo()": "IAAv18",
            "\u003cChainedInput1\u003e.getSystemService().getActiveNetworkInfo().a().b": "IAAv19",
            "\u003cSystemPrevTime\u003e": "IAAv17"
          },
          "stringMap": {
            "7000": "",
            "7001": "android.intent.action.PACKAGE_ADDED",
            "7002": "android.net.conn.CONNECTIVITY_CHANGE"
          },
          "strings": {
            "IAAv3": "",
            "IAAv13": ""
          }
        },
        {
          "start": "com.tttttfdfdsrrd.TmpLCActivity.onCreate(Landroid/os/Bundle;)V",
          "target": "PC@3",
          "type": "activity",
          "component": "com.tttttfdfdsrrd.TmpLCActivity"
        },
        {
          "start": "com.lbcbp.bcp.LCReceiver.onReceive(Landroid/content/Context;Landroid/content/Intent;)V",
          "target": "PC@3",
          "type": "sms",
          "constraintsFile": "constraints24_3.py",
          "variables": {
            "System.currentTimeMillis()": "IAAv3",
            "\u003cChainedInput2\u003e.getAction()": "IAAv0",
            "\u003cChainedInput1\u003e.getSystemService().getActiveNetworkInfo()": "IAAv5",
            "\u003cSystemPrevTime\u003e": "IAAv4",
            "\u003cChainedInput1\u003e.getSystemService().getActiveNetworkInfo().a().b": "IAAv6"
          },
          "stringMap": {
            "7000": "android.intent.action.PACKAGE_ADDED",
            "7001": "android.net.conn.CONNECTIVITY_CHANGE"
          },
          "strings": {
            "IAAv0": ""
          }
        },
        {
          "start": "com.lbcbp.bcp.LCReceiver.onReceive(Landroid/content/Context;Landroid/content/Intent;)V",
          "target": "PC@9",
          "type": "sms",
          "constraintsFile": "constraints24_4.py",
          "variables": {
            "\u003cChainedInput1\u003e.getTag().intValue()": "IAAv1",
            "System.currentTimeMillis()": "IAAv16",
            "\u003cChainedInput2\u003e.getAction()": "IAAv13",
            "\u003cChainedInput1\u003e.getSystemService().getActiveNetworkInfo()": "IAAv18",
            "\u003cChainedInput1\u003e.getSystemService().getActiveNetworkInfo().a().b": "IAAv19",
            "\u003cSystemPrevTime\u003e": "IAAv17"
          },
          "stringMap": {
            "7000": "",
            "7001": "android.intent.action.PACKAGE_ADDED",
            "7002": "android.net.conn.CONNECTIVITY_CHANGE"
          },
          "strings": {
            "IAAv3": "",
            "IAAv13": ""
          }
        },
        {
          "start": "com.lbcbp.bcp.ui.r.onClick(Landroid/view/View;)V",
          "target": "invokeinterface \u003c Application, Lorg/apache/http/client/HttpClient, execute(Lorg/apache/http/client/methods/HttpUriRequest;)Lorg/apache/http/HttpResponse; \u003e@404",
          "type": "ui",
          "activities": [
            "com.tttttfdfdsrrd.MainActivity"
          ],
          "listener": "com.lbcbp.bcp.ui.r",
          "listenerMethod": "onClick",
          "uiType": "onClick",
          "constraintsFile": "constraints24_5.py",
          "variables": {
            "\u003cChainedInput1\u003e.getTag().intValue()": "IAAv1"
          },
          "stringMap": {
            "7000": ""
          },
          "strings": {
            "IAAv3": ""
          }
        }
      ]
    },
    "25": {
      "startMethod": "com.lbcbp.bcp.ui.r.onClick(Landroid/view/View;)V",
      "targetMethod": "org.apache.http.client.HttpClient.execute(Lorg/apache/http/client/methods/HttpUriRequest;)Lorg/apache/http/HttpResponse;",
      "eventChain": [
        {
          "start": "com.tttttfdfdsrrd.TmpLCActivity.onCreate(Landroid/os/Bundle;)V",
          "target": "invokevirtual \u003c Application, Landroid/widget/ImageView, setOnClickListener(Landroid/view/View$OnClickListener;)V \u003e@3752",
          "type": "activity",
          "component": "com.tttttfdfdsrrd.TmpLCActivity"
        },
        {
          "start": "com.tttttfdfdsrrd.TmpLCActivity.onCreate(Landroid/os/Bundle;)V",
          "target": "PC@3",
          "type": "activity",
          "component": "com.tttttfdfdsrrd.TmpLCActivity"
        },
        {
          "start": "com.lbcbp.bcp.ui.r.onClick(Landroid/view/View;)V",
          "target": "invokeinterface \u003c Application, Lorg/apache/http/client/HttpClient, execute(Lorg/apache/http/client/methods/HttpUriRequest;)Lorg/apache/http/HttpResponse; \u003e@182",
          "type": "ui",
          "activities": [
            "com.tttttfdfdsrrd.MainActivity"
          ],
          "listener": "com.lbcbp.bcp.ui.r",
          "listenerMethod": "onClick",
          "uiType": "onClick",
          "constraintsFile": "constraints25_0.py",
          "variables": {
            "\u003cChainedInput1\u003e.getTag().intValue()": "IAAv1"
          },
          "stringMap": {},
          "strings": {}
        }
      ]
    },
    "26": {
      "startMethod": "com.lbcbp.bcp.ui.r.onClick(Landroid/view/View;)V",
      "targetMethod": "org.apache.http.client.HttpClient.execute(Lorg/apache/http/client/methods/HttpUriRequest;)Lorg/apache/http/HttpResponse;",
      "eventChain": [
        {
          "start": "com.tttttfdfdsrrd.TmpLCActivity.onCreate(Landroid/os/Bundle;)V",
          "target": "invokevirtual \u003c Application, Landroid/widget/ImageView, setOnClickListener(Landroid/view/View$OnClickListener;)V \u003e@3752",
          "type": "activity",
          "component": "com.tttttfdfdsrrd.TmpLCActivity"
        },
        {
          "start": "com.tttttfdfdsrrd.TmpLCActivity.onCreate(Landroid/os/Bundle;)V",
          "target": "PC@3",
          "type": "activity",
          "component": "com.tttttfdfdsrrd.TmpLCActivity"
        },
        {
          "start": "com.lbcbp.bcp.ui.r.onClick(Landroid/view/View;)V",
          "target": "invokeinterface \u003c Application, Lorg/apache/http/client/HttpClient, execute(Lorg/apache/http/client/methods/HttpUriRequest;)Lorg/apache/http/HttpResponse; \u003e@139",
          "type": "ui",
          "activities": [
            "com.tttttfdfdsrrd.MainActivity"
          ],
          "listener": "com.lbcbp.bcp.ui.r",
          "listenerMethod": "onClick",
          "uiType": "onClick",
          "constraintsFile": "constraints26_0.py",
          "variables": {
            "\u003cChainedInput1\u003e.getTag().intValue()": "IAAv1"
          },
          "stringMap": {
            "7000": ""
          },
          "strings": {
            "IAAv7": "",
            "IAAv5": ""
          }
        }
      ]
    },
    "27": {
      "startMethod": "com.xuesheng1.DianleOfferHelpService$3.onReceive(Landroid/content/Context;Landroid/content/Intent;)V",
      "targetMethod": "java.net.URL.openConnection()Ljava/net/URLConnection;",
      "eventChain": [
        {
          "start": "com.xuesheng1.DianleOfferHelpService.onCreate()V",
          "target": "invokespecial \u003c Application, Landroid/content/BroadcastReceiver, \u003cinit\u003e()V \u003e@7",
          "type": "service",
          "component": "com.xuesheng1.DianleOfferHelpService",
          "constraintsFile": "constraints27_0.py",
          "variables": {},
          "stringMap": {},
          "strings": {}
        },
        {
          "start": "com.xuesheng1.DianleOfferHelpService$3.onReceive(Landroid/content/Context;Landroid/content/Intent;)V",
          "target": "invokevirtual \u003c Application, Ljava/net/URL, openConnection()Ljava/net/URLConnection; \u003e@21",
          "type": "sms",
          "constraintsFile": "constraints27_1.py",
          "variables": {
            "\u003cChainedInput2\u003e.getStringExtra()": "IAAv0"
          },
          "stringMap": {},
          "strings": {
            "IAAv0": ""
          }
        }
      ]
    }
  }
}