{
  "packageName": "com.vialsoft.radarwarner_lite",
  "mainActivity": "com.vialsoft.radarwarner_lite.Splash",
  "callPaths": {
    "0": {
      "startMethod": "com.vialsoft.radarwarner_lite.RadaresActivity.onResume()V",
      "targetMethod": "java.lang.ClassLoader.loadClass(Ljava/lang/String;)Ljava/lang/Class;",
      "eventChain": [
        {
          "start": "com.vialsoft.radarwarner_lite.RadaresActivity.onResume()V",
          "target": "PC@33",
          "type": "activity",
          "component": "com.vialsoft.radarwarner_lite.RadaresActivity",
          "constraintsFile": "constraints0_0.py",
          "variables": {
            "SharedPreferences\u003cm_bShowMap\u003e": "IAAv8"
          },
          "stringMap": {},
          "strings": {}
        },
        {
          "start": "com.vialsoft.radarwarner_lite.RadaresActivity.onResume()V",
          "target": "invokevirtual \u003c Application, Ljava/lang/ClassLoader, loadClass(Ljava/lang/String;)Ljava/lang/Class; \u003e@13",
          "type": "activity",
          "component": "com.vialsoft.radarwarner_lite.RadaresActivity",
          "constraintsFile": "constraints0_1.py",
          "variables": {},
          "stringMap": {},
          "strings": {}
        }
      ]
    },
    "1": {
      "startMethod": "com.vialsoft.radarwarner_lite.RadaresActivity.onCreate(Landroid/os/Bundle;)V",
      "targetMethod": "java.lang.ClassLoader.loadClass(Ljava/lang/String;)Ljava/lang/Class;",
      "eventChain": [
        {
          "start": "com.vialsoft.radarwarner_lite.RadaresActivity.onResume()V",
          "target": "PC@33",
          "type": "activity",
          "component": "com.vialsoft.radarwarner_lite.RadaresActivity",
          "constraintsFile": "constraints1_0.py",
          "variables": {
            "SharedPreferences\u003cm_bShowMap\u003e": "IAAv8"
          },
          "stringMap": {},
          "strings": {}
        },
        {
          "start": "com.vialsoft.radarwarner_lite.RadaresActivity.onCreate(Landroid/os/Bundle;)V",
          "target": "invokevirtual \u003c Application, Ljava/lang/ClassLoader, loadClass(Ljava/lang/String;)Ljava/lang/Class; \u003e@13",
          "type": "activity",
          "component": "com.vialsoft.radarwarner_lite.RadaresActivity",
          "constraintsFile": "constraints1_1.py",
          "variables": {},
          "stringMap": {},
          "strings": {}
        }
      ]
    },
    "2": {
      "startMethod": "com.vialsoft.radarwarner_lite.v.onPreferenceClick(Landroid/preference/Preference;)Z",
      "targetMethod": "java.net.URL.openConnection()Ljava/net/URLConnection;",
      "eventChain": [
        {
          "start": "com.vialsoft.radarwarner_lite.SettingsActivity.onCreate(Landroid/os/Bundle;)V",
          "target": "invokevirtual \u003c Application, Landroid/preference/Preference, setOnPreferenceClickListener(Landroid/preference/Preference$OnPreferenceClickListener;)V \u003e@362",
          "type": "activity",
          "component": "com.vialsoft.radarwarner_lite.SettingsActivity"
        },
        {
          "start": "com.vialsoft.radarwarner_lite.v.onPreferenceClick(Landroid/preference/Preference;)Z",
          "target": "invokevirtual \u003c Application, Ljava/net/URL, openConnection()Ljava/net/URLConnection; \u003e@108",
          "type": ""
        }
      ]
    }
  }
}