{
  "packageName": "com.cloud_inside.mobile.glosbedictionary.fite",
  "mainActivity": "com.cloud_inside.mobile.glosbedictionary.fite.MainGlosbeDictionaryActivity",
  "callPaths": {
    "0": {
      "startMethod": "com.cloud_inside.mobile.glosbedictionary.fite.ChooseDictionaryActivity.onCreate(Landroid/os/Bundle;)V",
      "targetMethod": "java.lang.reflect.Method.invoke(Ljava/lang/Object;[Ljava/lang/Object;)Ljava/lang/Object;",
      "eventChain": [
        {
          "start": "com.cloud_inside.mobile.glosbedictionary.fite.ChooseDictionaryActivity.\u003cinit\u003e()V",
          "target": "PC@9",
          "type": ""
        },
        {
          "start": "com.cloud_inside.mobile.glosbedictionary.fite.ChooseDictionaryActivity.onCreate(Landroid/os/Bundle;)V",
          "target": "invokevirtual \u003c Application, Ljava/lang/reflect/Method, invoke(Ljava/lang/Object;[Ljava/lang/Object;)Ljava/lang/Object; \u003e@45",
          "type": "activity",
          "component": "com.cloud_inside.mobile.glosbedictionary.fite.ChooseDictionaryActivity",
          "constraintsFile": "constraints0_0.py",
          "variables": {},
          "stringMap": {},
          "strings": {}
        }
      ]
    },
    "1": {
      "startMethod": "org.droidparts.fragment.stock.DialogFragment.onCreateView(Landroid/view/LayoutInflater;Landroid/view/ViewGroup;Landroid/os/Bundle;)Landroid/view/View;",
      "targetMethod": "java.lang.reflect.Method.invoke(Ljava/lang/Object;[Ljava/lang/Object;)Ljava/lang/Object;",
      "eventChain": [
        {
          "start": "org.droidparts.fragment.stock.DialogFragment.onCreateView(Landroid/view/LayoutInflater;Landroid/view/ViewGroup;Landroid/os/Bundle;)Landroid/view/View;",
          "target": "invokevirtual \u003c Application, Ljava/lang/reflect/Method, invoke(Ljava/lang/Object;[Ljava/lang/Object;)Ljava/lang/Object; \u003e@126",
          "type": ""
        }
      ]
    },
    "2": {
      "startMethod": "org.droidparts.fragment.stock.DialogFragment.onCreateView(Landroid/view/LayoutInflater;Landroid/view/ViewGroup;Landroid/os/Bundle;)Landroid/view/View;",
      "targetMethod": "java.lang.reflect.Method.invoke(Ljava/lang/Object;[Ljava/lang/Object;)Ljava/lang/Object;",
      "eventChain": [
        {
          "start": "org.droidparts.fragment.stock.DialogFragment.onCreateView(Landroid/view/LayoutInflater;Landroid/view/ViewGroup;Landroid/os/Bundle;)Landroid/view/View;",
          "target": "invokevirtual \u003c Application, Ljava/lang/reflect/Method, invoke(Ljava/lang/Object;[Ljava/lang/Object;)Ljava/lang/Object; \u003e@82",
          "type": ""
        }
      ]
    },
    "3": {
      "startMethod": "org.droidparts.fragment.stock.DialogFragment.onCreateView(Landroid/view/LayoutInflater;Landroid/view/ViewGroup;Landroid/os/Bundle;)Landroid/view/View;",
      "targetMethod": "java.lang.reflect.Method.invoke(Ljava/lang/Object;[Ljava/lang/Object;)Ljava/lang/Object;",
      "eventChain": [
        {
          "start": "org.droidparts.fragment.stock.DialogFragment.onCreateView(Landroid/view/LayoutInflater;Landroid/view/ViewGroup;Landroid/os/Bundle;)Landroid/view/View;",
          "target": "invokevirtual \u003c Application, Ljava/lang/reflect/Method, invoke(Ljava/lang/Object;[Ljava/lang/Object;)Ljava/lang/Object; \u003e@81",
          "type": ""
        }
      ]
    },
    "4": {
      "startMethod": "org.droidparts.fragment.stock.DialogFragment.onCreateView(Landroid/view/LayoutInflater;Landroid/view/ViewGroup;Landroid/os/Bundle;)Landroid/view/View;",
      "targetMethod": "java.lang.reflect.Method.invoke(Ljava/lang/Object;[Ljava/lang/Object;)Ljava/lang/Object;",
      "eventChain": [
        {
          "start": "org.droidparts.fragment.stock.DialogFragment.onCreateView(Landroid/view/LayoutInflater;Landroid/view/ViewGroup;Landroid/os/Bundle;)Landroid/view/View;",
          "target": "invokevirtual \u003c Application, Ljava/lang/reflect/Method, invoke(Ljava/lang/Object;[Ljava/lang/Object;)Ljava/lang/Object; \u003e@242",
          "type": ""
        }
      ]
    },
    "5": {
      "startMethod": "com.cloud_inside.mobile.glosbedictionary.fite.ManageDictionariesActivity.onCreate(Landroid/os/Bundle;)V",
      "targetMethod": "java.lang.reflect.Method.invoke(Ljava/lang/Object;[Ljava/lang/Object;)Ljava/lang/Object;",
      "eventChain": [
        {
          "start": "com.cloud_inside.mobile.glosbedictionary.fite.ManageDictionariesActivity.\u003cinit\u003e()V",
          "target": "PC@17",
          "type": ""
        },
        {
          "start": "com.cloud_inside.mobile.glosbedictionary.fite.ManageDictionariesActivity.\u003cinit\u003e()V",
          "target": "PC@7",
          "type": ""
        },
        {
          "start": "com.cloud_inside.mobile.glosbedictionary.fite.ManageDictionariesActivity.onCreate(Landroid/os/Bundle;)V",
          "target": "invokevirtual \u003c Application, Ljava/lang/reflect/Method, invoke(Ljava/lang/Object;[Ljava/lang/Object;)Ljava/lang/Object; \u003e@45",
          "type": "activity",
          "component": "com.cloud_inside.mobile.glosbedictionary.fite.ManageDictionariesActivity",
          "constraintsFile": "constraints5_0.py",
          "variables": {},
          "stringMap": {},
          "strings": {}
        }
      ]
    },
    "6": {
      "startMethod": "org.droidparts.fragment.stock.ListFragment.onCreateView(Landroid/view/LayoutInflater;Landroid/view/ViewGroup;Landroid/os/Bundle;)Landroid/view/View;",
      "targetMethod": "java.lang.reflect.Method.invoke(Ljava/lang/Object;[Ljava/lang/Object;)Ljava/lang/Object;",
      "eventChain": [
        {
          "start": "org.droidparts.fragment.stock.ListFragment.onCreateView(Landroid/view/LayoutInflater;Landroid/view/ViewGroup;Landroid/os/Bundle;)Landroid/view/View;",
          "target": "invokevirtual \u003c Application, Ljava/lang/reflect/Method, invoke(Ljava/lang/Object;[Ljava/lang/Object;)Ljava/lang/Object; \u003e@126",
          "type": ""
        }
      ]
    },
    "7": {
      "startMethod": "org.droidparts.fragment.stock.ListFragment.onCreateView(Landroid/view/LayoutInflater;Landroid/view/ViewGroup;Landroid/os/Bundle;)Landroid/view/View;",
      "targetMethod": "java.lang.reflect.Method.invoke(Ljava/lang/Object;[Ljava/lang/Object;)Ljava/lang/Object;",
      "eventChain": [
        {
          "start": "org.droidparts.fragment.stock.ListFragment.onCreateView(Landroid/view/LayoutInflater;Landroid/view/ViewGroup;Landroid/os/Bundle;)Landroid/view/View;",
          "target": "invokevirtual \u003c Application, Ljava/lang/reflect/Method, invoke(Ljava/lang/Object;[Ljava/lang/Object;)Ljava/lang/Object; \u003e@81",
          "type": ""
        }
      ]
    },
    "8": {
      "startMethod": "org.droidparts.fragment.stock.ListFragment.onCreateView(Landroid/view/LayoutInflater;Landroid/view/ViewGroup;Landroid/os/Bundle;)Landroid/view/View;",
      "targetMethod": "java.lang.reflect.Method.invoke(Ljava/lang/Object;[Ljava/lang/Object;)Ljava/lang/Object;",
      "eventChain": [
        {
          "start": "org.droidparts.fragment.stock.ListFragment.onCreateView(Landroid/view/LayoutInflater;Landroid/view/ViewGroup;Landroid/os/Bundle;)Landroid/view/View;",
          "target": "invokevirtual \u003c Application, Ljava/lang/reflect/Method, invoke(Ljava/lang/Object;[Ljava/lang/Object;)Ljava/lang/Object; \u003e@242",
          "type": ""
        }
      ]
    },
    "9": {
      "startMethod": "org.droidparts.fragment.stock.ListFragment.onCreateView(Landroid/view/LayoutInflater;Landroid/view/ViewGroup;Landroid/os/Bundle;)Landroid/view/View;",
      "targetMethod": "java.lang.reflect.Method.invoke(Ljava/lang/Object;[Ljava/lang/Object;)Ljava/lang/Object;",
      "eventChain": [
        {
          "start": "org.droidparts.fragment.stock.ListFragment.onCreateView(Landroid/view/LayoutInflater;Landroid/view/ViewGroup;Landroid/os/Bundle;)Landroid/view/View;",
          "target": "invokevirtual \u003c Application, Ljava/lang/reflect/Method, invoke(Ljava/lang/Object;[Ljava/lang/Object;)Ljava/lang/Object; \u003e@82",
          "type": ""
        }
      ]
    },
    "10": {
      "startMethod": "com.cloud_inside.mobile.glosbedictionary.fite.MainGlosbeDictionaryActivity.onCreate(Landroid/os/Bundle;)V",
      "targetMethod": "java.lang.reflect.Method.invoke(Ljava/lang/Object;[Ljava/lang/Object;)Ljava/lang/Object;",
      "eventChain": [
        {
          "start": "com.cloud_inside.mobile.glosbedictionary.fite.MainGlosbeDictionaryActivity.onCreate(Landroid/os/Bundle;)V",
          "target": "invokevirtual \u003c Application, Ljava/lang/reflect/Method, invoke(Ljava/lang/Object;[Ljava/lang/Object;)Ljava/lang/Object; \u003e@45",
          "type": "activity",
          "component": "com.cloud_inside.mobile.glosbedictionary.fite.MainGlosbeDictionaryActivity"
        }
      ]
    },
    "11": {
      "startMethod": "org.droidparts.fragment.stock.PreferenceFragment.onCreateView(Landroid/view/LayoutInflater;Landroid/view/ViewGroup;Landroid/os/Bundle;)Landroid/view/View;",
      "targetMethod": "java.lang.reflect.Method.invoke(Ljava/lang/Object;[Ljava/lang/Object;)Ljava/lang/Object;",
      "eventChain": [
        {
          "start": "org.droidparts.fragment.stock.PreferenceFragment.onCreateView(Landroid/view/LayoutInflater;Landroid/view/ViewGroup;Landroid/os/Bundle;)Landroid/view/View;",
          "target": "invokevirtual \u003c Application, Ljava/lang/reflect/Method, invoke(Ljava/lang/Object;[Ljava/lang/Object;)Ljava/lang/Object; \u003e@81",
          "type": ""
        }
      ]
    },
    "12": {
      "startMethod": "org.droidparts.fragment.stock.PreferenceFragment.onCreateView(Landroid/view/LayoutInflater;Landroid/view/ViewGroup;Landroid/os/Bundle;)Landroid/view/View;",
      "targetMethod": "java.lang.reflect.Method.invoke(Ljava/lang/Object;[Ljava/lang/Object;)Ljava/lang/Object;",
      "eventChain": [
        {
          "start": "org.droidparts.fragment.stock.PreferenceFragment.onCreateView(Landroid/view/LayoutInflater;Landroid/view/ViewGroup;Landroid/os/Bundle;)Landroid/view/View;",
          "target": "invokevirtual \u003c Application, Ljava/lang/reflect/Method, invoke(Ljava/lang/Object;[Ljava/lang/Object;)Ljava/lang/Object; \u003e@126",
          "type": ""
        }
      ]
    },
    "13": {
      "startMethod": "org.droidparts.fragment.stock.PreferenceFragment.onCreateView(Landroid/view/LayoutInflater;Landroid/view/ViewGroup;Landroid/os/Bundle;)Landroid/view/View;",
      "targetMethod": "java.lang.reflect.Method.invoke(Ljava/lang/Object;[Ljava/lang/Object;)Ljava/lang/Object;",
      "eventChain": [
        {
          "start": "org.droidparts.fragment.stock.PreferenceFragment.onCreateView(Landroid/view/LayoutInflater;Landroid/view/ViewGroup;Landroid/os/Bundle;)Landroid/view/View;",
          "target": "invokevirtual \u003c Application, Ljava/lang/reflect/Method, invoke(Ljava/lang/Object;[Ljava/lang/Object;)Ljava/lang/Object; \u003e@242",
          "type": ""
        }
      ]
    },
    "14": {
      "startMethod": "org.droidparts.fragment.stock.PreferenceFragment.onCreateView(Landroid/view/LayoutInflater;Landroid/view/ViewGroup;Landroid/os/Bundle;)Landroid/view/View;",
      "targetMethod": "java.lang.reflect.Method.invoke(Ljava/lang/Object;[Ljava/lang/Object;)Ljava/lang/Object;",
      "eventChain": [
        {
          "start": "org.droidparts.fragment.stock.PreferenceFragment.onCreateView(Landroid/view/LayoutInflater;Landroid/view/ViewGroup;Landroid/os/Bundle;)Landroid/view/View;",
          "target": "invokevirtual \u003c Application, Ljava/lang/reflect/Method, invoke(Ljava/lang/Object;[Ljava/lang/Object;)Ljava/lang/Object; \u003e@82",
          "type": ""
        }
      ]
    },
    "15": {
      "startMethod": "com.cloud_inside.mobile.glosbedictionary.fite.util.ConnectionChangeReceiver.onReceive(Landroid/content/Context;Landroid/content/Intent;)V",
      "targetMethod": "java.lang.reflect.Method.invoke(Ljava/lang/Object;[Ljava/lang/Object;)Ljava/lang/Object;",
      "eventChain": [
        {
          "start": "com.cloud_inside.mobile.glosbedictionary.fite.util.ConnectionChangeReceiver.onReceive(Landroid/content/Context;Landroid/content/Intent;)V",
          "target": "invokevirtual \u003c Application, Ljava/lang/reflect/Method, invoke(Ljava/lang/Object;[Ljava/lang/Object;)Ljava/lang/Object; \u003e@45",
          "type": "sms",
          "constraintsFile": "constraints15_0.py",
          "variables": {
            "\u003cChainedInput1\u003e.getSystemService().getActiveNetworkInfo()": "IAAv0",
            "\u003cChainedInput1\u003e.getSystemService().getActiveNetworkInfo().getState()": "IAAv1"
          },
          "stringMap": {},
          "strings": {}
        }
      ]
    },
    "16": {
      "startMethod": "org.droidparts.fragment.stock.Fragment.onCreateView(Landroid/view/LayoutInflater;Landroid/view/ViewGroup;Landroid/os/Bundle;)Landroid/view/View;",
      "targetMethod": "java.lang.reflect.Method.invoke(Ljava/lang/Object;[Ljava/lang/Object;)Ljava/lang/Object;",
      "eventChain": [
        {
          "start": "org.droidparts.fragment.stock.Fragment.onCreateView(Landroid/view/LayoutInflater;Landroid/view/ViewGroup;Landroid/os/Bundle;)Landroid/view/View;",
          "target": "invokevirtual \u003c Application, Ljava/lang/reflect/Method, invoke(Ljava/lang/Object;[Ljava/lang/Object;)Ljava/lang/Object; \u003e@126",
          "type": ""
        }
      ]
    },
    "17": {
      "startMethod": "org.droidparts.fragment.stock.Fragment.onCreateView(Landroid/view/LayoutInflater;Landroid/view/ViewGroup;Landroid/os/Bundle;)Landroid/view/View;",
      "targetMethod": "java.lang.reflect.Method.invoke(Ljava/lang/Object;[Ljava/lang/Object;)Ljava/lang/Object;",
      "eventChain": [
        {
          "start": "org.droidparts.fragment.stock.Fragment.onCreateView(Landroid/view/LayoutInflater;Landroid/view/ViewGroup;Landroid/os/Bundle;)Landroid/view/View;",
          "target": "invokevirtual \u003c Application, Ljava/lang/reflect/Method, invoke(Ljava/lang/Object;[Ljava/lang/Object;)Ljava/lang/Object; \u003e@82",
          "type": ""
        }
      ]
    },
    "18": {
      "startMethod": "org.droidparts.fragment.stock.Fragment.onCreateView(Landroid/view/LayoutInflater;Landroid/view/ViewGroup;Landroid/os/Bundle;)Landroid/view/View;",
      "targetMethod": "java.lang.reflect.Method.invoke(Ljava/lang/Object;[Ljava/lang/Object;)Ljava/lang/Object;",
      "eventChain": [
        {
          "start": "org.droidparts.fragment.stock.Fragment.onCreateView(Landroid/view/LayoutInflater;Landroid/view/ViewGroup;Landroid/os/Bundle;)Landroid/view/View;",
          "target": "invokevirtual \u003c Application, Ljava/lang/reflect/Method, invoke(Ljava/lang/Object;[Ljava/lang/Object;)Ljava/lang/Object; \u003e@81",
          "type": ""
        }
      ]
    },
    "19": {
      "startMethod": "org.droidparts.fragment.stock.Fragment.onCreateView(Landroid/view/LayoutInflater;Landroid/view/ViewGroup;Landroid/os/Bundle;)Landroid/view/View;",
      "targetMethod": "java.lang.reflect.Method.invoke(Ljava/lang/Object;[Ljava/lang/Object;)Ljava/lang/Object;",
      "eventChain": [
        {
          "start": "org.droidparts.fragment.stock.Fragment.onCreateView(Landroid/view/LayoutInflater;Landroid/view/ViewGroup;Landroid/os/Bundle;)Landroid/view/View;",
          "target": "invokevirtual \u003c Application, Ljava/lang/reflect/Method, invoke(Ljava/lang/Object;[Ljava/lang/Object;)Ljava/lang/Object; \u003e@242",
          "type": ""
        }
      ]
    },
    "20": {
      "startMethod": "com.cloud_inside.mobile.glosbedictionary.fite.MainGlosbeDictionaryActivity$1.onGlobalLayout()V",
      "targetMethod": "java.lang.reflect.Method.invoke(Ljava/lang/Object;[Ljava/lang/Object;)Ljava/lang/Object;",
      "eventChain": [
        {
          "start": "com.cloud_inside.mobile.glosbedictionary.fite.MainGlosbeDictionaryActivity.onCreate(Landroid/os/Bundle;)V",
          "target": "invokevirtual \u003c Application, Landroid/view/ViewTreeObserver, addOnGlobalLayoutListener(Landroid/view/ViewTreeObserver$OnGlobalLayoutListener;)V \u003e@199",
          "type": "activity",
          "component": "com.cloud_inside.mobile.glosbedictionary.fite.MainGlosbeDictionaryActivity",
          "constraintsFile": "constraints20_0.py",
          "variables": {},
          "stringMap": {},
          "strings": {}
        },
        {
          "start": "com.cloud_inside.mobile.glosbedictionary.fite.MainGlosbeDictionaryActivity$1.onGlobalLayout()V",
          "target": "invokevirtual \u003c Application, Ljava/lang/reflect/Method, invoke(Ljava/lang/Object;[Ljava/lang/Object;)Ljava/lang/Object; \u003e@45",
          "type": "ui",
          "activities": [
            "com.cloud_inside.mobile.glosbedictionary.fite.MainGlosbeDictionaryActivity"
          ],
          "listener": "com.cloud_inside.mobile.glosbedictionary.fite.MainGlosbeDictionaryActivity$1",
          "listenerMethod": "onGlobalLayout",
          "uiType": "onGlobalLayout",
          "constraintsFile": "constraints20_1.py",
          "variables": {},
          "stringMap": {},
          "strings": {}
        }
      ]
    },
    "21": {
      "startMethod": "com.cloud_inside.mobile.glosbedictionary.fite.ChooseDictionaryActivity$3.onItemClick(Landroid/widget/AdapterView;Landroid/view/View;IJ)V",
      "targetMethod": "java.lang.reflect.Method.invoke(Ljava/lang/Object;[Ljava/lang/Object;)Ljava/lang/Object;",
      "eventChain": [
        {
          "start": "com.cloud_inside.mobile.glosbedictionary.fite.ChooseDictionaryActivity.onCreate(Landroid/os/Bundle;)V",
          "target": "invokevirtual \u003c Application, Landroid/widget/ListView, setOnItemClickListener(Landroid/widget/AdapterView$OnItemClickListener;)V \u003e@303",
          "type": "activity",
          "component": "com.cloud_inside.mobile.glosbedictionary.fite.ChooseDictionaryActivity",
          "constraintsFile": "constraints21_0.py",
          "variables": {},
          "stringMap": {},
          "strings": {}
        },
        {
          "start": "com.cloud_inside.mobile.glosbedictionary.fite.ChooseDictionaryActivity$3.onItemClick(Landroid/widget/AdapterView;Landroid/view/View;IJ)V",
          "target": "invokevirtual \u003c Application, Ljava/lang/reflect/Method, invoke(Ljava/lang/Object;[Ljava/lang/Object;)Ljava/lang/Object; \u003e@45",
          "type": "ui",
          "activities": [
            "com.cloud_inside.mobile.glosbedictionary.fite.MainGlosbeDictionaryActivity"
          ],
          "listener": "com.cloud_inside.mobile.glosbedictionary.fite.ChooseDictionaryActivity$3",
          "listenerMethod": "onItemClick",
          "uiType": "onItemClick",
          "constraintsFile": "constraints21_1.py",
          "variables": {},
          "stringMap": {
            "7000": "language_from"
          },
          "strings": {
            "IAAv0": ""
          }
        }
      ]
    },
    "22": {
      "startMethod": "com.cloud_inside.mobile.glosbedictionary.fite.fragments.SearchBoxFragment$3.onClick(Landroid/view/View;)V",
      "targetMethod": "java.lang.reflect.Method.invoke(Ljava/lang/Object;[Ljava/lang/Object;)Ljava/lang/Object;",
      "eventChain": [
        {
          "start": "com.cloud_inside.mobile.glosbedictionary.fite.fragments.SearchBoxFragment$3.onClick(Landroid/view/View;)V",
          "target": "invokevirtual \u003c Application, Ljava/lang/reflect/Method, invoke(Ljava/lang/Object;[Ljava/lang/Object;)Ljava/lang/Object; \u003e@45",
          "type": "ui",
          "activities": [
            "com.cloud_inside.mobile.glosbedictionary.fite.MainGlosbeDictionaryActivity"
          ],
          "listener": "com.cloud_inside.mobile.glosbedictionary.fite.fragments.SearchBoxFragment$3",
          "listenerMethod": "onClick",
          "uiType": "onClick",
          "constraintsFile": "constraints22_0.py",
          "variables": {},
          "stringMap": {},
          "strings": {}
        }
      ]
    },
    "23": {
      "startMethod": "com.cloud_inside.mobile.glosbedictionary.fite.adapters.DictionariesListAdapter$4.onClick(Landroid/view/View;)V",
      "targetMethod": "java.lang.reflect.Method.invoke(Ljava/lang/Object;[Ljava/lang/Object;)Ljava/lang/Object;",
      "eventChain": [
        {
          "start": "com.cloud_inside.mobile.glosbedictionary.fite.adapters.DictionariesListAdapter$4.onClick(Landroid/view/View;)V",
          "target": "invokevirtual \u003c Application, Ljava/lang/reflect/Method, invoke(Ljava/lang/Object;[Ljava/lang/Object;)Ljava/lang/Object; \u003e@45",
          "type": "ui",
          "activities": [
            "com.cloud_inside.mobile.glosbedictionary.fite.MainGlosbeDictionaryActivity"
          ],
          "listener": "com.cloud_inside.mobile.glosbedictionary.fite.adapters.DictionariesListAdapter$4",
          "listenerMethod": "onClick",
          "uiType": "onClick"
        }
      ]
    },
    "24": {
      "startMethod": "com.cloud_inside.mobile.glosbedictionary.fite.SettingsActivity$1.onSharedPreferenceChanged(Landroid/content/SharedPreferences;Ljava/lang/String;)V",
      "targetMethod": "java.lang.reflect.Method.invoke(Ljava/lang/Object;[Ljava/lang/Object;)Ljava/lang/Object;",
      "eventChain": [
        {
          "start": "com.cloud_inside.mobile.glosbedictionary.fite.SettingsActivity$1.onSharedPreferenceChanged(Landroid/content/SharedPreferences;Ljava/lang/String;)V",
          "target": "invokevirtual \u003c Application, Ljava/lang/reflect/Method, invoke(Ljava/lang/Object;[Ljava/lang/Object;)Ljava/lang/Object; \u003e@45",
          "type": "",
          "constraintsFile": "constraints24_0.py",
          "variables": {
            "\u003cInput2\u003e": "IAAv0"
          },
          "stringMap": {
            "7000": "use_offline_dictionary_if_available",
            "7001": "use_online_dictionary"
          },
          "strings": {
            "IAAv0": ""
          }
        }
      ]
    },
    "25": {
      "startMethod": "com.cloud_inside.mobile.glosbedictionary.fite.fragments.PhraseDetailsFragment$1.onItemClick(Landroid/widget/AdapterView;Landroid/view/View;IJ)V",
      "targetMethod": "java.lang.reflect.Method.invoke(Ljava/lang/Object;[Ljava/lang/Object;)Ljava/lang/Object;",
      "eventChain": [
        {
          "start": "com.cloud_inside.mobile.glosbedictionary.fite.fragments.PhraseDetailsFragment$1.onItemClick(Landroid/widget/AdapterView;Landroid/view/View;IJ)V",
          "target": "invokevirtual \u003c Application, Ljava/lang/reflect/Method, invoke(Ljava/lang/Object;[Ljava/lang/Object;)Ljava/lang/Object; \u003e@45",
          "type": "ui",
          "activities": [
            "com.cloud_inside.mobile.glosbedictionary.fite.MainGlosbeDictionaryActivity"
          ],
          "listener": "com.cloud_inside.mobile.glosbedictionary.fite.fragments.PhraseDetailsFragment$1",
          "listenerMethod": "onItemClick",
          "uiType": "onItemClick"
        }
      ]
    },
    "26": {
      "startMethod": "com.cloud_inside.mobile.glosbedictionary.fite.ManageDictionariesActivity$1$1.onClick(Landroid/content/DialogInterface;I)V",
      "targetMethod": "java.lang.reflect.Method.invoke(Ljava/lang/Object;[Ljava/lang/Object;)Ljava/lang/Object;",
      "eventChain": [
        {
          "start": "com.cloud_inside.mobile.glosbedictionary.fite.ManageDictionariesActivity$1.onClick(Landroid/view/View;)V",
          "target": "invokevirtual \u003c Application, Landroid/app/AlertDialog$Builder, setPositiveButton(ILandroid/content/DialogInterface$OnClickListener;)Landroid/app/AlertDialog$Builder; \u003e@50",
          "type": "ui",
          "activities": [
            "com.cloud_inside.mobile.glosbedictionary.fite.MainGlosbeDictionaryActivity"
          ],
          "listener": "com.cloud_inside.mobile.glosbedictionary.fite.ManageDictionariesActivity$1",
          "listenerMethod": "onClick",
          "uiType": "onClick"
        },
        {
          "start": "com.cloud_inside.mobile.glosbedictionary.fite.ManageDictionariesActivity$1$1.onClick(Landroid/content/DialogInterface;I)V",
          "target": "invokevirtual \u003c Application, Ljava/lang/reflect/Method, invoke(Ljava/lang/Object;[Ljava/lang/Object;)Ljava/lang/Object; \u003e@45",
          "type": "ui",
          "activities": [
            "com.cloud_inside.mobile.glosbedictionary.fite.MainGlosbeDictionaryActivity"
          ],
          "listener": "com.cloud_inside.mobile.glosbedictionary.fite.ManageDictionariesActivity$1$1",
          "listenerMethod": "onClick",
          "uiType": "onClick",
          "inDialog": "true"
        }
      ]
    },
    "27": {
      "startMethod": "com.cloud_inside.mobile.glosbedictionary.fite.adapters.DictionariesListAdapter$3$1.onClick(Landroid/content/DialogInterface;I)V",
      "targetMethod": "java.lang.reflect.Method.invoke(Ljava/lang/Object;[Ljava/lang/Object;)Ljava/lang/Object;",
      "eventChain": [
        {
          "start": "com.cloud_inside.mobile.glosbedictionary.fite.adapters.DictionariesListAdapter$3.onClick(Landroid/view/View;)V",
          "target": "invokevirtual \u003c Application, Landroid/app/AlertDialog$Builder, setPositiveButton(ILandroid/content/DialogInterface$OnClickListener;)Landroid/app/AlertDialog$Builder; \u003e@49",
          "type": "ui",
          "activities": [
            "com.cloud_inside.mobile.glosbedictionary.fite.MainGlosbeDictionaryActivity"
          ],
          "listener": "com.cloud_inside.mobile.glosbedictionary.fite.adapters.DictionariesListAdapter$3",
          "listenerMethod": "onClick",
          "uiType": "onClick"
        },
        {
          "start": "com.cloud_inside.mobile.glosbedictionary.fite.adapters.DictionariesListAdapter$3$1.onClick(Landroid/content/DialogInterface;I)V",
          "target": "invokevirtual \u003c Application, Ljava/lang/reflect/Method, invoke(Ljava/lang/Object;[Ljava/lang/Object;)Ljava/lang/Object; \u003e@45",
          "type": "ui",
          "activities": [
            "com.cloud_inside.mobile.glosbedictionary.fite.MainGlosbeDictionaryActivity"
          ],
          "listener": "com.cloud_inside.mobile.glosbedictionary.fite.adapters.DictionariesListAdapter$3$1",
          "listenerMethod": "onClick",
          "uiType": "onClick",
          "inDialog": "true"
        }
      ]
    },
    "28": {
      "startMethod": "org.droidparts.activity.sherlock.PreferenceActivity.onCreate(Landroid/os/Bundle;)V",
      "targetMethod": "java.lang.reflect.Method.invoke(Ljava/lang/Object;[Ljava/lang/Object;)Ljava/lang/Object;",
      "eventChain": [
        {
          "start": "org.droidparts.activity.sherlock.PreferenceActivity.onCreate(Landroid/os/Bundle;)V",
          "target": "invokespecial \u003c Application, Lcom/actionbarsherlock/app/SherlockPreferenceActivity, onCreate(Landroid/os/Bundle;)V \u003e@3",
          "type": ""
        },
        {
          "start": "org.droidparts.activity.sherlock.PreferenceActivity.onCreate(Landroid/os/Bundle;)V",
          "target": "invokevirtual \u003c Application, Ljava/lang/reflect/Method, invoke(Ljava/lang/Object;[Ljava/lang/Object;)Ljava/lang/Object; \u003e@242",
          "type": ""
        }
      ]
    },
    "29": {
      "startMethod": "org.droidparts.activity.sherlock.PreferenceActivity.onCreate(Landroid/os/Bundle;)V",
      "targetMethod": "java.lang.reflect.Method.invoke(Ljava/lang/Object;[Ljava/lang/Object;)Ljava/lang/Object;",
      "eventChain": [
        {
          "start": "org.droidparts.activity.sherlock.PreferenceActivity.onCreate(Landroid/os/Bundle;)V",
          "target": "invokespecial \u003c Application, Lcom/actionbarsherlock/app/SherlockPreferenceActivity, onCreate(Landroid/os/Bundle;)V \u003e@3",
          "type": ""
        },
        {
          "start": "org.droidparts.activity.sherlock.PreferenceActivity.onCreate(Landroid/os/Bundle;)V",
          "target": "invokevirtual \u003c Application, Ljava/lang/reflect/Method, invoke(Ljava/lang/Object;[Ljava/lang/Object;)Ljava/lang/Object; \u003e@81",
          "type": ""
        }
      ]
    },
    "30": {
      "startMethod": "org.droidparts.activity.sherlock.PreferenceActivity.onCreate(Landroid/os/Bundle;)V",
      "targetMethod": "java.lang.reflect.Method.invoke(Ljava/lang/Object;[Ljava/lang/Object;)Ljava/lang/Object;",
      "eventChain": [
        {
          "start": "org.droidparts.activity.sherlock.PreferenceActivity.onCreate(Landroid/os/Bundle;)V",
          "target": "invokespecial \u003c Application, Lcom/actionbarsherlock/app/SherlockPreferenceActivity, onCreate(Landroid/os/Bundle;)V \u003e@3",
          "type": ""
        },
        {
          "start": "org.droidparts.activity.sherlock.PreferenceActivity.onCreate(Landroid/os/Bundle;)V",
          "target": "invokevirtual \u003c Application, Ljava/lang/reflect/Method, invoke(Ljava/lang/Object;[Ljava/lang/Object;)Ljava/lang/Object; \u003e@82",
          "type": ""
        }
      ]
    },
    "31": {
      "startMethod": "org.droidparts.activity.sherlock.PreferenceActivity.onCreate(Landroid/os/Bundle;)V",
      "targetMethod": "java.lang.reflect.Method.invoke(Ljava/lang/Object;[Ljava/lang/Object;)Ljava/lang/Object;",
      "eventChain": [
        {
          "start": "org.droidparts.activity.sherlock.PreferenceActivity.onCreate(Landroid/os/Bundle;)V",
          "target": "invokespecial \u003c Application, Lcom/actionbarsherlock/app/SherlockPreferenceActivity, onCreate(Landroid/os/Bundle;)V \u003e@3",
          "type": ""
        },
        {
          "start": "org.droidparts.activity.sherlock.PreferenceActivity.onCreate(Landroid/os/Bundle;)V",
          "target": "invokevirtual \u003c Application, Ljava/lang/reflect/Method, invoke(Ljava/lang/Object;[Ljava/lang/Object;)Ljava/lang/Object; \u003e@126",
          "type": ""
        }
      ]
    }
  }
}