{
  "packageName": "air.ClownKiss",
  "mainActivity": "air.ClownKiss.AppEntry",
  "callPaths": {
    "0": {
      "startMethod": "air.ClownKiss.AppEntry.onCreate(Landroid/os/Bundle;)V",
      "targetMethod": "java.lang.reflect.Method.invoke(Ljava/lang/Object;[Ljava/lang/Object;)Ljava/lang/Object;",
      "eventChain": [
        {
          "start": "air.ClownKiss.AppEntry.onCreate(Landroid/os/Bundle;)V",
          "target": "",
          "type": "activity",
          "component": "air.ClownKiss.AppEntry"
        },
        {
          "start": "air.ClownKiss.AppEntry.onCreate(Landroid/os/Bundle;)V",
          "target": "invokevirtual \u003c Application, Ljava/lang/reflect/Method, invoke(Ljava/lang/Object;[Ljava/lang/Object;)Ljava/lang/Object; \u003e@62",
          "type": "activity",
          "component": "air.ClownKiss.AppEntry",
          "constraintsFile": "constraints0_0.py",
          "variables": {},
          "stringMap": {},
          "strings": {}
        }
      ]
    },
    "1": {
      "startMethod": "air.ClownKiss.AppEntry.onCreate(Landroid/os/Bundle;)V",
      "targetMethod": "java.lang.reflect.Method.invoke(Ljava/lang/Object;[Ljava/lang/Object;)Ljava/lang/Object;",
      "eventChain": [
        {
          "start": "air.ClownKiss.AppEntry.onCreate(Landroid/os/Bundle;)V",
          "target": "",
          "type": "activity",
          "component": "air.ClownKiss.AppEntry"
        },
        {
          "start": "air.ClownKiss.AppEntry.onCreate(Landroid/os/Bundle;)V",
          "target": "invokevirtual \u003c Application, Ljava/lang/reflect/Method, invoke(Ljava/lang/Object;[Ljava/lang/Object;)Ljava/lang/Object; \u003e@105",
          "type": "activity",
          "component": "air.ClownKiss.AppEntry",
          "constraintsFile": "constraints1_0.py",
          "variables": {},
          "stringMap": {},
          "strings": {}
        }
      ]
    },
    "2": {
      "startMethod": "air.ClownKiss.AppEntry.onCreate(Landroid/os/Bundle;)V",
      "targetMethod": "dalvik.system.DexClassLoader.loadClass(Ljava/lang/String;)Ljava/lang/Class;",
      "eventChain": [
        {
          "start": "air.ClownKiss.AppEntry.onCreate(Landroid/os/Bundle;)V",
          "target": "",
          "type": "activity",
          "component": "air.ClownKiss.AppEntry"
        },
        {
          "start": "air.ClownKiss.AppEntry.onCreate(Landroid/os/Bundle;)V",
          "target": "invokevirtual \u003c Application, Ldalvik/system/DexClassLoader, loadClass(Ljava/lang/String;)Ljava/lang/Class; \u003e@76",
          "type": "activity",
          "component": "air.ClownKiss.AppEntry",
          "constraintsFile": "constraints2_0.py",
          "variables": {},
          "stringMap": {},
          "strings": {}
        }
      ]
    },
    "3": {
      "startMethod": "air.ClownKiss.AppEntry.onCreate(Landroid/os/Bundle;)V",
      "targetMethod": "java.lang.reflect.Method.invoke(Ljava/lang/Object;[Ljava/lang/Object;)Ljava/lang/Object;",
      "eventChain": [
        {
          "start": "air.ClownKiss.AppEntry.onCreate(Landroid/os/Bundle;)V",
          "target": "",
          "type": "activity",
          "component": "air.ClownKiss.AppEntry"
        },
        {
          "start": "air.ClownKiss.AppEntry.onCreate(Landroid/os/Bundle;)V",
          "target": "invokevirtual \u003c Application, Ljava/lang/reflect/Method, invoke(Ljava/lang/Object;[Ljava/lang/Object;)Ljava/lang/Object; \u003e@32",
          "type": "activity",
          "component": "air.ClownKiss.AppEntry",
          "constraintsFile": "constraints3_0.py",
          "variables": {},
          "stringMap": {},
          "strings": {}
        }
      ]
    },
    "4": {
      "startMethod": "air.ClownKiss.AppEntry.onCreate(Landroid/os/Bundle;)V",
      "targetMethod": "java.lang.reflect.Method.invoke(Ljava/lang/Object;[Ljava/lang/Object;)Ljava/lang/Object;",
      "eventChain": [
        {
          "start": "air.ClownKiss.AppEntry.onCreate(Landroid/os/Bundle;)V",
          "target": "",
          "type": "activity",
          "component": "air.ClownKiss.AppEntry"
        },
        {
          "start": "air.ClownKiss.AppEntry.onCreate(Landroid/os/Bundle;)V",
          "target": "invokevirtual \u003c Application, Ljava/lang/reflect/Method, invoke(Ljava/lang/Object;[Ljava/lang/Object;)Ljava/lang/Object; \u003e@180",
          "type": "activity",
          "component": "air.ClownKiss.AppEntry",
          "constraintsFile": "constraints4_0.py",
          "variables": {},
          "stringMap": {},
          "strings": {}
        }
      ]
    },
    "5": {
      "startMethod": "air.ClownKiss.AppEntry.onStop()V",
      "targetMethod": "java.lang.reflect.Method.invoke(Ljava/lang/Object;[Ljava/lang/Object;)Ljava/lang/Object;",
      "eventChain": [
        {
          "start": "air.ClownKiss.AppEntry.onStop()V",
          "target": "invokevirtual \u003c Application, Ljava/lang/reflect/Method, invoke(Ljava/lang/Object;[Ljava/lang/Object;)Ljava/lang/Object; \u003e@62",
          "type": "activity",
          "component": "air.ClownKiss.AppEntry"
        }
      ]
    },
    "6": {
      "startMethod": "air.ClownKiss.AppEntry.onStop()V",
      "targetMethod": "java.lang.reflect.Method.invoke(Ljava/lang/Object;[Ljava/lang/Object;)Ljava/lang/Object;",
      "eventChain": [
        {
          "start": "air.ClownKiss.AppEntry.onStop()V",
          "target": "invokevirtual \u003c Application, Ljava/lang/reflect/Method, invoke(Ljava/lang/Object;[Ljava/lang/Object;)Ljava/lang/Object; \u003e@32",
          "type": "activity",
          "component": "air.ClownKiss.AppEntry"
        }
      ]
    },
    "7": {
      "startMethod": "air.ClownKiss.AppEntry.onDestroy()V",
      "targetMethod": "java.lang.reflect.Method.invoke(Ljava/lang/Object;[Ljava/lang/Object;)Ljava/lang/Object;",
      "eventChain": [
        {
          "start": "air.ClownKiss.AppEntry.onDestroy()V",
          "target": "invokevirtual \u003c Application, Ljava/lang/reflect/Method, invoke(Ljava/lang/Object;[Ljava/lang/Object;)Ljava/lang/Object; \u003e@32",
          "type": "activity",
          "component": "air.ClownKiss.AppEntry"
        }
      ]
    },
    "8": {
      "startMethod": "air.ClownKiss.AppEntry.onDestroy()V",
      "targetMethod": "java.lang.reflect.Method.invoke(Ljava/lang/Object;[Ljava/lang/Object;)Ljava/lang/Object;",
      "eventChain": [
        {
          "start": "air.ClownKiss.AppEntry.onDestroy()V",
          "target": "invokevirtual \u003c Application, Ljava/lang/reflect/Method, invoke(Ljava/lang/Object;[Ljava/lang/Object;)Ljava/lang/Object; \u003e@62",
          "type": "activity",
          "component": "air.ClownKiss.AppEntry"
        }
      ]
    },
    "9": {
      "startMethod": "air.ClownKiss.AppEntry.onResume()V",
      "targetMethod": "java.lang.reflect.Method.invoke(Ljava/lang/Object;[Ljava/lang/Object;)Ljava/lang/Object;",
      "eventChain": [
        {
          "start": "air.ClownKiss.AppEntry.onCreate(Landroid/os/Bundle;)V",
          "target": "",
          "type": "activity",
          "component": "air.ClownKiss.AppEntry"
        },
        {
          "start": "air.ClownKiss.AppEntry.onResume()V",
          "target": "invokevirtual \u003c Application, Ljava/lang/reflect/Method, invoke(Ljava/lang/Object;[Ljava/lang/Object;)Ljava/lang/Object; \u003e@62",
          "type": "activity",
          "component": "air.ClownKiss.AppEntry",
          "constraintsFile": "constraints9_0.py",
          "variables": {},
          "stringMap": {},
          "strings": {}
        }
      ]
    },
    "10": {
      "startMethod": "air.ClownKiss.AppEntry.onResume()V",
      "targetMethod": "java.lang.reflect.Method.invoke(Ljava/lang/Object;[Ljava/lang/Object;)Ljava/lang/Object;",
      "eventChain": [
        {
          "start": "air.ClownKiss.AppEntry.onCreate(Landroid/os/Bundle;)V",
          "target": "",
          "type": "activity",
          "component": "air.ClownKiss.AppEntry"
        },
        {
          "start": "air.ClownKiss.AppEntry.onResume()V",
          "target": "invokevirtual \u003c Application, Ljava/lang/reflect/Method, invoke(Ljava/lang/Object;[Ljava/lang/Object;)Ljava/lang/Object; \u003e@32",
          "type": "activity",
          "component": "air.ClownKiss.AppEntry",
          "constraintsFile": "constraints10_0.py",
          "variables": {},
          "stringMap": {},
          "strings": {}
        }
      ]
    },
    "11": {
      "startMethod": "air.ClownKiss.AppEntry.onPause()V",
      "targetMethod": "java.lang.reflect.Method.invoke(Ljava/lang/Object;[Ljava/lang/Object;)Ljava/lang/Object;",
      "eventChain": [
        {
          "start": "air.ClownKiss.AppEntry.onCreate(Landroid/os/Bundle;)V",
          "target": "",
          "type": "activity",
          "component": "air.ClownKiss.AppEntry"
        },
        {
          "start": "air.ClownKiss.AppEntry.onPause()V",
          "target": "invokevirtual \u003c Application, Ljava/lang/reflect/Method, invoke(Ljava/lang/Object;[Ljava/lang/Object;)Ljava/lang/Object; \u003e@62",
          "type": "activity",
          "component": "air.ClownKiss.AppEntry",
          "constraintsFile": "constraints11_0.py",
          "variables": {},
          "stringMap": {},
          "strings": {}
        }
      ]
    },
    "12": {
      "startMethod": "air.ClownKiss.AppEntry.onPause()V",
      "targetMethod": "java.lang.reflect.Method.invoke(Ljava/lang/Object;[Ljava/lang/Object;)Ljava/lang/Object;",
      "eventChain": [
        {
          "start": "air.ClownKiss.AppEntry.onCreate(Landroid/os/Bundle;)V",
          "target": "",
          "type": "activity",
          "component": "air.ClownKiss.AppEntry"
        },
        {
          "start": "air.ClownKiss.AppEntry.onPause()V",
          "target": "invokevirtual \u003c Application, Ljava/lang/reflect/Method, invoke(Ljava/lang/Object;[Ljava/lang/Object;)Ljava/lang/Object; \u003e@32",
          "type": "activity",
          "component": "air.ClownKiss.AppEntry",
          "constraintsFile": "constraints12_0.py",
          "variables": {},
          "stringMap": {},
          "strings": {}
        }
      ]
    },
    "13": {
      "startMethod": "air.ClownKiss.AppEntry.onRestart()V",
      "targetMethod": "java.lang.reflect.Method.invoke(Ljava/lang/Object;[Ljava/lang/Object;)Ljava/lang/Object;",
      "eventChain": [
        {
          "start": "air.ClownKiss.AppEntry.onCreate(Landroid/os/Bundle;)V",
          "target": "",
          "type": "activity",
          "component": "air.ClownKiss.AppEntry"
        },
        {
          "start": "air.ClownKiss.AppEntry.onRestart()V",
          "target": "invokevirtual \u003c Application, Ljava/lang/reflect/Method, invoke(Ljava/lang/Object;[Ljava/lang/Object;)Ljava/lang/Object; \u003e@62",
          "type": "activity",
          "component": "air.ClownKiss.AppEntry",
          "constraintsFile": "constraints13_0.py",
          "variables": {},
          "stringMap": {},
          "strings": {}
        }
      ]
    },
    "14": {
      "startMethod": "air.ClownKiss.AppEntry.onRestart()V",
      "targetMethod": "java.lang.reflect.Method.invoke(Ljava/lang/Object;[Ljava/lang/Object;)Ljava/lang/Object;",
      "eventChain": [
        {
          "start": "air.ClownKiss.AppEntry.onCreate(Landroid/os/Bundle;)V",
          "target": "",
          "type": "activity",
          "component": "air.ClownKiss.AppEntry"
        },
        {
          "start": "air.ClownKiss.AppEntry.onRestart()V",
          "target": "invokevirtual \u003c Application, Ljava/lang/reflect/Method, invoke(Ljava/lang/Object;[Ljava/lang/Object;)Ljava/lang/Object; \u003e@32",
          "type": "activity",
          "component": "air.ClownKiss.AppEntry",
          "constraintsFile": "constraints14_0.py",
          "variables": {},
          "stringMap": {},
          "strings": {}
        }
      ]
    },
    "15": {
      "startMethod": "com.adobe.air.RemoteDebuggerDialog$3.onCancel(Landroid/content/DialogInterface;)V",
      "targetMethod": "java.lang.ClassLoader.loadClass(Ljava/lang/String;)Ljava/lang/Class;",
      "eventChain": [
        {
          "start": "com.adobe.air.RemoteDebuggerDialog$3.onCancel(Landroid/content/DialogInterface;)V",
          "target": "invokevirtual \u003c Application, Landroid/app/AlertDialog$Builder, setOnCancelListener(Landroid/content/DialogInterface$OnCancelListener;)Landroid/app/AlertDialog$Builder; \u003e@399",
          "type": "ui",
          "activities": [
            "air.ClownKiss.AppEntry"
          ],
          "listener": "com.adobe.air.RemoteDebuggerDialog$3",
          "listenerMethod": "onCancel",
          "uiType": "onCancel"
        },
        {
          "start": "com.adobe.air.RemoteDebuggerDialog$3.onCancel(Landroid/content/DialogInterface;)V",
          "target": "invokevirtual \u003c Application, Ljava/lang/ClassLoader, loadClass(Ljava/lang/String;)Ljava/lang/Class; \u003e@83",
          "type": "ui",
          "activities": [
            "air.ClownKiss.AppEntry"
          ],
          "listener": "com.adobe.air.RemoteDebuggerDialog$3",
          "listenerMethod": "onCancel",
          "uiType": "onCancel"
        }
      ]
    },
    "16": {
      "startMethod": "com.adobe.air.ListenErrorDialog$3.onCancel(Landroid/content/DialogInterface;)V",
      "targetMethod": "java.lang.ClassLoader.loadClass(Ljava/lang/String;)Ljava/lang/Class;",
      "eventChain": [
        {
          "start": "com.adobe.air.ListenErrorDialog$3.onCancel(Landroid/content/DialogInterface;)V",
          "target": "invokevirtual \u003c Application, Ljava/lang/ClassLoader, loadClass(Ljava/lang/String;)Ljava/lang/Class; \u003e@83",
          "type": "ui",
          "activities": [
            "air.ClownKiss.AppEntry"
          ],
          "listener": "com.adobe.air.ListenErrorDialog$3",
          "listenerMethod": "onCancel",
          "uiType": "onCancel"
        }
      ]
    },
    "17": {
      "startMethod": "air.ClownKiss.AppEntry.onKeyDown(ILandroid/view/KeyEvent;)Z",
      "targetMethod": "java.lang.reflect.Method.invoke(Ljava/lang/Object;[Ljava/lang/Object;)Ljava/lang/Object;",
      "eventChain": [
        {
          "start": "air.ClownKiss.AppEntry.onCreate(Landroid/os/Bundle;)V",
          "target": "",
          "type": "activity",
          "component": "air.ClownKiss.AppEntry"
        },
        {
          "start": "air.ClownKiss.AppEntry.onCreate(Landroid/os/Bundle;)V",
          "target": "",
          "type": "activity",
          "component": "air.ClownKiss.AppEntry",
          "constraintsFile": "constraints17_0.py",
          "variables": {},
          "stringMap": {},
          "strings": {}
        },
        {
          "start": "air.ClownKiss.AppEntry.onKeyDown(ILandroid/view/KeyEvent;)Z",
          "target": "invokevirtual \u003c Application, Ljava/lang/reflect/Method, invoke(Ljava/lang/Object;[Ljava/lang/Object;)Ljava/lang/Object; \u003e@32",
          "type": "ui",
          "activities": [
            "air.ClownKiss.AppEntry"
          ],
          "listener": "air.ClownKiss.AppEntry",
          "listenerMethod": "onKeyDown",
          "uiType": "onKeyDown",
          "constraintsFile": "constraints17_1.py",
          "variables": {
            "\u003cChainedInput2\u003e": "IAAv1"
          },
          "stringMap": {},
          "strings": {}
        }
      ]
    },
    "18": {
      "startMethod": "air.ClownKiss.AppEntry.onKeyDown(ILandroid/view/KeyEvent;)Z",
      "targetMethod": "java.lang.reflect.Method.invoke(Ljava/lang/Object;[Ljava/lang/Object;)Ljava/lang/Object;",
      "eventChain": [
        {
          "start": "air.ClownKiss.AppEntry.onCreate(Landroid/os/Bundle;)V",
          "target": "",
          "type": "activity",
          "component": "air.ClownKiss.AppEntry"
        },
        {
          "start": "air.ClownKiss.AppEntry.onCreate(Landroid/os/Bundle;)V",
          "target": "",
          "type": "activity",
          "component": "air.ClownKiss.AppEntry",
          "constraintsFile": "constraints18_0.py",
          "variables": {},
          "stringMap": {},
          "strings": {}
        },
        {
          "start": "air.ClownKiss.AppEntry.onKeyDown(ILandroid/view/KeyEvent;)Z",
          "target": "invokevirtual \u003c Application, Ljava/lang/reflect/Method, invoke(Ljava/lang/Object;[Ljava/lang/Object;)Ljava/lang/Object; \u003e@62",
          "type": "ui",
          "activities": [
            "air.ClownKiss.AppEntry"
          ],
          "listener": "air.ClownKiss.AppEntry",
          "listenerMethod": "onKeyDown",
          "uiType": "onKeyDown",
          "constraintsFile": "constraints18_1.py",
          "variables": {
            "\u003cChainedInput2\u003e": "IAAv1"
          },
          "stringMap": {},
          "strings": {}
        }
      ]
    },
    "19": {
      "startMethod": "air.ClownKiss.AppEntry.onKeyLongPress(ILandroid/view/KeyEvent;)Z",
      "targetMethod": "java.lang.reflect.Method.invoke(Ljava/lang/Object;[Ljava/lang/Object;)Ljava/lang/Object;",
      "eventChain": [
        {
          "start": "air.ClownKiss.AppEntry.onCreate(Landroid/os/Bundle;)V",
          "target": "",
          "type": "activity",
          "component": "air.ClownKiss.AppEntry"
        },
        {
          "start": "air.ClownKiss.AppEntry.onCreate(Landroid/os/Bundle;)V",
          "target": "",
          "type": "activity",
          "component": "air.ClownKiss.AppEntry",
          "constraintsFile": "constraints19_0.py",
          "variables": {},
          "stringMap": {},
          "strings": {}
        },
        {
          "start": "air.ClownKiss.AppEntry.onKeyLongPress(ILandroid/view/KeyEvent;)Z",
          "target": "invokevirtual \u003c Application, Ljava/lang/reflect/Method, invoke(Ljava/lang/Object;[Ljava/lang/Object;)Ljava/lang/Object; \u003e@32",
          "type": "ui",
          "activities": [
            "air.ClownKiss.AppEntry"
          ],
          "listener": "air.ClownKiss.AppEntry",
          "listenerMethod": "onKeyLongPress",
          "uiType": "onKeyLongPress",
          "constraintsFile": "constraints19_1.py",
          "variables": {
            "\u003cChainedInput2\u003e": "IAAv1"
          },
          "stringMap": {},
          "strings": {}
        }
      ]
    },
    "20": {
      "startMethod": "air.ClownKiss.AppEntry.onKeyLongPress(ILandroid/view/KeyEvent;)Z",
      "targetMethod": "java.lang.reflect.Method.invoke(Ljava/lang/Object;[Ljava/lang/Object;)Ljava/lang/Object;",
      "eventChain": [
        {
          "start": "air.ClownKiss.AppEntry.onCreate(Landroid/os/Bundle;)V",
          "target": "",
          "type": "activity",
          "component": "air.ClownKiss.AppEntry"
        },
        {
          "start": "air.ClownKiss.AppEntry.onCreate(Landroid/os/Bundle;)V",
          "target": "",
          "type": "activity",
          "component": "air.ClownKiss.AppEntry",
          "constraintsFile": "constraints20_0.py",
          "variables": {},
          "stringMap": {},
          "strings": {}
        },
        {
          "start": "air.ClownKiss.AppEntry.onKeyLongPress(ILandroid/view/KeyEvent;)Z",
          "target": "invokevirtual \u003c Application, Ljava/lang/reflect/Method, invoke(Ljava/lang/Object;[Ljava/lang/Object;)Ljava/lang/Object; \u003e@62",
          "type": "ui",
          "activities": [
            "air.ClownKiss.AppEntry"
          ],
          "listener": "air.ClownKiss.AppEntry",
          "listenerMethod": "onKeyLongPress",
          "uiType": "onKeyLongPress",
          "constraintsFile": "constraints20_1.py",
          "variables": {
            "\u003cChainedInput2\u003e": "IAAv1"
          },
          "stringMap": {},
          "strings": {}
        }
      ]
    },
    "21": {
      "startMethod": "air.ClownKiss.AppEntry.onKeyUp(ILandroid/view/KeyEvent;)Z",
      "targetMethod": "java.lang.reflect.Method.invoke(Ljava/lang/Object;[Ljava/lang/Object;)Ljava/lang/Object;",
      "eventChain": [
        {
          "start": "air.ClownKiss.AppEntry.onCreate(Landroid/os/Bundle;)V",
          "target": "",
          "type": "activity",
          "component": "air.ClownKiss.AppEntry"
        },
        {
          "start": "air.ClownKiss.AppEntry.onCreate(Landroid/os/Bundle;)V",
          "target": "",
          "type": "activity",
          "component": "air.ClownKiss.AppEntry",
          "constraintsFile": "constraints21_0.py",
          "variables": {},
          "stringMap": {},
          "strings": {}
        },
        {
          "start": "air.ClownKiss.AppEntry.onKeyUp(ILandroid/view/KeyEvent;)Z",
          "target": "invokevirtual \u003c Application, Ljava/lang/reflect/Method, invoke(Ljava/lang/Object;[Ljava/lang/Object;)Ljava/lang/Object; \u003e@62",
          "type": "ui",
          "activities": [
            "air.ClownKiss.AppEntry"
          ],
          "listener": "air.ClownKiss.AppEntry",
          "listenerMethod": "onKeyUp",
          "uiType": "onKeyUp",
          "constraintsFile": "constraints21_1.py",
          "variables": {
            "\u003cChainedInput2\u003e": "IAAv1"
          },
          "stringMap": {},
          "strings": {}
        }
      ]
    },
    "22": {
      "startMethod": "air.ClownKiss.AppEntry.onKeyUp(ILandroid/view/KeyEvent;)Z",
      "targetMethod": "java.lang.reflect.Method.invoke(Ljava/lang/Object;[Ljava/lang/Object;)Ljava/lang/Object;",
      "eventChain": [
        {
          "start": "air.ClownKiss.AppEntry.onCreate(Landroid/os/Bundle;)V",
          "target": "",
          "type": "activity",
          "component": "air.ClownKiss.AppEntry"
        },
        {
          "start": "air.ClownKiss.AppEntry.onCreate(Landroid/os/Bundle;)V",
          "target": "",
          "type": "activity",
          "component": "air.ClownKiss.AppEntry",
          "constraintsFile": "constraints22_0.py",
          "variables": {},
          "stringMap": {},
          "strings": {}
        },
        {
          "start": "air.ClownKiss.AppEntry.onKeyUp(ILandroid/view/KeyEvent;)Z",
          "target": "invokevirtual \u003c Application, Ljava/lang/reflect/Method, invoke(Ljava/lang/Object;[Ljava/lang/Object;)Ljava/lang/Object; \u003e@32",
          "type": "ui",
          "activities": [
            "air.ClownKiss.AppEntry"
          ],
          "listener": "air.ClownKiss.AppEntry",
          "listenerMethod": "onKeyUp",
          "uiType": "onKeyUp",
          "constraintsFile": "constraints22_1.py",
          "variables": {
            "\u003cChainedInput2\u003e": "IAAv1"
          },
          "stringMap": {},
          "strings": {}
        }
      ]
    },
    "23": {
      "startMethod": "air.ClownKiss.AppEntry.onKeyMultiple(IILandroid/view/KeyEvent;)Z",
      "targetMethod": "java.lang.reflect.Method.invoke(Ljava/lang/Object;[Ljava/lang/Object;)Ljava/lang/Object;",
      "eventChain": [
        {
          "start": "air.ClownKiss.AppEntry.onCreate(Landroid/os/Bundle;)V",
          "target": "",
          "type": "activity",
          "component": "air.ClownKiss.AppEntry"
        },
        {
          "start": "air.ClownKiss.AppEntry.onCreate(Landroid/os/Bundle;)V",
          "target": "",
          "type": "activity",
          "component": "air.ClownKiss.AppEntry",
          "constraintsFile": "constraints23_0.py",
          "variables": {},
          "stringMap": {},
          "strings": {}
        },
        {
          "start": "air.ClownKiss.AppEntry.onKeyMultiple(IILandroid/view/KeyEvent;)Z",
          "target": "invokevirtual \u003c Application, Ljava/lang/reflect/Method, invoke(Ljava/lang/Object;[Ljava/lang/Object;)Ljava/lang/Object; \u003e@62",
          "type": "ui",
          "activities": [
            "air.ClownKiss.AppEntry"
          ],
          "listener": "air.ClownKiss.AppEntry",
          "listenerMethod": "onKeyMultiple",
          "uiType": "onKeyMultiple",
          "constraintsFile": "constraints23_1.py",
          "variables": {
            "\u003cChainedInput3\u003e": "IAAv1"
          },
          "stringMap": {},
          "strings": {}
        }
      ]
    },
    "24": {
      "startMethod": "air.ClownKiss.AppEntry.onKeyMultiple(IILandroid/view/KeyEvent;)Z",
      "targetMethod": "java.lang.reflect.Method.invoke(Ljava/lang/Object;[Ljava/lang/Object;)Ljava/lang/Object;",
      "eventChain": [
        {
          "start": "air.ClownKiss.AppEntry.onCreate(Landroid/os/Bundle;)V",
          "target": "",
          "type": "activity",
          "component": "air.ClownKiss.AppEntry"
        },
        {
          "start": "air.ClownKiss.AppEntry.onCreate(Landroid/os/Bundle;)V",
          "target": "",
          "type": "activity",
          "component": "air.ClownKiss.AppEntry",
          "constraintsFile": "constraints24_0.py",
          "variables": {},
          "stringMap": {},
          "strings": {}
        },
        {
          "start": "air.ClownKiss.AppEntry.onKeyMultiple(IILandroid/view/KeyEvent;)Z",
          "target": "invokevirtual \u003c Application, Ljava/lang/reflect/Method, invoke(Ljava/lang/Object;[Ljava/lang/Object;)Ljava/lang/Object; \u003e@32",
          "type": "ui",
          "activities": [
            "air.ClownKiss.AppEntry"
          ],
          "listener": "air.ClownKiss.AppEntry",
          "listenerMethod": "onKeyMultiple",
          "uiType": "onKeyMultiple",
          "constraintsFile": "constraints24_1.py",
          "variables": {
            "\u003cChainedInput3\u003e": "IAAv1"
          },
          "stringMap": {},
          "strings": {}
        }
      ]
    },
    "25": {
      "startMethod": "com.adobe.air.RemoteDebuggerDialog$2.onClick(Landroid/content/DialogInterface;I)V",
      "targetMethod": "java.lang.ClassLoader.loadClass(Ljava/lang/String;)Ljava/lang/Class;",
      "eventChain": [
        {
          "start": "com.adobe.air.RemoteDebuggerDialog$3.onCancel(Landroid/content/DialogInterface;)V",
          "target": "invokevirtual \u003c Application, Landroid/app/AlertDialog$Builder, setNegativeButton(Ljava/lang/CharSequence;Landroid/content/DialogInterface$OnClickListener;)Landroid/app/AlertDialog$Builder; \u003e@384",
          "type": "ui",
          "activities": [
            "air.ClownKiss.AppEntry"
          ],
          "listener": "com.adobe.air.RemoteDebuggerDialog$3",
          "listenerMethod": "onCancel",
          "uiType": "onCancel"
        },
        {
          "start": "com.adobe.air.RemoteDebuggerDialog$2.onClick(Landroid/content/DialogInterface;I)V",
          "target": "invokevirtual \u003c Application, Ljava/lang/ClassLoader, loadClass(Ljava/lang/String;)Ljava/lang/Class; \u003e@83",
          "type": "ui",
          "activities": [
            "air.ClownKiss.AppEntry"
          ],
          "listener": "com.adobe.air.RemoteDebuggerDialog$2",
          "listenerMethod": "onClick",
          "uiType": "onClick",
          "inDialog": "true"
        }
      ]
    },
    "26": {
      "startMethod": "com.adobe.air.ListenErrorDialog$2.onClick(Landroid/content/DialogInterface;I)V",
      "targetMethod": "java.lang.ClassLoader.loadClass(Ljava/lang/String;)Ljava/lang/Class;",
      "eventChain": [
        {
          "start": "com.adobe.air.ListenErrorDialog$2.onClick(Landroid/content/DialogInterface;I)V",
          "target": "invokevirtual \u003c Application, Ljava/lang/ClassLoader, loadClass(Ljava/lang/String;)Ljava/lang/Class; \u003e@83",
          "type": "ui",
          "activities": [
            "air.ClownKiss.AppEntry"
          ],
          "listener": "com.adobe.air.ListenErrorDialog$2",
          "listenerMethod": "onClick",
          "uiType": "onClick",
          "inDialog": "true"
        }
      ]
    },
    "27": {
      "startMethod": "com.adobe.air.RemoteDebuggerDialog$1.onClick(Landroid/content/DialogInterface;I)V",
      "targetMethod": "java.lang.ClassLoader.loadClass(Ljava/lang/String;)Ljava/lang/Class;",
      "eventChain": [
        {
          "start": "com.adobe.air.RemoteDebuggerDialog$3.onCancel(Landroid/content/DialogInterface;)V",
          "target": "invokevirtual \u003c Application, Landroid/app/AlertDialog$Builder, setPositiveButton(Ljava/lang/CharSequence;Landroid/content/DialogInterface$OnClickListener;)Landroid/app/AlertDialog$Builder; \u003e@356",
          "type": "ui",
          "activities": [
            "air.ClownKiss.AppEntry"
          ],
          "listener": "com.adobe.air.RemoteDebuggerDialog$3",
          "listenerMethod": "onCancel",
          "uiType": "onCancel"
        },
        {
          "start": "com.adobe.air.RemoteDebuggerDialog$3.onCancel(Landroid/content/DialogInterface;)V",
          "target": "PC@30",
          "type": "ui",
          "activities": [
            "air.ClownKiss.AppEntry"
          ],
          "listener": "com.adobe.air.RemoteDebuggerDialog$3",
          "listenerMethod": "onCancel",
          "uiType": "onCancel"
        },
        {
          "start": "com.adobe.air.RemoteDebuggerDialog$1.onClick(Landroid/content/DialogInterface;I)V",
          "target": "invokevirtual \u003c Application, Ljava/lang/ClassLoader, loadClass(Ljava/lang/String;)Ljava/lang/Class; \u003e@83",
          "type": "ui",
          "activities": [
            "air.ClownKiss.AppEntry"
          ],
          "listener": "com.adobe.air.RemoteDebuggerDialog$1",
          "listenerMethod": "onClick",
          "uiType": "onClick",
          "inDialog": "true",
          "constraintsFile": "constraints27_0.py",
          "variables": {},
          "stringMap": {},
          "strings": {}
        }
      ]
    },
    "28": {
      "startMethod": "com.adobe.air.ListenErrorDialog$1.onClick(Landroid/content/DialogInterface;I)V",
      "targetMethod": "java.lang.ClassLoader.loadClass(Ljava/lang/String;)Ljava/lang/Class;",
      "eventChain": [
        {
          "start": "com.adobe.air.ListenErrorDialog$1.onClick(Landroid/content/DialogInterface;I)V",
          "target": "invokevirtual \u003c Application, Ljava/lang/ClassLoader, loadClass(Ljava/lang/String;)Ljava/lang/Class; \u003e@83",
          "type": "ui",
          "activities": [
            "air.ClownKiss.AppEntry"
          ],
          "listener": "com.adobe.air.ListenErrorDialog$1",
          "listenerMethod": "onClick",
          "uiType": "onClick",
          "inDialog": "true"
        }
      ]
    },
    "29": {
      "startMethod": "air.ClownKiss.AppEntry.onConfigurationChanged(Landroid/content/res/Configuration;)V",
      "targetMethod": "java.lang.reflect.Method.invoke(Ljava/lang/Object;[Ljava/lang/Object;)Ljava/lang/Object;",
      "eventChain": [
        {
          "start": "air.ClownKiss.AppEntry.onCreate(Landroid/os/Bundle;)V",
          "target": "",
          "type": "activity",
          "component": "air.ClownKiss.AppEntry"
        },
        {
          "start": "air.ClownKiss.AppEntry.onCreate(Landroid/os/Bundle;)V",
          "target": "",
          "type": "activity",
          "component": "air.ClownKiss.AppEntry",
          "constraintsFile": "constraints29_0.py",
          "variables": {},
          "stringMap": {},
          "strings": {}
        },
        {
          "start": "air.ClownKiss.AppEntry.onConfigurationChanged(Landroid/content/res/Configuration;)V",
          "target": "invokevirtual \u003c Application, Ljava/lang/reflect/Method, invoke(Ljava/lang/Object;[Ljava/lang/Object;)Ljava/lang/Object; \u003e@62",
          "type": "",
          "constraintsFile": "constraints29_1.py",
          "variables": {
            "\u003cChainedInput1\u003e": "IAAv1"
          },
          "stringMap": {},
          "strings": {}
        }
      ]
    },
    "30": {
      "startMethod": "air.ClownKiss.AppEntry.onConfigurationChanged(Landroid/content/res/Configuration;)V",
      "targetMethod": "java.lang.reflect.Method.invoke(Ljava/lang/Object;[Ljava/lang/Object;)Ljava/lang/Object;",
      "eventChain": [
        {
          "start": "air.ClownKiss.AppEntry.onCreate(Landroid/os/Bundle;)V",
          "target": "",
          "type": "activity",
          "component": "air.ClownKiss.AppEntry"
        },
        {
          "start": "air.ClownKiss.AppEntry.onCreate(Landroid/os/Bundle;)V",
          "target": "",
          "type": "activity",
          "component": "air.ClownKiss.AppEntry",
          "constraintsFile": "constraints30_0.py",
          "variables": {},
          "stringMap": {},
          "strings": {}
        },
        {
          "start": "air.ClownKiss.AppEntry.onConfigurationChanged(Landroid/content/res/Configuration;)V",
          "target": "invokevirtual \u003c Application, Ljava/lang/reflect/Method, invoke(Ljava/lang/Object;[Ljava/lang/Object;)Ljava/lang/Object; \u003e@32",
          "type": "",
          "constraintsFile": "constraints30_1.py",
          "variables": {
            "\u003cChainedInput1\u003e": "IAAv1"
          },
          "stringMap": {},
          "strings": {}
        }
      ]
    },
    "31": {
      "startMethod": "air.ClownKiss.AppEntry.onLowMemory()V",
      "targetMethod": "java.lang.reflect.Method.invoke(Ljava/lang/Object;[Ljava/lang/Object;)Ljava/lang/Object;",
      "eventChain": [
        {
          "start": "air.ClownKiss.AppEntry.onLowMemory()V",
          "target": "invokevirtual \u003c Application, Ljava/lang/reflect/Method, invoke(Ljava/lang/Object;[Ljava/lang/Object;)Ljava/lang/Object; \u003e@32",
          "type": ""
        }
      ]
    },
    "32": {
      "startMethod": "air.ClownKiss.AppEntry.onLowMemory()V",
      "targetMethod": "java.lang.reflect.Method.invoke(Ljava/lang/Object;[Ljava/lang/Object;)Ljava/lang/Object;",
      "eventChain": [
        {
          "start": "air.ClownKiss.AppEntry.onLowMemory()V",
          "target": "invokevirtual \u003c Application, Ljava/lang/reflect/Method, invoke(Ljava/lang/Object;[Ljava/lang/Object;)Ljava/lang/Object; \u003e@62",
          "type": ""
        }
      ]
    },
    "33": {
      "startMethod": "air.ClownKiss.AppEntry.onCreateContextMenu(Landroid/view/ContextMenu;Landroid/view/View;Landroid/view/ContextMenu$ContextMenuInfo;)V",
      "targetMethod": "java.lang.reflect.Method.invoke(Ljava/lang/Object;[Ljava/lang/Object;)Ljava/lang/Object;",
      "eventChain": [
        {
          "start": "air.ClownKiss.AppEntry.onCreate(Landroid/os/Bundle;)V",
          "target": "",
          "type": "activity",
          "component": "air.ClownKiss.AppEntry"
        },
        {
          "start": "air.ClownKiss.AppEntry.onCreate(Landroid/os/Bundle;)V",
          "target": "",
          "type": "activity",
          "component": "air.ClownKiss.AppEntry",
          "constraintsFile": "constraints33_0.py",
          "variables": {},
          "stringMap": {},
          "strings": {}
        },
        {
          "start": "air.ClownKiss.AppEntry.onCreateContextMenu(Landroid/view/ContextMenu;Landroid/view/View;Landroid/view/ContextMenu$ContextMenuInfo;)V",
          "target": "invokevirtual \u003c Application, Ljava/lang/reflect/Method, invoke(Ljava/lang/Object;[Ljava/lang/Object;)Ljava/lang/Object; \u003e@32",
          "type": "ui",
          "activities": [
            "air.ClownKiss.AppEntry"
          ],
          "listener": "air.ClownKiss.AppEntry",
          "listenerMethod": "onCreateContextMenu",
          "uiType": "onCreateContextMenu",
          "constraintsFile": "constraints33_1.py",
          "variables": {
            "\u003cChainedInput3\u003e": "IAAv1"
          },
          "stringMap": {},
          "strings": {}
        }
      ]
    },
    "34": {
      "startMethod": "air.ClownKiss.AppEntry.onCreateContextMenu(Landroid/view/ContextMenu;Landroid/view/View;Landroid/view/ContextMenu$ContextMenuInfo;)V",
      "targetMethod": "java.lang.reflect.Method.invoke(Ljava/lang/Object;[Ljava/lang/Object;)Ljava/lang/Object;",
      "eventChain": [
        {
          "start": "air.ClownKiss.AppEntry.onCreate(Landroid/os/Bundle;)V",
          "target": "",
          "type": "activity",
          "component": "air.ClownKiss.AppEntry"
        },
        {
          "start": "air.ClownKiss.AppEntry.onCreate(Landroid/os/Bundle;)V",
          "target": "",
          "type": "activity",
          "component": "air.ClownKiss.AppEntry",
          "constraintsFile": "constraints34_0.py",
          "variables": {},
          "stringMap": {},
          "strings": {}
        },
        {
          "start": "air.ClownKiss.AppEntry.onCreateContextMenu(Landroid/view/ContextMenu;Landroid/view/View;Landroid/view/ContextMenu$ContextMenuInfo;)V",
          "target": "invokevirtual \u003c Application, Ljava/lang/reflect/Method, invoke(Ljava/lang/Object;[Ljava/lang/Object;)Ljava/lang/Object; \u003e@62",
          "type": "ui",
          "activities": [
            "air.ClownKiss.AppEntry"
          ],
          "listener": "air.ClownKiss.AppEntry",
          "listenerMethod": "onCreateContextMenu",
          "uiType": "onCreateContextMenu",
          "constraintsFile": "constraints34_1.py",
          "variables": {
            "\u003cChainedInput3\u003e": "IAAv1"
          },
          "stringMap": {},
          "strings": {}
        }
      ]
    }
  }
}