{
  "packageName": "com.sinyee.babybus.animal.fr",
  "mainActivity": "com.sinyee.babybus.animal.fr.Main",
  "callPaths": {
    "0": {
      "startMethod": "com.sinyee.babybus.animal.fr.Main.onResume()V",
      "targetMethod": "java.lang.reflect.Method.invoke(Ljava/lang/Object;[Ljava/lang/Object;)Ljava/lang/Object;",
      "eventChain": [
        {
          "start": "com.sinyee.babybus.animal.fr.Main.onResume()V",
          "target": "invokevirtual \u003c Application, Ljava/lang/reflect/Method, invoke(Ljava/lang/Object;[Ljava/lang/Object;)Ljava/lang/Object; \u003e@224",
          "type": "activity",
          "component": "com.sinyee.babybus.animal.fr.Main"
        }
      ]
    },
    "1": {
      "startMethod": "com.sinyee.babybus.animal.fr.Main.onResume()V",
      "targetMethod": "java.lang.reflect.Method.invoke(Ljava/lang/Object;[Ljava/lang/Object;)Ljava/lang/Object;",
      "eventChain": [
        {
          "start": "com.sinyee.babybus.animal.fr.Main.onResume()V",
          "target": "invokevirtual \u003c Application, Ljava/lang/reflect/Method, invoke(Ljava/lang/Object;[Ljava/lang/Object;)Ljava/lang/Object; \u003e@165",
          "type": "activity",
          "component": "com.sinyee.babybus.animal.fr.Main"
        }
      ]
    },
    "2": {
      "startMethod": "com.sinyee.babybus.animal.fr.Main.onResume()V",
      "targetMethod": "org.apache.http.client.HttpClient.execute(Lorg/apache/http/client/methods/HttpUriRequest;)Lorg/apache/http/HttpResponse;",
      "eventChain": [
        {
          "start": "com.sinyee.babybus.animal.fr.Main.onResume()V",
          "target": "invokeinterface \u003c Application, Lorg/apache/http/client/HttpClient, execute(Lorg/apache/http/client/methods/HttpUriRequest;)Lorg/apache/http/HttpResponse; \u003e@314",
          "type": "activity",
          "component": "com.sinyee.babybus.animal.fr.Main"
        }
      ]
    },
    "3": {
      "startMethod": "com.inmobi.androidsdk.IMBrowserActivity.onCreate(Landroid/os/Bundle;)V",
      "targetMethod": "java.lang.reflect.Method.invoke(Ljava/lang/Object;[Ljava/lang/Object;)Ljava/lang/Object;",
      "eventChain": [
        {
          "start": "com.inmobi.androidsdk.IMBrowserActivity.onCreate(Landroid/os/Bundle;)V",
          "target": "invokevirtual \u003c Application, Ljava/lang/reflect/Method, invoke(Ljava/lang/Object;[Ljava/lang/Object;)Ljava/lang/Object; \u003e@77",
          "type": "activity",
          "component": "com.inmobi.androidsdk.IMBrowserActivity",
          "constraintsFile": "constraints3_0.py",
          "variables": {},
          "stringMap": {},
          "strings": {}
        }
      ]
    },
    "4": {
      "startMethod": "com.sinyee.babybus.animal.fr.Main.onPause()V",
      "targetMethod": "org.apache.http.client.HttpClient.execute(Lorg/apache/http/client/methods/HttpUriRequest;)Lorg/apache/http/HttpResponse;",
      "eventChain": [
        {
          "start": "com.sinyee.babybus.animal.fr.Main.onPause()V",
          "target": "invokeinterface \u003c Application, Lorg/apache/http/client/HttpClient, execute(Lorg/apache/http/client/methods/HttpUriRequest;)Lorg/apache/http/HttpResponse; \u003e@314",
          "type": "activity",
          "component": "com.sinyee.babybus.animal.fr.Main"
        }
      ]
    },
    "5": {
      "startMethod": "com.sinyee.babybus.animal.fr.Main.onPause()V",
      "targetMethod": "java.lang.reflect.Method.invoke(Ljava/lang/Object;[Ljava/lang/Object;)Ljava/lang/Object;",
      "eventChain": [
        {
          "start": "com.sinyee.babybus.animal.fr.Main.onPause()V",
          "target": "invokevirtual \u003c Application, Ljava/lang/reflect/Method, invoke(Ljava/lang/Object;[Ljava/lang/Object;)Ljava/lang/Object; \u003e@224",
          "type": "activity",
          "component": "com.sinyee.babybus.animal.fr.Main"
        }
      ]
    },
    "6": {
      "startMethod": "com.sinyee.babybus.animal.fr.Main.onPause()V",
      "targetMethod": "java.lang.reflect.Method.invoke(Ljava/lang/Object;[Ljava/lang/Object;)Ljava/lang/Object;",
      "eventChain": [
        {
          "start": "com.sinyee.babybus.animal.fr.Main.onPause()V",
          "target": "invokevirtual \u003c Application, Ljava/lang/reflect/Method, invoke(Ljava/lang/Object;[Ljava/lang/Object;)Ljava/lang/Object; \u003e@165",
          "type": "activity",
          "component": "com.sinyee.babybus.animal.fr.Main"
        }
      ]
    },
    "7": {
      "startMethod": "com.umeng.fb.ui.FeedbackConversations.onCreate(Landroid/os/Bundle;)V",
      "targetMethod": "org.apache.http.client.HttpClient.execute(Lorg/apache/http/client/methods/HttpUriRequest;)Lorg/apache/http/HttpResponse;",
      "eventChain": [
        {
          "start": "com.umeng.fb.ui.FeedbackConversations.onCreate(Landroid/os/Bundle;)V",
          "target": "invokeinterface \u003c Application, Lorg/apache/http/client/HttpClient, execute(Lorg/apache/http/client/methods/HttpUriRequest;)Lorg/apache/http/HttpResponse; \u003e@165",
          "type": "activity",
          "component": "com.umeng.fb.ui.FeedbackConversations",
          "constraintsFile": "constraints7_0.py",
          "variables": {
            "SharedPreferences\u003cmaxReplyID\u003e": "IAAv1"
          },
          "stringMap": {
            "7000": "\u003cUI\u003e",
            "7001": "RP0"
          },
          "strings": {
            "IAAv1": ""
          }
        }
      ]
    },
    "8": {
      "startMethod": "com.boost.beluga.tracker.TrackerReceiver.onReceive(Landroid/content/Context;Landroid/content/Intent;)V",
      "targetMethod": "java.net.URL.openConnection()Ljava/net/URLConnection;",
      "eventChain": [
        {
          "start": "com.boost.beluga.tracker.TrackerReceiver.onReceive(Landroid/content/Context;Landroid/content/Intent;)V",
          "target": "PC@28",
          "type": "sms",
          "constraintsFile": "constraints8_0.py",
          "variables": {
            "\u003cInput2\u003e.getDataString().lastIndexOf()": "IAAv6",
            "\u003cInput2\u003e.getAction()": "IAAv2",
            "\u003cInput1\u003e.getPreferences()": "IAAv9",
            "\u003cInput2\u003e": "IAAv1",
            "\u003cInput1\u003e": "IAAv0",
            "\u003cInput2\u003e.getDataString().isEmpty()": "IAAv4",
            "\u003cInput2\u003e.getDataString()": "IAAv5"
          },
          "stringMap": {
            "7000": "android.intent.action.PACKAGE_ADDED"
          },
          "strings": {
            "IAAv2": "",
            "IAAv5": ""
          }
        },
        {
          "start": "com.boost.beluga.tracker.TrackerReceiver.onReceive(Landroid/content/Context;Landroid/content/Intent;)V",
          "target": "invokevirtual \u003c Application, Ljava/net/URL, openConnection()Ljava/net/URLConnection; \u003e@65",
          "type": "sms",
          "constraintsFile": "constraints8_1.py",
          "variables": {
            "\u003cChainedInput1\u003e": "IAAv0",
            "\u003cChainedInput1\u003e.getPreferences()": "IAAv12",
            "\u003cChainedInput2\u003e.getDataString()": "IAAv5",
            "\u003cChainedInput2\u003e.getDataString().lastIndexOf()": "IAAv6",
            "\u003cChainedInput2\u003e.getAction()": "IAAv2",
            "\u003cChainedInput2\u003e": "IAAv1",
            "\u003cChainedInput2\u003e.getDataString().isEmpty()": "IAAv4"
          },
          "stringMap": {
            "7000": "android.intent.action.PACKAGE_ADDED"
          },
          "strings": {
            "IAAv2": "",
            "IAAv5": ""
          }
        }
      ]
    },
    "9": {
      "startMethod": "com.sinyee.babybus.animal.fr.Main.onCreate(Landroid/os/Bundle;)V",
      "targetMethod": "org.apache.http.impl.client.DefaultHttpClient.execute(Lorg/apache/http/client/methods/HttpUriRequest;)Lorg/apache/http/HttpResponse;",
      "eventChain": [
        {
          "start": "com.sinyee.babybus.animal.fr.Main.onCreate(Landroid/os/Bundle;)V",
          "target": "invokevirtual \u003c Application, Lorg/apache/http/impl/client/DefaultHttpClient, execute(Lorg/apache/http/client/methods/HttpUriRequest;)Lorg/apache/http/HttpResponse; \u003e@402",
          "type": "activity",
          "component": "com.sinyee.babybus.animal.fr.Main"
        }
      ]
    },
    "10": {
      "startMethod": "com.sinyee.babybus.animal.fr.Main.onCreate(Landroid/os/Bundle;)V",
      "targetMethod": "org.apache.http.impl.client.DefaultHttpClient.execute(Lorg/apache/http/client/methods/HttpUriRequest;)Lorg/apache/http/HttpResponse;",
      "eventChain": [
        {
          "start": "com.sinyee.babybus.animal.fr.Main.onCreate(Landroid/os/Bundle;)V",
          "target": "invokevirtual \u003c Application, Lorg/apache/http/impl/client/DefaultHttpClient, execute(Lorg/apache/http/client/methods/HttpUriRequest;)Lorg/apache/http/HttpResponse; \u003e@442",
          "type": "activity",
          "component": "com.sinyee.babybus.animal.fr.Main"
        }
      ]
    },
    "11": {
      "startMethod": "com.sinyee.babybus.animal.fr.Main.onCreate(Landroid/os/Bundle;)V",
      "targetMethod": "org.apache.http.impl.client.DefaultHttpClient.execute(Lorg/apache/http/client/methods/HttpUriRequest;)Lorg/apache/http/HttpResponse;",
      "eventChain": [
        {
          "start": "com.sinyee.babybus.animal.fr.Main.onCreate(Landroid/os/Bundle;)V",
          "target": "invokevirtual \u003c Application, Lorg/apache/http/impl/client/DefaultHttpClient, execute(Lorg/apache/http/client/methods/HttpUriRequest;)Lorg/apache/http/HttpResponse; \u003e@320",
          "type": "activity",
          "component": "com.sinyee.babybus.animal.fr.Main"
        }
      ]
    },
    "12": {
      "startMethod": "com.sinyee.babybus.animal.fr.Main.onCreate(Landroid/os/Bundle;)V",
      "targetMethod": "org.apache.http.impl.client.DefaultHttpClient.execute(Lorg/apache/http/client/methods/HttpUriRequest;)Lorg/apache/http/HttpResponse;",
      "eventChain": [
        {
          "start": "com.sinyee.babybus.animal.fr.Main.onCreate(Landroid/os/Bundle;)V",
          "target": "invokevirtual \u003c Application, Lorg/apache/http/impl/client/DefaultHttpClient, execute(Lorg/apache/http/client/methods/HttpUriRequest;)Lorg/apache/http/HttpResponse; \u003e@88",
          "type": "activity",
          "component": "com.sinyee.babybus.animal.fr.Main"
        }
      ]
    },
    "13": {
      "startMethod": "com.sinyee.babybus.animal.fr.Main.onCreate(Landroid/os/Bundle;)V",
      "targetMethod": "org.apache.http.impl.client.DefaultHttpClient.execute(Lorg/apache/http/client/methods/HttpUriRequest;)Lorg/apache/http/HttpResponse;",
      "eventChain": [
        {
          "start": "com.sinyee.babybus.animal.fr.Main.onCreate(Landroid/os/Bundle;)V",
          "target": "invokevirtual \u003c Application, Lorg/apache/http/impl/client/DefaultHttpClient, execute(Lorg/apache/http/client/methods/HttpUriRequest;)Lorg/apache/http/HttpResponse; \u003e@82",
          "type": "activity",
          "component": "com.sinyee.babybus.animal.fr.Main"
        }
      ]
    },
    "14": {
      "startMethod": "com.boost.beluga.hotapps.HotAppsActivity$1.onItemClick(Landroid/widget/AdapterView;Landroid/view/View;IJ)V",
      "targetMethod": "java.net.URL.openConnection()Ljava/net/URLConnection;",
      "eventChain": [
        {
          "start": "com.boost.beluga.hotapps.HotAppsActivity.onCreate(Landroid/os/Bundle;)V",
          "target": "invokevirtual \u003c Application, Landroid/widget/ListView, setOnItemClickListener(Landroid/widget/AdapterView$OnItemClickListener;)V \u003e@703",
          "type": "activity",
          "component": "com.boost.beluga.hotapps.HotAppsActivity",
          "constraintsFile": "constraints14_0.py",
          "variables": {},
          "stringMap": {},
          "strings": {}
        },
        {
          "start": "com.boost.beluga.hotapps.HotAppsActivity$1.onItemClick(Landroid/widget/AdapterView;Landroid/view/View;IJ)V",
          "target": "invokevirtual \u003c Application, Ljava/net/URL, openConnection()Ljava/net/URLConnection; \u003e@65",
          "type": "ui",
          "activities": [
            "com.sinyee.babybus.animal.fr.Main"
          ],
          "listener": "com.boost.beluga.hotapps.HotAppsActivity$1",
          "listenerMethod": "onItemClick",
          "uiType": "onItemClick",
          "constraintsFile": "constraints14_1.py",
          "variables": {
            "\u003cChainedInput3\u003e": "IAAv1"
          },
          "stringMap": {},
          "strings": {}
        }
      ]
    },
    "15": {
      "startMethod": "com.umeng.xp.view.ak.onItemClick(Landroid/widget/AdapterView;Landroid/view/View;IJ)V",
      "targetMethod": "org.apache.http.client.HttpClient.execute(Lorg/apache/http/client/methods/HttpUriRequest;)Lorg/apache/http/HttpResponse;",
      "eventChain": [
        {
          "start": "com.umeng.xp.view.ak.onItemClick(Landroid/widget/AdapterView;Landroid/view/View;IJ)V",
          "target": "",
          "type": "ui",
          "activities": [
            "com.sinyee.babybus.animal.fr.Main"
          ],
          "listener": "com.umeng.xp.view.ak",
          "listenerMethod": "onItemClick",
          "uiType": "onItemClick",
          "constraintsFile": "constraints15_0.py",
          "variables": {},
          "stringMap": {},
          "strings": {
            "IAAv1": ""
          }
        },
        {
          "start": "com.umeng.xp.view.ak.onItemClick(Landroid/widget/AdapterView;Landroid/view/View;IJ)V",
          "target": "PC@125",
          "type": "ui",
          "activities": [
            "com.sinyee.babybus.animal.fr.Main"
          ],
          "listener": "com.umeng.xp.view.ak",
          "listenerMethod": "onItemClick",
          "uiType": "onItemClick",
          "constraintsFile": "constraints15_1.py",
          "variables": {},
          "stringMap": {
            "7000": "\u003cUI\u003e"
          },
          "strings": {
            "IAAv1": "",
            "IAAv16": "",
            "IAAv17": "",
            "IAAv19": ""
          }
        },
        {
          "start": "com.umeng.xp.view.ak.onItemClick(Landroid/widget/AdapterView;Landroid/view/View;IJ)V",
          "target": "invokeinterface \u003c Application, Lorg/apache/http/client/HttpClient, execute(Lorg/apache/http/client/methods/HttpUriRequest;)Lorg/apache/http/HttpResponse; \u003e@309",
          "type": "ui",
          "activities": [
            "com.sinyee.babybus.animal.fr.Main"
          ],
          "listener": "com.umeng.xp.view.ak",
          "listenerMethod": "onItemClick",
          "uiType": "onItemClick",
          "constraintsFile": "constraints15_2.py",
          "variables": {},
          "stringMap": {
            "7000": "\u003cUI\u003e"
          },
          "strings": {
            "IAAv1": "",
            "IAAv16": "",
            "IAAv17": "",
            "IAAv19": ""
          }
        }
      ]
    },
    "16": {
      "startMethod": "com.umeng.xp.view.ak.onItemClick(Landroid/widget/AdapterView;Landroid/view/View;IJ)V",
      "targetMethod": "java.net.URL.openConnection()Ljava/net/URLConnection;",
      "eventChain": [
        {
          "start": "com.umeng.xp.view.ak.onItemClick(Landroid/widget/AdapterView;Landroid/view/View;IJ)V",
          "target": "",
          "type": "ui",
          "activities": [
            "com.sinyee.babybus.animal.fr.Main"
          ],
          "listener": "com.umeng.xp.view.ak",
          "listenerMethod": "onItemClick",
          "uiType": "onItemClick",
          "constraintsFile": "constraints16_0.py",
          "variables": {},
          "stringMap": {},
          "strings": {
            "IAAv1": ""
          }
        },
        {
          "start": "com.umeng.xp.view.ak.onItemClick(Landroid/widget/AdapterView;Landroid/view/View;IJ)V",
          "target": "PC@125",
          "type": "ui",
          "activities": [
            "com.sinyee.babybus.animal.fr.Main"
          ],
          "listener": "com.umeng.xp.view.ak",
          "listenerMethod": "onItemClick",
          "uiType": "onItemClick",
          "constraintsFile": "constraints16_1.py",
          "variables": {
            "\u003cUI\u003e.setVisibility().a": "IAAv32"
          },
          "stringMap": {
            "7000": "\u003cUI\u003e"
          },
          "strings": {
            "IAAv1": ""
          }
        },
        {
          "start": "com.umeng.xp.view.ak.onItemClick(Landroid/widget/AdapterView;Landroid/view/View;IJ)V",
          "target": "invokevirtual \u003c Application, Ljava/net/URL, openConnection()Ljava/net/URLConnection; \u003e@200",
          "type": "ui",
          "activities": [
            "com.sinyee.babybus.animal.fr.Main"
          ],
          "listener": "com.umeng.xp.view.ak",
          "listenerMethod": "onItemClick",
          "uiType": "onItemClick",
          "constraintsFile": "constraints16_2.py",
          "variables": {
            "\u003cUI\u003e.setVisibility().a": "IAAv32"
          },
          "stringMap": {
            "7000": "\u003cUI\u003e"
          },
          "strings": {
            "IAAv1": ""
          }
        }
      ]
    },
    "17": {
      "startMethod": "com.umeng.xp.view.ak.onItemClick(Landroid/widget/AdapterView;Landroid/view/View;IJ)V",
      "targetMethod": "org.apache.http.client.HttpClient.execute(Lorg/apache/http/client/methods/HttpUriRequest;)Lorg/apache/http/HttpResponse;",
      "eventChain": [
        {
          "start": "com.umeng.xp.view.ak.onItemClick(Landroid/widget/AdapterView;Landroid/view/View;IJ)V",
          "target": "",
          "type": "ui",
          "activities": [
            "com.sinyee.babybus.animal.fr.Main"
          ],
          "listener": "com.umeng.xp.view.ak",
          "listenerMethod": "onItemClick",
          "uiType": "onItemClick",
          "constraintsFile": "constraints17_0.py",
          "variables": {},
          "stringMap": {},
          "strings": {
            "IAAv1": ""
          }
        },
        {
          "start": "com.umeng.xp.view.ak.onItemClick(Landroid/widget/AdapterView;Landroid/view/View;IJ)V",
          "target": "PC@125",
          "type": "ui",
          "activities": [
            "com.sinyee.babybus.animal.fr.Main"
          ],
          "listener": "com.umeng.xp.view.ak",
          "listenerMethod": "onItemClick",
          "uiType": "onItemClick",
          "constraintsFile": "constraints17_1.py",
          "variables": {},
          "stringMap": {
            "7000": "\u003cUI\u003e"
          },
          "strings": {
            "IAAv1": "",
            "IAAv16": "",
            "IAAv17": ""
          }
        },
        {
          "start": "com.umeng.xp.view.ak.onItemClick(Landroid/widget/AdapterView;Landroid/view/View;IJ)V",
          "target": "invokeinterface \u003c Application, Lorg/apache/http/client/HttpClient, execute(Lorg/apache/http/client/methods/HttpUriRequest;)Lorg/apache/http/HttpResponse; \u003e@349",
          "type": "ui",
          "activities": [
            "com.sinyee.babybus.animal.fr.Main"
          ],
          "listener": "com.umeng.xp.view.ak",
          "listenerMethod": "onItemClick",
          "uiType": "onItemClick",
          "constraintsFile": "constraints17_2.py",
          "variables": {},
          "stringMap": {
            "7000": "\u003cUI\u003e"
          },
          "strings": {
            "IAAv1": "",
            "IAAv16": "",
            "IAAv17": ""
          }
        }
      ]
    },
    "18": {
      "startMethod": "com.umeng.xp.view.J.onClick(Landroid/view/View;)V",
      "targetMethod": "java.net.URL.openConnection()Ljava/net/URLConnection;",
      "eventChain": [
        {
          "start": "com.umeng.xp.view.J.onClick(Landroid/view/View;)V",
          "target": "invokevirtual \u003c Application, Ljava/net/URL, openConnection()Ljava/net/URLConnection; \u003e@200",
          "type": "ui",
          "activities": [
            "com.sinyee.babybus.animal.fr.Main"
          ],
          "listener": "com.umeng.xp.view.J",
          "listenerMethod": "onClick",
          "uiType": "onClick",
          "constraintsFile": "constraints18_0.py",
          "variables": {
            "\u003cUI\u003e.setVisibility().a": "IAAv30"
          },
          "stringMap": {
            "7000": "\u003cUI\u003e"
          },
          "strings": {}
        }
      ]
    },
    "19": {
      "startMethod": "com.umeng.xp.view.J.onClick(Landroid/view/View;)V",
      "targetMethod": "org.apache.http.client.HttpClient.execute(Lorg/apache/http/client/methods/HttpUriRequest;)Lorg/apache/http/HttpResponse;",
      "eventChain": [
        {
          "start": "com.umeng.xp.view.J.onClick(Landroid/view/View;)V",
          "target": "invokeinterface \u003c Application, Lorg/apache/http/client/HttpClient, execute(Lorg/apache/http/client/methods/HttpUriRequest;)Lorg/apache/http/HttpResponse; \u003e@309",
          "type": "ui",
          "activities": [
            "com.sinyee.babybus.animal.fr.Main"
          ],
          "listener": "com.umeng.xp.view.J",
          "listenerMethod": "onClick",
          "uiType": "onClick",
          "constraintsFile": "constraints19_0.py",
          "variables": {},
          "stringMap": {
            "7000": "\u003cUI\u003e"
          },
          "strings": {
            "IAAv14": "",
            "IAAv15": "",
            "IAAv17": ""
          }
        }
      ]
    },
    "20": {
      "startMethod": "com.umeng.xp.view.J.onClick(Landroid/view/View;)V",
      "targetMethod": "org.apache.http.client.HttpClient.execute(Lorg/apache/http/client/methods/HttpUriRequest;)Lorg/apache/http/HttpResponse;",
      "eventChain": [
        {
          "start": "com.umeng.xp.view.J.onClick(Landroid/view/View;)V",
          "target": "invokeinterface \u003c Application, Lorg/apache/http/client/HttpClient, execute(Lorg/apache/http/client/methods/HttpUriRequest;)Lorg/apache/http/HttpResponse; \u003e@349",
          "type": "ui",
          "activities": [
            "com.sinyee.babybus.animal.fr.Main"
          ],
          "listener": "com.umeng.xp.view.J",
          "listenerMethod": "onClick",
          "uiType": "onClick",
          "constraintsFile": "constraints20_0.py",
          "variables": {},
          "stringMap": {
            "7000": "\u003cUI\u003e"
          },
          "strings": {
            "IAAv14": "",
            "IAAv15": ""
          }
        }
      ]
    },
    "21": {
      "startMethod": "com.inmobi.activity.AdCreativeTesting$3.onClick(Landroid/view/View;)V",
      "targetMethod": "java.lang.reflect.Method.invoke(Ljava/lang/Object;[Ljava/lang/Object;)Ljava/lang/Object;",
      "eventChain": [
        {
          "start": "com.inmobi.activity.AdCreativeTesting$3.onClick(Landroid/view/View;)V",
          "target": "invokevirtual \u003c Application, Ljava/lang/reflect/Method, invoke(Ljava/lang/Object;[Ljava/lang/Object;)Ljava/lang/Object; \u003e@77",
          "type": "ui",
          "activities": [
            "com.sinyee.babybus.animal.fr.Main"
          ],
          "listener": "com.inmobi.activity.AdCreativeTesting$3",
          "listenerMethod": "onClick",
          "uiType": "onClick",
          "constraintsFile": "constraints21_0.py",
          "variables": {},
          "stringMap": {},
          "strings": {}
        }
      ]
    },
    "22": {
      "startMethod": "com.umeng.xp.view.E.onClick(Landroid/view/View;)V",
      "targetMethod": "org.apache.http.client.HttpClient.execute(Lorg/apache/http/client/methods/HttpUriRequest;)Lorg/apache/http/HttpResponse;",
      "eventChain": [
        {
          "start": "com.umeng.xp.view.ak.onItemClick(Landroid/widget/AdapterView;Landroid/view/View;IJ)V",
          "target": "",
          "type": "ui",
          "activities": [
            "com.sinyee.babybus.animal.fr.Main"
          ],
          "listener": "com.umeng.xp.view.ak",
          "listenerMethod": "onItemClick",
          "uiType": "onItemClick",
          "constraintsFile": "constraints22_0.py",
          "variables": {},
          "stringMap": {},
          "strings": {
            "IAAv1": ""
          }
        },
        {
          "start": "com.umeng.xp.view.E.onClick(Landroid/view/View;)V",
          "target": "invokeinterface \u003c Application, Lorg/apache/http/client/HttpClient, execute(Lorg/apache/http/client/methods/HttpUriRequest;)Lorg/apache/http/HttpResponse; \u003e@309",
          "type": "ui",
          "activities": [
            "com.sinyee.babybus.animal.fr.Main"
          ],
          "listener": "com.umeng.xp.view.E",
          "listenerMethod": "onClick",
          "uiType": "onClick",
          "constraintsFile": "constraints22_1.py",
          "variables": {},
          "stringMap": {
            "7000": "\u003cUI\u003e"
          },
          "strings": {
            "IAAv13": "",
            "IAAv12": "",
            "IAAv15": ""
          }
        }
      ]
    },
    "23": {
      "startMethod": "com.umeng.xp.view.E.onClick(Landroid/view/View;)V",
      "targetMethod": "java.net.URL.openConnection()Ljava/net/URLConnection;",
      "eventChain": [
        {
          "start": "com.umeng.xp.view.ak.onItemClick(Landroid/widget/AdapterView;Landroid/view/View;IJ)V",
          "target": "",
          "type": "ui",
          "activities": [
            "com.sinyee.babybus.animal.fr.Main"
          ],
          "listener": "com.umeng.xp.view.ak",
          "listenerMethod": "onItemClick",
          "uiType": "onItemClick",
          "constraintsFile": "constraints23_0.py",
          "variables": {},
          "stringMap": {},
          "strings": {
            "IAAv1": ""
          }
        },
        {
          "start": "com.umeng.xp.view.E.onClick(Landroid/view/View;)V",
          "target": "invokevirtual \u003c Application, Ljava/net/URL, openConnection()Ljava/net/URLConnection; \u003e@200",
          "type": "ui",
          "activities": [
            "com.sinyee.babybus.animal.fr.Main"
          ],
          "listener": "com.umeng.xp.view.E",
          "listenerMethod": "onClick",
          "uiType": "onClick",
          "constraintsFile": "constraints23_1.py",
          "variables": {
            "\u003cUI\u003e.setVisibility().a": "IAAv28"
          },
          "stringMap": {
            "7000": "\u003cUI\u003e"
          },
          "strings": {}
        }
      ]
    },
    "24": {
      "startMethod": "com.umeng.xp.view.E.onClick(Landroid/view/View;)V",
      "targetMethod": "org.apache.http.client.HttpClient.execute(Lorg/apache/http/client/methods/HttpUriRequest;)Lorg/apache/http/HttpResponse;",
      "eventChain": [
        {
          "start": "com.umeng.xp.view.ak.onItemClick(Landroid/widget/AdapterView;Landroid/view/View;IJ)V",
          "target": "",
          "type": "ui",
          "activities": [
            "com.sinyee.babybus.animal.fr.Main"
          ],
          "listener": "com.umeng.xp.view.ak",
          "listenerMethod": "onItemClick",
          "uiType": "onItemClick",
          "constraintsFile": "constraints24_0.py",
          "variables": {},
          "stringMap": {},
          "strings": {
            "IAAv1": ""
          }
        },
        {
          "start": "com.umeng.xp.view.E.onClick(Landroid/view/View;)V",
          "target": "invokeinterface \u003c Application, Lorg/apache/http/client/HttpClient, execute(Lorg/apache/http/client/methods/HttpUriRequest;)Lorg/apache/http/HttpResponse; \u003e@349",
          "type": "ui",
          "activities": [
            "com.sinyee.babybus.animal.fr.Main"
          ],
          "listener": "com.umeng.xp.view.E",
          "listenerMethod": "onClick",
          "uiType": "onClick",
          "constraintsFile": "constraints24_1.py",
          "variables": {},
          "stringMap": {
            "7000": "\u003cUI\u003e"
          },
          "strings": {
            "IAAv13": "",
            "IAAv12": ""
          }
        }
      ]
    },
    "25": {
      "startMethod": "com.umeng.xp.view.b.onClick(Landroid/view/View;)V",
      "targetMethod": "org.apache.http.client.HttpClient.execute(Lorg/apache/http/client/methods/HttpUriRequest;)Lorg/apache/http/HttpResponse;",
      "eventChain": [
        {
          "start": "com.umeng.xp.view.ak.onItemClick(Landroid/widget/AdapterView;Landroid/view/View;IJ)V",
          "target": "",
          "type": "ui",
          "activities": [
            "com.sinyee.babybus.animal.fr.Main"
          ],
          "listener": "com.umeng.xp.view.ak",
          "listenerMethod": "onItemClick",
          "uiType": "onItemClick",
          "constraintsFile": "constraints25_0.py",
          "variables": {},
          "stringMap": {},
          "strings": {
            "IAAv1": ""
          }
        },
        {
          "start": "com.umeng.xp.view.ak.onItemClick(Landroid/widget/AdapterView;Landroid/view/View;IJ)V",
          "target": "PC@125",
          "type": "ui",
          "activities": [
            "com.sinyee.babybus.animal.fr.Main"
          ],
          "listener": "com.umeng.xp.view.ak",
          "listenerMethod": "onItemClick",
          "uiType": "onItemClick",
          "constraintsFile": "constraints25_1.py",
          "variables": {},
          "stringMap": {
            "7000": "\u003cUI\u003e"
          },
          "strings": {
            "IAAv1": "",
            "IAAv16": "",
            "IAAv17": ""
          }
        },
        {
          "start": "com.umeng.xp.view.b.onClick(Landroid/view/View;)V",
          "target": "invokeinterface \u003c Application, Lorg/apache/http/client/HttpClient, execute(Lorg/apache/http/client/methods/HttpUriRequest;)Lorg/apache/http/HttpResponse; \u003e@349",
          "type": "ui",
          "activities": [
            "com.sinyee.babybus.animal.fr.Main"
          ],
          "listener": "com.umeng.xp.view.b",
          "listenerMethod": "onClick",
          "uiType": "onClick",
          "constraintsFile": "constraints25_2.py",
          "variables": {},
          "stringMap": {
            "7000": "\u003cUI\u003e"
          },
          "strings": {
            "IAAv1": "",
            "IAAv16": "",
            "IAAv17": ""
          }
        }
      ]
    },
    "26": {
      "startMethod": "com.umeng.xp.view.b.onClick(Landroid/view/View;)V",
      "targetMethod": "java.net.URL.openConnection()Ljava/net/URLConnection;",
      "eventChain": [
        {
          "start": "com.umeng.xp.view.ak.onItemClick(Landroid/widget/AdapterView;Landroid/view/View;IJ)V",
          "target": "",
          "type": "ui",
          "activities": [
            "com.sinyee.babybus.animal.fr.Main"
          ],
          "listener": "com.umeng.xp.view.ak",
          "listenerMethod": "onItemClick",
          "uiType": "onItemClick",
          "constraintsFile": "constraints26_0.py",
          "variables": {},
          "stringMap": {},
          "strings": {
            "IAAv1": ""
          }
        },
        {
          "start": "com.umeng.xp.view.ak.onItemClick(Landroid/widget/AdapterView;Landroid/view/View;IJ)V",
          "target": "PC@125",
          "type": "ui",
          "activities": [
            "com.sinyee.babybus.animal.fr.Main"
          ],
          "listener": "com.umeng.xp.view.ak",
          "listenerMethod": "onItemClick",
          "uiType": "onItemClick",
          "constraintsFile": "constraints26_1.py",
          "variables": {
            "\u003cUI\u003e.setVisibility().a": "IAAv32"
          },
          "stringMap": {
            "7000": "\u003cUI\u003e"
          },
          "strings": {
            "IAAv1": ""
          }
        },
        {
          "start": "com.umeng.xp.view.b.onClick(Landroid/view/View;)V",
          "target": "invokevirtual \u003c Application, Ljava/net/URL, openConnection()Ljava/net/URLConnection; \u003e@200",
          "type": "ui",
          "activities": [
            "com.sinyee.babybus.animal.fr.Main"
          ],
          "listener": "com.umeng.xp.view.b",
          "listenerMethod": "onClick",
          "uiType": "onClick",
          "constraintsFile": "constraints26_2.py",
          "variables": {
            "\u003cUI\u003e.setVisibility().a": "IAAv32"
          },
          "stringMap": {
            "7000": "\u003cUI\u003e"
          },
          "strings": {
            "IAAv1": ""
          }
        }
      ]
    },
    "27": {
      "startMethod": "com.umeng.xp.view.b.onClick(Landroid/view/View;)V",
      "targetMethod": "org.apache.http.client.HttpClient.execute(Lorg/apache/http/client/methods/HttpUriRequest;)Lorg/apache/http/HttpResponse;",
      "eventChain": [
        {
          "start": "com.umeng.xp.view.ak.onItemClick(Landroid/widget/AdapterView;Landroid/view/View;IJ)V",
          "target": "",
          "type": "ui",
          "activities": [
            "com.sinyee.babybus.animal.fr.Main"
          ],
          "listener": "com.umeng.xp.view.ak",
          "listenerMethod": "onItemClick",
          "uiType": "onItemClick",
          "constraintsFile": "constraints27_0.py",
          "variables": {},
          "stringMap": {},
          "strings": {
            "IAAv1": ""
          }
        },
        {
          "start": "com.umeng.xp.view.ak.onItemClick(Landroid/widget/AdapterView;Landroid/view/View;IJ)V",
          "target": "PC@125",
          "type": "ui",
          "activities": [
            "com.sinyee.babybus.animal.fr.Main"
          ],
          "listener": "com.umeng.xp.view.ak",
          "listenerMethod": "onItemClick",
          "uiType": "onItemClick",
          "constraintsFile": "constraints27_1.py",
          "variables": {},
          "stringMap": {
            "7000": "\u003cUI\u003e"
          },
          "strings": {
            "IAAv1": "",
            "IAAv16": "",
            "IAAv17": "",
            "IAAv19": ""
          }
        },
        {
          "start": "com.umeng.xp.view.b.onClick(Landroid/view/View;)V",
          "target": "invokeinterface \u003c Application, Lorg/apache/http/client/HttpClient, execute(Lorg/apache/http/client/methods/HttpUriRequest;)Lorg/apache/http/HttpResponse; \u003e@309",
          "type": "ui",
          "activities": [
            "com.sinyee.babybus.animal.fr.Main"
          ],
          "listener": "com.umeng.xp.view.b",
          "listenerMethod": "onClick",
          "uiType": "onClick",
          "constraintsFile": "constraints27_2.py",
          "variables": {},
          "stringMap": {
            "7000": "\u003cUI\u003e"
          },
          "strings": {
            "IAAv1": "",
            "IAAv16": "",
            "IAAv17": "",
            "IAAv19": ""
          }
        }
      ]
    },
    "28": {
      "startMethod": "com.umeng.xp.view.U.onClick(Landroid/view/View;)V",
      "targetMethod": "java.net.URL.openConnection()Ljava/net/URLConnection;",
      "eventChain": [
        {
          "start": "com.umeng.xp.view.ak.onItemClick(Landroid/widget/AdapterView;Landroid/view/View;IJ)V",
          "target": "invokevirtual \u003c Application, Landroid/view/View, setOnClickListener(Landroid/view/View$OnClickListener;)V \u003e@330",
          "type": "ui",
          "activities": [
            "com.sinyee.babybus.animal.fr.Main"
          ],
          "listener": "com.umeng.xp.view.ak",
          "listenerMethod": "onItemClick",
          "uiType": "onItemClick",
          "constraintsFile": "constraints28_0.py",
          "variables": {},
          "stringMap": {
            "7000": "\u003cUI\u003e"
          },
          "strings": {
            "IAAv1": ""
          }
        },
        {
          "start": "com.umeng.xp.view.ak.onItemClick(Landroid/widget/AdapterView;Landroid/view/View;IJ)V",
          "target": "",
          "type": "ui",
          "activities": [
            "com.sinyee.babybus.animal.fr.Main"
          ],
          "listener": "com.umeng.xp.view.ak",
          "listenerMethod": "onItemClick",
          "uiType": "onItemClick",
          "constraintsFile": "constraints28_1.py",
          "variables": {},
          "stringMap": {},
          "strings": {
            "IAAv1": ""
          }
        },
        {
          "start": "com.umeng.xp.view.ak.onItemClick(Landroid/widget/AdapterView;Landroid/view/View;IJ)V",
          "target": "PC@125",
          "type": "ui",
          "activities": [
            "com.sinyee.babybus.animal.fr.Main"
          ],
          "listener": "com.umeng.xp.view.ak",
          "listenerMethod": "onItemClick",
          "uiType": "onItemClick",
          "constraintsFile": "constraints28_2.py",
          "variables": {
            "\u003cUI\u003e.setVisibility().a": "IAAv32"
          },
          "stringMap": {
            "7000": "\u003cUI\u003e"
          },
          "strings": {
            "IAAv1": ""
          }
        },
        {
          "start": "com.umeng.xp.view.U.onClick(Landroid/view/View;)V",
          "target": "invokevirtual \u003c Application, Ljava/net/URL, openConnection()Ljava/net/URLConnection; \u003e@200",
          "type": "ui",
          "activities": [
            "com.sinyee.babybus.animal.fr.Main"
          ],
          "listener": "com.umeng.xp.view.U",
          "listenerMethod": "onClick",
          "uiType": "onClick",
          "constraintsFile": "constraints28_3.py",
          "variables": {
            "\u003cUI\u003e.setVisibility().a": "IAAv32"
          },
          "stringMap": {
            "7000": "\u003cUI\u003e"
          },
          "strings": {
            "IAAv1": ""
          }
        }
      ]
    },
    "29": {
      "startMethod": "com.umeng.xp.view.U.onClick(Landroid/view/View;)V",
      "targetMethod": "org.apache.http.client.HttpClient.execute(Lorg/apache/http/client/methods/HttpUriRequest;)Lorg/apache/http/HttpResponse;",
      "eventChain": [
        {
          "start": "com.umeng.xp.view.ak.onItemClick(Landroid/widget/AdapterView;Landroid/view/View;IJ)V",
          "target": "invokevirtual \u003c Application, Landroid/view/View, setOnClickListener(Landroid/view/View$OnClickListener;)V \u003e@330",
          "type": "ui",
          "activities": [
            "com.sinyee.babybus.animal.fr.Main"
          ],
          "listener": "com.umeng.xp.view.ak",
          "listenerMethod": "onItemClick",
          "uiType": "onItemClick",
          "constraintsFile": "constraints29_0.py",
          "variables": {},
          "stringMap": {
            "7000": "\u003cUI\u003e"
          },
          "strings": {
            "IAAv1": ""
          }
        },
        {
          "start": "com.umeng.xp.view.ak.onItemClick(Landroid/widget/AdapterView;Landroid/view/View;IJ)V",
          "target": "",
          "type": "ui",
          "activities": [
            "com.sinyee.babybus.animal.fr.Main"
          ],
          "listener": "com.umeng.xp.view.ak",
          "listenerMethod": "onItemClick",
          "uiType": "onItemClick",
          "constraintsFile": "constraints29_1.py",
          "variables": {},
          "stringMap": {},
          "strings": {
            "IAAv1": ""
          }
        },
        {
          "start": "com.umeng.xp.view.ak.onItemClick(Landroid/widget/AdapterView;Landroid/view/View;IJ)V",
          "target": "PC@125",
          "type": "ui",
          "activities": [
            "com.sinyee.babybus.animal.fr.Main"
          ],
          "listener": "com.umeng.xp.view.ak",
          "listenerMethod": "onItemClick",
          "uiType": "onItemClick",
          "constraintsFile": "constraints29_2.py",
          "variables": {},
          "stringMap": {
            "7000": "\u003cUI\u003e"
          },
          "strings": {
            "IAAv1": "",
            "IAAv16": "",
            "IAAv17": "",
            "IAAv19": ""
          }
        },
        {
          "start": "com.umeng.xp.view.U.onClick(Landroid/view/View;)V",
          "target": "invokeinterface \u003c Application, Lorg/apache/http/client/HttpClient, execute(Lorg/apache/http/client/methods/HttpUriRequest;)Lorg/apache/http/HttpResponse; \u003e@309",
          "type": "ui",
          "activities": [
            "com.sinyee.babybus.animal.fr.Main"
          ],
          "listener": "com.umeng.xp.view.U",
          "listenerMethod": "onClick",
          "uiType": "onClick",
          "constraintsFile": "constraints29_3.py",
          "variables": {},
          "stringMap": {
            "7000": "\u003cUI\u003e"
          },
          "strings": {
            "IAAv1": "",
            "IAAv16": "",
            "IAAv17": "",
            "IAAv19": ""
          }
        }
      ]
    },
    "30": {
      "startMethod": "com.umeng.xp.view.U.onClick(Landroid/view/View;)V",
      "targetMethod": "org.apache.http.client.HttpClient.execute(Lorg/apache/http/client/methods/HttpUriRequest;)Lorg/apache/http/HttpResponse;",
      "eventChain": [
        {
          "start": "com.umeng.xp.view.ak.onItemClick(Landroid/widget/AdapterView;Landroid/view/View;IJ)V",
          "target": "invokevirtual \u003c Application, Landroid/view/View, setOnClickListener(Landroid/view/View$OnClickListener;)V \u003e@330",
          "type": "ui",
          "activities": [
            "com.sinyee.babybus.animal.fr.Main"
          ],
          "listener": "com.umeng.xp.view.ak",
          "listenerMethod": "onItemClick",
          "uiType": "onItemClick",
          "constraintsFile": "constraints30_0.py",
          "variables": {},
          "stringMap": {
            "7000": "\u003cUI\u003e"
          },
          "strings": {
            "IAAv1": ""
          }
        },
        {
          "start": "com.umeng.xp.view.ak.onItemClick(Landroid/widget/AdapterView;Landroid/view/View;IJ)V",
          "target": "",
          "type": "ui",
          "activities": [
            "com.sinyee.babybus.animal.fr.Main"
          ],
          "listener": "com.umeng.xp.view.ak",
          "listenerMethod": "onItemClick",
          "uiType": "onItemClick",
          "constraintsFile": "constraints30_1.py",
          "variables": {},
          "stringMap": {},
          "strings": {
            "IAAv1": ""
          }
        },
        {
          "start": "com.umeng.xp.view.ak.onItemClick(Landroid/widget/AdapterView;Landroid/view/View;IJ)V",
          "target": "PC@125",
          "type": "ui",
          "activities": [
            "com.sinyee.babybus.animal.fr.Main"
          ],
          "listener": "com.umeng.xp.view.ak",
          "listenerMethod": "onItemClick",
          "uiType": "onItemClick",
          "constraintsFile": "constraints30_2.py",
          "variables": {},
          "stringMap": {
            "7000": "\u003cUI\u003e"
          },
          "strings": {
            "IAAv1": "",
            "IAAv16": "",
            "IAAv17": ""
          }
        },
        {
          "start": "com.umeng.xp.view.U.onClick(Landroid/view/View;)V",
          "target": "invokeinterface \u003c Application, Lorg/apache/http/client/HttpClient, execute(Lorg/apache/http/client/methods/HttpUriRequest;)Lorg/apache/http/HttpResponse; \u003e@349",
          "type": "ui",
          "activities": [
            "com.sinyee.babybus.animal.fr.Main"
          ],
          "listener": "com.umeng.xp.view.U",
          "listenerMethod": "onClick",
          "uiType": "onClick",
          "constraintsFile": "constraints30_3.py",
          "variables": {},
          "stringMap": {
            "7000": "\u003cUI\u003e"
          },
          "strings": {
            "IAAv1": "",
            "IAAv16": "",
            "IAAv17": ""
          }
        }
      ]
    },
    "31": {
      "startMethod": "com.umeng.xp.view.K.onClick(Landroid/view/View;)V",
      "targetMethod": "org.apache.http.client.HttpClient.execute(Lorg/apache/http/client/methods/HttpUriRequest;)Lorg/apache/http/HttpResponse;",
      "eventChain": [
        {
          "start": "com.umeng.xp.view.ak.onItemClick(Landroid/widget/AdapterView;Landroid/view/View;IJ)V",
          "target": "",
          "type": "ui",
          "activities": [
            "com.sinyee.babybus.animal.fr.Main"
          ],
          "listener": "com.umeng.xp.view.ak",
          "listenerMethod": "onItemClick",
          "uiType": "onItemClick",
          "constraintsFile": "constraints31_0.py",
          "variables": {},
          "stringMap": {},
          "strings": {
            "IAAv1": ""
          }
        },
        {
          "start": "com.umeng.xp.view.K.onClick(Landroid/view/View;)V",
          "target": "invokeinterface \u003c Application, Lorg/apache/http/client/HttpClient, execute(Lorg/apache/http/client/methods/HttpUriRequest;)Lorg/apache/http/HttpResponse; \u003e@349",
          "type": "ui",
          "activities": [
            "com.sinyee.babybus.animal.fr.Main"
          ],
          "listener": "com.umeng.xp.view.K",
          "listenerMethod": "onClick",
          "uiType": "onClick",
          "constraintsFile": "constraints31_1.py",
          "variables": {},
          "stringMap": {
            "7000": "\u003cUI\u003e"
          },
          "strings": {
            "IAAv13": "",
            "IAAv12": ""
          }
        }
      ]
    },
    "32": {
      "startMethod": "com.umeng.xp.view.K.onClick(Landroid/view/View;)V",
      "targetMethod": "java.net.URL.openConnection()Ljava/net/URLConnection;",
      "eventChain": [
        {
          "start": "com.umeng.xp.view.ak.onItemClick(Landroid/widget/AdapterView;Landroid/view/View;IJ)V",
          "target": "",
          "type": "ui",
          "activities": [
            "com.sinyee.babybus.animal.fr.Main"
          ],
          "listener": "com.umeng.xp.view.ak",
          "listenerMethod": "onItemClick",
          "uiType": "onItemClick",
          "constraintsFile": "constraints32_0.py",
          "variables": {},
          "stringMap": {},
          "strings": {
            "IAAv1": ""
          }
        },
        {
          "start": "com.umeng.xp.view.K.onClick(Landroid/view/View;)V",
          "target": "invokevirtual \u003c Application, Ljava/net/URL, openConnection()Ljava/net/URLConnection; \u003e@200",
          "type": "ui",
          "activities": [
            "com.sinyee.babybus.animal.fr.Main"
          ],
          "listener": "com.umeng.xp.view.K",
          "listenerMethod": "onClick",
          "uiType": "onClick",
          "constraintsFile": "constraints32_1.py",
          "variables": {
            "\u003cUI\u003e.setVisibility().a": "IAAv28"
          },
          "stringMap": {
            "7000": "\u003cUI\u003e"
          },
          "strings": {}
        }
      ]
    },
    "33": {
      "startMethod": "com.umeng.xp.view.K.onClick(Landroid/view/View;)V",
      "targetMethod": "org.apache.http.client.HttpClient.execute(Lorg/apache/http/client/methods/HttpUriRequest;)Lorg/apache/http/HttpResponse;",
      "eventChain": [
        {
          "start": "com.umeng.xp.view.ak.onItemClick(Landroid/widget/AdapterView;Landroid/view/View;IJ)V",
          "target": "",
          "type": "ui",
          "activities": [
            "com.sinyee.babybus.animal.fr.Main"
          ],
          "listener": "com.umeng.xp.view.ak",
          "listenerMethod": "onItemClick",
          "uiType": "onItemClick",
          "constraintsFile": "constraints33_0.py",
          "variables": {},
          "stringMap": {},
          "strings": {
            "IAAv1": ""
          }
        },
        {
          "start": "com.umeng.xp.view.K.onClick(Landroid/view/View;)V",
          "target": "invokeinterface \u003c Application, Lorg/apache/http/client/HttpClient, execute(Lorg/apache/http/client/methods/HttpUriRequest;)Lorg/apache/http/HttpResponse; \u003e@309",
          "type": "ui",
          "activities": [
            "com.sinyee.babybus.animal.fr.Main"
          ],
          "listener": "com.umeng.xp.view.K",
          "listenerMethod": "onClick",
          "uiType": "onClick",
          "constraintsFile": "constraints33_1.py",
          "variables": {},
          "stringMap": {
            "7000": "\u003cUI\u003e"
          },
          "strings": {
            "IAAv13": "",
            "IAAv12": "",
            "IAAv15": ""
          }
        }
      ]
    },
    "34": {
      "startMethod": "com.umeng.xp.view.c.onClick(Landroid/view/View;)V",
      "targetMethod": "java.net.URL.openConnection()Ljava/net/URLConnection;",
      "eventChain": [
        {
          "start": "com.umeng.xp.view.ak.onItemClick(Landroid/widget/AdapterView;Landroid/view/View;IJ)V",
          "target": "",
          "type": "ui",
          "activities": [
            "com.sinyee.babybus.animal.fr.Main"
          ],
          "listener": "com.umeng.xp.view.ak",
          "listenerMethod": "onItemClick",
          "uiType": "onItemClick",
          "constraintsFile": "constraints34_0.py",
          "variables": {},
          "stringMap": {},
          "strings": {
            "IAAv1": ""
          }
        },
        {
          "start": "com.umeng.xp.view.ak.onItemClick(Landroid/widget/AdapterView;Landroid/view/View;IJ)V",
          "target": "PC@125",
          "type": "ui",
          "activities": [
            "com.sinyee.babybus.animal.fr.Main"
          ],
          "listener": "com.umeng.xp.view.ak",
          "listenerMethod": "onItemClick",
          "uiType": "onItemClick",
          "constraintsFile": "constraints34_1.py",
          "variables": {
            "\u003cUI\u003e.setVisibility().a": "IAAv33"
          },
          "stringMap": {
            "7000": "\u003cUI\u003e"
          },
          "strings": {
            "IAAv2": ""
          }
        },
        {
          "start": "com.umeng.xp.view.c.onClick(Landroid/view/View;)V",
          "target": "invokevirtual \u003c Application, Ljava/net/URL, openConnection()Ljava/net/URLConnection; \u003e@200",
          "type": "ui",
          "activities": [
            "com.sinyee.babybus.animal.fr.Main"
          ],
          "listener": "com.umeng.xp.view.c",
          "listenerMethod": "onClick",
          "uiType": "onClick",
          "constraintsFile": "constraints34_2.py",
          "variables": {
            "\u003cUI\u003e.setVisibility().a": "IAAv33"
          },
          "stringMap": {
            "7000": "\u003cUI\u003e"
          },
          "strings": {
            "IAAv2": ""
          }
        }
      ]
    },
    "35": {
      "startMethod": "com.umeng.xp.view.c.onClick(Landroid/view/View;)V",
      "targetMethod": "org.apache.http.client.HttpClient.execute(Lorg/apache/http/client/methods/HttpUriRequest;)Lorg/apache/http/HttpResponse;",
      "eventChain": [
        {
          "start": "com.umeng.xp.view.ak.onItemClick(Landroid/widget/AdapterView;Landroid/view/View;IJ)V",
          "target": "",
          "type": "ui",
          "activities": [
            "com.sinyee.babybus.animal.fr.Main"
          ],
          "listener": "com.umeng.xp.view.ak",
          "listenerMethod": "onItemClick",
          "uiType": "onItemClick",
          "constraintsFile": "constraints35_0.py",
          "variables": {},
          "stringMap": {},
          "strings": {
            "IAAv1": ""
          }
        },
        {
          "start": "com.umeng.xp.view.ak.onItemClick(Landroid/widget/AdapterView;Landroid/view/View;IJ)V",
          "target": "PC@125",
          "type": "ui",
          "activities": [
            "com.sinyee.babybus.animal.fr.Main"
          ],
          "listener": "com.umeng.xp.view.ak",
          "listenerMethod": "onItemClick",
          "uiType": "onItemClick",
          "constraintsFile": "constraints35_1.py",
          "variables": {},
          "stringMap": {
            "7000": "\u003cUI\u003e"
          },
          "strings": {
            "IAAv2": "",
            "IAAv17": "",
            "IAAv18": ""
          }
        },
        {
          "start": "com.umeng.xp.view.c.onClick(Landroid/view/View;)V",
          "target": "invokeinterface \u003c Application, Lorg/apache/http/client/HttpClient, execute(Lorg/apache/http/client/methods/HttpUriRequest;)Lorg/apache/http/HttpResponse; \u003e@349",
          "type": "ui",
          "activities": [
            "com.sinyee.babybus.animal.fr.Main"
          ],
          "listener": "com.umeng.xp.view.c",
          "listenerMethod": "onClick",
          "uiType": "onClick",
          "constraintsFile": "constraints35_2.py",
          "variables": {},
          "stringMap": {
            "7000": "\u003cUI\u003e"
          },
          "strings": {
            "IAAv2": "",
            "IAAv17": "",
            "IAAv18": ""
          }
        }
      ]
    },
    "36": {
      "startMethod": "com.umeng.xp.view.c.onClick(Landroid/view/View;)V",
      "targetMethod": "org.apache.http.client.HttpClient.execute(Lorg/apache/http/client/methods/HttpUriRequest;)Lorg/apache/http/HttpResponse;",
      "eventChain": [
        {
          "start": "com.umeng.xp.view.ak.onItemClick(Landroid/widget/AdapterView;Landroid/view/View;IJ)V",
          "target": "",
          "type": "ui",
          "activities": [
            "com.sinyee.babybus.animal.fr.Main"
          ],
          "listener": "com.umeng.xp.view.ak",
          "listenerMethod": "onItemClick",
          "uiType": "onItemClick",
          "constraintsFile": "constraints36_0.py",
          "variables": {},
          "stringMap": {},
          "strings": {
            "IAAv1": ""
          }
        },
        {
          "start": "com.umeng.xp.view.ak.onItemClick(Landroid/widget/AdapterView;Landroid/view/View;IJ)V",
          "target": "PC@125",
          "type": "ui",
          "activities": [
            "com.sinyee.babybus.animal.fr.Main"
          ],
          "listener": "com.umeng.xp.view.ak",
          "listenerMethod": "onItemClick",
          "uiType": "onItemClick",
          "constraintsFile": "constraints36_1.py",
          "variables": {},
          "stringMap": {
            "7000": "\u003cUI\u003e"
          },
          "strings": {
            "IAAv20": "",
            "IAAv2": "",
            "IAAv17": "",
            "IAAv18": ""
          }
        },
        {
          "start": "com.umeng.xp.view.c.onClick(Landroid/view/View;)V",
          "target": "invokeinterface \u003c Application, Lorg/apache/http/client/HttpClient, execute(Lorg/apache/http/client/methods/HttpUriRequest;)Lorg/apache/http/HttpResponse; \u003e@309",
          "type": "ui",
          "activities": [
            "com.sinyee.babybus.animal.fr.Main"
          ],
          "listener": "com.umeng.xp.view.c",
          "listenerMethod": "onClick",
          "uiType": "onClick",
          "constraintsFile": "constraints36_2.py",
          "variables": {},
          "stringMap": {
            "7000": "\u003cUI\u003e"
          },
          "strings": {
            "IAAv20": "",
            "IAAv2": "",
            "IAAv17": "",
            "IAAv18": ""
          }
        }
      ]
    },
    "37": {
      "startMethod": "com.inmobi.activity.AdCreativeTesting$2.onClick(Landroid/view/View;)V",
      "targetMethod": "java.lang.reflect.Method.invoke(Ljava/lang/Object;[Ljava/lang/Object;)Ljava/lang/Object;",
      "eventChain": [
        {
          "start": "com.inmobi.activity.AdCreativeTesting$2.onClick(Landroid/view/View;)V",
          "target": "invokevirtual \u003c Application, Ljava/lang/reflect/Method, invoke(Ljava/lang/Object;[Ljava/lang/Object;)Ljava/lang/Object; \u003e@77",
          "type": "ui",
          "activities": [
            "com.sinyee.babybus.animal.fr.Main"
          ],
          "listener": "com.inmobi.activity.AdCreativeTesting$2",
          "listenerMethod": "onClick",
          "uiType": "onClick",
          "constraintsFile": "constraints37_0.py",
          "variables": {},
          "stringMap": {},
          "strings": {}
        }
      ]
    },
    "38": {
      "startMethod": "com.wiyun.engine.nodes.a.onReceive(Landroid/content/Context;Landroid/content/Intent;)V",
      "targetMethod": "org.apache.http.impl.client.DefaultHttpClient.execute(Lorg/apache/http/client/methods/HttpUriRequest;)Lorg/apache/http/HttpResponse;",
      "eventChain": [
        {
          "start": "com.sinyee.babybus.animal.fr.Main.onCreate(Landroid/os/Bundle;)V",
          "target": "invokevirtual \u003c Application, Landroid/content/Context, registerReceiver(Landroid/content/BroadcastReceiver;Landroid/content/IntentFilter;)Landroid/content/Intent; \u003e@105",
          "type": "activity",
          "component": "com.sinyee.babybus.animal.fr.Main"
        },
        {
          "start": "com.wiyun.engine.nodes.a.onReceive(Landroid/content/Context;Landroid/content/Intent;)V",
          "target": "invokevirtual \u003c Application, Lorg/apache/http/impl/client/DefaultHttpClient, execute(Lorg/apache/http/client/methods/HttpUriRequest;)Lorg/apache/http/HttpResponse; \u003e@295",
          "type": "sms"
        }
      ]
    },
    "39": {
      "startMethod": "com.wiyun.engine.nodes.a.onReceive(Landroid/content/Context;Landroid/content/Intent;)V",
      "targetMethod": "org.apache.http.impl.client.DefaultHttpClient.execute(Lorg/apache/http/client/methods/HttpUriRequest;)Lorg/apache/http/HttpResponse;",
      "eventChain": [
        {
          "start": "com.sinyee.babybus.animal.fr.Main.onCreate(Landroid/os/Bundle;)V",
          "target": "invokevirtual \u003c Application, Landroid/content/Context, registerReceiver(Landroid/content/BroadcastReceiver;Landroid/content/IntentFilter;)Landroid/content/Intent; \u003e@105",
          "type": "activity",
          "component": "com.sinyee.babybus.animal.fr.Main"
        },
        {
          "start": "com.wiyun.engine.nodes.a.onReceive(Landroid/content/Context;Landroid/content/Intent;)V",
          "target": "invokevirtual \u003c Application, Lorg/apache/http/impl/client/DefaultHttpClient, execute(Lorg/apache/http/client/methods/HttpUriRequest;)Lorg/apache/http/HttpResponse; \u003e@82",
          "type": "sms"
        }
      ]
    },
    "40": {
      "startMethod": "com.wiyun.engine.nodes.g.onReceive(Landroid/content/Context;Landroid/content/Intent;)V",
      "targetMethod": "org.apache.http.impl.client.DefaultHttpClient.execute(Lorg/apache/http/client/methods/HttpUriRequest;)Lorg/apache/http/HttpResponse;",
      "eventChain": [
        {
          "start": "com.sinyee.babybus.animal.fr.Main.onCreate(Landroid/os/Bundle;)V",
          "target": "invokevirtual \u003c Application, Landroid/content/Context, registerReceiver(Landroid/content/BroadcastReceiver;Landroid/content/IntentFilter;)Landroid/content/Intent; \u003e@145",
          "type": "activity",
          "component": "com.sinyee.babybus.animal.fr.Main"
        },
        {
          "start": "com.wiyun.engine.nodes.g.onReceive(Landroid/content/Context;Landroid/content/Intent;)V",
          "target": "invokevirtual \u003c Application, Lorg/apache/http/impl/client/DefaultHttpClient, execute(Lorg/apache/http/client/methods/HttpUriRequest;)Lorg/apache/http/HttpResponse; \u003e@82",
          "type": "sms"
        }
      ]
    },
    "41": {
      "startMethod": "com.umeng.xp.view.w$a.onScrollStateChanged(Landroid/widget/AbsListView;I)V",
      "targetMethod": "java.net.URL.openConnection()Ljava/net/URLConnection;",
      "eventChain": [
        {
          "start": "com.umeng.xp.view.ak.onItemClick(Landroid/widget/AdapterView;Landroid/view/View;IJ)V",
          "target": "invokevirtual \u003c Application, Landroid/widget/ListView, setOnScrollListener(Landroid/widget/AbsListView$OnScrollListener;)V \u003e@169",
          "type": "ui",
          "activities": [
            "com.sinyee.babybus.animal.fr.Main"
          ],
          "listener": "com.umeng.xp.view.ak",
          "listenerMethod": "onItemClick",
          "uiType": "onItemClick",
          "constraintsFile": "constraints41_0.py",
          "variables": {},
          "stringMap": {
            "7000": "\u003cUI\u003e"
          },
          "strings": {
            "IAAv1": ""
          }
        },
        {
          "start": "com.umeng.xp.view.aq.onAnimationEnd(Landroid/view/animation/Animation;)V",
          "target": "PC@14",
          "type": "ui",
          "activities": [
            "com.sinyee.babybus.animal.fr.Main"
          ],
          "listener": "com.umeng.xp.view.aq",
          "listenerMethod": "onAnimationEnd",
          "uiType": "onAnimationEnd",
          "constraintsFile": "constraints41_1.py",
          "variables": {
            "\u003cUI\u003e.setVisibility().a": "IAAv22",
            "\u003cChainedInput2\u003e": "IAAv2"
          },
          "stringMap": {
            "7000": "\u003cUI\u003e"
          },
          "strings": {}
        },
        {
          "start": "com.umeng.xp.view.w$a.onScrollStateChanged(Landroid/widget/AbsListView;I)V",
          "target": "invokevirtual \u003c Application, Ljava/net/URL, openConnection()Ljava/net/URLConnection; \u003e@200",
          "type": "ui",
          "activities": [
            "com.sinyee.babybus.animal.fr.Main"
          ],
          "listener": "com.umeng.xp.view.w$a",
          "listenerMethod": "onScrollStateChanged",
          "uiType": "onScrollStateChanged",
          "constraintsFile": "constraints41_2.py",
          "variables": {
            "\u003cUI\u003e.setVisibility().a": "IAAv23",
            "\u003cChainedInput2\u003e": "IAAv3"
          },
          "stringMap": {
            "7000": "\u003cUI\u003e"
          },
          "strings": {}
        }
      ]
    },
    "42": {
      "startMethod": "com.umeng.xp.view.w$a.onScrollStateChanged(Landroid/widget/AbsListView;I)V",
      "targetMethod": "org.apache.http.client.HttpClient.execute(Lorg/apache/http/client/methods/HttpUriRequest;)Lorg/apache/http/HttpResponse;",
      "eventChain": [
        {
          "start": "com.umeng.xp.view.ak.onItemClick(Landroid/widget/AdapterView;Landroid/view/View;IJ)V",
          "target": "invokevirtual \u003c Application, Landroid/widget/ListView, setOnScrollListener(Landroid/widget/AbsListView$OnScrollListener;)V \u003e@169",
          "type": "ui",
          "activities": [
            "com.sinyee.babybus.animal.fr.Main"
          ],
          "listener": "com.umeng.xp.view.ak",
          "listenerMethod": "onItemClick",
          "uiType": "onItemClick",
          "constraintsFile": "constraints42_0.py",
          "variables": {},
          "stringMap": {
            "7000": "\u003cUI\u003e"
          },
          "strings": {
            "IAAv1": ""
          }
        },
        {
          "start": "com.umeng.xp.view.aq.onAnimationEnd(Landroid/view/animation/Animation;)V",
          "target": "PC@14",
          "type": "ui",
          "activities": [
            "com.sinyee.babybus.animal.fr.Main"
          ],
          "listener": "com.umeng.xp.view.aq",
          "listenerMethod": "onAnimationEnd",
          "uiType": "onAnimationEnd",
          "constraintsFile": "constraints42_1.py",
          "variables": {
            "\u003cChainedInput2\u003e": "IAAv2"
          },
          "stringMap": {},
          "strings": {
            "IAAv14": "",
            "IAAv15": ""
          }
        },
        {
          "start": "com.umeng.xp.view.w$a.onScrollStateChanged(Landroid/widget/AbsListView;I)V",
          "target": "invokeinterface \u003c Application, Lorg/apache/http/client/HttpClient, execute(Lorg/apache/http/client/methods/HttpUriRequest;)Lorg/apache/http/HttpResponse; \u003e@349",
          "type": "ui",
          "activities": [
            "com.sinyee.babybus.animal.fr.Main"
          ],
          "listener": "com.umeng.xp.view.w$a",
          "listenerMethod": "onScrollStateChanged",
          "uiType": "onScrollStateChanged",
          "constraintsFile": "constraints42_2.py",
          "variables": {
            "\u003cChainedInput2\u003e": "IAAv3"
          },
          "stringMap": {},
          "strings": {
            "IAAv15": "",
            "IAAv16": ""
          }
        }
      ]
    },
    "43": {
      "startMethod": "com.umeng.xp.view.w$a.onScrollStateChanged(Landroid/widget/AbsListView;I)V",
      "targetMethod": "org.apache.http.client.HttpClient.execute(Lorg/apache/http/client/methods/HttpUriRequest;)Lorg/apache/http/HttpResponse;",
      "eventChain": [
        {
          "start": "com.umeng.xp.view.ak.onItemClick(Landroid/widget/AdapterView;Landroid/view/View;IJ)V",
          "target": "invokevirtual \u003c Application, Landroid/widget/ListView, setOnScrollListener(Landroid/widget/AbsListView$OnScrollListener;)V \u003e@169",
          "type": "ui",
          "activities": [
            "com.sinyee.babybus.animal.fr.Main"
          ],
          "listener": "com.umeng.xp.view.ak",
          "listenerMethod": "onItemClick",
          "uiType": "onItemClick",
          "constraintsFile": "constraints43_0.py",
          "variables": {},
          "stringMap": {
            "7000": "\u003cUI\u003e"
          },
          "strings": {
            "IAAv1": ""
          }
        },
        {
          "start": "com.umeng.xp.view.aq.onAnimationEnd(Landroid/view/animation/Animation;)V",
          "target": "PC@14",
          "type": "ui",
          "activities": [
            "com.sinyee.babybus.animal.fr.Main"
          ],
          "listener": "com.umeng.xp.view.aq",
          "listenerMethod": "onAnimationEnd",
          "uiType": "onAnimationEnd",
          "constraintsFile": "constraints43_1.py",
          "variables": {
            "\u003cChainedInput2\u003e": "IAAv2"
          },
          "stringMap": {},
          "strings": {
            "IAAv14": "",
            "IAAv15": "",
            "IAAv17": ""
          }
        },
        {
          "start": "com.umeng.xp.view.w$a.onScrollStateChanged(Landroid/widget/AbsListView;I)V",
          "target": "invokeinterface \u003c Application, Lorg/apache/http/client/HttpClient, execute(Lorg/apache/http/client/methods/HttpUriRequest;)Lorg/apache/http/HttpResponse; \u003e@309",
          "type": "ui",
          "activities": [
            "com.sinyee.babybus.animal.fr.Main"
          ],
          "listener": "com.umeng.xp.view.w$a",
          "listenerMethod": "onScrollStateChanged",
          "uiType": "onScrollStateChanged",
          "constraintsFile": "constraints43_2.py",
          "variables": {
            "\u003cChainedInput2\u003e": "IAAv3"
          },
          "stringMap": {},
          "strings": {
            "IAAv15": "",
            "IAAv16": "",
            "IAAv18": ""
          }
        }
      ]
    },
    "44": {
      "startMethod": "com.umeng.xp.view.aq.onAnimationEnd(Landroid/view/animation/Animation;)V",
      "targetMethod": "org.apache.http.client.HttpClient.execute(Lorg/apache/http/client/methods/HttpUriRequest;)Lorg/apache/http/HttpResponse;",
      "eventChain": [
        {
          "start": "com.umeng.xp.view.ak.onItemClick(Landroid/widget/AdapterView;Landroid/view/View;IJ)V",
          "target": "invokevirtual \u003c Application, Landroid/view/animation/Animation, setAnimationListener(Landroid/view/animation/Animation$AnimationListener;)V \u003e@215",
          "type": "ui",
          "activities": [
            "com.sinyee.babybus.animal.fr.Main"
          ],
          "listener": "com.umeng.xp.view.ak",
          "listenerMethod": "onItemClick",
          "uiType": "onItemClick",
          "constraintsFile": "constraints44_0.py",
          "variables": {},
          "stringMap": {},
          "strings": {
            "IAAv1": ""
          }
        },
        {
          "start": "com.umeng.xp.view.aq.onAnimationEnd(Landroid/view/animation/Animation;)V",
          "target": "invokeinterface \u003c Application, Lorg/apache/http/client/HttpClient, execute(Lorg/apache/http/client/methods/HttpUriRequest;)Lorg/apache/http/HttpResponse; \u003e@309",
          "type": "ui",
          "activities": [
            "com.sinyee.babybus.animal.fr.Main"
          ],
          "listener": "com.umeng.xp.view.aq",
          "listenerMethod": "onAnimationEnd",
          "uiType": "onAnimationEnd",
          "constraintsFile": "constraints44_1.py",
          "variables": {},
          "stringMap": {
            "7000": "\u003cUI\u003e"
          },
          "strings": {
            "IAAv10": "",
            "IAAv12": "",
            "IAAv9": ""
          }
        }
      ]
    },
    "45": {
      "startMethod": "com.umeng.xp.view.aq.onAnimationEnd(Landroid/view/animation/Animation;)V",
      "targetMethod": "java.net.URL.openConnection()Ljava/net/URLConnection;",
      "eventChain": [
        {
          "start": "com.umeng.xp.view.ak.onItemClick(Landroid/widget/AdapterView;Landroid/view/View;IJ)V",
          "target": "invokevirtual \u003c Application, Landroid/view/animation/Animation, setAnimationListener(Landroid/view/animation/Animation$AnimationListener;)V \u003e@215",
          "type": "ui",
          "activities": [
            "com.sinyee.babybus.animal.fr.Main"
          ],
          "listener": "com.umeng.xp.view.ak",
          "listenerMethod": "onItemClick",
          "uiType": "onItemClick",
          "constraintsFile": "constraints45_0.py",
          "variables": {},
          "stringMap": {},
          "strings": {
            "IAAv1": ""
          }
        },
        {
          "start": "com.umeng.xp.view.aq.onAnimationEnd(Landroid/view/animation/Animation;)V",
          "target": "invokevirtual \u003c Application, Ljava/net/URL, openConnection()Ljava/net/URLConnection; \u003e@200",
          "type": "ui",
          "activities": [
            "com.sinyee.babybus.animal.fr.Main"
          ],
          "listener": "com.umeng.xp.view.aq",
          "listenerMethod": "onAnimationEnd",
          "uiType": "onAnimationEnd",
          "constraintsFile": "constraints45_1.py",
          "variables": {
            "\u003cUI\u003e.setVisibility().a": "IAAv25"
          },
          "stringMap": {
            "7000": "\u003cUI\u003e"
          },
          "strings": {}
        }
      ]
    },
    "46": {
      "startMethod": "com.umeng.xp.view.aq.onAnimationEnd(Landroid/view/animation/Animation;)V",
      "targetMethod": "org.apache.http.client.HttpClient.execute(Lorg/apache/http/client/methods/HttpUriRequest;)Lorg/apache/http/HttpResponse;",
      "eventChain": [
        {
          "start": "com.umeng.xp.view.ak.onItemClick(Landroid/widget/AdapterView;Landroid/view/View;IJ)V",
          "target": "invokevirtual \u003c Application, Landroid/view/animation/Animation, setAnimationListener(Landroid/view/animation/Animation$AnimationListener;)V \u003e@215",
          "type": "ui",
          "activities": [
            "com.sinyee.babybus.animal.fr.Main"
          ],
          "listener": "com.umeng.xp.view.ak",
          "listenerMethod": "onItemClick",
          "uiType": "onItemClick",
          "constraintsFile": "constraints46_0.py",
          "variables": {},
          "stringMap": {},
          "strings": {
            "IAAv1": ""
          }
        },
        {
          "start": "com.umeng.xp.view.aq.onAnimationEnd(Landroid/view/animation/Animation;)V",
          "target": "invokeinterface \u003c Application, Lorg/apache/http/client/HttpClient, execute(Lorg/apache/http/client/methods/HttpUriRequest;)Lorg/apache/http/HttpResponse; \u003e@349",
          "type": "ui",
          "activities": [
            "com.sinyee.babybus.animal.fr.Main"
          ],
          "listener": "com.umeng.xp.view.aq",
          "listenerMethod": "onAnimationEnd",
          "uiType": "onAnimationEnd",
          "constraintsFile": "constraints46_1.py",
          "variables": {},
          "stringMap": {
            "7000": "\u003cUI\u003e"
          },
          "strings": {
            "IAAv10": "",
            "IAAv9": ""
          }
        }
      ]
    }
  }
}