{
  "packageName": "schoolapps.gyodong.taekwon",
  "mainActivity": "schoolapps.gyodong.taekwon.SchoolAppsActivity",
  "callPaths": {
    "0": {
      "startMethod": "schoolapps.gyodong.taekwon.SchoolAppsActivity.onCreate(Landroid/os/Bundle;)V",
      "targetMethod": "java.net.URL.openConnection()Ljava/net/URLConnection;",
      "eventChain": [
        {
          "start": "schoolapps.gyodong.taekwon.SchoolAppsActivity.onCreate(Landroid/os/Bundle;)V",
          "target": "invokevirtual \u003c Application, Ljava/net/URL, openConnection()Ljava/net/URLConnection; \u003e@327",
          "type": "activity",
          "component": "schoolapps.gyodong.taekwon.SchoolAppsActivity"
        }
      ]
    },
    "1": {
      "startMethod": "schoolapps.gyodong.taekwon.SchoolAppsActivity.onCreate(Landroid/os/Bundle;)V",
      "targetMethod": "java.net.URL.openConnection()Ljava/net/URLConnection;",
      "eventChain": [
        {
          "start": "schoolapps.gyodong.taekwon.SchoolAppsActivity.onCreate(Landroid/os/Bundle;)V",
          "target": "invokevirtual \u003c Application, Ljava/net/URL, openConnection()Ljava/net/URLConnection; \u003e@700",
          "type": "activity",
          "component": "schoolapps.gyodong.taekwon.SchoolAppsActivity"
        }
      ]
    }
  }
}