{
  "packageName": "com.company3L.FindMyPhone",
  "mainActivity": "com.company3L.FindMyPhone.Main",
  "callPaths": {
    "0": {
      "startMethod": "com.company3L.FindMyPhone.LocationReceiver.onReceive(Landroid/content/Context;Landroid/content/Intent;)V",
      "targetMethod": "java.net.HttpURLConnection.connect()V",
      "eventChain": [
        {
          "start": "com.company3L.FindMyPhone.LocationReceiver.onReceive(Landroid/content/Context;Landroid/content/Intent;)V",
          "target": "invokevirtual \u003c Application, Ljava/net/HttpURLConnection, connect()V \u003e@217",
          "type": "sms",
          "constraintsFile": "constraints0_0.py",
          "variables": {
            "\u003cInput1\u003e.handler": "IAAv0"
          },
          "stringMap": {},
          "strings": {}
        }
      ]
    },
    "1": {
      "startMethod": "com.company3L.FindMyPhone.LocationReceiver.onReceive(Landroid/content/Context;Landroid/content/Intent;)V",
      "targetMethod": "android.location.LocationManager.requestLocationUpdates(Ljava/lang/String;JFLandroid/location/LocationListener;)V",
      "eventChain": [
        {
          "start": "com.company3L.FindMyPhone.LocationReceiver.onReceive(Landroid/content/Context;Landroid/content/Intent;)V",
          "target": "invokevirtual \u003c Application, Landroid/location/LocationManager, requestLocationUpdates(Ljava/lang/String;JFLandroid/location/LocationListener;)V \u003e@424",
          "type": "sms",
          "constraintsFile": "constraints1_0.py",
          "variables": {
            "\u003cInput1\u003e.handler": "IAAv0"
          },
          "stringMap": {},
          "strings": {}
        }
      ]
    },
    "2": {
      "startMethod": "com.company3L.FindMyPhone.LocationReceiver.onReceive(Landroid/content/Context;Landroid/content/Intent;)V",
      "targetMethod": "android.location.LocationManager.getLastKnownLocation(Ljava/lang/String;)Landroid/location/Location;",
      "eventChain": [
        {
          "start": "com.company3L.FindMyPhone.LocationReceiver.onReceive(Landroid/content/Context;Landroid/content/Intent;)V",
          "target": "invokevirtual \u003c Application, Landroid/location/LocationManager, getLastKnownLocation(Ljava/lang/String;)Landroid/location/Location; \u003e@347",
          "type": "sms",
          "constraintsFile": "constraints2_0.py",
          "variables": {
            "\u003cInput1\u003e.handler": "IAAv0"
          },
          "stringMap": {},
          "strings": {}
        }
      ]
    },
    "3": {
      "startMethod": "com.company3L.FindMyPhone.LocationReceiver.onReceive(Landroid/content/Context;Landroid/content/Intent;)V",
      "targetMethod": "android.location.LocationManager.getBestProvider(Landroid/location/Criteria;Z)Ljava/lang/String;",
      "eventChain": [
        {
          "start": "com.company3L.FindMyPhone.LocationReceiver.onReceive(Landroid/content/Context;Landroid/content/Intent;)V",
          "target": "invokevirtual \u003c Application, Landroid/location/LocationManager, getBestProvider(Landroid/location/Criteria;Z)Ljava/lang/String; \u003e@168",
          "type": "sms",
          "constraintsFile": "constraints3_0.py",
          "variables": {
            "\u003cInput1\u003e.handler": "IAAv0"
          },
          "stringMap": {},
          "strings": {}
        }
      ]
    },
    "4": {
      "startMethod": "com.company3L.FindMyPhone.LocationReceiver.onReceive(Landroid/content/Context;Landroid/content/Intent;)V",
      "targetMethod": "java.net.URL.openConnection()Ljava/net/URLConnection;",
      "eventChain": [
        {
          "start": "com.company3L.FindMyPhone.LocationReceiver.onReceive(Landroid/content/Context;Landroid/content/Intent;)V",
          "target": "invokevirtual \u003c Application, Ljava/net/URL, openConnection()Ljava/net/URLConnection; \u003e@159",
          "type": "sms",
          "constraintsFile": "constraints4_0.py",
          "variables": {
            "\u003cInput1\u003e.handler": "IAAv0"
          },
          "stringMap": {},
          "strings": {}
        }
      ]
    },
    "5": {
      "startMethod": "com.company3L.FindMyPhone.LocationReceiver.onReceive(Landroid/content/Context;Landroid/content/Intent;)V",
      "targetMethod": "android.app.NotificationManager.notify(ILandroid/app/Notification;)V",
      "eventChain": [
        {
          "start": "com.company3L.FindMyPhone.LocationReceiver.onReceive(Landroid/content/Context;Landroid/content/Intent;)V",
          "target": "invokevirtual \u003c Application, Landroid/app/NotificationManager, notify(ILandroid/app/Notification;)V \u003e@102",
          "type": "sms",
          "constraintsFile": "constraints5_0.py",
          "variables": {
            "\u003cInput1\u003e.handler": "IAAv0"
          },
          "stringMap": {},
          "strings": {}
        }
      ]
    },
    "6": {
      "startMethod": "com.company3L.FindMyPhone.LocationReceiver.onReceive(Landroid/content/Context;Landroid/content/Intent;)V",
      "targetMethod": "java.net.HttpURLConnection.getInputStream()Ljava/io/InputStream;",
      "eventChain": [
        {
          "start": "com.company3L.FindMyPhone.LocationReceiver.onReceive(Landroid/content/Context;Landroid/content/Intent;)V",
          "target": "invokevirtual \u003c Application, Ljava/net/HttpURLConnection, getInputStream()Ljava/io/InputStream; \u003e@356",
          "type": "sms",
          "constraintsFile": "constraints6_0.py",
          "variables": {
            "\u003cInput1\u003e.handler": "IAAv0"
          },
          "stringMap": {},
          "strings": {}
        }
      ]
    },
    "7": {
      "startMethod": "com.company3L.FindMyPhone.FindMyPhone.onStart(Landroid/content/Intent;I)V",
      "targetMethod": "android.location.LocationManager.getLastKnownLocation(Ljava/lang/String;)Landroid/location/Location;",
      "eventChain": [
        {
          "start": "com.company3L.FindMyPhone.FindMyPhone.onStart(Landroid/content/Intent;I)V",
          "target": "invokevirtual \u003c Application, Landroid/location/LocationManager, getLastKnownLocation(Ljava/lang/String;)Landroid/location/Location; \u003e@64",
          "type": "service",
          "component": "com.company3L.FindMyPhone.FindMyPhone"
        }
      ]
    },
    "8": {
      "startMethod": "com.company3L.FindMyPhone.FindMyPhone.onStart(Landroid/content/Intent;I)V",
      "targetMethod": "java.net.HttpURLConnection.connect()V",
      "eventChain": [
        {
          "start": "com.company3L.FindMyPhone.FindMyPhone.\u003cinit\u003e()V",
          "target": "PC@11",
          "type": "",
          "constraintsFile": "constraints8_0.py",
          "variables": {},
          "stringMap": {},
          "strings": {}
        },
        {
          "start": "com.company3L.FindMyPhone.FindMyPhone.onStart(Landroid/content/Intent;I)V",
          "target": "invokevirtual \u003c Application, Ljava/net/HttpURLConnection, connect()V \u003e@217",
          "type": "service",
          "component": "com.company3L.FindMyPhone.FindMyPhone",
          "constraintsFile": "constraints8_1.py",
          "variables": {},
          "stringMap": {},
          "strings": {}
        }
      ]
    },
    "9": {
      "startMethod": "com.company3L.FindMyPhone.FindMyPhone.onStart(Landroid/content/Intent;I)V",
      "targetMethod": "android.location.LocationManager.requestLocationUpdates(Ljava/lang/String;JFLandroid/location/LocationListener;)V",
      "eventChain": [
        {
          "start": "com.company3L.FindMyPhone.FindMyPhone.onStart(Landroid/content/Intent;I)V",
          "target": "invokevirtual \u003c Application, Landroid/location/LocationManager, requestLocationUpdates(Ljava/lang/String;JFLandroid/location/LocationListener;)V \u003e@101",
          "type": "service",
          "component": "com.company3L.FindMyPhone.FindMyPhone"
        }
      ]
    },
    "10": {
      "startMethod": "com.company3L.FindMyPhone.FindMyPhone.onStart(Landroid/content/Intent;I)V",
      "targetMethod": "android.app.NotificationManager.notify(ILandroid/app/Notification;)V",
      "eventChain": [
        {
          "start": "com.company3L.FindMyPhone.FindMyPhone.\u003cinit\u003e()V",
          "target": "PC@11",
          "type": "",
          "constraintsFile": "constraints10_0.py",
          "variables": {},
          "stringMap": {},
          "strings": {}
        },
        {
          "start": "com.company3L.FindMyPhone.FindMyPhone.onStart(Landroid/content/Intent;I)V",
          "target": "invokevirtual \u003c Application, Landroid/app/NotificationManager, notify(ILandroid/app/Notification;)V \u003e@91",
          "type": "service",
          "component": "com.company3L.FindMyPhone.FindMyPhone",
          "constraintsFile": "constraints10_1.py",
          "variables": {},
          "stringMap": {},
          "strings": {}
        }
      ]
    },
    "11": {
      "startMethod": "com.company3L.FindMyPhone.FindMyPhone.onStart(Landroid/content/Intent;I)V",
      "targetMethod": "android.location.LocationManager.getBestProvider(Landroid/location/Criteria;Z)Ljava/lang/String;",
      "eventChain": [
        {
          "start": "com.company3L.FindMyPhone.FindMyPhone.onStart(Landroid/content/Intent;I)V",
          "target": "invokevirtual \u003c Application, Landroid/location/LocationManager, getBestProvider(Landroid/location/Criteria;Z)Ljava/lang/String; \u003e@34",
          "type": "service",
          "component": "com.company3L.FindMyPhone.FindMyPhone"
        }
      ]
    },
    "12": {
      "startMethod": "com.company3L.FindMyPhone.FindMyPhone.onStart(Landroid/content/Intent;I)V",
      "targetMethod": "java.net.HttpURLConnection.getInputStream()Ljava/io/InputStream;",
      "eventChain": [
        {
          "start": "com.company3L.FindMyPhone.FindMyPhone.\u003cinit\u003e()V",
          "target": "PC@11",
          "type": "",
          "constraintsFile": "constraints12_0.py",
          "variables": {},
          "stringMap": {},
          "strings": {}
        },
        {
          "start": "com.company3L.FindMyPhone.FindMyPhone.onStart(Landroid/content/Intent;I)V",
          "target": "invokevirtual \u003c Application, Ljava/net/HttpURLConnection, getInputStream()Ljava/io/InputStream; \u003e@356",
          "type": "service",
          "component": "com.company3L.FindMyPhone.FindMyPhone",
          "constraintsFile": "constraints12_1.py",
          "variables": {},
          "stringMap": {},
          "strings": {}
        }
      ]
    },
    "13": {
      "startMethod": "com.company3L.FindMyPhone.FindMyPhone.onStart(Landroid/content/Intent;I)V",
      "targetMethod": "java.net.URL.openConnection()Ljava/net/URLConnection;",
      "eventChain": [
        {
          "start": "com.company3L.FindMyPhone.FindMyPhone.\u003cinit\u003e()V",
          "target": "PC@11",
          "type": "",
          "constraintsFile": "constraints13_0.py",
          "variables": {},
          "stringMap": {},
          "strings": {}
        },
        {
          "start": "com.company3L.FindMyPhone.FindMyPhone.onStart(Landroid/content/Intent;I)V",
          "target": "invokevirtual \u003c Application, Ljava/net/URL, openConnection()Ljava/net/URLConnection; \u003e@159",
          "type": "service",
          "component": "com.company3L.FindMyPhone.FindMyPhone",
          "constraintsFile": "constraints13_1.py",
          "variables": {},
          "stringMap": {},
          "strings": {}
        }
      ]
    },
    "14": {
      "startMethod": "com.company3L.FindMyPhone.KidsLocator.onCreate()V",
      "targetMethod": "android.location.LocationManager.getLastKnownLocation(Ljava/lang/String;)Landroid/location/Location;",
      "eventChain": [
        {
          "start": "com.company3L.FindMyPhone.KidsLocator.onCreate()V",
          "target": "invokevirtual \u003c Application, Landroid/location/LocationManager, getLastKnownLocation(Ljava/lang/String;)Landroid/location/Location; \u003e@83",
          "type": "service",
          "component": "com.company3L.FindMyPhone.KidsLocator"
        }
      ]
    },
    "15": {
      "startMethod": "com.company3L.FindMyPhone.KidsLocator.onCreate()V",
      "targetMethod": "android.location.LocationManager.requestLocationUpdates(Ljava/lang/String;JFLandroid/location/LocationListener;)V",
      "eventChain": [
        {
          "start": "com.company3L.FindMyPhone.KidsLocator.onCreate()V",
          "target": "invokevirtual \u003c Application, Landroid/location/LocationManager, requestLocationUpdates(Ljava/lang/String;JFLandroid/location/LocationListener;)V \u003e@160",
          "type": "service",
          "component": "com.company3L.FindMyPhone.KidsLocator"
        }
      ]
    },
    "16": {
      "startMethod": "com.company3L.FindMyPhone.KidsLocator.onCreate()V",
      "targetMethod": "android.location.LocationManager.getBestProvider(Landroid/location/Criteria;Z)Ljava/lang/String;",
      "eventChain": [
        {
          "start": "com.company3L.FindMyPhone.KidsLocator.onCreate()V",
          "target": "invokevirtual \u003c Application, Landroid/location/LocationManager, getBestProvider(Landroid/location/Criteria;Z)Ljava/lang/String; \u003e@77",
          "type": "service",
          "component": "com.company3L.FindMyPhone.KidsLocator"
        }
      ]
    },
    "17": {
      "startMethod": "com.company3L.FindMyPhone.KidsLocator.onCreate()V",
      "targetMethod": "android.location.LocationManager.getBestProvider(Landroid/location/Criteria;Z)Ljava/lang/String;",
      "eventChain": [
        {
          "start": "com.company3L.FindMyPhone.KidsLocator.onCreate()V",
          "target": "invokevirtual \u003c Application, Landroid/location/LocationManager, getBestProvider(Landroid/location/Criteria;Z)Ljava/lang/String; \u003e@173",
          "type": "service",
          "component": "com.company3L.FindMyPhone.KidsLocator"
        }
      ]
    },
    "18": {
      "startMethod": "com.company3L.FindMyPhone.KidsLocator.onCreate()V",
      "targetMethod": "android.location.LocationManager.requestLocationUpdates(Ljava/lang/String;JFLandroid/location/LocationListener;)V",
      "eventChain": [
        {
          "start": "com.company3L.FindMyPhone.KidsLocator.onCreate()V",
          "target": "invokevirtual \u003c Application, Landroid/location/LocationManager, requestLocationUpdates(Ljava/lang/String;JFLandroid/location/LocationListener;)V \u003e@210",
          "type": "service",
          "component": "com.company3L.FindMyPhone.KidsLocator"
        }
      ]
    },
    "19": {
      "startMethod": "com.company3L.FindMyPhone.KidsLocator.onCreate()V",
      "targetMethod": "android.location.LocationManager.getBestProvider(Landroid/location/Criteria;Z)Ljava/lang/String;",
      "eventChain": [
        {
          "start": "com.company3L.FindMyPhone.KidsLocator.onCreate()V",
          "target": "invokevirtual \u003c Application, Landroid/location/LocationManager, getBestProvider(Landroid/location/Criteria;Z)Ljava/lang/String; \u003e@124",
          "type": "service",
          "component": "com.company3L.FindMyPhone.KidsLocator"
        }
      ]
    },
    "20": {
      "startMethod": "com.company3L.FindMyPhone.KidsLocator.onStart(Landroid/content/Intent;I)V",
      "targetMethod": "java.net.HttpURLConnection.connect()V",
      "eventChain": [
        {
          "start": "com.company3L.FindMyPhone.KidsLocator.\u003cinit\u003e()V",
          "target": "PC@11",
          "type": "",
          "constraintsFile": "constraints20_0.py",
          "variables": {},
          "stringMap": {},
          "strings": {}
        },
        {
          "start": "com.company3L.FindMyPhone.KidsLocator.onStart(Landroid/content/Intent;I)V",
          "target": "invokevirtual \u003c Application, Ljava/net/HttpURLConnection, connect()V \u003e@217",
          "type": "service",
          "component": "com.company3L.FindMyPhone.KidsLocator",
          "constraintsFile": "constraints20_1.py",
          "variables": {},
          "stringMap": {},
          "strings": {}
        }
      ]
    },
    "21": {
      "startMethod": "com.company3L.FindMyPhone.KidsLocator.onStart(Landroid/content/Intent;I)V",
      "targetMethod": "android.app.NotificationManager.notify(ILandroid/app/Notification;)V",
      "eventChain": [
        {
          "start": "com.company3L.FindMyPhone.KidsLocator.\u003cinit\u003e()V",
          "target": "PC@11",
          "type": "",
          "constraintsFile": "constraints21_0.py",
          "variables": {},
          "stringMap": {},
          "strings": {}
        },
        {
          "start": "com.company3L.FindMyPhone.KidsLocator.onStart(Landroid/content/Intent;I)V",
          "target": "invokevirtual \u003c Application, Landroid/app/NotificationManager, notify(ILandroid/app/Notification;)V \u003e@102",
          "type": "service",
          "component": "com.company3L.FindMyPhone.KidsLocator",
          "constraintsFile": "constraints21_1.py",
          "variables": {},
          "stringMap": {},
          "strings": {}
        }
      ]
    },
    "22": {
      "startMethod": "com.company3L.FindMyPhone.KidsLocator.onStart(Landroid/content/Intent;I)V",
      "targetMethod": "android.location.LocationManager.getLastKnownLocation(Ljava/lang/String;)Landroid/location/Location;",
      "eventChain": [
        {
          "start": "com.company3L.FindMyPhone.KidsLocator.onStart(Landroid/content/Intent;I)V",
          "target": "invokevirtual \u003c Application, Landroid/location/LocationManager, getLastKnownLocation(Ljava/lang/String;)Landroid/location/Location; \u003e@83",
          "type": "service",
          "component": "com.company3L.FindMyPhone.KidsLocator"
        }
      ]
    },
    "23": {
      "startMethod": "com.company3L.FindMyPhone.KidsLocator.onStart(Landroid/content/Intent;I)V",
      "targetMethod": "android.location.LocationManager.requestLocationUpdates(Ljava/lang/String;JFLandroid/location/LocationListener;)V",
      "eventChain": [
        {
          "start": "com.company3L.FindMyPhone.KidsLocator.onStart(Landroid/content/Intent;I)V",
          "target": "invokevirtual \u003c Application, Landroid/location/LocationManager, requestLocationUpdates(Ljava/lang/String;JFLandroid/location/LocationListener;)V \u003e@210",
          "type": "service",
          "component": "com.company3L.FindMyPhone.KidsLocator"
        }
      ]
    },
    "24": {
      "startMethod": "com.company3L.FindMyPhone.KidsLocator.onStart(Landroid/content/Intent;I)V",
      "targetMethod": "android.location.LocationManager.getBestProvider(Landroid/location/Criteria;Z)Ljava/lang/String;",
      "eventChain": [
        {
          "start": "com.company3L.FindMyPhone.KidsLocator.onStart(Landroid/content/Intent;I)V",
          "target": "invokevirtual \u003c Application, Landroid/location/LocationManager, getBestProvider(Landroid/location/Criteria;Z)Ljava/lang/String; \u003e@173",
          "type": "service",
          "component": "com.company3L.FindMyPhone.KidsLocator"
        }
      ]
    },
    "25": {
      "startMethod": "com.company3L.FindMyPhone.KidsLocator.onStart(Landroid/content/Intent;I)V",
      "targetMethod": "java.net.URL.openConnection()Ljava/net/URLConnection;",
      "eventChain": [
        {
          "start": "com.company3L.FindMyPhone.KidsLocator.\u003cinit\u003e()V",
          "target": "PC@11",
          "type": "",
          "constraintsFile": "constraints25_0.py",
          "variables": {},
          "stringMap": {},
          "strings": {}
        },
        {
          "start": "com.company3L.FindMyPhone.KidsLocator.onStart(Landroid/content/Intent;I)V",
          "target": "invokevirtual \u003c Application, Ljava/net/URL, openConnection()Ljava/net/URLConnection; \u003e@159",
          "type": "service",
          "component": "com.company3L.FindMyPhone.KidsLocator",
          "constraintsFile": "constraints25_1.py",
          "variables": {},
          "stringMap": {},
          "strings": {}
        }
      ]
    },
    "26": {
      "startMethod": "com.company3L.FindMyPhone.KidsLocator.onStart(Landroid/content/Intent;I)V",
      "targetMethod": "java.net.HttpURLConnection.getInputStream()Ljava/io/InputStream;",
      "eventChain": [
        {
          "start": "com.company3L.FindMyPhone.KidsLocator.\u003cinit\u003e()V",
          "target": "PC@11",
          "type": "",
          "constraintsFile": "constraints26_0.py",
          "variables": {},
          "stringMap": {},
          "strings": {}
        },
        {
          "start": "com.company3L.FindMyPhone.KidsLocator.onStart(Landroid/content/Intent;I)V",
          "target": "invokevirtual \u003c Application, Ljava/net/HttpURLConnection, getInputStream()Ljava/io/InputStream; \u003e@356",
          "type": "service",
          "component": "com.company3L.FindMyPhone.KidsLocator",
          "constraintsFile": "constraints26_1.py",
          "variables": {},
          "stringMap": {},
          "strings": {}
        }
      ]
    },
    "27": {
      "startMethod": "com.company3L.FindMyPhone.KidsLocator.onStart(Landroid/content/Intent;I)V",
      "targetMethod": "android.location.LocationManager.getBestProvider(Landroid/location/Criteria;Z)Ljava/lang/String;",
      "eventChain": [
        {
          "start": "com.company3L.FindMyPhone.KidsLocator.onStart(Landroid/content/Intent;I)V",
          "target": "invokevirtual \u003c Application, Landroid/location/LocationManager, getBestProvider(Landroid/location/Criteria;Z)Ljava/lang/String; \u003e@124",
          "type": "service",
          "component": "com.company3L.FindMyPhone.KidsLocator"
        }
      ]
    },
    "28": {
      "startMethod": "com.company3L.FindMyPhone.KidsLocator.onStart(Landroid/content/Intent;I)V",
      "targetMethod": "android.location.LocationManager.requestLocationUpdates(Ljava/lang/String;JFLandroid/location/LocationListener;)V",
      "eventChain": [
        {
          "start": "com.company3L.FindMyPhone.KidsLocator.onStart(Landroid/content/Intent;I)V",
          "target": "invokevirtual \u003c Application, Landroid/location/LocationManager, requestLocationUpdates(Ljava/lang/String;JFLandroid/location/LocationListener;)V \u003e@160",
          "type": "service",
          "component": "com.company3L.FindMyPhone.KidsLocator"
        }
      ]
    },
    "29": {
      "startMethod": "com.company3L.FindMyPhone.KidsLocator.onStart(Landroid/content/Intent;I)V",
      "targetMethod": "android.location.LocationManager.getBestProvider(Landroid/location/Criteria;Z)Ljava/lang/String;",
      "eventChain": [
        {
          "start": "com.company3L.FindMyPhone.KidsLocator.onStart(Landroid/content/Intent;I)V",
          "target": "invokevirtual \u003c Application, Landroid/location/LocationManager, getBestProvider(Landroid/location/Criteria;Z)Ljava/lang/String; \u003e@77",
          "type": "service",
          "component": "com.company3L.FindMyPhone.KidsLocator"
        }
      ]
    },
    "30": {
      "startMethod": "com.company3L.FindMyPhone.Main$1.onClick(Landroid/view/View;)V",
      "targetMethod": "java.net.HttpURLConnection.connect()V",
      "eventChain": [
        {
          "start": "com.company3L.FindMyPhone.Main$1.onClick(Landroid/view/View;)V",
          "target": "invokevirtual \u003c Application, Ljava/net/HttpURLConnection, connect()V \u003e@155",
          "type": "ui",
          "activities": [
            "com.company3L.FindMyPhone.Main"
          ],
          "listener": "com.company3L.FindMyPhone.Main$1",
          "listenerMethod": "onClick",
          "uiType": "onClick",
          "constraintsFile": "constraints30_0.py",
          "variables": {},
          "stringMap": {
            "7000": "@"
          },
          "strings": {}
        }
      ]
    },
    "31": {
      "startMethod": "com.company3L.FindMyPhone.Main$1.onClick(Landroid/view/View;)V",
      "targetMethod": "java.net.HttpURLConnection.getInputStream()Ljava/io/InputStream;",
      "eventChain": [
        {
          "start": "com.company3L.FindMyPhone.Main$1.onClick(Landroid/view/View;)V",
          "target": "invokevirtual \u003c Application, Ljava/net/HttpURLConnection, getInputStream()Ljava/io/InputStream; \u003e@243",
          "type": "ui",
          "activities": [
            "com.company3L.FindMyPhone.Main"
          ],
          "listener": "com.company3L.FindMyPhone.Main$1",
          "listenerMethod": "onClick",
          "uiType": "onClick",
          "constraintsFile": "constraints31_0.py",
          "variables": {},
          "stringMap": {
            "7000": "@"
          },
          "strings": {}
        }
      ]
    },
    "32": {
      "startMethod": "com.company3L.FindMyPhone.Main$1.onClick(Landroid/view/View;)V",
      "targetMethod": "java.net.URL.openConnection()Ljava/net/URLConnection;",
      "eventChain": [
        {
          "start": "com.company3L.FindMyPhone.Main$1.onClick(Landroid/view/View;)V",
          "target": "invokevirtual \u003c Application, Ljava/net/URL, openConnection()Ljava/net/URLConnection; \u003e@98",
          "type": "ui",
          "activities": [
            "com.company3L.FindMyPhone.Main"
          ],
          "listener": "com.company3L.FindMyPhone.Main$1",
          "listenerMethod": "onClick",
          "uiType": "onClick",
          "constraintsFile": "constraints32_0.py",
          "variables": {},
          "stringMap": {
            "7000": "@"
          },
          "strings": {}
        }
      ]
    },
    "33": {
      "startMethod": "com.company3L.FindMyPhone.KidsLocator1$1.onLocationChanged(Landroid/location/Location;)V",
      "targetMethod": "java.net.HttpURLConnection.getInputStream()Ljava/io/InputStream;",
      "eventChain": [
        {
          "start": "com.company3L.FindMyPhone.KidsLocator1$1.onLocationChanged(Landroid/location/Location;)V",
          "target": "invokevirtual \u003c Application, Ljava/net/HttpURLConnection, getInputStream()Ljava/io/InputStream; \u003e@468",
          "type": "location",
          "constraintsFile": "constraints33_0.py",
          "variables": {
            "\u003cInput1\u003e.getLongitude().length()": "IAAv3",
            "\u003cInput1\u003e.getLongitude()": "IAAv4",
            "\u003cInput1\u003e.getLatitude()": "IAAv1",
            "\u003cInput1\u003e.getLatitude().length()": "IAAv0"
          },
          "stringMap": {},
          "strings": {}
        }
      ]
    },
    "34": {
      "startMethod": "com.company3L.FindMyPhone.KidsLocator1$1.onLocationChanged(Landroid/location/Location;)V",
      "targetMethod": "android.app.NotificationManager.notify(ILandroid/app/Notification;)V",
      "eventChain": [
        {
          "start": "com.company3L.FindMyPhone.KidsLocator1$1.onLocationChanged(Landroid/location/Location;)V",
          "target": "invokevirtual \u003c Application, Landroid/app/NotificationManager, notify(ILandroid/app/Notification;)V \u003e@102",
          "type": "location",
          "constraintsFile": "constraints34_0.py",
          "variables": {
            "\u003cChainedInput1\u003e.getLongitude().length()": "IAAv3",
            "\u003cChainedInput1\u003e.getLatitude()": "IAAv1",
            "\u003cChainedInput1\u003e.getLongitude()": "IAAv4",
            "\u003cChainedInput1\u003e.getLatitude().length()": "IAAv0"
          },
          "stringMap": {
            "7000": "\u003cbody\u003e",
            "7001": "\u003c/body\u003e",
            "7002": "NOTIFICATION:"
          },
          "strings": {
            "IAAv6": ""
          }
        }
      ]
    },
    "35": {
      "startMethod": "com.company3L.FindMyPhone.KidsLocator1$1.onLocationChanged(Landroid/location/Location;)V",
      "targetMethod": "java.net.URL.openConnection()Ljava/net/URLConnection;",
      "eventChain": [
        {
          "start": "com.company3L.FindMyPhone.KidsLocator1$1.onLocationChanged(Landroid/location/Location;)V",
          "target": "invokevirtual \u003c Application, Ljava/net/URL, openConnection()Ljava/net/URLConnection; \u003e@232",
          "type": "location",
          "constraintsFile": "constraints35_0.py",
          "variables": {
            "\u003cInput1\u003e.getLongitude().length()": "IAAv3",
            "\u003cInput1\u003e.getLongitude()": "IAAv4",
            "\u003cInput1\u003e.getLatitude()": "IAAv1",
            "\u003cInput1\u003e.getLatitude().length()": "IAAv0"
          },
          "stringMap": {},
          "strings": {}
        }
      ]
    },
    "36": {
      "startMethod": "com.company3L.FindMyPhone.KidsLocator1$1.onLocationChanged(Landroid/location/Location;)V",
      "targetMethod": "java.net.HttpURLConnection.connect()V",
      "eventChain": [
        {
          "start": "com.company3L.FindMyPhone.KidsLocator1$1.onLocationChanged(Landroid/location/Location;)V",
          "target": "invokevirtual \u003c Application, Ljava/net/HttpURLConnection, connect()V \u003e@324",
          "type": "location",
          "constraintsFile": "constraints36_0.py",
          "variables": {
            "\u003cInput1\u003e.getLongitude().length()": "IAAv3",
            "\u003cInput1\u003e.getLongitude()": "IAAv4",
            "\u003cInput1\u003e.getLatitude()": "IAAv1",
            "\u003cInput1\u003e.getLatitude().length()": "IAAv0"
          },
          "stringMap": {},
          "strings": {}
        }
      ]
    },
    "37": {
      "startMethod": "com.company3L.FindMyPhone.FindMyPhone.onLocationChanged(Landroid/location/Location;)V",
      "targetMethod": "java.net.HttpURLConnection.connect()V",
      "eventChain": [
        {
          "start": "com.company3L.FindMyPhone.FindMyPhone.onStart(Landroid/content/Intent;I)V",
          "target": "invokevirtual \u003c Application, Landroid/location/LocationManager, requestLocationUpdates(Ljava/lang/String;JFLandroid/location/LocationListener;)V \u003e@101",
          "type": "service",
          "component": "com.company3L.FindMyPhone.FindMyPhone"
        },
        {
          "start": "com.company3L.FindMyPhone.FindMyPhone.onLocationChanged(Landroid/location/Location;)V",
          "target": "invokevirtual \u003c Application, Ljava/net/HttpURLConnection, connect()V \u003e@222",
          "type": "location",
          "constraintsFile": "constraints37_0.py",
          "variables": {
            "\u003cInput1\u003e.getLongitude().length()": "IAAv3",
            "\u003cInput1\u003e.getLongitude()": "IAAv4",
            "\u003cInput1\u003e.getLatitude()": "IAAv1",
            "\u003cInput1\u003e.getLatitude().length()": "IAAv0"
          },
          "stringMap": {},
          "strings": {}
        }
      ]
    },
    "38": {
      "startMethod": "com.company3L.FindMyPhone.FindMyPhone.onLocationChanged(Landroid/location/Location;)V",
      "targetMethod": "android.app.NotificationManager.notify(ILandroid/app/Notification;)V",
      "eventChain": [
        {
          "start": "com.company3L.FindMyPhone.FindMyPhone.onStart(Landroid/content/Intent;I)V",
          "target": "invokevirtual \u003c Application, Landroid/location/LocationManager, requestLocationUpdates(Ljava/lang/String;JFLandroid/location/LocationListener;)V \u003e@101",
          "type": "service",
          "component": "com.company3L.FindMyPhone.FindMyPhone"
        },
        {
          "start": "com.company3L.FindMyPhone.FindMyPhone.onLocationChanged(Landroid/location/Location;)V",
          "target": "invokevirtual \u003c Application, Landroid/app/NotificationManager, notify(ILandroid/app/Notification;)V \u003e@91",
          "type": "location",
          "constraintsFile": "constraints38_0.py",
          "variables": {
            "\u003cInput1\u003e.getLongitude().length()": "IAAv3",
            "\u003cInput1\u003e.getLongitude()": "IAAv4",
            "\u003cInput1\u003e.getLatitude()": "IAAv1",
            "\u003cInput1\u003e.getLatitude().length()": "IAAv0"
          },
          "stringMap": {},
          "strings": {}
        }
      ]
    },
    "39": {
      "startMethod": "com.company3L.FindMyPhone.FindMyPhone.onLocationChanged(Landroid/location/Location;)V",
      "targetMethod": "java.net.HttpURLConnection.getInputStream()Ljava/io/InputStream;",
      "eventChain": [
        {
          "start": "com.company3L.FindMyPhone.FindMyPhone.onStart(Landroid/content/Intent;I)V",
          "target": "invokevirtual \u003c Application, Landroid/location/LocationManager, requestLocationUpdates(Ljava/lang/String;JFLandroid/location/LocationListener;)V \u003e@101",
          "type": "service",
          "component": "com.company3L.FindMyPhone.FindMyPhone"
        },
        {
          "start": "com.company3L.FindMyPhone.FindMyPhone.onLocationChanged(Landroid/location/Location;)V",
          "target": "invokevirtual \u003c Application, Ljava/net/HttpURLConnection, getInputStream()Ljava/io/InputStream; \u003e@366",
          "type": "location",
          "constraintsFile": "constraints39_0.py",
          "variables": {
            "\u003cInput1\u003e.getLongitude().length()": "IAAv3",
            "\u003cInput1\u003e.getLongitude()": "IAAv4",
            "\u003cInput1\u003e.getLatitude()": "IAAv1",
            "\u003cInput1\u003e.getLatitude().length()": "IAAv0"
          },
          "stringMap": {},
          "strings": {}
        }
      ]
    },
    "40": {
      "startMethod": "com.company3L.FindMyPhone.FindMyPhone.onLocationChanged(Landroid/location/Location;)V",
      "targetMethod": "java.net.URL.openConnection()Ljava/net/URLConnection;",
      "eventChain": [
        {
          "start": "com.company3L.FindMyPhone.FindMyPhone.onStart(Landroid/content/Intent;I)V",
          "target": "invokevirtual \u003c Application, Landroid/location/LocationManager, requestLocationUpdates(Ljava/lang/String;JFLandroid/location/LocationListener;)V \u003e@101",
          "type": "service",
          "component": "com.company3L.FindMyPhone.FindMyPhone"
        },
        {
          "start": "com.company3L.FindMyPhone.FindMyPhone.onLocationChanged(Landroid/location/Location;)V",
          "target": "invokevirtual \u003c Application, Ljava/net/URL, openConnection()Ljava/net/URLConnection; \u003e@164",
          "type": "location",
          "constraintsFile": "constraints40_0.py",
          "variables": {
            "\u003cInput1\u003e.getLongitude().length()": "IAAv3",
            "\u003cInput1\u003e.getLongitude()": "IAAv4",
            "\u003cInput1\u003e.getLatitude()": "IAAv1",
            "\u003cInput1\u003e.getLatitude().length()": "IAAv0"
          },
          "stringMap": {},
          "strings": {}
        }
      ]
    },
    "41": {
      "startMethod": "com.company3L.FindMyPhone.FindMyPhone.onProviderEnabled(Ljava/lang/String;)V",
      "targetMethod": "android.location.LocationManager.getLastKnownLocation(Ljava/lang/String;)Landroid/location/Location;",
      "eventChain": [
        {
          "start": "com.company3L.FindMyPhone.FindMyPhone.onStart(Landroid/content/Intent;I)V",
          "target": "invokevirtual \u003c Application, Landroid/location/LocationManager, requestLocationUpdates(Ljava/lang/String;JFLandroid/location/LocationListener;)V \u003e@101",
          "type": "service",
          "component": "com.company3L.FindMyPhone.FindMyPhone"
        },
        {
          "start": "com.company3L.FindMyPhone.FindMyPhone.onProviderEnabled(Ljava/lang/String;)V",
          "target": "invokevirtual \u003c Application, Landroid/location/LocationManager, getLastKnownLocation(Ljava/lang/String;)Landroid/location/Location; \u003e@64",
          "type": "location"
        }
      ]
    },
    "42": {
      "startMethod": "com.company3L.FindMyPhone.FindMyPhone.onProviderEnabled(Ljava/lang/String;)V",
      "targetMethod": "android.location.LocationManager.getBestProvider(Landroid/location/Criteria;Z)Ljava/lang/String;",
      "eventChain": [
        {
          "start": "com.company3L.FindMyPhone.FindMyPhone.onStart(Landroid/content/Intent;I)V",
          "target": "invokevirtual \u003c Application, Landroid/location/LocationManager, requestLocationUpdates(Ljava/lang/String;JFLandroid/location/LocationListener;)V \u003e@101",
          "type": "service",
          "component": "com.company3L.FindMyPhone.FindMyPhone"
        },
        {
          "start": "com.company3L.FindMyPhone.FindMyPhone.onProviderEnabled(Ljava/lang/String;)V",
          "target": "invokevirtual \u003c Application, Landroid/location/LocationManager, getBestProvider(Landroid/location/Criteria;Z)Ljava/lang/String; \u003e@34",
          "type": "location"
        }
      ]
    },
    "43": {
      "startMethod": "com.company3L.FindMyPhone.FindMyPhone.onProviderEnabled(Ljava/lang/String;)V",
      "targetMethod": "android.location.LocationManager.requestLocationUpdates(Ljava/lang/String;JFLandroid/location/LocationListener;)V",
      "eventChain": [
        {
          "start": "com.company3L.FindMyPhone.FindMyPhone.onStart(Landroid/content/Intent;I)V",
          "target": "invokevirtual \u003c Application, Landroid/location/LocationManager, requestLocationUpdates(Ljava/lang/String;JFLandroid/location/LocationListener;)V \u003e@101",
          "type": "service",
          "component": "com.company3L.FindMyPhone.FindMyPhone"
        },
        {
          "start": "com.company3L.FindMyPhone.FindMyPhone.onProviderEnabled(Ljava/lang/String;)V",
          "target": "invokevirtual \u003c Application, Landroid/location/LocationManager, requestLocationUpdates(Ljava/lang/String;JFLandroid/location/LocationListener;)V \u003e@101",
          "type": "location"
        }
      ]
    },
    "44": {
      "startMethod": "com.company3L.FindMyPhone.FindMyPhone.onProviderDisabled(Ljava/lang/String;)V",
      "targetMethod": "android.location.LocationManager.getBestProvider(Landroid/location/Criteria;Z)Ljava/lang/String;",
      "eventChain": [
        {
          "start": "com.company3L.FindMyPhone.FindMyPhone.onStart(Landroid/content/Intent;I)V",
          "target": "invokevirtual \u003c Application, Landroid/location/LocationManager, requestLocationUpdates(Ljava/lang/String;JFLandroid/location/LocationListener;)V \u003e@101",
          "type": "service",
          "component": "com.company3L.FindMyPhone.FindMyPhone"
        },
        {
          "start": "com.company3L.FindMyPhone.FindMyPhone.onProviderDisabled(Ljava/lang/String;)V",
          "target": "invokevirtual \u003c Application, Landroid/location/LocationManager, getBestProvider(Landroid/location/Criteria;Z)Ljava/lang/String; \u003e@34",
          "type": "location"
        }
      ]
    },
    "45": {
      "startMethod": "com.company3L.FindMyPhone.FindMyPhone.onProviderDisabled(Ljava/lang/String;)V",
      "targetMethod": "android.location.LocationManager.requestLocationUpdates(Ljava/lang/String;JFLandroid/location/LocationListener;)V",
      "eventChain": [
        {
          "start": "com.company3L.FindMyPhone.FindMyPhone.onStart(Landroid/content/Intent;I)V",
          "target": "invokevirtual \u003c Application, Landroid/location/LocationManager, requestLocationUpdates(Ljava/lang/String;JFLandroid/location/LocationListener;)V \u003e@101",
          "type": "service",
          "component": "com.company3L.FindMyPhone.FindMyPhone"
        },
        {
          "start": "com.company3L.FindMyPhone.FindMyPhone.onProviderDisabled(Ljava/lang/String;)V",
          "target": "invokevirtual \u003c Application, Landroid/location/LocationManager, requestLocationUpdates(Ljava/lang/String;JFLandroid/location/LocationListener;)V \u003e@101",
          "type": "location"
        }
      ]
    },
    "46": {
      "startMethod": "com.company3L.FindMyPhone.FindMyPhone.onProviderDisabled(Ljava/lang/String;)V",
      "targetMethod": "android.location.LocationManager.getLastKnownLocation(Ljava/lang/String;)Landroid/location/Location;",
      "eventChain": [
        {
          "start": "com.company3L.FindMyPhone.FindMyPhone.onStart(Landroid/content/Intent;I)V",
          "target": "invokevirtual \u003c Application, Landroid/location/LocationManager, requestLocationUpdates(Ljava/lang/String;JFLandroid/location/LocationListener;)V \u003e@101",
          "type": "service",
          "component": "com.company3L.FindMyPhone.FindMyPhone"
        },
        {
          "start": "com.company3L.FindMyPhone.FindMyPhone.onProviderDisabled(Ljava/lang/String;)V",
          "target": "invokevirtual \u003c Application, Landroid/location/LocationManager, getLastKnownLocation(Ljava/lang/String;)Landroid/location/Location; \u003e@64",
          "type": "location"
        }
      ]
    },
    "47": {
      "startMethod": "com.company3L.FindMyPhone.KidsLocator$1.onLocationChanged(Landroid/location/Location;)V",
      "targetMethod": "java.net.HttpURLConnection.connect()V",
      "eventChain": [
        {
          "start": "com.company3L.FindMyPhone.KidsLocator$1.onLocationChanged(Landroid/location/Location;)V",
          "target": "invokevirtual \u003c Application, Ljava/net/HttpURLConnection, connect()V \u003e@222",
          "type": "location",
          "constraintsFile": "constraints47_0.py",
          "variables": {
            "\u003cInput1\u003e.getLongitude().length()": "IAAv5",
            "\u003cInput1\u003e.getLongitude()": "IAAv6",
            "\u003cInput1\u003e.getAccuracy()": "IAAv0",
            "\u003cInput1\u003e.getLatitude()": "IAAv3",
            "\u003cInput1\u003e.hasAccuracy()": "IAAv1",
            "\u003cInput1\u003e.getLatitude().length()": "IAAv2"
          },
          "stringMap": {},
          "strings": {}
        }
      ]
    },
    "48": {
      "startMethod": "com.company3L.FindMyPhone.KidsLocator$1.onLocationChanged(Landroid/location/Location;)V",
      "targetMethod": "java.net.HttpURLConnection.getInputStream()Ljava/io/InputStream;",
      "eventChain": [
        {
          "start": "com.company3L.FindMyPhone.KidsLocator$1.onLocationChanged(Landroid/location/Location;)V",
          "target": "invokevirtual \u003c Application, Ljava/net/HttpURLConnection, getInputStream()Ljava/io/InputStream; \u003e@366",
          "type": "location",
          "constraintsFile": "constraints48_0.py",
          "variables": {
            "\u003cInput1\u003e.getLongitude().length()": "IAAv5",
            "\u003cInput1\u003e.getLongitude()": "IAAv6",
            "\u003cInput1\u003e.getAccuracy()": "IAAv0",
            "\u003cInput1\u003e.getLatitude()": "IAAv3",
            "\u003cInput1\u003e.hasAccuracy()": "IAAv1",
            "\u003cInput1\u003e.getLatitude().length()": "IAAv2"
          },
          "stringMap": {},
          "strings": {}
        }
      ]
    },
    "49": {
      "startMethod": "com.company3L.FindMyPhone.KidsLocator$1.onLocationChanged(Landroid/location/Location;)V",
      "targetMethod": "android.app.NotificationManager.notify(ILandroid/app/Notification;)V",
      "eventChain": [
        {
          "start": "com.company3L.FindMyPhone.KidsLocator$1.onLocationChanged(Landroid/location/Location;)V",
          "target": "invokevirtual \u003c Application, Landroid/app/NotificationManager, notify(ILandroid/app/Notification;)V \u003e@102",
          "type": "location",
          "constraintsFile": "constraints49_0.py",
          "variables": {
            "\u003cInput1\u003e.getAccuracy()": "IAAv0",
            "\u003cInput1\u003e.hasAccuracy()": "IAAv1"
          },
          "stringMap": {},
          "strings": {}
        }
      ]
    },
    "50": {
      "startMethod": "com.company3L.FindMyPhone.KidsLocator$1.onLocationChanged(Landroid/location/Location;)V",
      "targetMethod": "java.net.URL.openConnection()Ljava/net/URLConnection;",
      "eventChain": [
        {
          "start": "com.company3L.FindMyPhone.KidsLocator$1.onLocationChanged(Landroid/location/Location;)V",
          "target": "invokevirtual \u003c Application, Ljava/net/URL, openConnection()Ljava/net/URLConnection; \u003e@164",
          "type": "location",
          "constraintsFile": "constraints50_0.py",
          "variables": {
            "\u003cInput1\u003e.getLongitude().length()": "IAAv5",
            "\u003cInput1\u003e.getLongitude()": "IAAv6",
            "\u003cInput1\u003e.getAccuracy()": "IAAv0",
            "\u003cInput1\u003e.getLatitude()": "IAAv3",
            "\u003cInput1\u003e.hasAccuracy()": "IAAv1",
            "\u003cInput1\u003e.getLatitude().length()": "IAAv2"
          },
          "stringMap": {},
          "strings": {}
        }
      ]
    },
    "51": {
      "startMethod": "com.company3L.FindMyPhone.KidsLocator$2.onLocationChanged(Landroid/location/Location;)V",
      "targetMethod": "java.net.HttpURLConnection.getInputStream()Ljava/io/InputStream;",
      "eventChain": [
        {
          "start": "com.company3L.FindMyPhone.KidsLocator$2.onLocationChanged(Landroid/location/Location;)V",
          "target": "invokevirtual \u003c Application, Ljava/net/HttpURLConnection, getInputStream()Ljava/io/InputStream; \u003e@366",
          "type": "location",
          "constraintsFile": "constraints51_0.py",
          "variables": {
            "\u003cInput1\u003e.getLongitude().length()": "IAAv5",
            "\u003cInput1\u003e.getLongitude()": "IAAv6",
            "\u003cInput1\u003e.getAccuracy()": "IAAv0",
            "\u003cInput1\u003e.getLatitude()": "IAAv3",
            "\u003cInput1\u003e.hasAccuracy()": "IAAv1",
            "\u003cInput1\u003e.getLatitude().length()": "IAAv2"
          },
          "stringMap": {},
          "strings": {}
        }
      ]
    },
    "52": {
      "startMethod": "com.company3L.FindMyPhone.KidsLocator$2.onLocationChanged(Landroid/location/Location;)V",
      "targetMethod": "java.net.HttpURLConnection.connect()V",
      "eventChain": [
        {
          "start": "com.company3L.FindMyPhone.KidsLocator$2.onLocationChanged(Landroid/location/Location;)V",
          "target": "invokevirtual \u003c Application, Ljava/net/HttpURLConnection, connect()V \u003e@222",
          "type": "location",
          "constraintsFile": "constraints52_0.py",
          "variables": {
            "\u003cInput1\u003e.getLongitude().length()": "IAAv5",
            "\u003cInput1\u003e.getLongitude()": "IAAv6",
            "\u003cInput1\u003e.getAccuracy()": "IAAv0",
            "\u003cInput1\u003e.getLatitude()": "IAAv3",
            "\u003cInput1\u003e.hasAccuracy()": "IAAv1",
            "\u003cInput1\u003e.getLatitude().length()": "IAAv2"
          },
          "stringMap": {},
          "strings": {}
        }
      ]
    },
    "53": {
      "startMethod": "com.company3L.FindMyPhone.KidsLocator$2.onLocationChanged(Landroid/location/Location;)V",
      "targetMethod": "android.app.NotificationManager.notify(ILandroid/app/Notification;)V",
      "eventChain": [
        {
          "start": "com.company3L.FindMyPhone.KidsLocator$2.onLocationChanged(Landroid/location/Location;)V",
          "target": "invokevirtual \u003c Application, Landroid/app/NotificationManager, notify(ILandroid/app/Notification;)V \u003e@102",
          "type": "location"
        }
      ]
    },
    "54": {
      "startMethod": "com.company3L.FindMyPhone.KidsLocator$2.onLocationChanged(Landroid/location/Location;)V",
      "targetMethod": "java.net.URL.openConnection()Ljava/net/URLConnection;",
      "eventChain": [
        {
          "start": "com.company3L.FindMyPhone.KidsLocator$2.onLocationChanged(Landroid/location/Location;)V",
          "target": "invokevirtual \u003c Application, Ljava/net/URL, openConnection()Ljava/net/URLConnection; \u003e@164",
          "type": "location",
          "constraintsFile": "constraints54_0.py",
          "variables": {
            "\u003cInput1\u003e.getLongitude().length()": "IAAv5",
            "\u003cInput1\u003e.getLongitude()": "IAAv6",
            "\u003cInput1\u003e.getAccuracy()": "IAAv0",
            "\u003cInput1\u003e.getLatitude()": "IAAv3",
            "\u003cInput1\u003e.hasAccuracy()": "IAAv1",
            "\u003cInput1\u003e.getLatitude().length()": "IAAv2"
          },
          "stringMap": {},
          "strings": {}
        }
      ]
    }
  }
}