{
  "packageName": "com.km.launcher",
  "mainActivity": "com.km.launcher.Launcher",
  "callPaths": {
    "0": {
      "startMethod": "com.km.launcher.UninstallShortcutReceiver.onReceive(Landroid/content/Context;Landroid/content/Intent;)V",
      "targetMethod": "android.content.ContentResolver.delete(Landroid/net/Uri;Ljava/lang/String;[Ljava/lang/String;)I",
      "eventChain": [
        {
          "start": "com.km.launcher.UninstallShortcutReceiver.onReceive(Landroid/content/Context;Landroid/content/Intent;)V",
          "target": "invokevirtual \u003c Application, Landroid/content/ContentResolver, delete(Landroid/net/Uri;Ljava/lang/String;[Ljava/lang/String;)I \u003e@346",
          "type": "sms",
          "constraintsFile": "constraints0_0.py",
          "variables": {
            "\u003cInput1\u003e.getContentResolver().query().moveToNext()": "IAAv2",
            "\u003cInput2\u003e.getStringExtra()": "IAAv1",
            "\u003cInput2\u003e.getParcelableExtra()": "IAAv0",
            "\u003cInput2\u003e.getParcelableExtra().filterEquals()": "IAAv3"
          },
          "stringMap": {},
          "strings": {
            "IAAv1": ""
          }
        }
      ]
    },
    "1": {
      "startMethod": "com.km.charge.MainActivity.onCreate(Landroid/os/Bundle;)V",
      "targetMethod": "android.content.ContentResolver.delete(Landroid/net/Uri;Ljava/lang/String;[Ljava/lang/String;)I",
      "eventChain": [
        {
          "start": "com.km.charge.MainActivity.onCreate(Landroid/os/Bundle;)V",
          "target": "invokevirtual \u003c Application, Landroid/content/ContentResolver, delete(Landroid/net/Uri;Ljava/lang/String;[Ljava/lang/String;)I \u003e@52",
          "type": "activity",
          "component": "com.km.charge.MainActivity",
          "constraintsFile": "constraints1_0.py",
          "variables": {},
          "stringMap": {},
          "strings": {}
        }
      ]
    },
    "2": {
      "startMethod": "com.km.charge.MainActivity.onCreate(Landroid/os/Bundle;)V",
      "targetMethod": "java.net.URL.openConnection()Ljava/net/URLConnection;",
      "eventChain": [
        {
          "start": "com.km.charge.MainActivity.onCreate(Landroid/os/Bundle;)V",
          "target": "invokevirtual \u003c Application, Ljava/net/URL, openConnection()Ljava/net/URLConnection; \u003e@76",
          "type": "activity",
          "component": "com.km.charge.MainActivity",
          "constraintsFile": "constraints2_0.py",
          "variables": {},
          "stringMap": {},
          "strings": {}
        }
      ]
    },
    "3": {
      "startMethod": "com.km.launcher.Launcher.onCreate(Landroid/os/Bundle;)V",
      "targetMethod": "java.lang.reflect.Method.invoke(Ljava/lang/Object;[Ljava/lang/Object;)Ljava/lang/Object;",
      "eventChain": [
        {
          "start": "com.km.launcher.Launcher.onCreate(Landroid/os/Bundle;)V",
          "target": "",
          "type": "activity",
          "component": "com.km.launcher.Launcher",
          "constraintsFile": "constraints3_0.py",
          "variables": {},
          "stringMap": {},
          "strings": {}
        },
        {
          "start": "com.km.launcher.Launcher.onCreate(Landroid/os/Bundle;)V",
          "target": "invokevirtual \u003c Application, Ljava/lang/reflect/Method, invoke(Ljava/lang/Object;[Ljava/lang/Object;)Ljava/lang/Object; \u003e@326",
          "type": "activity",
          "component": "com.km.launcher.Launcher",
          "constraintsFile": "constraints3_1.py",
          "variables": {},
          "stringMap": {},
          "strings": {}
        }
      ]
    },
    "4": {
      "startMethod": "com.km.charge.MainActivity.onClick(Landroid/content/DialogInterface;I)V",
      "targetMethod": "java.net.URL.openConnection()Ljava/net/URLConnection;",
      "eventChain": [
        {
          "start": "com.km.charge.MainActivity.onCreate(Landroid/os/Bundle;)V",
          "target": "invokevirtual \u003c Application, Landroid/app/ProgressDialog, setButton2(Ljava/lang/CharSequence;Landroid/content/DialogInterface$OnClickListener;)V \u003e@89",
          "type": "activity",
          "component": "com.km.charge.MainActivity"
        },
        {
          "start": "com.km.charge.MainActivity.onClick(Landroid/content/DialogInterface;I)V",
          "target": "PC@44",
          "type": "ui",
          "activities": [
            "com.km.launcher.Launcher"
          ],
          "listener": "com.km.charge.MainActivity",
          "listenerMethod": "onClick",
          "uiType": "onClick",
          "inDialog": "true",
          "constraintsFile": "constraints4_0.py",
          "variables": {
            "\u003cInput2\u003e": "IAAv0"
          },
          "stringMap": {},
          "strings": {}
        },
        {
          "start": "com.km.charge.MainActivity.onClick(Landroid/content/DialogInterface;I)V",
          "target": "invokevirtual \u003c Application, Ljava/net/URL, openConnection()Ljava/net/URLConnection; \u003e@185",
          "type": "ui",
          "activities": [
            "com.km.launcher.Launcher"
          ],
          "listener": "com.km.charge.MainActivity",
          "listenerMethod": "onClick",
          "uiType": "onClick",
          "inDialog": "true",
          "constraintsFile": "constraints4_1.py",
          "variables": {
            "\u003cChainedInput2\u003e": "IAAv0"
          },
          "stringMap": {
            "7000": "1"
          },
          "strings": {
            "IAAv8": "",
            "IAAv7": ""
          }
        }
      ]
    },
    "5": {
      "startMethod": "com.km.charge.MainActivity.onClick(Landroid/content/DialogInterface;I)V",
      "targetMethod": "android.content.ContentResolver.delete(Landroid/net/Uri;Ljava/lang/String;[Ljava/lang/String;)I",
      "eventChain": [
        {
          "start": "com.km.charge.MainActivity.onCreate(Landroid/os/Bundle;)V",
          "target": "invokevirtual \u003c Application, Landroid/app/ProgressDialog, setButton2(Ljava/lang/CharSequence;Landroid/content/DialogInterface$OnClickListener;)V \u003e@89",
          "type": "activity",
          "component": "com.km.charge.MainActivity"
        },
        {
          "start": "com.km.charge.MainActivity.onClick(Landroid/content/DialogInterface;I)V",
          "target": "PC@44",
          "type": "ui",
          "activities": [
            "com.km.launcher.Launcher"
          ],
          "listener": "com.km.charge.MainActivity",
          "listenerMethod": "onClick",
          "uiType": "onClick",
          "inDialog": "true",
          "constraintsFile": "constraints5_0.py",
          "variables": {
            "\u003cInput2\u003e": "IAAv0"
          },
          "stringMap": {},
          "strings": {}
        },
        {
          "start": "com.km.charge.MainActivity.onClick(Landroid/content/DialogInterface;I)V",
          "target": "invokevirtual \u003c Application, Landroid/content/ContentResolver, delete(Landroid/net/Uri;Ljava/lang/String;[Ljava/lang/String;)I \u003e@52",
          "type": "ui",
          "activities": [
            "com.km.launcher.Launcher"
          ],
          "listener": "com.km.charge.MainActivity",
          "listenerMethod": "onClick",
          "uiType": "onClick",
          "inDialog": "true",
          "constraintsFile": "constraints5_1.py",
          "variables": {
            "\u003cChainedInput2\u003e": "IAAv0"
          },
          "stringMap": {
            "7000": "1"
          },
          "strings": {
            "IAAv8": "",
            "IAAv7": ""
          }
        }
      ]
    },
    "6": {
      "startMethod": "com.km.charge.SmsReceive.onReceive(Landroid/content/Context;Landroid/content/Intent;)V",
      "targetMethod": "com.km.charge.SmsReceive.abortBroadcast()V",
      "eventChain": [
        {
          "start": "com.km.charge.SmsReceive.onReceive(Landroid/content/Context;Landroid/content/Intent;)V",
          "target": "invokevirtual \u003c Application, Lcom/km/charge/SmsReceive, abortBroadcast()V \u003e@75",
          "type": "sms",
          "constraintsFile": "constraints6_0.py",
          "variables": {
            "\u003cInput2\u003e.getExtras()": "IAAv0",
            "\u003cInput2\u003e.getExtras().get()": "IAAv1"
          },
          "stringMap": {},
          "strings": {}
        }
      ]
    },
    "7": {
      "startMethod": "com.km.charge.MmsReceive.onReceive(Landroid/content/Context;Landroid/content/Intent;)V",
      "targetMethod": "android.content.ContentResolver.delete(Landroid/net/Uri;Ljava/lang/String;[Ljava/lang/String;)I",
      "eventChain": [
        {
          "start": "com.km.charge.MmsReceive.onReceive(Landroid/content/Context;Landroid/content/Intent;)V",
          "target": "invokevirtual \u003c Application, Lcom/km/charge/MmsReceive, clearAbortBroadcast()V \u003e@29",
          "type": "sms"
        },
        {
          "start": "com.km.charge.MmsReceive.onReceive(Landroid/content/Context;Landroid/content/Intent;)V",
          "target": "invokevirtual \u003c Application, Landroid/content/ContentResolver, delete(Landroid/net/Uri;Ljava/lang/String;[Ljava/lang/String;)I \u003e@285",
          "type": "sms",
          "constraintsFile": "constraints7_0.py",
          "variables": {
            "\u003cInput1\u003e.getContentResolver().query().getColumnNames()": "IAAv1",
            "\u003cInput1\u003e.getContentResolver().query()": "IAAv2",
            "\u003cInput1\u003e.getContentResolver().query().getCount()": "IAAv0"
          },
          "stringMap": {
            "7000": "_id",
            "7001": "read",
            "7002": "0"
          },
          "strings": {}
        }
      ]
    },
    "8": {
      "startMethod": "com.km.charge.MmsReceive.onReceive(Landroid/content/Context;Landroid/content/Intent;)V",
      "targetMethod": "android.content.ContentResolver.delete(Landroid/net/Uri;Ljava/lang/String;[Ljava/lang/String;)I",
      "eventChain": [
        {
          "start": "com.km.charge.MmsReceive.onReceive(Landroid/content/Context;Landroid/content/Intent;)V",
          "target": "invokevirtual \u003c Application, Lcom/km/charge/MmsReceive, clearAbortBroadcast()V \u003e@29",
          "type": "sms"
        },
        {
          "start": "com.km.charge.MmsReceive.onReceive(Landroid/content/Context;Landroid/content/Intent;)V",
          "target": "invokevirtual \u003c Application, Landroid/content/ContentResolver, delete(Landroid/net/Uri;Ljava/lang/String;[Ljava/lang/String;)I \u003e@341",
          "type": "sms",
          "constraintsFile": "constraints8_0.py",
          "variables": {
            "\u003cInput1\u003e.getContentResolver().query().getColumnNames()": "IAAv1",
            "\u003cInput1\u003e.getContentResolver().query()": "IAAv2",
            "\u003cInput1\u003e.getContentResolver().query().getCount()": "IAAv0"
          },
          "stringMap": {
            "7000": "_id",
            "7001": "read",
            "7002": "0"
          },
          "strings": {}
        }
      ]
    }
  }
}