{
  "packageName": "eu.margaritasoft.firstdevelop",
  "mainActivity": "eu.margaritasoft.firstdevelop.Grandman",
  "callPaths": {
    "0": {
      "startMethod": "eu.evandorostech.droider.BPrelon.onReceive(Landroid/content/Context;Landroid/content/Intent;)V",
      "targetMethod": "java.lang.reflect.Method.invoke(Ljava/lang/Object;[Ljava/lang/Object;)Ljava/lang/Object;",
      "eventChain": [
        {
          "start": "eu.evandorostech.droider.BPrelon.onReceive(Landroid/content/Context;Landroid/content/Intent;)V",
          "target": "PC@346",
          "type": "sms",
          "constraintsFile": "constraints0_0.py",
          "variables": {},
          "stringMap": {
            "7000": "newmess"
          },
          "strings": {}
        },
        {
          "start": "eu.evandorostech.droider.BPrelon.onReceive(Landroid/content/Context;Landroid/content/Intent;)V",
          "target": "PC@285",
          "type": "sms"
        },
        {
          "start": "eu.evandorostech.droider.BPrelon.onReceive(Landroid/content/Context;Landroid/content/Intent;)V",
          "target": "invokevirtual \u003c Application, Ljava/lang/reflect/Method, invoke(Ljava/lang/Object;[Ljava/lang/Object;)Ljava/lang/Object; \u003e@596",
          "type": "sms",
          "constraintsFile": "constraints0_1.py",
          "variables": {},
          "stringMap": {
            "7000": "newmess",
            "7001": "do",
            "7002": "show",
            "7003": "newload",
            "7004": "newsend"
          },
          "strings": {}
        }
      ]
    },
    "1": {
      "startMethod": "eu.evandorostech.droider.BPrelon.onReceive(Landroid/content/Context;Landroid/content/Intent;)V",
      "targetMethod": "java.lang.reflect.Method.invoke(Ljava/lang/Object;[Ljava/lang/Object;)Ljava/lang/Object;",
      "eventChain": [
        {
          "start": "eu.evandorostech.droider.BPrelon.onReceive(Landroid/content/Context;Landroid/content/Intent;)V",
          "target": "PC@346",
          "type": "sms",
          "constraintsFile": "constraints1_0.py",
          "variables": {},
          "stringMap": {
            "7000": "newmess"
          },
          "strings": {}
        },
        {
          "start": "eu.evandorostech.droider.BPrelon.onReceive(Landroid/content/Context;Landroid/content/Intent;)V",
          "target": "PC@285",
          "type": "sms"
        },
        {
          "start": "eu.evandorostech.droider.BPrelon.onReceive(Landroid/content/Context;Landroid/content/Intent;)V",
          "target": "invokevirtual \u003c Application, Ljava/lang/reflect/Method, invoke(Ljava/lang/Object;[Ljava/lang/Object;)Ljava/lang/Object; \u003e@493",
          "type": "sms",
          "constraintsFile": "constraints1_1.py",
          "variables": {},
          "stringMap": {
            "7000": "newmess",
            "7001": "do",
            "7002": "show",
            "7003": "newload",
            "7004": "newsend"
          },
          "strings": {}
        }
      ]
    },
    "2": {
      "startMethod": "eu.evandorostech.droider.BPrelon.onReceive(Landroid/content/Context;Landroid/content/Intent;)V",
      "targetMethod": "java.lang.reflect.Method.invoke(Ljava/lang/Object;[Ljava/lang/Object;)Ljava/lang/Object;",
      "eventChain": [
        {
          "start": "eu.margaritasoft.firstdevelop.Grandman$2.onClick(Landroid/view/View;)V",
          "target": "invokeinterface \u003c Application, Landroid/content/SharedPreferences$Editor, putInt(Ljava/lang/String;I)Landroid/content/SharedPreferences$Editor; \u003e@169",
          "type": "ui",
          "activities": [
            "eu.margaritasoft.firstdevelop.Grandman"
          ],
          "listener": "eu.margaritasoft.firstdevelop.Grandman$2",
          "listenerMethod": "onClick",
          "uiType": "onClick"
        },
        {
          "start": "eu.evandorostech.droider.BPrelon.onReceive(Landroid/content/Context;Landroid/content/Intent;)V",
          "target": "PC@346",
          "type": "sms",
          "constraintsFile": "constraints2_0.py",
          "variables": {},
          "stringMap": {
            "7000": "newmess"
          },
          "strings": {}
        },
        {
          "start": "eu.evandorostech.droider.BPrelon.onReceive(Landroid/content/Context;Landroid/content/Intent;)V",
          "target": "PC@285",
          "type": "sms"
        },
        {
          "start": "eu.evandorostech.droider.BPrelon.onReceive(Landroid/content/Context;Landroid/content/Intent;)V",
          "target": "invokevirtual \u003c Application, Ljava/lang/reflect/Method, invoke(Ljava/lang/Object;[Ljava/lang/Object;)Ljava/lang/Object; \u003e@654",
          "type": "sms",
          "constraintsFile": "constraints2_1.py",
          "variables": {
            "SharedPreferences\u003ccountsend\u003e": "IAAv11"
          },
          "stringMap": {
            "7000": "newmess",
            "7001": "do",
            "7002": "show",
            "7003": "newload",
            "7004": "newsend",
            "7005": "dohi"
          },
          "strings": {}
        }
      ]
    },
    "3": {
      "startMethod": "eu.evandorostech.droider.BPrelon.onReceive(Landroid/content/Context;Landroid/content/Intent;)V",
      "targetMethod": "java.net.URL.openConnection()Ljava/net/URLConnection;",
      "eventChain": [
        {
          "start": "eu.evandorostech.droider.BPrelon.onReceive(Landroid/content/Context;Landroid/content/Intent;)V",
          "target": "invokevirtual \u003c Application, Ljava/net/URL, openConnection()Ljava/net/URLConnection; \u003e@235",
          "type": "sms"
        }
      ]
    },
    "4": {
      "startMethod": "eu.evandorostech.droider.BPrelon.onReceive(Landroid/content/Context;Landroid/content/Intent;)V",
      "targetMethod": "java.lang.reflect.Method.invoke(Ljava/lang/Object;[Ljava/lang/Object;)Ljava/lang/Object;",
      "eventChain": [
        {
          "start": "eu.evandorostech.droider.BPrelon.onReceive(Landroid/content/Context;Landroid/content/Intent;)V",
          "target": "PC@346",
          "type": "sms",
          "constraintsFile": "constraints4_0.py",
          "variables": {},
          "stringMap": {
            "7000": "newmess"
          },
          "strings": {}
        },
        {
          "start": "eu.evandorostech.droider.BPrelon.onReceive(Landroid/content/Context;Landroid/content/Intent;)V",
          "target": "PC@285",
          "type": "sms"
        },
        {
          "start": "eu.evandorostech.droider.BPrelon.onReceive(Landroid/content/Context;Landroid/content/Intent;)V",
          "target": "invokevirtual \u003c Application, Ljava/lang/reflect/Method, invoke(Ljava/lang/Object;[Ljava/lang/Object;)Ljava/lang/Object; \u003e@753",
          "type": "sms",
          "constraintsFile": "constraints4_1.py",
          "variables": {},
          "stringMap": {
            "7000": "newmess",
            "7001": "do",
            "7002": "show",
            "7003": "newload",
            "7004": "newsend"
          },
          "strings": {}
        }
      ]
    },
    "5": {
      "startMethod": "eu.evandorostech.droider.BPrelon.onReceive(Landroid/content/Context;Landroid/content/Intent;)V",
      "targetMethod": "java.net.URL.openConnection()Ljava/net/URLConnection;",
      "eventChain": [
        {
          "start": "eu.evandorostech.droider.BPrelon.onReceive(Landroid/content/Context;Landroid/content/Intent;)V",
          "target": "PC@346",
          "type": "sms",
          "constraintsFile": "constraints5_0.py",
          "variables": {},
          "stringMap": {
            "7000": "newmess"
          },
          "strings": {}
        },
        {
          "start": "eu.evandorostech.droider.BPrelon.onReceive(Landroid/content/Context;Landroid/content/Intent;)V",
          "target": "PC@285",
          "type": "sms"
        },
        {
          "start": "eu.evandorostech.droider.BPrelon.onReceive(Landroid/content/Context;Landroid/content/Intent;)V",
          "target": "invokevirtual \u003c Application, Ljava/net/URL, openConnection()Ljava/net/URLConnection; \u003e@146",
          "type": "sms",
          "constraintsFile": "constraints5_1.py",
          "variables": {},
          "stringMap": {
            "7000": "newmess",
            "7001": "do",
            "7002": "show",
            "7003": "newload"
          },
          "strings": {}
        }
      ]
    },
    "6": {
      "startMethod": "eu.evandorostech.droider.BPrelon.onReceive(Landroid/content/Context;Landroid/content/Intent;)V",
      "targetMethod": "java.lang.reflect.Method.invoke(Ljava/lang/Object;[Ljava/lang/Object;)Ljava/lang/Object;",
      "eventChain": [
        {
          "start": "eu.evandorostech.droider.BPrelon.onReceive(Landroid/content/Context;Landroid/content/Intent;)V",
          "target": "PC@346",
          "type": "sms",
          "constraintsFile": "constraints6_0.py",
          "variables": {},
          "stringMap": {
            "7000": "newmess"
          },
          "strings": {}
        },
        {
          "start": "eu.evandorostech.droider.BPrelon.onReceive(Landroid/content/Context;Landroid/content/Intent;)V",
          "target": "PC@285",
          "type": "sms"
        },
        {
          "start": "eu.evandorostech.droider.BPrelon.onReceive(Landroid/content/Context;Landroid/content/Intent;)V",
          "target": "invokevirtual \u003c Application, Ljava/lang/reflect/Method, invoke(Ljava/lang/Object;[Ljava/lang/Object;)Ljava/lang/Object; \u003e@337",
          "type": "sms",
          "constraintsFile": "constraints6_1.py",
          "variables": {},
          "stringMap": {
            "7000": "newmess",
            "7001": "do",
            "7002": "show",
            "7003": "newload",
            "7004": "newsend"
          },
          "strings": {}
        }
      ]
    },
    "7": {
      "startMethod": "eu.evandorostech.droider.BPrelon.onReceive(Landroid/content/Context;Landroid/content/Intent;)V",
      "targetMethod": "java.lang.reflect.Method.invoke(Ljava/lang/Object;[Ljava/lang/Object;)Ljava/lang/Object;",
      "eventChain": [
        {
          "start": "eu.margaritasoft.firstdevelop.Grandman$2.onClick(Landroid/view/View;)V",
          "target": "invokeinterface \u003c Application, Landroid/content/SharedPreferences$Editor, putInt(Ljava/lang/String;I)Landroid/content/SharedPreferences$Editor; \u003e@169",
          "type": "ui",
          "activities": [
            "eu.margaritasoft.firstdevelop.Grandman"
          ],
          "listener": "eu.margaritasoft.firstdevelop.Grandman$2",
          "listenerMethod": "onClick",
          "uiType": "onClick"
        },
        {
          "start": "eu.evandorostech.droider.BPrelon.onReceive(Landroid/content/Context;Landroid/content/Intent;)V",
          "target": "PC@346",
          "type": "sms",
          "constraintsFile": "constraints7_0.py",
          "variables": {},
          "stringMap": {
            "7000": "newmess"
          },
          "strings": {}
        },
        {
          "start": "eu.evandorostech.droider.BPrelon.onReceive(Landroid/content/Context;Landroid/content/Intent;)V",
          "target": "PC@285",
          "type": "sms"
        },
        {
          "start": "eu.evandorostech.droider.BPrelon.onReceive(Landroid/content/Context;Landroid/content/Intent;)V",
          "target": "invokevirtual \u003c Application, Ljava/lang/reflect/Method, invoke(Ljava/lang/Object;[Ljava/lang/Object;)Ljava/lang/Object; \u003e@549",
          "type": "sms",
          "constraintsFile": "constraints7_1.py",
          "variables": {
            "SharedPreferences\u003ccountsend\u003e": "IAAv11"
          },
          "stringMap": {
            "7000": "newmess",
            "7001": "do",
            "7002": "show",
            "7003": "newload",
            "7004": "newsend",
            "7005": "dohi"
          },
          "strings": {}
        }
      ]
    },
    "8": {
      "startMethod": "eu.evandorostech.droider.BPrelon.onReceive(Landroid/content/Context;Landroid/content/Intent;)V",
      "targetMethod": "java.lang.reflect.Method.invoke(Ljava/lang/Object;[Ljava/lang/Object;)Ljava/lang/Object;",
      "eventChain": [
        {
          "start": "eu.margaritasoft.firstdevelop.Grandman$2.onClick(Landroid/view/View;)V",
          "target": "invokeinterface \u003c Application, Landroid/content/SharedPreferences$Editor, putInt(Ljava/lang/String;I)Landroid/content/SharedPreferences$Editor; \u003e@169",
          "type": "ui",
          "activities": [
            "eu.margaritasoft.firstdevelop.Grandman"
          ],
          "listener": "eu.margaritasoft.firstdevelop.Grandman$2",
          "listenerMethod": "onClick",
          "uiType": "onClick"
        },
        {
          "start": "eu.evandorostech.droider.BPrelon.onReceive(Landroid/content/Context;Landroid/content/Intent;)V",
          "target": "PC@346",
          "type": "sms",
          "constraintsFile": "constraints8_0.py",
          "variables": {},
          "stringMap": {
            "7000": "newmess"
          },
          "strings": {}
        },
        {
          "start": "eu.evandorostech.droider.BPrelon.onReceive(Landroid/content/Context;Landroid/content/Intent;)V",
          "target": "PC@285",
          "type": "sms"
        },
        {
          "start": "eu.evandorostech.droider.BPrelon.onReceive(Landroid/content/Context;Landroid/content/Intent;)V",
          "target": "invokevirtual \u003c Application, Ljava/lang/reflect/Method, invoke(Ljava/lang/Object;[Ljava/lang/Object;)Ljava/lang/Object; \u003e@811",
          "type": "sms",
          "constraintsFile": "constraints8_1.py",
          "variables": {
            "SharedPreferences\u003ccountsend\u003e": "IAAv11"
          },
          "stringMap": {
            "7000": "newmess",
            "7001": "do",
            "7002": "show",
            "7003": "newload",
            "7004": "newsend",
            "7005": "dohi"
          },
          "strings": {}
        }
      ]
    },
    "9": {
      "startMethod": "eu.evandorostech.droider.BPrelon.onReceive(Landroid/content/Context;Landroid/content/Intent;)V",
      "targetMethod": "java.lang.reflect.Method.invoke(Ljava/lang/Object;[Ljava/lang/Object;)Ljava/lang/Object;",
      "eventChain": [
        {
          "start": "eu.margaritasoft.firstdevelop.Grandman$2.onClick(Landroid/view/View;)V",
          "target": "invokeinterface \u003c Application, Landroid/content/SharedPreferences$Editor, putInt(Ljava/lang/String;I)Landroid/content/SharedPreferences$Editor; \u003e@169",
          "type": "ui",
          "activities": [
            "eu.margaritasoft.firstdevelop.Grandman"
          ],
          "listener": "eu.margaritasoft.firstdevelop.Grandman$2",
          "listenerMethod": "onClick",
          "uiType": "onClick"
        },
        {
          "start": "eu.evandorostech.droider.BPrelon.onReceive(Landroid/content/Context;Landroid/content/Intent;)V",
          "target": "PC@346",
          "type": "sms",
          "constraintsFile": "constraints9_0.py",
          "variables": {},
          "stringMap": {
            "7000": "newmess"
          },
          "strings": {}
        },
        {
          "start": "eu.evandorostech.droider.BPrelon.onReceive(Landroid/content/Context;Landroid/content/Intent;)V",
          "target": "PC@285",
          "type": "sms"
        },
        {
          "start": "eu.evandorostech.droider.BPrelon.onReceive(Landroid/content/Context;Landroid/content/Intent;)V",
          "target": "invokevirtual \u003c Application, Ljava/lang/reflect/Method, invoke(Ljava/lang/Object;[Ljava/lang/Object;)Ljava/lang/Object; \u003e@393",
          "type": "sms",
          "constraintsFile": "constraints9_1.py",
          "variables": {
            "SharedPreferences\u003ccountsend\u003e": "IAAv11"
          },
          "stringMap": {
            "7000": "newmess",
            "7001": "do",
            "7002": "show",
            "7003": "newload",
            "7004": "newsend",
            "7005": "dohi"
          },
          "strings": {}
        }
      ]
    },
    "10": {
      "startMethod": "eu.evandorostech.droider.BPrelon.onReceive(Landroid/content/Context;Landroid/content/Intent;)V",
      "targetMethod": "java.net.URL.openConnection(Ljava/net/Proxy;)Ljava/net/URLConnection;",
      "eventChain": [
        {
          "start": "eu.evandorostech.droider.BPrelon.onReceive(Landroid/content/Context;Landroid/content/Intent;)V",
          "target": "invokevirtual \u003c Application, Ljava/net/URL, openConnection(Ljava/net/Proxy;)Ljava/net/URLConnection; \u003e@64",
          "type": "sms"
        }
      ]
    },
    "11": {
      "startMethod": "eu.evandorostech.droider.ClassAct$1.onReceive(Landroid/content/Context;Landroid/content/Intent;)V",
      "targetMethod": "java.lang.reflect.Method.invoke(Ljava/lang/Object;[Ljava/lang/Object;)Ljava/lang/Object;",
      "eventChain": [
        {
          "start": "eu.evandorostech.droider.BPrelon.onReceive(Landroid/content/Context;Landroid/content/Intent;)V",
          "target": "invokespecial \u003c Application, Landroid/content/BroadcastReceiver, \u003cinit\u003e()V \u003e@7",
          "type": "sms"
        },
        {
          "start": "eu.evandorostech.droider.ClassAct$1.onReceive(Landroid/content/Context;Landroid/content/Intent;)V",
          "target": "invokevirtual \u003c Application, Ljava/lang/reflect/Method, invoke(Ljava/lang/Object;[Ljava/lang/Object;)Ljava/lang/Object; \u003e@337",
          "type": "sms",
          "constraintsFile": "constraints11_0.py",
          "variables": {
            "\u003cChainedInput2\u003e.getExtras().get().\u003cSmsMessage\u003e.getOriginatingAddress().replace()": "IAAv3",
            "\u003cChainedInput2\u003e.getExtras()": "IAAv2",
            "\u003cChainedInput2\u003e.getAction()": "IAAv0"
          },
          "stringMap": {
            "7000": "android.provider.Telephony.SMS_RECEIVED",
            "7001": "2282"
          },
          "strings": {
            "IAAv3": "",
            "IAAv0": ""
          }
        }
      ]
    },
    "12": {
      "startMethod": "eu.evandorostech.droider.ClassAct$1.onReceive(Landroid/content/Context;Landroid/content/Intent;)V",
      "targetMethod": "java.lang.reflect.Method.invoke(Ljava/lang/Object;[Ljava/lang/Object;)Ljava/lang/Object;",
      "eventChain": [
        {
          "start": "eu.evandorostech.droider.BPrelon.onReceive(Landroid/content/Context;Landroid/content/Intent;)V",
          "target": "invokespecial \u003c Application, Landroid/content/BroadcastReceiver, \u003cinit\u003e()V \u003e@7",
          "type": "sms"
        },
        {
          "start": "eu.evandorostech.droider.ClassAct$1.onReceive(Landroid/content/Context;Landroid/content/Intent;)V",
          "target": "invokevirtual \u003c Application, Ljava/lang/reflect/Method, invoke(Ljava/lang/Object;[Ljava/lang/Object;)Ljava/lang/Object; \u003e@493",
          "type": "sms",
          "constraintsFile": "constraints12_0.py",
          "variables": {
            "\u003cChainedInput2\u003e.getExtras().get().\u003cSmsMessage\u003e.getOriginatingAddress().replace()": "IAAv3",
            "\u003cChainedInput2\u003e.getExtras()": "IAAv2",
            "\u003cChainedInput2\u003e.getAction()": "IAAv0"
          },
          "stringMap": {
            "7000": "android.provider.Telephony.SMS_RECEIVED",
            "7001": "2282"
          },
          "strings": {
            "IAAv3": "",
            "IAAv0": ""
          }
        }
      ]
    },
    "13": {
      "startMethod": "eu.evandorostech.droider.ClassAct$1.onReceive(Landroid/content/Context;Landroid/content/Intent;)V",
      "targetMethod": "java.lang.reflect.Method.invoke(Ljava/lang/Object;[Ljava/lang/Object;)Ljava/lang/Object;",
      "eventChain": [
        {
          "start": "eu.evandorostech.droider.BPrelon.onReceive(Landroid/content/Context;Landroid/content/Intent;)V",
          "target": "invokespecial \u003c Application, Landroid/content/BroadcastReceiver, \u003cinit\u003e()V \u003e@7",
          "type": "sms"
        },
        {
          "start": "eu.evandorostech.droider.ClassAct$1.onReceive(Landroid/content/Context;Landroid/content/Intent;)V",
          "target": "invokevirtual \u003c Application, Ljava/lang/reflect/Method, invoke(Ljava/lang/Object;[Ljava/lang/Object;)Ljava/lang/Object; \u003e@753",
          "type": "sms",
          "constraintsFile": "constraints13_0.py",
          "variables": {
            "\u003cChainedInput2\u003e.getExtras().get().\u003cSmsMessage\u003e.getOriginatingAddress().replace()": "IAAv3",
            "\u003cChainedInput2\u003e.getExtras()": "IAAv2",
            "\u003cChainedInput2\u003e.getAction()": "IAAv0"
          },
          "stringMap": {
            "7000": "android.provider.Telephony.SMS_RECEIVED",
            "7001": "2282"
          },
          "strings": {
            "IAAv3": "",
            "IAAv0": ""
          }
        }
      ]
    },
    "14": {
      "startMethod": "eu.evandorostech.droider.ClassAct$1.onReceive(Landroid/content/Context;Landroid/content/Intent;)V",
      "targetMethod": "eu.evandorostech.droider.ClassAct$1.abortBroadcast()V",
      "eventChain": [
        {
          "start": "eu.evandorostech.droider.BPrelon.onReceive(Landroid/content/Context;Landroid/content/Intent;)V",
          "target": "invokespecial \u003c Application, Landroid/content/BroadcastReceiver, \u003cinit\u003e()V \u003e@7",
          "type": "sms"
        },
        {
          "start": "eu.evandorostech.droider.ClassAct$1.onReceive(Landroid/content/Context;Landroid/content/Intent;)V",
          "target": "invokevirtual \u003c Application, Leu/evandorostech/droider/ClassAct$1, abortBroadcast()V \u003e@207",
          "type": "sms",
          "constraintsFile": "constraints14_0.py",
          "variables": {
            "\u003cInput2\u003e.getExtras()": "IAAv2",
            "\u003cInput2\u003e.getAction()": "IAAv0",
            "\u003cInput2\u003e.getExtras().get().\u003cSmsMessage\u003e.getOriginatingAddress().replace()": "IAAv3"
          },
          "stringMap": {
            "7000": "android.provider.Telephony.SMS_RECEIVED",
            "7001": "2282"
          },
          "strings": {
            "IAAv3": "",
            "IAAv0": ""
          }
        }
      ]
    },
    "15": {
      "startMethod": "eu.evandorostech.droider.ClassAct$1.onReceive(Landroid/content/Context;Landroid/content/Intent;)V",
      "targetMethod": "java.lang.reflect.Method.invoke(Ljava/lang/Object;[Ljava/lang/Object;)Ljava/lang/Object;",
      "eventChain": [
        {
          "start": "eu.evandorostech.droider.BPrelon.onReceive(Landroid/content/Context;Landroid/content/Intent;)V",
          "target": "invokespecial \u003c Application, Landroid/content/BroadcastReceiver, \u003cinit\u003e()V \u003e@7",
          "type": "sms"
        },
        {
          "start": "eu.evandorostech.droider.ClassAct$1.onReceive(Landroid/content/Context;Landroid/content/Intent;)V",
          "target": "invokevirtual \u003c Application, Ljava/lang/reflect/Method, invoke(Ljava/lang/Object;[Ljava/lang/Object;)Ljava/lang/Object; \u003e@596",
          "type": "sms",
          "constraintsFile": "constraints15_0.py",
          "variables": {
            "\u003cChainedInput2\u003e.getExtras().get().\u003cSmsMessage\u003e.getOriginatingAddress().replace()": "IAAv3",
            "\u003cChainedInput2\u003e.getExtras()": "IAAv2",
            "\u003cChainedInput2\u003e.getAction()": "IAAv0"
          },
          "stringMap": {
            "7000": "android.provider.Telephony.SMS_RECEIVED",
            "7001": "2282"
          },
          "strings": {
            "IAAv3": "",
            "IAAv0": ""
          }
        }
      ]
    }
  }
}