{
  "packageName": "com.khajaranawallpaper",
  "mainActivity": "com.khajaranawallpaper.FragmentAcivityManager",
  "callPaths": {
    "0": {
      "startMethod": "com.personagraph.sensor.service.StartupReceiver.onReceive(Landroid/content/Context;Landroid/content/Intent;)V",
      "targetMethod": "java.net.URL.openConnection()Ljava/net/URLConnection;",
      "eventChain": [
        {
          "start": "com.personagraph.sensor.service.StartupReceiver.onReceive(Landroid/content/Context;Landroid/content/Intent;)V",
          "target": "invokevirtual \u003c Application, Ljava/net/URL, openConnection()Ljava/net/URLConnection; \u003e@50",
          "type": "sms",
          "constraintsFile": "constraints0_0.py",
          "variables": {
            "\u003cInput1\u003e.getApplicationContext().n()": "IAAv4",
            "\u003cInput1\u003e.getApplicationContext().d": "IAAv6",
            "\u003cInput1\u003e.getApplicationContext().j()": "IAAv10",
            "\u003cInput1\u003e.getApplicationContext().m()": "IAAv3",
            "\u003cInput1\u003e.getApplicationContext().a()": "IAAv0",
            "\u003cInput1\u003e.getApplicationContext().s()": "IAAv7",
            "\u003cInput1\u003e.getApplicationContext().x().a.a().a.a()": "IAAv2",
            "\u003cInput1\u003e.getApplicationContext().l()": "IAAv9",
            "\u003cInput1\u003e.getApplicationContext().p()": "IAAv8",
            "\u003cInput1\u003e.getApplicationContext().e().isEmpty()": "IAAv5",
            "\u003cInput1\u003e.getApplicationContext().o()": "IAAv1"
          },
          "stringMap": {},
          "strings": {
            "IAAv0": ""
          }
        }
      ]
    },
    "1": {
      "startMethod": "com.personagraph.sensor.service.SensorService.onCreate()V",
      "targetMethod": "java.net.URL.openConnection()Ljava/net/URLConnection;",
      "eventChain": [
        {
          "start": "com.personagraph.sensor.service.SensorService.onCreate()V",
          "target": "invokevirtual \u003c Application, Ljava/net/URL, openConnection()Ljava/net/URLConnection; \u003e@50",
          "type": "service",
          "component": "com.personagraph.sensor.service.SensorService"
        }
      ]
    },
    "2": {
      "startMethod": "com.google.android.gms.maps.MapFragment.onResume()V",
      "targetMethod": "java.lang.ClassLoader.loadClass(Ljava/lang/String;)Ljava/lang/Class;",
      "eventChain": [
        {
          "start": "com.google.android.gms.maps.MapFragment.onResume()V",
          "target": "invokevirtual \u003c Application, Ljava/lang/ClassLoader, loadClass(Ljava/lang/String;)Ljava/lang/Class; \u003e@13",
          "type": "",
          "constraintsFile": "constraints2_0.py",
          "variables": {},
          "stringMap": {},
          "strings": {}
        }
      ]
    },
    "3": {
      "startMethod": "com.khajaranawallpaper.PersonagraphApplication.onCreate()V",
      "targetMethod": "java.net.URL.openConnection()Ljava/net/URLConnection;",
      "eventChain": [
        {
          "start": "com.khajaranawallpaper.PersonagraphApplication.onCreate()V",
          "target": "invokevirtual \u003c Application, Ljava/net/URL, openConnection()Ljava/net/URLConnection; \u003e@50",
          "type": ""
        }
      ]
    },
    "4": {
      "startMethod": "com.khajaranawallpaper.PersonagraphApplication.onCreate()V",
      "targetMethod": "java.lang.ClassLoader.loadClass(Ljava/lang/String;)Ljava/lang/Class;",
      "eventChain": [
        {
          "start": "com.khajaranawallpaper.PersonagraphApplication.onCreate()V",
          "target": "invokevirtual \u003c Application, Ljava/lang/ClassLoader, loadClass(Ljava/lang/String;)Ljava/lang/Class; \u003e@59",
          "type": ""
        }
      ]
    },
    "5": {
      "startMethod": "com.khajaranawallpaper.PersonagraphApplication.onCreate()V",
      "targetMethod": "java.lang.ClassLoader.loadClass(Ljava/lang/String;)Ljava/lang/Class;",
      "eventChain": [
        {
          "start": "com.khajaranawallpaper.PersonagraphApplication.onCreate()V",
          "target": "invokevirtual \u003c Application, Ljava/lang/ClassLoader, loadClass(Ljava/lang/String;)Ljava/lang/Class; \u003e@69",
          "type": ""
        }
      ]
    },
    "6": {
      "startMethod": "com.google.android.gms.maps.MapFragment.onCreate(Landroid/os/Bundle;)V",
      "targetMethod": "java.lang.ClassLoader.loadClass(Ljava/lang/String;)Ljava/lang/Class;",
      "eventChain": [
        {
          "start": "com.google.android.gms.maps.MapFragment.onCreate(Landroid/os/Bundle;)V",
          "target": "invokevirtual \u003c Application, Ljava/lang/ClassLoader, loadClass(Ljava/lang/String;)Ljava/lang/Class; \u003e@13",
          "type": "",
          "constraintsFile": "constraints6_0.py",
          "variables": {
            "\u003cChainedInput1\u003e": "IAAv2"
          },
          "stringMap": {},
          "strings": {}
        }
      ]
    },
    "7": {
      "startMethod": "com.google.android.gms.maps.MapFragment.onAttach(Landroid/app/Activity;)V",
      "targetMethod": "java.lang.ClassLoader.loadClass(Ljava/lang/String;)Ljava/lang/Class;",
      "eventChain": [
        {
          "start": "com.google.android.gms.maps.MapFragment.onResume()V",
          "target": "",
          "type": "",
          "constraintsFile": "constraints7_0.py",
          "variables": {},
          "stringMap": {},
          "strings": {}
        },
        {
          "start": "com.google.android.gms.maps.MapFragment.onAttach(Landroid/app/Activity;)V",
          "target": "invokevirtual \u003c Application, Ljava/lang/ClassLoader, loadClass(Ljava/lang/String;)Ljava/lang/Class; \u003e@13",
          "type": "",
          "constraintsFile": "constraints7_1.py",
          "variables": {},
          "stringMap": {},
          "strings": {}
        }
      ]
    },
    "8": {
      "startMethod": "com.google.android.gms.maps.MapFragment.onCreateView(Landroid/view/LayoutInflater;Landroid/view/ViewGroup;Landroid/os/Bundle;)Landroid/view/View;",
      "targetMethod": "java.lang.ClassLoader.loadClass(Ljava/lang/String;)Ljava/lang/Class;",
      "eventChain": [
        {
          "start": "com.google.android.gms.maps.MapFragment.onCreateView(Landroid/view/LayoutInflater;Landroid/view/ViewGroup;Landroid/os/Bundle;)Landroid/view/View;",
          "target": "invokevirtual \u003c Application, Ljava/lang/ClassLoader, loadClass(Ljava/lang/String;)Ljava/lang/Class; \u003e@13",
          "type": "",
          "constraintsFile": "constraints8_0.py",
          "variables": {
            "\u003cChainedInput3\u003e": "IAAv2"
          },
          "stringMap": {},
          "strings": {}
        }
      ]
    },
    "9": {
      "startMethod": "com.personagraph.sensor.service.SensorService$CommandReceiver.onReceive(Landroid/content/Context;Landroid/content/Intent;)V",
      "targetMethod": "java.net.URL.openConnection()Ljava/net/URLConnection;",
      "eventChain": [
        {
          "start": "com.personagraph.sensor.service.SensorService.onCreate()V",
          "target": "invokespecial \u003c Application, Landroid/content/BroadcastReceiver, \u003cinit\u003e()V \u003e@7",
          "type": "service",
          "component": "com.personagraph.sensor.service.SensorService"
        },
        {
          "start": "com.personagraph.sensor.service.SensorService$CommandReceiver.onReceive(Landroid/content/Context;Landroid/content/Intent;)V",
          "target": "invokevirtual \u003c Application, Ljava/net/URL, openConnection()Ljava/net/URLConnection; \u003e@50",
          "type": "sms",
          "constraintsFile": "constraints9_0.py",
          "variables": {
            "\u003cChainedInput2\u003e.getAction()": "IAAv0"
          },
          "stringMap": {
            "7000": "com.personagraph.SensorService",
            "7001": "com.personagraph.api.debug.LogActivity",
            "7002": "com.pg.SAVE_LOGS",
            "7003": "com.pg.SEND_DEV_INFO"
          },
          "strings": {
            "IAAv0": ""
          }
        }
      ]
    },
    "10": {
      "startMethod": "com.personagraph.api.a.onReceive(Landroid/content/Context;Landroid/content/Intent;)V",
      "targetMethod": "java.lang.ClassLoader.loadClass(Ljava/lang/String;)Ljava/lang/Class;",
      "eventChain": [
        {
          "start": "com.khajaranawallpaper.PersonagraphApplication.onCreate()V",
          "target": "invokevirtual \u003c Application, Landroid/app/Application, registerReceiver(Landroid/content/BroadcastReceiver;Landroid/content/IntentFilter;)Landroid/content/Intent; \u003e@1113",
          "type": ""
        },
        {
          "start": "com.personagraph.api.a.onReceive(Landroid/content/Context;Landroid/content/Intent;)V",
          "target": "invokevirtual \u003c Application, Ljava/lang/ClassLoader, loadClass(Ljava/lang/String;)Ljava/lang/Class; \u003e@59",
          "type": "sms",
          "constraintsFile": "constraints10_0.py",
          "variables": {
            "\u003cInput2\u003e.getAction()": "IAAv0",
            "\u003cInput2\u003e.getStringExtra()": "IAAv6",
            "\u003cInput1\u003e.getPackageName()": "IAAv5"
          },
          "stringMap": {
            "7000": "com.pg.DISABLE_LOGS",
            "7001": "com.pg.ENABLE_LOGS",
            "7002": "android.intent.action.ACTION_SHUTDOWN",
            "7003": "com.pg.VERIFY_AD_ID"
          },
          "strings": {
            "IAAv0": "",
            "IAAv6": "",
            "IAAv5": ""
          }
        }
      ]
    },
    "11": {
      "startMethod": "com.personagraph.api.a.onReceive(Landroid/content/Context;Landroid/content/Intent;)V",
      "targetMethod": "java.net.URL.openConnection()Ljava/net/URLConnection;",
      "eventChain": [
        {
          "start": "com.khajaranawallpaper.PersonagraphApplication.onCreate()V",
          "target": "invokevirtual \u003c Application, Landroid/app/Application, registerReceiver(Landroid/content/BroadcastReceiver;Landroid/content/IntentFilter;)Landroid/content/Intent; \u003e@1113",
          "type": ""
        },
        {
          "start": "com.personagraph.api.a.onReceive(Landroid/content/Context;Landroid/content/Intent;)V",
          "target": "invokevirtual \u003c Application, Ljava/net/URL, openConnection()Ljava/net/URLConnection; \u003e@50",
          "type": "sms",
          "constraintsFile": "constraints11_0.py",
          "variables": {
            "\u003cInput2\u003e.getAction()": "IAAv0",
            "\u003cInput2\u003e.getStringExtra()": "IAAv6",
            "\u003cInput1\u003e.getPackageName()": "IAAv5"
          },
          "stringMap": {
            "7000": "com.pg.DISABLE_LOGS",
            "7001": "com.pg.ENABLE_LOGS",
            "7002": "android.intent.action.ACTION_SHUTDOWN",
            "7003": "com.pg.VERIFY_AD_ID"
          },
          "strings": {
            "IAAv0": "",
            "IAAv6": "",
            "IAAv5": ""
          }
        }
      ]
    },
    "12": {
      "startMethod": "com.personagraph.sensor.service.c.onReceive(Landroid/content/Context;Landroid/content/Intent;)V",
      "targetMethod": "java.net.URL.openConnection()Ljava/net/URLConnection;",
      "eventChain": [
        {
          "start": "com.personagraph.sensor.service.StartupReceiver.onReceive(Landroid/content/Context;Landroid/content/Intent;)V",
          "target": "invokevirtual \u003c Application, Landroid/content/Context, registerReceiver(Landroid/content/BroadcastReceiver;Landroid/content/IntentFilter;)Landroid/content/Intent; \u003e@295",
          "type": "sms",
          "constraintsFile": "constraints12_0.py",
          "variables": {
            "\u003cInput1\u003e.getApplicationContext().a()": "IAAv0"
          },
          "stringMap": {},
          "strings": {
            "IAAv0": ""
          }
        },
        {
          "start": "com.personagraph.sensor.service.StartupReceiver.onReceive(Landroid/content/Context;Landroid/content/Intent;)V",
          "target": "",
          "type": "sms",
          "constraintsFile": "constraints12_1.py",
          "variables": {
            "\u003cChainedInput1\u003e.a()": "IAAv4",
            "\u003cInput1\u003e.getApplicationContext().a()": "IAAv5",
            "\u003cChainedInput2\u003e.getAction()": "IAAv1",
            "\u003cInput1\u003e.getApplicationContext().e()": "IAAv6"
          },
          "stringMap": {},
          "strings": {
            "IAAv4": "",
            "IAAv1": "",
            "IAAv6": "",
            "IAAv5": ""
          }
        },
        {
          "start": "com.personagraph.sensor.service.c.\u003cinit\u003e()V",
          "target": "PC@9",
          "type": "",
          "constraintsFile": "constraints12_2.py",
          "variables": {
            "\u003cChainedInput1\u003e.a()": "IAAv4",
            "\u003cChainedInput2\u003e.getAction()": "IAAv1"
          },
          "stringMap": {},
          "strings": {
            "IAAv4": "",
            "IAAv1": ""
          }
        },
        {
          "start": "com.personagraph.sensor.service.c.onReceive(Landroid/content/Context;Landroid/content/Intent;)V",
          "target": "invokevirtual \u003c Application, Ljava/net/URL, openConnection()Ljava/net/URLConnection; \u003e@50",
          "type": "sms",
          "constraintsFile": "constraints12_3.py",
          "variables": {
            "\u003cChainedInput1\u003e.a()": "IAAv4",
            "\u003cChainedInput2\u003e.getAction()": "IAAv1"
          },
          "stringMap": {},
          "strings": {
            "IAAv4": "",
            "IAAv1": ""
          }
        }
      ]
    }
  }
}