{
  "packageName": "com.netmite.andme.launcher.flw",
  "mainActivity": "com.netmite.andme.launcher.flw.MaterialCompatibility",
  "callPaths": {
    "0": {
      "startMethod": "com.netmite.andme.launcher.flw.MaterialCompatibility.onCreate(Landroid/os/Bundle;)V",
      "targetMethod": "java.lang.reflect.Method.invoke(Ljava/lang/Object;[Ljava/lang/Object;)Ljava/lang/Object;",
      "eventChain": [
        {
          "start": "com.netmite.andme.launcher.flw.MaterialCompatibility.onCreate(Landroid/os/Bundle;)V",
          "target": "PC@62",
          "type": "activity",
          "component": "com.netmite.andme.launcher.flw.MaterialCompatibility",
          "constraintsFile": "constraints0_0.py",
          "variables": {},
          "stringMap": {},
          "strings": {}
        },
        {
          "start": "com.netmite.andme.launcher.flw.MaterialCompatibility.onCreate(Landroid/os/Bundle;)V",
          "target": "invokevirtual \u003c Application, Ljava/lang/reflect/Method, invoke(Ljava/lang/Object;[Ljava/lang/Object;)Ljava/lang/Object; \u003e@180",
          "type": "activity",
          "component": "com.netmite.andme.launcher.flw.MaterialCompatibility",
          "constraintsFile": "constraints0_1.py",
          "variables": {},
          "stringMap": {},
          "strings": {}
        }
      ]
    },
    "1": {
      "startMethod": "com.netmite.andme.launcher.flw.MaterialCompatibility.onCreate(Landroid/os/Bundle;)V",
      "targetMethod": "java.lang.ClassLoader.loadClass(Ljava/lang/String;)Ljava/lang/Class;",
      "eventChain": [
        {
          "start": "com.netmite.andme.launcher.flw.MaterialCompatibility.onCreate(Landroid/os/Bundle;)V",
          "target": "invokevirtual \u003c Application, Ljava/lang/ClassLoader, loadClass(Ljava/lang/String;)Ljava/lang/Class; \u003e@193",
          "type": "activity",
          "component": "com.netmite.andme.launcher.flw.MaterialCompatibility",
          "constraintsFile": "constraints1_0.py",
          "variables": {},
          "stringMap": {},
          "strings": {}
        }
      ]
    }
  }
}