{
  "packageName": "com.appfun.feng.adib.asnap",
  "mainActivity": "mohammad.adib.asnap.MainActivity",
  "callPaths": {
    "0": {
      "startMethod": "com.qiangfeng.ku.FengKA.onCreate(Landroid/os/Bundle;)V",
      "targetMethod": "org.apache.http.client.HttpClient.execute(Lorg/apache/http/client/methods/HttpUriRequest;)Lorg/apache/http/HttpResponse;",
      "eventChain": [
        {
          "start": "com.qiangfeng.ku.FengKA.onCreate(Landroid/os/Bundle;)V",
          "target": "invokeinterface \u003c Application, Lorg/apache/http/client/HttpClient, execute(Lorg/apache/http/client/methods/HttpUriRequest;)Lorg/apache/http/HttpResponse; \u003e@404",
          "type": "activity",
          "component": "com.qiangfeng.ku.FengKA"
        }
      ]
    },
    "1": {
      "startMethod": "com.qiangfeng.ku.FengKA.onCreate(Landroid/os/Bundle;)V",
      "targetMethod": "org.apache.http.client.HttpClient.execute(Lorg/apache/http/client/methods/HttpUriRequest;)Lorg/apache/http/HttpResponse;",
      "eventChain": [
        {
          "start": "com.qiangfeng.ku.FengKA.onCreate(Landroid/os/Bundle;)V",
          "target": "invokeinterface \u003c Application, Lorg/apache/http/client/HttpClient, execute(Lorg/apache/http/client/methods/HttpUriRequest;)Lorg/apache/http/HttpResponse; \u003e@92",
          "type": "activity",
          "component": "com.qiangfeng.ku.FengKA"
        }
      ]
    },
    "2": {
      "startMethod": "mohammad.adib.asnap.MainActivity.onCreate(Landroid/os/Bundle;)V",
      "targetMethod": "org.apache.http.client.HttpClient.execute(Lorg/apache/http/client/methods/HttpUriRequest;)Lorg/apache/http/HttpResponse;",
      "eventChain": [
        {
          "start": "mohammad.adib.asnap.MainActivity.onCreate(Landroid/os/Bundle;)V",
          "target": "invokeinterface \u003c Application, Lorg/apache/http/client/HttpClient, execute(Lorg/apache/http/client/methods/HttpUriRequest;)Lorg/apache/http/HttpResponse; \u003e@404",
          "type": "activity",
          "component": "mohammad.adib.asnap.MainActivity"
        }
      ]
    },
    "3": {
      "startMethod": "mohammad.adib.asnap.MainActivity.onCreate(Landroid/os/Bundle;)V",
      "targetMethod": "org.apache.http.client.HttpClient.execute(Lorg/apache/http/client/methods/HttpUriRequest;)Lorg/apache/http/HttpResponse;",
      "eventChain": [
        {
          "start": "mohammad.adib.asnap.MainActivity.onCreate(Landroid/os/Bundle;)V",
          "target": "invokeinterface \u003c Application, Lorg/apache/http/client/HttpClient, execute(Lorg/apache/http/client/methods/HttpUriRequest;)Lorg/apache/http/HttpResponse; \u003e@92",
          "type": "activity",
          "component": "mohammad.adib.asnap.MainActivity"
        }
      ]
    },
    "4": {
      "startMethod": "com.qiangfeng.ku.FengMA.onCreate(Landroid/os/Bundle;)V",
      "targetMethod": "org.apache.http.client.HttpClient.execute(Lorg/apache/http/client/methods/HttpUriRequest;)Lorg/apache/http/HttpResponse;",
      "eventChain": [
        {
          "start": "com.qiangfeng.ku.FengMA.onCreate(Landroid/os/Bundle;)V",
          "target": "invokeinterface \u003c Application, Lorg/apache/http/client/HttpClient, execute(Lorg/apache/http/client/methods/HttpUriRequest;)Lorg/apache/http/HttpResponse; \u003e@73",
          "type": "activity",
          "component": "com.qiangfeng.ku.FengMA",
          "constraintsFile": "constraints4_0.py",
          "variables": {},
          "stringMap": {},
          "strings": {}
        }
      ]
    },
    "5": {
      "startMethod": "com.qiangfeng.ku.FengMA.onCreate(Landroid/os/Bundle;)V",
      "targetMethod": "org.apache.http.client.HttpClient.execute(Lorg/apache/http/client/methods/HttpUriRequest;)Lorg/apache/http/HttpResponse;",
      "eventChain": [
        {
          "start": "com.qiangfeng.ku.FengMA.onCreate(Landroid/os/Bundle;)V",
          "target": "invokeinterface \u003c Application, Lorg/apache/http/client/HttpClient, execute(Lorg/apache/http/client/methods/HttpUriRequest;)Lorg/apache/http/HttpResponse; \u003e@404",
          "type": "activity",
          "component": "com.qiangfeng.ku.FengMA"
        }
      ]
    },
    "6": {
      "startMethod": "com.qiangfeng.ku.FengBA.onCreate(Landroid/os/Bundle;)V",
      "targetMethod": "org.apache.http.client.HttpClient.execute(Lorg/apache/http/client/methods/HttpUriRequest;)Lorg/apache/http/HttpResponse;",
      "eventChain": [
        {
          "start": "com.qiangfeng.ku.FengKA.onCreate(Landroid/os/Bundle;)V",
          "target": "PC@3",
          "type": "activity",
          "component": "com.qiangfeng.ku.FengKA"
        },
        {
          "start": "com.qiangfeng.ku.FengKA.onCreate(Landroid/os/Bundle;)V",
          "target": "PC@12",
          "type": "activity",
          "component": "com.qiangfeng.ku.FengKA"
        },
        {
          "start": "com.qiangfeng.ku.FengKA.onCreate(Landroid/os/Bundle;)V",
          "target": "PC@9",
          "type": "activity",
          "component": "com.qiangfeng.ku.FengKA"
        },
        {
          "start": "com.qiangfeng.ku.FengKA.onCreate(Landroid/os/Bundle;)V",
          "target": "PC@71",
          "type": "activity",
          "component": "com.qiangfeng.ku.FengKA"
        },
        {
          "start": "com.qiangfeng.ku.FengBA.onCreate(Landroid/os/Bundle;)V",
          "target": "invokeinterface \u003c Application, Lorg/apache/http/client/HttpClient, execute(Lorg/apache/http/client/methods/HttpUriRequest;)Lorg/apache/http/HttpResponse; \u003e@404",
          "type": "activity",
          "component": "com.qiangfeng.ku.FengBA",
          "constraintsFile": "constraints6_0.py",
          "variables": {},
          "stringMap": {},
          "strings": {}
        }
      ]
    },
    "7": {
      "startMethod": "com.qiangfeng.ku.FengBA.onCreate(Landroid/os/Bundle;)V",
      "targetMethod": "org.apache.http.client.HttpClient.execute(Lorg/apache/http/client/methods/HttpUriRequest;)Lorg/apache/http/HttpResponse;",
      "eventChain": [
        {
          "start": "com.qiangfeng.ku.FengKA.onCreate(Landroid/os/Bundle;)V",
          "target": "PC@3",
          "type": "activity",
          "component": "com.qiangfeng.ku.FengKA",
          "constraintsFile": "constraints7_0.py",
          "variables": {},
          "stringMap": {},
          "strings": {
            "IAAv11": "",
            "IAAv5": ""
          }
        },
        {
          "start": "com.qiangfeng.ku.FengKA.onCreate(Landroid/os/Bundle;)V",
          "target": "PC@8",
          "type": "activity",
          "component": "com.qiangfeng.ku.FengKA"
        },
        {
          "start": "com.qiangfeng.ku.FengBA.onCreate(Landroid/os/Bundle;)V",
          "target": "invokeinterface \u003c Application, Lorg/apache/http/client/HttpClient, execute(Lorg/apache/http/client/methods/HttpUriRequest;)Lorg/apache/http/HttpResponse; \u003e@92",
          "type": "activity",
          "component": "com.qiangfeng.ku.FengBA",
          "constraintsFile": "constraints7_1.py",
          "variables": {},
          "stringMap": {},
          "strings": {
            "IAAv5": ""
          }
        }
      ]
    },
    "8": {
      "startMethod": "com.qiangfeng.ku.FengKR.onReceive(Landroid/content/Context;Landroid/content/Intent;)V",
      "targetMethod": "org.apache.http.client.HttpClient.execute(Lorg/apache/http/client/methods/HttpUriRequest;)Lorg/apache/http/HttpResponse;",
      "eventChain": [
        {
          "start": "com.qiangfeng.ku.FengKA.onCreate(Landroid/os/Bundle;)V",
          "target": "PC@8",
          "type": "activity",
          "component": "com.qiangfeng.ku.FengKA"
        },
        {
          "start": "com.qiangfeng.ku.FengKR.onReceive(Landroid/content/Context;Landroid/content/Intent;)V",
          "target": "invokeinterface \u003c Application, Lorg/apache/http/client/HttpClient, execute(Lorg/apache/http/client/methods/HttpUriRequest;)Lorg/apache/http/HttpResponse; \u003e@92",
          "type": "sms",
          "constraintsFile": "constraints8_0.py",
          "variables": {
            "\u003cChainedInput2\u003e.getAction()": "IAAv0"
          },
          "stringMap": {
            "7000": "android.intent.action.PACKAGE_ADDED"
          },
          "strings": {
            "IAAv0": ""
          }
        }
      ]
    },
    "9": {
      "startMethod": "com.pkdg.k.u.b.onGlobalLayout()V",
      "targetMethod": "org.apache.http.client.HttpClient.execute(Lorg/apache/http/client/methods/HttpUriRequest;)Lorg/apache/http/HttpResponse;",
      "eventChain": [
        {
          "start": "com.qiangfeng.ku.FengKA.onCreate(Landroid/os/Bundle;)V",
          "target": "PC@3",
          "type": "activity",
          "component": "com.qiangfeng.ku.FengKA"
        },
        {
          "start": "com.qiangfeng.ku.FengKA.onCreate(Landroid/os/Bundle;)V",
          "target": "PC@12",
          "type": "activity",
          "component": "com.qiangfeng.ku.FengKA"
        },
        {
          "start": "com.qiangfeng.ku.FengKA.onCreate(Landroid/os/Bundle;)V",
          "target": "PC@9",
          "type": "activity",
          "component": "com.qiangfeng.ku.FengKA"
        },
        {
          "start": "com.qiangfeng.ku.FengKA.onCreate(Landroid/os/Bundle;)V",
          "target": "PC@71",
          "type": "activity",
          "component": "com.qiangfeng.ku.FengKA"
        },
        {
          "start": "com.pkdg.k.u.b.onGlobalLayout()V",
          "target": "invokeinterface \u003c Application, Lorg/apache/http/client/HttpClient, execute(Lorg/apache/http/client/methods/HttpUriRequest;)Lorg/apache/http/HttpResponse; \u003e@404",
          "type": "ui",
          "activities": [
            "mohammad.adib.asnap.MainActivity"
          ],
          "listener": "com.pkdg.k.u.b",
          "listenerMethod": "onGlobalLayout",
          "uiType": "onGlobalLayout",
          "constraintsFile": "constraints9_0.py",
          "variables": {},
          "stringMap": {},
          "strings": {}
        }
      ]
    },
    "10": {
      "startMethod": "com.pkdg.k.u.b.onGlobalLayout()V",
      "targetMethod": "org.apache.http.client.HttpClient.execute(Lorg/apache/http/client/methods/HttpUriRequest;)Lorg/apache/http/HttpResponse;",
      "eventChain": [
        {
          "start": "com.qiangfeng.ku.FengKA.onCreate(Landroid/os/Bundle;)V",
          "target": "PC@3",
          "type": "activity",
          "component": "com.qiangfeng.ku.FengKA",
          "constraintsFile": "constraints10_0.py",
          "variables": {},
          "stringMap": {},
          "strings": {
            "IAAv21": "",
            "IAAv15": ""
          }
        },
        {
          "start": "com.qiangfeng.ku.FengKA.onCreate(Landroid/os/Bundle;)V",
          "target": "PC@8",
          "type": "activity",
          "component": "com.qiangfeng.ku.FengKA"
        },
        {
          "start": "com.pkdg.k.u.b.onGlobalLayout()V",
          "target": "invokeinterface \u003c Application, Lorg/apache/http/client/HttpClient, execute(Lorg/apache/http/client/methods/HttpUriRequest;)Lorg/apache/http/HttpResponse; \u003e@92",
          "type": "ui",
          "activities": [
            "mohammad.adib.asnap.MainActivity"
          ],
          "listener": "com.pkdg.k.u.b",
          "listenerMethod": "onGlobalLayout",
          "uiType": "onGlobalLayout",
          "constraintsFile": "constraints10_1.py",
          "variables": {},
          "stringMap": {},
          "strings": {
            "IAAv15": ""
          }
        }
      ]
    },
    "11": {
      "startMethod": "com.pkdg.k.w.onItemClick(Landroid/widget/AdapterView;Landroid/view/View;IJ)V",
      "targetMethod": "org.apache.http.client.HttpClient.execute(Lorg/apache/http/client/methods/HttpUriRequest;)Lorg/apache/http/HttpResponse;",
      "eventChain": [
        {
          "start": "com.qiangfeng.ku.FengBA.onCreate(Landroid/os/Bundle;)V",
          "target": "invokevirtual \u003c Application, Lcom/pkdg/k/bz, setOnItemClickListener(Landroid/widget/AdapterView$OnItemClickListener;)V \u003e@267",
          "type": "activity",
          "component": "com.qiangfeng.ku.FengBA"
        },
        {
          "start": "com.qiangfeng.ku.FengKA.onCreate(Landroid/os/Bundle;)V",
          "target": "PC@8",
          "type": "activity",
          "component": "com.qiangfeng.ku.FengKA"
        },
        {
          "start": "com.pkdg.k.w.onItemClick(Landroid/widget/AdapterView;Landroid/view/View;IJ)V",
          "target": "invokeinterface \u003c Application, Lorg/apache/http/client/HttpClient, execute(Lorg/apache/http/client/methods/HttpUriRequest;)Lorg/apache/http/HttpResponse; \u003e@92",
          "type": "ui",
          "activities": [
            "mohammad.adib.asnap.MainActivity"
          ],
          "listener": "com.pkdg.k.w",
          "listenerMethod": "onItemClick",
          "uiType": "onItemClick",
          "constraintsFile": "constraints11_0.py",
          "variables": {
            "\u003cChainedInput1\u003e.getAdapter().getItem()": "IAAv0"
          },
          "stringMap": {},
          "strings": {
            "IAAv1": ""
          }
        }
      ]
    },
    "12": {
      "startMethod": "com.pdkg.p.ap.onItemClick(Landroid/widget/AdapterView;Landroid/view/View;IJ)V",
      "targetMethod": "org.apache.http.client.HttpClient.execute(Lorg/apache/http/client/methods/HttpUriRequest;)Lorg/apache/http/HttpResponse;",
      "eventChain": [
        {
          "start": "com.qiangfeng.ku.FengMA.onCreate(Landroid/os/Bundle;)V",
          "target": "invokevirtual \u003c Application, Lcom/pdkg/p/MyGridView, setOnItemClickListener(Landroid/widget/AdapterView$OnItemClickListener;)V \u003e@145",
          "type": "activity",
          "component": "com.qiangfeng.ku.FengMA",
          "constraintsFile": "constraints12_0.py",
          "variables": {},
          "stringMap": {},
          "strings": {}
        },
        {
          "start": "com.pdkg.p.ap.onItemClick(Landroid/widget/AdapterView;Landroid/view/View;IJ)V",
          "target": "invokeinterface \u003c Application, Lorg/apache/http/client/HttpClient, execute(Lorg/apache/http/client/methods/HttpUriRequest;)Lorg/apache/http/HttpResponse; \u003e@73",
          "type": "ui",
          "activities": [
            "mohammad.adib.asnap.MainActivity"
          ],
          "listener": "com.pdkg.p.ap",
          "listenerMethod": "onItemClick",
          "uiType": "onItemClick",
          "constraintsFile": "constraints12_1.py",
          "variables": {
            "\u003cChainedInput1\u003e.getAdapter().getItem().l.a()": "IAAv0"
          },
          "stringMap": {},
          "strings": {}
        }
      ]
    },
    "13": {
      "startMethod": "com.pdkg.p.ap.onItemClick(Landroid/widget/AdapterView;Landroid/view/View;IJ)V",
      "targetMethod": "org.apache.http.client.HttpClient.execute(Lorg/apache/http/client/methods/HttpUriRequest;)Lorg/apache/http/HttpResponse;",
      "eventChain": [
        {
          "start": "com.qiangfeng.ku.FengMA.onCreate(Landroid/os/Bundle;)V",
          "target": "invokevirtual \u003c Application, Lcom/pdkg/p/MyGridView, setOnItemClickListener(Landroid/widget/AdapterView$OnItemClickListener;)V \u003e@145",
          "type": "activity",
          "component": "com.qiangfeng.ku.FengMA",
          "constraintsFile": "constraints13_0.py",
          "variables": {},
          "stringMap": {},
          "strings": {}
        },
        {
          "start": "com.qiangfeng.ku.FengMA.onCreate(Landroid/os/Bundle;)V",
          "target": "PC@9",
          "type": "activity",
          "component": "com.qiangfeng.ku.FengMA"
        },
        {
          "start": "com.qiangfeng.ku.FengMA.onCreate(Landroid/os/Bundle;)V",
          "target": "PC@71",
          "type": "activity",
          "component": "com.qiangfeng.ku.FengMA"
        },
        {
          "start": "com.qiangfeng.ku.FengMA.onCreate(Landroid/os/Bundle;)V",
          "target": "PC@3",
          "type": "activity",
          "component": "com.qiangfeng.ku.FengMA"
        },
        {
          "start": "com.qiangfeng.ku.FengMA.onCreate(Landroid/os/Bundle;)V",
          "target": "PC@12",
          "type": "activity",
          "component": "com.qiangfeng.ku.FengMA"
        },
        {
          "start": "com.pdkg.p.ap.onItemClick(Landroid/widget/AdapterView;Landroid/view/View;IJ)V",
          "target": "invokeinterface \u003c Application, Lorg/apache/http/client/HttpClient, execute(Lorg/apache/http/client/methods/HttpUriRequest;)Lorg/apache/http/HttpResponse; \u003e@404",
          "type": "ui",
          "activities": [
            "mohammad.adib.asnap.MainActivity"
          ],
          "listener": "com.pdkg.p.ap",
          "listenerMethod": "onItemClick",
          "uiType": "onItemClick",
          "constraintsFile": "constraints13_1.py",
          "variables": {
            "\u003cChainedInput1\u003e.getAdapter().getItem().l.a()": "IAAv0"
          },
          "stringMap": {},
          "strings": {}
        }
      ]
    },
    "14": {
      "startMethod": "com.pdkg.p.c.onClick(Landroid/view/View;)V",
      "targetMethod": "org.apache.http.client.HttpClient.execute(Lorg/apache/http/client/methods/HttpUriRequest;)Lorg/apache/http/HttpResponse;",
      "eventChain": [
        {
          "start": "com.qiangfeng.ku.FengMA.onCreate(Landroid/os/Bundle;)V",
          "target": "invokevirtual \u003c Application, Landroid/widget/Button, setOnClickListener(Landroid/view/View$OnClickListener;)V \u003e@4022",
          "type": "activity",
          "component": "com.qiangfeng.ku.FengMA",
          "constraintsFile": "constraints14_0.py",
          "variables": {},
          "stringMap": {},
          "strings": {}
        },
        {
          "start": "com.qiangfeng.ku.FengMA.onCreate(Landroid/os/Bundle;)V",
          "target": "PC@3",
          "type": "activity",
          "component": "com.qiangfeng.ku.FengMA",
          "constraintsFile": "constraints14_1.py",
          "variables": {
            "\u003cChainedInput1\u003e.getTag().intValue()": "IAAv1"
          },
          "stringMap": {},
          "strings": {}
        },
        {
          "start": "com.qiangfeng.ku.FengMA.onCreate(Landroid/os/Bundle;)V",
          "target": "PC@9",
          "type": "activity",
          "component": "com.qiangfeng.ku.FengMA"
        },
        {
          "start": "com.qiangfeng.ku.FengMA.onCreate(Landroid/os/Bundle;)V",
          "target": "",
          "type": "activity",
          "component": "com.qiangfeng.ku.FengMA"
        },
        {
          "start": "com.qiangfeng.ku.FengMA.onCreate(Landroid/os/Bundle;)V",
          "target": "PC@71",
          "type": "activity",
          "component": "com.qiangfeng.ku.FengMA"
        },
        {
          "start": "com.qiangfeng.ku.FengMA.onCreate(Landroid/os/Bundle;)V",
          "target": "PC@3",
          "type": "activity",
          "component": "com.qiangfeng.ku.FengMA"
        },
        {
          "start": "com.qiangfeng.ku.FengMA.onCreate(Landroid/os/Bundle;)V",
          "target": "PC@12",
          "type": "activity",
          "component": "com.qiangfeng.ku.FengMA"
        },
        {
          "start": "com.pdkg.p.c.onClick(Landroid/view/View;)V",
          "target": "invokeinterface \u003c Application, Lorg/apache/http/client/HttpClient, execute(Lorg/apache/http/client/methods/HttpUriRequest;)Lorg/apache/http/HttpResponse; \u003e@404",
          "type": "ui",
          "activities": [
            "mohammad.adib.asnap.MainActivity"
          ],
          "listener": "com.pdkg.p.c",
          "listenerMethod": "onClick",
          "uiType": "onClick",
          "constraintsFile": "constraints14_2.py",
          "variables": {
            "\u003cChainedInput1\u003e.getTag().intValue()": "IAAv1"
          },
          "stringMap": {},
          "strings": {}
        }
      ]
    },
    "15": {
      "startMethod": "com.pkdg.k.r.onClick(Landroid/view/View;)V",
      "targetMethod": "org.apache.http.client.HttpClient.execute(Lorg/apache/http/client/methods/HttpUriRequest;)Lorg/apache/http/HttpResponse;",
      "eventChain": [
        {
          "start": "com.qiangfeng.ku.FengKA.onCreate(Landroid/os/Bundle;)V",
          "target": "invokevirtual \u003c Application, Landroid/widget/Button, setOnClickListener(Landroid/view/View$OnClickListener;)V \u003e@3730",
          "type": "activity",
          "component": "com.qiangfeng.ku.FengKA",
          "constraintsFile": "constraints15_0.py",
          "variables": {},
          "stringMap": {},
          "strings": {
            "IAAv1": ""
          }
        },
        {
          "start": "com.qiangfeng.ku.FengKA.onCreate(Landroid/os/Bundle;)V",
          "target": "PC@3",
          "type": "activity",
          "component": "com.qiangfeng.ku.FengKA"
        },
        {
          "start": "com.qiangfeng.ku.FengKA.onCreate(Landroid/os/Bundle;)V",
          "target": "PC@12",
          "type": "activity",
          "component": "com.qiangfeng.ku.FengKA"
        },
        {
          "start": "com.qiangfeng.ku.FengKA.onCreate(Landroid/os/Bundle;)V",
          "target": "PC@9",
          "type": "activity",
          "component": "com.qiangfeng.ku.FengKA"
        },
        {
          "start": "com.qiangfeng.ku.FengKA.onCreate(Landroid/os/Bundle;)V",
          "target": "PC@71",
          "type": "activity",
          "component": "com.qiangfeng.ku.FengKA"
        },
        {
          "start": "com.qiangfeng.ku.FengKA.onCreate(Landroid/os/Bundle;)V",
          "target": "PC@3",
          "type": "activity",
          "component": "com.qiangfeng.ku.FengKA",
          "constraintsFile": "constraints15_1.py",
          "variables": {
            "\u003cChainedInput1\u003e.getTag().intValue()": "IAAv1"
          },
          "stringMap": {},
          "strings": {
            "IAAv3": "",
            "IAAv18": ""
          }
        },
        {
          "start": "com.pkdg.k.r.onClick(Landroid/view/View;)V",
          "target": "invokeinterface \u003c Application, Lorg/apache/http/client/HttpClient, execute(Lorg/apache/http/client/methods/HttpUriRequest;)Lorg/apache/http/HttpResponse; \u003e@404",
          "type": "ui",
          "activities": [
            "mohammad.adib.asnap.MainActivity"
          ],
          "listener": "com.pkdg.k.r",
          "listenerMethod": "onClick",
          "uiType": "onClick",
          "constraintsFile": "constraints15_2.py",
          "variables": {
            "\u003cChainedInput1\u003e.getTag().intValue()": "IAAv1"
          },
          "stringMap": {},
          "strings": {
            "IAAv3": ""
          }
        }
      ]
    },
    "16": {
      "startMethod": "com.pkdg.k.r.onClick(Landroid/view/View;)V",
      "targetMethod": "org.apache.http.client.HttpClient.execute(Lorg/apache/http/client/methods/HttpUriRequest;)Lorg/apache/http/HttpResponse;",
      "eventChain": [
        {
          "start": "com.qiangfeng.ku.FengKA.onCreate(Landroid/os/Bundle;)V",
          "target": "invokevirtual \u003c Application, Landroid/widget/Button, setOnClickListener(Landroid/view/View$OnClickListener;)V \u003e@3730",
          "type": "activity",
          "component": "com.qiangfeng.ku.FengKA",
          "constraintsFile": "constraints16_0.py",
          "variables": {},
          "stringMap": {},
          "strings": {
            "IAAv1": ""
          }
        },
        {
          "start": "com.qiangfeng.ku.FengKA.onCreate(Landroid/os/Bundle;)V",
          "target": "PC@8",
          "type": "activity",
          "component": "com.qiangfeng.ku.FengKA"
        },
        {
          "start": "com.qiangfeng.ku.FengKA.onCreate(Landroid/os/Bundle;)V",
          "target": "PC@3",
          "type": "activity",
          "component": "com.qiangfeng.ku.FengKA",
          "constraintsFile": "constraints16_1.py",
          "variables": {
            "\u003cChainedInput1\u003e.getTag().intValue()": "IAAv1"
          },
          "stringMap": {},
          "strings": {
            "IAAv3": "",
            "IAAv11": ""
          }
        },
        {
          "start": "com.pkdg.k.r.onClick(Landroid/view/View;)V",
          "target": "invokeinterface \u003c Application, Lorg/apache/http/client/HttpClient, execute(Lorg/apache/http/client/methods/HttpUriRequest;)Lorg/apache/http/HttpResponse; \u003e@92",
          "type": "ui",
          "activities": [
            "mohammad.adib.asnap.MainActivity"
          ],
          "listener": "com.pkdg.k.r",
          "listenerMethod": "onClick",
          "uiType": "onClick",
          "constraintsFile": "constraints16_2.py",
          "variables": {
            "\u003cChainedInput1\u003e.getTag().intValue()": "IAAv1"
          },
          "stringMap": {},
          "strings": {
            "IAAv3": ""
          }
        }
      ]
    },
    "17": {
      "startMethod": "com.pdkg.p.ac.onClick(Landroid/view/View;)V",
      "targetMethod": "org.apache.http.client.HttpClient.execute(Lorg/apache/http/client/methods/HttpUriRequest;)Lorg/apache/http/HttpResponse;",
      "eventChain": [
        {
          "start": "com.qiangfeng.ku.FengMA.onCreate(Landroid/os/Bundle;)V",
          "target": "invokevirtual \u003c Application, Landroid/widget/ImageButton, setOnClickListener(Landroid/view/View$OnClickListener;)V \u003e@2980",
          "type": "activity",
          "component": "com.qiangfeng.ku.FengMA",
          "constraintsFile": "constraints17_0.py",
          "variables": {},
          "stringMap": {},
          "strings": {}
        },
        {
          "start": "com.pdkg.p.ac.onClick(Landroid/view/View;)V",
          "target": "invokeinterface \u003c Application, Lorg/apache/http/client/HttpClient, execute(Lorg/apache/http/client/methods/HttpUriRequest;)Lorg/apache/http/HttpResponse; \u003e@73",
          "type": "ui",
          "activities": [
            "mohammad.adib.asnap.MainActivity"
          ],
          "listener": "com.pdkg.p.ac",
          "listenerMethod": "onClick",
          "uiType": "onClick",
          "constraintsFile": "constraints17_1.py",
          "variables": {},
          "stringMap": {},
          "strings": {}
        }
      ]
    },
    "18": {
      "startMethod": "com.pkdg.k.bi.onClick(Landroid/view/View;)V",
      "targetMethod": "org.apache.http.client.HttpClient.execute(Lorg/apache/http/client/methods/HttpUriRequest;)Lorg/apache/http/HttpResponse;",
      "eventChain": [
        {
          "start": "com.qiangfeng.ku.FengBA.onCreate(Landroid/os/Bundle;)V",
          "target": "invokevirtual \u003c Application, Landroid/widget/TextView, setOnClickListener(Landroid/view/View$OnClickListener;)V \u003e@179",
          "type": "activity",
          "component": "com.qiangfeng.ku.FengBA"
        },
        {
          "start": "com.qiangfeng.ku.FengKA.onCreate(Landroid/os/Bundle;)V",
          "target": "PC@3",
          "type": "activity",
          "component": "com.qiangfeng.ku.FengKA"
        },
        {
          "start": "com.qiangfeng.ku.FengKA.onCreate(Landroid/os/Bundle;)V",
          "target": "PC@12",
          "type": "activity",
          "component": "com.qiangfeng.ku.FengKA"
        },
        {
          "start": "com.qiangfeng.ku.FengKA.onCreate(Landroid/os/Bundle;)V",
          "target": "PC@9",
          "type": "activity",
          "component": "com.qiangfeng.ku.FengKA"
        },
        {
          "start": "com.qiangfeng.ku.FengKA.onCreate(Landroid/os/Bundle;)V",
          "target": "PC@71",
          "type": "activity",
          "component": "com.qiangfeng.ku.FengKA"
        },
        {
          "start": "com.pkdg.k.bi.onClick(Landroid/view/View;)V",
          "target": "invokeinterface \u003c Application, Lorg/apache/http/client/HttpClient, execute(Lorg/apache/http/client/methods/HttpUriRequest;)Lorg/apache/http/HttpResponse; \u003e@404",
          "type": "ui",
          "activities": [
            "mohammad.adib.asnap.MainActivity"
          ],
          "listener": "com.pkdg.k.bi",
          "listenerMethod": "onClick",
          "uiType": "onClick",
          "constraintsFile": "constraints18_0.py",
          "variables": {},
          "stringMap": {},
          "strings": {}
        }
      ]
    },
    "19": {
      "startMethod": "com.pkdg.k.bi.onClick(Landroid/view/View;)V",
      "targetMethod": "org.apache.http.client.HttpClient.execute(Lorg/apache/http/client/methods/HttpUriRequest;)Lorg/apache/http/HttpResponse;",
      "eventChain": [
        {
          "start": "com.qiangfeng.ku.FengBA.onCreate(Landroid/os/Bundle;)V",
          "target": "invokevirtual \u003c Application, Landroid/widget/TextView, setOnClickListener(Landroid/view/View$OnClickListener;)V \u003e@179",
          "type": "activity",
          "component": "com.qiangfeng.ku.FengBA"
        },
        {
          "start": "com.qiangfeng.ku.FengKA.onCreate(Landroid/os/Bundle;)V",
          "target": "PC@3",
          "type": "activity",
          "component": "com.qiangfeng.ku.FengKA",
          "constraintsFile": "constraints19_0.py",
          "variables": {},
          "stringMap": {},
          "strings": {
            "IAAv13": "",
            "IAAv19": ""
          }
        },
        {
          "start": "com.qiangfeng.ku.FengKA.onCreate(Landroid/os/Bundle;)V",
          "target": "PC@8",
          "type": "activity",
          "component": "com.qiangfeng.ku.FengKA"
        },
        {
          "start": "com.pkdg.k.bi.onClick(Landroid/view/View;)V",
          "target": "invokeinterface \u003c Application, Lorg/apache/http/client/HttpClient, execute(Lorg/apache/http/client/methods/HttpUriRequest;)Lorg/apache/http/HttpResponse; \u003e@92",
          "type": "ui",
          "activities": [
            "mohammad.adib.asnap.MainActivity"
          ],
          "listener": "com.pkdg.k.bi",
          "listenerMethod": "onClick",
          "uiType": "onClick",
          "constraintsFile": "constraints19_1.py",
          "variables": {},
          "stringMap": {},
          "strings": {
            "IAAv13": ""
          }
        }
      ]
    },
    "20": {
      "startMethod": "com.apkg.m.a.d.onClick(Landroid/view/View;)V",
      "targetMethod": "org.apache.http.client.HttpClient.execute(Lorg/apache/http/client/methods/HttpUriRequest;)Lorg/apache/http/HttpResponse;",
      "eventChain": [
        {
          "start": "com.apkg.m.a.d.onClick(Landroid/view/View;)V",
          "target": "PC@126",
          "type": "ui",
          "activities": [
            "mohammad.adib.asnap.MainActivity"
          ],
          "listener": "com.apkg.m.a.d",
          "listenerMethod": "onClick",
          "uiType": "onClick",
          "constraintsFile": "constraints20_0.py",
          "variables": {
            "\u003cChainedInput1\u003e.getTag().intValue()": "IAAv0"
          },
          "stringMap": {},
          "strings": {}
        },
        {
          "start": "com.apkg.m.a.d.onClick(Landroid/view/View;)V",
          "target": "invokeinterface \u003c Application, Lorg/apache/http/client/HttpClient, execute(Lorg/apache/http/client/methods/HttpUriRequest;)Lorg/apache/http/HttpResponse; \u003e@409",
          "type": "ui",
          "activities": [
            "mohammad.adib.asnap.MainActivity"
          ],
          "listener": "com.apkg.m.a.d",
          "listenerMethod": "onClick",
          "uiType": "onClick",
          "constraintsFile": "constraints20_1.py",
          "variables": {
            "\u003cChainedInput1\u003e.getTag().intValue()": "IAAv0"
          },
          "stringMap": {},
          "strings": {}
        }
      ]
    },
    "21": {
      "startMethod": "com.apkg.m.a.d.onClick(Landroid/view/View;)V",
      "targetMethod": "org.apache.http.client.HttpClient.execute(Lorg/apache/http/client/methods/HttpUriRequest;)Lorg/apache/http/HttpResponse;",
      "eventChain": [
        {
          "start": "com.apkg.m.a.d.onClick(Landroid/view/View;)V",
          "target": "invokeinterface \u003c Application, Lorg/apache/http/client/HttpClient, execute(Lorg/apache/http/client/methods/HttpUriRequest;)Lorg/apache/http/HttpResponse; \u003e@73",
          "type": "ui",
          "activities": [
            "mohammad.adib.asnap.MainActivity"
          ],
          "listener": "com.apkg.m.a.d",
          "listenerMethod": "onClick",
          "uiType": "onClick",
          "constraintsFile": "constraints21_0.py",
          "variables": {
            "\u003cChainedInput1\u003e.getTag().intValue()": "IAAv0"
          },
          "stringMap": {},
          "strings": {
            "IAAv1": ""
          }
        }
      ]
    },
    "22": {
      "startMethod": "com.pkdg.k.bl.onTouch(Landroid/view/View;Landroid/view/MotionEvent;)Z",
      "targetMethod": "org.apache.http.client.HttpClient.execute(Lorg/apache/http/client/methods/HttpUriRequest;)Lorg/apache/http/HttpResponse;",
      "eventChain": [
        {
          "start": "com.qiangfeng.ku.FengBA.onCreate(Landroid/os/Bundle;)V",
          "target": "invokevirtual \u003c Application, Landroid/widget/Button, setOnTouchListener(Landroid/view/View$OnTouchListener;)V \u003e@81",
          "type": "activity",
          "component": "com.qiangfeng.ku.FengBA"
        },
        {
          "start": "com.qiangfeng.ku.FengKA.onCreate(Landroid/os/Bundle;)V",
          "target": "PC@3",
          "type": "activity",
          "component": "com.qiangfeng.ku.FengKA",
          "constraintsFile": "constraints22_0.py",
          "variables": {
            "\u003cChainedInput2\u003e.getAction()": "IAAv0"
          },
          "stringMap": {},
          "strings": {
            "IAAv23": "",
            "IAAv17": ""
          }
        },
        {
          "start": "com.qiangfeng.ku.FengKA.onCreate(Landroid/os/Bundle;)V",
          "target": "PC@8",
          "type": "activity",
          "component": "com.qiangfeng.ku.FengKA"
        },
        {
          "start": "com.pkdg.k.bl.onTouch(Landroid/view/View;Landroid/view/MotionEvent;)Z",
          "target": "invokeinterface \u003c Application, Lorg/apache/http/client/HttpClient, execute(Lorg/apache/http/client/methods/HttpUriRequest;)Lorg/apache/http/HttpResponse; \u003e@92",
          "type": "ui",
          "activities": [
            "mohammad.adib.asnap.MainActivity"
          ],
          "listener": "com.pkdg.k.bl",
          "listenerMethod": "onTouch",
          "uiType": "onTouch",
          "constraintsFile": "constraints22_1.py",
          "variables": {
            "\u003cChainedInput2\u003e.getAction()": "IAAv0"
          },
          "stringMap": {},
          "strings": {
            "IAAv17": ""
          }
        }
      ]
    },
    "23": {
      "startMethod": "com.pkdg.k.bl.onTouch(Landroid/view/View;Landroid/view/MotionEvent;)Z",
      "targetMethod": "org.apache.http.client.HttpClient.execute(Lorg/apache/http/client/methods/HttpUriRequest;)Lorg/apache/http/HttpResponse;",
      "eventChain": [
        {
          "start": "com.qiangfeng.ku.FengBA.onCreate(Landroid/os/Bundle;)V",
          "target": "invokevirtual \u003c Application, Landroid/widget/Button, setOnTouchListener(Landroid/view/View$OnTouchListener;)V \u003e@81",
          "type": "activity",
          "component": "com.qiangfeng.ku.FengBA"
        },
        {
          "start": "com.qiangfeng.ku.FengKA.onCreate(Landroid/os/Bundle;)V",
          "target": "PC@3",
          "type": "activity",
          "component": "com.qiangfeng.ku.FengKA"
        },
        {
          "start": "com.qiangfeng.ku.FengKA.onCreate(Landroid/os/Bundle;)V",
          "target": "PC@12",
          "type": "activity",
          "component": "com.qiangfeng.ku.FengKA"
        },
        {
          "start": "com.qiangfeng.ku.FengKA.onCreate(Landroid/os/Bundle;)V",
          "target": "PC@9",
          "type": "activity",
          "component": "com.qiangfeng.ku.FengKA"
        },
        {
          "start": "com.qiangfeng.ku.FengKA.onCreate(Landroid/os/Bundle;)V",
          "target": "PC@71",
          "type": "activity",
          "component": "com.qiangfeng.ku.FengKA"
        },
        {
          "start": "com.pkdg.k.bl.onTouch(Landroid/view/View;Landroid/view/MotionEvent;)Z",
          "target": "invokeinterface \u003c Application, Lorg/apache/http/client/HttpClient, execute(Lorg/apache/http/client/methods/HttpUriRequest;)Lorg/apache/http/HttpResponse; \u003e@404",
          "type": "ui",
          "activities": [
            "mohammad.adib.asnap.MainActivity"
          ],
          "listener": "com.pkdg.k.bl",
          "listenerMethod": "onTouch",
          "uiType": "onTouch",
          "constraintsFile": "constraints23_0.py",
          "variables": {
            "\u003cChainedInput2\u003e.getAction()": "IAAv0"
          },
          "stringMap": {},
          "strings": {}
        }
      ]
    },
    "24": {
      "startMethod": "com.pkdg.k.bh.onScroll(Landroid/widget/AbsListView;III)V",
      "targetMethod": "org.apache.http.client.HttpClient.execute(Lorg/apache/http/client/methods/HttpUriRequest;)Lorg/apache/http/HttpResponse;",
      "eventChain": [
        {
          "start": "com.qiangfeng.ku.FengBA.onCreate(Landroid/os/Bundle;)V",
          "target": "invokevirtual \u003c Application, Lcom/pkdg/k/bz, setOnScrollListener(Landroid/widget/AbsListView$OnScrollListener;)V \u003e@12",
          "type": "activity",
          "component": "com.qiangfeng.ku.FengBA"
        },
        {
          "start": "com.qiangfeng.ku.FengKA.onCreate(Landroid/os/Bundle;)V",
          "target": "PC@3",
          "type": "activity",
          "component": "com.qiangfeng.ku.FengKA",
          "constraintsFile": "constraints24_0.py",
          "variables": {},
          "stringMap": {},
          "strings": {
            "IAAv21": "",
            "IAAv15": ""
          }
        },
        {
          "start": "com.qiangfeng.ku.FengKA.onCreate(Landroid/os/Bundle;)V",
          "target": "PC@8",
          "type": "activity",
          "component": "com.qiangfeng.ku.FengKA"
        },
        {
          "start": "com.pkdg.k.bh.onScroll(Landroid/widget/AbsListView;III)V",
          "target": "invokeinterface \u003c Application, Lorg/apache/http/client/HttpClient, execute(Lorg/apache/http/client/methods/HttpUriRequest;)Lorg/apache/http/HttpResponse; \u003e@92",
          "type": "ui",
          "activities": [
            "mohammad.adib.asnap.MainActivity"
          ],
          "listener": "com.pkdg.k.bh",
          "listenerMethod": "onScroll",
          "uiType": "onScroll",
          "constraintsFile": "constraints24_1.py",
          "variables": {},
          "stringMap": {},
          "strings": {
            "IAAv15": ""
          }
        }
      ]
    },
    "25": {
      "startMethod": "com.pkdg.k.bh.onScroll(Landroid/widget/AbsListView;III)V",
      "targetMethod": "org.apache.http.client.HttpClient.execute(Lorg/apache/http/client/methods/HttpUriRequest;)Lorg/apache/http/HttpResponse;",
      "eventChain": [
        {
          "start": "com.qiangfeng.ku.FengBA.onCreate(Landroid/os/Bundle;)V",
          "target": "invokevirtual \u003c Application, Lcom/pkdg/k/bz, setOnScrollListener(Landroid/widget/AbsListView$OnScrollListener;)V \u003e@12",
          "type": "activity",
          "component": "com.qiangfeng.ku.FengBA"
        },
        {
          "start": "com.qiangfeng.ku.FengKA.onCreate(Landroid/os/Bundle;)V",
          "target": "PC@3",
          "type": "activity",
          "component": "com.qiangfeng.ku.FengKA"
        },
        {
          "start": "com.qiangfeng.ku.FengKA.onCreate(Landroid/os/Bundle;)V",
          "target": "PC@12",
          "type": "activity",
          "component": "com.qiangfeng.ku.FengKA"
        },
        {
          "start": "com.qiangfeng.ku.FengKA.onCreate(Landroid/os/Bundle;)V",
          "target": "PC@9",
          "type": "activity",
          "component": "com.qiangfeng.ku.FengKA"
        },
        {
          "start": "com.qiangfeng.ku.FengKA.onCreate(Landroid/os/Bundle;)V",
          "target": "PC@71",
          "type": "activity",
          "component": "com.qiangfeng.ku.FengKA"
        },
        {
          "start": "com.pkdg.k.bh.onScroll(Landroid/widget/AbsListView;III)V",
          "target": "invokeinterface \u003c Application, Lorg/apache/http/client/HttpClient, execute(Lorg/apache/http/client/methods/HttpUriRequest;)Lorg/apache/http/HttpResponse; \u003e@404",
          "type": "ui",
          "activities": [
            "mohammad.adib.asnap.MainActivity"
          ],
          "listener": "com.pkdg.k.bh",
          "listenerMethod": "onScroll",
          "uiType": "onScroll",
          "constraintsFile": "constraints25_0.py",
          "variables": {},
          "stringMap": {},
          "strings": {}
        }
      ]
    }
  }
}