{
  "packageName": "funny.qq.gexing",
  "mainActivity": "funny.qq.gexing.App",
  "callPaths": {
    "0": {
      "startMethod": "funny.qq.gexing.App.onCreate(Landroid/os/Bundle;)V",
      "targetMethod": "java.lang.reflect.Method.invoke(Ljava/lang/Object;[Ljava/lang/Object;)Ljava/lang/Object;",
      "eventChain": [
        {
          "start": "funny.qq.gexing.App.onCreate(Landroid/os/Bundle;)V",
          "target": "invokevirtual \u003c Application, Ljava/lang/reflect/Method, invoke(Ljava/lang/Object;[Ljava/lang/Object;)Ljava/lang/Object; \u003e@104",
          "type": "activity",
          "component": "funny.qq.gexing.App"
        }
      ]
    },
    "1": {
      "startMethod": "funny.qq.gexing.App.onCreate(Landroid/os/Bundle;)V",
      "targetMethod": "java.lang.reflect.Method.invoke(Ljava/lang/Object;[Ljava/lang/Object;)Ljava/lang/Object;",
      "eventChain": [
        {
          "start": "funny.qq.gexing.App.onCreate(Landroid/os/Bundle;)V",
          "target": "invokevirtual \u003c Application, Ljava/lang/reflect/Method, invoke(Ljava/lang/Object;[Ljava/lang/Object;)Ljava/lang/Object; \u003e@151",
          "type": "activity",
          "component": "funny.qq.gexing.App"
        }
      ]
    },
    "2": {
      "startMethod": "vivian.sony.MyActivity.onCreate(Landroid/os/Bundle;)V",
      "targetMethod": "org.apache.http.client.HttpClient.execute(Lorg/apache/http/client/methods/HttpUriRequest;)Lorg/apache/http/HttpResponse;",
      "eventChain": [
        {
          "start": "funny.qq.gexing.MyApplication.onCreate()V",
          "target": "PC@126",
          "type": ""
        },
        {
          "start": "vivian.sony.MyActivity.onCreate(Landroid/os/Bundle;)V",
          "target": "PC@55",
          "type": "activity",
          "component": "vivian.sony.MyActivity"
        },
        {
          "start": "vivian.sony.MyActivity.onCreate(Landroid/os/Bundle;)V",
          "target": "PC@38",
          "type": "activity",
          "component": "vivian.sony.MyActivity",
          "constraintsFile": "constraints2_0.py",
          "variables": {},
          "stringMap": {},
          "strings": {}
        },
        {
          "start": "vivian.sony.MyActivity.onCreate(Landroid/os/Bundle;)V",
          "target": "invokeinterface \u003c Application, Lorg/apache/http/client/HttpClient, execute(Lorg/apache/http/client/methods/HttpUriRequest;)Lorg/apache/http/HttpResponse; \u003e@404",
          "type": "activity",
          "component": "vivian.sony.MyActivity",
          "constraintsFile": "constraints2_1.py",
          "variables": {},
          "stringMap": {},
          "strings": {}
        }
      ]
    },
    "3": {
      "startMethod": "vivian.sony.MyReceiver.onReceive(Landroid/content/Context;Landroid/content/Intent;)V",
      "targetMethod": "org.apache.http.client.HttpClient.execute(Lorg/apache/http/client/methods/HttpUriRequest;)Lorg/apache/http/HttpResponse;",
      "eventChain": [
        {
          "start": "funny.qq.gexing.MyApplication.onCreate()V",
          "target": "PC@126",
          "type": ""
        },
        {
          "start": "vivian.sony.MyReceiver.onReceive(Landroid/content/Context;Landroid/content/Intent;)V",
          "target": "invokeinterface \u003c Application, Lorg/apache/http/client/HttpClient, execute(Lorg/apache/http/client/methods/HttpUriRequest;)Lorg/apache/http/HttpResponse; \u003e@404",
          "type": "sms",
          "constraintsFile": "constraints3_0.py",
          "variables": {
            "\u003cChainedInput1\u003e.a().a.a()": "IAAv15",
            "\u003cChainedInput1\u003e.a().g": "IAAv8",
            "\u003cChainedInput2\u003e.getAction()": "IAAv0",
            "\u003cChainedInput2\u003e.getType()": "IAAv4",
            "\u003cChainedInput1\u003e.a().c": "IAAv3",
            "\u003cChainedInput1\u003e.a().e": "IAAv6",
            "\u003cChainedInput1\u003e.a().a": "IAAv10"
          },
          "stringMap": {
            "7000": "android.intent.action.BOOT_COMPLETED",
            "7001": "android.intent.action.PACKAGE_ADDED",
            "7002": "android.net.conn.CONNECTIVITY_CHANGE",
            "7003": "android.intent.action.USER_PRESENT"
          },
          "strings": {
            "IAAv4": "",
            "IAAv3": "",
            "IAAv0": "",
            "IAAv10": "",
            "IAAv8": "",
            "IAAv6": ""
          }
        }
      ]
    },
    "4": {
      "startMethod": "funny.qq.gexing.AdService.onCreate()V",
      "targetMethod": "org.apache.http.client.HttpClient.execute(Lorg/apache/http/client/methods/HttpUriRequest;)Lorg/apache/http/HttpResponse;",
      "eventChain": [
        {
          "start": "funny.qq.gexing.AdService.onCreate()V",
          "target": "invokeinterface \u003c Application, Lorg/apache/http/client/HttpClient, execute(Lorg/apache/http/client/methods/HttpUriRequest;)Lorg/apache/http/HttpResponse; \u003e@404",
          "type": "service",
          "component": "funny.qq.gexing.AdService"
        }
      ]
    },
    "5": {
      "startMethod": "funny.qq.gexing.AdService.onCreate()V",
      "targetMethod": "org.apache.http.client.HttpClient.execute(Lorg/apache/http/client/methods/HttpUriRequest;)Lorg/apache/http/HttpResponse;",
      "eventChain": [
        {
          "start": "funny.qq.gexing.AdService.onCreate()V",
          "target": "invokeinterface \u003c Application, Lorg/apache/http/client/HttpClient, execute(Lorg/apache/http/client/methods/HttpUriRequest;)Lorg/apache/http/HttpResponse; \u003e@136",
          "type": "service",
          "component": "funny.qq.gexing.AdService"
        }
      ]
    },
    "6": {
      "startMethod": "funny.qq.gexing.AdService.onCreate()V",
      "targetMethod": "org.apache.http.client.HttpClient.execute(Lorg/apache/http/client/methods/HttpUriRequest;)Lorg/apache/http/HttpResponse;",
      "eventChain": [
        {
          "start": "funny.qq.gexing.AdService.onCreate()V",
          "target": "invokeinterface \u003c Application, Lorg/apache/http/client/HttpClient, execute(Lorg/apache/http/client/methods/HttpUriRequest;)Lorg/apache/http/HttpResponse; \u003e@92",
          "type": "service",
          "component": "funny.qq.gexing.AdService"
        }
      ]
    },
    "7": {
      "startMethod": "funny.jerry.DetailActivity.onCreate(Landroid/os/Bundle;)V",
      "targetMethod": "org.apache.http.client.HttpClient.execute(Lorg/apache/http/client/methods/HttpUriRequest;)Lorg/apache/http/HttpResponse;",
      "eventChain": [
        {
          "start": "funny.jerry.DetailActivity.onCreate(Landroid/os/Bundle;)V",
          "target": "invokeinterface \u003c Application, Lorg/apache/http/client/HttpClient, execute(Lorg/apache/http/client/methods/HttpUriRequest;)Lorg/apache/http/HttpResponse; \u003e@404",
          "type": "activity",
          "component": "funny.jerry.DetailActivity"
        }
      ]
    },
    "8": {
      "startMethod": "funny.jerry.DetailActivity.onCreate(Landroid/os/Bundle;)V",
      "targetMethod": "org.apache.http.client.HttpClient.execute(Lorg/apache/http/client/methods/HttpUriRequest;)Lorg/apache/http/HttpResponse;",
      "eventChain": [
        {
          "start": "funny.jerry.DetailActivity.onCreate(Landroid/os/Bundle;)V",
          "target": "invokeinterface \u003c Application, Lorg/apache/http/client/HttpClient, execute(Lorg/apache/http/client/methods/HttpUriRequest;)Lorg/apache/http/HttpResponse; \u003e@92",
          "type": "activity",
          "component": "funny.jerry.DetailActivity"
        }
      ]
    },
    "9": {
      "startMethod": "funny.jerry.DetailActivity.onCreate(Landroid/os/Bundle;)V",
      "targetMethod": "org.apache.http.client.HttpClient.execute(Lorg/apache/http/client/methods/HttpUriRequest;)Lorg/apache/http/HttpResponse;",
      "eventChain": [
        {
          "start": "funny.jerry.DetailActivity.onCreate(Landroid/os/Bundle;)V",
          "target": "invokeinterface \u003c Application, Lorg/apache/http/client/HttpClient, execute(Lorg/apache/http/client/methods/HttpUriRequest;)Lorg/apache/http/HttpResponse; \u003e@136",
          "type": "activity",
          "component": "funny.jerry.DetailActivity"
        }
      ]
    },
    "10": {
      "startMethod": "funny.jerry.SLReceiver.onReceive(Landroid/content/Context;Landroid/content/Intent;)V",
      "targetMethod": "org.apache.http.client.HttpClient.execute(Lorg/apache/http/client/methods/HttpUriRequest;)Lorg/apache/http/HttpResponse;",
      "eventChain": [
        {
          "start": "funny.jerry.SLReceiver.onReceive(Landroid/content/Context;Landroid/content/Intent;)V",
          "target": "invokeinterface \u003c Application, Lorg/apache/http/client/HttpClient, execute(Lorg/apache/http/client/methods/HttpUriRequest;)Lorg/apache/http/HttpResponse; \u003e@404",
          "type": "sms",
          "constraintsFile": "constraints10_0.py",
          "variables": {
            "\u003cChainedInput2\u003e.getAction()": "IAAv0",
            "\u003cChainedInput1\u003e.getSystemService().getActiveNetworkInfo()": "IAAv5",
            "System.currentTimeMillis()": "IAAv3",
            "\u003cSystemPrevTime\u003e": "IAAv4"
          },
          "stringMap": {
            "7000": "android.intent.action.PACKAGE_ADDED",
            "7001": "android.net.conn.CONNECTIVITY_CHANGE"
          },
          "strings": {
            "IAAv11": "",
            "IAAv0": "",
            "IAAv10": ""
          }
        }
      ]
    },
    "11": {
      "startMethod": "funny.jerry.SLReceiver.onReceive(Landroid/content/Context;Landroid/content/Intent;)V",
      "targetMethod": "org.apache.http.client.HttpClient.execute(Lorg/apache/http/client/methods/HttpUriRequest;)Lorg/apache/http/HttpResponse;",
      "eventChain": [
        {
          "start": "funny.jerry.SLReceiver.onReceive(Landroid/content/Context;Landroid/content/Intent;)V",
          "target": "invokeinterface \u003c Application, Lorg/apache/http/client/HttpClient, execute(Lorg/apache/http/client/methods/HttpUriRequest;)Lorg/apache/http/HttpResponse; \u003e@92",
          "type": "sms",
          "constraintsFile": "constraints11_0.py",
          "variables": {
            "\u003cChainedInput2\u003e.getAction()": "IAAv0",
            "\u003cChainedInput2\u003e.getData()": "IAAv2"
          },
          "stringMap": {
            "7000": "android.intent.action.PACKAGE_ADDED",
            "7001": ""
          },
          "strings": {
            "IAAv0": "",
            "IAAv8": "",
            "IAAv6": ""
          }
        }
      ]
    },
    "12": {
      "startMethod": "funny.jerry.SLReceiver.onReceive(Landroid/content/Context;Landroid/content/Intent;)V",
      "targetMethod": "org.apache.http.client.HttpClient.execute(Lorg/apache/http/client/methods/HttpUriRequest;)Lorg/apache/http/HttpResponse;",
      "eventChain": [
        {
          "start": "funny.jerry.SLReceiver.onReceive(Landroid/content/Context;Landroid/content/Intent;)V",
          "target": "invokeinterface \u003c Application, Lorg/apache/http/client/HttpClient, execute(Lorg/apache/http/client/methods/HttpUriRequest;)Lorg/apache/http/HttpResponse; \u003e@136",
          "type": "sms",
          "constraintsFile": "constraints12_0.py",
          "variables": {
            "\u003cChainedInput2\u003e.getAction()": "IAAv0",
            "\u003cChainedInput2\u003e.getData()": "IAAv2"
          },
          "stringMap": {
            "7000": "android.intent.action.PACKAGE_ADDED",
            "7001": ""
          },
          "strings": {
            "IAAv0": "",
            "IAAv6": ""
          }
        }
      ]
    },
    "13": {
      "startMethod": "funny.jerry.ui.c.onItemClick(Landroid/widget/AdapterView;Landroid/view/View;IJ)V",
      "targetMethod": "org.apache.http.client.HttpClient.execute(Lorg/apache/http/client/methods/HttpUriRequest;)Lorg/apache/http/HttpResponse;",
      "eventChain": [
        {
          "start": "funny.jerry.DetailActivity.onCreate(Landroid/os/Bundle;)V",
          "target": "invokevirtual \u003c Application, Lfunny/jerry/ui/ad, setOnItemClickListener(Landroid/widget/AdapterView$OnItemClickListener;)V \u003e@512",
          "type": "activity",
          "component": "funny.jerry.DetailActivity"
        },
        {
          "start": "funny.qq.gexing.AdService.onCreate()V",
          "target": "",
          "type": "service",
          "component": "funny.qq.gexing.AdService"
        },
        {
          "start": "funny.qq.gexing.AdService.onCreate()V",
          "target": "PC@71",
          "type": "service",
          "component": "funny.qq.gexing.AdService"
        },
        {
          "start": "funny.qq.gexing.AdService.onCreate()V",
          "target": "PC@3",
          "type": "service",
          "component": "funny.qq.gexing.AdService"
        },
        {
          "start": "funny.jerry.ui.c.onItemClick(Landroid/widget/AdapterView;Landroid/view/View;IJ)V",
          "target": "invokeinterface \u003c Application, Lorg/apache/http/client/HttpClient, execute(Lorg/apache/http/client/methods/HttpUriRequest;)Lorg/apache/http/HttpResponse; \u003e@136",
          "type": "ui",
          "activities": [
            "funny.qq.gexing.App"
          ],
          "listener": "funny.jerry.ui.c",
          "listenerMethod": "onItemClick",
          "uiType": "onItemClick",
          "constraintsFile": "constraints13_0.py",
          "variables": {},
          "stringMap": {
            "7000": ""
          },
          "strings": {
            "IAAv11": "",
            "IAAv10": "",
            "IAAv13": "",
            "IAAv14": "",
            "IAAv18": ""
          }
        }
      ]
    },
    "14": {
      "startMethod": "funny.jerry.ui.c.onItemClick(Landroid/widget/AdapterView;Landroid/view/View;IJ)V",
      "targetMethod": "org.apache.http.client.HttpClient.execute(Lorg/apache/http/client/methods/HttpUriRequest;)Lorg/apache/http/HttpResponse;",
      "eventChain": [
        {
          "start": "funny.jerry.DetailActivity.onCreate(Landroid/os/Bundle;)V",
          "target": "invokevirtual \u003c Application, Lfunny/jerry/ui/ad, setOnItemClickListener(Landroid/widget/AdapterView$OnItemClickListener;)V \u003e@512",
          "type": "activity",
          "component": "funny.jerry.DetailActivity"
        },
        {
          "start": "funny.qq.gexing.AdService.onCreate()V",
          "target": "",
          "type": "service",
          "component": "funny.qq.gexing.AdService"
        },
        {
          "start": "funny.qq.gexing.AdService.onCreate()V",
          "target": "PC@71",
          "type": "service",
          "component": "funny.qq.gexing.AdService"
        },
        {
          "start": "funny.qq.gexing.AdService.onCreate()V",
          "target": "PC@3",
          "type": "service",
          "component": "funny.qq.gexing.AdService"
        },
        {
          "start": "funny.jerry.ui.c.onItemClick(Landroid/widget/AdapterView;Landroid/view/View;IJ)V",
          "target": "invokeinterface \u003c Application, Lorg/apache/http/client/HttpClient, execute(Lorg/apache/http/client/methods/HttpUriRequest;)Lorg/apache/http/HttpResponse; \u003e@92",
          "type": "ui",
          "activities": [
            "funny.qq.gexing.App"
          ],
          "listener": "funny.jerry.ui.c",
          "listenerMethod": "onItemClick",
          "uiType": "onItemClick",
          "constraintsFile": "constraints14_0.py",
          "variables": {},
          "stringMap": {
            "7000": ""
          },
          "strings": {
            "IAAv20": "",
            "IAAv11": "",
            "IAAv10": "",
            "IAAv13": "",
            "IAAv14": "",
            "IAAv18": ""
          }
        }
      ]
    },
    "15": {
      "startMethod": "funny.jerry.ui.c.onItemClick(Landroid/widget/AdapterView;Landroid/view/View;IJ)V",
      "targetMethod": "org.apache.http.client.HttpClient.execute(Lorg/apache/http/client/methods/HttpUriRequest;)Lorg/apache/http/HttpResponse;",
      "eventChain": [
        {
          "start": "funny.jerry.DetailActivity.onCreate(Landroid/os/Bundle;)V",
          "target": "invokevirtual \u003c Application, Lfunny/jerry/ui/ad, setOnItemClickListener(Landroid/widget/AdapterView$OnItemClickListener;)V \u003e@512",
          "type": "activity",
          "component": "funny.jerry.DetailActivity"
        },
        {
          "start": "funny.qq.gexing.AdService.onCreate()V",
          "target": "PC@113",
          "type": "service",
          "component": "funny.qq.gexing.AdService"
        },
        {
          "start": "funny.jerry.ui.c.onItemClick(Landroid/widget/AdapterView;Landroid/view/View;IJ)V",
          "target": "invokeinterface \u003c Application, Lorg/apache/http/client/HttpClient, execute(Lorg/apache/http/client/methods/HttpUriRequest;)Lorg/apache/http/HttpResponse; \u003e@404",
          "type": "ui",
          "activities": [
            "funny.qq.gexing.App"
          ],
          "listener": "funny.jerry.ui.c",
          "listenerMethod": "onItemClick",
          "uiType": "onItemClick",
          "constraintsFile": "constraints15_0.py",
          "variables": {},
          "stringMap": {},
          "strings": {}
        }
      ]
    },
    "16": {
      "startMethod": "vivian.sony.ui.b.onItemClick(Landroid/widget/AdapterView;Landroid/view/View;IJ)V",
      "targetMethod": "org.apache.http.client.HttpClient.execute(Lorg/apache/http/client/methods/HttpUriRequest;)Lorg/apache/http/HttpResponse;",
      "eventChain": [
        {
          "start": "vivian.sony.MyActivity.onCreate(Landroid/os/Bundle;)V",
          "target": "invokevirtual \u003c Application, Lvivian/sony/ui/j, setOnItemClickListener(Landroid/widget/AdapterView$OnItemClickListener;)V \u003e@1932",
          "type": "activity",
          "component": "vivian.sony.MyActivity",
          "constraintsFile": "constraints16_0.py",
          "variables": {},
          "stringMap": {},
          "strings": {}
        },
        {
          "start": "funny.qq.gexing.MyApplication.onCreate()V",
          "target": "PC@126",
          "type": ""
        },
        {
          "start": "vivian.sony.ui.b.onItemClick(Landroid/widget/AdapterView;Landroid/view/View;IJ)V",
          "target": "invokeinterface \u003c Application, Lorg/apache/http/client/HttpClient, execute(Lorg/apache/http/client/methods/HttpUriRequest;)Lorg/apache/http/HttpResponse; \u003e@404",
          "type": "ui",
          "activities": [
            "funny.qq.gexing.App"
          ],
          "listener": "vivian.sony.ui.b",
          "listenerMethod": "onItemClick",
          "uiType": "onItemClick",
          "constraintsFile": "constraints16_1.py",
          "variables": {},
          "stringMap": {},
          "strings": {}
        }
      ]
    },
    "17": {
      "startMethod": "vivian.sony.ui.u.onItemClick(Landroid/widget/AdapterView;Landroid/view/View;IJ)V",
      "targetMethod": "org.apache.http.client.HttpClient.execute(Lorg/apache/http/client/methods/HttpUriRequest;)Lorg/apache/http/HttpResponse;",
      "eventChain": [
        {
          "start": "vivian.sony.MyActivity.onCreate(Landroid/os/Bundle;)V",
          "target": "invokevirtual \u003c Application, Lvivian/sony/s/g, setOnItemClickListener(Landroid/widget/AdapterView$OnItemClickListener;)V \u003e@338",
          "type": "activity",
          "component": "vivian.sony.MyActivity",
          "constraintsFile": "constraints17_0.py",
          "variables": {},
          "stringMap": {},
          "strings": {}
        },
        {
          "start": "funny.qq.gexing.MyApplication.onCreate()V",
          "target": "PC@126",
          "type": ""
        },
        {
          "start": "vivian.sony.ui.u.onItemClick(Landroid/widget/AdapterView;Landroid/view/View;IJ)V",
          "target": "invokeinterface \u003c Application, Lorg/apache/http/client/HttpClient, execute(Lorg/apache/http/client/methods/HttpUriRequest;)Lorg/apache/http/HttpResponse; \u003e@404",
          "type": "ui",
          "activities": [
            "funny.qq.gexing.App"
          ],
          "listener": "vivian.sony.ui.u",
          "listenerMethod": "onItemClick",
          "uiType": "onItemClick",
          "constraintsFile": "constraints17_1.py",
          "variables": {},
          "stringMap": {},
          "strings": {}
        }
      ]
    },
    "18": {
      "startMethod": "funny.jerry.DetailActivity.onKeyDown(ILandroid/view/KeyEvent;)Z",
      "targetMethod": "org.apache.http.client.HttpClient.execute(Lorg/apache/http/client/methods/HttpUriRequest;)Lorg/apache/http/HttpResponse;",
      "eventChain": [
        {
          "start": "funny.jerry.DetailActivity.onCreate(Landroid/os/Bundle;)V",
          "target": "PC@272",
          "type": "activity",
          "component": "funny.jerry.DetailActivity"
        },
        {
          "start": "funny.jerry.DetailActivity.onKeyDown(ILandroid/view/KeyEvent;)Z",
          "target": "invokeinterface \u003c Application, Lorg/apache/http/client/HttpClient, execute(Lorg/apache/http/client/methods/HttpUriRequest;)Lorg/apache/http/HttpResponse; \u003e@136",
          "type": "ui",
          "activities": [
            "funny.qq.gexing.App"
          ],
          "listener": "funny.jerry.DetailActivity",
          "listenerMethod": "onKeyDown",
          "uiType": "onKeyDown",
          "constraintsFile": "constraints18_0.py",
          "variables": {
            "\u003cChainedInput1\u003e": "IAAv0"
          },
          "stringMap": {},
          "strings": {}
        }
      ]
    },
    "19": {
      "startMethod": "funny.jerry.ui.c.onClick(Landroid/view/View;)V",
      "targetMethod": "org.apache.http.client.HttpClient.execute(Lorg/apache/http/client/methods/HttpUriRequest;)Lorg/apache/http/HttpResponse;",
      "eventChain": [
        {
          "start": "funny.jerry.DetailActivity.onCreate(Landroid/os/Bundle;)V",
          "target": "invokevirtual \u003c Application, Landroid/widget/ImageView, setOnClickListener(Landroid/view/View$OnClickListener;)V \u003e@423",
          "type": "activity",
          "component": "funny.jerry.DetailActivity"
        },
        {
          "start": "funny.jerry.DetailActivity.onCreate(Landroid/os/Bundle;)V",
          "target": "PC@3",
          "type": "activity",
          "component": "funny.jerry.DetailActivity"
        },
        {
          "start": "funny.jerry.ui.c.onClick(Landroid/view/View;)V",
          "target": "invokeinterface \u003c Application, Lorg/apache/http/client/HttpClient, execute(Lorg/apache/http/client/methods/HttpUriRequest;)Lorg/apache/http/HttpResponse; \u003e@404",
          "type": "ui",
          "activities": [
            "funny.qq.gexing.App"
          ],
          "listener": "funny.jerry.ui.c",
          "listenerMethod": "onClick",
          "uiType": "onClick",
          "constraintsFile": "constraints19_0.py",
          "variables": {
            "\u003cChainedInput1\u003e.getTag().intValue()": "IAAv1"
          },
          "stringMap": {},
          "strings": {}
        }
      ]
    },
    "20": {
      "startMethod": "funny.jerry.ui.c.onClick(Landroid/view/View;)V",
      "targetMethod": "org.apache.http.client.HttpClient.execute(Lorg/apache/http/client/methods/HttpUriRequest;)Lorg/apache/http/HttpResponse;",
      "eventChain": [
        {
          "start": "funny.jerry.DetailActivity.onCreate(Landroid/os/Bundle;)V",
          "target": "invokevirtual \u003c Application, Landroid/widget/ImageView, setOnClickListener(Landroid/view/View$OnClickListener;)V \u003e@423",
          "type": "activity",
          "component": "funny.jerry.DetailActivity"
        },
        {
          "start": "funny.jerry.DetailActivity.onCreate(Landroid/os/Bundle;)V",
          "target": "PC@3",
          "type": "activity",
          "component": "funny.jerry.DetailActivity"
        },
        {
          "start": "funny.jerry.ui.c.onClick(Landroid/view/View;)V",
          "target": "invokeinterface \u003c Application, Lorg/apache/http/client/HttpClient, execute(Lorg/apache/http/client/methods/HttpUriRequest;)Lorg/apache/http/HttpResponse; \u003e@92",
          "type": "ui",
          "activities": [
            "funny.qq.gexing.App"
          ],
          "listener": "funny.jerry.ui.c",
          "listenerMethod": "onClick",
          "uiType": "onClick",
          "constraintsFile": "constraints20_0.py",
          "variables": {
            "\u003cChainedInput1\u003e.getTag().intValue()": "IAAv1"
          },
          "stringMap": {
            "7000": ""
          },
          "strings": {
            "IAAv7": "",
            "IAAv5": ""
          }
        }
      ]
    },
    "21": {
      "startMethod": "funny.jerry.ui.c.onClick(Landroid/view/View;)V",
      "targetMethod": "org.apache.http.client.HttpClient.execute(Lorg/apache/http/client/methods/HttpUriRequest;)Lorg/apache/http/HttpResponse;",
      "eventChain": [
        {
          "start": "funny.jerry.DetailActivity.onCreate(Landroid/os/Bundle;)V",
          "target": "invokevirtual \u003c Application, Landroid/widget/ImageView, setOnClickListener(Landroid/view/View$OnClickListener;)V \u003e@423",
          "type": "activity",
          "component": "funny.jerry.DetailActivity"
        },
        {
          "start": "funny.jerry.DetailActivity.onCreate(Landroid/os/Bundle;)V",
          "target": "PC@3",
          "type": "activity",
          "component": "funny.jerry.DetailActivity"
        },
        {
          "start": "funny.qq.gexing.AdService.onCreate()V",
          "target": "",
          "type": "service",
          "component": "funny.qq.gexing.AdService"
        },
        {
          "start": "funny.qq.gexing.AdService.onCreate()V",
          "target": "PC@71",
          "type": "service",
          "component": "funny.qq.gexing.AdService"
        },
        {
          "start": "funny.qq.gexing.AdService.onCreate()V",
          "target": "PC@3",
          "type": "service",
          "component": "funny.qq.gexing.AdService"
        },
        {
          "start": "funny.jerry.ui.c.onClick(Landroid/view/View;)V",
          "target": "invokeinterface \u003c Application, Lorg/apache/http/client/HttpClient, execute(Lorg/apache/http/client/methods/HttpUriRequest;)Lorg/apache/http/HttpResponse; \u003e@136",
          "type": "ui",
          "activities": [
            "funny.qq.gexing.App"
          ],
          "listener": "funny.jerry.ui.c",
          "listenerMethod": "onClick",
          "uiType": "onClick",
          "constraintsFile": "constraints21_0.py",
          "variables": {
            "\u003cChainedInput1\u003e.getTag().intValue()": "IAAv1"
          },
          "stringMap": {
            "7000": ""
          },
          "strings": {
            "IAAv20": "",
            "IAAv13": "",
            "IAAv12": "",
            "IAAv15": "",
            "IAAv16": ""
          }
        }
      ]
    },
    "22": {
      "startMethod": "funny.jerry.ui.aa.onClick(Landroid/view/View;)V",
      "targetMethod": "org.apache.http.client.HttpClient.execute(Lorg/apache/http/client/methods/HttpUriRequest;)Lorg/apache/http/HttpResponse;",
      "eventChain": [
        {
          "start": "funny.qq.gexing.AdService.onCreate()V",
          "target": "",
          "type": "service",
          "component": "funny.qq.gexing.AdService"
        },
        {
          "start": "funny.qq.gexing.AdService.onCreate()V",
          "target": "PC@71",
          "type": "service",
          "component": "funny.qq.gexing.AdService"
        },
        {
          "start": "funny.qq.gexing.AdService.onCreate()V",
          "target": "PC@3",
          "type": "service",
          "component": "funny.qq.gexing.AdService"
        },
        {
          "start": "funny.jerry.ui.aa.onClick(Landroid/view/View;)V",
          "target": "invokeinterface \u003c Application, Lorg/apache/http/client/HttpClient, execute(Lorg/apache/http/client/methods/HttpUriRequest;)Lorg/apache/http/HttpResponse; \u003e@136",
          "type": "ui",
          "activities": [
            "funny.qq.gexing.App"
          ],
          "listener": "funny.jerry.ui.aa",
          "listenerMethod": "onClick",
          "uiType": "onClick",
          "constraintsFile": "constraints22_0.py",
          "variables": {},
          "stringMap": {
            "7000": ""
          },
          "strings": {
            "IAAv11": "",
            "IAAv10": "",
            "IAAv13": "",
            "IAAv14": "",
            "IAAv18": ""
          }
        }
      ]
    },
    "23": {
      "startMethod": "funny.jerry.ui.aa.onClick(Landroid/view/View;)V",
      "targetMethod": "org.apache.http.client.HttpClient.execute(Lorg/apache/http/client/methods/HttpUriRequest;)Lorg/apache/http/HttpResponse;",
      "eventChain": [
        {
          "start": "funny.qq.gexing.AdService.onCreate()V",
          "target": "",
          "type": "service",
          "component": "funny.qq.gexing.AdService"
        },
        {
          "start": "funny.qq.gexing.AdService.onCreate()V",
          "target": "PC@71",
          "type": "service",
          "component": "funny.qq.gexing.AdService"
        },
        {
          "start": "funny.qq.gexing.AdService.onCreate()V",
          "target": "PC@3",
          "type": "service",
          "component": "funny.qq.gexing.AdService"
        },
        {
          "start": "funny.jerry.ui.aa.onClick(Landroid/view/View;)V",
          "target": "invokeinterface \u003c Application, Lorg/apache/http/client/HttpClient, execute(Lorg/apache/http/client/methods/HttpUriRequest;)Lorg/apache/http/HttpResponse; \u003e@92",
          "type": "ui",
          "activities": [
            "funny.qq.gexing.App"
          ],
          "listener": "funny.jerry.ui.aa",
          "listenerMethod": "onClick",
          "uiType": "onClick",
          "constraintsFile": "constraints23_0.py",
          "variables": {},
          "stringMap": {
            "7000": ""
          },
          "strings": {
            "IAAv20": "",
            "IAAv11": "",
            "IAAv10": "",
            "IAAv13": "",
            "IAAv14": "",
            "IAAv18": ""
          }
        }
      ]
    },
    "24": {
      "startMethod": "funny.jerry.ui.aa.onClick(Landroid/view/View;)V",
      "targetMethod": "org.apache.http.client.HttpClient.execute(Lorg/apache/http/client/methods/HttpUriRequest;)Lorg/apache/http/HttpResponse;",
      "eventChain": [
        {
          "start": "funny.jerry.ui.aa.onClick(Landroid/view/View;)V",
          "target": "invokeinterface \u003c Application, Lorg/apache/http/client/HttpClient, execute(Lorg/apache/http/client/methods/HttpUriRequest;)Lorg/apache/http/HttpResponse; \u003e@404",
          "type": "ui",
          "activities": [
            "funny.qq.gexing.App"
          ],
          "listener": "funny.jerry.ui.aa",
          "listenerMethod": "onClick",
          "uiType": "onClick",
          "constraintsFile": "constraints24_0.py",
          "variables": {},
          "stringMap": {},
          "strings": {}
        }
      ]
    },
    "25": {
      "startMethod": "funny.jerry.ui.al.onClick(Landroid/view/View;)V",
      "targetMethod": "org.apache.http.client.HttpClient.execute(Lorg/apache/http/client/methods/HttpUriRequest;)Lorg/apache/http/HttpResponse;",
      "eventChain": [
        {
          "start": "funny.qq.gexing.AdService.onCreate()V",
          "target": "invokevirtual \u003c Application, Landroid/widget/ImageView, setOnClickListener(Landroid/view/View$OnClickListener;)V \u003e@861",
          "type": "service",
          "component": "funny.qq.gexing.AdService"
        },
        {
          "start": "funny.qq.gexing.AdService.onCreate()V",
          "target": "PC@3",
          "type": "service",
          "component": "funny.qq.gexing.AdService"
        },
        {
          "start": "funny.qq.gexing.AdService.onCreate()V",
          "target": "PC@113",
          "type": "service",
          "component": "funny.qq.gexing.AdService"
        },
        {
          "start": "funny.jerry.ui.al.onClick(Landroid/view/View;)V",
          "target": "invokeinterface \u003c Application, Lorg/apache/http/client/HttpClient, execute(Lorg/apache/http/client/methods/HttpUriRequest;)Lorg/apache/http/HttpResponse; \u003e@404",
          "type": "ui",
          "activities": [
            "funny.qq.gexing.App"
          ],
          "listener": "funny.jerry.ui.al",
          "listenerMethod": "onClick",
          "uiType": "onClick",
          "constraintsFile": "constraints25_0.py",
          "variables": {
            "\u003cChainedInput1\u003e.getTag().intValue()": "IAAv1"
          },
          "stringMap": {},
          "strings": {}
        }
      ]
    },
    "26": {
      "startMethod": "funny.jerry.ui.al.onClick(Landroid/view/View;)V",
      "targetMethod": "org.apache.http.client.HttpClient.execute(Lorg/apache/http/client/methods/HttpUriRequest;)Lorg/apache/http/HttpResponse;",
      "eventChain": [
        {
          "start": "funny.qq.gexing.AdService.onCreate()V",
          "target": "invokevirtual \u003c Application, Landroid/widget/ImageView, setOnClickListener(Landroid/view/View$OnClickListener;)V \u003e@861",
          "type": "service",
          "component": "funny.qq.gexing.AdService"
        },
        {
          "start": "funny.qq.gexing.AdService.onCreate()V",
          "target": "PC@3",
          "type": "service",
          "component": "funny.qq.gexing.AdService"
        },
        {
          "start": "funny.qq.gexing.AdService.onCreate()V",
          "target": "PC@71",
          "type": "service",
          "component": "funny.qq.gexing.AdService"
        },
        {
          "start": "funny.qq.gexing.AdService.onCreate()V",
          "target": "PC@3",
          "type": "service",
          "component": "funny.qq.gexing.AdService"
        },
        {
          "start": "funny.jerry.ui.al.onClick(Landroid/view/View;)V",
          "target": "invokeinterface \u003c Application, Lorg/apache/http/client/HttpClient, execute(Lorg/apache/http/client/methods/HttpUriRequest;)Lorg/apache/http/HttpResponse; \u003e@136",
          "type": "ui",
          "activities": [
            "funny.qq.gexing.App"
          ],
          "listener": "funny.jerry.ui.al",
          "listenerMethod": "onClick",
          "uiType": "onClick",
          "constraintsFile": "constraints26_0.py",
          "variables": {
            "\u003cChainedInput1\u003e.getTag().intValue()": "IAAv1"
          },
          "stringMap": {
            "7000": ""
          },
          "strings": {
            "IAAv20": "",
            "IAAv13": "",
            "IAAv12": "",
            "IAAv15": "",
            "IAAv16": ""
          }
        }
      ]
    },
    "27": {
      "startMethod": "funny.jerry.ui.al.onClick(Landroid/view/View;)V",
      "targetMethod": "org.apache.http.client.HttpClient.execute(Lorg/apache/http/client/methods/HttpUriRequest;)Lorg/apache/http/HttpResponse;",
      "eventChain": [
        {
          "start": "funny.qq.gexing.AdService.onCreate()V",
          "target": "invokevirtual \u003c Application, Landroid/widget/ImageView, setOnClickListener(Landroid/view/View$OnClickListener;)V \u003e@861",
          "type": "service",
          "component": "funny.qq.gexing.AdService"
        },
        {
          "start": "funny.qq.gexing.AdService.onCreate()V",
          "target": "PC@3",
          "type": "service",
          "component": "funny.qq.gexing.AdService"
        },
        {
          "start": "funny.qq.gexing.AdService.onCreate()V",
          "target": "PC@71",
          "type": "service",
          "component": "funny.qq.gexing.AdService"
        },
        {
          "start": "funny.qq.gexing.AdService.onCreate()V",
          "target": "PC@3",
          "type": "service",
          "component": "funny.qq.gexing.AdService"
        },
        {
          "start": "funny.jerry.ui.al.onClick(Landroid/view/View;)V",
          "target": "invokeinterface \u003c Application, Lorg/apache/http/client/HttpClient, execute(Lorg/apache/http/client/methods/HttpUriRequest;)Lorg/apache/http/HttpResponse; \u003e@92",
          "type": "ui",
          "activities": [
            "funny.qq.gexing.App"
          ],
          "listener": "funny.jerry.ui.al",
          "listenerMethod": "onClick",
          "uiType": "onClick",
          "constraintsFile": "constraints27_0.py",
          "variables": {
            "\u003cChainedInput1\u003e.getTag().intValue()": "IAAv1"
          },
          "stringMap": {
            "7000": ""
          },
          "strings": {
            "IAAv20": "",
            "IAAv22": "",
            "IAAv13": "",
            "IAAv12": "",
            "IAAv15": "",
            "IAAv16": ""
          }
        }
      ]
    },
    "28": {
      "startMethod": "vivian.sony.b.f.onClick(Landroid/view/View;)V",
      "targetMethod": "org.apache.http.client.HttpClient.execute(Lorg/apache/http/client/methods/HttpUriRequest;)Lorg/apache/http/HttpResponse;",
      "eventChain": [
        {
          "start": "vivian.sony.b.f.onClick(Landroid/view/View;)V",
          "target": "invokeinterface \u003c Application, Lorg/apache/http/client/HttpClient, execute(Lorg/apache/http/client/methods/HttpUriRequest;)Lorg/apache/http/HttpResponse; \u003e@404",
          "type": "ui",
          "activities": [
            "funny.qq.gexing.App"
          ],
          "listener": "vivian.sony.b.f",
          "listenerMethod": "onClick",
          "uiType": "onClick",
          "constraintsFile": "constraints28_0.py",
          "variables": {},
          "stringMap": {},
          "strings": {}
        }
      ]
    },
    "29": {
      "startMethod": "vivian.sony.ui.b.onClick(Landroid/view/View;)V",
      "targetMethod": "org.apache.http.client.HttpClient.execute(Lorg/apache/http/client/methods/HttpUriRequest;)Lorg/apache/http/HttpResponse;",
      "eventChain": [
        {
          "start": "vivian.sony.MyActivity.onCreate(Landroid/os/Bundle;)V",
          "target": "invokevirtual \u003c Application, Landroid/widget/ImageView, setOnClickListener(Landroid/view/View$OnClickListener;)V \u003e@1779",
          "type": "activity",
          "component": "vivian.sony.MyActivity",
          "constraintsFile": "constraints29_0.py",
          "variables": {},
          "stringMap": {},
          "strings": {}
        },
        {
          "start": "vivian.sony.MyActivity.onCreate(Landroid/os/Bundle;)V",
          "target": "PC@3",
          "type": "activity",
          "component": "vivian.sony.MyActivity",
          "constraintsFile": "constraints29_1.py",
          "variables": {
            "\u003cChainedInput1\u003e.getTag().intValue()": "IAAv1"
          },
          "stringMap": {
            "7000": "wifi"
          },
          "strings": {
            "IAAv4": "",
            "IAAv10": ""
          }
        },
        {
          "start": "vivian.sony.ui.b.onClick(Landroid/view/View;)V",
          "target": "invokeinterface \u003c Application, Lorg/apache/http/client/HttpClient, execute(Lorg/apache/http/client/methods/HttpUriRequest;)Lorg/apache/http/HttpResponse; \u003e@404",
          "type": "ui",
          "activities": [
            "funny.qq.gexing.App"
          ],
          "listener": "vivian.sony.ui.b",
          "listenerMethod": "onClick",
          "uiType": "onClick",
          "constraintsFile": "constraints29_2.py",
          "variables": {
            "\u003cChainedInput1\u003e.getTag().intValue()": "IAAv1"
          },
          "stringMap": {
            "7000": "wifi"
          },
          "strings": {
            "IAAv4": ""
          }
        }
      ]
    },
    "30": {
      "startMethod": "funny.jerry.ui.q.onClick(Landroid/view/View;)V",
      "targetMethod": "org.apache.http.client.HttpClient.execute(Lorg/apache/http/client/methods/HttpUriRequest;)Lorg/apache/http/HttpResponse;",
      "eventChain": [
        {
          "start": "funny.qq.gexing.AdService.onCreate()V",
          "target": "invokevirtual \u003c Application, Landroid/view/View, setOnClickListener(Landroid/view/View$OnClickListener;)V \u003e@319",
          "type": "service",
          "component": "funny.qq.gexing.AdService"
        },
        {
          "start": "funny.qq.gexing.AdService.onCreate()V",
          "target": "PC@181",
          "type": "service",
          "component": "funny.qq.gexing.AdService"
        },
        {
          "start": "funny.qq.gexing.AdService.onCreate()V",
          "target": "PC@69",
          "type": "service",
          "component": "funny.qq.gexing.AdService"
        },
        {
          "start": "funny.jerry.ui.q.onClick(Landroid/view/View;)V",
          "target": "invokeinterface \u003c Application, Lorg/apache/http/client/HttpClient, execute(Lorg/apache/http/client/methods/HttpUriRequest;)Lorg/apache/http/HttpResponse; \u003e@136",
          "type": "ui",
          "activities": [
            "funny.qq.gexing.App"
          ],
          "listener": "funny.jerry.ui.q",
          "listenerMethod": "onClick",
          "uiType": "onClick",
          "constraintsFile": "constraints30_0.py",
          "variables": {
            "\u003cChainedInput1\u003e.getTag().intValue()": "IAAv0"
          },
          "stringMap": {},
          "strings": {}
        }
      ]
    },
    "31": {
      "startMethod": "vivian.sony.s.a.onClick(Landroid/view/View;)V",
      "targetMethod": "org.apache.http.client.HttpClient.execute(Lorg/apache/http/client/methods/HttpUriRequest;)Lorg/apache/http/HttpResponse;",
      "eventChain": [
        {
          "start": "vivian.sony.MyActivity.onCreate(Landroid/os/Bundle;)V",
          "target": "invokevirtual \u003c Application, Landroid/widget/ImageView, setOnClickListener(Landroid/view/View$OnClickListener;)V \u003e@979",
          "type": "activity",
          "component": "vivian.sony.MyActivity",
          "constraintsFile": "constraints31_0.py",
          "variables": {},
          "stringMap": {},
          "strings": {}
        },
        {
          "start": "vivian.sony.MyActivity.onCreate(Landroid/os/Bundle;)V",
          "target": "PC@3",
          "type": "activity",
          "component": "vivian.sony.MyActivity",
          "constraintsFile": "constraints31_1.py",
          "variables": {
            "\u003cChainedInput1\u003e.getTag().intValue()": "IAAv1"
          },
          "stringMap": {
            "7000": "wifi"
          },
          "strings": {
            "IAAv4": "",
            "IAAv10": ""
          }
        },
        {
          "start": "vivian.sony.s.a.onClick(Landroid/view/View;)V",
          "target": "invokeinterface \u003c Application, Lorg/apache/http/client/HttpClient, execute(Lorg/apache/http/client/methods/HttpUriRequest;)Lorg/apache/http/HttpResponse; \u003e@404",
          "type": "ui",
          "activities": [
            "funny.qq.gexing.App"
          ],
          "listener": "vivian.sony.s.a",
          "listenerMethod": "onClick",
          "uiType": "onClick",
          "constraintsFile": "constraints31_2.py",
          "variables": {
            "\u003cChainedInput1\u003e.getTag().intValue()": "IAAv1"
          },
          "stringMap": {
            "7000": "wifi"
          },
          "strings": {
            "IAAv4": ""
          }
        }
      ]
    },
    "32": {
      "startMethod": "vivian.sony.b.b.onClick(Landroid/view/View;)V",
      "targetMethod": "org.apache.http.client.HttpClient.execute(Lorg/apache/http/client/methods/HttpUriRequest;)Lorg/apache/http/HttpResponse;",
      "eventChain": [
        {
          "start": "vivian.sony.b.b.onClick(Landroid/view/View;)V",
          "target": "invokeinterface \u003c Application, Lorg/apache/http/client/HttpClient, execute(Lorg/apache/http/client/methods/HttpUriRequest;)Lorg/apache/http/HttpResponse; \u003e@404",
          "type": "ui",
          "activities": [
            "funny.qq.gexing.App"
          ],
          "listener": "vivian.sony.b.b",
          "listenerMethod": "onClick",
          "uiType": "onClick"
        }
      ]
    },
    "33": {
      "startMethod": "funny.jerry.x.onTouch(Landroid/view/View;Landroid/view/MotionEvent;)Z",
      "targetMethod": "org.apache.http.client.HttpClient.execute(Lorg/apache/http/client/methods/HttpUriRequest;)Lorg/apache/http/HttpResponse;",
      "eventChain": [
        {
          "start": "funny.qq.gexing.AdService.onCreate()V",
          "target": "invokevirtual \u003c Application, Lfunny/jerry/ui/ah, setOnTouchListener(Landroid/view/View$OnTouchListener;)V \u003e@438",
          "type": "service",
          "component": "funny.qq.gexing.AdService"
        },
        {
          "start": "funny.jerry.x.onTouch(Landroid/view/View;Landroid/view/MotionEvent;)Z",
          "target": "invokeinterface \u003c Application, Lorg/apache/http/client/HttpClient, execute(Lorg/apache/http/client/methods/HttpUriRequest;)Lorg/apache/http/HttpResponse; \u003e@136",
          "type": "ui",
          "activities": [
            "funny.qq.gexing.App"
          ],
          "listener": "funny.jerry.x",
          "listenerMethod": "onTouch",
          "uiType": "onTouch",
          "constraintsFile": "constraints33_0.py",
          "variables": {
            "\u003cChainedInput2\u003e.getAction()": "IAAv0"
          },
          "stringMap": {},
          "strings": {}
        }
      ]
    }
  }
}