{
  "packageName": "com.mobincube.android.sc_SABTM.app_53458",
  "mainActivity": "com.mobincube.android.sc_SABTM.app_53458.App",
  "callPaths": {
    "0": {
      "startMethod": "com.mobimento.android.caponate.dataview.arpois.camera.CameraSurface.surfaceChanged(Landroid/view/SurfaceHolder;III)V",
      "targetMethod": "java.lang.reflect.Method.invoke(Ljava/lang/Object;[Ljava/lang/Object;)Ljava/lang/Object;",
      "eventChain": [
        {
          "start": "com.mobimento.android.caponate.dataview.arpois.camera.CameraSurface.surfaceChanged(Landroid/view/SurfaceHolder;III)V",
          "target": "invokevirtual \u003c Application, Ljava/lang/reflect/Method, invoke(Ljava/lang/Object;[Ljava/lang/Object;)Ljava/lang/Object; \u003e@24",
          "type": "ui",
          "activities": [
            "com.mobincube.android.sc_SABTM.app_53458.App"
          ],
          "listener": "com.mobimento.android.caponate.dataview.arpois.camera.CameraSurface",
          "listenerMethod": "surfaceChanged",
          "uiType": "surfaceChanged"
        }
      ]
    }
  }
}