{
  "packageName": "com.demo.tastytoast",
  "mainActivity": "com.demo.tastytoast.MainActivity",
  "callPaths": {
    "0": {
      "startMethod": "android.support.v7.app.AppCompatViewInflater$DeclaredOnClickListener.onClick(Landroid/view/View;)V",
      "targetMethod": "java.lang.reflect.Method.invoke(Ljava/lang/Object;[Ljava/lang/Object;)Ljava/lang/Object;",
      "eventChain": [
        {
          "start": "android.support.v7.app.AppCompatViewInflater$DeclaredOnClickListener.onClick(Landroid/view/View;)V",
          "target": "invokevirtual \u003c Application, Ljava/lang/reflect/Method, invoke(Ljava/lang/Object;[Ljava/lang/Object;)Ljava/lang/Object; \u003e@68",
          "type": "ui",
          "activities": [
            "com.demo.tastytoast.MainActivity"
          ],
          "listener": "android.support.v7.app.AppCompatViewInflater$DeclaredOnClickListener",
          "listenerMethod": "onClick",
          "uiType": "onClick",
          "constraintsFile": "constraints0_0.py",
          "variables": {},
          "stringMap": {},
          "strings": {}
        }
      ]
    },
    "1": {
      "startMethod": "android.support.v7.view.SupportMenuInflater$InflatedOnMenuItemClickListener.onMenuItemClick(Landroid/view/MenuItem;)Z",
      "targetMethod": "java.lang.reflect.Method.invoke(Ljava/lang/Object;[Ljava/lang/Object;)Ljava/lang/Object;",
      "eventChain": [
        {
          "start": "android.support.v7.view.SupportMenuInflater$InflatedOnMenuItemClickListener.onMenuItemClick(Landroid/view/MenuItem;)Z",
          "target": "invokevirtual \u003c Application, Ljava/lang/reflect/Method, invoke(Ljava/lang/Object;[Ljava/lang/Object;)Ljava/lang/Object; \u003e@116",
          "type": "ui",
          "activities": [
            "com.demo.tastytoast.MainActivity"
          ],
          "listener": "android.support.v7.view.SupportMenuInflater$InflatedOnMenuItemClickListener",
          "listenerMethod": "onMenuItemClick",
          "uiType": "onMenuItemClick",
          "constraintsFile": "constraints1_0.py",
          "variables": {},
          "stringMap": {},
          "strings": {}
        }
      ]
    },
    "2": {
      "startMethod": "android.support.v7.view.SupportMenuInflater$InflatedOnMenuItemClickListener.onMenuItemClick(Landroid/view/MenuItem;)Z",
      "targetMethod": "java.lang.reflect.Method.invoke(Ljava/lang/Object;[Ljava/lang/Object;)Ljava/lang/Object;",
      "eventChain": [
        {
          "start": "android.support.v7.view.SupportMenuInflater$InflatedOnMenuItemClickListener.onMenuItemClick(Landroid/view/MenuItem;)Z",
          "target": "invokevirtual \u003c Application, Ljava/lang/reflect/Method, invoke(Ljava/lang/Object;[Ljava/lang/Object;)Ljava/lang/Object; \u003e@63",
          "type": "ui",
          "activities": [
            "com.demo.tastytoast.MainActivity"
          ],
          "listener": "android.support.v7.view.SupportMenuInflater$InflatedOnMenuItemClickListener",
          "listenerMethod": "onMenuItemClick",
          "uiType": "onMenuItemClick",
          "constraintsFile": "constraints2_0.py",
          "variables": {},
          "stringMap": {},
          "strings": {}
        }
      ]
    }
  }
}