{
  "packageName": "com.reg",
  "mainActivity": "com.reg.MainRegActivity",
  "callPaths": {
    "0": {
      "startMethod": "com.reg.SmsReceiver.onReceive(Landroid/content/Context;Landroid/content/Intent;)V",
      "targetMethod": "android.telephony.gsm.SmsMessage.getMessageBody()Ljava/lang/String;",
      "eventChain": [
        {
          "start": "com.reg.MainRegActivity.\u003cinit\u003e()V",
          "target": "",
          "type": ""
        },
        {
          "start": "com.reg.SmsReceiver.onReceive(Landroid/content/Context;Landroid/content/Intent;)V",
          "target": "invokevirtual \u003c Application, Landroid/telephony/gsm/SmsMessage, getMessageBody()Ljava/lang/String; \u003e@101",
          "type": "sms",
          "constraintsFile": "constraints0_0.py",
          "variables": {
            "\u003cChainedInput2\u003e.getExtras()": "IAAv1"
          },
          "stringMap": {},
          "strings": {}
        }
      ]
    },
    "1": {
      "startMethod": "com.reg.MainRegActivity$5.onReceive(Landroid/content/Context;Landroid/content/Intent;)V",
      "targetMethod": "android.telephony.gsm.SmsManager.sendTextMessage(Ljava/lang/String;Ljava/lang/String;Ljava/lang/String;Landroid/app/PendingIntent;Landroid/app/PendingIntent;)V",
      "eventChain": [
        {
          "start": "com.reg.SmsReceiver.onReceive(Landroid/content/Context;Landroid/content/Intent;)V",
          "target": "invokespecial \u003c Application, Landroid/content/BroadcastReceiver, \u003cinit\u003e()V \u003e@7",
          "type": "sms",
          "constraintsFile": "constraints1_0.py",
          "variables": {
            "\u003cChainedInput2\u003e.getExtras()": "IAAv1",
            "\u003cChainedInput2\u003e.getExtras().get().\u003cSmsMessage\u003e.getMessageBody()": "IAAv6",
            "\u003cChainedInput2\u003e.getExtras().get().\u003cSmsMessage\u003e.getOriginatingAddress()": "IAAv4"
          },
          "stringMap": {},
          "strings": {
            "IAAv4": "",
            "IAAv3": "",
            "IAAv7": "",
            "IAAv6": ""
          }
        },
        {
          "start": "com.reg.MainRegActivity$5.onReceive(Landroid/content/Context;Landroid/content/Intent;)V",
          "target": "invokevirtual \u003c Application, Landroid/telephony/gsm/SmsManager, sendTextMessage(Ljava/lang/String;Ljava/lang/String;Ljava/lang/String;Landroid/app/PendingIntent;Landroid/app/PendingIntent;)V \u003e@168",
          "type": "sms",
          "constraintsFile": "constraints1_1.py",
          "variables": {},
          "stringMap": {},
          "strings": {
            "IAAv2": "",
            "IAAv1": ""
          }
        }
      ]
    },
    "2": {
      "startMethod": "com.reg.MainRegActivity$3.onClick(Landroid/view/View;)V",
      "targetMethod": "android.telephony.gsm.SmsManager.sendTextMessage(Ljava/lang/String;Ljava/lang/String;Ljava/lang/String;Landroid/app/PendingIntent;Landroid/app/PendingIntent;)V",
      "eventChain": [
        {
          "start": "com.reg.MainRegActivity$3.onClick(Landroid/view/View;)V",
          "target": "invokevirtual \u003c Application, Landroid/telephony/gsm/SmsManager, sendTextMessage(Ljava/lang/String;Ljava/lang/String;Ljava/lang/String;Landroid/app/PendingIntent;Landroid/app/PendingIntent;)V \u003e@168",
          "type": "ui",
          "activities": [
            "com.reg.MainRegActivity"
          ],
          "listener": "com.reg.MainRegActivity$3",
          "listenerMethod": "onClick",
          "uiType": "onClick",
          "constraintsFile": "constraints2_0.py",
          "variables": {},
          "stringMap": {},
          "strings": {}
        }
      ]
    }
  }
}