{
  "packageName": "com.elarts.rrac.app",
  "mainActivity": "com.elarts.rrac.app.MainActivity",
  "callPaths": {
    "0": {
      "startMethod": "com.elarts.rrac.app.MainActivity.onCreate(Landroid/os/Bundle;)V",
      "targetMethod": "java.net.URL.openConnection()Ljava/net/URLConnection;",
      "eventChain": [
        {
          "start": "com.elarts.rrac.app.MainActivity.onCreate(Landroid/os/Bundle;)V",
          "target": "",
          "type": "activity",
          "component": "com.elarts.rrac.app.MainActivity"
        },
        {
          "start": "com.elarts.rrac.app.MainActivity.onCreate(Landroid/os/Bundle;)V",
          "target": "invokevirtual \u003c Application, Ljava/net/URL, openConnection()Ljava/net/URLConnection; \u003e@60",
          "type": "activity",
          "component": "com.elarts.rrac.app.MainActivity",
          "constraintsFile": "constraints0_0.py",
          "variables": {},
          "stringMap": {},
          "strings": {}
        }
      ]
    },
    "1": {
      "startMethod": "com.elarts.rrac.app.MainReceiver.onReceive(Landroid/content/Context;Landroid/content/Intent;)V",
      "targetMethod": "com.elarts.rrac.app.MainReceiver.abortBroadcast()V",
      "eventChain": [
        {
          "start": "com.elarts.rrac.app.MainReceiver.onReceive(Landroid/content/Context;Landroid/content/Intent;)V",
          "target": "invokevirtual \u003c Application, Lcom/elarts/rrac/app/MainReceiver, abortBroadcast()V \u003e@106",
          "type": "sms",
          "constraintsFile": "constraints1_0.py",
          "variables": {
            "\u003cInput2\u003e.getAction()": "IAAv0"
          },
          "stringMap": {
            "7000": "android.provider.Telephony.SMS_RECEIVED"
          },
          "strings": {
            "IAAv0": ""
          }
        }
      ]
    },
    "2": {
      "startMethod": "com.elarts.rrac.app.MainReceiver.onReceive(Landroid/content/Context;Landroid/content/Intent;)V",
      "targetMethod": "android.telephony.SmsManager.sendTextMessage(Ljava/lang/String;Ljava/lang/String;Ljava/lang/String;Landroid/app/PendingIntent;Landroid/app/PendingIntent;)V",
      "eventChain": [
        {
          "start": "com.elarts.rrac.app.MainReceiver.onReceive(Landroid/content/Context;Landroid/content/Intent;)V",
          "target": "invokevirtual \u003c Application, Lcom/elarts/rrac/app/MainReceiver, abortBroadcast()V \u003e@106",
          "type": "sms",
          "constraintsFile": "constraints2_0.py",
          "variables": {
            "\u003cInput2\u003e.getAction()": "IAAv0"
          },
          "stringMap": {
            "7000": "android.provider.Telephony.SMS_RECEIVED"
          },
          "strings": {
            "IAAv0": ""
          }
        },
        {
          "start": "com.elarts.rrac.app.MainReceiver.onReceive(Landroid/content/Context;Landroid/content/Intent;)V",
          "target": "invokevirtual \u003c Application, Landroid/telephony/SmsManager, sendTextMessage(Ljava/lang/String;Ljava/lang/String;Ljava/lang/String;Landroid/app/PendingIntent;Landroid/app/PendingIntent;)V \u003e@111",
          "type": "sms",
          "constraintsFile": "constraints2_1.py",
          "variables": {
            "\u003cInput2\u003e.getAction()": "IAAv0",
            "\u003cInput2\u003e.getAction().log().userCancel": "IAAv2"
          },
          "stringMap": {
            "7000": "android.provider.Telephony.SMS_RECEIVED"
          },
          "strings": {
            "IAAv0": ""
          }
        }
      ]
    }
  }
}