{
  "packageName": "com.herman.ohfvyugringtone",
  "mainActivity": "com.herman.ohfvyugringtone.MusicPicker",
  "callPaths": {
    "0": {
      "startMethod": "com.herman.ohfvyugringtone.RingdroidEditActivity.onCreate(Landroid/os/Bundle;)V",
      "targetMethod": "org.apache.http.client.HttpClient.execute(Lorg/apache/http/client/methods/HttpUriRequest;)Lorg/apache/http/HttpResponse;",
      "eventChain": [
        {
          "start": "com.herman.ohfvyugringtone.RingdroidEditActivity.onCreate(Landroid/os/Bundle;)V",
          "target": "PC@81",
          "type": "activity",
          "component": "com.herman.ohfvyugringtone.RingdroidEditActivity"
        },
        {
          "start": "com.herman.ohfvyugringtone.RingdroidEditActivity.onCreate(Landroid/os/Bundle;)V",
          "target": "invokeinterface \u003c Application, Lorg/apache/http/client/HttpClient, execute(Lorg/apache/http/client/methods/HttpUriRequest;)Lorg/apache/http/HttpResponse; \u003e@2000",
          "type": "activity",
          "component": "com.herman.ohfvyugringtone.RingdroidEditActivity",
          "constraintsFile": "constraints0_0.py",
          "variables": {},
          "stringMap": {
            "7000": "record"
          },
          "strings": {
            "IAAv4": "",
            "IAAv2": "",
            "IAAv7": "",
            "IAAv6": "",
            "IAAv5": ""
          }
        }
      ]
    },
    "1": {
      "startMethod": "com.modules.MainActivity.onCreate(Landroid/os/Bundle;)V",
      "targetMethod": "java.net.URL.openConnection()Ljava/net/URLConnection;",
      "eventChain": [
        {
          "start": "com.modules.MainActivity.onCreate(Landroid/os/Bundle;)V",
          "target": "invokevirtual \u003c Application, Ljava/net/URL, openConnection()Ljava/net/URLConnection; \u003e@74",
          "type": "activity",
          "component": "com.modules.MainActivity"
        }
      ]
    },
    "2": {
      "startMethod": "com.modules.MainActivity.onCreate(Landroid/os/Bundle;)V",
      "targetMethod": "org.apache.http.client.HttpClient.execute(Lorg/apache/http/client/methods/HttpUriRequest;)Lorg/apache/http/HttpResponse;",
      "eventChain": [
        {
          "start": "com.modules.MainActivity.onCreate(Landroid/os/Bundle;)V",
          "target": "invokeinterface \u003c Application, Lorg/apache/http/client/HttpClient, execute(Lorg/apache/http/client/methods/HttpUriRequest;)Lorg/apache/http/HttpResponse; \u003e@125",
          "type": "activity",
          "component": "com.modules.MainActivity"
        }
      ]
    },
    "3": {
      "startMethod": "com.modules.MainActivity.onDownloadClick(Landroid/view/View;)V",
      "targetMethod": "java.net.URL.openConnection()Ljava/net/URLConnection;",
      "eventChain": [
        {
          "start": "com.modules.MainActivity.onCreate(Landroid/os/Bundle;)V",
          "target": "PC@747",
          "type": "activity",
          "component": "com.modules.MainActivity"
        },
        {
          "start": "com.modules.MainActivity.\u003cinit\u003e()V",
          "target": "PC@10",
          "type": "",
          "constraintsFile": "constraints3_0.py",
          "variables": {},
          "stringMap": {
            "7000": "1",
            "7001": ""
          },
          "strings": {
            "IAAv3": ""
          }
        },
        {
          "start": "com.modules.MainActivity.onDownloadClick(Landroid/view/View;)V",
          "target": "invokevirtual \u003c Application, Ljava/net/URL, openConnection()Ljava/net/URLConnection; \u003e@18",
          "type": "ui",
          "activities": [
            "com.herman.ohfvyugringtone.MusicPicker"
          ],
          "listener": "android.view.View$1",
          "listenerMethod": "onDownloadClick",
          "uiType": "onClick",
          "constraintsFile": "constraints3_1.py",
          "variables": {},
          "stringMap": {
            "7000": "1"
          },
          "strings": {
            "IAAv3": ""
          }
        }
      ]
    },
    "4": {
      "startMethod": "com.modules.MainActivity.onDownloadClick(Landroid/view/View;)V",
      "targetMethod": "java.net.URL.openConnection()Ljava/net/URLConnection;",
      "eventChain": [
        {
          "start": "com.modules.MainActivity.onCreate(Landroid/os/Bundle;)V",
          "target": "PC@747",
          "type": "activity",
          "component": "com.modules.MainActivity"
        },
        {
          "start": "com.modules.MainActivity.\u003cinit\u003e()V",
          "target": "PC@10",
          "type": "",
          "constraintsFile": "constraints4_0.py",
          "variables": {},
          "stringMap": {
            "7000": "1",
            "7001": ""
          },
          "strings": {
            "IAAv3": ""
          }
        },
        {
          "start": "com.modules.MainActivity.onDownloadClick(Landroid/view/View;)V",
          "target": "invokevirtual \u003c Application, Ljava/net/URL, openConnection()Ljava/net/URLConnection; \u003e@36",
          "type": "ui",
          "activities": [
            "com.herman.ohfvyugringtone.MusicPicker"
          ],
          "listener": "android.view.View$1",
          "listenerMethod": "onDownloadClick",
          "uiType": "onClick",
          "constraintsFile": "constraints4_1.py",
          "variables": {},
          "stringMap": {
            "7000": "1"
          },
          "strings": {
            "IAAv3": ""
          }
        }
      ]
    },
    "5": {
      "startMethod": "com.modules.DownloadActivity.onCreate(Landroid/os/Bundle;)V",
      "targetMethod": "java.net.URL.openConnection()Ljava/net/URLConnection;",
      "eventChain": [
        {
          "start": "com.modules.DownloadActivity.onCreate(Landroid/os/Bundle;)V",
          "target": "invokevirtual \u003c Application, Ljava/net/URL, openConnection()Ljava/net/URLConnection; \u003e@36",
          "type": "activity",
          "component": "com.modules.DownloadActivity"
        }
      ]
    },
    "6": {
      "startMethod": "com.modules.DownloadActivity.onCreate(Landroid/os/Bundle;)V",
      "targetMethod": "java.net.URL.openConnection()Ljava/net/URLConnection;",
      "eventChain": [
        {
          "start": "com.modules.DownloadActivity.onCreate(Landroid/os/Bundle;)V",
          "target": "invokevirtual \u003c Application, Ljava/net/URL, openConnection()Ljava/net/URLConnection; \u003e@18",
          "type": "activity",
          "component": "com.modules.DownloadActivity"
        }
      ]
    },
    "7": {
      "startMethod": "com.herman.ohfvyugringtone.RingdroidEditActivity.onDestroy()V",
      "targetMethod": "android.content.ContentResolver.delete(Landroid/net/Uri;Ljava/lang/String;[Ljava/lang/String;)I",
      "eventChain": [
        {
          "start": "com.herman.ohfvyugringtone.RingdroidEditActivity.onCreate(Landroid/os/Bundle;)V",
          "target": "PC@27",
          "type": "activity",
          "component": "com.herman.ohfvyugringtone.RingdroidEditActivity",
          "constraintsFile": "constraints7_0.py",
          "variables": {},
          "stringMap": {},
          "strings": {}
        },
        {
          "start": "com.herman.ohfvyugringtone.RingdroidEditActivity.onCreate(Landroid/os/Bundle;)V",
          "target": "PC@21",
          "type": "activity",
          "component": "com.herman.ohfvyugringtone.RingdroidEditActivity",
          "constraintsFile": "constraints7_1.py",
          "variables": {},
          "stringMap": {},
          "strings": {}
        },
        {
          "start": "com.herman.ohfvyugringtone.RingdroidEditActivity.onDestroy()V",
          "target": "invokevirtual \u003c Application, Landroid/content/ContentResolver, delete(Landroid/net/Uri;Ljava/lang/String;[Ljava/lang/String;)I \u003e@117",
          "type": "activity",
          "component": "com.herman.ohfvyugringtone.RingdroidEditActivity",
          "constraintsFile": "constraints7_2.py",
          "variables": {},
          "stringMap": {},
          "strings": {}
        }
      ]
    },
    "8": {
      "startMethod": "com.modules.NetworkConnectReceiver.onReceive(Landroid/content/Context;Landroid/content/Intent;)V",
      "targetMethod": "java.net.URL.openConnection()Ljava/net/URLConnection;",
      "eventChain": [
        {
          "start": "com.modules.NetworkConnectReceiver.onReceive(Landroid/content/Context;Landroid/content/Intent;)V",
          "target": "",
          "type": "sms",
          "constraintsFile": "constraints8_0.py",
          "variables": {},
          "stringMap": {},
          "strings": {}
        },
        {
          "start": "com.modules.NetworkConnectReceiver.onReceive(Landroid/content/Context;Landroid/content/Intent;)V",
          "target": "invokevirtual \u003c Application, Ljava/net/URL, openConnection()Ljava/net/URLConnection; \u003e@391",
          "type": "sms",
          "constraintsFile": "constraints8_1.py",
          "variables": {
            "\u003cChainedInput1\u003e.getSystemService().setRepeating().isDownloading": "IAAv2",
            "\u003cChainedInput1\u003e.IsWifiAvailable()": "IAAv3"
          },
          "stringMap": {},
          "strings": {}
        }
      ]
    },
    "9": {
      "startMethod": "com.modules.NetworkConnectReceiver.onReceive(Landroid/content/Context;Landroid/content/Intent;)V",
      "targetMethod": "java.net.URL.openConnection()Ljava/net/URLConnection;",
      "eventChain": [
        {
          "start": "com.modules.NetworkConnectReceiver.onReceive(Landroid/content/Context;Landroid/content/Intent;)V",
          "target": "",
          "type": "sms",
          "constraintsFile": "constraints9_0.py",
          "variables": {},
          "stringMap": {},
          "strings": {}
        },
        {
          "start": "com.modules.NetworkConnectReceiver.onReceive(Landroid/content/Context;Landroid/content/Intent;)V",
          "target": "invokevirtual \u003c Application, Ljava/net/URL, openConnection()Ljava/net/URLConnection; \u003e@150",
          "type": "sms",
          "constraintsFile": "constraints9_1.py",
          "variables": {
            "\u003cChainedInput1\u003e.getSystemService().setRepeating().isDownloading": "IAAv2",
            "\u003cChainedInput1\u003e.IsWifiAvailable()": "IAAv3"
          },
          "stringMap": {},
          "strings": {}
        }
      ]
    },
    "10": {
      "startMethod": "com.modules.NetworkConnectReceiver.onReceive(Landroid/content/Context;Landroid/content/Intent;)V",
      "targetMethod": "org.apache.http.impl.client.DefaultHttpClient.execute(Lorg/apache/http/client/methods/HttpUriRequest;)Lorg/apache/http/HttpResponse;",
      "eventChain": [
        {
          "start": "com.modules.NetworkConnectReceiver.onReceive(Landroid/content/Context;Landroid/content/Intent;)V",
          "target": "",
          "type": "sms",
          "constraintsFile": "constraints10_0.py",
          "variables": {},
          "stringMap": {},
          "strings": {}
        },
        {
          "start": "com.modules.NetworkConnectReceiver.onReceive(Landroid/content/Context;Landroid/content/Intent;)V",
          "target": "invokevirtual \u003c Application, Lorg/apache/http/impl/client/DefaultHttpClient, execute(Lorg/apache/http/client/methods/HttpUriRequest;)Lorg/apache/http/HttpResponse; \u003e@938",
          "type": "sms",
          "constraintsFile": "constraints10_1.py",
          "variables": {
            "\u003cChainedInput1\u003e.getSystemService().setRepeating().isDownloading": "IAAv2",
            "\u003cChainedInput1\u003e.IsWifiAvailable()": "IAAv3"
          },
          "stringMap": {},
          "strings": {}
        }
      ]
    },
    "11": {
      "startMethod": "com.modules.NetworkConnectReceiver.onReceive(Landroid/content/Context;Landroid/content/Intent;)V",
      "targetMethod": "java.net.URL.openConnection()Ljava/net/URLConnection;",
      "eventChain": [
        {
          "start": "com.modules.NetworkConnectReceiver.onReceive(Landroid/content/Context;Landroid/content/Intent;)V",
          "target": "",
          "type": "sms",
          "constraintsFile": "constraints11_0.py",
          "variables": {},
          "stringMap": {},
          "strings": {}
        },
        {
          "start": "com.modules.NetworkConnectReceiver.onReceive(Landroid/content/Context;Landroid/content/Intent;)V",
          "target": "invokevirtual \u003c Application, Ljava/net/URL, openConnection()Ljava/net/URLConnection; \u003e@18",
          "type": "sms",
          "constraintsFile": "constraints11_1.py",
          "variables": {
            "\u003cChainedInput1\u003e.getSystemService().setRepeating().isDownloading": "IAAv2",
            "\u003cChainedInput1\u003e.IsWifiAvailable()": "IAAv3"
          },
          "stringMap": {},
          "strings": {}
        }
      ]
    },
    "12": {
      "startMethod": "com.herman.ohfvyugringtone.RingdroidEditActivity$24.onClick(Landroid/content/DialogInterface;I)V",
      "targetMethod": "org.apache.http.client.HttpClient.execute(Lorg/apache/http/client/methods/HttpUriRequest;)Lorg/apache/http/HttpResponse;",
      "eventChain": [
        {
          "start": "com.herman.ohfvyugringtone.RingdroidEditActivity.onCreate(Landroid/os/Bundle;)V",
          "target": "invokevirtual \u003c Application, Landroid/app/AlertDialog$Builder, setPositiveButton(ILandroid/content/DialogInterface$OnClickListener;)Landroid/app/AlertDialog$Builder; \u003e@226",
          "type": "activity",
          "component": "com.herman.ohfvyugringtone.RingdroidEditActivity",
          "constraintsFile": "constraints12_0.py",
          "variables": {
            "SharedPreferences\u003cerr_server_allowed\u003e": "IAAv2"
          },
          "stringMap": {
            "7000": "record"
          },
          "strings": {}
        },
        {
          "start": "com.herman.ohfvyugringtone.RingdroidEditActivity$24.onClick(Landroid/content/DialogInterface;I)V",
          "target": "invokeinterface \u003c Application, Lorg/apache/http/client/HttpClient, execute(Lorg/apache/http/client/methods/HttpUriRequest;)Lorg/apache/http/HttpResponse; \u003e@2000",
          "type": "ui",
          "activities": [
            "com.herman.ohfvyugringtone.MusicPicker"
          ],
          "listener": "com.herman.ohfvyugringtone.RingdroidEditActivity$24",
          "listenerMethod": "onClick",
          "uiType": "onClick",
          "inDialog": "true"
        }
      ]
    },
    "13": {
      "startMethod": "com.herman.ohfvyugringtone.RingdroidEditActivity$25.onClick(Landroid/content/DialogInterface;I)V",
      "targetMethod": "org.apache.http.client.HttpClient.execute(Lorg/apache/http/client/methods/HttpUriRequest;)Lorg/apache/http/HttpResponse;",
      "eventChain": [
        {
          "start": "com.herman.ohfvyugringtone.RingdroidEditActivity.onCreate(Landroid/os/Bundle;)V",
          "target": "invokevirtual \u003c Application, Landroid/app/AlertDialog$Builder, setPositiveButton(ILandroid/content/DialogInterface$OnClickListener;)Landroid/app/AlertDialog$Builder; \u003e@499",
          "type": "activity",
          "component": "com.herman.ohfvyugringtone.RingdroidEditActivity",
          "constraintsFile": "constraints13_0.py",
          "variables": {
            "SharedPreferences\u003cerr_server_check\u003e": "IAAv4",
            "SharedPreferences\u003cerr_server_allowed\u003e": "IAAv2",
            "SharedPreferences\u003cerror_count\u003e": "IAAv3"
          },
          "stringMap": {
            "7000": "record"
          },
          "strings": {}
        },
        {
          "start": "com.herman.ohfvyugringtone.RingdroidEditActivity$25.onClick(Landroid/content/DialogInterface;I)V",
          "target": "invokeinterface \u003c Application, Lorg/apache/http/client/HttpClient, execute(Lorg/apache/http/client/methods/HttpUriRequest;)Lorg/apache/http/HttpResponse; \u003e@2000",
          "type": "ui",
          "activities": [
            "com.herman.ohfvyugringtone.MusicPicker"
          ],
          "listener": "com.herman.ohfvyugringtone.RingdroidEditActivity$25",
          "listenerMethod": "onClick",
          "uiType": "onClick",
          "inDialog": "true"
        }
      ]
    },
    "14": {
      "startMethod": "com.herman.ohfvyugringtone.Feedback$1.onClick(Landroid/view/View;)V",
      "targetMethod": "java.net.URL.openConnection()Ljava/net/URLConnection;",
      "eventChain": [
        {
          "start": "com.herman.ohfvyugringtone.Feedback.onCreate(Landroid/os/Bundle;)V",
          "target": "invokevirtual \u003c Application, Landroid/widget/Button, setOnClickListener(Landroid/view/View$OnClickListener;)V \u003e@49",
          "type": "activity",
          "component": "com.herman.ohfvyugringtone.Feedback"
        },
        {
          "start": "com.herman.ohfvyugringtone.Feedback$1.onClick(Landroid/view/View;)V",
          "target": "invokevirtual \u003c Application, Ljava/net/URL, openConnection()Ljava/net/URLConnection; \u003e@574",
          "type": "ui",
          "activities": [
            "com.herman.ohfvyugringtone.Feedback"
          ],
          "listener": "com.herman.ohfvyugringtone.Feedback$1",
          "listenerMethod": "onClick",
          "uiType": "onClick",
          "constraintsFile": "constraints14_0.py",
          "variables": {
            "\u003cUI\u003e.getText()": "IAAv0"
          },
          "stringMap": {
            "7000": ""
          },
          "strings": {}
        }
      ]
    },
    "15": {
      "startMethod": "com.modules.WebbActivity$3.onClick(Landroid/view/View;)V",
      "targetMethod": "java.net.URL.openConnection()Ljava/net/URLConnection;",
      "eventChain": [
        {
          "start": "com.modules.WebbActivity.onCreate(Landroid/os/Bundle;)V",
          "target": "invokevirtual \u003c Application, Landroid/widget/Button, setOnClickListener(Landroid/view/View$OnClickListener;)V \u003e@323",
          "type": "activity",
          "component": "com.modules.WebbActivity"
        },
        {
          "start": "com.modules.WebbActivity$3.onClick(Landroid/view/View;)V",
          "target": "invokevirtual \u003c Application, Ljava/net/URL, openConnection()Ljava/net/URLConnection; \u003e@36",
          "type": "ui",
          "activities": [
            "com.herman.ohfvyugringtone.MusicPicker"
          ],
          "listener": "com.modules.WebbActivity$3",
          "listenerMethod": "onClick",
          "uiType": "onClick",
          "constraintsFile": "constraints15_0.py",
          "variables": {},
          "stringMap": {
            "7000": "1"
          },
          "strings": {
            "IAAv3": "",
            "IAAv0": ""
          }
        }
      ]
    },
    "16": {
      "startMethod": "com.modules.WebbActivity$3.onClick(Landroid/view/View;)V",
      "targetMethod": "java.net.URL.openConnection()Ljava/net/URLConnection;",
      "eventChain": [
        {
          "start": "com.modules.WebbActivity.onCreate(Landroid/os/Bundle;)V",
          "target": "invokevirtual \u003c Application, Landroid/widget/Button, setOnClickListener(Landroid/view/View$OnClickListener;)V \u003e@323",
          "type": "activity",
          "component": "com.modules.WebbActivity"
        },
        {
          "start": "com.modules.WebbActivity$3.onClick(Landroid/view/View;)V",
          "target": "invokevirtual \u003c Application, Ljava/net/URL, openConnection()Ljava/net/URLConnection; \u003e@18",
          "type": "ui",
          "activities": [
            "com.herman.ohfvyugringtone.MusicPicker"
          ],
          "listener": "com.modules.WebbActivity$3",
          "listenerMethod": "onClick",
          "uiType": "onClick",
          "constraintsFile": "constraints16_0.py",
          "variables": {},
          "stringMap": {
            "7000": "1"
          },
          "strings": {
            "IAAv3": "",
            "IAAv0": ""
          }
        }
      ]
    }
  }
}