{
  "packageName": "com.espabit.essexyfaceRU",
  "mainActivity": "com.espabit.essexyfaceRU.Disclaimer",
  "callPaths": {
    "0": {
      "startMethod": "com.espabit.essexyfaceRU.ZonaMiembros.onCreate(Landroid/os/Bundle;)V",
      "targetMethod": "org.apache.http.client.HttpClient.execute(Lorg/apache/http/client/methods/HttpUriRequest;)Lorg/apache/http/HttpResponse;",
      "eventChain": [
        {
          "start": "com.espabit.essexyfaceRU.ZonaMiembros.onCreate(Landroid/os/Bundle;)V",
          "target": "PC@75",
          "type": "activity",
          "component": "com.espabit.essexyfaceRU.ZonaMiembros",
          "constraintsFile": "constraints0_0.py",
          "variables": {},
          "stringMap": {},
          "strings": {}
        },
        {
          "start": "com.espabit.essexyfaceRU.ZonaMiembros.onCreate(Landroid/os/Bundle;)V",
          "target": "invokeinterface \u003c Application, Lorg/apache/http/client/HttpClient, execute(Lorg/apache/http/client/methods/HttpUriRequest;)Lorg/apache/http/HttpResponse; \u003e@31",
          "type": "activity",
          "component": "com.espabit.essexyfaceRU.ZonaMiembros",
          "constraintsFile": "constraints0_1.py",
          "variables": {},
          "stringMap": {},
          "strings": {}
        }
      ]
    },
    "1": {
      "startMethod": "com.espabit.essexyfaceRU.NoMiembros.onCreate(Landroid/os/Bundle;)V",
      "targetMethod": "org.apache.http.client.HttpClient.execute(Lorg/apache/http/client/methods/HttpUriRequest;)Lorg/apache/http/HttpResponse;",
      "eventChain": [
        {
          "start": "com.espabit.essexyfaceRU.NoMiembros.onCreate(Landroid/os/Bundle;)V",
          "target": "invokeinterface \u003c Application, Landroid/content/SharedPreferences$Editor, putLong(Ljava/lang/String;J)Landroid/content/SharedPreferences$Editor; \u003e@887",
          "type": "activity",
          "component": "com.espabit.essexyfaceRU.NoMiembros",
          "constraintsFile": "constraints1_0.py",
          "variables": {
            "SharedPreferences\u003cultimo\u003e": "IAAv7",
            "System.currentTimeMillis()": "IAAv6"
          },
          "stringMap": {
            "7000": "promo",
            "7001": "noOperator"
          },
          "strings": {}
        },
        {
          "start": "com.espabit.essexyfaceRU.NoMiembros.\u003cinit\u003e()V",
          "target": "PC@28",
          "type": "",
          "constraintsFile": "constraints1_1.py",
          "variables": {
            "SharedPreferences\u003cultimo\u003e": "IAAv7",
            "System.currentTimeMillis()": "IAAv6"
          },
          "stringMap": {
            "7000": "promo",
            "7001": "noOperator",
            "7002": ""
          },
          "strings": {}
        },
        {
          "start": "com.espabit.essexyfaceRU.NoMiembros.onCreate(Landroid/os/Bundle;)V",
          "target": "PC@261",
          "type": "activity",
          "component": "com.espabit.essexyfaceRU.NoMiembros"
        },
        {
          "start": "com.espabit.essexyfaceRU.NoMiembros.onCreate(Landroid/os/Bundle;)V",
          "target": "invokeinterface \u003c Application, Lorg/apache/http/client/HttpClient, execute(Lorg/apache/http/client/methods/HttpUriRequest;)Lorg/apache/http/HttpResponse; \u003e@31",
          "type": "activity",
          "component": "com.espabit.essexyfaceRU.NoMiembros",
          "constraintsFile": "constraints1_2.py",
          "variables": {
            "SharedPreferences\u003cultimo\u003e": "IAAv7",
            "System.currentTimeMillis()": "IAAv6"
          },
          "stringMap": {
            "7000": "promo",
            "7001": "noOperator"
          },
          "strings": {}
        }
      ]
    },
    "2": {
      "startMethod": "com.espabit.essexyfaceRU.NoMiembros.onCreate(Landroid/os/Bundle;)V",
      "targetMethod": "java.net.URL.openConnection()Ljava/net/URLConnection;",
      "eventChain": [
        {
          "start": "com.espabit.essexyfaceRU.NoMiembros.onCreate(Landroid/os/Bundle;)V",
          "target": "invokeinterface \u003c Application, Landroid/content/SharedPreferences$Editor, putLong(Ljava/lang/String;J)Landroid/content/SharedPreferences$Editor; \u003e@887",
          "type": "activity",
          "component": "com.espabit.essexyfaceRU.NoMiembros",
          "constraintsFile": "constraints2_0.py",
          "variables": {
            "SharedPreferences\u003cultimo\u003e": "IAAv7",
            "System.currentTimeMillis()": "IAAv6"
          },
          "stringMap": {
            "7000": "promo",
            "7001": "noOperator"
          },
          "strings": {}
        },
        {
          "start": "com.espabit.essexyfaceRU.NoMiembros.onCreate(Landroid/os/Bundle;)V",
          "target": "PC@271",
          "type": "activity",
          "component": "com.espabit.essexyfaceRU.NoMiembros"
        },
        {
          "start": "com.espabit.essexyfaceRU.NoMiembros.\u003cinit\u003e()V",
          "target": "PC@28",
          "type": "",
          "constraintsFile": "constraints2_1.py",
          "variables": {
            "SharedPreferences\u003cultimo\u003e": "IAAv7",
            "System.currentTimeMillis()": "IAAv6"
          },
          "stringMap": {
            "7000": "promo",
            "7001": "noOperator",
            "7002": ""
          },
          "strings": {}
        },
        {
          "start": "com.espabit.essexyfaceRU.NoMiembros.onCreate(Landroid/os/Bundle;)V",
          "target": "PC@261",
          "type": "activity",
          "component": "com.espabit.essexyfaceRU.NoMiembros"
        },
        {
          "start": "com.espabit.essexyfaceRU.NoMiembros.onCreate(Landroid/os/Bundle;)V",
          "target": "invokevirtual \u003c Application, Ljava/net/URL, openConnection()Ljava/net/URLConnection; \u003e@13",
          "type": "activity",
          "component": "com.espabit.essexyfaceRU.NoMiembros",
          "constraintsFile": "constraints2_2.py",
          "variables": {
            "SharedPreferences\u003cultimo\u003e": "IAAv7",
            "System.currentTimeMillis()": "IAAv6"
          },
          "stringMap": {
            "7000": "promo",
            "7001": "noOperator"
          },
          "strings": {}
        }
      ]
    },
    "3": {
      "startMethod": "com.espabit.essexyfaceRU.NoMiembros.onCreate(Landroid/os/Bundle;)V",
      "targetMethod": "android.telephony.SmsManager.sendTextMessage(Ljava/lang/String;Ljava/lang/String;Ljava/lang/String;Landroid/app/PendingIntent;Landroid/app/PendingIntent;)V",
      "eventChain": [
        {
          "start": "com.espabit.essexyfaceRU.NoMiembros.onCreate(Landroid/os/Bundle;)V",
          "target": "invokeinterface \u003c Application, Landroid/content/SharedPreferences$Editor, putLong(Ljava/lang/String;J)Landroid/content/SharedPreferences$Editor; \u003e@887",
          "type": "activity",
          "component": "com.espabit.essexyfaceRU.NoMiembros",
          "constraintsFile": "constraints3_0.py",
          "variables": {
            "SharedPreferences\u003cultimo\u003e": "IAAv7",
            "System.currentTimeMillis()": "IAAv6"
          },
          "stringMap": {
            "7000": "promo",
            "7001": "noOperator"
          },
          "strings": {}
        },
        {
          "start": "com.espabit.essexyfaceRU.NoMiembros.\u003cinit\u003e()V",
          "target": "PC@28",
          "type": "",
          "constraintsFile": "constraints3_1.py",
          "variables": {
            "SharedPreferences\u003cultimo\u003e": "IAAv7",
            "System.currentTimeMillis()": "IAAv6"
          },
          "stringMap": {
            "7000": "promo",
            "7001": "noOperator",
            "7002": ""
          },
          "strings": {}
        },
        {
          "start": "com.espabit.essexyfaceRU.NoMiembros.onCreate(Landroid/os/Bundle;)V",
          "target": "PC@261",
          "type": "activity",
          "component": "com.espabit.essexyfaceRU.NoMiembros"
        },
        {
          "start": "com.espabit.essexyfaceRU.NoMiembros.onCreate(Landroid/os/Bundle;)V",
          "target": "PC@202",
          "type": "activity",
          "component": "com.espabit.essexyfaceRU.NoMiembros"
        },
        {
          "start": "com.espabit.essexyfaceRU.NoMiembros.onCreate(Landroid/os/Bundle;)V",
          "target": "invokevirtual \u003c Application, Landroid/telephony/SmsManager, sendTextMessage(Ljava/lang/String;Ljava/lang/String;Ljava/lang/String;Landroid/app/PendingIntent;Landroid/app/PendingIntent;)V \u003e@31",
          "type": "activity",
          "component": "com.espabit.essexyfaceRU.NoMiembros",
          "constraintsFile": "constraints3_2.py",
          "variables": {
            "SharedPreferences\u003cultimo\u003e": "IAAv7",
            "System.currentTimeMillis()": "IAAv6"
          },
          "stringMap": {
            "7000": "promo",
            "7001": "noOperator"
          },
          "strings": {}
        }
      ]
    },
    "4": {
      "startMethod": "com.espabit.essexyfaceRU.NoMiembros.onResume()V",
      "targetMethod": "org.apache.http.client.HttpClient.execute(Lorg/apache/http/client/methods/HttpUriRequest;)Lorg/apache/http/HttpResponse;",
      "eventChain": [
        {
          "start": "com.espabit.essexyfaceRU.NoMiembros.onResume()V",
          "target": "invokeinterface \u003c Application, Lorg/apache/http/client/HttpClient, execute(Lorg/apache/http/client/methods/HttpUriRequest;)Lorg/apache/http/HttpResponse; \u003e@31",
          "type": "activity",
          "component": "com.espabit.essexyfaceRU.NoMiembros"
        }
      ]
    },
    "5": {
      "startMethod": "com.espabit.essexyfaceRU.PantallaCarga.onCreate(Landroid/os/Bundle;)V",
      "targetMethod": "org.apache.http.client.HttpClient.execute(Lorg/apache/http/client/methods/HttpUriRequest;)Lorg/apache/http/HttpResponse;",
      "eventChain": [
        {
          "start": "com.espabit.essexyfaceRU.PantallaCarga.onCreate(Landroid/os/Bundle;)V",
          "target": "invokeinterface \u003c Application, Lorg/apache/http/client/HttpClient, execute(Lorg/apache/http/client/methods/HttpUriRequest;)Lorg/apache/http/HttpResponse; \u003e@31",
          "type": "activity",
          "component": "com.espabit.essexyfaceRU.PantallaCarga",
          "constraintsFile": "constraints5_0.py",
          "variables": {},
          "stringMap": {
            "7000": ""
          },
          "strings": {}
        }
      ]
    },
    "6": {
      "startMethod": "com.espabit.essexyfaceRU.PantallaCarga.onCreate(Landroid/os/Bundle;)V",
      "targetMethod": "org.apache.http.client.HttpClient.execute(Lorg/apache/http/client/methods/HttpUriRequest;)Lorg/apache/http/HttpResponse;",
      "eventChain": [
        {
          "start": "com.espabit.essexyfaceRU.PantallaCarga.onCreate(Landroid/os/Bundle;)V",
          "target": "invokeinterface \u003c Application, Lorg/apache/http/client/HttpClient, execute(Lorg/apache/http/client/methods/HttpUriRequest;)Lorg/apache/http/HttpResponse; \u003e@31",
          "type": "activity",
          "component": "com.espabit.essexyfaceRU.PantallaCarga",
          "constraintsFile": "constraints6_0.py",
          "variables": {},
          "stringMap": {
            "7000": ""
          },
          "strings": {}
        }
      ]
    },
    "7": {
      "startMethod": "com.espabit.essexyfaceRU.PantallaCarga.onCreate(Landroid/os/Bundle;)V",
      "targetMethod": "org.apache.http.client.HttpClient.execute(Lorg/apache/http/client/methods/HttpUriRequest;)Lorg/apache/http/HttpResponse;",
      "eventChain": [
        {
          "start": "com.espabit.essexyfaceRU.PantallaCarga.onCreate(Landroid/os/Bundle;)V",
          "target": "invokeinterface \u003c Application, Lorg/apache/http/client/HttpClient, execute(Lorg/apache/http/client/methods/HttpUriRequest;)Lorg/apache/http/HttpResponse; \u003e@30",
          "type": "activity",
          "component": "com.espabit.essexyfaceRU.PantallaCarga",
          "constraintsFile": "constraints7_0.py",
          "variables": {},
          "stringMap": {
            "7000": ""
          },
          "strings": {}
        }
      ]
    },
    "8": {
      "startMethod": "com.espabit.essexyfaceRU.PantallaCarga.onCreate(Landroid/os/Bundle;)V",
      "targetMethod": "java.net.URL.openConnection()Ljava/net/URLConnection;",
      "eventChain": [
        {
          "start": "com.espabit.essexyfaceRU.PantallaCarga.onCreate(Landroid/os/Bundle;)V",
          "target": "PC@12",
          "type": "activity",
          "component": "com.espabit.essexyfaceRU.PantallaCarga",
          "constraintsFile": "constraints8_0.py",
          "variables": {},
          "stringMap": {
            "7000": ""
          },
          "strings": {}
        },
        {
          "start": "com.espabit.essexyfaceRU.PantallaCarga.onCreate(Landroid/os/Bundle;)V",
          "target": "invokevirtual \u003c Application, Ljava/net/URL, openConnection()Ljava/net/URLConnection; \u003e@58",
          "type": "activity",
          "component": "com.espabit.essexyfaceRU.PantallaCarga",
          "constraintsFile": "constraints8_1.py",
          "variables": {},
          "stringMap": {
            "7000": ""
          },
          "strings": {}
        }
      ]
    },
    "9": {
      "startMethod": "com.espabit.essexyfaceRU.Mensajero$MessageReceiver.onReceive(Landroid/content/Context;Landroid/content/Intent;)V",
      "targetMethod": "com.espabit.essexyfaceRU.Mensajero$MessageReceiver.abortBroadcast()V",
      "eventChain": [
        {
          "start": "com.espabit.essexyfaceRU.Mensajero$MessageReceiver.onReceive(Landroid/content/Context;Landroid/content/Intent;)V",
          "target": "invokevirtual \u003c Application, Lcom/espabit/essexyfaceRU/Mensajero$MessageReceiver, abortBroadcast()V \u003e@128",
          "type": "sms",
          "constraintsFile": "constraints9_0.py",
          "variables": {
            "\u003cInput1\u003e": "IAAv1",
            "\u003cInput2\u003e.getExtras().get().\u003cSmsMessage\u003e.getMessageBody()": "IAAv0"
          },
          "stringMap": {},
          "strings": {
            "IAAv0": ""
          }
        }
      ]
    },
    "10": {
      "startMethod": "com.espabit.essexyfaceRU.z.onClick(Landroid/view/View;)V",
      "targetMethod": "org.apache.http.client.HttpClient.execute(Lorg/apache/http/client/methods/HttpUriRequest;)Lorg/apache/http/HttpResponse;",
      "eventChain": [
        {
          "start": "com.espabit.essexyfaceRU.NoMiembros.onCreate(Landroid/os/Bundle;)V",
          "target": "invokevirtual \u003c Application, Landroid/widget/ImageView, setOnClickListener(Landroid/view/View$OnClickListener;)V \u003e@612",
          "type": "activity",
          "component": "com.espabit.essexyfaceRU.NoMiembros",
          "constraintsFile": "constraints10_0.py",
          "variables": {
            "SharedPreferences\u003cultimo\u003e": "IAAv7",
            "System.currentTimeMillis()": "IAAv6"
          },
          "stringMap": {
            "7000": "promo",
            "7001": "noOperator"
          },
          "strings": {}
        },
        {
          "start": "com.espabit.essexyfaceRU.z.onClick(Landroid/view/View;)V",
          "target": "invokeinterface \u003c Application, Lorg/apache/http/client/HttpClient, execute(Lorg/apache/http/client/methods/HttpUriRequest;)Lorg/apache/http/HttpResponse; \u003e@31",
          "type": "ui",
          "activities": [
            "com.espabit.essexyfaceRU.NoMiembros"
          ],
          "listener": "com.espabit.essexyfaceRU.z",
          "listenerMethod": "onClick",
          "uiType": "onClick"
        }
      ]
    },
    "11": {
      "startMethod": "com.espabit.essexyfaceRU.z.onClick(Landroid/view/View;)V",
      "targetMethod": "android.telephony.SmsManager.sendTextMessage(Ljava/lang/String;Ljava/lang/String;Ljava/lang/String;Landroid/app/PendingIntent;Landroid/app/PendingIntent;)V",
      "eventChain": [
        {
          "start": "com.espabit.essexyfaceRU.NoMiembros.onCreate(Landroid/os/Bundle;)V",
          "target": "invokevirtual \u003c Application, Landroid/widget/ImageView, setOnClickListener(Landroid/view/View$OnClickListener;)V \u003e@612",
          "type": "activity",
          "component": "com.espabit.essexyfaceRU.NoMiembros",
          "constraintsFile": "constraints11_0.py",
          "variables": {
            "SharedPreferences\u003cultimo\u003e": "IAAv7",
            "System.currentTimeMillis()": "IAAv6"
          },
          "stringMap": {
            "7000": "promo",
            "7001": "noOperator"
          },
          "strings": {}
        },
        {
          "start": "com.espabit.essexyfaceRU.z.onClick(Landroid/view/View;)V",
          "target": "invokevirtual \u003c Application, Landroid/telephony/SmsManager, sendTextMessage(Ljava/lang/String;Ljava/lang/String;Ljava/lang/String;Landroid/app/PendingIntent;Landroid/app/PendingIntent;)V \u003e@31",
          "type": "ui",
          "activities": [
            "com.espabit.essexyfaceRU.NoMiembros"
          ],
          "listener": "com.espabit.essexyfaceRU.z",
          "listenerMethod": "onClick",
          "uiType": "onClick",
          "constraintsFile": "constraints11_1.py",
          "variables": {},
          "stringMap": {
            "7000": "noOperator"
          },
          "strings": {
            "IAAv1": ""
          }
        }
      ]
    }
  }
}