{
  "packageName": "com.appbuilder.u2330p644413",
  "mainActivity": "com.ibuildapp.romanblack.MultiContactsPlugin.MultiContactsPlugin",
  "callPaths": {
    "0": {
      "startMethod": "com.appbuilder.u2330p644413.AppBuilder.onCreate(Landroid/os/Bundle;)V",
      "targetMethod": "java.net.URL.openConnection()Ljava/net/URLConnection;",
      "eventChain": [
        {
          "start": "com.appbuilder.u2330p644413.AppBuilder.onCreate(Landroid/os/Bundle;)V",
          "target": "invokevirtual \u003c Application, Ljava/net/URL, openConnection()Ljava/net/URLConnection; \u003e@42",
          "type": "activity",
          "component": "com.appbuilder.u2330p644413.AppBuilder",
          "constraintsFile": "constraints0_0.py",
          "variables": {},
          "stringMap": {
            "7000": "207296122640913",
            "7001": "_",
            "7002": "8ce2f515309ba56afbfe9c1431b59d9a",
            "7003": "p48aBftV8vXXfG6UWo0BcQ",
            "7004": "YYkHCKtSD7uYhSC3jtPL1H2b6NaX2u6x5kOLLgRUA"
          },
          "strings": {}
        }
      ]
    },
    "1": {
      "startMethod": "com.appbuilder.u2330p644413.AppBuilder.onCreate(Landroid/os/Bundle;)V",
      "targetMethod": "java.net.URL.openConnection()Ljava/net/URLConnection;",
      "eventChain": [
        {
          "start": "com.appbuilder.u2330p644413.AppBuilder.onCreate(Landroid/os/Bundle;)V",
          "target": "invokevirtual \u003c Application, Ljava/net/URL, openConnection()Ljava/net/URLConnection; \u003e@14",
          "type": "activity",
          "component": "com.appbuilder.u2330p644413.AppBuilder",
          "constraintsFile": "constraints1_0.py",
          "variables": {},
          "stringMap": {
            "7000": "207296122640913",
            "7001": "_",
            "7002": "8ce2f515309ba56afbfe9c1431b59d9a",
            "7003": "p48aBftV8vXXfG6UWo0BcQ",
            "7004": "YYkHCKtSD7uYhSC3jtPL1H2b6NaX2u6x5kOLLgRUA"
          },
          "strings": {
            "IAAv7": ""
          }
        }
      ]
    },
    "2": {
      "startMethod": "com.appbuilder.u2330p644413.AppBuilder.onStop()V",
      "targetMethod": "java.lang.reflect.Method.invoke(Ljava/lang/Object;[Ljava/lang/Object;)Ljava/lang/Object;",
      "eventChain": [
        {
          "start": "com.appbuilder.u2330p644413.AppBuilder.onStop()V",
          "target": "invokevirtual \u003c Application, Ljava/lang/reflect/Method, invoke(Ljava/lang/Object;[Ljava/lang/Object;)Ljava/lang/Object; \u003e@40",
          "type": "activity",
          "component": "com.appbuilder.u2330p644413.AppBuilder",
          "constraintsFile": "constraints2_0.py",
          "variables": {},
          "stringMap": {},
          "strings": {}
        }
      ]
    },
    "3": {
      "startMethod": "com.appbuilder.u2330p644413.AppBuilder.onStop()V",
      "targetMethod": "java.lang.reflect.Method.invoke(Ljava/lang/Object;[Ljava/lang/Object;)Ljava/lang/Object;",
      "eventChain": [
        {
          "start": "com.appbuilder.u2330p644413.AppBuilder.onStop()V",
          "target": "invokevirtual \u003c Application, Ljava/lang/reflect/Method, invoke(Ljava/lang/Object;[Ljava/lang/Object;)Ljava/lang/Object; \u003e@40",
          "type": "activity",
          "component": "com.appbuilder.u2330p644413.AppBuilder",
          "constraintsFile": "constraints3_0.py",
          "variables": {},
          "stringMap": {},
          "strings": {}
        }
      ]
    },
    "4": {
      "startMethod": "com.appbuilder.u2330p644413.AppBuilder.onStart()V",
      "targetMethod": "org.apache.http.client.HttpClient.execute(Lorg/apache/http/client/methods/HttpUriRequest;)Lorg/apache/http/HttpResponse;",
      "eventChain": [
        {
          "start": "com.appbuilder.u2330p644413.AppBuilder.\u003cinit\u003e()V",
          "target": "PC@39",
          "type": "",
          "constraintsFile": "constraints4_0.py",
          "variables": {},
          "stringMap": {
            "7000": "",
            "7001": "KZQKP322NKXM9JD7HYBS",
            "7002": "FFLLuuRRRRyy"
          },
          "strings": {}
        },
        {
          "start": "com.appbuilder.u2330p644413.AppBuilder.onStart()V",
          "target": "invokeinterface \u003c Application, Lorg/apache/http/client/HttpClient, execute(Lorg/apache/http/client/methods/HttpUriRequest;)Lorg/apache/http/HttpResponse; \u003e@163",
          "type": "activity",
          "component": "com.appbuilder.u2330p644413.AppBuilder",
          "constraintsFile": "constraints4_1.py",
          "variables": {},
          "stringMap": {
            "7000": "",
            "7001": "KZQKP322NKXM9JD7HYBS",
            "7002": "FFLLuuRRRRyy"
          },
          "strings": {}
        }
      ]
    },
    "5": {
      "startMethod": "com.appbuilder.u2330p644413.AppBuilder.onStart()V",
      "targetMethod": "java.lang.reflect.Method.invoke(Ljava/lang/Object;[Ljava/lang/Object;)Ljava/lang/Object;",
      "eventChain": [
        {
          "start": "com.appbuilder.u2330p644413.AppBuilder.\u003cinit\u003e()V",
          "target": "PC@39",
          "type": "",
          "constraintsFile": "constraints5_0.py",
          "variables": {},
          "stringMap": {
            "7000": "",
            "7001": "KZQKP322NKXM9JD7HYBS",
            "7002": "FFLLuuRRRRyy"
          },
          "strings": {}
        },
        {
          "start": "com.appbuilder.u2330p644413.AppBuilder.onStart()V",
          "target": "invokevirtual \u003c Application, Ljava/lang/reflect/Method, invoke(Ljava/lang/Object;[Ljava/lang/Object;)Ljava/lang/Object; \u003e@40",
          "type": "activity",
          "component": "com.appbuilder.u2330p644413.AppBuilder",
          "constraintsFile": "constraints5_1.py",
          "variables": {},
          "stringMap": {
            "7000": "",
            "7001": "KZQKP322NKXM9JD7HYBS",
            "7002": "FFLLuuRRRRyy"
          },
          "strings": {}
        }
      ]
    },
    "6": {
      "startMethod": "com.appbuilder.u2330p644413.AppBuilder.onStart()V",
      "targetMethod": "java.lang.reflect.Method.invoke(Ljava/lang/Object;[Ljava/lang/Object;)Ljava/lang/Object;",
      "eventChain": [
        {
          "start": "com.appbuilder.u2330p644413.AppBuilder.\u003cinit\u003e()V",
          "target": "PC@39",
          "type": "",
          "constraintsFile": "constraints6_0.py",
          "variables": {},
          "stringMap": {
            "7000": "",
            "7001": "KZQKP322NKXM9JD7HYBS",
            "7002": "FFLLuuRRRRyy"
          },
          "strings": {}
        },
        {
          "start": "com.appbuilder.u2330p644413.AppBuilder.onStart()V",
          "target": "invokevirtual \u003c Application, Ljava/lang/reflect/Method, invoke(Ljava/lang/Object;[Ljava/lang/Object;)Ljava/lang/Object; \u003e@40",
          "type": "activity",
          "component": "com.appbuilder.u2330p644413.AppBuilder",
          "constraintsFile": "constraints6_1.py",
          "variables": {},
          "stringMap": {
            "7000": "",
            "7001": "KZQKP322NKXM9JD7HYBS",
            "7002": "FFLLuuRRRRyy"
          },
          "strings": {}
        }
      ]
    },
    "7": {
      "startMethod": "com.ibuildapp.romanblack.VideoPlugin.PushBroadcast.onReceive(Landroid/content/Context;Landroid/content/Intent;)V",
      "targetMethod": "java.net.URL.openConnection()Ljava/net/URLConnection;",
      "eventChain": [
        {
          "start": "com.ibuildapp.romanblack.VideoPlugin.PushBroadcast.onReceive(Landroid/content/Context;Landroid/content/Intent;)V",
          "target": "invokevirtual \u003c Application, Ljava/net/URL, openConnection()Ljava/net/URLConnection; \u003e@14",
          "type": "sms"
        }
      ]
    },
    "8": {
      "startMethod": "com.ibuildapp.romanblack.DirectoryPlugin.SharingActivity.onClick(Landroid/view/View;)V",
      "targetMethod": "java.lang.reflect.Method.invoke(Ljava/lang/Object;[Ljava/lang/Object;)Ljava/lang/Object;",
      "eventChain": [
        {
          "start": "com.ibuildapp.romanblack.DirectoryPlugin.SharingActivity.\u003cinit\u003e()V",
          "target": "PC@110",
          "type": "",
          "constraintsFile": "constraints8_0.py",
          "variables": {
            "\u003cChainedInput1\u003e": "IAAv0"
          },
          "stringMap": {
            "7000": "facebook"
          },
          "strings": {}
        },
        {
          "start": "com.ibuildapp.romanblack.DirectoryPlugin.SharingActivity.\u003cinit\u003e()V",
          "target": "PC@115",
          "type": "",
          "constraintsFile": "constraints8_1.py",
          "variables": {
            "\u003cChainedInput1\u003e": "IAAv0"
          },
          "stringMap": {
            "7000": "facebook"
          },
          "strings": {}
        },
        {
          "start": "com.ibuildapp.romanblack.DirectoryPlugin.SharingActivity.onClick(Landroid/view/View;)V",
          "target": "invokevirtual \u003c Application, Ljava/lang/reflect/Method, invoke(Ljava/lang/Object;[Ljava/lang/Object;)Ljava/lang/Object; \u003e@191",
          "type": "ui",
          "activities": [
            "com.ibuildapp.romanblack.MultiContactsPlugin.MultiContactsPlugin"
          ],
          "listener": "com.ibuildapp.romanblack.DirectoryPlugin.SharingActivity",
          "listenerMethod": "onClick",
          "uiType": "onClick",
          "constraintsFile": "constraints8_2.py",
          "variables": {
            "\u003cChainedInput1\u003e": "IAAv0"
          },
          "stringMap": {
            "7000": "facebook"
          },
          "strings": {}
        }
      ]
    },
    "9": {
      "startMethod": "com.ibuildapp.romanblack.FanWallPlugin.FanWallPlugin.onClick(Landroid/view/View;)V",
      "targetMethod": "java.net.URL.openConnection()Ljava/net/URLConnection;",
      "eventChain": [
        {
          "start": "com.ibuildapp.romanblack.FanWallPlugin.FanWallPlugin.\u003cinit\u003e()V",
          "target": "PC@240",
          "type": "",
          "constraintsFile": "constraints9_0.py",
          "variables": {
            "\u003cChainedInput1\u003e.getId()": "IAAv0"
          },
          "stringMap": {},
          "strings": {}
        },
        {
          "start": "com.ibuildapp.romanblack.FanWallPlugin.FanWallPlugin.\u003cinit\u003e()V",
          "target": "PC@463",
          "type": "",
          "constraintsFile": "constraints9_1.py",
          "variables": {
            "\u003cChainedInput1\u003e.getId()": "IAAv0"
          },
          "stringMap": {},
          "strings": {}
        },
        {
          "start": "com.ibuildapp.romanblack.FanWallPlugin.FanWallPlugin.\u003cinit\u003e()V",
          "target": "PC@259",
          "type": "",
          "constraintsFile": "constraints9_2.py",
          "variables": {
            "\u003cChainedInput1\u003e.getId()": "IAAv0"
          },
          "stringMap": {},
          "strings": {}
        },
        {
          "start": "com.ibuildapp.romanblack.FanWallPlugin.FanWallPlugin.\u003cinit\u003e()V",
          "target": "PC@468",
          "type": "",
          "constraintsFile": "constraints9_3.py",
          "variables": {
            "\u003cChainedInput1\u003e.getId()": "IAAv0"
          },
          "stringMap": {},
          "strings": {}
        },
        {
          "start": "com.ibuildapp.romanblack.FanWallPlugin.FanWallPlugin.onClick(Landroid/view/View;)V",
          "target": "invokevirtual \u003c Application, Ljava/net/URL, openConnection()Ljava/net/URLConnection; \u003e@14",
          "type": "ui",
          "activities": [
            "com.ibuildapp.romanblack.MultiContactsPlugin.MultiContactsPlugin"
          ],
          "listener": "com.ibuildapp.romanblack.FanWallPlugin.FanWallPlugin",
          "listenerMethod": "onClick",
          "uiType": "onClick",
          "constraintsFile": "constraints9_4.py",
          "variables": {
            "\u003cChainedInput1\u003e.getId()": "IAAv0"
          },
          "stringMap": {},
          "strings": {}
        }
      ]
    },
    "10": {
      "startMethod": "com.ibuildapp.romanblack.VideoPlugin.SharingActivity.onClick(Landroid/view/View;)V",
      "targetMethod": "java.lang.reflect.Method.invoke(Ljava/lang/Object;[Ljava/lang/Object;)Ljava/lang/Object;",
      "eventChain": [
        {
          "start": "com.ibuildapp.romanblack.VideoPlugin.SharingActivity.\u003cinit\u003e()V",
          "target": "PC@76",
          "type": "",
          "constraintsFile": "constraints10_0.py",
          "variables": {
            "\u003cChainedInput1\u003e": "IAAv0"
          },
          "stringMap": {
            "7000": "facebook",
            "7001": "get",
            "7002": "is"
          },
          "strings": {
            "IAAv10": ""
          }
        },
        {
          "start": "com.ibuildapp.romanblack.VideoPlugin.SharingActivity.\u003cinit\u003e()V",
          "target": "PC@71",
          "type": "",
          "constraintsFile": "constraints10_1.py",
          "variables": {
            "\u003cChainedInput1\u003e": "IAAv0"
          },
          "stringMap": {
            "7000": "facebook",
            "7001": "get",
            "7002": "is"
          },
          "strings": {
            "IAAv10": ""
          }
        },
        {
          "start": "com.ibuildapp.romanblack.VideoPlugin.SharingActivity.\u003cinit\u003e()V",
          "target": "PC@48",
          "type": "",
          "constraintsFile": "constraints10_2.py",
          "variables": {
            "\u003cChainedInput1\u003e": "IAAv0"
          },
          "stringMap": {
            "7000": "facebook",
            "7001": "get",
            "7002": "is",
            "7003": ""
          },
          "strings": {
            "IAAv10": ""
          }
        },
        {
          "start": "com.ibuildapp.romanblack.VideoPlugin.SharingActivity.onClick(Landroid/view/View;)V",
          "target": "invokevirtual \u003c Application, Ljava/lang/reflect/Method, invoke(Ljava/lang/Object;[Ljava/lang/Object;)Ljava/lang/Object; \u003e@191",
          "type": "ui",
          "activities": [
            "com.ibuildapp.romanblack.MultiContactsPlugin.MultiContactsPlugin"
          ],
          "listener": "com.ibuildapp.romanblack.VideoPlugin.SharingActivity",
          "listenerMethod": "onClick",
          "uiType": "onClick",
          "constraintsFile": "constraints10_3.py",
          "variables": {
            "\u003cChainedInput1\u003e": "IAAv0"
          },
          "stringMap": {
            "7000": "facebook",
            "7001": "get",
            "7002": "is"
          },
          "strings": {
            "IAAv10": ""
          }
        }
      ]
    },
    "11": {
      "startMethod": "com.ibuildapp.romanblack.VideoPlugin.VideoPlayer.onClick(Landroid/view/View;)V",
      "targetMethod": "java.net.URL.openConnection()Ljava/net/URLConnection;",
      "eventChain": [
        {
          "start": "com.ibuildapp.romanblack.VideoPlugin.VideoPlayer.\u003cinit\u003e()V",
          "target": "PC@178",
          "type": "",
          "constraintsFile": "constraints11_0.py",
          "variables": {
            "\u003cChainedInput1\u003e": "IAAv0"
          },
          "stringMap": {},
          "strings": {}
        },
        {
          "start": "com.ibuildapp.romanblack.VideoPlugin.VideoPlayer.\u003cinit\u003e()V",
          "target": "PC@168",
          "type": "",
          "constraintsFile": "constraints11_1.py",
          "variables": {
            "\u003cChainedInput1\u003e": "IAAv0"
          },
          "stringMap": {},
          "strings": {}
        },
        {
          "start": "com.ibuildapp.romanblack.VideoPlugin.VideoPlayer.\u003cinit\u003e()V",
          "target": "PC@213",
          "type": "",
          "constraintsFile": "constraints11_2.py",
          "variables": {
            "\u003cChainedInput1\u003e": "IAAv0"
          },
          "stringMap": {},
          "strings": {}
        },
        {
          "start": "com.ibuildapp.romanblack.VideoPlugin.VideoPlayer.onClick(Landroid/view/View;)V",
          "target": "invokevirtual \u003c Application, Ljava/net/URL, openConnection()Ljava/net/URLConnection; \u003e@14",
          "type": "ui",
          "activities": [
            "com.ibuildapp.romanblack.MultiContactsPlugin.MultiContactsPlugin"
          ],
          "listener": "com.ibuildapp.romanblack.VideoPlugin.VideoPlayer",
          "listenerMethod": "onClick",
          "uiType": "onClick",
          "constraintsFile": "constraints11_3.py",
          "variables": {
            "\u003cChainedInput1\u003e": "IAAv0"
          },
          "stringMap": {},
          "strings": {}
        }
      ]
    },
    "12": {
      "startMethod": "com.ibuildapp.romanblack.VideoPlugin.VideoPlayer.onClick(Landroid/view/View;)V",
      "targetMethod": "java.net.URL.openConnection()Ljava/net/URLConnection;",
      "eventChain": [
        {
          "start": "com.ibuildapp.romanblack.VideoPlugin.VideoPlayer.\u003cinit\u003e()V",
          "target": "PC@178",
          "type": "",
          "constraintsFile": "constraints12_0.py",
          "variables": {
            "\u003cChainedInput1\u003e": "IAAv0"
          },
          "stringMap": {},
          "strings": {}
        },
        {
          "start": "com.ibuildapp.romanblack.VideoPlugin.VideoPlayer.\u003cinit\u003e()V",
          "target": "PC@168",
          "type": "",
          "constraintsFile": "constraints12_1.py",
          "variables": {
            "\u003cChainedInput1\u003e": "IAAv0"
          },
          "stringMap": {},
          "strings": {}
        },
        {
          "start": "com.ibuildapp.romanblack.VideoPlugin.VideoPlayer.\u003cinit\u003e()V",
          "target": "PC@213",
          "type": "",
          "constraintsFile": "constraints12_2.py",
          "variables": {
            "\u003cChainedInput1\u003e": "IAAv0"
          },
          "stringMap": {},
          "strings": {}
        },
        {
          "start": "com.ibuildapp.romanblack.VideoPlugin.VideoPlayer.onClick(Landroid/view/View;)V",
          "target": "invokevirtual \u003c Application, Ljava/net/URL, openConnection()Ljava/net/URLConnection; \u003e@19",
          "type": "ui",
          "activities": [
            "com.ibuildapp.romanblack.MultiContactsPlugin.MultiContactsPlugin"
          ],
          "listener": "com.ibuildapp.romanblack.VideoPlugin.VideoPlayer",
          "listenerMethod": "onClick",
          "uiType": "onClick",
          "constraintsFile": "constraints12_3.py",
          "variables": {
            "\u003cChainedInput1\u003e": "IAAv0"
          },
          "stringMap": {},
          "strings": {}
        }
      ]
    },
    "13": {
      "startMethod": "com.flurry.android.monolithic.sdk.impl.jc.onReceive(Landroid/content/Context;Landroid/content/Intent;)V",
      "targetMethod": "org.apache.http.client.HttpClient.execute(Lorg/apache/http/client/methods/HttpUriRequest;)Lorg/apache/http/HttpResponse;",
      "eventChain": [
        {
          "start": "com.appbuilder.u2330p644413.AppBuilder.onStop()V",
          "target": "invokespecial \u003c Application, Landroid/content/BroadcastReceiver, \u003cinit\u003e()V \u003e@2",
          "type": "activity",
          "component": "com.appbuilder.u2330p644413.AppBuilder",
          "constraintsFile": "constraints13_0.py",
          "variables": {},
          "stringMap": {},
          "strings": {}
        },
        {
          "start": "com.appbuilder.u2330p644413.AppBuilder.onStart()V",
          "target": "PC@40",
          "type": "activity",
          "component": "com.appbuilder.u2330p644413.AppBuilder",
          "constraintsFile": "constraints13_1.py",
          "variables": {},
          "stringMap": {
            "7000": "",
            "7001": "KZQKP322NKXM9JD7HYBS",
            "7002": "FFLLuuRRRRyy"
          },
          "strings": {}
        },
        {
          "start": "com.flurry.android.monolithic.sdk.impl.jc.onReceive(Landroid/content/Context;Landroid/content/Intent;)V",
          "target": "invokeinterface \u003c Application, Lorg/apache/http/client/HttpClient, execute(Lorg/apache/http/client/methods/HttpUriRequest;)Lorg/apache/http/HttpResponse; \u003e@163",
          "type": "sms",
          "constraintsFile": "constraints13_2.py",
          "variables": {},
          "stringMap": {},
          "strings": {}
        }
      ]
    },
    "14": {
      "startMethod": "com.google.ads.InstallReceiver.onReceive(Landroid/content/Context;Landroid/content/Intent;)V",
      "targetMethod": "java.net.URL.openConnection()Ljava/net/URLConnection;",
      "eventChain": [
        {
          "start": "com.google.ads.InstallReceiver.onReceive(Landroid/content/Context;Landroid/content/Intent;)V",
          "target": "invokevirtual \u003c Application, Ljava/net/URL, openConnection()Ljava/net/URLConnection; \u003e@104",
          "type": "sms"
        }
      ]
    }
  }
}