{
  "packageName": "com.guangjun.fangdai",
  "mainActivity": "com.guangjun.fangdai.SplashActivity",
  "callPaths": {
    "0": {
      "startMethod": "com.feiwothree.coverscreen.SA.onCreate(Landroid/os/Bundle;)V",
      "targetMethod": "java.net.URL.openConnection()Ljava/net/URLConnection;",
      "eventChain": [
        {
          "start": "com.feiwothree.coverscreen.SA.onCreate(Landroid/os/Bundle;)V",
          "target": "invokevirtual \u003c Application, Ljava/net/URL, openConnection()Ljava/net/URLConnection; \u003e@127",
          "type": "activity",
          "component": "com.feiwothree.coverscreen.SA"
        }
      ]
    },
    "1": {
      "startMethod": "com.feiwothree.coverscreen.SR.onReceive(Landroid/content/Context;Landroid/content/Intent;)V",
      "targetMethod": "java.net.URL.openConnection()Ljava/net/URLConnection;",
      "eventChain": [
        {
          "start": "com.feiwothree.coverscreen.SR.onReceive(Landroid/content/Context;Landroid/content/Intent;)V",
          "target": "invokevirtual \u003c Application, Ljava/net/URL, openConnection()Ljava/net/URLConnection; \u003e@241",
          "type": "sms",
          "constraintsFile": "constraints1_0.py",
          "variables": {
            "\u003cInput2\u003e.getAction()": "IAAv1",
            "\u003cInput1\u003e.a()": "IAAv0"
          },
          "stringMap": {
            "7000": "android.intent.action.PACKAGE_ADDED",
            "7001": "broadcast.route.control",
            "7002": "android.net.conn.CONNECTIVITY_CHANGE"
          },
          "strings": {
            "IAAv1": ""
          }
        }
      ]
    },
    "2": {
      "startMethod": "com.feiwoone.banner.AdReceiver.onReceive(Landroid/content/Context;Landroid/content/Intent;)V",
      "targetMethod": "java.net.URL.openConnection(Ljava/net/Proxy;)Ljava/net/URLConnection;",
      "eventChain": [
        {
          "start": "com.feiwoone.banner.AdReceiver.onReceive(Landroid/content/Context;Landroid/content/Intent;)V",
          "target": "invokevirtual \u003c Application, Ljava/net/URL, openConnection(Ljava/net/Proxy;)Ljava/net/URLConnection; \u003e@75",
          "type": "sms",
          "constraintsFile": "constraints2_0.py",
          "variables": {
            "\u003cChainedInput1\u003e.getSystemService().getActiveNetworkInfo().isAvailable()": "IAAv4",
            "\u003cChainedInput1\u003e.getSystemService().getActiveNetworkInfo()": "IAAv3",
            "\u003cChainedInput2\u003e.getAction()": "IAAv0"
          },
          "stringMap": {
            "7000": "android.intent.action.PACKAGE_ADDED",
            "7001": "android.net.conn.CONNECTIVITY_CHANGE"
          },
          "strings": {
            "IAAv0": ""
          }
        }
      ]
    },
    "3": {
      "startMethod": "com.feiwoone.banner.AdReceiver.onReceive(Landroid/content/Context;Landroid/content/Intent;)V",
      "targetMethod": "java.net.URL.openConnection()Ljava/net/URLConnection;",
      "eventChain": [
        {
          "start": "com.feiwoone.banner.AdReceiver.onReceive(Landroid/content/Context;Landroid/content/Intent;)V",
          "target": "invokevirtual \u003c Application, Ljava/net/URL, openConnection()Ljava/net/URLConnection; \u003e@209",
          "type": "sms",
          "constraintsFile": "constraints3_0.py",
          "variables": {
            "\u003cChainedInput1\u003e.getSystemService().getActiveNetworkInfo().isAvailable()": "IAAv4",
            "\u003cChainedInput1\u003e.getSystemService().getActiveNetworkInfo()": "IAAv3",
            "\u003cChainedInput2\u003e.getAction()": "IAAv0"
          },
          "stringMap": {
            "7000": "android.intent.action.PACKAGE_ADDED",
            "7001": "android.net.conn.CONNECTIVITY_CHANGE"
          },
          "strings": {
            "IAAv0": ""
          }
        }
      ]
    },
    "4": {
      "startMethod": "com.feiwoone.banner.AdReceiver.onReceive(Landroid/content/Context;Landroid/content/Intent;)V",
      "targetMethod": "java.net.URL.openConnection()Ljava/net/URLConnection;",
      "eventChain": [
        {
          "start": "com.feiwoone.banner.AdReceiver.onReceive(Landroid/content/Context;Landroid/content/Intent;)V",
          "target": "invokevirtual \u003c Application, Ljava/net/URL, openConnection()Ljava/net/URLConnection; \u003e@151",
          "type": "sms",
          "constraintsFile": "constraints4_0.py",
          "variables": {
            "\u003cChainedInput1\u003e.getSystemService().getActiveNetworkInfo().isAvailable()": "IAAv4",
            "\u003cChainedInput1\u003e.getSystemService().getActiveNetworkInfo()": "IAAv3",
            "\u003cChainedInput2\u003e.getAction()": "IAAv0"
          },
          "stringMap": {
            "7000": "android.intent.action.PACKAGE_ADDED",
            "7001": "android.net.conn.CONNECTIVITY_CHANGE"
          },
          "strings": {
            "IAAv0": ""
          }
        }
      ]
    },
    "5": {
      "startMethod": "com.feiwothree.coverscreen.z.onSingleTapUp(Landroid/view/MotionEvent;)Z",
      "targetMethod": "java.net.URL.openConnection()Ljava/net/URLConnection;",
      "eventChain": [
        {
          "start": "com.feiwothree.coverscreen.SA.onCreate(Landroid/os/Bundle;)V",
          "target": "invokespecial \u003c Application, Landroid/view/GestureDetector, \u003cinit\u003e(Landroid/content/Context;Landroid/view/GestureDetector$OnGestureListener;)V \u003e@268",
          "type": "activity",
          "component": "com.feiwothree.coverscreen.SA"
        },
        {
          "start": "com.feiwothree.coverscreen.t.onClick(Landroid/content/DialogInterface;I)V",
          "target": "PC@20",
          "type": "ui",
          "activities": [
            "com.guangjun.fangdai.SplashActivity"
          ],
          "listener": "com.feiwothree.coverscreen.t",
          "listenerMethod": "onClick",
          "uiType": "onClick",
          "inDialog": "true"
        },
        {
          "start": "com.feiwothree.coverscreen.z.onSingleTapUp(Landroid/view/MotionEvent;)Z",
          "target": "invokevirtual \u003c Application, Ljava/net/URL, openConnection()Ljava/net/URLConnection; \u003e@241",
          "type": "ui",
          "activities": [
            "com.guangjun.fangdai.SplashActivity"
          ],
          "listener": "com.feiwothree.coverscreen.z",
          "listenerMethod": "onSingleTapUp",
          "uiType": "onSingleTapUp",
          "constraintsFile": "constraints5_0.py",
          "variables": {},
          "stringMap": {
            "7000": "download",
            "7001": "false"
          },
          "strings": {
            "IAAv4": "",
            "IAAv2": "",
            "IAAv6": ""
          }
        }
      ]
    },
    "6": {
      "startMethod": "com.feiwothree.coverscreen.z.onSingleTapUp(Landroid/view/MotionEvent;)Z",
      "targetMethod": "java.net.URL.openConnection()Ljava/net/URLConnection;",
      "eventChain": [
        {
          "start": "com.feiwothree.coverscreen.SA.onCreate(Landroid/os/Bundle;)V",
          "target": "invokespecial \u003c Application, Landroid/view/GestureDetector, \u003cinit\u003e(Landroid/content/Context;Landroid/view/GestureDetector$OnGestureListener;)V \u003e@268",
          "type": "activity",
          "component": "com.feiwothree.coverscreen.SA"
        },
        {
          "start": "com.feiwothree.coverscreen.t.onClick(Landroid/content/DialogInterface;I)V",
          "target": "PC@20",
          "type": "ui",
          "activities": [
            "com.guangjun.fangdai.SplashActivity"
          ],
          "listener": "com.feiwothree.coverscreen.t",
          "listenerMethod": "onClick",
          "uiType": "onClick",
          "inDialog": "true"
        },
        {
          "start": "com.feiwothree.coverscreen.z.onSingleTapUp(Landroid/view/MotionEvent;)Z",
          "target": "invokevirtual \u003c Application, Ljava/net/URL, openConnection()Ljava/net/URLConnection; \u003e@95",
          "type": "ui",
          "activities": [
            "com.guangjun.fangdai.SplashActivity"
          ],
          "listener": "com.feiwothree.coverscreen.z",
          "listenerMethod": "onSingleTapUp",
          "uiType": "onSingleTapUp",
          "constraintsFile": "constraints6_0.py",
          "variables": {},
          "stringMap": {
            "7000": "download",
            "7001": "false"
          },
          "strings": {
            "IAAv4": "",
            "IAAv2": "",
            "IAAv6": ""
          }
        }
      ]
    },
    "7": {
      "startMethod": "com.feiwoone.banner.e.onClick(Landroid/view/View;)V",
      "targetMethod": "java.net.URL.openConnection()Ljava/net/URLConnection;",
      "eventChain": [
        {
          "start": "com.feiwoone.banner.d.onClick(Landroid/view/View;)V",
          "target": "invokevirtual \u003c Application, Landroid/widget/ImageView, setOnClickListener(Landroid/view/View$OnClickListener;)V \u003e@438",
          "type": "ui",
          "activities": [
            "com.guangjun.fangdai.SplashActivity"
          ],
          "listener": "com.feiwoone.banner.d",
          "listenerMethod": "onClick",
          "uiType": "onClick",
          "constraintsFile": "constraints7_0.py",
          "variables": {},
          "stringMap": {},
          "strings": {
            "IAAv1": ""
          }
        },
        {
          "start": "com.feiwoone.banner.e.onClick(Landroid/view/View;)V",
          "target": "invokevirtual \u003c Application, Ljava/net/URL, openConnection()Ljava/net/URLConnection; \u003e@209",
          "type": "ui",
          "activities": [
            "com.guangjun.fangdai.SplashActivity"
          ],
          "listener": "com.feiwoone.banner.e",
          "listenerMethod": "onClick",
          "uiType": "onClick",
          "constraintsFile": "constraints7_1.py",
          "variables": {},
          "stringMap": {},
          "strings": {}
        }
      ]
    },
    "8": {
      "startMethod": "com.feiwoone.banner.e.onClick(Landroid/view/View;)V",
      "targetMethod": "java.net.URL.openConnection()Ljava/net/URLConnection;",
      "eventChain": [
        {
          "start": "com.feiwoone.banner.d.onClick(Landroid/view/View;)V",
          "target": "invokevirtual \u003c Application, Landroid/widget/ImageView, setOnClickListener(Landroid/view/View$OnClickListener;)V \u003e@438",
          "type": "ui",
          "activities": [
            "com.guangjun.fangdai.SplashActivity"
          ],
          "listener": "com.feiwoone.banner.d",
          "listenerMethod": "onClick",
          "uiType": "onClick",
          "constraintsFile": "constraints8_0.py",
          "variables": {},
          "stringMap": {},
          "strings": {
            "IAAv1": ""
          }
        },
        {
          "start": "com.feiwoone.banner.e.onClick(Landroid/view/View;)V",
          "target": "invokevirtual \u003c Application, Ljava/net/URL, openConnection()Ljava/net/URLConnection; \u003e@151",
          "type": "ui",
          "activities": [
            "com.guangjun.fangdai.SplashActivity"
          ],
          "listener": "com.feiwoone.banner.e",
          "listenerMethod": "onClick",
          "uiType": "onClick",
          "constraintsFile": "constraints8_1.py",
          "variables": {},
          "stringMap": {},
          "strings": {}
        }
      ]
    },
    "9": {
      "startMethod": "com.feiwoone.banner.e.onClick(Landroid/view/View;)V",
      "targetMethod": "java.net.URL.openConnection(Ljava/net/Proxy;)Ljava/net/URLConnection;",
      "eventChain": [
        {
          "start": "com.feiwoone.banner.d.onClick(Landroid/view/View;)V",
          "target": "invokevirtual \u003c Application, Landroid/widget/ImageView, setOnClickListener(Landroid/view/View$OnClickListener;)V \u003e@438",
          "type": "ui",
          "activities": [
            "com.guangjun.fangdai.SplashActivity"
          ],
          "listener": "com.feiwoone.banner.d",
          "listenerMethod": "onClick",
          "uiType": "onClick",
          "constraintsFile": "constraints9_0.py",
          "variables": {},
          "stringMap": {},
          "strings": {
            "IAAv1": ""
          }
        },
        {
          "start": "com.feiwoone.banner.e.onClick(Landroid/view/View;)V",
          "target": "invokevirtual \u003c Application, Ljava/net/URL, openConnection(Ljava/net/Proxy;)Ljava/net/URLConnection; \u003e@75",
          "type": "ui",
          "activities": [
            "com.guangjun.fangdai.SplashActivity"
          ],
          "listener": "com.feiwoone.banner.e",
          "listenerMethod": "onClick",
          "uiType": "onClick",
          "constraintsFile": "constraints9_1.py",
          "variables": {},
          "stringMap": {},
          "strings": {}
        }
      ]
    },
    "10": {
      "startMethod": "com.feiwoone.banner.f.onClick(Landroid/view/View;)V",
      "targetMethod": "java.net.URL.openConnection()Ljava/net/URLConnection;",
      "eventChain": [
        {
          "start": "com.feiwoone.banner.d.onClick(Landroid/view/View;)V",
          "target": "invokevirtual \u003c Application, Landroid/widget/ImageView, setOnClickListener(Landroid/view/View$OnClickListener;)V \u003e@637",
          "type": "ui",
          "activities": [
            "com.guangjun.fangdai.SplashActivity"
          ],
          "listener": "com.feiwoone.banner.d",
          "listenerMethod": "onClick",
          "uiType": "onClick",
          "constraintsFile": "constraints10_0.py",
          "variables": {},
          "stringMap": {},
          "strings": {
            "IAAv1": ""
          }
        },
        {
          "start": "com.feiwoone.banner.f.onClick(Landroid/view/View;)V",
          "target": "invokevirtual \u003c Application, Ljava/net/URL, openConnection()Ljava/net/URLConnection; \u003e@209",
          "type": "ui",
          "activities": [
            "com.guangjun.fangdai.SplashActivity"
          ],
          "listener": "com.feiwoone.banner.f",
          "listenerMethod": "onClick",
          "uiType": "onClick",
          "constraintsFile": "constraints10_1.py",
          "variables": {},
          "stringMap": {},
          "strings": {}
        }
      ]
    },
    "11": {
      "startMethod": "com.feiwoone.banner.f.onClick(Landroid/view/View;)V",
      "targetMethod": "java.net.URL.openConnection()Ljava/net/URLConnection;",
      "eventChain": [
        {
          "start": "com.feiwoone.banner.d.onClick(Landroid/view/View;)V",
          "target": "invokevirtual \u003c Application, Landroid/widget/ImageView, setOnClickListener(Landroid/view/View$OnClickListener;)V \u003e@637",
          "type": "ui",
          "activities": [
            "com.guangjun.fangdai.SplashActivity"
          ],
          "listener": "com.feiwoone.banner.d",
          "listenerMethod": "onClick",
          "uiType": "onClick",
          "constraintsFile": "constraints11_0.py",
          "variables": {},
          "stringMap": {},
          "strings": {
            "IAAv1": ""
          }
        },
        {
          "start": "com.feiwoone.banner.f.onClick(Landroid/view/View;)V",
          "target": "invokevirtual \u003c Application, Ljava/net/URL, openConnection()Ljava/net/URLConnection; \u003e@151",
          "type": "ui",
          "activities": [
            "com.guangjun.fangdai.SplashActivity"
          ],
          "listener": "com.feiwoone.banner.f",
          "listenerMethod": "onClick",
          "uiType": "onClick",
          "constraintsFile": "constraints11_1.py",
          "variables": {},
          "stringMap": {},
          "strings": {}
        }
      ]
    },
    "12": {
      "startMethod": "com.feiwoone.banner.f.onClick(Landroid/view/View;)V",
      "targetMethod": "java.net.URL.openConnection(Ljava/net/Proxy;)Ljava/net/URLConnection;",
      "eventChain": [
        {
          "start": "com.feiwoone.banner.d.onClick(Landroid/view/View;)V",
          "target": "invokevirtual \u003c Application, Landroid/widget/ImageView, setOnClickListener(Landroid/view/View$OnClickListener;)V \u003e@637",
          "type": "ui",
          "activities": [
            "com.guangjun.fangdai.SplashActivity"
          ],
          "listener": "com.feiwoone.banner.d",
          "listenerMethod": "onClick",
          "uiType": "onClick",
          "constraintsFile": "constraints12_0.py",
          "variables": {},
          "stringMap": {},
          "strings": {
            "IAAv1": ""
          }
        },
        {
          "start": "com.feiwoone.banner.f.onClick(Landroid/view/View;)V",
          "target": "invokevirtual \u003c Application, Ljava/net/URL, openConnection(Ljava/net/Proxy;)Ljava/net/URLConnection; \u003e@75",
          "type": "ui",
          "activities": [
            "com.guangjun.fangdai.SplashActivity"
          ],
          "listener": "com.feiwoone.banner.f",
          "listenerMethod": "onClick",
          "uiType": "onClick",
          "constraintsFile": "constraints12_1.py",
          "variables": {},
          "stringMap": {},
          "strings": {}
        }
      ]
    },
    "13": {
      "startMethod": "com.feiwoone.banner.d.onClick(Landroid/view/View;)V",
      "targetMethod": "java.net.URL.openConnection()Ljava/net/URLConnection;",
      "eventChain": [
        {
          "start": "com.feiwoone.banner.d.onClick(Landroid/view/View;)V",
          "target": "invokevirtual \u003c Application, Ljava/net/URL, openConnection()Ljava/net/URLConnection; \u003e@209",
          "type": "ui",
          "activities": [
            "com.guangjun.fangdai.SplashActivity"
          ],
          "listener": "com.feiwoone.banner.d",
          "listenerMethod": "onClick",
          "uiType": "onClick",
          "constraintsFile": "constraints13_0.py",
          "variables": {},
          "stringMap": {},
          "strings": {
            "IAAv1": ""
          }
        }
      ]
    },
    "14": {
      "startMethod": "com.feiwoone.banner.d.onClick(Landroid/view/View;)V",
      "targetMethod": "java.net.URL.openConnection(Ljava/net/Proxy;)Ljava/net/URLConnection;",
      "eventChain": [
        {
          "start": "com.feiwoone.banner.d.onClick(Landroid/view/View;)V",
          "target": "invokevirtual \u003c Application, Ljava/net/URL, openConnection(Ljava/net/Proxy;)Ljava/net/URLConnection; \u003e@75",
          "type": "ui",
          "activities": [
            "com.guangjun.fangdai.SplashActivity"
          ],
          "listener": "com.feiwoone.banner.d",
          "listenerMethod": "onClick",
          "uiType": "onClick",
          "constraintsFile": "constraints14_0.py",
          "variables": {},
          "stringMap": {},
          "strings": {
            "IAAv1": ""
          }
        }
      ]
    },
    "15": {
      "startMethod": "com.feiwoone.banner.d.onClick(Landroid/view/View;)V",
      "targetMethod": "java.net.URL.openConnection()Ljava/net/URLConnection;",
      "eventChain": [
        {
          "start": "com.feiwoone.banner.d.onClick(Landroid/view/View;)V",
          "target": "invokevirtual \u003c Application, Ljava/net/URL, openConnection()Ljava/net/URLConnection; \u003e@151",
          "type": "ui",
          "activities": [
            "com.guangjun.fangdai.SplashActivity"
          ],
          "listener": "com.feiwoone.banner.d",
          "listenerMethod": "onClick",
          "uiType": "onClick",
          "constraintsFile": "constraints15_0.py",
          "variables": {},
          "stringMap": {},
          "strings": {
            "IAAv1": ""
          }
        }
      ]
    },
    "16": {
      "startMethod": "com.feiwothree.coverscreen.t.onClick(Landroid/content/DialogInterface;I)V",
      "targetMethod": "java.net.URL.openConnection()Ljava/net/URLConnection;",
      "eventChain": [
        {
          "start": "com.feiwothree.coverscreen.z.onSingleTapUp(Landroid/view/MotionEvent;)Z",
          "target": "invokevirtual \u003c Application, Landroid/app/AlertDialog$Builder, setPositiveButton(Ljava/lang/CharSequence;Landroid/content/DialogInterface$OnClickListener;)Landroid/app/AlertDialog$Builder; \u003e@118",
          "type": "ui",
          "activities": [
            "com.guangjun.fangdai.SplashActivity"
          ],
          "listener": "com.feiwothree.coverscreen.z",
          "listenerMethod": "onSingleTapUp",
          "uiType": "onSingleTapUp",
          "constraintsFile": "constraints16_0.py",
          "variables": {},
          "stringMap": {
            "7000": "download",
            "7001": "false"
          },
          "strings": {
            "IAAv4": "",
            "IAAv2": ""
          }
        },
        {
          "start": "com.feiwothree.coverscreen.z.onSingleTapUp(Landroid/view/MotionEvent;)Z",
          "target": "PC@13",
          "type": "ui",
          "activities": [
            "com.guangjun.fangdai.SplashActivity"
          ],
          "listener": "com.feiwothree.coverscreen.z",
          "listenerMethod": "onSingleTapUp",
          "uiType": "onSingleTapUp",
          "constraintsFile": "constraints16_1.py",
          "variables": {},
          "stringMap": {
            "7000": "download",
            "7001": "false"
          },
          "strings": {
            "IAAv3": "",
            "IAAv10": "",
            "IAAv8": ""
          }
        },
        {
          "start": "com.feiwothree.coverscreen.t.onClick(Landroid/content/DialogInterface;I)V",
          "target": "invokevirtual \u003c Application, Ljava/net/URL, openConnection()Ljava/net/URLConnection; \u003e@241",
          "type": "ui",
          "activities": [
            "com.guangjun.fangdai.SplashActivity"
          ],
          "listener": "com.feiwothree.coverscreen.t",
          "listenerMethod": "onClick",
          "uiType": "onClick",
          "inDialog": "true",
          "constraintsFile": "constraints16_2.py",
          "variables": {},
          "stringMap": {
            "7000": "download"
          },
          "strings": {
            "IAAv3": ""
          }
        }
      ]
    },
    "17": {
      "startMethod": "com.feiwothree.coverscreen.t.onClick(Landroid/content/DialogInterface;I)V",
      "targetMethod": "java.net.URL.openConnection()Ljava/net/URLConnection;",
      "eventChain": [
        {
          "start": "com.feiwothree.coverscreen.z.onSingleTapUp(Landroid/view/MotionEvent;)Z",
          "target": "invokevirtual \u003c Application, Landroid/app/AlertDialog$Builder, setPositiveButton(Ljava/lang/CharSequence;Landroid/content/DialogInterface$OnClickListener;)Landroid/app/AlertDialog$Builder; \u003e@118",
          "type": "ui",
          "activities": [
            "com.guangjun.fangdai.SplashActivity"
          ],
          "listener": "com.feiwothree.coverscreen.z",
          "listenerMethod": "onSingleTapUp",
          "uiType": "onSingleTapUp",
          "constraintsFile": "constraints17_0.py",
          "variables": {},
          "stringMap": {
            "7000": "download",
            "7001": "false"
          },
          "strings": {
            "IAAv4": "",
            "IAAv2": ""
          }
        },
        {
          "start": "com.feiwothree.coverscreen.z.onSingleTapUp(Landroid/view/MotionEvent;)Z",
          "target": "PC@13",
          "type": "ui",
          "activities": [
            "com.guangjun.fangdai.SplashActivity"
          ],
          "listener": "com.feiwothree.coverscreen.z",
          "listenerMethod": "onSingleTapUp",
          "uiType": "onSingleTapUp",
          "constraintsFile": "constraints17_1.py",
          "variables": {},
          "stringMap": {
            "7000": "download",
            "7001": "false"
          },
          "strings": {
            "IAAv3": "",
            "IAAv11": "",
            "IAAv9": ""
          }
        },
        {
          "start": "com.feiwothree.coverscreen.t.onClick(Landroid/content/DialogInterface;I)V",
          "target": "invokevirtual \u003c Application, Ljava/net/URL, openConnection()Ljava/net/URLConnection; \u003e@95",
          "type": "ui",
          "activities": [
            "com.guangjun.fangdai.SplashActivity"
          ],
          "listener": "com.feiwothree.coverscreen.t",
          "listenerMethod": "onClick",
          "uiType": "onClick",
          "inDialog": "true",
          "constraintsFile": "constraints17_2.py",
          "variables": {},
          "stringMap": {
            "7000": "download"
          },
          "strings": {
            "IAAv3": ""
          }
        }
      ]
    }
  }
}