{
  "packageName": "com.android.mmreader117",
  "mainActivity": "com.android.mmreader117.mmreader",
  "callPaths": {
    "0": {
      "startMethod": "com.android.mmreader117.readtext.onCreate(Landroid/os/Bundle;)V",
      "targetMethod": "java.net.URL.openConnection()Ljava/net/URLConnection;",
      "eventChain": [
        {
          "start": "com.android.mmreader117.readtext.onCreate(Landroid/os/Bundle;)V",
          "target": "PC@174",
          "type": "activity",
          "component": "com.android.mmreader117.readtext"
        },
        {
          "start": "com.android.mmreader117.readtext.onCreate(Landroid/os/Bundle;)V",
          "target": "PC@191",
          "type": "activity",
          "component": "com.android.mmreader117.readtext"
        },
        {
          "start": "com.android.mmreader117.readtext.onCreate(Landroid/os/Bundle;)V",
          "target": "invokevirtual \u003c Application, Ljava/net/URL, openConnection()Ljava/net/URLConnection; \u003e@702",
          "type": "activity",
          "component": "com.android.mmreader117.readtext",
          "constraintsFile": "constraints0_0.py",
          "variables": {},
          "stringMap": {},
          "strings": {}
        }
      ]
    },
    "1": {
      "startMethod": "com.android.mmreader117.mmreader.onCreate(Landroid/os/Bundle;)V",
      "targetMethod": "java.net.URL.openConnection()Ljava/net/URLConnection;",
      "eventChain": [
        {
          "start": "com.android.mmreader117.mmreader.onCreate(Landroid/os/Bundle;)V",
          "target": "invokevirtual \u003c Application, Ljava/net/URL, openConnection()Ljava/net/URLConnection; \u003e@1268",
          "type": "activity",
          "component": "com.android.mmreader117.mmreader",
          "constraintsFile": "constraints1_0.py",
          "variables": {},
          "stringMap": {
            "7000": ""
          },
          "strings": {
            "IAAv1": ""
          }
        }
      ]
    },
    "2": {
      "startMethod": "com.android.mmreader117.mmreader.onCreate(Landroid/os/Bundle;)V",
      "targetMethod": "java.net.URL.openConnection()Ljava/net/URLConnection;",
      "eventChain": [
        {
          "start": "com.android.mmreader117.mmreader.onCreate(Landroid/os/Bundle;)V",
          "target": "invokevirtual \u003c Application, Ljava/net/URL, openConnection()Ljava/net/URLConnection; \u003e@533",
          "type": "activity",
          "component": "com.android.mmreader117.mmreader",
          "constraintsFile": "constraints2_0.py",
          "variables": {},
          "stringMap": {
            "7000": ""
          },
          "strings": {
            "IAAv1": ""
          }
        }
      ]
    },
    "3": {
      "startMethod": "com.kuguo.pushads.AdsService.onCreate()V",
      "targetMethod": "org.apache.http.client.HttpClient.execute(Lorg/apache/http/client/methods/HttpUriRequest;)Lorg/apache/http/HttpResponse;",
      "eventChain": [
        {
          "start": "com.kuguo.pushads.AdsService.onCreate()V",
          "target": "PC@3",
          "type": "service",
          "component": "com.kuguo.pushads.AdsService",
          "constraintsFile": "constraints3_0.py",
          "variables": {},
          "stringMap": {},
          "strings": {}
        },
        {
          "start": "com.kuguo.pushads.AdsService.onCreate()V",
          "target": "PC@57",
          "type": "service",
          "component": "com.kuguo.pushads.AdsService",
          "constraintsFile": "constraints3_1.py",
          "variables": {},
          "stringMap": {},
          "strings": {}
        },
        {
          "start": "com.kuguo.pushads.AdsService.onCreate()V",
          "target": "PC@12",
          "type": "service",
          "component": "com.kuguo.pushads.AdsService",
          "constraintsFile": "constraints3_2.py",
          "variables": {},
          "stringMap": {},
          "strings": {}
        },
        {
          "start": "com.kuguo.pushads.AdsService.onCreate()V",
          "target": "",
          "type": "service",
          "component": "com.kuguo.pushads.AdsService",
          "constraintsFile": "constraints3_3.py",
          "variables": {},
          "stringMap": {},
          "strings": {}
        },
        {
          "start": "com.kuguo.pushads.AdsService.onCreate()V",
          "target": "invokeinterface \u003c Application, Lorg/apache/http/client/HttpClient, execute(Lorg/apache/http/client/methods/HttpUriRequest;)Lorg/apache/http/HttpResponse; \u003e@369",
          "type": "service",
          "component": "com.kuguo.pushads.AdsService",
          "constraintsFile": "constraints3_4.py",
          "variables": {},
          "stringMap": {},
          "strings": {}
        }
      ]
    },
    "4": {
      "startMethod": "com.kuguo.pushads.AdsReceiver.onReceive(Landroid/content/Context;Landroid/content/Intent;)V",
      "targetMethod": "org.apache.http.client.HttpClient.execute(Lorg/apache/http/client/methods/HttpUriRequest;)Lorg/apache/http/HttpResponse;",
      "eventChain": [
        {
          "start": "com.kuguo.pushads.AdsReceiver.onReceive(Landroid/content/Context;Landroid/content/Intent;)V",
          "target": "invokeinterface \u003c Application, Lorg/apache/http/client/HttpClient, execute(Lorg/apache/http/client/methods/HttpUriRequest;)Lorg/apache/http/HttpResponse; \u003e@369",
          "type": "sms",
          "constraintsFile": "constraints4_0.py",
          "variables": {
            "\u003cInput1\u003e.a().d.iterator().next().a().d().a().keySet().iterator().hasNext()": "IAAv16",
            "\u003cInput1\u003e.a().d.iterator().next()": "IAAv8",
            "\u003cInput1\u003e.a().d.iterator().next().h.d": "IAAv7",
            "\u003cInput1\u003e.a().d.iterator().next().g()": "IAAv5",
            "\u003cInput1\u003e.a().d.iterator().next().a().k()": "IAAv14",
            "\u003cInput1\u003e.getSystemService().getWifiState()": "IAAv4",
            "\u003cInput1\u003e.a().d.iterator().next().c": "IAAv6",
            "\u003cInput2\u003e.getAction()": "IAAv0",
            "\u003cInput1\u003e.a().d.iterator().next().a().c()": "IAAv11",
            "\u003cInput1\u003e.a().d.iterator().next().a().d().b()": "IAAv15",
            "\u003cInput1\u003e.a().d.iterator().next().a().j()": "IAAv13",
            "\u003cInput1\u003e.a().d.iterator().next().a().l()": "IAAv12",
            "\u003cInput1\u003e.a().d.iterator().next().h.c.a": "IAAv10"
          },
          "stringMap": {
            "7000": "android.intent.action.BOOT_COMPLETED",
            "7001": "android.intent.action.PACKAGE_ADDED",
            "7002": "android.net.wifi.WIFI_STATE_CHANGED"
          },
          "strings": {
            "IAAv0": ""
          }
        }
      ]
    },
    "5": {
      "startMethod": "com.kuguo.openads.AdsOfferListActivity.onCreate(Landroid/os/Bundle;)V",
      "targetMethod": "org.apache.http.client.HttpClient.execute(Lorg/apache/http/client/methods/HttpUriRequest;)Lorg/apache/http/HttpResponse;",
      "eventChain": [
        {
          "start": "com.kuguo.openads.AdsOfferListActivity.onCreate(Landroid/os/Bundle;)V",
          "target": "invokeinterface \u003c Application, Lorg/apache/http/client/HttpClient, execute(Lorg/apache/http/client/methods/HttpUriRequest;)Lorg/apache/http/HttpResponse; \u003e@369",
          "type": "activity",
          "component": "com.kuguo.openads.AdsOfferListActivity"
        }
      ]
    },
    "6": {
      "startMethod": "com.android.mmreader117.appcell.onCreate()V",
      "targetMethod": "java.lang.reflect.Method.invoke(Ljava/lang/Object;[Ljava/lang/Object;)Ljava/lang/Object;",
      "eventChain": [
        {
          "start": "com.android.mmreader117.appcell.onCreate()V",
          "target": "",
          "type": "",
          "constraintsFile": "constraints6_0.py",
          "variables": {},
          "stringMap": {},
          "strings": {}
        },
        {
          "start": "com.android.mmreader117.appcell.onCreate()V",
          "target": "invokevirtual \u003c Application, Ljava/lang/reflect/Method, invoke(Ljava/lang/Object;[Ljava/lang/Object;)Ljava/lang/Object; \u003e@491",
          "type": "",
          "constraintsFile": "constraints6_1.py",
          "variables": {},
          "stringMap": {},
          "strings": {}
        }
      ]
    },
    "7": {
      "startMethod": "com.android.mmreader117.appcell.onCreate()V",
      "targetMethod": "java.lang.reflect.Method.invoke(Ljava/lang/Object;[Ljava/lang/Object;)Ljava/lang/Object;",
      "eventChain": [
        {
          "start": "com.android.mmreader117.appcell.onCreate()V",
          "target": "",
          "type": "",
          "constraintsFile": "constraints7_0.py",
          "variables": {},
          "stringMap": {},
          "strings": {}
        },
        {
          "start": "com.android.mmreader117.appcell.onCreate()V",
          "target": "invokevirtual \u003c Application, Ljava/lang/reflect/Method, invoke(Ljava/lang/Object;[Ljava/lang/Object;)Ljava/lang/Object; \u003e@443",
          "type": "",
          "constraintsFile": "constraints7_1.py",
          "variables": {},
          "stringMap": {},
          "strings": {}
        }
      ]
    },
    "8": {
      "startMethod": "com.android.mmreader117.appcell.onCreate()V",
      "targetMethod": "java.lang.reflect.Method.invoke(Ljava/lang/Object;[Ljava/lang/Object;)Ljava/lang/Object;",
      "eventChain": [
        {
          "start": "com.android.mmreader117.appcell.onCreate()V",
          "target": "",
          "type": "",
          "constraintsFile": "constraints8_0.py",
          "variables": {},
          "stringMap": {},
          "strings": {}
        },
        {
          "start": "com.android.mmreader117.appcell.onCreate()V",
          "target": "invokevirtual \u003c Application, Ljava/lang/reflect/Method, invoke(Ljava/lang/Object;[Ljava/lang/Object;)Ljava/lang/Object; \u003e@249",
          "type": "",
          "constraintsFile": "constraints8_1.py",
          "variables": {},
          "stringMap": {},
          "strings": {
            "IAAv21": ""
          }
        }
      ]
    },
    "9": {
      "startMethod": "com.kuguo.openads.AdsOfferListActivity.onDestroy()V",
      "targetMethod": "org.apache.http.client.HttpClient.execute(Lorg/apache/http/client/methods/HttpUriRequest;)Lorg/apache/http/HttpResponse;",
      "eventChain": [
        {
          "start": "com.kuguo.pushads.AdsService.onCreate()V",
          "target": "PC@12",
          "type": "service",
          "component": "com.kuguo.pushads.AdsService",
          "constraintsFile": "constraints9_0.py",
          "variables": {},
          "stringMap": {},
          "strings": {}
        },
        {
          "start": "com.kuguo.openads.AdsOfferListActivity.onDestroy()V",
          "target": "invokeinterface \u003c Application, Lorg/apache/http/client/HttpClient, execute(Lorg/apache/http/client/methods/HttpUriRequest;)Lorg/apache/http/HttpResponse; \u003e@369",
          "type": "activity",
          "component": "com.kuguo.openads.AdsOfferListActivity",
          "constraintsFile": "constraints9_1.py",
          "variables": {},
          "stringMap": {},
          "strings": {}
        }
      ]
    },
    "10": {
      "startMethod": "com.baidu.AppActivity.onCreate(Landroid/os/Bundle;)V",
      "targetMethod": "java.net.URL.openConnection()Ljava/net/URLConnection;",
      "eventChain": [
        {
          "start": "com.baidu.AppActivity.onCreate(Landroid/os/Bundle;)V",
          "target": "PC@138",
          "type": "activity",
          "component": "com.baidu.AppActivity",
          "constraintsFile": "constraints10_0.py",
          "variables": {},
          "stringMap": {},
          "strings": {}
        },
        {
          "start": "com.baidu.AppActivity.onCreate(Landroid/os/Bundle;)V",
          "target": "invokevirtual \u003c Application, Ljava/net/URL, openConnection()Ljava/net/URLConnection; \u003e@89",
          "type": "activity",
          "component": "com.baidu.AppActivity",
          "constraintsFile": "constraints10_1.py",
          "variables": {},
          "stringMap": {
            "7000": "file:///"
          },
          "strings": {
            "IAAv4": ""
          }
        }
      ]
    },
    "11": {
      "startMethod": "com.baidu.AppActivity.onCreate(Landroid/os/Bundle;)V",
      "targetMethod": "java.net.URL.openConnection()Ljava/net/URLConnection;",
      "eventChain": [
        {
          "start": "com.baidu.AppActivity.onCreate(Landroid/os/Bundle;)V",
          "target": "PC@138",
          "type": "activity",
          "component": "com.baidu.AppActivity",
          "constraintsFile": "constraints11_0.py",
          "variables": {},
          "stringMap": {},
          "strings": {}
        },
        {
          "start": "com.baidu.AppActivity.onCreate(Landroid/os/Bundle;)V",
          "target": "invokevirtual \u003c Application, Ljava/net/URL, openConnection()Ljava/net/URLConnection; \u003e@46",
          "type": "activity",
          "component": "com.baidu.AppActivity",
          "constraintsFile": "constraints11_1.py",
          "variables": {},
          "stringMap": {
            "7000": "file:///"
          },
          "strings": {
            "IAAv4": ""
          }
        }
      ]
    },
    "12": {
      "startMethod": "com.kuguo.pushads.PushAdsActivity.onCreate(Landroid/os/Bundle;)V",
      "targetMethod": "org.apache.http.client.HttpClient.execute(Lorg/apache/http/client/methods/HttpUriRequest;)Lorg/apache/http/HttpResponse;",
      "eventChain": [
        {
          "start": "com.kuguo.pushads.PushAdsActivity.onCreate(Landroid/os/Bundle;)V",
          "target": "invokeinterface \u003c Application, Lorg/apache/http/client/HttpClient, execute(Lorg/apache/http/client/methods/HttpUriRequest;)Lorg/apache/http/HttpResponse; \u003e@369",
          "type": "activity",
          "component": "com.kuguo.pushads.PushAdsActivity"
        }
      ]
    },
    "13": {
      "startMethod": "com.kuguo.openads.u.onItemClick(Landroid/widget/AdapterView;Landroid/view/View;IJ)V",
      "targetMethod": "org.apache.http.client.HttpClient.execute(Lorg/apache/http/client/methods/HttpUriRequest;)Lorg/apache/http/HttpResponse;",
      "eventChain": [
        {
          "start": "com.kuguo.openads.AdsOfferListActivity.onCreate(Landroid/os/Bundle;)V",
          "target": "invokevirtual \u003c Application, Landroid/widget/ListView, setOnItemClickListener(Landroid/widget/AdapterView$OnItemClickListener;)V \u003e@39",
          "type": "activity",
          "component": "com.kuguo.openads.AdsOfferListActivity",
          "constraintsFile": "constraints13_0.py",
          "variables": {},
          "stringMap": {},
          "strings": {}
        },
        {
          "start": "com.kuguo.pushads.AdsService.onCreate()V",
          "target": "PC@3",
          "type": "service",
          "component": "com.kuguo.pushads.AdsService",
          "constraintsFile": "constraints13_1.py",
          "variables": {},
          "stringMap": {},
          "strings": {}
        },
        {
          "start": "com.kuguo.pushads.AdsService.onCreate()V",
          "target": "PC@57",
          "type": "service",
          "component": "com.kuguo.pushads.AdsService",
          "constraintsFile": "constraints13_2.py",
          "variables": {},
          "stringMap": {},
          "strings": {}
        },
        {
          "start": "com.kuguo.pushads.AdsService.onCreate()V",
          "target": "",
          "type": "service",
          "component": "com.kuguo.pushads.AdsService",
          "constraintsFile": "constraints13_3.py",
          "variables": {},
          "stringMap": {},
          "strings": {}
        },
        {
          "start": "com.kuguo.pushads.AdsService.onCreate()V",
          "target": "PC@12",
          "type": "service",
          "component": "com.kuguo.pushads.AdsService",
          "constraintsFile": "constraints13_4.py",
          "variables": {
            "\u003cChainedInput1\u003e.getAdapter().getItem().l": "IAAv0"
          },
          "stringMap": {},
          "strings": {}
        },
        {
          "start": "com.kuguo.pushads.AdsService.onCreate()V",
          "target": "",
          "type": "service",
          "component": "com.kuguo.pushads.AdsService",
          "constraintsFile": "constraints13_5.py",
          "variables": {},
          "stringMap": {},
          "strings": {}
        },
        {
          "start": "com.kuguo.openads.u.onItemClick(Landroid/widget/AdapterView;Landroid/view/View;IJ)V",
          "target": "invokeinterface \u003c Application, Lorg/apache/http/client/HttpClient, execute(Lorg/apache/http/client/methods/HttpUriRequest;)Lorg/apache/http/HttpResponse; \u003e@369",
          "type": "ui",
          "activities": [
            "com.android.mmreader117.mmreader"
          ],
          "listener": "com.kuguo.openads.u",
          "listenerMethod": "onItemClick",
          "uiType": "onItemClick",
          "constraintsFile": "constraints13_6.py",
          "variables": {
            "\u003cChainedInput1\u003e.getAdapter().getItem().l": "IAAv0"
          },
          "stringMap": {},
          "strings": {}
        }
      ]
    },
    "14": {
      "startMethod": "com.kuguo.openads.j.onClick(Landroid/content/DialogInterface;I)V",
      "targetMethod": "org.apache.http.client.HttpClient.execute(Lorg/apache/http/client/methods/HttpUriRequest;)Lorg/apache/http/HttpResponse;",
      "eventChain": [
        {
          "start": "com.kuguo.pushads.AdsService.onCreate()V",
          "target": "invokevirtual \u003c Application, Landroid/app/AlertDialog$Builder, setPositiveButton(Ljava/lang/CharSequence;Landroid/content/DialogInterface$OnClickListener;)Landroid/app/AlertDialog$Builder; \u003e@51",
          "type": "service",
          "component": "com.kuguo.pushads.AdsService",
          "constraintsFile": "constraints14_0.py",
          "variables": {},
          "stringMap": {},
          "strings": {}
        },
        {
          "start": "com.kuguo.openads.j.onClick(Landroid/content/DialogInterface;I)V",
          "target": "invokeinterface \u003c Application, Lorg/apache/http/client/HttpClient, execute(Lorg/apache/http/client/methods/HttpUriRequest;)Lorg/apache/http/HttpResponse; \u003e@369",
          "type": "ui",
          "activities": [
            "com.android.mmreader117.mmreader"
          ],
          "listener": "com.kuguo.openads.j",
          "listenerMethod": "onClick",
          "uiType": "onClick",
          "inDialog": "true",
          "constraintsFile": "constraints14_1.py",
          "variables": {},
          "stringMap": {},
          "strings": {}
        }
      ]
    },
    "15": {
      "startMethod": "com.kuguo.pushads.g.onClick(Landroid/view/View;)V",
      "targetMethod": "org.apache.http.client.HttpClient.execute(Lorg/apache/http/client/methods/HttpUriRequest;)Lorg/apache/http/HttpResponse;",
      "eventChain": [
        {
          "start": "com.kuguo.pushads.PushAdsActivity.onCreate(Landroid/os/Bundle;)V",
          "target": "invokevirtual \u003c Application, Landroid/widget/Button, setOnClickListener(Landroid/view/View$OnClickListener;)V \u003e@1444",
          "type": "activity",
          "component": "com.kuguo.pushads.PushAdsActivity",
          "constraintsFile": "constraints15_0.py",
          "variables": {},
          "stringMap": {},
          "strings": {}
        },
        {
          "start": "com.kuguo.pushads.AdsService.onCreate()V",
          "target": "PC@3",
          "type": "service",
          "component": "com.kuguo.pushads.AdsService",
          "constraintsFile": "constraints15_1.py",
          "variables": {},
          "stringMap": {},
          "strings": {}
        },
        {
          "start": "com.kuguo.pushads.AdsService.onCreate()V",
          "target": "PC@57",
          "type": "service",
          "component": "com.kuguo.pushads.AdsService",
          "constraintsFile": "constraints15_2.py",
          "variables": {},
          "stringMap": {},
          "strings": {}
        },
        {
          "start": "com.kuguo.pushads.PushAdsActivity.onCreate(Landroid/os/Bundle;)V",
          "target": "PC@3",
          "type": "activity",
          "component": "com.kuguo.pushads.PushAdsActivity",
          "constraintsFile": "constraints15_3.py",
          "variables": {
            "\u003cChainedInput1\u003e.getTag().intValue()": "IAAv1"
          },
          "stringMap": {
            "7000": ""
          },
          "strings": {
            "IAAv2": ""
          }
        },
        {
          "start": "com.kuguo.pushads.AdsService.onCreate()V",
          "target": "PC@12",
          "type": "service",
          "component": "com.kuguo.pushads.AdsService",
          "constraintsFile": "constraints15_4.py",
          "variables": {
            "\u003cChainedInput1\u003e.getTag().intValue()": "IAAv1"
          },
          "stringMap": {
            "7000": ""
          },
          "strings": {
            "IAAv2": ""
          }
        },
        {
          "start": "com.kuguo.pushads.AdsService.onCreate()V",
          "target": "",
          "type": "service",
          "component": "com.kuguo.pushads.AdsService",
          "constraintsFile": "constraints15_5.py",
          "variables": {},
          "stringMap": {},
          "strings": {}
        },
        {
          "start": "com.kuguo.pushads.g.onClick(Landroid/view/View;)V",
          "target": "invokeinterface \u003c Application, Lorg/apache/http/client/HttpClient, execute(Lorg/apache/http/client/methods/HttpUriRequest;)Lorg/apache/http/HttpResponse; \u003e@369",
          "type": "ui",
          "activities": [
            "com.android.mmreader117.mmreader"
          ],
          "listener": "com.kuguo.pushads.g",
          "listenerMethod": "onClick",
          "uiType": "onClick",
          "constraintsFile": "constraints15_6.py",
          "variables": {
            "\u003cChainedInput1\u003e.getTag().intValue()": "IAAv1"
          },
          "stringMap": {
            "7000": ""
          },
          "strings": {
            "IAAv2": ""
          }
        }
      ]
    },
    "16": {
      "startMethod": "com.android.mmreader117.mmreader.onClick(Landroid/view/View;)V",
      "targetMethod": "java.net.URL.openConnection()Ljava/net/URLConnection;",
      "eventChain": [
        {
          "start": "com.android.mmreader117.mmreader.onCreate(Landroid/os/Bundle;)V",
          "target": "invokevirtual \u003c Application, Landroid/widget/ImageView, setOnClickListener(Landroid/view/View$OnClickListener;)V \u003e@778",
          "type": "activity",
          "component": "com.android.mmreader117.mmreader",
          "constraintsFile": "constraints16_0.py",
          "variables": {},
          "stringMap": {},
          "strings": {}
        },
        {
          "start": "com.android.mmreader117.mmreader.onClick(Landroid/view/View;)V",
          "target": "invokevirtual \u003c Application, Ljava/net/URL, openConnection()Ljava/net/URLConnection; \u003e@759",
          "type": "ui",
          "activities": [
            "com.android.mmreader117.mmreader"
          ],
          "listener": "com.android.mmreader117.mmreader",
          "listenerMethod": "onClick",
          "uiType": "onClick"
        }
      ]
    },
    "17": {
      "startMethod": "com.android.mmreader117.chartact.onClick(Landroid/view/View;)V",
      "targetMethod": "java.net.URL.openConnection()Ljava/net/URLConnection;",
      "eventChain": [
        {
          "start": "com.android.mmreader117.chartact.onCreate(Landroid/os/Bundle;)V",
          "target": "invokevirtual \u003c Application, Landroid/widget/ImageView, setOnClickListener(Landroid/view/View$OnClickListener;)V \u003e@950",
          "type": "activity",
          "component": "com.android.mmreader117.chartact",
          "constraintsFile": "constraints17_0.py",
          "variables": {},
          "stringMap": {},
          "strings": {}
        },
        {
          "start": "com.android.mmreader117.chartact.onCreate(Landroid/os/Bundle;)V",
          "target": "PC@523",
          "type": "activity",
          "component": "com.android.mmreader117.chartact",
          "constraintsFile": "constraints17_1.py",
          "variables": {
            "\u003cChainedInput1\u003e.getId()": "IAAv0"
          },
          "stringMap": {},
          "strings": {}
        },
        {
          "start": "com.android.mmreader117.chartact.\u003cinit\u003e()V",
          "target": "PC@32",
          "type": "",
          "constraintsFile": "constraints17_2.py",
          "variables": {
            "\u003cChainedInput1\u003e.getId()": "IAAv0"
          },
          "stringMap": {},
          "strings": {}
        },
        {
          "start": "com.android.mmreader117.chartact.onClick(Landroid/view/View;)V",
          "target": "invokevirtual \u003c Application, Ljava/net/URL, openConnection()Ljava/net/URLConnection; \u003e@994",
          "type": "ui",
          "activities": [
            "com.android.mmreader117.mmreader"
          ],
          "listener": "com.android.mmreader117.chartact",
          "listenerMethod": "onClick",
          "uiType": "onClick",
          "constraintsFile": "constraints17_3.py",
          "variables": {
            "\u003cChainedInput1\u003e.getId()": "IAAv0"
          },
          "stringMap": {},
          "strings": {}
        }
      ]
    },
    "18": {
      "startMethod": "com.baidu.an.onClick(Landroid/view/View;)V",
      "targetMethod": "java.net.URL.openConnection()Ljava/net/URLConnection;",
      "eventChain": [
        {
          "start": "com.baidu.AppActivity.onCreate(Landroid/os/Bundle;)V",
          "target": "invokevirtual \u003c Application, Landroid/widget/ImageView, setOnClickListener(Landroid/view/View$OnClickListener;)V \u003e@683",
          "type": "activity",
          "component": "com.baidu.AppActivity",
          "constraintsFile": "constraints18_0.py",
          "variables": {},
          "stringMap": {},
          "strings": {}
        },
        {
          "start": "com.baidu.an.onClick(Landroid/view/View;)V",
          "target": "invokevirtual \u003c Application, Ljava/net/URL, openConnection()Ljava/net/URLConnection; \u003e@89",
          "type": "ui",
          "activities": [
            "com.android.mmreader117.mmreader"
          ],
          "listener": "com.baidu.an",
          "listenerMethod": "onClick",
          "uiType": "onClick",
          "constraintsFile": "constraints18_1.py",
          "variables": {},
          "stringMap": {},
          "strings": {}
        }
      ]
    },
    "19": {
      "startMethod": "com.kuguo.openads.x.onClick(Landroid/view/View;)V",
      "targetMethod": "org.apache.http.client.HttpClient.execute(Lorg/apache/http/client/methods/HttpUriRequest;)Lorg/apache/http/HttpResponse;",
      "eventChain": [
        {
          "start": "com.kuguo.openads.AdsOfferListActivity.onCreate(Landroid/os/Bundle;)V",
          "target": "invokevirtual \u003c Application, Landroid/widget/Button, setOnClickListener(Landroid/view/View$OnClickListener;)V \u003e@125",
          "type": "activity",
          "component": "com.kuguo.openads.AdsOfferListActivity",
          "constraintsFile": "constraints19_0.py",
          "variables": {},
          "stringMap": {},
          "strings": {}
        },
        {
          "start": "com.kuguo.openads.x.onClick(Landroid/view/View;)V",
          "target": "invokeinterface \u003c Application, Lorg/apache/http/client/HttpClient, execute(Lorg/apache/http/client/methods/HttpUriRequest;)Lorg/apache/http/HttpResponse; \u003e@369",
          "type": "ui",
          "activities": [
            "com.android.mmreader117.mmreader"
          ],
          "listener": "com.kuguo.openads.x",
          "listenerMethod": "onClick",
          "uiType": "onClick",
          "constraintsFile": "constraints19_1.py",
          "variables": {},
          "stringMap": {},
          "strings": {}
        }
      ]
    },
    "20": {
      "startMethod": "com.kuguo.openads.b.onReceive(Landroid/content/Context;Landroid/content/Intent;)V",
      "targetMethod": "org.apache.http.client.HttpClient.execute(Lorg/apache/http/client/methods/HttpUriRequest;)Lorg/apache/http/HttpResponse;",
      "eventChain": [
        {
          "start": "com.kuguo.pushads.AdsService.onCreate()V",
          "target": "invokespecial \u003c Application, Landroid/content/BroadcastReceiver, \u003cinit\u003e()V \u003e@2",
          "type": "service",
          "component": "com.kuguo.pushads.AdsService",
          "constraintsFile": "constraints20_0.py",
          "variables": {},
          "stringMap": {},
          "strings": {}
        },
        {
          "start": "com.kuguo.pushads.AdsService.onCreate()V",
          "target": "PC@3",
          "type": "service",
          "component": "com.kuguo.pushads.AdsService",
          "constraintsFile": "constraints20_1.py",
          "variables": {},
          "stringMap": {},
          "strings": {}
        },
        {
          "start": "com.kuguo.pushads.AdsService.onCreate()V",
          "target": "PC@57",
          "type": "service",
          "component": "com.kuguo.pushads.AdsService",
          "constraintsFile": "constraints20_2.py",
          "variables": {},
          "stringMap": {},
          "strings": {}
        },
        {
          "start": "com.kuguo.pushads.AdsService.onCreate()V",
          "target": "",
          "type": "service",
          "component": "com.kuguo.pushads.AdsService",
          "constraintsFile": "constraints20_3.py",
          "variables": {},
          "stringMap": {},
          "strings": {}
        },
        {
          "start": "com.kuguo.pushads.AdsService.onCreate()V",
          "target": "PC@12",
          "type": "service",
          "component": "com.kuguo.pushads.AdsService",
          "constraintsFile": "constraints20_4.py",
          "variables": {
            "\u003cChainedInput2\u003e.getAction()": "IAAv0",
            "\u003cChainedInput1\u003e.getApplicationContext().getPackageManager().getApplicationInfo().metaData": "IAAv3"
          },
          "stringMap": {
            "7000": "android.intent.action.PACKAGE_ADDED"
          },
          "strings": {
            "IAAv0": ""
          }
        },
        {
          "start": "com.kuguo.pushads.AdsService.onCreate()V",
          "target": "",
          "type": "service",
          "component": "com.kuguo.pushads.AdsService",
          "constraintsFile": "constraints20_5.py",
          "variables": {},
          "stringMap": {},
          "strings": {}
        },
        {
          "start": "com.kuguo.openads.b.onReceive(Landroid/content/Context;Landroid/content/Intent;)V",
          "target": "invokeinterface \u003c Application, Lorg/apache/http/client/HttpClient, execute(Lorg/apache/http/client/methods/HttpUriRequest;)Lorg/apache/http/HttpResponse; \u003e@369",
          "type": "sms",
          "constraintsFile": "constraints20_6.py",
          "variables": {
            "\u003cChainedInput2\u003e.getAction()": "IAAv0",
            "\u003cChainedInput1\u003e.getApplicationContext().getPackageManager().getApplicationInfo().metaData": "IAAv3"
          },
          "stringMap": {
            "7000": "android.intent.action.PACKAGE_ADDED"
          },
          "strings": {
            "IAAv0": ""
          }
        }
      ]
    },
    "21": {
      "startMethod": "com.baidu.location.d.onReceive(Landroid/content/Context;Landroid/content/Intent;)V",
      "targetMethod": "java.lang.reflect.Method.invoke(Ljava/lang/Object;[Ljava/lang/Object;)Ljava/lang/Object;",
      "eventChain": [
        {
          "start": "com.android.mmreader117.appcell.onCreate()V",
          "target": "invokespecial \u003c Application, Landroid/content/BroadcastReceiver, \u003cinit\u003e()V \u003e@2",
          "type": "",
          "constraintsFile": "constraints21_0.py",
          "variables": {},
          "stringMap": {},
          "strings": {}
        },
        {
          "start": "com.android.mmreader117.appcell.onCreate()V",
          "target": "",
          "type": "",
          "constraintsFile": "constraints21_1.py",
          "variables": {},
          "stringMap": {},
          "strings": {}
        },
        {
          "start": "com.baidu.location.d.onReceive(Landroid/content/Context;Landroid/content/Intent;)V",
          "target": "invokevirtual \u003c Application, Ljava/lang/reflect/Method, invoke(Ljava/lang/Object;[Ljava/lang/Object;)Ljava/lang/Object; \u003e@491",
          "type": "sms",
          "constraintsFile": "constraints21_2.py",
          "variables": {},
          "stringMap": {},
          "strings": {}
        }
      ]
    },
    "22": {
      "startMethod": "com.baidu.location.d.onReceive(Landroid/content/Context;Landroid/content/Intent;)V",
      "targetMethod": "org.apache.http.client.HttpClient.execute(Lorg/apache/http/client/methods/HttpUriRequest;)Lorg/apache/http/HttpResponse;",
      "eventChain": [
        {
          "start": "com.android.mmreader117.appcell.onCreate()V",
          "target": "invokespecial \u003c Application, Landroid/content/BroadcastReceiver, \u003cinit\u003e()V \u003e@2",
          "type": "",
          "constraintsFile": "constraints22_0.py",
          "variables": {},
          "stringMap": {},
          "strings": {}
        },
        {
          "start": "com.baidu.location.d.onReceive(Landroid/content/Context;Landroid/content/Intent;)V",
          "target": "PC@13",
          "type": "sms",
          "constraintsFile": "constraints22_1.py",
          "variables": {},
          "stringMap": {},
          "strings": {
            "IAAv11": "",
            "IAAv10": ""
          }
        },
        {
          "start": "com.baidu.location.d.onReceive(Landroid/content/Context;Landroid/content/Intent;)V",
          "target": "invokeinterface \u003c Application, Lorg/apache/http/client/HttpClient, execute(Lorg/apache/http/client/methods/HttpUriRequest;)Lorg/apache/http/HttpResponse; \u003e@218",
          "type": "sms",
          "constraintsFile": "constraints22_2.py",
          "variables": {},
          "stringMap": {},
          "strings": {
            "IAAv11": "",
            "IAAv10": ""
          }
        }
      ]
    },
    "23": {
      "startMethod": "com.baidu.location.d.onReceive(Landroid/content/Context;Landroid/content/Intent;)V",
      "targetMethod": "java.lang.reflect.Method.invoke(Ljava/lang/Object;[Ljava/lang/Object;)Ljava/lang/Object;",
      "eventChain": [
        {
          "start": "com.android.mmreader117.appcell.onCreate()V",
          "target": "invokespecial \u003c Application, Landroid/content/BroadcastReceiver, \u003cinit\u003e()V \u003e@2",
          "type": "",
          "constraintsFile": "constraints23_0.py",
          "variables": {},
          "stringMap": {},
          "strings": {}
        },
        {
          "start": "com.android.mmreader117.appcell.onCreate()V",
          "target": "",
          "type": "",
          "constraintsFile": "constraints23_1.py",
          "variables": {},
          "stringMap": {},
          "strings": {}
        },
        {
          "start": "com.baidu.location.d.onReceive(Landroid/content/Context;Landroid/content/Intent;)V",
          "target": "invokevirtual \u003c Application, Ljava/lang/reflect/Method, invoke(Ljava/lang/Object;[Ljava/lang/Object;)Ljava/lang/Object; \u003e@443",
          "type": "sms",
          "constraintsFile": "constraints23_2.py",
          "variables": {},
          "stringMap": {},
          "strings": {}
        }
      ]
    },
    "24": {
      "startMethod": "com.baidu.location.d.onReceive(Landroid/content/Context;Landroid/content/Intent;)V",
      "targetMethod": "java.lang.reflect.Method.invoke(Ljava/lang/Object;[Ljava/lang/Object;)Ljava/lang/Object;",
      "eventChain": [
        {
          "start": "com.android.mmreader117.appcell.onCreate()V",
          "target": "invokespecial \u003c Application, Landroid/content/BroadcastReceiver, \u003cinit\u003e()V \u003e@2",
          "type": "",
          "constraintsFile": "constraints24_0.py",
          "variables": {},
          "stringMap": {},
          "strings": {}
        },
        {
          "start": "com.android.mmreader117.appcell.onCreate()V",
          "target": "",
          "type": "",
          "constraintsFile": "constraints24_1.py",
          "variables": {},
          "stringMap": {},
          "strings": {}
        },
        {
          "start": "com.baidu.location.d.onReceive(Landroid/content/Context;Landroid/content/Intent;)V",
          "target": "invokevirtual \u003c Application, Ljava/lang/reflect/Method, invoke(Ljava/lang/Object;[Ljava/lang/Object;)Ljava/lang/Object; \u003e@249",
          "type": "sms",
          "constraintsFile": "constraints24_2.py",
          "variables": {},
          "stringMap": {},
          "strings": {
            "IAAv7": ""
          }
        }
      ]
    }
  }
}