{
  "packageName": "com.ww.meinvbofangqi",
  "mainActivity": "com.ww.meinvbofangqi.FirstActivity",
  "callPaths": {
    "0": {
      "startMethod": "com.ww.meinvbofangqi.BootService.onReceive(Landroid/content/Context;Landroid/content/Intent;)V",
      "targetMethod": "org.apache.http.impl.client.DefaultHttpClient.execute(Lorg/apache/http/client/methods/HttpUriRequest;)Lorg/apache/http/HttpResponse;",
      "eventChain": [
        {
          "start": "com.waps.q.onReceive(Landroid/content/Context;Landroid/content/Intent;)V",
          "target": "",
          "type": "sms",
          "constraintsFile": "constraints0_0.py",
          "variables": {
            "\u003cChainedInput2\u003e.getDataString()": "IAAv0"
          },
          "stringMap": {},
          "strings": {
            "IAAv0": ""
          }
        },
        {
          "start": "com.waps.q.onReceive(Landroid/content/Context;Landroid/content/Intent;)V",
          "target": "PC@9",
          "type": "sms",
          "constraintsFile": "constraints0_1.py",
          "variables": {
            "\u003cChainedInput1\u003e.getSystemService().getActiveNetworkInfo().getExtraInfo()": "IAAv2",
            "\u003cChainedInput2\u003e.getDataString()": "IAAv6",
            "\u003cChainedInput1\u003e.getSystemService().getActiveNetworkInfo()": "IAAv1"
          },
          "stringMap": {},
          "strings": {
            "IAAv4": "",
            "IAAv2": "",
            "IAAv6": ""
          }
        },
        {
          "start": "com.ww.meinvbofangqi.BootService.onReceive(Landroid/content/Context;Landroid/content/Intent;)V",
          "target": "invokevirtual \u003c Application, Lorg/apache/http/impl/client/DefaultHttpClient, execute(Lorg/apache/http/client/methods/HttpUriRequest;)Lorg/apache/http/HttpResponse; \u003e@442",
          "type": "sms",
          "constraintsFile": "constraints0_2.py",
          "variables": {
            "\u003cChainedInput1\u003e.getSystemService().getActiveNetworkInfo().getExtraInfo()": "IAAv2",
            "\u003cChainedInput1\u003e.getSystemService().getActiveNetworkInfo()": "IAAv1"
          },
          "stringMap": {},
          "strings": {
            "IAAv4": "",
            "IAAv2": ""
          }
        }
      ]
    },
    "1": {
      "startMethod": "com.ww.meinvbofangqi.BootService.onReceive(Landroid/content/Context;Landroid/content/Intent;)V",
      "targetMethod": "org.apache.http.client.HttpClient.execute(Lorg/apache/http/client/methods/HttpUriRequest;)Lorg/apache/http/HttpResponse;",
      "eventChain": [
        {
          "start": "com.waps.q.onReceive(Landroid/content/Context;Landroid/content/Intent;)V",
          "target": "",
          "type": "sms",
          "constraintsFile": "constraints1_0.py",
          "variables": {
            "\u003cChainedInput2\u003e.getDataString()": "IAAv0"
          },
          "stringMap": {},
          "strings": {
            "IAAv0": ""
          }
        },
        {
          "start": "com.ww.meinvbofangqi.BootService.onReceive(Landroid/content/Context;Landroid/content/Intent;)V",
          "target": "invokeinterface \u003c Application, Lorg/apache/http/client/HttpClient, execute(Lorg/apache/http/client/methods/HttpUriRequest;)Lorg/apache/http/HttpResponse; \u003e@246",
          "type": "sms",
          "constraintsFile": "constraints1_1.py",
          "variables": {
            "\u003cChainedInput1\u003e.getSystemService().getActiveNetworkInfo().getExtraInfo()": "IAAv2",
            "\u003cChainedInput1\u003e.getSystemService().getActiveNetworkInfo()": "IAAv1"
          },
          "stringMap": {},
          "strings": {
            "IAAv2": ""
          }
        }
      ]
    },
    "2": {
      "startMethod": "com.ww.meinvbofangqi.FirstActivity.onPause()V",
      "targetMethod": "java.net.URL.openConnection()Ljava/net/URLConnection;",
      "eventChain": [
        {
          "start": "com.ww.meinvbofangqi.FirstActivity.onPause()V",
          "target": "invokevirtual \u003c Application, Ljava/net/URL, openConnection()Ljava/net/URLConnection; \u003e@105",
          "type": "activity",
          "component": "com.ww.meinvbofangqi.FirstActivity"
        }
      ]
    },
    "3": {
      "startMethod": "com.ww.meinvbofangqi.FirstActivity.onPause()V",
      "targetMethod": "org.apache.http.client.HttpClient.execute(Lorg/apache/http/client/methods/HttpUriRequest;)Lorg/apache/http/HttpResponse;",
      "eventChain": [
        {
          "start": "com.ww.meinvbofangqi.FirstActivity.onPause()V",
          "target": "invokeinterface \u003c Application, Lorg/apache/http/client/HttpClient, execute(Lorg/apache/http/client/methods/HttpUriRequest;)Lorg/apache/http/HttpResponse; \u003e@402",
          "type": "activity",
          "component": "com.ww.meinvbofangqi.FirstActivity"
        }
      ]
    },
    "4": {
      "startMethod": "com.ww.meinvbofangqi.FirstActivity.onDestroy()V",
      "targetMethod": "org.apache.http.client.HttpClient.execute(Lorg/apache/http/client/methods/HttpUriRequest;)Lorg/apache/http/HttpResponse;",
      "eventChain": [
        {
          "start": "com.ww.meinvbofangqi.FirstActivity.onDestroy()V",
          "target": "invokeinterface \u003c Application, Lorg/apache/http/client/HttpClient, execute(Lorg/apache/http/client/methods/HttpUriRequest;)Lorg/apache/http/HttpResponse; \u003e@246",
          "type": "activity",
          "component": "com.ww.meinvbofangqi.FirstActivity"
        }
      ]
    },
    "5": {
      "startMethod": "com.ww.meinvbofangqi.FirstActivity.onDestroy()V",
      "targetMethod": "org.apache.http.impl.client.DefaultHttpClient.execute(Lorg/apache/http/client/methods/HttpUriRequest;)Lorg/apache/http/HttpResponse;",
      "eventChain": [
        {
          "start": "com.ww.meinvbofangqi.FirstActivity.onDestroy()V",
          "target": "invokevirtual \u003c Application, Lorg/apache/http/impl/client/DefaultHttpClient, execute(Lorg/apache/http/client/methods/HttpUriRequest;)Lorg/apache/http/HttpResponse; \u003e@442",
          "type": "activity",
          "component": "com.ww.meinvbofangqi.FirstActivity"
        }
      ]
    },
    "6": {
      "startMethod": "com.ww.meinvbofangqi.FirstActivity.onCreate(Landroid/os/Bundle;)V",
      "targetMethod": "org.apache.http.client.HttpClient.execute(Lorg/apache/http/client/methods/HttpUriRequest;)Lorg/apache/http/HttpResponse;",
      "eventChain": [
        {
          "start": "com.waps.q.onReceive(Landroid/content/Context;Landroid/content/Intent;)V",
          "target": "",
          "type": "sms",
          "constraintsFile": "constraints6_0.py",
          "variables": {
            "\u003cChainedInput2\u003e.getDataString()": "IAAv0"
          },
          "stringMap": {},
          "strings": {
            "IAAv0": ""
          }
        },
        {
          "start": "com.ww.meinvbofangqi.FirstActivity.onCreate(Landroid/os/Bundle;)V",
          "target": "invokeinterface \u003c Application, Lorg/apache/http/client/HttpClient, execute(Lorg/apache/http/client/methods/HttpUriRequest;)Lorg/apache/http/HttpResponse; \u003e@246",
          "type": "activity",
          "component": "com.ww.meinvbofangqi.FirstActivity",
          "constraintsFile": "constraints6_1.py",
          "variables": {},
          "stringMap": {},
          "strings": {}
        }
      ]
    },
    "7": {
      "startMethod": "com.ww.meinvbofangqi.FirstActivity.onCreate(Landroid/os/Bundle;)V",
      "targetMethod": "org.apache.http.client.HttpClient.execute(Lorg/apache/http/client/methods/HttpUriRequest;)Lorg/apache/http/HttpResponse;",
      "eventChain": [
        {
          "start": "com.ww.meinvbofangqi.FirstActivity.onCreate(Landroid/os/Bundle;)V",
          "target": "invokeinterface \u003c Application, Lorg/apache/http/client/HttpClient, execute(Lorg/apache/http/client/methods/HttpUriRequest;)Lorg/apache/http/HttpResponse; \u003e@402",
          "type": "activity",
          "component": "com.ww.meinvbofangqi.FirstActivity",
          "constraintsFile": "constraints7_0.py",
          "variables": {
            "\u003cUI\u003e.setOnClickListener().o": "IAAv0"
          },
          "stringMap": {},
          "strings": {
            "IAAv1": ""
          }
        }
      ]
    },
    "8": {
      "startMethod": "com.ww.meinvbofangqi.FirstActivity.onCreate(Landroid/os/Bundle;)V",
      "targetMethod": "org.apache.http.impl.client.DefaultHttpClient.execute(Lorg/apache/http/client/methods/HttpUriRequest;)Lorg/apache/http/HttpResponse;",
      "eventChain": [
        {
          "start": "com.waps.q.onReceive(Landroid/content/Context;Landroid/content/Intent;)V",
          "target": "",
          "type": "sms",
          "constraintsFile": "constraints8_0.py",
          "variables": {
            "\u003cChainedInput2\u003e.getDataString()": "IAAv0"
          },
          "stringMap": {},
          "strings": {
            "IAAv0": ""
          }
        },
        {
          "start": "com.waps.q.onReceive(Landroid/content/Context;Landroid/content/Intent;)V",
          "target": "PC@9",
          "type": "sms",
          "constraintsFile": "constraints8_1.py",
          "variables": {
            "\u003cChainedInput2\u003e.getDataString()": "IAAv4"
          },
          "stringMap": {},
          "strings": {
            "IAAv4": "",
            "IAAv2": ""
          }
        },
        {
          "start": "com.ww.meinvbofangqi.FirstActivity.onCreate(Landroid/os/Bundle;)V",
          "target": "invokevirtual \u003c Application, Lorg/apache/http/impl/client/DefaultHttpClient, execute(Lorg/apache/http/client/methods/HttpUriRequest;)Lorg/apache/http/HttpResponse; \u003e@442",
          "type": "activity",
          "component": "com.ww.meinvbofangqi.FirstActivity",
          "constraintsFile": "constraints8_2.py",
          "variables": {},
          "stringMap": {},
          "strings": {
            "IAAv2": ""
          }
        }
      ]
    },
    "9": {
      "startMethod": "com.ww.meinvbofangqi.FirstActivity.onCreate(Landroid/os/Bundle;)V",
      "targetMethod": "java.net.URL.openConnection()Ljava/net/URLConnection;",
      "eventChain": [
        {
          "start": "com.ww.meinvbofangqi.FirstActivity.onCreate(Landroid/os/Bundle;)V",
          "target": "invokevirtual \u003c Application, Ljava/net/URL, openConnection()Ljava/net/URLConnection; \u003e@105",
          "type": "activity",
          "component": "com.ww.meinvbofangqi.FirstActivity",
          "constraintsFile": "constraints9_0.py",
          "variables": {
            "\u003cUI\u003e.setOnClickListener().o": "IAAv0"
          },
          "stringMap": {},
          "strings": {}
        }
      ]
    },
    "10": {
      "startMethod": "com.waps.OffersWebView.onCreate(Landroid/os/Bundle;)V",
      "targetMethod": "org.apache.http.client.HttpClient.execute(Lorg/apache/http/client/methods/HttpUriRequest;)Lorg/apache/http/HttpResponse;",
      "eventChain": [
        {
          "start": "com.waps.OffersWebView.\u003cinit\u003e()V",
          "target": "PC@295",
          "type": ""
        },
        {
          "start": "com.waps.OffersWebView.\u003cinit\u003e()V",
          "target": "PC@35",
          "type": ""
        },
        {
          "start": "com.waps.OffersWebView.\u003cinit\u003e()V",
          "target": "PC@160",
          "type": ""
        },
        {
          "start": "com.waps.OffersWebView.onCreate(Landroid/os/Bundle;)V",
          "target": "invokeinterface \u003c Application, Lorg/apache/http/client/HttpClient, execute(Lorg/apache/http/client/methods/HttpUriRequest;)Lorg/apache/http/HttpResponse; \u003e@246",
          "type": "activity",
          "component": "com.waps.OffersWebView",
          "constraintsFile": "constraints10_0.py",
          "variables": {},
          "stringMap": {},
          "strings": {}
        }
      ]
    },
    "11": {
      "startMethod": "com.ww.meinvbofangqi.FirstActivity.onResume()V",
      "targetMethod": "org.apache.http.client.HttpClient.execute(Lorg/apache/http/client/methods/HttpUriRequest;)Lorg/apache/http/HttpResponse;",
      "eventChain": [
        {
          "start": "com.ww.meinvbofangqi.FirstActivity.onResume()V",
          "target": "invokeinterface \u003c Application, Lorg/apache/http/client/HttpClient, execute(Lorg/apache/http/client/methods/HttpUriRequest;)Lorg/apache/http/HttpResponse; \u003e@246",
          "type": "activity",
          "component": "com.ww.meinvbofangqi.FirstActivity"
        }
      ]
    },
    "12": {
      "startMethod": "com.ww.meinvbofangqi.FirstActivity.onResume()V",
      "targetMethod": "java.net.URL.openConnection()Ljava/net/URLConnection;",
      "eventChain": [
        {
          "start": "com.ww.meinvbofangqi.FirstActivity.onResume()V",
          "target": "invokevirtual \u003c Application, Ljava/net/URL, openConnection()Ljava/net/URLConnection; \u003e@105",
          "type": "activity",
          "component": "com.ww.meinvbofangqi.FirstActivity"
        }
      ]
    },
    "13": {
      "startMethod": "com.ww.meinvbofangqi.FirstActivity.onResume()V",
      "targetMethod": "org.apache.http.client.HttpClient.execute(Lorg/apache/http/client/methods/HttpUriRequest;)Lorg/apache/http/HttpResponse;",
      "eventChain": [
        {
          "start": "com.ww.meinvbofangqi.FirstActivity.onResume()V",
          "target": "invokeinterface \u003c Application, Lorg/apache/http/client/HttpClient, execute(Lorg/apache/http/client/methods/HttpUriRequest;)Lorg/apache/http/HttpResponse; \u003e@402",
          "type": "activity",
          "component": "com.ww.meinvbofangqi.FirstActivity"
        }
      ]
    },
    "14": {
      "startMethod": "com.ww.meinvbofangqi.FirstActivity.onResume()V",
      "targetMethod": "org.apache.http.impl.client.DefaultHttpClient.execute(Lorg/apache/http/client/methods/HttpUriRequest;)Lorg/apache/http/HttpResponse;",
      "eventChain": [
        {
          "start": "com.ww.meinvbofangqi.FirstActivity.onResume()V",
          "target": "invokevirtual \u003c Application, Lorg/apache/http/impl/client/DefaultHttpClient, execute(Lorg/apache/http/client/methods/HttpUriRequest;)Lorg/apache/http/HttpResponse; \u003e@442",
          "type": "activity",
          "component": "com.ww.meinvbofangqi.FirstActivity"
        }
      ]
    },
    "15": {
      "startMethod": "com.ww.meinvbofangqi.AlmService.onReceive(Landroid/content/Context;Landroid/content/Intent;)V",
      "targetMethod": "org.apache.http.client.HttpClient.execute(Lorg/apache/http/client/methods/HttpUriRequest;)Lorg/apache/http/HttpResponse;",
      "eventChain": [
        {
          "start": "com.waps.q.onReceive(Landroid/content/Context;Landroid/content/Intent;)V",
          "target": "",
          "type": "sms",
          "constraintsFile": "constraints15_0.py",
          "variables": {
            "\u003cChainedInput2\u003e.getDataString()": "IAAv0"
          },
          "stringMap": {},
          "strings": {
            "IAAv0": ""
          }
        },
        {
          "start": "com.ww.meinvbofangqi.AlmService.onReceive(Landroid/content/Context;Landroid/content/Intent;)V",
          "target": "invokeinterface \u003c Application, Lorg/apache/http/client/HttpClient, execute(Lorg/apache/http/client/methods/HttpUriRequest;)Lorg/apache/http/HttpResponse; \u003e@246",
          "type": "sms",
          "constraintsFile": "constraints15_1.py",
          "variables": {
            "\u003cChainedInput1\u003e.getSystemService().getActiveNetworkInfo().getExtraInfo()": "IAAv2",
            "\u003cChainedInput1\u003e.getSystemService().getActiveNetworkInfo()": "IAAv1"
          },
          "stringMap": {},
          "strings": {
            "IAAv2": ""
          }
        }
      ]
    },
    "16": {
      "startMethod": "com.ww.meinvbofangqi.AlmService.onReceive(Landroid/content/Context;Landroid/content/Intent;)V",
      "targetMethod": "org.apache.http.impl.client.DefaultHttpClient.execute(Lorg/apache/http/client/methods/HttpUriRequest;)Lorg/apache/http/HttpResponse;",
      "eventChain": [
        {
          "start": "com.waps.q.onReceive(Landroid/content/Context;Landroid/content/Intent;)V",
          "target": "",
          "type": "sms",
          "constraintsFile": "constraints16_0.py",
          "variables": {
            "\u003cChainedInput2\u003e.getDataString()": "IAAv0"
          },
          "stringMap": {},
          "strings": {
            "IAAv0": ""
          }
        },
        {
          "start": "com.waps.q.onReceive(Landroid/content/Context;Landroid/content/Intent;)V",
          "target": "PC@9",
          "type": "sms",
          "constraintsFile": "constraints16_1.py",
          "variables": {
            "\u003cChainedInput1\u003e.getSystemService().getActiveNetworkInfo().getExtraInfo()": "IAAv2",
            "\u003cChainedInput2\u003e.getDataString()": "IAAv6",
            "\u003cChainedInput1\u003e.getSystemService().getActiveNetworkInfo()": "IAAv1"
          },
          "stringMap": {},
          "strings": {
            "IAAv4": "",
            "IAAv2": "",
            "IAAv6": ""
          }
        },
        {
          "start": "com.ww.meinvbofangqi.AlmService.onReceive(Landroid/content/Context;Landroid/content/Intent;)V",
          "target": "invokevirtual \u003c Application, Lorg/apache/http/impl/client/DefaultHttpClient, execute(Lorg/apache/http/client/methods/HttpUriRequest;)Lorg/apache/http/HttpResponse; \u003e@442",
          "type": "sms",
          "constraintsFile": "constraints16_2.py",
          "variables": {
            "\u003cChainedInput1\u003e.getSystemService().getActiveNetworkInfo().getExtraInfo()": "IAAv2",
            "\u003cChainedInput1\u003e.getSystemService().getActiveNetworkInfo()": "IAAv1"
          },
          "stringMap": {},
          "strings": {
            "IAAv4": "",
            "IAAv2": ""
          }
        }
      ]
    },
    "17": {
      "startMethod": "com.waps.y.onClick(Landroid/content/DialogInterface;I)V",
      "targetMethod": "java.net.URL.openConnection()Ljava/net/URLConnection;",
      "eventChain": [
        {
          "start": "com.waps.w.onDownloadStart(Ljava/lang/String;Ljava/lang/String;Ljava/lang/String;Ljava/lang/String;J)V",
          "target": "invokevirtual \u003c Application, Landroid/app/AlertDialog$Builder, setNeutralButton(Ljava/lang/CharSequence;Landroid/content/DialogInterface$OnClickListener;)Landroid/app/AlertDialog$Builder; \u003e@233",
          "type": "",
          "constraintsFile": "constraints17_0.py",
          "variables": {},
          "stringMap": {},
          "strings": {}
        },
        {
          "start": "com.waps.y.onClick(Landroid/content/DialogInterface;I)V",
          "target": "invokevirtual \u003c Application, Ljava/net/URL, openConnection()Ljava/net/URLConnection; \u003e@40",
          "type": "ui",
          "activities": [
            "com.ww.meinvbofangqi.FirstActivity"
          ],
          "listener": "com.waps.y",
          "listenerMethod": "onClick",
          "uiType": "onClick",
          "inDialog": "true",
          "constraintsFile": "constraints17_1.py",
          "variables": {},
          "stringMap": {},
          "strings": {}
        }
      ]
    },
    "18": {
      "startMethod": "com.waps.y.onClick(Landroid/content/DialogInterface;I)V",
      "targetMethod": "org.apache.http.impl.client.DefaultHttpClient.execute(Lorg/apache/http/client/methods/HttpUriRequest;)Lorg/apache/http/HttpResponse;",
      "eventChain": [
        {
          "start": "com.waps.w.onDownloadStart(Ljava/lang/String;Ljava/lang/String;Ljava/lang/String;Ljava/lang/String;J)V",
          "target": "invokevirtual \u003c Application, Landroid/app/AlertDialog$Builder, setNeutralButton(Ljava/lang/CharSequence;Landroid/content/DialogInterface$OnClickListener;)Landroid/app/AlertDialog$Builder; \u003e@233",
          "type": "",
          "constraintsFile": "constraints18_0.py",
          "variables": {},
          "stringMap": {},
          "strings": {}
        },
        {
          "start": "com.waps.y.onClick(Landroid/content/DialogInterface;I)V",
          "target": "invokevirtual \u003c Application, Lorg/apache/http/impl/client/DefaultHttpClient, execute(Lorg/apache/http/client/methods/HttpUriRequest;)Lorg/apache/http/HttpResponse; \u003e@196",
          "type": "ui",
          "activities": [
            "com.ww.meinvbofangqi.FirstActivity"
          ],
          "listener": "com.waps.y",
          "listenerMethod": "onClick",
          "uiType": "onClick",
          "inDialog": "true",
          "constraintsFile": "constraints18_1.py",
          "variables": {},
          "stringMap": {},
          "strings": {}
        }
      ]
    },
    "19": {
      "startMethod": "com.mobclick.android.i.onClick(Landroid/content/DialogInterface;I)V",
      "targetMethod": "java.net.URL.openConnection()Ljava/net/URLConnection;",
      "eventChain": [
        {
          "start": "com.ww.meinvbofangqi.FirstActivity.onPause()V",
          "target": "invokevirtual \u003c Application, Landroid/app/AlertDialog$Builder, setPositiveButton(Ljava/lang/CharSequence;Landroid/content/DialogInterface$OnClickListener;)Landroid/app/AlertDialog$Builder; \u003e@378",
          "type": "activity",
          "component": "com.ww.meinvbofangqi.FirstActivity"
        },
        {
          "start": "com.mobclick.android.i.onClick(Landroid/content/DialogInterface;I)V",
          "target": "invokevirtual \u003c Application, Ljava/net/URL, openConnection()Ljava/net/URLConnection; \u003e@28",
          "type": "ui",
          "activities": [
            "com.ww.meinvbofangqi.FirstActivity"
          ],
          "listener": "com.mobclick.android.i",
          "listenerMethod": "onClick",
          "uiType": "onClick",
          "inDialog": "true"
        }
      ]
    },
    "20": {
      "startMethod": "com.ww.meinvbofangqi.FirstActivity$3$1$2$1.onClick(Landroid/content/DialogInterface;I)V",
      "targetMethod": "org.apache.http.impl.client.DefaultHttpClient.execute(Lorg/apache/http/client/methods/HttpUriRequest;)Lorg/apache/http/HttpResponse;",
      "eventChain": [
        {
          "start": "com.waps.q.onReceive(Landroid/content/Context;Landroid/content/Intent;)V",
          "target": "PC@9",
          "type": "sms",
          "constraintsFile": "constraints20_0.py",
          "variables": {
            "\u003cChainedInput2\u003e.getDataString()": "IAAv6",
            "\u003cChainedInput1\u003e.dismiss().J": "IAAv0",
            "\u003cChainedInput1\u003e.dismiss().J.a().I": "IAAv3"
          },
          "stringMap": {},
          "strings": {
            "IAAv4": "",
            "IAAv2": "",
            "IAAv6": ""
          }
        },
        {
          "start": "com.ww.meinvbofangqi.FirstActivity$3$1$2$1.onClick(Landroid/content/DialogInterface;I)V",
          "target": "invokevirtual \u003c Application, Lorg/apache/http/impl/client/DefaultHttpClient, execute(Lorg/apache/http/client/methods/HttpUriRequest;)Lorg/apache/http/HttpResponse; \u003e@442",
          "type": "ui",
          "activities": [
            "com.ww.meinvbofangqi.FirstActivity"
          ],
          "listener": "com.ww.meinvbofangqi.FirstActivity$3$1$2$1",
          "listenerMethod": "onClick",
          "uiType": "onClick",
          "inDialog": "true",
          "constraintsFile": "constraints20_1.py",
          "variables": {
            "\u003cChainedInput1\u003e.dismiss().J": "IAAv0",
            "\u003cChainedInput1\u003e.dismiss().J.a().I": "IAAv3"
          },
          "stringMap": {},
          "strings": {
            "IAAv4": "",
            "IAAv2": ""
          }
        }
      ]
    },
    "21": {
      "startMethod": "com.ww.meinvbofangqi.FirstActivity$3$1$2$1.onClick(Landroid/content/DialogInterface;I)V",
      "targetMethod": "org.apache.http.client.HttpClient.execute(Lorg/apache/http/client/methods/HttpUriRequest;)Lorg/apache/http/HttpResponse;",
      "eventChain": [
        {
          "start": "com.ww.meinvbofangqi.FirstActivity$3$1$2$1.onClick(Landroid/content/DialogInterface;I)V",
          "target": "invokeinterface \u003c Application, Lorg/apache/http/client/HttpClient, execute(Lorg/apache/http/client/methods/HttpUriRequest;)Lorg/apache/http/HttpResponse; \u003e@246",
          "type": "ui",
          "activities": [
            "com.ww.meinvbofangqi.FirstActivity"
          ],
          "listener": "com.ww.meinvbofangqi.FirstActivity$3$1$2$1",
          "listenerMethod": "onClick",
          "uiType": "onClick",
          "inDialog": "true",
          "constraintsFile": "constraints21_0.py",
          "variables": {
            "\u003cChainedInput1\u003e.dismiss().J": "IAAv0",
            "\u003cChainedInput1\u003e.dismiss().J.a().I": "IAAv3"
          },
          "stringMap": {},
          "strings": {
            "IAAv2": ""
          }
        }
      ]
    },
    "22": {
      "startMethod": "com.ww.meinvbofangqi.FirstActivity$3$1.onClick(Landroid/content/DialogInterface;I)V",
      "targetMethod": "org.apache.http.impl.client.DefaultHttpClient.execute(Lorg/apache/http/client/methods/HttpUriRequest;)Lorg/apache/http/HttpResponse;",
      "eventChain": [
        {
          "start": "com.waps.q.onReceive(Landroid/content/Context;Landroid/content/Intent;)V",
          "target": "",
          "type": "sms",
          "constraintsFile": "constraints22_0.py",
          "variables": {
            "\u003cChainedInput2\u003e.getDataString()": "IAAv0"
          },
          "stringMap": {},
          "strings": {
            "IAAv0": ""
          }
        },
        {
          "start": "com.waps.q.onReceive(Landroid/content/Context;Landroid/content/Intent;)V",
          "target": "PC@9",
          "type": "sms",
          "constraintsFile": "constraints22_1.py",
          "variables": {
            "\u003cChainedInput2\u003e.getDataString()": "IAAv7"
          },
          "stringMap": {},
          "strings": {
            "IAAv3": "",
            "IAAv7": "",
            "IAAv5": ""
          }
        },
        {
          "start": "com.ww.meinvbofangqi.FirstActivity$3$1.onClick(Landroid/content/DialogInterface;I)V",
          "target": "invokevirtual \u003c Application, Lorg/apache/http/impl/client/DefaultHttpClient, execute(Lorg/apache/http/client/methods/HttpUriRequest;)Lorg/apache/http/HttpResponse; \u003e@442",
          "type": "ui",
          "activities": [
            "com.ww.meinvbofangqi.FirstActivity"
          ],
          "listener": "com.ww.meinvbofangqi.FirstActivity$3$1",
          "listenerMethod": "onClick",
          "uiType": "onClick",
          "inDialog": "true",
          "constraintsFile": "constraints22_2.py",
          "variables": {},
          "stringMap": {},
          "strings": {
            "IAAv3": "",
            "IAAv5": ""
          }
        }
      ]
    },
    "23": {
      "startMethod": "com.ww.meinvbofangqi.FirstActivity$3$1.onClick(Landroid/content/DialogInterface;I)V",
      "targetMethod": "org.apache.http.client.HttpClient.execute(Lorg/apache/http/client/methods/HttpUriRequest;)Lorg/apache/http/HttpResponse;",
      "eventChain": [
        {
          "start": "com.waps.q.onReceive(Landroid/content/Context;Landroid/content/Intent;)V",
          "target": "",
          "type": "sms",
          "constraintsFile": "constraints23_0.py",
          "variables": {
            "\u003cChainedInput2\u003e.getDataString()": "IAAv0"
          },
          "stringMap": {},
          "strings": {
            "IAAv0": ""
          }
        },
        {
          "start": "com.ww.meinvbofangqi.FirstActivity$3$1.onClick(Landroid/content/DialogInterface;I)V",
          "target": "invokeinterface \u003c Application, Lorg/apache/http/client/HttpClient, execute(Lorg/apache/http/client/methods/HttpUriRequest;)Lorg/apache/http/HttpResponse; \u003e@246",
          "type": "ui",
          "activities": [
            "com.ww.meinvbofangqi.FirstActivity"
          ],
          "listener": "com.ww.meinvbofangqi.FirstActivity$3$1",
          "listenerMethod": "onClick",
          "uiType": "onClick",
          "inDialog": "true",
          "constraintsFile": "constraints23_1.py",
          "variables": {},
          "stringMap": {},
          "strings": {
            "IAAv3": ""
          }
        }
      ]
    },
    "24": {
      "startMethod": "com.ww.meinvbofangqi.FirstActivity$3$2.onClick(Landroid/content/DialogInterface;I)V",
      "targetMethod": "org.apache.http.client.HttpClient.execute(Lorg/apache/http/client/methods/HttpUriRequest;)Lorg/apache/http/HttpResponse;",
      "eventChain": [
        {
          "start": "com.ww.meinvbofangqi.FirstActivity$3$2.onClick(Landroid/content/DialogInterface;I)V",
          "target": "invokeinterface \u003c Application, Lorg/apache/http/client/HttpClient, execute(Lorg/apache/http/client/methods/HttpUriRequest;)Lorg/apache/http/HttpResponse; \u003e@246",
          "type": "ui",
          "activities": [
            "com.ww.meinvbofangqi.FirstActivity"
          ],
          "listener": "com.ww.meinvbofangqi.FirstActivity$3$2",
          "listenerMethod": "onClick",
          "uiType": "onClick",
          "inDialog": "true",
          "constraintsFile": "constraints24_0.py",
          "variables": {
            "\u003cChainedInput1\u003e.dismiss().J": "IAAv0",
            "\u003cChainedInput1\u003e.dismiss().J.a().I": "IAAv3"
          },
          "stringMap": {},
          "strings": {
            "IAAv2": ""
          }
        }
      ]
    },
    "25": {
      "startMethod": "com.ww.meinvbofangqi.FirstActivity$3$2.onClick(Landroid/content/DialogInterface;I)V",
      "targetMethod": "org.apache.http.impl.client.DefaultHttpClient.execute(Lorg/apache/http/client/methods/HttpUriRequest;)Lorg/apache/http/HttpResponse;",
      "eventChain": [
        {
          "start": "com.waps.q.onReceive(Landroid/content/Context;Landroid/content/Intent;)V",
          "target": "PC@9",
          "type": "sms",
          "constraintsFile": "constraints25_0.py",
          "variables": {
            "\u003cChainedInput2\u003e.getDataString()": "IAAv6",
            "\u003cChainedInput1\u003e.dismiss().J": "IAAv0",
            "\u003cChainedInput1\u003e.dismiss().J.a().I": "IAAv3"
          },
          "stringMap": {},
          "strings": {
            "IAAv4": "",
            "IAAv2": "",
            "IAAv6": ""
          }
        },
        {
          "start": "com.ww.meinvbofangqi.FirstActivity$3$2.onClick(Landroid/content/DialogInterface;I)V",
          "target": "invokevirtual \u003c Application, Lorg/apache/http/impl/client/DefaultHttpClient, execute(Lorg/apache/http/client/methods/HttpUriRequest;)Lorg/apache/http/HttpResponse; \u003e@442",
          "type": "ui",
          "activities": [
            "com.ww.meinvbofangqi.FirstActivity"
          ],
          "listener": "com.ww.meinvbofangqi.FirstActivity$3$2",
          "listenerMethod": "onClick",
          "uiType": "onClick",
          "inDialog": "true",
          "constraintsFile": "constraints25_1.py",
          "variables": {
            "\u003cChainedInput1\u003e.dismiss().J": "IAAv0",
            "\u003cChainedInput1\u003e.dismiss().J.a().I": "IAAv3"
          },
          "stringMap": {},
          "strings": {
            "IAAv4": "",
            "IAAv2": ""
          }
        }
      ]
    },
    "26": {
      "startMethod": "com.waps.s.onClick(Landroid/view/View;)V",
      "targetMethod": "org.apache.http.client.HttpClient.execute(Lorg/apache/http/client/methods/HttpUriRequest;)Lorg/apache/http/HttpResponse;",
      "eventChain": [
        {
          "start": "com.waps.s.onClick(Landroid/view/View;)V",
          "target": "invokeinterface \u003c Application, Lorg/apache/http/client/HttpClient, execute(Lorg/apache/http/client/methods/HttpUriRequest;)Lorg/apache/http/HttpResponse; \u003e@246",
          "type": "ui",
          "activities": [
            "com.ww.meinvbofangqi.FirstActivity"
          ],
          "listener": "com.waps.s",
          "listenerMethod": "onClick",
          "uiType": "onClick",
          "constraintsFile": "constraints26_0.py",
          "variables": {},
          "stringMap": {},
          "strings": {
            "IAAv0": ""
          }
        }
      ]
    },
    "27": {
      "startMethod": "com.waps.q.onReceive(Landroid/content/Context;Landroid/content/Intent;)V",
      "targetMethod": "org.apache.http.client.HttpClient.execute(Lorg/apache/http/client/methods/HttpUriRequest;)Lorg/apache/http/HttpResponse;",
      "eventChain": [
        {
          "start": "com.waps.z.onClick(Landroid/content/DialogInterface;I)V",
          "target": "invokespecial \u003c Application, Landroid/content/BroadcastReceiver, \u003cinit\u003e()V \u003e@2",
          "type": "ui",
          "activities": [
            "com.ww.meinvbofangqi.FirstActivity"
          ],
          "listener": "com.waps.z",
          "listenerMethod": "onClick",
          "uiType": "onClick",
          "inDialog": "true"
        },
        {
          "start": "com.waps.q.onReceive(Landroid/content/Context;Landroid/content/Intent;)V",
          "target": "",
          "type": "sms",
          "constraintsFile": "constraints27_0.py",
          "variables": {
            "\u003cChainedInput1\u003e.getSystemService().getActiveNetworkInfo().getExtraInfo()": "IAAv4",
            "\u003cChainedInput2\u003e.getDataString()": "IAAv0",
            "\u003cChainedInput1\u003e.getSystemService().getActiveNetworkInfo()": "IAAv3"
          },
          "stringMap": {},
          "strings": {
            "IAAv4": "",
            "IAAv0": ""
          }
        },
        {
          "start": "com.waps.q.onReceive(Landroid/content/Context;Landroid/content/Intent;)V",
          "target": "invokeinterface \u003c Application, Lorg/apache/http/client/HttpClient, execute(Lorg/apache/http/client/methods/HttpUriRequest;)Lorg/apache/http/HttpResponse; \u003e@246",
          "type": "sms",
          "constraintsFile": "constraints27_1.py",
          "variables": {
            "\u003cChainedInput2\u003e.getDataString()": "IAAv0"
          },
          "stringMap": {},
          "strings": {
            "IAAv0": ""
          }
        }
      ]
    },
    "28": {
      "startMethod": "com.waps.w.onDownloadStart(Ljava/lang/String;Ljava/lang/String;Ljava/lang/String;Ljava/lang/String;J)V",
      "targetMethod": "java.net.URL.openConnection()Ljava/net/URLConnection;",
      "eventChain": [
        {
          "start": "com.waps.OffersWebView.onCreate(Landroid/os/Bundle;)V",
          "target": "invokevirtual \u003c Application, Landroid/webkit/WebView, setDownloadListener(Landroid/webkit/DownloadListener;)V \u003e@1041",
          "type": "activity",
          "component": "com.waps.OffersWebView",
          "constraintsFile": "constraints28_0.py",
          "variables": {},
          "stringMap": {},
          "strings": {}
        },
        {
          "start": "com.waps.w.onDownloadStart(Ljava/lang/String;Ljava/lang/String;Ljava/lang/String;Ljava/lang/String;J)V",
          "target": "invokevirtual \u003c Application, Ljava/net/URL, openConnection()Ljava/net/URLConnection; \u003e@40",
          "type": "",
          "constraintsFile": "constraints28_1.py",
          "variables": {},
          "stringMap": {},
          "strings": {}
        }
      ]
    },
    "29": {
      "startMethod": "com.waps.w.onDownloadStart(Ljava/lang/String;Ljava/lang/String;Ljava/lang/String;Ljava/lang/String;J)V",
      "targetMethod": "org.apache.http.impl.client.DefaultHttpClient.execute(Lorg/apache/http/client/methods/HttpUriRequest;)Lorg/apache/http/HttpResponse;",
      "eventChain": [
        {
          "start": "com.waps.OffersWebView.onCreate(Landroid/os/Bundle;)V",
          "target": "invokevirtual \u003c Application, Landroid/webkit/WebView, setDownloadListener(Landroid/webkit/DownloadListener;)V \u003e@1041",
          "type": "activity",
          "component": "com.waps.OffersWebView",
          "constraintsFile": "constraints29_0.py",
          "variables": {},
          "stringMap": {},
          "strings": {}
        },
        {
          "start": "com.waps.w.onDownloadStart(Ljava/lang/String;Ljava/lang/String;Ljava/lang/String;Ljava/lang/String;J)V",
          "target": "",
          "type": "",
          "constraintsFile": "constraints29_1.py",
          "variables": {},
          "stringMap": {},
          "strings": {}
        },
        {
          "start": "com.waps.w.onDownloadStart(Ljava/lang/String;Ljava/lang/String;Ljava/lang/String;Ljava/lang/String;J)V",
          "target": "invokevirtual \u003c Application, Lorg/apache/http/impl/client/DefaultHttpClient, execute(Lorg/apache/http/client/methods/HttpUriRequest;)Lorg/apache/http/HttpResponse; \u003e@196",
          "type": "",
          "constraintsFile": "constraints29_2.py",
          "variables": {},
          "stringMap": {},
          "strings": {}
        }
      ]
    }
  }
}