{
  "packageName": "com.ibs.dortislem",
  "mainActivity": "com.ibs.dortislem.Home",
  "callPaths": {
    "0": {
      "startMethod": "com.ibs.dortislem.Home.onResume()V",
      "targetMethod": "java.net.URL.openConnection()Ljava/net/URLConnection;",
      "eventChain": [
        {
          "start": "com.ibs.dortislem.Home.\u003cinit\u003e()V",
          "target": "PC@9",
          "type": "",
          "constraintsFile": "constraints0_0.py",
          "variables": {},
          "stringMap": {},
          "strings": {}
        },
        {
          "start": "com.ibs.dortislem.Home.onResume()V",
          "target": "PC@21",
          "type": "activity",
          "component": "com.ibs.dortislem.Home",
          "constraintsFile": "constraints0_1.py",
          "variables": {},
          "stringMap": {},
          "strings": {}
        },
        {
          "start": "com.ibs.dortislem.Home.onResume()V",
          "target": "invokevirtual \u003c Application, Ljava/net/URL, openConnection()Ljava/net/URLConnection; \u003e@16",
          "type": "activity",
          "component": "com.ibs.dortislem.Home",
          "constraintsFile": "constraints0_2.py",
          "variables": {},
          "stringMap": {},
          "strings": {}
        }
      ]
    },
    "1": {
      "startMethod": "com.startapp.android.publish.AppWallActivity.onResume()V",
      "targetMethod": "java.net.URL.openConnection()Ljava/net/URLConnection;",
      "eventChain": [
        {
          "start": "com.startapp.android.publish.AppWallActivity.onResume()V",
          "target": "invokevirtual \u003c Application, Ljava/net/URL, openConnection()Ljava/net/URLConnection; \u003e@16",
          "type": "activity",
          "component": "com.startapp.android.publish.AppWallActivity"
        }
      ]
    },
    "2": {
      "startMethod": "com.ibs.dortislem.Home.onPause()V",
      "targetMethod": "java.net.URL.openConnection()Ljava/net/URLConnection;",
      "eventChain": [
        {
          "start": "com.ibs.dortislem.Home.onResume()V",
          "target": "PC@47",
          "type": "activity",
          "component": "com.ibs.dortislem.Home",
          "constraintsFile": "constraints2_0.py",
          "variables": {},
          "stringMap": {},
          "strings": {}
        },
        {
          "start": "com.ibs.dortislem.Home.onPause()V",
          "target": "invokevirtual \u003c Application, Ljava/net/URL, openConnection()Ljava/net/URLConnection; \u003e@16",
          "type": "activity",
          "component": "com.ibs.dortislem.Home",
          "constraintsFile": "constraints2_1.py",
          "variables": {},
          "stringMap": {
            "7000": "com.android.internal.app",
            "7001": "com.android.systemui.recent"
          },
          "strings": {
            "IAAv3": "",
            "IAAv2": "",
            "IAAv9": ""
          }
        }
      ]
    }
  }
}