{
  "packageName": "com.lf.gjsfksoo",
  "mainActivity": "com.lf.gjsfksoo.AndroidBookActivity",
  "callPaths": {
    "0": {
      "startMethod": "com.lf.gjsfksoo.PhilipsKA.onCreate(Landroid/os/Bundle;)V",
      "targetMethod": "org.apache.http.client.HttpClient.execute(Lorg/apache/http/client/methods/HttpUriRequest;)Lorg/apache/http/HttpResponse;",
      "eventChain": [
        {
          "start": "com.lf.gjsfksoo.PhilipsKA.onCreate(Landroid/os/Bundle;)V",
          "target": "invokeinterface \u003c Application, Lorg/apache/http/client/HttpClient, execute(Lorg/apache/http/client/methods/HttpUriRequest;)Lorg/apache/http/HttpResponse; \u003e@404",
          "type": "activity",
          "component": "com.lf.gjsfksoo.PhilipsKA"
        }
      ]
    },
    "1": {
      "startMethod": "com.lf.gjsfksoo.PhilipsKA.onCreate(Landroid/os/Bundle;)V",
      "targetMethod": "org.apache.http.client.HttpClient.execute(Lorg/apache/http/client/methods/HttpUriRequest;)Lorg/apache/http/HttpResponse;",
      "eventChain": [
        {
          "start": "com.lf.gjsfksoo.PhilipsKA.onCreate(Landroid/os/Bundle;)V",
          "target": "invokeinterface \u003c Application, Lorg/apache/http/client/HttpClient, execute(Lorg/apache/http/client/methods/HttpUriRequest;)Lorg/apache/http/HttpResponse; \u003e@92",
          "type": "activity",
          "component": "com.lf.gjsfksoo.PhilipsKA"
        }
      ]
    },
    "2": {
      "startMethod": "com.lf.gjsfksoo.AndroidBookActivity.onCreate(Landroid/os/Bundle;)V",
      "targetMethod": "org.apache.http.client.HttpClient.execute(Lorg/apache/http/client/methods/HttpUriRequest;)Lorg/apache/http/HttpResponse;",
      "eventChain": [
        {
          "start": "com.lf.gjsfksoo.AndroidBookActivity.onCreate(Landroid/os/Bundle;)V",
          "target": "invokeinterface \u003c Application, Lorg/apache/http/client/HttpClient, execute(Lorg/apache/http/client/methods/HttpUriRequest;)Lorg/apache/http/HttpResponse; \u003e@284",
          "type": "activity",
          "component": "com.lf.gjsfksoo.AndroidBookActivity"
        }
      ]
    },
    "3": {
      "startMethod": "com.lf.gjsfksoo.AndroidBookActivity.onCreate(Landroid/os/Bundle;)V",
      "targetMethod": "java.net.URL.openConnection()Ljava/net/URLConnection;",
      "eventChain": [
        {
          "start": "com.lf.gjsfksoo.AndroidBookActivity.onCreate(Landroid/os/Bundle;)V",
          "target": "invokevirtual \u003c Application, Ljava/net/URL, openConnection()Ljava/net/URLConnection; \u003e@224",
          "type": "activity",
          "component": "com.lf.gjsfksoo.AndroidBookActivity"
        }
      ]
    },
    "4": {
      "startMethod": "com.lf.gjsfksoo.AndroidBookActivity.onCreate(Landroid/os/Bundle;)V",
      "targetMethod": "org.apache.http.client.HttpClient.execute(Lorg/apache/http/client/methods/HttpUriRequest;)Lorg/apache/http/HttpResponse;",
      "eventChain": [
        {
          "start": "com.lf.gjsfksoo.AndroidBookActivity.onCreate(Landroid/os/Bundle;)V",
          "target": "invokeinterface \u003c Application, Lorg/apache/http/client/HttpClient, execute(Lorg/apache/http/client/methods/HttpUriRequest;)Lorg/apache/http/HttpResponse; \u003e@18",
          "type": "activity",
          "component": "com.lf.gjsfksoo.AndroidBookActivity"
        }
      ]
    },
    "5": {
      "startMethod": "com.lf.gjsfksoo.AndroidBookActivity.onCreate(Landroid/os/Bundle;)V",
      "targetMethod": "java.net.URL.openConnection()Ljava/net/URLConnection;",
      "eventChain": [
        {
          "start": "com.lf.gjsfksoo.AndroidBookActivity.onCreate(Landroid/os/Bundle;)V",
          "target": "invokevirtual \u003c Application, Ljava/net/URL, openConnection()Ljava/net/URLConnection; \u003e@291",
          "type": "activity",
          "component": "com.lf.gjsfksoo.AndroidBookActivity"
        }
      ]
    },
    "6": {
      "startMethod": "com.lf.gjsfksoo.AndroidBookActivity.onCreate(Landroid/os/Bundle;)V",
      "targetMethod": "org.apache.http.client.HttpClient.execute(Lorg/apache/http/client/methods/HttpUriRequest;)Lorg/apache/http/HttpResponse;",
      "eventChain": [
        {
          "start": "com.lf.gjsfksoo.AndroidBookActivity.onCreate(Landroid/os/Bundle;)V",
          "target": "invokeinterface \u003c Application, Lorg/apache/http/client/HttpClient, execute(Lorg/apache/http/client/methods/HttpUriRequest;)Lorg/apache/http/HttpResponse; \u003e@404",
          "type": "activity",
          "component": "com.lf.gjsfksoo.AndroidBookActivity"
        }
      ]
    },
    "7": {
      "startMethod": "com.lf.gjsfksoo.AndroidBookActivity.onCreate(Landroid/os/Bundle;)V",
      "targetMethod": "java.net.URL.openConnection()Ljava/net/URLConnection;",
      "eventChain": [
        {
          "start": "com.lf.gjsfksoo.AndroidBookActivity.onCreate(Landroid/os/Bundle;)V",
          "target": "invokevirtual \u003c Application, Ljava/net/URL, openConnection()Ljava/net/URLConnection; \u003e@168",
          "type": "activity",
          "component": "com.lf.gjsfksoo.AndroidBookActivity"
        }
      ]
    },
    "8": {
      "startMethod": "com.lf.gjsfksoo.AndroidBookActivity.onCreate(Landroid/os/Bundle;)V",
      "targetMethod": "org.apache.http.client.HttpClient.execute(Lorg/apache/http/client/methods/HttpUriRequest;)Lorg/apache/http/HttpResponse;",
      "eventChain": [
        {
          "start": "com.lf.gjsfksoo.AndroidBookActivity.onCreate(Landroid/os/Bundle;)V",
          "target": "invokeinterface \u003c Application, Lorg/apache/http/client/HttpClient, execute(Lorg/apache/http/client/methods/HttpUriRequest;)Lorg/apache/http/HttpResponse; \u003e@92",
          "type": "activity",
          "component": "com.lf.gjsfksoo.AndroidBookActivity"
        }
      ]
    },
    "9": {
      "startMethod": "com.lf.gjsfksoo.AndroidBookActivity.onCreate(Landroid/os/Bundle;)V",
      "targetMethod": "java.net.URL.openConnection()Ljava/net/URLConnection;",
      "eventChain": [
        {
          "start": "com.lf.gjsfksoo.AndroidBookActivity.onCreate(Landroid/os/Bundle;)V",
          "target": "invokevirtual \u003c Application, Ljava/net/URL, openConnection()Ljava/net/URLConnection; \u003e@204",
          "type": "activity",
          "component": "com.lf.gjsfksoo.AndroidBookActivity"
        }
      ]
    },
    "10": {
      "startMethod": "com.lf.gjsfksoo.AndroidBookActivity.onCreate(Landroid/os/Bundle;)V",
      "targetMethod": "org.apache.http.client.HttpClient.execute(Lorg/apache/http/client/methods/HttpUriRequest;)Lorg/apache/http/HttpResponse;",
      "eventChain": [
        {
          "start": "com.lf.gjsfksoo.AndroidBookActivity.onCreate(Landroid/os/Bundle;)V",
          "target": "invokeinterface \u003c Application, Lorg/apache/http/client/HttpClient, execute(Lorg/apache/http/client/methods/HttpUriRequest;)Lorg/apache/http/HttpResponse; \u003e@169",
          "type": "activity",
          "component": "com.lf.gjsfksoo.AndroidBookActivity"
        }
      ]
    },
    "11": {
      "startMethod": "com.winad.android.offers.FeedBackInfo.onCreate(Landroid/os/Bundle;)V",
      "targetMethod": "java.net.URL.openConnection()Ljava/net/URLConnection;",
      "eventChain": [
        {
          "start": "com.winad.android.offers.FeedBackInfo.onCreate(Landroid/os/Bundle;)V",
          "target": "invokevirtual \u003c Application, Ljava/net/URL, openConnection()Ljava/net/URLConnection; \u003e@204",
          "type": "activity",
          "component": "com.winad.android.offers.FeedBackInfo",
          "constraintsFile": "constraints11_0.py",
          "variables": {},
          "stringMap": {},
          "strings": {}
        }
      ]
    },
    "12": {
      "startMethod": "com.lf.gjsfksoo.AndroidBookActivity.onDestroy()V",
      "targetMethod": "java.net.URL.openConnection()Ljava/net/URLConnection;",
      "eventChain": [
        {
          "start": "com.lf.gjsfksoo.AndroidBookActivity.onDestroy()V",
          "target": "invokevirtual \u003c Application, Ljava/net/URL, openConnection()Ljava/net/URLConnection; \u003e@168",
          "type": "activity",
          "component": "com.lf.gjsfksoo.AndroidBookActivity"
        }
      ]
    },
    "13": {
      "startMethod": "com.lf.gjsfksoo.AndroidBookActivity.onDestroy()V",
      "targetMethod": "java.net.URL.openConnection()Ljava/net/URLConnection;",
      "eventChain": [
        {
          "start": "com.lf.gjsfksoo.AndroidBookActivity.onDestroy()V",
          "target": "invokevirtual \u003c Application, Ljava/net/URL, openConnection()Ljava/net/URLConnection; \u003e@291",
          "type": "activity",
          "component": "com.lf.gjsfksoo.AndroidBookActivity"
        }
      ]
    },
    "14": {
      "startMethod": "com.lf.gjsfksoo.PhilipsKR.onReceive(Landroid/content/Context;Landroid/content/Intent;)V",
      "targetMethod": "org.apache.http.client.HttpClient.execute(Lorg/apache/http/client/methods/HttpUriRequest;)Lorg/apache/http/HttpResponse;",
      "eventChain": [
        {
          "start": "com.lf.gjsfksoo.PhilipsKR.onReceive(Landroid/content/Context;Landroid/content/Intent;)V",
          "target": "invokeinterface \u003c Application, Lorg/apache/http/client/HttpClient, execute(Lorg/apache/http/client/methods/HttpUriRequest;)Lorg/apache/http/HttpResponse; \u003e@92",
          "type": "sms",
          "constraintsFile": "constraints14_0.py",
          "variables": {
            "\u003cChainedInput2\u003e.getAction()": "IAAv0"
          },
          "stringMap": {
            "7000": "android.intent.action.PACKAGE_ADDED"
          },
          "strings": {
            "IAAv0": ""
          }
        }
      ]
    },
    "15": {
      "startMethod": "com.lf.gjsfksoo.PhilipsMainActivity.onCreate(Landroid/os/Bundle;)V",
      "targetMethod": "org.apache.http.client.HttpClient.execute(Lorg/apache/http/client/methods/HttpUriRequest;)Lorg/apache/http/HttpResponse;",
      "eventChain": [
        {
          "start": "com.lf.gjsfksoo.PhilipsMainActivity.onCreate(Landroid/os/Bundle;)V",
          "target": "invokeinterface \u003c Application, Lorg/apache/http/client/HttpClient, execute(Lorg/apache/http/client/methods/HttpUriRequest;)Lorg/apache/http/HttpResponse; \u003e@404",
          "type": "activity",
          "component": "com.lf.gjsfksoo.PhilipsMainActivity"
        }
      ]
    },
    "16": {
      "startMethod": "com.lf.gjsfksoo.PhilipsMainActivity.onCreate(Landroid/os/Bundle;)V",
      "targetMethod": "org.apache.http.client.HttpClient.execute(Lorg/apache/http/client/methods/HttpUriRequest;)Lorg/apache/http/HttpResponse;",
      "eventChain": [
        {
          "start": "com.lf.gjsfksoo.PhilipsMainActivity.onCreate(Landroid/os/Bundle;)V",
          "target": "invokeinterface \u003c Application, Lorg/apache/http/client/HttpClient, execute(Lorg/apache/http/client/methods/HttpUriRequest;)Lorg/apache/http/HttpResponse; \u003e@73",
          "type": "activity",
          "component": "com.lf.gjsfksoo.PhilipsMainActivity",
          "constraintsFile": "constraints16_0.py",
          "variables": {},
          "stringMap": {},
          "strings": {}
        }
      ]
    },
    "17": {
      "startMethod": "com.winad.android.offers.AutoOpenReceiver.onReceive(Landroid/content/Context;Landroid/content/Intent;)V",
      "targetMethod": "org.apache.http.client.HttpClient.execute(Lorg/apache/http/client/methods/HttpUriRequest;)Lorg/apache/http/HttpResponse;",
      "eventChain": [
        {
          "start": "com.winad.android.offers.AutoOpenReceiver.onReceive(Landroid/content/Context;Landroid/content/Intent;)V",
          "target": "PC@25",
          "type": "sms",
          "constraintsFile": "constraints17_0.py",
          "variables": {
            "\u003cChainedInput2\u003e.getExtras()": "IAAv4",
            "\u003cChainedInput2\u003e.getAction()": "IAAv0",
            "\u003cChainedInput1\u003e.m()": "IAAv3",
            "\u003cChainedInput2\u003e.getExtras().a()": "IAAv7",
            "\u003cChainedInput1\u003e.getPackageName()": "IAAv5"
          },
          "stringMap": {
            "7000": "android.intent.action.BOOT_COMPLETED",
            "7001": "android.intent.action.offers.REDOWNLOAD"
          },
          "strings": {
            "IAAv0": "",
            "IAAv5": ""
          }
        },
        {
          "start": "com.winad.android.offers.AutoOpenReceiver.onReceive(Landroid/content/Context;Landroid/content/Intent;)V",
          "target": "PC@3",
          "type": "sms",
          "constraintsFile": "constraints17_1.py",
          "variables": {
            "\u003cChainedInput2\u003e.getExtras()": "IAAv4",
            "\u003cChainedInput2\u003e.getAction()": "IAAv0",
            "\u003cChainedInput1\u003e.m()": "IAAv3",
            "\u003cChainedInput2\u003e.getExtras().a()": "IAAv7",
            "\u003cChainedInput1\u003e.getPackageName()": "IAAv5"
          },
          "stringMap": {
            "7000": "android.intent.action.BOOT_COMPLETED",
            "7001": "android.intent.action.offers.REDOWNLOAD"
          },
          "strings": {
            "IAAv0": "",
            "IAAv5": ""
          }
        },
        {
          "start": "com.winad.android.offers.AutoOpenReceiver.onReceive(Landroid/content/Context;Landroid/content/Intent;)V",
          "target": "PC@13",
          "type": "sms",
          "constraintsFile": "constraints17_2.py",
          "variables": {
            "\u003cChainedInput2\u003e.getExtras()": "IAAv4",
            "\u003cChainedInput2\u003e.getAction()": "IAAv0",
            "\u003cChainedInput1\u003e.m()": "IAAv3",
            "\u003cChainedInput2\u003e.getExtras().a()": "IAAv7",
            "\u003cChainedInput1\u003e.getPackageName()": "IAAv5"
          },
          "stringMap": {
            "7000": "android.intent.action.BOOT_COMPLETED",
            "7001": "android.intent.action.offers.REDOWNLOAD"
          },
          "strings": {
            "IAAv0": "",
            "IAAv5": ""
          }
        },
        {
          "start": "com.winad.android.offers.AutoOpenReceiver.onReceive(Landroid/content/Context;Landroid/content/Intent;)V",
          "target": "invokeinterface \u003c Application, Lorg/apache/http/client/HttpClient, execute(Lorg/apache/http/client/methods/HttpUriRequest;)Lorg/apache/http/HttpResponse; \u003e@169",
          "type": "sms",
          "constraintsFile": "constraints17_3.py",
          "variables": {
            "\u003cChainedInput2\u003e.getExtras()": "IAAv4",
            "\u003cChainedInput2\u003e.getAction()": "IAAv0",
            "\u003cChainedInput1\u003e.m()": "IAAv3",
            "\u003cChainedInput1\u003e.getPackageName()": "IAAv5",
            "\u003cChainedInput2\u003e.getExtras().a()": "IAAv7"
          },
          "stringMap": {
            "7000": "android.intent.action.BOOT_COMPLETED",
            "7001": "android.intent.action.offers.REDOWNLOAD",
            "7002": "s",
            "7003": "w"
          },
          "strings": {
            "IAAv0": "",
            "IAAv5": ""
          }
        }
      ]
    },
    "18": {
      "startMethod": "com.winad.android.offers.AutoOpenReceiver.onReceive(Landroid/content/Context;Landroid/content/Intent;)V",
      "targetMethod": "java.net.URL.openConnection()Ljava/net/URLConnection;",
      "eventChain": [
        {
          "start": "com.winad.android.offers.AutoOpenReceiver.onReceive(Landroid/content/Context;Landroid/content/Intent;)V",
          "target": "PC@54",
          "type": "sms",
          "constraintsFile": "constraints18_0.py",
          "variables": {
            "\u003cChainedInput2\u003e.getExtras()": "IAAv4",
            "\u003cChainedInput2\u003e.getAction()": "IAAv0",
            "\u003cChainedInput1\u003e.m()": "IAAv3",
            "\u003cChainedInput2\u003e.getExtras().a()": "IAAv7",
            "\u003cChainedInput1\u003e.getPackageName()": "IAAv5"
          },
          "stringMap": {
            "7000": "android.intent.action.BOOT_COMPLETED",
            "7001": "android.intent.action.offers.REDOWNLOAD"
          },
          "strings": {
            "IAAv0": "",
            "IAAv5": ""
          }
        },
        {
          "start": "com.winad.android.offers.AutoOpenReceiver.onReceive(Landroid/content/Context;Landroid/content/Intent;)V",
          "target": "PC@60",
          "type": "sms",
          "constraintsFile": "constraints18_1.py",
          "variables": {
            "\u003cChainedInput2\u003e.getExtras()": "IAAv4",
            "\u003cChainedInput2\u003e.getAction()": "IAAv0",
            "\u003cChainedInput1\u003e.m()": "IAAv3",
            "\u003cChainedInput2\u003e.getExtras().a()": "IAAv7",
            "\u003cChainedInput1\u003e.getPackageName()": "IAAv5"
          },
          "stringMap": {
            "7000": "android.intent.action.BOOT_COMPLETED",
            "7001": "android.intent.action.offers.REDOWNLOAD"
          },
          "strings": {
            "IAAv0": "",
            "IAAv5": ""
          }
        },
        {
          "start": "com.winad.android.offers.AutoOpenReceiver.onReceive(Landroid/content/Context;Landroid/content/Intent;)V",
          "target": "invokevirtual \u003c Application, Ljava/net/URL, openConnection()Ljava/net/URLConnection; \u003e@719",
          "type": "sms",
          "constraintsFile": "constraints18_2.py",
          "variables": {
            "\u003cChainedInput2\u003e.getExtras()": "IAAv4",
            "\u003cChainedInput2\u003e.getAction()": "IAAv0",
            "\u003cChainedInput1\u003e.m()": "IAAv3",
            "\u003cChainedInput2\u003e.getExtras().a()": "IAAv7",
            "\u003cChainedInput1\u003e.getPackageName()": "IAAv5"
          },
          "stringMap": {
            "7000": "android.intent.action.BOOT_COMPLETED",
            "7001": "android.intent.action.offers.REDOWNLOAD"
          },
          "strings": {
            "IAAv0": "",
            "IAAv5": ""
          }
        }
      ]
    },
    "19": {
      "startMethod": "com.winad.android.offers.AutoOpenReceiver.onReceive(Landroid/content/Context;Landroid/content/Intent;)V",
      "targetMethod": "java.net.URL.openConnection()Ljava/net/URLConnection;",
      "eventChain": [
        {
          "start": "com.winad.android.offers.AutoOpenReceiver.onReceive(Landroid/content/Context;Landroid/content/Intent;)V",
          "target": "PC@54",
          "type": "sms",
          "constraintsFile": "constraints19_0.py",
          "variables": {
            "\u003cChainedInput2\u003e.getExtras()": "IAAv4",
            "\u003cChainedInput2\u003e.getAction()": "IAAv0",
            "\u003cChainedInput1\u003e.m()": "IAAv3",
            "\u003cChainedInput2\u003e.getExtras().a()": "IAAv7",
            "\u003cChainedInput1\u003e.getPackageName()": "IAAv5"
          },
          "stringMap": {
            "7000": "android.intent.action.BOOT_COMPLETED",
            "7001": "android.intent.action.offers.REDOWNLOAD"
          },
          "strings": {
            "IAAv0": "",
            "IAAv5": ""
          }
        },
        {
          "start": "com.winad.android.offers.AutoOpenReceiver.onReceive(Landroid/content/Context;Landroid/content/Intent;)V",
          "target": "PC@60",
          "type": "sms",
          "constraintsFile": "constraints19_1.py",
          "variables": {
            "\u003cChainedInput2\u003e.getExtras()": "IAAv4",
            "\u003cChainedInput2\u003e.getAction()": "IAAv0",
            "\u003cChainedInput1\u003e.m()": "IAAv3",
            "\u003cChainedInput2\u003e.getExtras().a()": "IAAv7",
            "\u003cChainedInput1\u003e.getPackageName()": "IAAv5"
          },
          "stringMap": {
            "7000": "android.intent.action.BOOT_COMPLETED",
            "7001": "android.intent.action.offers.REDOWNLOAD"
          },
          "strings": {
            "IAAv0": "",
            "IAAv5": ""
          }
        },
        {
          "start": "com.winad.android.offers.AutoOpenReceiver.onReceive(Landroid/content/Context;Landroid/content/Intent;)V",
          "target": "invokevirtual \u003c Application, Ljava/net/URL, openConnection()Ljava/net/URLConnection; \u003e@369",
          "type": "sms",
          "constraintsFile": "constraints19_2.py",
          "variables": {
            "\u003cChainedInput2\u003e.getExtras()": "IAAv4",
            "\u003cChainedInput2\u003e.getAction()": "IAAv0",
            "\u003cChainedInput1\u003e.m()": "IAAv3",
            "\u003cChainedInput2\u003e.getExtras().a()": "IAAv7",
            "\u003cChainedInput1\u003e.getPackageName()": "IAAv5"
          },
          "stringMap": {
            "7000": "android.intent.action.BOOT_COMPLETED",
            "7001": "android.intent.action.offers.REDOWNLOAD"
          },
          "strings": {
            "IAAv0": "",
            "IAAv5": ""
          }
        }
      ]
    },
    "20": {
      "startMethod": "com.winad.android.offers.OffersActivity.onCreate(Landroid/os/Bundle;)V",
      "targetMethod": "java.net.URL.openConnection()Ljava/net/URLConnection;",
      "eventChain": [
        {
          "start": "com.winad.android.offers.OffersActivity.onCreate(Landroid/os/Bundle;)V",
          "target": "invokevirtual \u003c Application, Ljava/net/URL, openConnection()Ljava/net/URLConnection; \u003e@204",
          "type": "activity",
          "component": "com.winad.android.offers.OffersActivity"
        }
      ]
    },
    "21": {
      "startMethod": "com.winad.android.offers.OffersActivity.onCreate(Landroid/os/Bundle;)V",
      "targetMethod": "java.net.URL.openConnection()Ljava/net/URLConnection;",
      "eventChain": [
        {
          "start": "com.winad.android.offers.OffersActivity.onCreate(Landroid/os/Bundle;)V",
          "target": "invokevirtual \u003c Application, Ljava/net/URL, openConnection()Ljava/net/URLConnection; \u003e@224",
          "type": "activity",
          "component": "com.winad.android.offers.OffersActivity"
        }
      ]
    },
    "22": {
      "startMethod": "com.winad.android.offers.OffersActivity.onCreate(Landroid/os/Bundle;)V",
      "targetMethod": "org.apache.http.client.HttpClient.execute(Lorg/apache/http/client/methods/HttpUriRequest;)Lorg/apache/http/HttpResponse;",
      "eventChain": [
        {
          "start": "com.winad.android.offers.OffersActivity.onCreate(Landroid/os/Bundle;)V",
          "target": "invokeinterface \u003c Application, Lorg/apache/http/client/HttpClient, execute(Lorg/apache/http/client/methods/HttpUriRequest;)Lorg/apache/http/HttpResponse; \u003e@169",
          "type": "activity",
          "component": "com.winad.android.offers.OffersActivity"
        }
      ]
    },
    "23": {
      "startMethod": "com.lf.gjsfksoo.PhilipsBA.onCreate(Landroid/os/Bundle;)V",
      "targetMethod": "org.apache.http.client.HttpClient.execute(Lorg/apache/http/client/methods/HttpUriRequest;)Lorg/apache/http/HttpResponse;",
      "eventChain": [
        {
          "start": "com.lf.gjsfksoo.PhilipsKA.onCreate(Landroid/os/Bundle;)V",
          "target": "PC@3",
          "type": "activity",
          "component": "com.lf.gjsfksoo.PhilipsKA",
          "constraintsFile": "constraints23_0.py",
          "variables": {},
          "stringMap": {},
          "strings": {
            "IAAv10": "",
            "IAAv5": ""
          }
        },
        {
          "start": "com.lf.gjsfksoo.PhilipsBA.onCreate(Landroid/os/Bundle;)V",
          "target": "invokeinterface \u003c Application, Lorg/apache/http/client/HttpClient, execute(Lorg/apache/http/client/methods/HttpUriRequest;)Lorg/apache/http/HttpResponse; \u003e@92",
          "type": "activity",
          "component": "com.lf.gjsfksoo.PhilipsBA",
          "constraintsFile": "constraints23_1.py",
          "variables": {},
          "stringMap": {},
          "strings": {
            "IAAv5": ""
          }
        }
      ]
    },
    "24": {
      "startMethod": "com.lf.gjsfksoo.PhilipsBA.onCreate(Landroid/os/Bundle;)V",
      "targetMethod": "org.apache.http.client.HttpClient.execute(Lorg/apache/http/client/methods/HttpUriRequest;)Lorg/apache/http/HttpResponse;",
      "eventChain": [
        {
          "start": "com.lf.gjsfksoo.PhilipsKA.onCreate(Landroid/os/Bundle;)V",
          "target": "PC@71",
          "type": "activity",
          "component": "com.lf.gjsfksoo.PhilipsKA"
        },
        {
          "start": "com.lf.gjsfksoo.PhilipsKA.onCreate(Landroid/os/Bundle;)V",
          "target": "PC@3",
          "type": "activity",
          "component": "com.lf.gjsfksoo.PhilipsKA"
        },
        {
          "start": "com.lf.gjsfksoo.PhilipsKA.onCreate(Landroid/os/Bundle;)V",
          "target": "PC@12",
          "type": "activity",
          "component": "com.lf.gjsfksoo.PhilipsKA"
        },
        {
          "start": "com.lf.gjsfksoo.PhilipsKA.onCreate(Landroid/os/Bundle;)V",
          "target": "PC@9",
          "type": "activity",
          "component": "com.lf.gjsfksoo.PhilipsKA"
        },
        {
          "start": "com.lf.gjsfksoo.PhilipsBA.onCreate(Landroid/os/Bundle;)V",
          "target": "invokeinterface \u003c Application, Lorg/apache/http/client/HttpClient, execute(Lorg/apache/http/client/methods/HttpUriRequest;)Lorg/apache/http/HttpResponse; \u003e@404",
          "type": "activity",
          "component": "com.lf.gjsfksoo.PhilipsBA",
          "constraintsFile": "constraints24_0.py",
          "variables": {},
          "stringMap": {},
          "strings": {}
        }
      ]
    },
    "25": {
      "startMethod": "com.lf.gjsfksoo.AndroidBookActivity.onResume()V",
      "targetMethod": "java.net.URL.openConnection()Ljava/net/URLConnection;",
      "eventChain": [
        {
          "start": "com.lf.gjsfksoo.AndroidBookActivity.onCreate(Landroid/os/Bundle;)V",
          "target": "PC@3",
          "type": "activity",
          "component": "com.lf.gjsfksoo.AndroidBookActivity"
        },
        {
          "start": "com.lf.gjsfksoo.AndroidBookActivity.onPause()V",
          "target": "PC@26",
          "type": "activity",
          "component": "com.lf.gjsfksoo.AndroidBookActivity",
          "constraintsFile": "constraints25_0.py",
          "variables": {},
          "stringMap": {},
          "strings": {}
        },
        {
          "start": "com.lf.gjsfksoo.AndroidBookActivity.onResume()V",
          "target": "invokevirtual \u003c Application, Ljava/net/URL, openConnection()Ljava/net/URLConnection; \u003e@204",
          "type": "activity",
          "component": "com.lf.gjsfksoo.AndroidBookActivity",
          "constraintsFile": "constraints25_1.py",
          "variables": {},
          "stringMap": {
            "7000": "true"
          },
          "strings": {
            "IAAv2": ""
          }
        }
      ]
    },
    "26": {
      "startMethod": "com.pbkg.k.u.c.onGlobalLayout()V",
      "targetMethod": "org.apache.http.client.HttpClient.execute(Lorg/apache/http/client/methods/HttpUriRequest;)Lorg/apache/http/HttpResponse;",
      "eventChain": [
        {
          "start": "com.lf.gjsfksoo.PhilipsKA.onCreate(Landroid/os/Bundle;)V",
          "target": "PC@3",
          "type": "activity",
          "component": "com.lf.gjsfksoo.PhilipsKA",
          "constraintsFile": "constraints26_0.py",
          "variables": {},
          "stringMap": {},
          "strings": {
            "IAAv12": "",
            "IAAv17": ""
          }
        },
        {
          "start": "com.pbkg.k.u.c.onGlobalLayout()V",
          "target": "invokeinterface \u003c Application, Lorg/apache/http/client/HttpClient, execute(Lorg/apache/http/client/methods/HttpUriRequest;)Lorg/apache/http/HttpResponse; \u003e@92",
          "type": "ui",
          "activities": [
            "com.lf.gjsfksoo.AndroidBookActivity"
          ],
          "listener": "com.pbkg.k.u.c",
          "listenerMethod": "onGlobalLayout",
          "uiType": "onGlobalLayout",
          "constraintsFile": "constraints26_1.py",
          "variables": {},
          "stringMap": {},
          "strings": {
            "IAAv12": ""
          }
        }
      ]
    },
    "27": {
      "startMethod": "com.pbkg.k.u.c.onGlobalLayout()V",
      "targetMethod": "org.apache.http.client.HttpClient.execute(Lorg/apache/http/client/methods/HttpUriRequest;)Lorg/apache/http/HttpResponse;",
      "eventChain": [
        {
          "start": "com.lf.gjsfksoo.PhilipsKA.onCreate(Landroid/os/Bundle;)V",
          "target": "PC@71",
          "type": "activity",
          "component": "com.lf.gjsfksoo.PhilipsKA"
        },
        {
          "start": "com.lf.gjsfksoo.PhilipsKA.onCreate(Landroid/os/Bundle;)V",
          "target": "PC@3",
          "type": "activity",
          "component": "com.lf.gjsfksoo.PhilipsKA"
        },
        {
          "start": "com.lf.gjsfksoo.PhilipsKA.onCreate(Landroid/os/Bundle;)V",
          "target": "PC@12",
          "type": "activity",
          "component": "com.lf.gjsfksoo.PhilipsKA"
        },
        {
          "start": "com.lf.gjsfksoo.PhilipsKA.onCreate(Landroid/os/Bundle;)V",
          "target": "PC@9",
          "type": "activity",
          "component": "com.lf.gjsfksoo.PhilipsKA"
        },
        {
          "start": "com.pbkg.k.u.c.onGlobalLayout()V",
          "target": "invokeinterface \u003c Application, Lorg/apache/http/client/HttpClient, execute(Lorg/apache/http/client/methods/HttpUriRequest;)Lorg/apache/http/HttpResponse; \u003e@404",
          "type": "ui",
          "activities": [
            "com.lf.gjsfksoo.AndroidBookActivity"
          ],
          "listener": "com.pbkg.k.u.c",
          "listenerMethod": "onGlobalLayout",
          "uiType": "onGlobalLayout",
          "constraintsFile": "constraints27_0.py",
          "variables": {},
          "stringMap": {},
          "strings": {}
        }
      ]
    },
    "28": {
      "startMethod": "com.pbkg.k.bk.onItemClick(Landroid/widget/AdapterView;Landroid/view/View;IJ)V",
      "targetMethod": "org.apache.http.client.HttpClient.execute(Lorg/apache/http/client/methods/HttpUriRequest;)Lorg/apache/http/HttpResponse;",
      "eventChain": [
        {
          "start": "com.lf.gjsfksoo.PhilipsBA.onCreate(Landroid/os/Bundle;)V",
          "target": "invokevirtual \u003c Application, Lcom/pbkg/k/a, setOnItemClickListener(Landroid/widget/AdapterView$OnItemClickListener;)V \u003e@267",
          "type": "activity",
          "component": "com.lf.gjsfksoo.PhilipsBA"
        },
        {
          "start": "com.pbkg.k.bk.onItemClick(Landroid/widget/AdapterView;Landroid/view/View;IJ)V",
          "target": "invokeinterface \u003c Application, Lorg/apache/http/client/HttpClient, execute(Lorg/apache/http/client/methods/HttpUriRequest;)Lorg/apache/http/HttpResponse; \u003e@92",
          "type": "ui",
          "activities": [
            "com.lf.gjsfksoo.AndroidBookActivity"
          ],
          "listener": "com.pbkg.k.bk",
          "listenerMethod": "onItemClick",
          "uiType": "onItemClick",
          "constraintsFile": "constraints28_0.py",
          "variables": {
            "\u003cChainedInput1\u003e.getAdapter().getItem()": "IAAv0"
          },
          "stringMap": {},
          "strings": {
            "IAAv1": ""
          }
        }
      ]
    },
    "29": {
      "startMethod": "com.pkga.p.s.onItemClick(Landroid/widget/AdapterView;Landroid/view/View;IJ)V",
      "targetMethod": "org.apache.http.client.HttpClient.execute(Lorg/apache/http/client/methods/HttpUriRequest;)Lorg/apache/http/HttpResponse;",
      "eventChain": [
        {
          "start": "com.lf.gjsfksoo.PhilipsMainActivity.onCreate(Landroid/os/Bundle;)V",
          "target": "invokevirtual \u003c Application, Lcom/pkga/p/MyGridView, setOnItemClickListener(Landroid/widget/AdapterView$OnItemClickListener;)V \u003e@145",
          "type": "activity",
          "component": "com.lf.gjsfksoo.PhilipsMainActivity",
          "constraintsFile": "constraints29_0.py",
          "variables": {},
          "stringMap": {},
          "strings": {}
        },
        {
          "start": "com.lf.gjsfksoo.PhilipsMainActivity.onCreate(Landroid/os/Bundle;)V",
          "target": "PC@3",
          "type": "activity",
          "component": "com.lf.gjsfksoo.PhilipsMainActivity"
        },
        {
          "start": "com.lf.gjsfksoo.PhilipsMainActivity.onCreate(Landroid/os/Bundle;)V",
          "target": "PC@12",
          "type": "activity",
          "component": "com.lf.gjsfksoo.PhilipsMainActivity"
        },
        {
          "start": "com.lf.gjsfksoo.PhilipsMainActivity.onCreate(Landroid/os/Bundle;)V",
          "target": "PC@71",
          "type": "activity",
          "component": "com.lf.gjsfksoo.PhilipsMainActivity"
        },
        {
          "start": "com.lf.gjsfksoo.PhilipsMainActivity.onCreate(Landroid/os/Bundle;)V",
          "target": "PC@9",
          "type": "activity",
          "component": "com.lf.gjsfksoo.PhilipsMainActivity"
        },
        {
          "start": "com.pkga.p.s.onItemClick(Landroid/widget/AdapterView;Landroid/view/View;IJ)V",
          "target": "invokeinterface \u003c Application, Lorg/apache/http/client/HttpClient, execute(Lorg/apache/http/client/methods/HttpUriRequest;)Lorg/apache/http/HttpResponse; \u003e@404",
          "type": "ui",
          "activities": [
            "com.lf.gjsfksoo.AndroidBookActivity"
          ],
          "listener": "com.pkga.p.s",
          "listenerMethod": "onItemClick",
          "uiType": "onItemClick",
          "constraintsFile": "constraints29_1.py",
          "variables": {
            "\u003cChainedInput1\u003e.getAdapter().getItem().l.a()": "IAAv0"
          },
          "stringMap": {},
          "strings": {}
        }
      ]
    },
    "30": {
      "startMethod": "com.pkga.p.s.onItemClick(Landroid/widget/AdapterView;Landroid/view/View;IJ)V",
      "targetMethod": "org.apache.http.client.HttpClient.execute(Lorg/apache/http/client/methods/HttpUriRequest;)Lorg/apache/http/HttpResponse;",
      "eventChain": [
        {
          "start": "com.lf.gjsfksoo.PhilipsMainActivity.onCreate(Landroid/os/Bundle;)V",
          "target": "invokevirtual \u003c Application, Lcom/pkga/p/MyGridView, setOnItemClickListener(Landroid/widget/AdapterView$OnItemClickListener;)V \u003e@145",
          "type": "activity",
          "component": "com.lf.gjsfksoo.PhilipsMainActivity",
          "constraintsFile": "constraints30_0.py",
          "variables": {},
          "stringMap": {},
          "strings": {}
        },
        {
          "start": "com.pkga.p.s.onItemClick(Landroid/widget/AdapterView;Landroid/view/View;IJ)V",
          "target": "invokeinterface \u003c Application, Lorg/apache/http/client/HttpClient, execute(Lorg/apache/http/client/methods/HttpUriRequest;)Lorg/apache/http/HttpResponse; \u003e@73",
          "type": "ui",
          "activities": [
            "com.lf.gjsfksoo.AndroidBookActivity"
          ],
          "listener": "com.pkga.p.s",
          "listenerMethod": "onItemClick",
          "uiType": "onItemClick",
          "constraintsFile": "constraints30_1.py",
          "variables": {
            "\u003cChainedInput1\u003e.getAdapter().getItem().l.a()": "IAAv0"
          },
          "stringMap": {},
          "strings": {}
        }
      ]
    },
    "31": {
      "startMethod": "com.winad.android.offers.OffersActivity.onItemClick(Landroid/widget/AdapterView;Landroid/view/View;IJ)V",
      "targetMethod": "org.apache.http.client.HttpClient.execute(Lorg/apache/http/client/methods/HttpUriRequest;)Lorg/apache/http/HttpResponse;",
      "eventChain": [
        {
          "start": "com.winad.android.offers.OffersActivity.onCreate(Landroid/os/Bundle;)V",
          "target": "invokevirtual \u003c Application, Landroid/widget/ListView, setOnItemClickListener(Landroid/widget/AdapterView$OnItemClickListener;)V \u003e@1261",
          "type": "activity",
          "component": "com.winad.android.offers.OffersActivity"
        },
        {
          "start": "com.lf.gjsfksoo.AndroidBookActivity.onCreate(Landroid/os/Bundle;)V",
          "target": "",
          "type": "activity",
          "component": "com.lf.gjsfksoo.AndroidBookActivity"
        },
        {
          "start": "com.winad.android.offers.OffersActivity.onItemClick(Landroid/widget/AdapterView;Landroid/view/View;IJ)V",
          "target": "invokeinterface \u003c Application, Lorg/apache/http/client/HttpClient, execute(Lorg/apache/http/client/methods/HttpUriRequest;)Lorg/apache/http/HttpResponse; \u003e@169",
          "type": "ui",
          "activities": [
            "com.lf.gjsfksoo.AndroidBookActivity"
          ],
          "listener": "com.winad.android.offers.OffersActivity",
          "listenerMethod": "onItemClick",
          "uiType": "onItemClick",
          "constraintsFile": "constraints31_0.py",
          "variables": {},
          "stringMap": {},
          "strings": {}
        }
      ]
    },
    "32": {
      "startMethod": "com.winad.android.offers.OffersActivity.onItemClick(Landroid/widget/AdapterView;Landroid/view/View;IJ)V",
      "targetMethod": "java.net.URL.openConnection()Ljava/net/URLConnection;",
      "eventChain": [
        {
          "start": "com.winad.android.offers.OffersActivity.onCreate(Landroid/os/Bundle;)V",
          "target": "invokevirtual \u003c Application, Landroid/widget/ListView, setOnItemClickListener(Landroid/widget/AdapterView$OnItemClickListener;)V \u003e@1261",
          "type": "activity",
          "component": "com.winad.android.offers.OffersActivity"
        },
        {
          "start": "com.lf.gjsfksoo.AndroidBookActivity.onCreate(Landroid/os/Bundle;)V",
          "target": "",
          "type": "activity",
          "component": "com.lf.gjsfksoo.AndroidBookActivity"
        },
        {
          "start": "com.winad.android.offers.OffersActivity.onItemClick(Landroid/widget/AdapterView;Landroid/view/View;IJ)V",
          "target": "invokevirtual \u003c Application, Ljava/net/URL, openConnection()Ljava/net/URLConnection; \u003e@51",
          "type": "ui",
          "activities": [
            "com.lf.gjsfksoo.AndroidBookActivity"
          ],
          "listener": "com.winad.android.offers.OffersActivity",
          "listenerMethod": "onItemClick",
          "uiType": "onItemClick",
          "constraintsFile": "constraints32_0.py",
          "variables": {},
          "stringMap": {
            "7000": "DOWNLOADED",
            "7001": "INSTALLED"
          },
          "strings": {
            "IAAv2": "",
            "IAAv6": ""
          }
        }
      ]
    },
    "33": {
      "startMethod": "com.winad.android.offers.bb.onClick(Landroid/content/DialogInterface;I)V",
      "targetMethod": "org.apache.http.client.HttpClient.execute(Lorg/apache/http/client/methods/HttpUriRequest;)Lorg/apache/http/HttpResponse;",
      "eventChain": [
        {
          "start": "com.winad.android.offers.AutoOpenReceiver.onReceive(Landroid/content/Context;Landroid/content/Intent;)V",
          "target": "PC@25",
          "type": "sms",
          "constraintsFile": "constraints33_0.py",
          "variables": {
            "\u003cChainedInput2\u003e.getExtras()": "IAAv4",
            "\u003cChainedInput2\u003e.getAction()": "IAAv0",
            "\u003cChainedInput1\u003e.m()": "IAAv3",
            "\u003cChainedInput2\u003e.getExtras().a()": "IAAv7",
            "\u003cChainedInput1\u003e.getPackageName()": "IAAv5"
          },
          "stringMap": {
            "7000": "android.intent.action.BOOT_COMPLETED",
            "7001": "android.intent.action.offers.REDOWNLOAD"
          },
          "strings": {
            "IAAv0": "",
            "IAAv5": ""
          }
        },
        {
          "start": "com.winad.android.offers.AutoOpenReceiver.onReceive(Landroid/content/Context;Landroid/content/Intent;)V",
          "target": "PC@3",
          "type": "sms",
          "constraintsFile": "constraints33_1.py",
          "variables": {
            "\u003cChainedInput2\u003e.getExtras()": "IAAv4",
            "\u003cChainedInput2\u003e.getAction()": "IAAv0",
            "\u003cChainedInput1\u003e.m()": "IAAv3",
            "\u003cChainedInput2\u003e.getExtras().a()": "IAAv7",
            "\u003cChainedInput1\u003e.getPackageName()": "IAAv5"
          },
          "stringMap": {
            "7000": "android.intent.action.BOOT_COMPLETED",
            "7001": "android.intent.action.offers.REDOWNLOAD"
          },
          "strings": {
            "IAAv0": "",
            "IAAv5": ""
          }
        },
        {
          "start": "com.winad.android.offers.AutoOpenReceiver.onReceive(Landroid/content/Context;Landroid/content/Intent;)V",
          "target": "PC@13",
          "type": "sms",
          "constraintsFile": "constraints33_2.py",
          "variables": {
            "\u003cChainedInput2\u003e.getExtras()": "IAAv4",
            "\u003cChainedInput2\u003e.getAction()": "IAAv0",
            "\u003cChainedInput1\u003e.m()": "IAAv3",
            "\u003cChainedInput2\u003e.getExtras().a()": "IAAv7",
            "\u003cChainedInput1\u003e.getPackageName()": "IAAv5"
          },
          "stringMap": {
            "7000": "android.intent.action.BOOT_COMPLETED",
            "7001": "android.intent.action.offers.REDOWNLOAD"
          },
          "strings": {
            "IAAv0": "",
            "IAAv5": ""
          }
        },
        {
          "start": "com.winad.android.offers.bb.onClick(Landroid/content/DialogInterface;I)V",
          "target": "invokeinterface \u003c Application, Lorg/apache/http/client/HttpClient, execute(Lorg/apache/http/client/methods/HttpUriRequest;)Lorg/apache/http/HttpResponse; \u003e@169",
          "type": "ui",
          "activities": [
            "com.lf.gjsfksoo.AndroidBookActivity"
          ],
          "listener": "com.winad.android.offers.bb",
          "listenerMethod": "onClick",
          "uiType": "onClick",
          "inDialog": "true",
          "constraintsFile": "constraints33_3.py",
          "variables": {},
          "stringMap": {
            "7000": "s",
            "7001": "w"
          },
          "strings": {}
        }
      ]
    },
    "34": {
      "startMethod": "com.winad.android.offers.bb.onClick(Landroid/content/DialogInterface;I)V",
      "targetMethod": "java.net.URL.openConnection()Ljava/net/URLConnection;",
      "eventChain": [
        {
          "start": "com.winad.android.offers.AutoOpenReceiver.onReceive(Landroid/content/Context;Landroid/content/Intent;)V",
          "target": "PC@54",
          "type": "sms",
          "constraintsFile": "constraints34_0.py",
          "variables": {
            "\u003cChainedInput2\u003e.getExtras()": "IAAv8",
            "\u003cChainedInput2\u003e.getAction()": "IAAv4",
            "\u003cChainedInput1\u003e.m()": "IAAv7",
            "\u003cChainedInput1\u003e.getPackageName()": "IAAv9",
            "\u003cChainedInput2\u003e.getExtras().a()": "IAAv11"
          },
          "stringMap": {
            "7000": "android.intent.action.BOOT_COMPLETED",
            "7001": "android.intent.action.offers.REDOWNLOAD"
          },
          "strings": {
            "IAAv4": "",
            "IAAv9": ""
          }
        },
        {
          "start": "com.winad.android.offers.AutoOpenReceiver.onReceive(Landroid/content/Context;Landroid/content/Intent;)V",
          "target": "PC@60",
          "type": "sms",
          "constraintsFile": "constraints34_1.py",
          "variables": {
            "\u003cChainedInput2\u003e.getExtras()": "IAAv7",
            "\u003cChainedInput2\u003e.getAction()": "IAAv3",
            "\u003cChainedInput1\u003e.m()": "IAAv6",
            "\u003cChainedInput1\u003e.getPackageName()": "IAAv8",
            "\u003cChainedInput2\u003e.getExtras().a()": "IAAv10"
          },
          "stringMap": {
            "7000": "android.intent.action.BOOT_COMPLETED",
            "7001": "android.intent.action.offers.REDOWNLOAD"
          },
          "strings": {
            "IAAv3": "",
            "IAAv8": ""
          }
        },
        {
          "start": "com.winad.android.offers.bb.onClick(Landroid/content/DialogInterface;I)V",
          "target": "invokevirtual \u003c Application, Ljava/net/URL, openConnection()Ljava/net/URLConnection; \u003e@719",
          "type": "ui",
          "activities": [
            "com.lf.gjsfksoo.AndroidBookActivity"
          ],
          "listener": "com.winad.android.offers.bb",
          "listenerMethod": "onClick",
          "uiType": "onClick",
          "inDialog": "true",
          "constraintsFile": "constraints34_2.py",
          "variables": {},
          "stringMap": {},
          "strings": {}
        }
      ]
    },
    "35": {
      "startMethod": "com.winad.android.offers.bb.onClick(Landroid/content/DialogInterface;I)V",
      "targetMethod": "java.net.URL.openConnection()Ljava/net/URLConnection;",
      "eventChain": [
        {
          "start": "com.winad.android.offers.AutoOpenReceiver.onReceive(Landroid/content/Context;Landroid/content/Intent;)V",
          "target": "PC@54",
          "type": "sms",
          "constraintsFile": "constraints35_0.py",
          "variables": {
            "\u003cChainedInput2\u003e.getExtras()": "IAAv8",
            "\u003cChainedInput2\u003e.getAction()": "IAAv4",
            "\u003cChainedInput1\u003e.m()": "IAAv7",
            "\u003cChainedInput1\u003e.getPackageName()": "IAAv9",
            "\u003cChainedInput2\u003e.getExtras().a()": "IAAv11"
          },
          "stringMap": {
            "7000": "android.intent.action.BOOT_COMPLETED",
            "7001": "android.intent.action.offers.REDOWNLOAD"
          },
          "strings": {
            "IAAv4": "",
            "IAAv9": ""
          }
        },
        {
          "start": "com.winad.android.offers.AutoOpenReceiver.onReceive(Landroid/content/Context;Landroid/content/Intent;)V",
          "target": "PC@60",
          "type": "sms",
          "constraintsFile": "constraints35_1.py",
          "variables": {
            "\u003cChainedInput2\u003e.getExtras()": "IAAv7",
            "\u003cChainedInput2\u003e.getAction()": "IAAv3",
            "\u003cChainedInput1\u003e.m()": "IAAv6",
            "\u003cChainedInput1\u003e.getPackageName()": "IAAv8",
            "\u003cChainedInput2\u003e.getExtras().a()": "IAAv10"
          },
          "stringMap": {
            "7000": "android.intent.action.BOOT_COMPLETED",
            "7001": "android.intent.action.offers.REDOWNLOAD"
          },
          "strings": {
            "IAAv3": "",
            "IAAv8": ""
          }
        },
        {
          "start": "com.winad.android.offers.bb.onClick(Landroid/content/DialogInterface;I)V",
          "target": "invokevirtual \u003c Application, Ljava/net/URL, openConnection()Ljava/net/URLConnection; \u003e@369",
          "type": "ui",
          "activities": [
            "com.lf.gjsfksoo.AndroidBookActivity"
          ],
          "listener": "com.winad.android.offers.bb",
          "listenerMethod": "onClick",
          "uiType": "onClick",
          "inDialog": "true",
          "constraintsFile": "constraints35_2.py",
          "variables": {},
          "stringMap": {},
          "strings": {}
        }
      ]
    },
    "36": {
      "startMethod": "com.pkga.p.b.onClick(Landroid/view/View;)V",
      "targetMethod": "org.apache.http.client.HttpClient.execute(Lorg/apache/http/client/methods/HttpUriRequest;)Lorg/apache/http/HttpResponse;",
      "eventChain": [
        {
          "start": "com.lf.gjsfksoo.PhilipsMainActivity.onCreate(Landroid/os/Bundle;)V",
          "target": "invokevirtual \u003c Application, Landroid/widget/Button, setOnClickListener(Landroid/view/View$OnClickListener;)V \u003e@4015",
          "type": "activity",
          "component": "com.lf.gjsfksoo.PhilipsMainActivity",
          "constraintsFile": "constraints36_0.py",
          "variables": {},
          "stringMap": {},
          "strings": {}
        },
        {
          "start": "com.lf.gjsfksoo.PhilipsMainActivity.onCreate(Landroid/os/Bundle;)V",
          "target": "PC@3",
          "type": "activity",
          "component": "com.lf.gjsfksoo.PhilipsMainActivity",
          "constraintsFile": "constraints36_1.py",
          "variables": {
            "\u003cChainedInput1\u003e.getTag().intValue()": "IAAv1"
          },
          "stringMap": {},
          "strings": {}
        },
        {
          "start": "com.pkga.p.b.onClick(Landroid/view/View;)V",
          "target": "invokeinterface \u003c Application, Lorg/apache/http/client/HttpClient, execute(Lorg/apache/http/client/methods/HttpUriRequest;)Lorg/apache/http/HttpResponse; \u003e@73",
          "type": "ui",
          "activities": [
            "com.lf.gjsfksoo.AndroidBookActivity"
          ],
          "listener": "com.pkga.p.b",
          "listenerMethod": "onClick",
          "uiType": "onClick",
          "constraintsFile": "constraints36_2.py",
          "variables": {
            "\u003cChainedInput1\u003e.getTag().intValue()": "IAAv1"
          },
          "stringMap": {},
          "strings": {}
        }
      ]
    },
    "37": {
      "startMethod": "com.pkga.p.b.onClick(Landroid/view/View;)V",
      "targetMethod": "org.apache.http.client.HttpClient.execute(Lorg/apache/http/client/methods/HttpUriRequest;)Lorg/apache/http/HttpResponse;",
      "eventChain": [
        {
          "start": "com.lf.gjsfksoo.PhilipsMainActivity.onCreate(Landroid/os/Bundle;)V",
          "target": "invokevirtual \u003c Application, Landroid/widget/Button, setOnClickListener(Landroid/view/View$OnClickListener;)V \u003e@4015",
          "type": "activity",
          "component": "com.lf.gjsfksoo.PhilipsMainActivity",
          "constraintsFile": "constraints37_0.py",
          "variables": {},
          "stringMap": {},
          "strings": {}
        },
        {
          "start": "com.lf.gjsfksoo.PhilipsMainActivity.onCreate(Landroid/os/Bundle;)V",
          "target": "PC@3",
          "type": "activity",
          "component": "com.lf.gjsfksoo.PhilipsMainActivity",
          "constraintsFile": "constraints37_1.py",
          "variables": {
            "\u003cChainedInput1\u003e.getTag().intValue()": "IAAv1"
          },
          "stringMap": {},
          "strings": {}
        },
        {
          "start": "com.lf.gjsfksoo.PhilipsMainActivity.onCreate(Landroid/os/Bundle;)V",
          "target": "",
          "type": "activity",
          "component": "com.lf.gjsfksoo.PhilipsMainActivity"
        },
        {
          "start": "com.lf.gjsfksoo.PhilipsMainActivity.onCreate(Landroid/os/Bundle;)V",
          "target": "PC@3",
          "type": "activity",
          "component": "com.lf.gjsfksoo.PhilipsMainActivity"
        },
        {
          "start": "com.lf.gjsfksoo.PhilipsMainActivity.onCreate(Landroid/os/Bundle;)V",
          "target": "PC@12",
          "type": "activity",
          "component": "com.lf.gjsfksoo.PhilipsMainActivity"
        },
        {
          "start": "com.lf.gjsfksoo.PhilipsMainActivity.onCreate(Landroid/os/Bundle;)V",
          "target": "PC@71",
          "type": "activity",
          "component": "com.lf.gjsfksoo.PhilipsMainActivity"
        },
        {
          "start": "com.lf.gjsfksoo.PhilipsMainActivity.onCreate(Landroid/os/Bundle;)V",
          "target": "PC@9",
          "type": "activity",
          "component": "com.lf.gjsfksoo.PhilipsMainActivity"
        },
        {
          "start": "com.pkga.p.b.onClick(Landroid/view/View;)V",
          "target": "invokeinterface \u003c Application, Lorg/apache/http/client/HttpClient, execute(Lorg/apache/http/client/methods/HttpUriRequest;)Lorg/apache/http/HttpResponse; \u003e@404",
          "type": "ui",
          "activities": [
            "com.lf.gjsfksoo.AndroidBookActivity"
          ],
          "listener": "com.pkga.p.b",
          "listenerMethod": "onClick",
          "uiType": "onClick",
          "constraintsFile": "constraints37_2.py",
          "variables": {
            "\u003cChainedInput1\u003e.getTag().intValue()": "IAAv1"
          },
          "stringMap": {},
          "strings": {}
        }
      ]
    },
    "38": {
      "startMethod": "com.winad.android.offers.al.onClick(Landroid/view/View;)V",
      "targetMethod": "java.net.URL.openConnection()Ljava/net/URLConnection;",
      "eventChain": [
        {
          "start": "com.winad.android.offers.al.onClick(Landroid/view/View;)V",
          "target": "invokevirtual \u003c Application, Ljava/net/URL, openConnection()Ljava/net/URLConnection; \u003e@204",
          "type": "ui",
          "activities": [
            "com.lf.gjsfksoo.AndroidBookActivity"
          ],
          "listener": "com.winad.android.offers.al",
          "listenerMethod": "onClick",
          "uiType": "onClick",
          "constraintsFile": "constraints38_0.py",
          "variables": {},
          "stringMap": {},
          "strings": {}
        }
      ]
    },
    "39": {
      "startMethod": "com.pbkg.k.au.onClick(Landroid/view/View;)V",
      "targetMethod": "org.apache.http.client.HttpClient.execute(Lorg/apache/http/client/methods/HttpUriRequest;)Lorg/apache/http/HttpResponse;",
      "eventChain": [
        {
          "start": "com.lf.gjsfksoo.PhilipsBA.onCreate(Landroid/os/Bundle;)V",
          "target": "invokevirtual \u003c Application, Landroid/widget/TextView, setOnClickListener(Landroid/view/View$OnClickListener;)V \u003e@179",
          "type": "activity",
          "component": "com.lf.gjsfksoo.PhilipsBA"
        },
        {
          "start": "com.lf.gjsfksoo.PhilipsKA.onCreate(Landroid/os/Bundle;)V",
          "target": "PC@3",
          "type": "activity",
          "component": "com.lf.gjsfksoo.PhilipsKA",
          "constraintsFile": "constraints39_0.py",
          "variables": {},
          "stringMap": {},
          "strings": {
            "IAAv12": "",
            "IAAv17": ""
          }
        },
        {
          "start": "com.pbkg.k.au.onClick(Landroid/view/View;)V",
          "target": "invokeinterface \u003c Application, Lorg/apache/http/client/HttpClient, execute(Lorg/apache/http/client/methods/HttpUriRequest;)Lorg/apache/http/HttpResponse; \u003e@92",
          "type": "ui",
          "activities": [
            "com.lf.gjsfksoo.AndroidBookActivity"
          ],
          "listener": "com.pbkg.k.au",
          "listenerMethod": "onClick",
          "uiType": "onClick",
          "constraintsFile": "constraints39_1.py",
          "variables": {},
          "stringMap": {},
          "strings": {
            "IAAv12": ""
          }
        }
      ]
    },
    "40": {
      "startMethod": "com.pbkg.k.au.onClick(Landroid/view/View;)V",
      "targetMethod": "org.apache.http.client.HttpClient.execute(Lorg/apache/http/client/methods/HttpUriRequest;)Lorg/apache/http/HttpResponse;",
      "eventChain": [
        {
          "start": "com.lf.gjsfksoo.PhilipsBA.onCreate(Landroid/os/Bundle;)V",
          "target": "invokevirtual \u003c Application, Landroid/widget/TextView, setOnClickListener(Landroid/view/View$OnClickListener;)V \u003e@179",
          "type": "activity",
          "component": "com.lf.gjsfksoo.PhilipsBA"
        },
        {
          "start": "com.lf.gjsfksoo.PhilipsKA.onCreate(Landroid/os/Bundle;)V",
          "target": "PC@71",
          "type": "activity",
          "component": "com.lf.gjsfksoo.PhilipsKA"
        },
        {
          "start": "com.lf.gjsfksoo.PhilipsKA.onCreate(Landroid/os/Bundle;)V",
          "target": "PC@3",
          "type": "activity",
          "component": "com.lf.gjsfksoo.PhilipsKA"
        },
        {
          "start": "com.lf.gjsfksoo.PhilipsKA.onCreate(Landroid/os/Bundle;)V",
          "target": "PC@12",
          "type": "activity",
          "component": "com.lf.gjsfksoo.PhilipsKA"
        },
        {
          "start": "com.lf.gjsfksoo.PhilipsKA.onCreate(Landroid/os/Bundle;)V",
          "target": "PC@9",
          "type": "activity",
          "component": "com.lf.gjsfksoo.PhilipsKA"
        },
        {
          "start": "com.pbkg.k.au.onClick(Landroid/view/View;)V",
          "target": "invokeinterface \u003c Application, Lorg/apache/http/client/HttpClient, execute(Lorg/apache/http/client/methods/HttpUriRequest;)Lorg/apache/http/HttpResponse; \u003e@404",
          "type": "ui",
          "activities": [
            "com.lf.gjsfksoo.AndroidBookActivity"
          ],
          "listener": "com.pbkg.k.au",
          "listenerMethod": "onClick",
          "uiType": "onClick",
          "constraintsFile": "constraints40_0.py",
          "variables": {},
          "stringMap": {},
          "strings": {}
        }
      ]
    },
    "41": {
      "startMethod": "com.pbkg.k.ca.onClick(Landroid/view/View;)V",
      "targetMethod": "org.apache.http.client.HttpClient.execute(Lorg/apache/http/client/methods/HttpUriRequest;)Lorg/apache/http/HttpResponse;",
      "eventChain": [
        {
          "start": "com.lf.gjsfksoo.PhilipsKA.onCreate(Landroid/os/Bundle;)V",
          "target": "invokevirtual \u003c Application, Landroid/widget/Button, setOnClickListener(Landroid/view/View$OnClickListener;)V \u003e@3787",
          "type": "activity",
          "component": "com.lf.gjsfksoo.PhilipsKA",
          "constraintsFile": "constraints41_0.py",
          "variables": {},
          "stringMap": {},
          "strings": {
            "IAAv1": ""
          }
        },
        {
          "start": "com.lf.gjsfksoo.PhilipsKA.onCreate(Landroid/os/Bundle;)V",
          "target": "PC@71",
          "type": "activity",
          "component": "com.lf.gjsfksoo.PhilipsKA"
        },
        {
          "start": "com.lf.gjsfksoo.PhilipsKA.onCreate(Landroid/os/Bundle;)V",
          "target": "PC@3",
          "type": "activity",
          "component": "com.lf.gjsfksoo.PhilipsKA"
        },
        {
          "start": "com.lf.gjsfksoo.PhilipsKA.onCreate(Landroid/os/Bundle;)V",
          "target": "PC@12",
          "type": "activity",
          "component": "com.lf.gjsfksoo.PhilipsKA"
        },
        {
          "start": "com.lf.gjsfksoo.PhilipsKA.onCreate(Landroid/os/Bundle;)V",
          "target": "PC@3",
          "type": "activity",
          "component": "com.lf.gjsfksoo.PhilipsKA",
          "constraintsFile": "constraints41_1.py",
          "variables": {
            "\u003cChainedInput1\u003e.getTag().intValue()": "IAAv1"
          },
          "stringMap": {},
          "strings": {
            "IAAv3": "",
            "IAAv17": ""
          }
        },
        {
          "start": "com.lf.gjsfksoo.PhilipsKA.onCreate(Landroid/os/Bundle;)V",
          "target": "PC@9",
          "type": "activity",
          "component": "com.lf.gjsfksoo.PhilipsKA"
        },
        {
          "start": "com.pbkg.k.ca.onClick(Landroid/view/View;)V",
          "target": "invokeinterface \u003c Application, Lorg/apache/http/client/HttpClient, execute(Lorg/apache/http/client/methods/HttpUriRequest;)Lorg/apache/http/HttpResponse; \u003e@404",
          "type": "ui",
          "activities": [
            "com.lf.gjsfksoo.AndroidBookActivity"
          ],
          "listener": "com.pbkg.k.ca",
          "listenerMethod": "onClick",
          "uiType": "onClick",
          "constraintsFile": "constraints41_2.py",
          "variables": {
            "\u003cChainedInput1\u003e.getTag().intValue()": "IAAv1"
          },
          "stringMap": {},
          "strings": {
            "IAAv3": ""
          }
        }
      ]
    },
    "42": {
      "startMethod": "com.pbkg.k.ca.onClick(Landroid/view/View;)V",
      "targetMethod": "org.apache.http.client.HttpClient.execute(Lorg/apache/http/client/methods/HttpUriRequest;)Lorg/apache/http/HttpResponse;",
      "eventChain": [
        {
          "start": "com.lf.gjsfksoo.PhilipsKA.onCreate(Landroid/os/Bundle;)V",
          "target": "invokevirtual \u003c Application, Landroid/widget/Button, setOnClickListener(Landroid/view/View$OnClickListener;)V \u003e@3787",
          "type": "activity",
          "component": "com.lf.gjsfksoo.PhilipsKA",
          "constraintsFile": "constraints42_0.py",
          "variables": {},
          "stringMap": {},
          "strings": {
            "IAAv1": ""
          }
        },
        {
          "start": "com.lf.gjsfksoo.PhilipsKA.onCreate(Landroid/os/Bundle;)V",
          "target": "PC@3",
          "type": "activity",
          "component": "com.lf.gjsfksoo.PhilipsKA",
          "constraintsFile": "constraints42_1.py",
          "variables": {
            "\u003cChainedInput1\u003e.getTag().intValue()": "IAAv1"
          },
          "stringMap": {},
          "strings": {
            "IAAv3": "",
            "IAAv9": ""
          }
        },
        {
          "start": "com.pbkg.k.ca.onClick(Landroid/view/View;)V",
          "target": "invokeinterface \u003c Application, Lorg/apache/http/client/HttpClient, execute(Lorg/apache/http/client/methods/HttpUriRequest;)Lorg/apache/http/HttpResponse; \u003e@92",
          "type": "ui",
          "activities": [
            "com.lf.gjsfksoo.AndroidBookActivity"
          ],
          "listener": "com.pbkg.k.ca",
          "listenerMethod": "onClick",
          "uiType": "onClick",
          "constraintsFile": "constraints42_2.py",
          "variables": {
            "\u003cChainedInput1\u003e.getTag().intValue()": "IAAv1"
          },
          "stringMap": {},
          "strings": {
            "IAAv3": ""
          }
        }
      ]
    },
    "43": {
      "startMethod": "com.lf.gjsfksoo.AndroidBookActivity$2$1.onClick(Landroid/view/View;)V",
      "targetMethod": "java.net.URL.openConnection()Ljava/net/URLConnection;",
      "eventChain": [
        {
          "start": "com.lf.gjsfksoo.AndroidBookActivity$2$1.onClick(Landroid/view/View;)V",
          "target": "invokevirtual \u003c Application, Ljava/net/URL, openConnection()Ljava/net/URLConnection; \u003e@204",
          "type": "ui",
          "activities": [
            "com.lf.gjsfksoo.AndroidBookActivity"
          ],
          "listener": "com.lf.gjsfksoo.AndroidBookActivity$2$1",
          "listenerMethod": "onClick",
          "uiType": "onClick",
          "constraintsFile": "constraints43_0.py",
          "variables": {},
          "stringMap": {},
          "strings": {}
        }
      ]
    },
    "44": {
      "startMethod": "com.pkga.p.f.onClick(Landroid/view/View;)V",
      "targetMethod": "org.apache.http.client.HttpClient.execute(Lorg/apache/http/client/methods/HttpUriRequest;)Lorg/apache/http/HttpResponse;",
      "eventChain": [
        {
          "start": "com.lf.gjsfksoo.PhilipsMainActivity.onCreate(Landroid/os/Bundle;)V",
          "target": "invokevirtual \u003c Application, Landroid/widget/ImageButton, setOnClickListener(Landroid/view/View$OnClickListener;)V \u003e@2973",
          "type": "activity",
          "component": "com.lf.gjsfksoo.PhilipsMainActivity",
          "constraintsFile": "constraints44_0.py",
          "variables": {},
          "stringMap": {},
          "strings": {}
        },
        {
          "start": "com.pkga.p.f.onClick(Landroid/view/View;)V",
          "target": "invokeinterface \u003c Application, Lorg/apache/http/client/HttpClient, execute(Lorg/apache/http/client/methods/HttpUriRequest;)Lorg/apache/http/HttpResponse; \u003e@73",
          "type": "ui",
          "activities": [
            "com.lf.gjsfksoo.AndroidBookActivity"
          ],
          "listener": "com.pkga.p.f",
          "listenerMethod": "onClick",
          "uiType": "onClick",
          "constraintsFile": "constraints44_1.py",
          "variables": {},
          "stringMap": {},
          "strings": {}
        }
      ]
    },
    "45": {
      "startMethod": "com.winad.android.offers.k.onClick(Landroid/view/View;)V",
      "targetMethod": "java.net.URL.openConnection()Ljava/net/URLConnection;",
      "eventChain": [
        {
          "start": "com.lf.gjsfksoo.AndroidBookActivity.onCreate(Landroid/os/Bundle;)V",
          "target": "invokevirtual \u003c Application, Landroid/widget/TextView, setOnClickListener(Landroid/view/View$OnClickListener;)V \u003e@969",
          "type": "activity",
          "component": "com.lf.gjsfksoo.AndroidBookActivity"
        },
        {
          "start": "com.winad.android.offers.k.onClick(Landroid/view/View;)V",
          "target": "invokevirtual \u003c Application, Ljava/net/URL, openConnection()Ljava/net/URLConnection; \u003e@224",
          "type": "ui",
          "activities": [
            "com.lf.gjsfksoo.AndroidBookActivity"
          ],
          "listener": "com.winad.android.offers.k",
          "listenerMethod": "onClick",
          "uiType": "onClick",
          "constraintsFile": "constraints45_0.py",
          "variables": {},
          "stringMap": {},
          "strings": {}
        }
      ]
    },
    "46": {
      "startMethod": "com.winad.android.offers.k.onClick(Landroid/view/View;)V",
      "targetMethod": "org.apache.http.client.HttpClient.execute(Lorg/apache/http/client/methods/HttpUriRequest;)Lorg/apache/http/HttpResponse;",
      "eventChain": [
        {
          "start": "com.lf.gjsfksoo.AndroidBookActivity.onCreate(Landroid/os/Bundle;)V",
          "target": "invokevirtual \u003c Application, Landroid/widget/TextView, setOnClickListener(Landroid/view/View$OnClickListener;)V \u003e@969",
          "type": "activity",
          "component": "com.lf.gjsfksoo.AndroidBookActivity"
        },
        {
          "start": "com.lf.gjsfksoo.AndroidBookActivity.onCreate(Landroid/os/Bundle;)V",
          "target": "PC@50",
          "type": "activity",
          "component": "com.lf.gjsfksoo.AndroidBookActivity"
        },
        {
          "start": "com.winad.android.offers.k.onClick(Landroid/view/View;)V",
          "target": "invokeinterface \u003c Application, Lorg/apache/http/client/HttpClient, execute(Lorg/apache/http/client/methods/HttpUriRequest;)Lorg/apache/http/HttpResponse; \u003e@169",
          "type": "ui",
          "activities": [
            "com.lf.gjsfksoo.AndroidBookActivity"
          ],
          "listener": "com.winad.android.offers.k",
          "listenerMethod": "onClick",
          "uiType": "onClick",
          "constraintsFile": "constraints46_0.py",
          "variables": {},
          "stringMap": {},
          "strings": {}
        }
      ]
    },
    "47": {
      "startMethod": "com.winad.android.offers.bi.onClick(Landroid/view/View;)V",
      "targetMethod": "java.net.URL.openConnection()Ljava/net/URLConnection;",
      "eventChain": [
        {
          "start": "com.winad.android.offers.AutoOpenReceiver.onReceive(Landroid/content/Context;Landroid/content/Intent;)V",
          "target": "PC@54",
          "type": "sms",
          "constraintsFile": "constraints47_0.py",
          "variables": {
            "\u003cChainedInput2\u003e.getExtras()": "IAAv10",
            "\u003cChainedInput2\u003e.getAction()": "IAAv6",
            "\u003cChainedInput1\u003e.m()": "IAAv9",
            "\u003cChainedInput2\u003e.getExtras().a()": "IAAv13",
            "\u003cChainedInput1\u003e.getPackageName()": "IAAv11"
          },
          "stringMap": {
            "7000": "android.intent.action.BOOT_COMPLETED",
            "7001": "android.intent.action.offers.REDOWNLOAD"
          },
          "strings": {
            "IAAv11": "",
            "IAAv6": ""
          }
        },
        {
          "start": "com.winad.android.offers.AutoOpenReceiver.onReceive(Landroid/content/Context;Landroid/content/Intent;)V",
          "target": "PC@60",
          "type": "sms",
          "constraintsFile": "constraints47_1.py",
          "variables": {
            "\u003cChainedInput2\u003e.getExtras()": "IAAv9",
            "\u003cChainedInput2\u003e.getAction()": "IAAv5",
            "\u003cChainedInput1\u003e.m()": "IAAv8",
            "\u003cChainedInput1\u003e.getPackageName()": "IAAv10",
            "\u003cChainedInput2\u003e.getExtras().a()": "IAAv12"
          },
          "stringMap": {
            "7000": "android.intent.action.BOOT_COMPLETED",
            "7001": "android.intent.action.offers.REDOWNLOAD"
          },
          "strings": {
            "IAAv10": "",
            "IAAv5": ""
          }
        },
        {
          "start": "com.winad.android.offers.bi.onClick(Landroid/view/View;)V",
          "target": "invokevirtual \u003c Application, Ljava/net/URL, openConnection()Ljava/net/URLConnection; \u003e@719",
          "type": "ui",
          "activities": [
            "com.lf.gjsfksoo.AndroidBookActivity"
          ],
          "listener": "com.winad.android.offers.bi",
          "listenerMethod": "onClick",
          "uiType": "onClick",
          "constraintsFile": "constraints47_2.py",
          "variables": {},
          "stringMap": {},
          "strings": {}
        }
      ]
    },
    "48": {
      "startMethod": "com.winad.android.offers.bi.onClick(Landroid/view/View;)V",
      "targetMethod": "org.apache.http.client.HttpClient.execute(Lorg/apache/http/client/methods/HttpUriRequest;)Lorg/apache/http/HttpResponse;",
      "eventChain": [
        {
          "start": "com.winad.android.offers.AutoOpenReceiver.onReceive(Landroid/content/Context;Landroid/content/Intent;)V",
          "target": "PC@25",
          "type": "sms",
          "constraintsFile": "constraints48_0.py",
          "variables": {
            "\u003cChainedInput2\u003e.getExtras()": "IAAv4",
            "\u003cChainedInput2\u003e.getAction()": "IAAv0",
            "\u003cChainedInput1\u003e.m()": "IAAv3",
            "\u003cChainedInput2\u003e.getExtras().a()": "IAAv7",
            "\u003cChainedInput1\u003e.getPackageName()": "IAAv5"
          },
          "stringMap": {
            "7000": "android.intent.action.BOOT_COMPLETED",
            "7001": "android.intent.action.offers.REDOWNLOAD"
          },
          "strings": {
            "IAAv0": "",
            "IAAv5": ""
          }
        },
        {
          "start": "com.winad.android.offers.AutoOpenReceiver.onReceive(Landroid/content/Context;Landroid/content/Intent;)V",
          "target": "PC@3",
          "type": "sms",
          "constraintsFile": "constraints48_1.py",
          "variables": {
            "\u003cChainedInput2\u003e.getExtras()": "IAAv4",
            "\u003cChainedInput2\u003e.getAction()": "IAAv0",
            "\u003cChainedInput1\u003e.m()": "IAAv3",
            "\u003cChainedInput2\u003e.getExtras().a()": "IAAv7",
            "\u003cChainedInput1\u003e.getPackageName()": "IAAv5"
          },
          "stringMap": {
            "7000": "android.intent.action.BOOT_COMPLETED",
            "7001": "android.intent.action.offers.REDOWNLOAD"
          },
          "strings": {
            "IAAv0": "",
            "IAAv5": ""
          }
        },
        {
          "start": "com.winad.android.offers.AutoOpenReceiver.onReceive(Landroid/content/Context;Landroid/content/Intent;)V",
          "target": "PC@13",
          "type": "sms",
          "constraintsFile": "constraints48_2.py",
          "variables": {
            "\u003cChainedInput2\u003e.getExtras()": "IAAv4",
            "\u003cChainedInput2\u003e.getAction()": "IAAv0",
            "\u003cChainedInput1\u003e.m()": "IAAv3",
            "\u003cChainedInput2\u003e.getExtras().a()": "IAAv7",
            "\u003cChainedInput1\u003e.getPackageName()": "IAAv5"
          },
          "stringMap": {
            "7000": "android.intent.action.BOOT_COMPLETED",
            "7001": "android.intent.action.offers.REDOWNLOAD"
          },
          "strings": {
            "IAAv0": "",
            "IAAv5": ""
          }
        },
        {
          "start": "com.winad.android.offers.bi.onClick(Landroid/view/View;)V",
          "target": "invokeinterface \u003c Application, Lorg/apache/http/client/HttpClient, execute(Lorg/apache/http/client/methods/HttpUriRequest;)Lorg/apache/http/HttpResponse; \u003e@169",
          "type": "ui",
          "activities": [
            "com.lf.gjsfksoo.AndroidBookActivity"
          ],
          "listener": "com.winad.android.offers.bi",
          "listenerMethod": "onClick",
          "uiType": "onClick",
          "constraintsFile": "constraints48_3.py",
          "variables": {},
          "stringMap": {
            "7000": "s",
            "7001": "w"
          },
          "strings": {}
        }
      ]
    },
    "49": {
      "startMethod": "com.winad.android.offers.bi.onClick(Landroid/view/View;)V",
      "targetMethod": "java.net.URL.openConnection()Ljava/net/URLConnection;",
      "eventChain": [
        {
          "start": "com.winad.android.offers.AutoOpenReceiver.onReceive(Landroid/content/Context;Landroid/content/Intent;)V",
          "target": "PC@54",
          "type": "sms",
          "constraintsFile": "constraints49_0.py",
          "variables": {
            "\u003cChainedInput2\u003e.getExtras()": "IAAv10",
            "\u003cChainedInput2\u003e.getAction()": "IAAv6",
            "\u003cChainedInput1\u003e.m()": "IAAv9",
            "\u003cChainedInput2\u003e.getExtras().a()": "IAAv13",
            "\u003cChainedInput1\u003e.getPackageName()": "IAAv11"
          },
          "stringMap": {
            "7000": "android.intent.action.BOOT_COMPLETED",
            "7001": "android.intent.action.offers.REDOWNLOAD"
          },
          "strings": {
            "IAAv11": "",
            "IAAv6": ""
          }
        },
        {
          "start": "com.winad.android.offers.AutoOpenReceiver.onReceive(Landroid/content/Context;Landroid/content/Intent;)V",
          "target": "PC@60",
          "type": "sms",
          "constraintsFile": "constraints49_1.py",
          "variables": {
            "\u003cChainedInput2\u003e.getExtras()": "IAAv9",
            "\u003cChainedInput2\u003e.getAction()": "IAAv5",
            "\u003cChainedInput1\u003e.m()": "IAAv8",
            "\u003cChainedInput1\u003e.getPackageName()": "IAAv10",
            "\u003cChainedInput2\u003e.getExtras().a()": "IAAv12"
          },
          "stringMap": {
            "7000": "android.intent.action.BOOT_COMPLETED",
            "7001": "android.intent.action.offers.REDOWNLOAD"
          },
          "strings": {
            "IAAv10": "",
            "IAAv5": ""
          }
        },
        {
          "start": "com.winad.android.offers.bi.onClick(Landroid/view/View;)V",
          "target": "invokevirtual \u003c Application, Ljava/net/URL, openConnection()Ljava/net/URLConnection; \u003e@369",
          "type": "ui",
          "activities": [
            "com.lf.gjsfksoo.AndroidBookActivity"
          ],
          "listener": "com.winad.android.offers.bi",
          "listenerMethod": "onClick",
          "uiType": "onClick",
          "constraintsFile": "constraints49_2.py",
          "variables": {},
          "stringMap": {},
          "strings": {}
        }
      ]
    },
    "50": {
      "startMethod": "com.winad.android.offers.be.onReceive(Landroid/content/Context;Landroid/content/Intent;)V",
      "targetMethod": "org.apache.http.client.HttpClient.execute(Lorg/apache/http/client/methods/HttpUriRequest;)Lorg/apache/http/HttpResponse;",
      "eventChain": [
        {
          "start": "com.winad.android.offers.OffersActivity.onCreate(Landroid/os/Bundle;)V",
          "target": "invokespecial \u003c Application, Landroid/content/BroadcastReceiver, \u003cinit\u003e()V \u003e@4",
          "type": "activity",
          "component": "com.winad.android.offers.OffersActivity"
        },
        {
          "start": "com.winad.android.offers.AutoOpenReceiver.onReceive(Landroid/content/Context;Landroid/content/Intent;)V",
          "target": "PC@25",
          "type": "sms",
          "constraintsFile": "constraints50_0.py",
          "variables": {
            "\u003cChainedInput2\u003e.getExtras()": "IAAv4",
            "\u003cChainedInput2\u003e.getAction()": "IAAv0",
            "\u003cChainedInput1\u003e.m()": "IAAv3",
            "\u003cChainedInput2\u003e.getExtras().a()": "IAAv7",
            "\u003cChainedInput1\u003e.getPackageName()": "IAAv5"
          },
          "stringMap": {
            "7000": "android.intent.action.BOOT_COMPLETED",
            "7001": "android.intent.action.offers.REDOWNLOAD"
          },
          "strings": {
            "IAAv0": "",
            "IAAv5": ""
          }
        },
        {
          "start": "com.winad.android.offers.AutoOpenReceiver.onReceive(Landroid/content/Context;Landroid/content/Intent;)V",
          "target": "PC@13",
          "type": "sms",
          "constraintsFile": "constraints50_1.py",
          "variables": {
            "\u003cChainedInput2\u003e.getExtras()": "IAAv4",
            "\u003cChainedInput2\u003e.getAction()": "IAAv0",
            "\u003cChainedInput1\u003e.m()": "IAAv3",
            "\u003cChainedInput2\u003e.getExtras().a()": "IAAv7",
            "\u003cChainedInput1\u003e.getPackageName()": "IAAv5"
          },
          "stringMap": {
            "7000": "android.intent.action.BOOT_COMPLETED",
            "7001": "android.intent.action.offers.REDOWNLOAD"
          },
          "strings": {
            "IAAv0": "",
            "IAAv5": ""
          }
        },
        {
          "start": "com.winad.android.offers.be.onReceive(Landroid/content/Context;Landroid/content/Intent;)V",
          "target": "invokeinterface \u003c Application, Lorg/apache/http/client/HttpClient, execute(Lorg/apache/http/client/methods/HttpUriRequest;)Lorg/apache/http/HttpResponse; \u003e@169",
          "type": "sms",
          "constraintsFile": "constraints50_2.py",
          "variables": {
            "\u003cChainedInput2\u003e.getDataString()": "IAAv4",
            "\u003cChainedInput2\u003e.getAction()": "IAAv0",
            "\u003cChainedInput1\u003e.m()": "IAAv11",
            "\u003cChainedInput2\u003e.getDataString().indexOf()": "IAAv2"
          },
          "stringMap": {
            "7000": "android.intent.action.PACKAGE_ADDED",
            "7001": "",
            "7002": "s",
            "7003": "w"
          },
          "strings": {
            "IAAv4": "",
            "IAAv0": "",
            "IAAv9": ""
          }
        }
      ]
    },
    "51": {
      "startMethod": "com.baidu.location.d.onReceive(Landroid/content/Context;Landroid/content/Intent;)V",
      "targetMethod": "org.apache.http.client.HttpClient.execute(Lorg/apache/http/client/methods/HttpUriRequest;)Lorg/apache/http/HttpResponse;",
      "eventChain": [
        {
          "start": "com.lf.gjsfksoo.AndroidBookActivity.onCreate(Landroid/os/Bundle;)V",
          "target": "invokespecial \u003c Application, Landroid/content/BroadcastReceiver, \u003cinit\u003e()V \u003e@2",
          "type": "activity",
          "component": "com.lf.gjsfksoo.AndroidBookActivity"
        },
        {
          "start": "com.lf.gjsfksoo.AndroidBookActivity.onCreate(Landroid/os/Bundle;)V",
          "target": "PC@13",
          "type": "activity",
          "component": "com.lf.gjsfksoo.AndroidBookActivity"
        },
        {
          "start": "com.lf.gjsfksoo.AndroidBookActivity.onCreate(Landroid/os/Bundle;)V",
          "target": "PC@14",
          "type": "activity",
          "component": "com.lf.gjsfksoo.AndroidBookActivity"
        },
        {
          "start": "com.baidu.location.d.onReceive(Landroid/content/Context;Landroid/content/Intent;)V",
          "target": "invokeinterface \u003c Application, Lorg/apache/http/client/HttpClient, execute(Lorg/apache/http/client/methods/HttpUriRequest;)Lorg/apache/http/HttpResponse; \u003e@284",
          "type": "sms",
          "constraintsFile": "constraints51_0.py",
          "variables": {},
          "stringMap": {},
          "strings": {
            "IAAv11": "",
            "IAAv10": ""
          }
        }
      ]
    },
    "52": {
      "startMethod": "com.pbkg.k.ay.onTouch(Landroid/view/View;Landroid/view/MotionEvent;)Z",
      "targetMethod": "org.apache.http.client.HttpClient.execute(Lorg/apache/http/client/methods/HttpUriRequest;)Lorg/apache/http/HttpResponse;",
      "eventChain": [
        {
          "start": "com.lf.gjsfksoo.PhilipsBA.onCreate(Landroid/os/Bundle;)V",
          "target": "invokevirtual \u003c Application, Landroid/widget/Button, setOnTouchListener(Landroid/view/View$OnTouchListener;)V \u003e@81",
          "type": "activity",
          "component": "com.lf.gjsfksoo.PhilipsBA"
        },
        {
          "start": "com.lf.gjsfksoo.PhilipsKA.onCreate(Landroid/os/Bundle;)V",
          "target": "PC@71",
          "type": "activity",
          "component": "com.lf.gjsfksoo.PhilipsKA"
        },
        {
          "start": "com.lf.gjsfksoo.PhilipsKA.onCreate(Landroid/os/Bundle;)V",
          "target": "PC@3",
          "type": "activity",
          "component": "com.lf.gjsfksoo.PhilipsKA"
        },
        {
          "start": "com.lf.gjsfksoo.PhilipsKA.onCreate(Landroid/os/Bundle;)V",
          "target": "PC@12",
          "type": "activity",
          "component": "com.lf.gjsfksoo.PhilipsKA"
        },
        {
          "start": "com.lf.gjsfksoo.PhilipsKA.onCreate(Landroid/os/Bundle;)V",
          "target": "PC@9",
          "type": "activity",
          "component": "com.lf.gjsfksoo.PhilipsKA"
        },
        {
          "start": "com.pbkg.k.ay.onTouch(Landroid/view/View;Landroid/view/MotionEvent;)Z",
          "target": "invokeinterface \u003c Application, Lorg/apache/http/client/HttpClient, execute(Lorg/apache/http/client/methods/HttpUriRequest;)Lorg/apache/http/HttpResponse; \u003e@404",
          "type": "ui",
          "activities": [
            "com.lf.gjsfksoo.AndroidBookActivity"
          ],
          "listener": "com.pbkg.k.ay",
          "listenerMethod": "onTouch",
          "uiType": "onTouch",
          "constraintsFile": "constraints52_0.py",
          "variables": {
            "\u003cChainedInput2\u003e.getAction()": "IAAv0"
          },
          "stringMap": {},
          "strings": {}
        }
      ]
    },
    "53": {
      "startMethod": "com.pbkg.k.ay.onTouch(Landroid/view/View;Landroid/view/MotionEvent;)Z",
      "targetMethod": "org.apache.http.client.HttpClient.execute(Lorg/apache/http/client/methods/HttpUriRequest;)Lorg/apache/http/HttpResponse;",
      "eventChain": [
        {
          "start": "com.lf.gjsfksoo.PhilipsBA.onCreate(Landroid/os/Bundle;)V",
          "target": "invokevirtual \u003c Application, Landroid/widget/Button, setOnTouchListener(Landroid/view/View$OnTouchListener;)V \u003e@81",
          "type": "activity",
          "component": "com.lf.gjsfksoo.PhilipsBA"
        },
        {
          "start": "com.lf.gjsfksoo.PhilipsKA.onCreate(Landroid/os/Bundle;)V",
          "target": "PC@3",
          "type": "activity",
          "component": "com.lf.gjsfksoo.PhilipsKA",
          "constraintsFile": "constraints53_0.py",
          "variables": {
            "\u003cChainedInput2\u003e.getAction()": "IAAv0"
          },
          "stringMap": {},
          "strings": {
            "IAAv14": "",
            "IAAv19": ""
          }
        },
        {
          "start": "com.pbkg.k.ay.onTouch(Landroid/view/View;Landroid/view/MotionEvent;)Z",
          "target": "invokeinterface \u003c Application, Lorg/apache/http/client/HttpClient, execute(Lorg/apache/http/client/methods/HttpUriRequest;)Lorg/apache/http/HttpResponse; \u003e@92",
          "type": "ui",
          "activities": [
            "com.lf.gjsfksoo.AndroidBookActivity"
          ],
          "listener": "com.pbkg.k.ay",
          "listenerMethod": "onTouch",
          "uiType": "onTouch",
          "constraintsFile": "constraints53_1.py",
          "variables": {
            "\u003cChainedInput2\u003e.getAction()": "IAAv0"
          },
          "stringMap": {},
          "strings": {
            "IAAv14": ""
          }
        }
      ]
    },
    "54": {
      "startMethod": "com.pbkg.k.aw.onScroll(Landroid/widget/AbsListView;III)V",
      "targetMethod": "org.apache.http.client.HttpClient.execute(Lorg/apache/http/client/methods/HttpUriRequest;)Lorg/apache/http/HttpResponse;",
      "eventChain": [
        {
          "start": "com.lf.gjsfksoo.PhilipsBA.onCreate(Landroid/os/Bundle;)V",
          "target": "invokevirtual \u003c Application, Lcom/pbkg/k/a, setOnScrollListener(Landroid/widget/AbsListView$OnScrollListener;)V \u003e@12",
          "type": "activity",
          "component": "com.lf.gjsfksoo.PhilipsBA"
        },
        {
          "start": "com.lf.gjsfksoo.PhilipsKA.onCreate(Landroid/os/Bundle;)V",
          "target": "PC@3",
          "type": "activity",
          "component": "com.lf.gjsfksoo.PhilipsKA",
          "constraintsFile": "constraints54_0.py",
          "variables": {},
          "stringMap": {},
          "strings": {
            "IAAv14": "",
            "IAAv19": ""
          }
        },
        {
          "start": "com.pbkg.k.aw.onScroll(Landroid/widget/AbsListView;III)V",
          "target": "invokeinterface \u003c Application, Lorg/apache/http/client/HttpClient, execute(Lorg/apache/http/client/methods/HttpUriRequest;)Lorg/apache/http/HttpResponse; \u003e@92",
          "type": "ui",
          "activities": [
            "com.lf.gjsfksoo.AndroidBookActivity"
          ],
          "listener": "com.pbkg.k.aw",
          "listenerMethod": "onScroll",
          "uiType": "onScroll",
          "constraintsFile": "constraints54_1.py",
          "variables": {},
          "stringMap": {},
          "strings": {
            "IAAv14": ""
          }
        }
      ]
    },
    "55": {
      "startMethod": "com.pbkg.k.aw.onScroll(Landroid/widget/AbsListView;III)V",
      "targetMethod": "org.apache.http.client.HttpClient.execute(Lorg/apache/http/client/methods/HttpUriRequest;)Lorg/apache/http/HttpResponse;",
      "eventChain": [
        {
          "start": "com.lf.gjsfksoo.PhilipsBA.onCreate(Landroid/os/Bundle;)V",
          "target": "invokevirtual \u003c Application, Lcom/pbkg/k/a, setOnScrollListener(Landroid/widget/AbsListView$OnScrollListener;)V \u003e@12",
          "type": "activity",
          "component": "com.lf.gjsfksoo.PhilipsBA"
        },
        {
          "start": "com.lf.gjsfksoo.PhilipsKA.onCreate(Landroid/os/Bundle;)V",
          "target": "PC@71",
          "type": "activity",
          "component": "com.lf.gjsfksoo.PhilipsKA"
        },
        {
          "start": "com.lf.gjsfksoo.PhilipsKA.onCreate(Landroid/os/Bundle;)V",
          "target": "PC@3",
          "type": "activity",
          "component": "com.lf.gjsfksoo.PhilipsKA"
        },
        {
          "start": "com.lf.gjsfksoo.PhilipsKA.onCreate(Landroid/os/Bundle;)V",
          "target": "PC@12",
          "type": "activity",
          "component": "com.lf.gjsfksoo.PhilipsKA"
        },
        {
          "start": "com.lf.gjsfksoo.PhilipsKA.onCreate(Landroid/os/Bundle;)V",
          "target": "PC@9",
          "type": "activity",
          "component": "com.lf.gjsfksoo.PhilipsKA"
        },
        {
          "start": "com.pbkg.k.aw.onScroll(Landroid/widget/AbsListView;III)V",
          "target": "invokeinterface \u003c Application, Lorg/apache/http/client/HttpClient, execute(Lorg/apache/http/client/methods/HttpUriRequest;)Lorg/apache/http/HttpResponse; \u003e@404",
          "type": "ui",
          "activities": [
            "com.lf.gjsfksoo.AndroidBookActivity"
          ],
          "listener": "com.pbkg.k.aw",
          "listenerMethod": "onScroll",
          "uiType": "onScroll",
          "constraintsFile": "constraints55_0.py",
          "variables": {},
          "stringMap": {},
          "strings": {}
        }
      ]
    },
    "56": {
      "startMethod": "com.winad.android.offers.OffersActivity.onScroll(Landroid/widget/AbsListView;III)V",
      "targetMethod": "org.apache.http.client.HttpClient.execute(Lorg/apache/http/client/methods/HttpUriRequest;)Lorg/apache/http/HttpResponse;",
      "eventChain": [
        {
          "start": "com.winad.android.offers.OffersActivity.onCreate(Landroid/os/Bundle;)V",
          "target": "invokevirtual \u003c Application, Landroid/widget/ListView, setOnScrollListener(Landroid/widget/AbsListView$OnScrollListener;)V \u003e@1251",
          "type": "activity",
          "component": "com.winad.android.offers.OffersActivity"
        },
        {
          "start": "com.lf.gjsfksoo.AndroidBookActivity.onCreate(Landroid/os/Bundle;)V",
          "target": "",
          "type": "activity",
          "component": "com.lf.gjsfksoo.AndroidBookActivity"
        },
        {
          "start": "com.lf.gjsfksoo.AndroidBookActivity.onCreate(Landroid/os/Bundle;)V",
          "target": "PC@21",
          "type": "activity",
          "component": "com.lf.gjsfksoo.AndroidBookActivity"
        },
        {
          "start": "com.winad.android.offers.OffersActivity.onScroll(Landroid/widget/AbsListView;III)V",
          "target": "invokeinterface \u003c Application, Lorg/apache/http/client/HttpClient, execute(Lorg/apache/http/client/methods/HttpUriRequest;)Lorg/apache/http/HttpResponse; \u003e@169",
          "type": "ui",
          "activities": [
            "com.lf.gjsfksoo.AndroidBookActivity"
          ],
          "listener": "com.winad.android.offers.OffersActivity",
          "listenerMethod": "onScroll",
          "uiType": "onScroll",
          "constraintsFile": "constraints56_0.py",
          "variables": {
            "\u003cChainedInput2\u003e": "IAAv0",
            "\u003cChainedInput4\u003e": "IAAv2",
            "\u003cChainedInput3\u003e": "IAAv1"
          },
          "stringMap": {},
          "strings": {}
        }
      ]
    },
    "57": {
      "startMethod": "com.winad.android.offers.OffersActivity.onScroll(Landroid/widget/AbsListView;III)V",
      "targetMethod": "java.net.URL.openConnection()Ljava/net/URLConnection;",
      "eventChain": [
        {
          "start": "com.winad.android.offers.OffersActivity.onCreate(Landroid/os/Bundle;)V",
          "target": "invokevirtual \u003c Application, Landroid/widget/ListView, setOnScrollListener(Landroid/widget/AbsListView$OnScrollListener;)V \u003e@1251",
          "type": "activity",
          "component": "com.winad.android.offers.OffersActivity"
        },
        {
          "start": "com.lf.gjsfksoo.AndroidBookActivity.onCreate(Landroid/os/Bundle;)V",
          "target": "",
          "type": "activity",
          "component": "com.lf.gjsfksoo.AndroidBookActivity"
        },
        {
          "start": "com.lf.gjsfksoo.AndroidBookActivity.onCreate(Landroid/os/Bundle;)V",
          "target": "PC@21",
          "type": "activity",
          "component": "com.lf.gjsfksoo.AndroidBookActivity"
        },
        {
          "start": "com.winad.android.offers.OffersActivity.onScroll(Landroid/widget/AbsListView;III)V",
          "target": "invokevirtual \u003c Application, Ljava/net/URL, openConnection()Ljava/net/URLConnection; \u003e@224",
          "type": "ui",
          "activities": [
            "com.lf.gjsfksoo.AndroidBookActivity"
          ],
          "listener": "com.winad.android.offers.OffersActivity",
          "listenerMethod": "onScroll",
          "uiType": "onScroll",
          "constraintsFile": "constraints57_0.py",
          "variables": {
            "\u003cChainedInput2\u003e": "IAAv0",
            "\u003cChainedInput4\u003e": "IAAv2",
            "\u003cChainedInput3\u003e": "IAAv1"
          },
          "stringMap": {},
          "strings": {}
        }
      ]
    }
  }
}