{
  "packageName": "Jk7H.PwcD",
  "mainActivity": "Jk7H.PwcD.SLYfoMdG",
  "callPaths": {
    "0": {
      "startMethod": "Jk7H.PwcD.SLYfoMdG.licenseButtonClick3(Landroid/view/View;)V",
      "targetMethod": "java.lang.reflect.Method.invoke(Ljava/lang/Object;[Ljava/lang/Object;)Ljava/lang/Object;",
      "eventChain": [
        {
          "start": "Jk7H.PwcD.SLYfoMdG.licenseButtonClick3(Landroid/view/View;)V",
          "target": "invokevirtual \u003c Application, Ljava/lang/reflect/Method, invoke(Ljava/lang/Object;[Ljava/lang/Object;)Ljava/lang/Object; \u003e@52",
          "type": "ui",
          "activities": [
            "Jk7H.PwcD.SLYfoMdG"
          ],
          "listener": "android.view.View$1",
          "listenerMethod": "licenseButtonClick3",
          "uiType": "onClick"
        }
      ]
    },
    "1": {
      "startMethod": "Jk7H.PwcD.SLYfoMdG.mainButtonClick1(Landroid/view/View;)V",
      "targetMethod": "java.lang.reflect.Method.invoke(Ljava/lang/Object;[Ljava/lang/Object;)Ljava/lang/Object;",
      "eventChain": [
        {
          "start": "Jk7H.PwcD.SLYfoMdG.mainButtonClick1(Landroid/view/View;)V",
          "target": "invokevirtual \u003c Application, Ljava/lang/reflect/Method, invoke(Ljava/lang/Object;[Ljava/lang/Object;)Ljava/lang/Object; \u003e@95",
          "type": "ui",
          "activities": [
            "Jk7H.PwcD.SLYfoMdG"
          ],
          "listener": "android.view.View$1",
          "listenerMethod": "mainButtonClick1",
          "uiType": "onClick"
        }
      ]
    },
    "2": {
      "startMethod": "Jk7H.PwcD.SLYfoMdG.mainButtonClick1(Landroid/view/View;)V",
      "targetMethod": "java.lang.reflect.Method.invoke(Ljava/lang/Object;[Ljava/lang/Object;)Ljava/lang/Object;",
      "eventChain": [
        {
          "start": "Jk7H.PwcD.SLYfoMdG.mainButtonClick1(Landroid/view/View;)V",
          "target": "invokevirtual \u003c Application, Ljava/lang/reflect/Method, invoke(Ljava/lang/Object;[Ljava/lang/Object;)Ljava/lang/Object; \u003e@52",
          "type": "ui",
          "activities": [
            "Jk7H.PwcD.SLYfoMdG"
          ],
          "listener": "android.view.View$1",
          "listenerMethod": "mainButtonClick1",
          "uiType": "onClick"
        }
      ]
    },
    "3": {
      "startMethod": "Jk7H.PwcD.SLYfoMdG.onCreate(Landroid/os/Bundle;)V",
      "targetMethod": "java.lang.reflect.Method.invoke(Ljava/lang/Object;[Ljava/lang/Object;)Ljava/lang/Object;",
      "eventChain": [
        {
          "start": "Jk7H.PwcD.SLYfoMdG.onCreate(Landroid/os/Bundle;)V",
          "target": "invokevirtual \u003c Application, Ljava/lang/reflect/Method, invoke(Ljava/lang/Object;[Ljava/lang/Object;)Ljava/lang/Object; \u003e@78",
          "type": "activity",
          "component": "Jk7H.PwcD.SLYfoMdG"
        }
      ]
    },
    "4": {
      "startMethod": "Jk7H.PwcD.SLYfoMdG.onCreate(Landroid/os/Bundle;)V",
      "targetMethod": "java.lang.reflect.Method.invoke(Ljava/lang/Object;[Ljava/lang/Object;)Ljava/lang/Object;",
      "eventChain": [
        {
          "start": "Jk7H.PwcD.SLYfoMdG.onCreate(Landroid/os/Bundle;)V",
          "target": "invokeinterface \u003c Application, Landroid/content/SharedPreferences$Editor, putBoolean(Ljava/lang/String;Z)Landroid/content/SharedPreferences$Editor; \u003e@267",
          "type": "activity",
          "component": "Jk7H.PwcD.SLYfoMdG",
          "constraintsFile": "constraints4_0.py",
          "variables": {
            "SharedPreferences\u003ccreated\u003e": "IAAv0"
          },
          "stringMap": {},
          "strings": {}
        },
        {
          "start": "Jk7H.PwcD.SLYfoMdG.\u003cclinit\u003e()V",
          "target": "",
          "type": "",
          "constraintsFile": "constraints4_1.py",
          "variables": {
            "SharedPreferences\u003ccreated\u003e": "IAAv0"
          },
          "stringMap": {},
          "strings": {}
        },
        {
          "start": "Jk7H.PwcD.SLYfoMdG.onCreate(Landroid/os/Bundle;)V",
          "target": "invokevirtual \u003c Application, Ljava/lang/reflect/Method, invoke(Ljava/lang/Object;[Ljava/lang/Object;)Ljava/lang/Object; \u003e@184",
          "type": "activity",
          "component": "Jk7H.PwcD.SLYfoMdG",
          "constraintsFile": "constraints4_2.py",
          "variables": {
            "SharedPreferences\u003ccreated\u003e": "IAAv0"
          },
          "stringMap": {},
          "strings": {}
        }
      ]
    },
    "5": {
      "startMethod": "Jk7H.PwcD.SLYfoMdG.mainButtonClick2(Landroid/view/View;)V",
      "targetMethod": "java.lang.reflect.Method.invoke(Ljava/lang/Object;[Ljava/lang/Object;)Ljava/lang/Object;",
      "eventChain": [
        {
          "start": "Jk7H.PwcD.SLYfoMdG.mainButtonClick2(Landroid/view/View;)V",
          "target": "invokevirtual \u003c Application, Ljava/lang/reflect/Method, invoke(Ljava/lang/Object;[Ljava/lang/Object;)Ljava/lang/Object; \u003e@59",
          "type": "ui",
          "activities": [
            "Jk7H.PwcD.SLYfoMdG"
          ],
          "listener": "android.view.View$1",
          "listenerMethod": "mainButtonClick2",
          "uiType": "onClick"
        }
      ]
    },
    "6": {
      "startMethod": "Jk7H.PwcD.SLYfoMdG.licenseButtonClick1(Landroid/view/View;)V",
      "targetMethod": "java.lang.reflect.Method.invoke(Ljava/lang/Object;[Ljava/lang/Object;)Ljava/lang/Object;",
      "eventChain": [
        {
          "start": "Jk7H.PwcD.SLYfoMdG.\u003cclinit\u003e()V",
          "target": "",
          "type": "",
          "constraintsFile": "constraints6_0.py",
          "variables": {},
          "stringMap": {},
          "strings": {}
        },
        {
          "start": "Jk7H.PwcD.SLYfoMdG.licenseButtonClick1(Landroid/view/View;)V",
          "target": "invokevirtual \u003c Application, Ljava/lang/reflect/Method, invoke(Ljava/lang/Object;[Ljava/lang/Object;)Ljava/lang/Object; \u003e@224",
          "type": "ui",
          "activities": [
            "Jk7H.PwcD.SLYfoMdG"
          ],
          "listener": "android.view.View$1",
          "listenerMethod": "licenseButtonClick1",
          "uiType": "onClick",
          "constraintsFile": "constraints6_1.py",
          "variables": {},
          "stringMap": {},
          "strings": {}
        }
      ]
    },
    "7": {
      "startMethod": "Jk7H.PwcD.SLYfoMdG.licenseButtonClick1(Landroid/view/View;)V",
      "targetMethod": "java.lang.reflect.Method.invoke(Ljava/lang/Object;[Ljava/lang/Object;)Ljava/lang/Object;",
      "eventChain": [
        {
          "start": "Jk7H.PwcD.SLYfoMdG.licenseButtonClick1(Landroid/view/View;)V",
          "target": "invokevirtual \u003c Application, Ljava/lang/reflect/Method, invoke(Ljava/lang/Object;[Ljava/lang/Object;)Ljava/lang/Object; \u003e@62",
          "type": "ui",
          "activities": [
            "Jk7H.PwcD.SLYfoMdG"
          ],
          "listener": "android.view.View$1",
          "listenerMethod": "licenseButtonClick1",
          "uiType": "onClick",
          "constraintsFile": "constraints7_0.py",
          "variables": {},
          "stringMap": {},
          "strings": {}
        }
      ]
    },
    "8": {
      "startMethod": "Jk7H.PwcD.SLYfoMdG.licenseButtonClick1(Landroid/view/View;)V",
      "targetMethod": "java.lang.reflect.Method.invoke(Ljava/lang/Object;[Ljava/lang/Object;)Ljava/lang/Object;",
      "eventChain": [
        {
          "start": "Jk7H.PwcD.SLYfoMdG.licenseButtonClick1(Landroid/view/View;)V",
          "target": "invokevirtual \u003c Application, Ljava/lang/reflect/Method, invoke(Ljava/lang/Object;[Ljava/lang/Object;)Ljava/lang/Object; \u003e@105",
          "type": "ui",
          "activities": [
            "Jk7H.PwcD.SLYfoMdG"
          ],
          "listener": "android.view.View$1",
          "listenerMethod": "licenseButtonClick1",
          "uiType": "onClick",
          "constraintsFile": "constraints8_0.py",
          "variables": {},
          "stringMap": {},
          "strings": {}
        }
      ]
    },
    "9": {
      "startMethod": "Jk7H.PwcD.SLYfoMdG.licenseButtonClick2(Landroid/view/View;)V",
      "targetMethod": "java.lang.reflect.Method.invoke(Ljava/lang/Object;[Ljava/lang/Object;)Ljava/lang/Object;",
      "eventChain": [
        {
          "start": "Jk7H.PwcD.SLYfoMdG.licenseButtonClick2(Landroid/view/View;)V",
          "target": "invokevirtual \u003c Application, Ljava/lang/reflect/Method, invoke(Ljava/lang/Object;[Ljava/lang/Object;)Ljava/lang/Object; \u003e@52",
          "type": "ui",
          "activities": [
            "Jk7H.PwcD.SLYfoMdG"
          ],
          "listener": "android.view.View$1",
          "listenerMethod": "licenseButtonClick2",
          "uiType": "onClick"
        }
      ]
    }
  }
}