{
  "packageName": "com.dockoo142.dockooReader",
  "mainActivity": "com.dockoo142.dockooReader.dockooReader",
  "callPaths": {
    "0": {
      "startMethod": "com.dockoo142.dockooReader.dockooReader.onCreate(Landroid/os/Bundle;)V",
      "targetMethod": "org.apache.http.client.HttpClient.execute(Lorg/apache/http/client/methods/HttpUriRequest;)Lorg/apache/http/HttpResponse;",
      "eventChain": [
        {
          "start": "com.dockoo142.dockooReader.dockooReader.onCreate(Landroid/os/Bundle;)V",
          "target": "invokeinterface \u003c Application, Lorg/apache/http/client/HttpClient, execute(Lorg/apache/http/client/methods/HttpUriRequest;)Lorg/apache/http/HttpResponse; \u003e@139",
          "type": "activity",
          "component": "com.dockoo142.dockooReader.dockooReader",
          "constraintsFile": "constraints0_0.py",
          "variables": {},
          "stringMap": {
            "7000": ""
          },
          "strings": {}
        }
      ]
    },
    "1": {
      "startMethod": "com.dockoo142.dockooReader.dockooReader.onCreate(Landroid/os/Bundle;)V",
      "targetMethod": "org.apache.http.client.HttpClient.execute(Lorg/apache/http/client/methods/HttpUriRequest;)Lorg/apache/http/HttpResponse;",
      "eventChain": [
        {
          "start": "com.dockoo142.dockooReader.dockooReader.onCreate(Landroid/os/Bundle;)V",
          "target": "invokeinterface \u003c Application, Lorg/apache/http/client/HttpClient, execute(Lorg/apache/http/client/methods/HttpUriRequest;)Lorg/apache/http/HttpResponse; \u003e@198",
          "type": "activity",
          "component": "com.dockoo142.dockooReader.dockooReader"
        }
      ]
    },
    "2": {
      "startMethod": "com.dockoo142.dockooReader.readingPage.onCreate(Landroid/os/Bundle;)V",
      "targetMethod": "org.apache.http.client.HttpClient.execute(Lorg/apache/http/client/methods/HttpUriRequest;)Lorg/apache/http/HttpResponse;",
      "eventChain": [
        {
          "start": "com.dockoo142.dockooReader.readingPage.onCreate(Landroid/os/Bundle;)V",
          "target": "PC@100",
          "type": "activity",
          "component": "com.dockoo142.dockooReader.readingPage"
        },
        {
          "start": "com.dockoo142.dockooReader.readingPage.onCreate(Landroid/os/Bundle;)V",
          "target": "invokeinterface \u003c Application, Lorg/apache/http/client/HttpClient, execute(Lorg/apache/http/client/methods/HttpUriRequest;)Lorg/apache/http/HttpResponse; \u003e@139",
          "type": "activity",
          "component": "com.dockoo142.dockooReader.readingPage",
          "constraintsFile": "constraints2_0.py",
          "variables": {},
          "stringMap": {
            "7000": "\u003cUI\u003e"
          },
          "strings": {}
        }
      ]
    },
    "3": {
      "startMethod": "cn.domob.android.ads.g$4.onClick(Landroid/content/DialogInterface;I)V",
      "targetMethod": "java.net.URL.openConnection()Ljava/net/URLConnection;",
      "eventChain": [
        {
          "start": "cn.domob.android.ads.g$4.onClick(Landroid/content/DialogInterface;I)V",
          "target": "PC@133",
          "type": "ui",
          "activities": [
            "com.dockoo142.dockooReader.dockooReader"
          ],
          "listener": "cn.domob.android.ads.g$4",
          "listenerMethod": "onClick",
          "uiType": "onClick",
          "inDialog": "true"
        },
        {
          "start": "cn.domob.android.ads.g$4.onClick(Landroid/content/DialogInterface;I)V",
          "target": "PC@64",
          "type": "ui",
          "activities": [
            "com.dockoo142.dockooReader.dockooReader"
          ],
          "listener": "cn.domob.android.ads.g$4",
          "listenerMethod": "onClick",
          "uiType": "onClick",
          "inDialog": "true",
          "constraintsFile": "constraints3_0.py",
          "variables": {},
          "stringMap": {},
          "strings": {
            "IAAv1": ""
          }
        },
        {
          "start": "cn.domob.android.ads.g$4.onClick(Landroid/content/DialogInterface;I)V",
          "target": "invokevirtual \u003c Application, Ljava/net/URL, openConnection()Ljava/net/URLConnection; \u003e@291",
          "type": "ui",
          "activities": [
            "com.dockoo142.dockooReader.dockooReader"
          ],
          "listener": "cn.domob.android.ads.g$4",
          "listenerMethod": "onClick",
          "uiType": "onClick",
          "inDialog": "true",
          "constraintsFile": "constraints3_1.py",
          "variables": {},
          "stringMap": {},
          "strings": {}
        }
      ]
    },
    "4": {
      "startMethod": "cn.domob.android.ads.g$4.onClick(Landroid/content/DialogInterface;I)V",
      "targetMethod": "java.net.URL.openConnection(Ljava/net/Proxy;)Ljava/net/URLConnection;",
      "eventChain": [
        {
          "start": "cn.domob.android.ads.g$4.onClick(Landroid/content/DialogInterface;I)V",
          "target": "PC@133",
          "type": "ui",
          "activities": [
            "com.dockoo142.dockooReader.dockooReader"
          ],
          "listener": "cn.domob.android.ads.g$4",
          "listenerMethod": "onClick",
          "uiType": "onClick",
          "inDialog": "true"
        },
        {
          "start": "cn.domob.android.ads.g$4.onClick(Landroid/content/DialogInterface;I)V",
          "target": "PC@489",
          "type": "ui",
          "activities": [
            "com.dockoo142.dockooReader.dockooReader"
          ],
          "listener": "cn.domob.android.ads.g$4",
          "listenerMethod": "onClick",
          "uiType": "onClick",
          "inDialog": "true",
          "constraintsFile": "constraints4_0.py",
          "variables": {},
          "stringMap": {
            "7000": "",
            "7001": "ctwap"
          },
          "strings": {}
        },
        {
          "start": "cn.domob.android.ads.g$4.onClick(Landroid/content/DialogInterface;I)V",
          "target": "invokevirtual \u003c Application, Ljava/net/URL, openConnection(Ljava/net/Proxy;)Ljava/net/URLConnection; \u003e@80",
          "type": "ui",
          "activities": [
            "com.dockoo142.dockooReader.dockooReader"
          ],
          "listener": "cn.domob.android.ads.g$4",
          "listenerMethod": "onClick",
          "uiType": "onClick",
          "inDialog": "true",
          "constraintsFile": "constraints4_1.py",
          "variables": {},
          "stringMap": {},
          "strings": {}
        }
      ]
    },
    "5": {
      "startMethod": "cn.domob.android.ads.e.onReceive(Landroid/content/Context;Landroid/content/Intent;)V",
      "targetMethod": "java.net.URL.openConnection(Ljava/net/Proxy;)Ljava/net/URLConnection;",
      "eventChain": [
        {
          "start": "cn.domob.android.ads.o$5.onClick(Landroid/content/DialogInterface;I)V",
          "target": "invokespecial \u003c Application, Landroid/content/BroadcastReceiver, \u003cinit\u003e()V \u003e@2",
          "type": "ui",
          "activities": [
            "com.dockoo142.dockooReader.dockooReader"
          ],
          "listener": "cn.domob.android.ads.o$5",
          "listenerMethod": "onClick",
          "uiType": "onClick",
          "inDialog": "true",
          "constraintsFile": "constraints5_0.py",
          "variables": {},
          "stringMap": {},
          "strings": {}
        },
        {
          "start": "cn.domob.android.ads.g$4.onClick(Landroid/content/DialogInterface;I)V",
          "target": "PC@133",
          "type": "ui",
          "activities": [
            "com.dockoo142.dockooReader.dockooReader"
          ],
          "listener": "cn.domob.android.ads.g$4",
          "listenerMethod": "onClick",
          "uiType": "onClick",
          "inDialog": "true"
        },
        {
          "start": "cn.domob.android.ads.g$4.onClick(Landroid/content/DialogInterface;I)V",
          "target": "PC@489",
          "type": "ui",
          "activities": [
            "com.dockoo142.dockooReader.dockooReader"
          ],
          "listener": "cn.domob.android.ads.g$4",
          "listenerMethod": "onClick",
          "uiType": "onClick",
          "inDialog": "true",
          "constraintsFile": "constraints5_1.py",
          "variables": {},
          "stringMap": {
            "7000": "",
            "7001": "ctwap"
          },
          "strings": {}
        },
        {
          "start": "cn.domob.android.ads.e.onReceive(Landroid/content/Context;Landroid/content/Intent;)V",
          "target": "invokevirtual \u003c Application, Ljava/net/URL, openConnection(Ljava/net/Proxy;)Ljava/net/URLConnection; \u003e@80",
          "type": "sms",
          "constraintsFile": "constraints5_2.py",
          "variables": {
            "\u003cChainedInput2\u003e.getDataString()": "IAAv2",
            "\u003cChainedInput2\u003e.getAction()": "IAAv0"
          },
          "stringMap": {
            "7000": "android.intent.action.PACKAGE_ADDED"
          },
          "strings": {
            "IAAv2": "",
            "IAAv0": ""
          }
        }
      ]
    },
    "6": {
      "startMethod": "cn.domob.android.ads.e.onReceive(Landroid/content/Context;Landroid/content/Intent;)V",
      "targetMethod": "java.net.URL.openConnection()Ljava/net/URLConnection;",
      "eventChain": [
        {
          "start": "cn.domob.android.ads.o$5.onClick(Landroid/content/DialogInterface;I)V",
          "target": "invokespecial \u003c Application, Landroid/content/BroadcastReceiver, \u003cinit\u003e()V \u003e@2",
          "type": "ui",
          "activities": [
            "com.dockoo142.dockooReader.dockooReader"
          ],
          "listener": "cn.domob.android.ads.o$5",
          "listenerMethod": "onClick",
          "uiType": "onClick",
          "inDialog": "true",
          "constraintsFile": "constraints6_0.py",
          "variables": {},
          "stringMap": {},
          "strings": {}
        },
        {
          "start": "cn.domob.android.ads.g$4.onClick(Landroid/content/DialogInterface;I)V",
          "target": "PC@133",
          "type": "ui",
          "activities": [
            "com.dockoo142.dockooReader.dockooReader"
          ],
          "listener": "cn.domob.android.ads.g$4",
          "listenerMethod": "onClick",
          "uiType": "onClick",
          "inDialog": "true"
        },
        {
          "start": "cn.domob.android.ads.g$4.onClick(Landroid/content/DialogInterface;I)V",
          "target": "PC@64",
          "type": "ui",
          "activities": [
            "com.dockoo142.dockooReader.dockooReader"
          ],
          "listener": "cn.domob.android.ads.g$4",
          "listenerMethod": "onClick",
          "uiType": "onClick",
          "inDialog": "true",
          "constraintsFile": "constraints6_1.py",
          "variables": {
            "\u003cChainedInput2\u003e.getDataString()": "IAAv2",
            "\u003cChainedInput2\u003e.getAction()": "IAAv0"
          },
          "stringMap": {
            "7000": "android.intent.action.PACKAGE_ADDED"
          },
          "strings": {
            "IAAv2": "",
            "IAAv0": "",
            "IAAv6": ""
          }
        },
        {
          "start": "cn.domob.android.ads.e.onReceive(Landroid/content/Context;Landroid/content/Intent;)V",
          "target": "invokevirtual \u003c Application, Ljava/net/URL, openConnection()Ljava/net/URLConnection; \u003e@291",
          "type": "sms",
          "constraintsFile": "constraints6_2.py",
          "variables": {
            "\u003cChainedInput2\u003e.getDataString()": "IAAv2",
            "\u003cChainedInput2\u003e.getAction()": "IAAv0"
          },
          "stringMap": {
            "7000": "android.intent.action.PACKAGE_ADDED"
          },
          "strings": {
            "IAAv2": "",
            "IAAv0": ""
          }
        }
      ]
    }
  }
}