{
  "packageName": "com.conduit.app_91d8d3da40dc4545a6d74ce726955a3e.app",
  "mainActivity": "www.conduit.app.ConduitMainAct",
  "callPaths": {
    "0": {
      "startMethod": "www.conduit.app.pgplugins.media.AudioService.onDestroy()V",
      "targetMethod": "java.net.URL.openConnection()Ljava/net/URLConnection;",
      "eventChain": [
        {
          "start": "www.conduit.app.pgplugins.media.AudioService.onDestroy()V",
          "target": "invokevirtual \u003c Application, Ljava/net/URL, openConnection()Ljava/net/URLConnection; \u003e@51",
          "type": "service",
          "component": "www.conduit.app.pgplugins.media.AudioService",
          "constraintsFile": "constraints0_0.py",
          "variables": {},
          "stringMap": {
            "7000": "soundcloud/transformStream"
          },
          "strings": {
            "IAAv14": "",
            "IAAv15": ""
          }
        }
      ]
    },
    "1": {
      "startMethod": "www.conduit.app.pgplugins.media.AudioService.onCreate()V",
      "targetMethod": "java.net.URL.openConnection()Ljava/net/URLConnection;",
      "eventChain": [
        {
          "start": "www.conduit.app.pgplugins.media.AudioService.onCreate()V",
          "target": "invokevirtual \u003c Application, Ljava/net/URL, openConnection()Ljava/net/URLConnection; \u003e@51",
          "type": "service",
          "component": "www.conduit.app.pgplugins.media.AudioService"
        }
      ]
    },
    "2": {
      "startMethod": "www.conduit.app.pgplugins.media.AudioPlayer.onPrepared(Landroid/media/MediaPlayer;)V",
      "targetMethod": "java.net.URL.openConnection()Ljava/net/URLConnection;",
      "eventChain": [
        {
          "start": "www.conduit.app.pgplugins.media.AudioService.onDestroy()V",
          "target": "invokevirtual \u003c Application, Landroid/media/MediaPlayer, setOnPreparedListener(Landroid/media/MediaPlayer$OnPreparedListener;)V \u003e@158",
          "type": "service",
          "component": "www.conduit.app.pgplugins.media.AudioService",
          "constraintsFile": "constraints2_0.py",
          "variables": {},
          "stringMap": {},
          "strings": {
            "IAAv14": "",
            "IAAv15": ""
          }
        },
        {
          "start": "www.conduit.app.pgplugins.media.AudioService.onCreate()V",
          "target": "PC@33",
          "type": "service",
          "component": "www.conduit.app.pgplugins.media.AudioService"
        },
        {
          "start": "www.conduit.app.pgplugins.media.AudioPlayer.onPrepared(Landroid/media/MediaPlayer;)V",
          "target": "invokevirtual \u003c Application, Ljava/net/URL, openConnection()Ljava/net/URLConnection; \u003e@51",
          "type": "",
          "constraintsFile": "constraints2_1.py",
          "variables": {
            "\u003cChainedInput1\u003e.start().MEDIA_RUNNING": "IAAv1"
          },
          "stringMap": {
            "7000": "soundcloud/transformStream"
          },
          "strings": {
            "IAAv11": "",
            "IAAv10": ""
          }
        }
      ]
    },
    "3": {
      "startMethod": "www.conduit.app.pgplugins.media.AudioPlayer.onError(Landroid/media/MediaPlayer;II)Z",
      "targetMethod": "java.net.URL.openConnection()Ljava/net/URLConnection;",
      "eventChain": [
        {
          "start": "www.conduit.app.pgplugins.media.AudioService.onDestroy()V",
          "target": "invokevirtual \u003c Application, Landroid/media/MediaPlayer, setOnErrorListener(Landroid/media/MediaPlayer$OnErrorListener;)V \u003e@107",
          "type": "service",
          "component": "www.conduit.app.pgplugins.media.AudioService",
          "constraintsFile": "constraints3_0.py",
          "variables": {},
          "stringMap": {},
          "strings": {
            "IAAv14": "",
            "IAAv15": ""
          }
        },
        {
          "start": "www.conduit.app.pgplugins.media.AudioPlayer.onError(Landroid/media/MediaPlayer;II)Z",
          "target": "invokevirtual \u003c Application, Ljava/net/URL, openConnection()Ljava/net/URLConnection; \u003e@51",
          "type": "",
          "constraintsFile": "constraints3_1.py",
          "variables": {
            "\u003cChainedInput1\u003e.reset().MEDIA_ERROR": "IAAv0",
            "\u003cChainedInput1\u003e.reset().MEDIA_RUNNING": "IAAv1"
          },
          "stringMap": {
            "7000": "soundcloud/transformStream"
          },
          "strings": {
            "IAAv11": "",
            "IAAv10": ""
          }
        }
      ]
    },
    "4": {
      "startMethod": "www.conduit.app.pgplugins.media.AudioService$1.onReceive(Landroid/content/Context;Landroid/content/Intent;)V",
      "targetMethod": "java.net.URL.openConnection()Ljava/net/URLConnection;",
      "eventChain": [
        {
          "start": "www.conduit.app.pgplugins.media.AudioService.onCreate()V",
          "target": "invokespecial \u003c Application, Landroid/content/BroadcastReceiver, \u003cinit\u003e()V \u003e@7",
          "type": "service",
          "component": "www.conduit.app.pgplugins.media.AudioService"
        },
        {
          "start": "www.conduit.app.pgplugins.media.AudioService$1.onReceive(Landroid/content/Context;Landroid/content/Intent;)V",
          "target": "invokevirtual \u003c Application, Ljava/net/URL, openConnection()Ljava/net/URLConnection; \u003e@51",
          "type": "sms",
          "constraintsFile": "constraints4_0.py",
          "variables": {
            "\u003cChainedInput2\u003e.getStringExtra()": "IAAv0"
          },
          "stringMap": {
            "7000": "soundcloud/transformStream"
          },
          "strings": {
            "IAAv0": "",
            "IAAv12": ""
          }
        }
      ]
    },
    "5": {
      "startMethod": "www.conduit.app.pgplugins.media.AudioPlayer.onCompletion(Landroid/media/MediaPlayer;)V",
      "targetMethod": "java.net.URL.openConnection()Ljava/net/URLConnection;",
      "eventChain": [
        {
          "start": "www.conduit.app.pgplugins.media.AudioPlayer.onPrepared(Landroid/media/MediaPlayer;)V",
          "target": "invokevirtual \u003c Application, Landroid/media/MediaPlayer, setOnCompletionListener(Landroid/media/MediaPlayer$OnCompletionListener;)V \u003e@3",
          "type": ""
        },
        {
          "start": "www.conduit.app.pgplugins.media.AudioService$1.onReceive(Landroid/content/Context;Landroid/content/Intent;)V",
          "target": "PC@3",
          "type": "sms",
          "constraintsFile": "constraints5_0.py",
          "variables": {
            "\u003cChainedInput2\u003e.getStringExtra()": "IAAv17"
          },
          "stringMap": {
            "7000": "soundcloud/transformStream"
          },
          "strings": {
            "IAAv13": "",
            "IAAv12": "",
            "IAAv17": ""
          }
        },
        {
          "start": "www.conduit.app.pgplugins.media.AudioPlayer.onCompletion(Landroid/media/MediaPlayer;)V",
          "target": "invokevirtual \u003c Application, Ljava/net/URL, openConnection()Ljava/net/URLConnection; \u003e@51",
          "type": "",
          "constraintsFile": "constraints5_1.py",
          "variables": {},
          "stringMap": {
            "7000": "soundcloud/transformStream"
          },
          "strings": {
            "IAAv13": "",
            "IAAv12": ""
          }
        }
      ]
    }
  }
}