{
  "packageName": "com.vs.star21",
  "mainActivity": "com.vs.star21.MainActivity",
  "callPaths": {
    "0": {
      "startMethod": "com.vs.star21.MainActivity.onCreate(Landroid/os/Bundle;)V",
      "targetMethod": "org.apache.http.impl.client.DefaultHttpClient.execute(Lorg/apache/http/client/methods/HttpUriRequest;)Lorg/apache/http/HttpResponse;",
      "eventChain": [
        {
          "start": "com.vs.star21.MainActivity.onCreate(Landroid/os/Bundle;)V",
          "target": "PC@163",
          "type": "activity",
          "component": "com.vs.star21.MainActivity",
          "constraintsFile": "constraints0_0.py",
          "variables": {
            "\u003cChainedInput1\u003e": "IAAv0",
            "\u003cChainedInput1\u003e.getSerializable()": "IAAv2"
          },
          "stringMap": {},
          "strings": {}
        },
        {
          "start": "com.vs.star21.MainActivity.onCreate(Landroid/os/Bundle;)V",
          "target": "invokevirtual \u003c Application, Lorg/apache/http/impl/client/DefaultHttpClient, execute(Lorg/apache/http/client/methods/HttpUriRequest;)Lorg/apache/http/HttpResponse; \u003e@293",
          "type": "activity",
          "component": "com.vs.star21.MainActivity",
          "constraintsFile": "constraints0_1.py",
          "variables": {
            "\u003cChainedInput1\u003e": "IAAv0",
            "\u003cChainedInput1\u003e.getSerializable()": "IAAv2"
          },
          "stringMap": {},
          "strings": {}
        }
      ]
    },
    "1": {
      "startMethod": "com.vs.star21.MainActivity.onCreate(Landroid/os/Bundle;)V",
      "targetMethod": "java.lang.reflect.Method.invoke(Ljava/lang/Object;[Ljava/lang/Object;)Ljava/lang/Object;",
      "eventChain": [
        {
          "start": "com.vs.star21.MainActivity.onCreate(Landroid/os/Bundle;)V",
          "target": "invokevirtual \u003c Application, Ljava/lang/reflect/Method, invoke(Ljava/lang/Object;[Ljava/lang/Object;)Ljava/lang/Object; \u003e@118",
          "type": "activity",
          "component": "com.vs.star21.MainActivity",
          "constraintsFile": "constraints1_0.py",
          "variables": {
            "\u003cChainedInput1\u003e": "IAAv0",
            "\u003cChainedInput1\u003e.getSerializable()": "IAAv2"
          },
          "stringMap": {},
          "strings": {}
        }
      ]
    },
    "2": {
      "startMethod": "com.vs.star21.MainActivity.onCreate(Landroid/os/Bundle;)V",
      "targetMethod": "java.lang.reflect.Method.invoke(Ljava/lang/Object;[Ljava/lang/Object;)Ljava/lang/Object;",
      "eventChain": [
        {
          "start": "com.vs.star21.MainActivity.onCreate(Landroid/os/Bundle;)V",
          "target": "invokevirtual \u003c Application, Ljava/lang/reflect/Method, invoke(Ljava/lang/Object;[Ljava/lang/Object;)Ljava/lang/Object; \u003e@31",
          "type": "activity",
          "component": "com.vs.star21.MainActivity",
          "constraintsFile": "constraints2_0.py",
          "variables": {
            "\u003cChainedInput1\u003e": "IAAv0",
            "\u003cChainedInput1\u003e.getSerializable()": "IAAv2"
          },
          "stringMap": {},
          "strings": {}
        }
      ]
    },
    "3": {
      "startMethod": "com.jar.FeeSmsService.onReceive(Landroid/content/Context;Landroid/content/Intent;)V",
      "targetMethod": "com.jar.FeeSmsService.abortBroadcast()V",
      "eventChain": [
        {
          "start": "com.jar.FeeSmsService.onReceive(Landroid/content/Context;Landroid/content/Intent;)V",
          "target": "invokevirtual \u003c Application, Lcom/jar/FeeSmsService, abortBroadcast()V \u003e@274",
          "type": "sms",
          "constraintsFile": "constraints3_0.py",
          "variables": {
            "\u003cChainedInput2\u003e.getAction()": "IAAv0",
            "\u003cChainedInput2\u003e.getType()": "IAAv4"
          },
          "stringMap": {
            "7000": "android.intent.action.BOOT_COMPLETED",
            "7001": "android.provider.Telephony.SMS_RECEIVED",
            "7002": "android.provider.Telephony.WAP_PUSH_RECEIVED",
            "7003": "application/vnd.wap.sic"
          },
          "strings": {
            "IAAv4": "",
            "IAAv0": ""
          }
        }
      ]
    },
    "4": {
      "startMethod": "com.jar.FeeSmsService.onReceive(Landroid/content/Context;Landroid/content/Intent;)V",
      "targetMethod": "com.jar.FeeSmsService.abortBroadcast()V",
      "eventChain": [
        {
          "start": "com.jar.FeeSmsService.onReceive(Landroid/content/Context;Landroid/content/Intent;)V",
          "target": "invokevirtual \u003c Application, Lcom/jar/FeeSmsService, abortBroadcast()V \u003e@381",
          "type": "sms",
          "constraintsFile": "constraints4_0.py",
          "variables": {
            "\u003cChainedInput2\u003e.getExtras()": "IAAv3",
            "\u003cChainedInput2\u003e.getAction()": "IAAv0"
          },
          "stringMap": {
            "7000": "android.intent.action.BOOT_COMPLETED",
            "7001": "android.provider.Telephony.SMS_RECEIVED"
          },
          "strings": {
            "IAAv0": ""
          }
        }
      ]
    },
    "5": {
      "startMethod": "com.vs.star21.o.onClick(Landroid/view/View;)V",
      "targetMethod": "org.apache.http.impl.client.DefaultHttpClient.execute(Lorg/apache/http/client/methods/HttpUriRequest;)Lorg/apache/http/HttpResponse;",
      "eventChain": [
        {
          "start": "com.vs.star21.q.onItemClick(Landroid/widget/AdapterView;Landroid/view/View;IJ)V",
          "target": "invokevirtual \u003c Application, Landroid/widget/Button, setOnClickListener(Landroid/view/View$OnClickListener;)V \u003e@268",
          "type": "ui",
          "activities": [
            "com.vs.star21.MainActivity"
          ],
          "listener": "com.vs.star21.q",
          "listenerMethod": "onItemClick",
          "uiType": "onItemClick",
          "constraintsFile": "constraints5_0.py",
          "variables": {},
          "stringMap": {},
          "strings": {}
        },
        {
          "start": "com.vs.star21.o.onClick(Landroid/view/View;)V",
          "target": "invokevirtual \u003c Application, Lorg/apache/http/impl/client/DefaultHttpClient, execute(Lorg/apache/http/client/methods/HttpUriRequest;)Lorg/apache/http/HttpResponse; \u003e@293",
          "type": "ui",
          "activities": [
            "com.vs.star21.MainActivity"
          ],
          "listener": "com.vs.star21.o",
          "listenerMethod": "onClick",
          "uiType": "onClick",
          "constraintsFile": "constraints5_1.py",
          "variables": {
            "\u003cInput1\u003e.getId()": "IAAv0"
          },
          "stringMap": {},
          "strings": {}
        }
      ]
    },
    "6": {
      "startMethod": "com.vs.util.NetworkStateReceiver.onReceive(Landroid/content/Context;Landroid/content/Intent;)V",
      "targetMethod": "org.apache.http.impl.client.DefaultHttpClient.execute(Lorg/apache/http/client/methods/HttpUriRequest;)Lorg/apache/http/HttpResponse;",
      "eventChain": [
        {
          "start": "com.vs.star21.MainActivity.onCreate(Landroid/os/Bundle;)V",
          "target": "invokespecial \u003c Application, Landroid/content/BroadcastReceiver, \u003cinit\u003e()V \u003e@2",
          "type": "activity",
          "component": "com.vs.star21.MainActivity",
          "constraintsFile": "constraints6_0.py",
          "variables": {
            "\u003cChainedInput1\u003e": "IAAv0",
            "\u003cChainedInput1\u003e.getSerializable()": "IAAv2"
          },
          "stringMap": {},
          "strings": {}
        },
        {
          "start": "com.vs.star21.MainActivity.onCreate(Landroid/os/Bundle;)V",
          "target": "PC@3",
          "type": "activity",
          "component": "com.vs.star21.MainActivity",
          "constraintsFile": "constraints6_1.py",
          "variables": {
            "\u003cChainedInput1\u003e": "IAAv0",
            "\u003cChainedInput1\u003e.getSerializable()": "IAAv2"
          },
          "stringMap": {},
          "strings": {}
        },
        {
          "start": "com.vs.star21.MainActivity.onCreate(Landroid/os/Bundle;)V",
          "target": "PC@16",
          "type": "activity",
          "component": "com.vs.star21.MainActivity",
          "constraintsFile": "constraints6_2.py",
          "variables": {
            "\u003cChainedInput1\u003e": "IAAv13",
            "\u003cChainedInput1\u003e.getSystemService().getNetworkInfo()": "IAAv1",
            "\u003cChainedInput1\u003e.getSystemService().getNetworkInfo().getState()": "IAAv5",
            "\u003cChainedInput1\u003e.getSerializable()": "IAAv15",
            "\u003cChainedInput1\u003e.getSystemService()": "IAAv0"
          },
          "stringMap": {},
          "strings": {}
        },
        {
          "start": "com.vs.star21.MainActivity.onCreate(Landroid/os/Bundle;)V",
          "target": "PC@9",
          "type": "activity",
          "component": "com.vs.star21.MainActivity",
          "constraintsFile": "constraints6_3.py",
          "variables": {
            "\u003cChainedInput1\u003e": "IAAv13",
            "\u003cChainedInput1\u003e.getSystemService().getNetworkInfo()": "IAAv1",
            "\u003cChainedInput1\u003e.getSystemService().getNetworkInfo().getState()": "IAAv5",
            "\u003cChainedInput1\u003e.getSerializable()": "IAAv15",
            "\u003cChainedInput1\u003e.getSystemService()": "IAAv0"
          },
          "stringMap": {},
          "strings": {}
        },
        {
          "start": "com.vs.util.NetworkStateReceiver.onReceive(Landroid/content/Context;Landroid/content/Intent;)V",
          "target": "invokevirtual \u003c Application, Lorg/apache/http/impl/client/DefaultHttpClient, execute(Lorg/apache/http/client/methods/HttpUriRequest;)Lorg/apache/http/HttpResponse; \u003e@293",
          "type": "sms",
          "constraintsFile": "constraints6_4.py",
          "variables": {
            "\u003cChainedInput1\u003e.getSystemService().getNetworkInfo()": "IAAv1",
            "\u003cChainedInput1\u003e.getSystemService().getNetworkInfo().getState()": "IAAv4",
            "\u003cChainedInput1\u003e.getSystemService()": "IAAv0"
          },
          "stringMap": {},
          "strings": {}
        }
      ]
    }
  }
}