{
  "packageName": "net.xfok.info.tianliang",
  "mainActivity": "net.xfok.info.tianliang.MainActivity",
  "callPaths": {
    "0": {
      "startMethod": "net.xfok.info.tianliang.MainActivity.onResume()V",
      "targetMethod": "org.apache.http.client.HttpClient.execute(Lorg/apache/http/client/methods/HttpUriRequest;)Lorg/apache/http/HttpResponse;",
      "eventChain": [
        {
          "start": "net.xfok.info.tianliang.MainActivity.onResume()V",
          "target": "invokeinterface \u003c Application, Landroid/content/SharedPreferences$Editor, putString(Ljava/lang/String;Ljava/lang/String;)Landroid/content/SharedPreferences$Editor; \u003e@88",
          "type": "activity",
          "component": "net.xfok.info.tianliang.MainActivity",
          "constraintsFile": "constraints0_0.py",
          "variables": {},
          "stringMap": {},
          "strings": {}
        },
        {
          "start": "net.xfok.info.tianliang.MainActivity.onResume()V",
          "target": "invokeinterface \u003c Application, Landroid/content/SharedPreferences$Editor, putLong(Ljava/lang/String;J)Landroid/content/SharedPreferences$Editor; \u003e@401",
          "type": "activity",
          "component": "net.xfok.info.tianliang.MainActivity",
          "constraintsFile": "constraints0_1.py",
          "variables": {
            "SharedPreferences\u003cactivities\u003e": "IAAv6",
            "SharedPreferences\u003cstart_millis\u003e": "IAAv4"
          },
          "stringMap": {
            "7000": ""
          },
          "strings": {
            "IAAv6": ""
          }
        },
        {
          "start": "net.xfok.info.tianliang.MainActivity.onResume()V",
          "target": "PC@13",
          "type": "activity",
          "component": "net.xfok.info.tianliang.MainActivity"
        },
        {
          "start": "net.xfok.info.tianliang.MainActivity.onResume()V",
          "target": "PC@23",
          "type": "activity",
          "component": "net.xfok.info.tianliang.MainActivity",
          "constraintsFile": "constraints0_2.py",
          "variables": {
            "SharedPreferences\u003csession_id\u003e": "IAAv2",
            "SharedPreferences\u003cduration\u003e.valueOf().longValue()": "IAAv3"
          },
          "stringMap": {},
          "strings": {
            "IAAv2": ""
          }
        },
        {
          "start": "net.xfok.info.tianliang.MainActivity.onResume()V",
          "target": "invokeinterface \u003c Application, Lorg/apache/http/client/HttpClient, execute(Lorg/apache/http/client/methods/HttpUriRequest;)Lorg/apache/http/HttpResponse; \u003e@147",
          "type": "activity",
          "component": "net.xfok.info.tianliang.MainActivity",
          "constraintsFile": "constraints0_3.py",
          "variables": {
            "SharedPreferences\u003csession_id\u003e": "IAAv2",
            "SharedPreferences\u003cduration\u003e.valueOf().longValue()": "IAAv3"
          },
          "stringMap": {
            "7000": "update"
          },
          "strings": {
            "IAAv2": ""
          }
        }
      ]
    },
    "1": {
      "startMethod": "net.xfok.info.tianliang.MainActivity.onPause()V",
      "targetMethod": "org.apache.http.client.HttpClient.execute(Lorg/apache/http/client/methods/HttpUriRequest;)Lorg/apache/http/HttpResponse;",
      "eventChain": [
        {
          "start": "net.xfok.info.tianliang.MainActivity.onPause()V",
          "target": "invokeinterface \u003c Application, Lorg/apache/http/client/HttpClient, execute(Lorg/apache/http/client/methods/HttpUriRequest;)Lorg/apache/http/HttpResponse; \u003e@147",
          "type": "activity",
          "component": "net.xfok.info.tianliang.MainActivity"
        }
      ]
    },
    "2": {
      "startMethod": "net.xfok.info.tianliang.InfoReceiver.onReceive(Landroid/content/Context;Landroid/content/Intent;)V",
      "targetMethod": "java.net.URL.openConnection()Ljava/net/URLConnection;",
      "eventChain": [
        {
          "start": "net.xfok.info.tianliang.InfoReceiver.\u003cinit\u003e()V",
          "target": "PC@17",
          "type": "",
          "constraintsFile": "constraints2_0.py",
          "variables": {
            "\u003cChainedInput1\u003e.getSystemService().getActiveNetworkInfo()": "IAAv2",
            "\u003cChainedInput2\u003e.getAction()": "IAAv0",
            "\u003cChainedInput1\u003e.checkNet()": "IAAv5",
            "\u003cChainedInput1\u003e.refresh": "IAAv4",
            "\u003cChainedInput1\u003e.getSystemService().getActiveNetworkInfo().isConnected()": "IAAv3"
          },
          "stringMap": {
            "7000": "android.net.conn.CONNECTIVITY_CHANGE"
          },
          "strings": {
            "IAAv0": ""
          }
        },
        {
          "start": "net.xfok.info.tianliang.InfoReceiver.onReceive(Landroid/content/Context;Landroid/content/Intent;)V",
          "target": "invokevirtual \u003c Application, Ljava/net/URL, openConnection()Ljava/net/URLConnection; \u003e@35",
          "type": "sms",
          "constraintsFile": "constraints2_1.py",
          "variables": {
            "\u003cChainedInput1\u003e.getSystemService().getActiveNetworkInfo()": "IAAv3",
            "\u003cChainedInput2\u003e.getAction()": "IAAv0",
            "\u003cChainedInput1\u003e.checkNet()": "IAAv6",
            "\u003cChainedInput1\u003e.refresh": "IAAv5",
            "\u003cChainedInput1\u003e.getSystemService().getActiveNetworkInfo().isConnected()": "IAAv4"
          },
          "stringMap": {
            "7000": "android.net.conn.CONNECTIVITY_CHANGE"
          },
          "strings": {
            "IAAv0": ""
          }
        }
      ]
    },
    "3": {
      "startMethod": "net.xfok.info.tianliang.InfoReceiver.onReceive(Landroid/content/Context;Landroid/content/Intent;)V",
      "targetMethod": "java.lang.reflect.Method.invoke(Ljava/lang/Object;[Ljava/lang/Object;)Ljava/lang/Object;",
      "eventChain": [
        {
          "start": "net.xfok.info.tianliang.InfoReceiver.\u003cinit\u003e()V",
          "target": "PC@17",
          "type": "",
          "constraintsFile": "constraints3_0.py",
          "variables": {
            "\u003cChainedInput1\u003e.infoDao.isExist()": "IAAv6",
            "\u003cChainedInput1\u003e.getSystemService().getActiveNetworkInfo()": "IAAv2",
            "\u003cChainedInput2\u003e.getAction()": "IAAv0",
            "\u003cChainedInput1\u003e.checkNet()": "IAAv5",
            "\u003cChainedInput1\u003e.refresh": "IAAv4",
            "\u003cChainedInput1\u003e.getSystemService().getActiveNetworkInfo().isConnected()": "IAAv3"
          },
          "stringMap": {
            "7000": "android.net.conn.CONNECTIVITY_CHANGE"
          },
          "strings": {
            "IAAv0": ""
          }
        },
        {
          "start": "net.xfok.info.tianliang.InfoReceiver.onReceive(Landroid/content/Context;Landroid/content/Intent;)V",
          "target": "invokevirtual \u003c Application, Ljava/lang/reflect/Method, invoke(Ljava/lang/Object;[Ljava/lang/Object;)Ljava/lang/Object; \u003e@11",
          "type": "sms",
          "constraintsFile": "constraints3_1.py",
          "variables": {
            "\u003cChainedInput1\u003e.infoDao.isExist()": "IAAv7",
            "\u003cChainedInput1\u003e.getSystemService().getActiveNetworkInfo()": "IAAv3",
            "\u003cChainedInput2\u003e.getAction()": "IAAv0",
            "\u003cChainedInput1\u003e.checkNet()": "IAAv6",
            "\u003cChainedInput1\u003e.refresh": "IAAv5",
            "\u003cChainedInput1\u003e.getSystemService().getActiveNetworkInfo().isConnected()": "IAAv4"
          },
          "stringMap": {
            "7000": "android.net.conn.CONNECTIVITY_CHANGE"
          },
          "strings": {
            "IAAv0": ""
          }
        }
      ]
    },
    "4": {
      "startMethod": "com.mobclick.android.g.onClick(Landroid/content/DialogInterface;I)V",
      "targetMethod": "java.net.URL.openConnection()Ljava/net/URLConnection;",
      "eventChain": [
        {
          "start": "net.xfok.info.tianliang.MainActivity.onResume()V",
          "target": "invokevirtual \u003c Application, Landroid/app/AlertDialog$Builder, setPositiveButton(Ljava/lang/CharSequence;Landroid/content/DialogInterface$OnClickListener;)Landroid/app/AlertDialog$Builder; \u003e@158",
          "type": "activity",
          "component": "net.xfok.info.tianliang.MainActivity",
          "constraintsFile": "constraints4_0.py",
          "variables": {
            "SharedPreferences\u003csession_id\u003e": "IAAv2",
            "SharedPreferences\u003cduration\u003e.valueOf().longValue()": "IAAv3"
          },
          "stringMap": {
            "7000": "update"
          },
          "strings": {
            "IAAv2": "",
            "IAAv6": ""
          }
        },
        {
          "start": "com.mobclick.android.g.onClick(Landroid/content/DialogInterface;I)V",
          "target": "invokevirtual \u003c Application, Ljava/net/URL, openConnection()Ljava/net/URLConnection; \u003e@22",
          "type": "ui",
          "activities": [
            "net.xfok.info.tianliang.MainActivity"
          ],
          "listener": "com.mobclick.android.g",
          "listenerMethod": "onClick",
          "uiType": "onClick",
          "inDialog": "true"
        }
      ]
    }
  }
}