{
  "packageName": "com.wax.jcgj",
  "mainActivity": "com.wax.jcgj.MainActivity",
  "callPaths": {
    "0": {
      "startMethod": "com.wax.jcgj.WifiDetailActivity.onCreate(Landroid/os/Bundle;)V",
      "targetMethod": "org.apache.http.impl.client.DefaultHttpClient.execute(Lorg/apache/http/client/methods/HttpUriRequest;)Lorg/apache/http/HttpResponse;",
      "eventChain": [
        {
          "start": "com.wax.jcgj.WifiDetailActivity.onCreate(Landroid/os/Bundle;)V",
          "target": "invokevirtual \u003c Application, Lorg/apache/http/impl/client/DefaultHttpClient, execute(Lorg/apache/http/client/methods/HttpUriRequest;)Lorg/apache/http/HttpResponse; \u003e@244",
          "type": "activity",
          "component": "com.wax.jcgj.WifiDetailActivity"
        }
      ]
    },
    "1": {
      "startMethod": "com.wax.jcgj.WifiDetailActivity.onResume()V",
      "targetMethod": "org.apache.http.impl.client.DefaultHttpClient.execute(Lorg/apache/http/client/methods/HttpUriRequest;)Lorg/apache/http/HttpResponse;",
      "eventChain": [
        {
          "start": "com.wax.jcgj.WifiDetailActivity.onResume()V",
          "target": "invokeinterface \u003c Application, Landroid/content/SharedPreferences$Editor, putLong(Ljava/lang/String;J)Landroid/content/SharedPreferences$Editor; \u003e@239",
          "type": "activity",
          "component": "com.wax.jcgj.WifiDetailActivity",
          "constraintsFile": "constraints1_0.py",
          "variables": {
            "SharedPreferences\u003cGetPointsTime\u003e": "IAAv4",
            "SharedPreferences\u003cUpdatePoints\u003e": "IAAv6",
            "System.currentTimeMillis()": "IAAv5"
          },
          "stringMap": {
            "7000": "true"
          },
          "strings": {
            "IAAv3": "",
            "IAAv8": ""
          }
        },
        {
          "start": "com.wax.jcgj.WifiDetailActivity.onResume()V",
          "target": "invokeinterface \u003c Application, Landroid/content/SharedPreferences$Editor, putInt(Ljava/lang/String;I)Landroid/content/SharedPreferences$Editor; \u003e@150",
          "type": "activity",
          "component": "com.wax.jcgj.WifiDetailActivity",
          "constraintsFile": "constraints1_1.py",
          "variables": {
            "SharedPreferences\u003cGetPointsTime\u003e": "IAAv4",
            "SharedPreferences\u003cUpdatePoints\u003e": "IAAv6",
            "System.currentTimeMillis()": "IAAv5"
          },
          "stringMap": {},
          "strings": {
            "IAAv3": ""
          }
        },
        {
          "start": "cn.waps.ai.onReceive(Landroid/content/Context;Landroid/content/Intent;)V",
          "target": "",
          "type": "sms",
          "constraintsFile": "constraints1_2.py",
          "variables": {
            "\u003cChainedInput2\u003e.getAction()": "IAAv0"
          },
          "stringMap": {
            "7000": "android.net.conn.CONNECTIVITY_CHANGE",
            "7001": ""
          },
          "strings": {
            "IAAv0": "",
            "IAAv7": ""
          }
        },
        {
          "start": "com.wax.jcgj.WifiDetailActivity.onResume()V",
          "target": "invokevirtual \u003c Application, Lorg/apache/http/impl/client/DefaultHttpClient, execute(Lorg/apache/http/client/methods/HttpUriRequest;)Lorg/apache/http/HttpResponse; \u003e@244",
          "type": "activity",
          "component": "com.wax.jcgj.WifiDetailActivity",
          "constraintsFile": "constraints1_3.py",
          "variables": {
            "SharedPreferences\u003cGetPointsTime\u003e": "IAAv4",
            "SharedPreferences\u003cUpdatePoints\u003e": "IAAv6",
            "System.currentTimeMillis()": "IAAv5"
          },
          "stringMap": {},
          "strings": {
            "IAAv3": ""
          }
        }
      ]
    },
    "2": {
      "startMethod": "cn.waps.g.onClick(Landroid/content/DialogInterface;I)V",
      "targetMethod": "org.apache.http.impl.client.DefaultHttpClient.execute(Lorg/apache/http/client/methods/HttpUriRequest;)Lorg/apache/http/HttpResponse;",
      "eventChain": [
        {
          "start": "com.wax.jcgj.WifiDetailActivity.onCreate(Landroid/os/Bundle;)V",
          "target": "invokevirtual \u003c Application, Landroid/app/AlertDialog$Builder, setPositiveButton(Ljava/lang/CharSequence;Landroid/content/DialogInterface$OnClickListener;)Landroid/app/AlertDialog$Builder; \u003e@216",
          "type": "activity",
          "component": "com.wax.jcgj.WifiDetailActivity"
        },
        {
          "start": "cn.waps.g.onClick(Landroid/content/DialogInterface;I)V",
          "target": "PC@36",
          "type": "ui",
          "activities": [
            "com.wax.jcgj.MainActivity"
          ],
          "listener": "cn.waps.g",
          "listenerMethod": "onClick",
          "uiType": "onClick",
          "inDialog": "true",
          "constraintsFile": "constraints2_0.py",
          "variables": {},
          "stringMap": {
            "7000": "pkg\u003d",
            "7001": "\u0026"
          },
          "strings": {}
        },
        {
          "start": "cn.waps.g.onClick(Landroid/content/DialogInterface;I)V",
          "target": "",
          "type": "ui",
          "activities": [
            "com.wax.jcgj.MainActivity"
          ],
          "listener": "cn.waps.g",
          "listenerMethod": "onClick",
          "uiType": "onClick",
          "inDialog": "true",
          "constraintsFile": "constraints2_1.py",
          "variables": {},
          "stringMap": {
            "7000": "pkg\u003d",
            "7001": "\u0026"
          },
          "strings": {}
        },
        {
          "start": "cn.waps.g.onClick(Landroid/content/DialogInterface;I)V",
          "target": "invokevirtual \u003c Application, Lorg/apache/http/impl/client/DefaultHttpClient, execute(Lorg/apache/http/client/methods/HttpUriRequest;)Lorg/apache/http/HttpResponse; \u003e@244",
          "type": "ui",
          "activities": [
            "com.wax.jcgj.MainActivity"
          ],
          "listener": "cn.waps.g",
          "listenerMethod": "onClick",
          "uiType": "onClick",
          "inDialog": "true",
          "constraintsFile": "constraints2_2.py",
          "variables": {},
          "stringMap": {
            "7000": "pkg\u003d",
            "7001": "\u0026"
          },
          "strings": {}
        }
      ]
    },
    "3": {
      "startMethod": "cn.waps.ba.onClick(Landroid/view/View;)V",
      "targetMethod": "org.apache.http.impl.client.DefaultHttpClient.execute(Lorg/apache/http/client/methods/HttpUriRequest;)Lorg/apache/http/HttpResponse;",
      "eventChain": [
        {
          "start": "cn.waps.ba.onClick(Landroid/view/View;)V",
          "target": "invokevirtual \u003c Application, Lorg/apache/http/impl/client/DefaultHttpClient, execute(Lorg/apache/http/client/methods/HttpUriRequest;)Lorg/apache/http/HttpResponse; \u003e@244",
          "type": "ui",
          "activities": [
            "com.wax.jcgj.MainActivity"
          ],
          "listener": "cn.waps.ba",
          "listenerMethod": "onClick",
          "uiType": "onClick",
          "constraintsFile": "constraints3_0.py",
          "variables": {},
          "stringMap": {
            "7000": ""
          },
          "strings": {
            "IAAv3": "",
            "IAAv6": ""
          }
        }
      ]
    },
    "4": {
      "startMethod": "cn.waps.ai.onReceive(Landroid/content/Context;Landroid/content/Intent;)V",
      "targetMethod": "org.apache.http.impl.client.DefaultHttpClient.execute(Lorg/apache/http/client/methods/HttpUriRequest;)Lorg/apache/http/HttpResponse;",
      "eventChain": [
        {
          "start": "com.wax.jcgj.WifiDetailActivity.onCreate(Landroid/os/Bundle;)V",
          "target": "invokespecial \u003c Application, Landroid/content/BroadcastReceiver, \u003cinit\u003e()V \u003e@2",
          "type": "activity",
          "component": "com.wax.jcgj.WifiDetailActivity"
        },
        {
          "start": "cn.waps.ai.onReceive(Landroid/content/Context;Landroid/content/Intent;)V",
          "target": "",
          "type": "sms",
          "constraintsFile": "constraints4_0.py",
          "variables": {
            "\u003cChainedInput2\u003e.getAction()": "IAAv0"
          },
          "stringMap": {
            "7000": "android.net.conn.CONNECTIVITY_CHANGE"
          },
          "strings": {
            "IAAv0": ""
          }
        },
        {
          "start": "cn.waps.ai.onReceive(Landroid/content/Context;Landroid/content/Intent;)V",
          "target": "PC@48",
          "type": "sms",
          "constraintsFile": "constraints4_1.py",
          "variables": {
            "\u003cChainedInput2\u003e.getAction()": "IAAv0"
          },
          "stringMap": {
            "7000": "android.net.conn.CONNECTIVITY_CHANGE",
            "7001": ""
          },
          "strings": {
            "IAAv0": "",
            "IAAv10": "",
            "IAAv7": ""
          }
        },
        {
          "start": "cn.waps.ai.onReceive(Landroid/content/Context;Landroid/content/Intent;)V",
          "target": "",
          "type": "sms",
          "constraintsFile": "constraints4_2.py",
          "variables": {
            "\u003cChainedInput2\u003e.getAction()": "IAAv0",
            "SharedPreferences\u003cdownload_filename\u003e": "IAAv15"
          },
          "stringMap": {
            "7000": "android.net.conn.CONNECTIVITY_CHANGE",
            "7001": "",
            "7002": ".apk"
          },
          "strings": {
            "IAAv0": "",
            "IAAv10": "",
            "IAAv15": "",
            "IAAv7": ""
          }
        },
        {
          "start": "cn.waps.ai.onReceive(Landroid/content/Context;Landroid/content/Intent;)V",
          "target": "invokevirtual \u003c Application, Lorg/apache/http/impl/client/DefaultHttpClient, execute(Lorg/apache/http/client/methods/HttpUriRequest;)Lorg/apache/http/HttpResponse; \u003e@244",
          "type": "sms",
          "constraintsFile": "constraints4_3.py",
          "variables": {
            "\u003cChainedInput2\u003e.getAction()": "IAAv0"
          },
          "stringMap": {
            "7000": "android.net.conn.CONNECTIVITY_CHANGE",
            "7001": ""
          },
          "strings": {
            "IAAv0": "",
            "IAAv10": "",
            "IAAv7": ""
          }
        }
      ]
    },
    "5": {
      "startMethod": "cn.waps.al.onReceive(Landroid/content/Context;Landroid/content/Intent;)V",
      "targetMethod": "org.apache.http.impl.client.DefaultHttpClient.execute(Lorg/apache/http/client/methods/HttpUriRequest;)Lorg/apache/http/HttpResponse;",
      "eventChain": [
        {
          "start": "cn.waps.bd.onClick(Landroid/content/DialogInterface;I)V",
          "target": "invokespecial \u003c Application, Landroid/content/BroadcastReceiver, \u003cinit\u003e()V \u003e@2",
          "type": "ui",
          "activities": [
            "com.wax.jcgj.MainActivity"
          ],
          "listener": "cn.waps.bd",
          "listenerMethod": "onClick",
          "uiType": "onClick",
          "inDialog": "true"
        },
        {
          "start": "cn.waps.ai.onReceive(Landroid/content/Context;Landroid/content/Intent;)V",
          "target": "",
          "type": "sms",
          "constraintsFile": "constraints5_0.py",
          "variables": {
            "\u003cChainedInput2\u003e.getAction()": "IAAv0"
          },
          "stringMap": {
            "7000": "android.net.conn.CONNECTIVITY_CHANGE"
          },
          "strings": {
            "IAAv0": ""
          }
        },
        {
          "start": "cn.waps.al.onReceive(Landroid/content/Context;Landroid/content/Intent;)V",
          "target": "invokevirtual \u003c Application, Lorg/apache/http/impl/client/DefaultHttpClient, execute(Lorg/apache/http/client/methods/HttpUriRequest;)Lorg/apache/http/HttpResponse; \u003e@244",
          "type": "sms",
          "constraintsFile": "constraints5_1.py",
          "variables": {
            "\u003cChainedInput2\u003e.getDataString()": "IAAv2",
            "\u003cChainedInput2\u003e.getAction()": "IAAv0",
            "\u003cChainedInput1\u003e.d().a()": "IAAv8"
          },
          "stringMap": {
            "7000": "android.intent.action.PACKAGE_ADDED",
            "7001": ""
          },
          "strings": {
            "IAAv2": "",
            "IAAv0": "",
            "IAAv9": "",
            "IAAv6": ""
          }
        }
      ]
    },
    "6": {
      "startMethod": "cn.waps.bb.onDownloadStart(Ljava/lang/String;Ljava/lang/String;Ljava/lang/String;Ljava/lang/String;J)V",
      "targetMethod": "org.apache.http.impl.client.DefaultHttpClient.execute(Lorg/apache/http/client/methods/HttpUriRequest;)Lorg/apache/http/HttpResponse;",
      "eventChain": [
        {
          "start": "cn.waps.OffersWebView.onCreate(Landroid/os/Bundle;)V",
          "target": "invokevirtual \u003c Application, Landroid/webkit/WebView, setDownloadListener(Landroid/webkit/DownloadListener;)V \u003e@1033",
          "type": "activity",
          "component": "cn.waps.OffersWebView",
          "constraintsFile": "constraints6_0.py",
          "variables": {
            "SharedPreferences\u003cpackageName\u003e": "IAAv4",
            "SharedPreferences\u003cclassName\u003e": "IAAv6"
          },
          "stringMap": {
            "7000": "",
            "7001": "OffersWebView",
            "7002": "feedback",
            "7003": "down_type",
            "7004": "true",
            "7005": "false",
            "7006": "notify"
          },
          "strings": {
            "IAAv4": "",
            "IAAv6": ""
          }
        },
        {
          "start": "cn.waps.ai.onReceive(Landroid/content/Context;Landroid/content/Intent;)V",
          "target": "",
          "type": "sms",
          "constraintsFile": "constraints6_1.py",
          "variables": {
            "\u003cChainedInput2\u003e.getAction()": "IAAv0",
            "SharedPreferences\u003cdownload_filename\u003e": "IAAv12"
          },
          "stringMap": {
            "7000": "android.net.conn.CONNECTIVITY_CHANGE",
            "7001": ""
          },
          "strings": {
            "IAAv0": "",
            "IAAv12": "",
            "IAAv7": ""
          }
        },
        {
          "start": "cn.waps.ai.onReceive(Landroid/content/Context;Landroid/content/Intent;)V",
          "target": "",
          "type": "sms",
          "constraintsFile": "constraints6_2.py",
          "variables": {
            "\u003cChainedInput2\u003e.getAction()": "IAAv0"
          },
          "stringMap": {
            "7000": "android.net.conn.CONNECTIVITY_CHANGE"
          },
          "strings": {
            "IAAv0": ""
          }
        },
        {
          "start": "cn.waps.bb.onDownloadStart(Ljava/lang/String;Ljava/lang/String;Ljava/lang/String;Ljava/lang/String;J)V",
          "target": "",
          "type": "",
          "constraintsFile": "constraints6_3.py",
          "variables": {},
          "stringMap": {
            "7000": ""
          },
          "strings": {
            "IAAv14": "",
            "IAAv17": "",
            "IAAv7": ""
          }
        },
        {
          "start": "cn.waps.ai.onReceive(Landroid/content/Context;Landroid/content/Intent;)V",
          "target": "",
          "type": "sms",
          "constraintsFile": "constraints6_4.py",
          "variables": {
            "\u003cChainedInput2\u003e.getAction()": "IAAv19",
            "SharedPreferences\u003cdownload_filename\u003e": "IAAv28"
          },
          "stringMap": {
            "7000": "",
            "7001": "android.net.conn.CONNECTIVITY_CHANGE"
          },
          "strings": {
            "IAAv24": "",
            "IAAv13": "",
            "IAAv28": "",
            "IAAv16": "",
            "IAAv19": "",
            "IAAv7": ""
          }
        },
        {
          "start": "cn.waps.ai.onReceive(Landroid/content/Context;Landroid/content/Intent;)V",
          "target": "",
          "type": "sms",
          "constraintsFile": "constraints6_5.py",
          "variables": {
            "SharedPreferences\u003cdownload_filename\u003e": "IAAv29",
            "\u003cChainedInput2\u003e.getAction()": "IAAv20"
          },
          "stringMap": {
            "7000": "",
            "7001": "android.net.conn.CONNECTIVITY_CHANGE",
            "7002": ".apk"
          },
          "strings": {
            "IAAv20": "",
            "IAAv14": "",
            "IAAv25": "",
            "IAAv17": "",
            "IAAv7": "",
            "IAAv29": ""
          }
        },
        {
          "start": "cn.waps.bb.onDownloadStart(Ljava/lang/String;Ljava/lang/String;Ljava/lang/String;Ljava/lang/String;J)V",
          "target": "invokevirtual \u003c Application, Lorg/apache/http/impl/client/DefaultHttpClient, execute(Lorg/apache/http/client/methods/HttpUriRequest;)Lorg/apache/http/HttpResponse; \u003e@244",
          "type": "",
          "constraintsFile": "constraints6_6.py",
          "variables": {},
          "stringMap": {
            "7000": ""
          },
          "strings": {
            "IAAv14": "",
            "IAAv17": "",
            "IAAv7": ""
          }
        }
      ]
    },
    "7": {
      "startMethod": "cn.waps.bb.onDownloadStart(Ljava/lang/String;Ljava/lang/String;Ljava/lang/String;Ljava/lang/String;J)V",
      "targetMethod": "java.net.URL.openConnection()Ljava/net/URLConnection;",
      "eventChain": [
        {
          "start": "cn.waps.OffersWebView.onCreate(Landroid/os/Bundle;)V",
          "target": "invokevirtual \u003c Application, Landroid/webkit/WebView, setDownloadListener(Landroid/webkit/DownloadListener;)V \u003e@1033",
          "type": "activity",
          "component": "cn.waps.OffersWebView",
          "constraintsFile": "constraints7_0.py",
          "variables": {
            "SharedPreferences\u003cpackageName\u003e": "IAAv4",
            "SharedPreferences\u003cclassName\u003e": "IAAv6"
          },
          "stringMap": {
            "7000": "",
            "7001": "OffersWebView",
            "7002": "feedback",
            "7003": "down_type",
            "7004": "true",
            "7005": "false",
            "7006": "notify"
          },
          "strings": {
            "IAAv4": "",
            "IAAv6": ""
          }
        },
        {
          "start": "cn.waps.bb.onDownloadStart(Ljava/lang/String;Ljava/lang/String;Ljava/lang/String;Ljava/lang/String;J)V",
          "target": "",
          "type": "",
          "constraintsFile": "constraints7_1.py",
          "variables": {},
          "stringMap": {},
          "strings": {}
        },
        {
          "start": "cn.waps.bb.onDownloadStart(Ljava/lang/String;Ljava/lang/String;Ljava/lang/String;Ljava/lang/String;J)V",
          "target": "invokevirtual \u003c Application, Ljava/net/URL, openConnection()Ljava/net/URLConnection; \u003e@25",
          "type": "",
          "constraintsFile": "constraints7_2.py",
          "variables": {},
          "stringMap": {},
          "strings": {}
        }
      ]
    },
    "8": {
      "startMethod": "cn.waps.bc.onClick(Landroid/content/DialogInterface;I)V",
      "targetMethod": "org.apache.http.impl.client.DefaultHttpClient.execute(Lorg/apache/http/client/methods/HttpUriRequest;)Lorg/apache/http/HttpResponse;",
      "eventChain": [
        {
          "start": "cn.waps.bb.onDownloadStart(Ljava/lang/String;Ljava/lang/String;Ljava/lang/String;Ljava/lang/String;J)V",
          "target": "invokevirtual \u003c Application, Landroid/app/AlertDialog$Builder, setNeutralButton(Ljava/lang/CharSequence;Landroid/content/DialogInterface$OnClickListener;)Landroid/app/AlertDialog$Builder; \u003e@394",
          "type": "",
          "constraintsFile": "constraints8_0.py",
          "variables": {},
          "stringMap": {},
          "strings": {}
        },
        {
          "start": "cn.waps.ai.onReceive(Landroid/content/Context;Landroid/content/Intent;)V",
          "target": "",
          "type": "sms",
          "constraintsFile": "constraints8_1.py",
          "variables": {
            "\u003cChainedInput2\u003e.getAction()": "IAAv0",
            "SharedPreferences\u003cdownload_filename\u003e": "IAAv12"
          },
          "stringMap": {
            "7000": "android.net.conn.CONNECTIVITY_CHANGE",
            "7001": ""
          },
          "strings": {
            "IAAv0": "",
            "IAAv12": "",
            "IAAv7": ""
          }
        },
        {
          "start": "cn.waps.ai.onReceive(Landroid/content/Context;Landroid/content/Intent;)V",
          "target": "",
          "type": "sms",
          "constraintsFile": "constraints8_2.py",
          "variables": {
            "\u003cChainedInput2\u003e.getAction()": "IAAv0"
          },
          "stringMap": {
            "7000": "android.net.conn.CONNECTIVITY_CHANGE"
          },
          "strings": {
            "IAAv0": ""
          }
        },
        {
          "start": "cn.waps.ai.onReceive(Landroid/content/Context;Landroid/content/Intent;)V",
          "target": "",
          "type": "sms",
          "constraintsFile": "constraints8_3.py",
          "variables": {
            "\u003cChainedInput2\u003e.getAction()": "IAAv10",
            "SharedPreferences\u003cdownload_filename\u003e": "IAAv20"
          },
          "stringMap": {
            "7000": "",
            "7001": "android.net.conn.CONNECTIVITY_CHANGE"
          },
          "strings": {
            "IAAv20": "",
            "IAAv4": "",
            "IAAv10": "",
            "IAAv16": "",
            "IAAv7": ""
          }
        },
        {
          "start": "cn.waps.bc.onClick(Landroid/content/DialogInterface;I)V",
          "target": "invokevirtual \u003c Application, Lorg/apache/http/impl/client/DefaultHttpClient, execute(Lorg/apache/http/client/methods/HttpUriRequest;)Lorg/apache/http/HttpResponse; \u003e@244",
          "type": "ui",
          "activities": [
            "com.wax.jcgj.MainActivity"
          ],
          "listener": "cn.waps.bc",
          "listenerMethod": "onClick",
          "uiType": "onClick",
          "inDialog": "true",
          "constraintsFile": "constraints8_4.py",
          "variables": {},
          "stringMap": {
            "7000": ""
          },
          "strings": {
            "IAAv8": "",
            "IAAv5": ""
          }
        }
      ]
    },
    "9": {
      "startMethod": "cn.waps.bk.onClick(Landroid/content/DialogInterface;I)V",
      "targetMethod": "org.apache.http.impl.client.DefaultHttpClient.execute(Lorg/apache/http/client/methods/HttpUriRequest;)Lorg/apache/http/HttpResponse;",
      "eventChain": [
        {
          "start": "cn.waps.g.onClick(Landroid/content/DialogInterface;I)V",
          "target": "invokevirtual \u003c Application, Landroid/app/AlertDialog$Builder, setNeutralButton(Ljava/lang/CharSequence;Landroid/content/DialogInterface$OnClickListener;)Landroid/app/AlertDialog$Builder; \u003e@663",
          "type": "ui",
          "activities": [
            "com.wax.jcgj.MainActivity"
          ],
          "listener": "cn.waps.g",
          "listenerMethod": "onClick",
          "uiType": "onClick",
          "inDialog": "true",
          "constraintsFile": "constraints9_0.py",
          "variables": {},
          "stringMap": {},
          "strings": {}
        },
        {
          "start": "cn.waps.ai.onReceive(Landroid/content/Context;Landroid/content/Intent;)V",
          "target": "",
          "type": "sms",
          "constraintsFile": "constraints9_1.py",
          "variables": {
            "\u003cChainedInput2\u003e.getAction()": "IAAv0",
            "SharedPreferences\u003cdownload_filename\u003e": "IAAv12"
          },
          "stringMap": {
            "7000": "android.net.conn.CONNECTIVITY_CHANGE",
            "7001": ""
          },
          "strings": {
            "IAAv0": "",
            "IAAv12": "",
            "IAAv7": ""
          }
        },
        {
          "start": "cn.waps.ai.onReceive(Landroid/content/Context;Landroid/content/Intent;)V",
          "target": "",
          "type": "sms",
          "constraintsFile": "constraints9_2.py",
          "variables": {
            "\u003cChainedInput2\u003e.getAction()": "IAAv0"
          },
          "stringMap": {
            "7000": "android.net.conn.CONNECTIVITY_CHANGE"
          },
          "strings": {
            "IAAv0": ""
          }
        },
        {
          "start": "cn.waps.ai.onReceive(Landroid/content/Context;Landroid/content/Intent;)V",
          "target": "",
          "type": "sms",
          "constraintsFile": "constraints9_3.py",
          "variables": {
            "\u003cChainedInput2\u003e.getAction()": "IAAv10",
            "SharedPreferences\u003cdownload_filename\u003e": "IAAv20"
          },
          "stringMap": {
            "7000": "",
            "7001": "android.net.conn.CONNECTIVITY_CHANGE"
          },
          "strings": {
            "IAAv20": "",
            "IAAv4": "",
            "IAAv10": "",
            "IAAv16": "",
            "IAAv7": ""
          }
        },
        {
          "start": "cn.waps.bk.onClick(Landroid/content/DialogInterface;I)V",
          "target": "invokevirtual \u003c Application, Lorg/apache/http/impl/client/DefaultHttpClient, execute(Lorg/apache/http/client/methods/HttpUriRequest;)Lorg/apache/http/HttpResponse; \u003e@244",
          "type": "ui",
          "activities": [
            "com.wax.jcgj.MainActivity"
          ],
          "listener": "cn.waps.bk",
          "listenerMethod": "onClick",
          "uiType": "onClick",
          "inDialog": "true",
          "constraintsFile": "constraints9_4.py",
          "variables": {},
          "stringMap": {
            "7000": ""
          },
          "strings": {
            "IAAv8": "",
            "IAAv5": ""
          }
        }
      ]
    }
  }
}