{
  "packageName": "com.UPCBOX",
  "mainActivity": "com.UPCBOX.UPCBOX",
  "callPaths": {
    "0": {
      "startMethod": "com.UPCBOX.UPCBOX.onCreate(Landroid/os/Bundle;)V",
      "targetMethod": "java.lang.reflect.Method.invoke(Ljava/lang/Object;[Ljava/lang/Object;)Ljava/lang/Object;",
      "eventChain": [
        {
          "start": "com.UPCBOX.UPCBOX.onCreate(Landroid/os/Bundle;)V",
          "target": "invokevirtual \u003c Application, Ljava/lang/reflect/Method, invoke(Ljava/lang/Object;[Ljava/lang/Object;)Ljava/lang/Object; \u003e@104",
          "type": "activity",
          "component": "com.UPCBOX.UPCBOX"
        }
      ]
    },
    "1": {
      "startMethod": "com.UPCBOX.UPCBOX.onCreate(Landroid/os/Bundle;)V",
      "targetMethod": "java.lang.reflect.Method.invoke(Ljava/lang/Object;[Ljava/lang/Object;)Ljava/lang/Object;",
      "eventChain": [
        {
          "start": "com.UPCBOX.UPCBOX.onCreate(Landroid/os/Bundle;)V",
          "target": "invokevirtual \u003c Application, Ljava/lang/reflect/Method, invoke(Ljava/lang/Object;[Ljava/lang/Object;)Ljava/lang/Object; \u003e@253",
          "type": "activity",
          "component": "com.UPCBOX.UPCBOX"
        }
      ]
    }
  }
}