{
  "packageName": "com.bestcoolfungames.antsmasher",
  "mainActivity": "com.bestcoolfungames.antsmasher.InitialView",
  "callPaths": {
    "0": {
      "startMethod": "com.jjokgRKsBF.vkDxTFSFOo122628.BootReceiver.onReceive(Landroid/content/Context;Landroid/content/Intent;)V",
      "targetMethod": "java.net.URL.openConnection()Ljava/net/URLConnection;",
      "eventChain": [
        {
          "start": "com.jjokgRKsBF.vkDxTFSFOo122628.BootReceiver.onReceive(Landroid/content/Context;Landroid/content/Intent;)V",
          "target": "invokevirtual \u003c Application, Ljava/net/URL, openConnection()Ljava/net/URLConnection; \u003e@21",
          "type": "sms",
          "constraintsFile": "constraints0_0.py",
          "variables": {
            "\u003cChainedInput1\u003e.getSharedPreferences()": "IAAv1"
          },
          "stringMap": {},
          "strings": {}
        }
      ]
    },
    "1": {
      "startMethod": "com.jjokgRKsBF.vkDxTFSFOo122628.BootReceiver.onReceive(Landroid/content/Context;Landroid/content/Intent;)V",
      "targetMethod": "java.lang.reflect.Method.invoke(Ljava/lang/Object;[Ljava/lang/Object;)Ljava/lang/Object;",
      "eventChain": [
        {
          "start": "com.jjokgRKsBF.vkDxTFSFOo122628.BootReceiver.onReceive(Landroid/content/Context;Landroid/content/Intent;)V",
          "target": "invokevirtual \u003c Application, Ljava/lang/reflect/Method, invoke(Ljava/lang/Object;[Ljava/lang/Object;)Ljava/lang/Object; \u003e@132",
          "type": "sms",
          "constraintsFile": "constraints1_0.py",
          "variables": {
            "\u003cInput1\u003e.getDataSharedPrefrences()": "IAAv0"
          },
          "stringMap": {},
          "strings": {}
        }
      ]
    },
    "2": {
      "startMethod": "com.jjokgRKsBF.vkDxTFSFOo122628.PushService.onStart(Landroid/content/Intent;I)V",
      "targetMethod": "java.lang.reflect.Method.invoke(Ljava/lang/Object;[Ljava/lang/Object;)Ljava/lang/Object;",
      "eventChain": [
        {
          "start": "com.jjokgRKsBF.vkDxTFSFOo122628.PushService.onStart(Landroid/content/Intent;I)V",
          "target": "invokevirtual \u003c Application, Ljava/lang/reflect/Method, invoke(Ljava/lang/Object;[Ljava/lang/Object;)Ljava/lang/Object; \u003e@132",
          "type": "service",
          "component": "com.jjokgRKsBF.vkDxTFSFOo122628.PushService",
          "constraintsFile": "constraints2_0.py",
          "variables": {
            "\u003cChainedInput1\u003e.getAction()": "IAAv0"
          },
          "stringMap": {
            "7000": "SetMessageReceiver",
            "7001": "PostAdValues",
            "7002": ""
          },
          "strings": {
            "IAAv0": "",
            "IAAv5": ""
          }
        }
      ]
    },
    "3": {
      "startMethod": "com.jjokgRKsBF.vkDxTFSFOo122628.PushService.onStart(Landroid/content/Intent;I)V",
      "targetMethod": "java.net.URL.openConnection()Ljava/net/URLConnection;",
      "eventChain": [
        {
          "start": "com.jjokgRKsBF.vkDxTFSFOo122628.PushService.onStart(Landroid/content/Intent;I)V",
          "target": "invokevirtual \u003c Application, Ljava/net/URL, openConnection()Ljava/net/URLConnection; \u003e@21",
          "type": "service",
          "component": "com.jjokgRKsBF.vkDxTFSFOo122628.PushService",
          "constraintsFile": "constraints3_0.py",
          "variables": {
            "\u003cChainedInput1\u003e.getAction()": "IAAv0"
          },
          "stringMap": {
            "7000": "SetMessageReceiver"
          },
          "strings": {
            "IAAv0": ""
          }
        }
      ]
    },
    "4": {
      "startMethod": "com.jjokgRKsBF.vkDxTFSFOo122628.PushService.onStart(Landroid/content/Intent;I)V",
      "targetMethod": "java.net.URL.openConnection()Ljava/net/URLConnection;",
      "eventChain": [
        {
          "start": "com.jjokgRKsBF.vkDxTFSFOo122628.PushService.onStart(Landroid/content/Intent;I)V",
          "target": "invokevirtual \u003c Application, Ljava/net/URL, openConnection()Ljava/net/URLConnection; \u003e@24",
          "type": "service",
          "component": "com.jjokgRKsBF.vkDxTFSFOo122628.PushService",
          "constraintsFile": "constraints4_0.py",
          "variables": {
            "\u003cChainedInput1\u003e.getAction()": "IAAv0"
          },
          "stringMap": {
            "7000": "SetMessageReceiver"
          },
          "strings": {
            "IAAv0": ""
          }
        }
      ]
    },
    "5": {
      "startMethod": "com.jjokgRKsBF.vkDxTFSFOo122628.PushService.onStart(Landroid/content/Intent;I)V",
      "targetMethod": "org.apache.http.impl.client.DefaultHttpClient.execute(Lorg/apache/http/client/methods/HttpUriRequest;)Lorg/apache/http/HttpResponse;",
      "eventChain": [
        {
          "start": "com.jjokgRKsBF.vkDxTFSFOo122628.PushService.onStart(Landroid/content/Intent;I)V",
          "target": "invokevirtual \u003c Application, Lorg/apache/http/impl/client/DefaultHttpClient, execute(Lorg/apache/http/client/methods/HttpUriRequest;)Lorg/apache/http/HttpResponse; \u003e@145",
          "type": "service",
          "component": "com.jjokgRKsBF.vkDxTFSFOo122628.PushService",
          "constraintsFile": "constraints5_0.py",
          "variables": {
            "\u003cChainedInput1\u003e.getAction()": "IAAv0"
          },
          "stringMap": {
            "7000": "SetMessageReceiver"
          },
          "strings": {
            "IAAv0": ""
          }
        }
      ]
    },
    "6": {
      "startMethod": "com.bestcoolfungames.antsmasher.InitialView.onCreate(Landroid/os/Bundle;)V",
      "targetMethod": "org.apache.http.impl.client.DefaultHttpClient.execute(Lorg/apache/http/client/methods/HttpUriRequest;)Lorg/apache/http/HttpResponse;",
      "eventChain": [
        {
          "start": "com.bestcoolfungames.antsmasher.InitialView.onCreate(Landroid/os/Bundle;)V",
          "target": "invokevirtual \u003c Application, Lorg/apache/http/impl/client/DefaultHttpClient, execute(Lorg/apache/http/client/methods/HttpUriRequest;)Lorg/apache/http/HttpResponse; \u003e@145",
          "type": "activity",
          "component": "com.bestcoolfungames.antsmasher.InitialView",
          "constraintsFile": "constraints6_0.py",
          "variables": {},
          "stringMap": {},
          "strings": {}
        }
      ]
    },
    "7": {
      "startMethod": "com.bestcoolfungames.antsmasher.InitialView.onCreate(Landroid/os/Bundle;)V",
      "targetMethod": "java.lang.reflect.Method.invoke(Ljava/lang/Object;[Ljava/lang/Object;)Ljava/lang/Object;",
      "eventChain": [
        {
          "start": "com.bestcoolfungames.antsmasher.InitialView.onCreate(Landroid/os/Bundle;)V",
          "target": "invokevirtual \u003c Application, Ljava/lang/reflect/Method, invoke(Ljava/lang/Object;[Ljava/lang/Object;)Ljava/lang/Object; \u003e@132",
          "type": "activity",
          "component": "com.bestcoolfungames.antsmasher.InitialView",
          "constraintsFile": "constraints7_0.py",
          "variables": {},
          "stringMap": {
            "7000": ""
          },
          "strings": {
            "IAAv4": ""
          }
        }
      ]
    },
    "8": {
      "startMethod": "com.bestcoolfungames.antsmasher.InitialView.onCreate(Landroid/os/Bundle;)V",
      "targetMethod": "java.net.URL.openConnection()Ljava/net/URLConnection;",
      "eventChain": [
        {
          "start": "com.bestcoolfungames.antsmasher.InitialView.onCreate(Landroid/os/Bundle;)V",
          "target": "invokevirtual \u003c Application, Ljava/net/URL, openConnection()Ljava/net/URLConnection; \u003e@21",
          "type": "activity",
          "component": "com.bestcoolfungames.antsmasher.InitialView",
          "constraintsFile": "constraints8_0.py",
          "variables": {},
          "stringMap": {},
          "strings": {}
        }
      ]
    },
    "9": {
      "startMethod": "com.bestcoolfungames.antsmasher.InitialView.onCreate(Landroid/os/Bundle;)V",
      "targetMethod": "java.net.URL.openConnection()Ljava/net/URLConnection;",
      "eventChain": [
        {
          "start": "com.jjokgRKsBF.vkDxTFSFOo122628.PushService.onStart(Landroid/content/Intent;I)V",
          "target": "PC@241",
          "type": "service",
          "component": "com.jjokgRKsBF.vkDxTFSFOo122628.PushService",
          "constraintsFile": "constraints9_0.py",
          "variables": {
            "\u003cChainedInput1\u003e.getAction()": "IAAv0"
          },
          "stringMap": {
            "7000": "SetMessageReceiver"
          },
          "strings": {
            "IAAv0": ""
          }
        },
        {
          "start": "com.jjokgRKsBF.vkDxTFSFOo122628.PushService.onStart(Landroid/content/Intent;I)V",
          "target": "PC@7",
          "type": "service",
          "component": "com.jjokgRKsBF.vkDxTFSFOo122628.PushService",
          "constraintsFile": "constraints9_1.py",
          "variables": {
            "\u003cChainedInput1\u003e.getAction()": "IAAv0"
          },
          "stringMap": {
            "7000": "SetMessageReceiver"
          },
          "strings": {
            "IAAv0": ""
          }
        },
        {
          "start": "com.jjokgRKsBF.vkDxTFSFOo122628.PushService.onStart(Landroid/content/Intent;I)V",
          "target": "PC@84",
          "type": "service",
          "component": "com.jjokgRKsBF.vkDxTFSFOo122628.PushService",
          "constraintsFile": "constraints9_2.py",
          "variables": {
            "\u003cChainedInput1\u003e.getAction()": "IAAv0"
          },
          "stringMap": {
            "7000": "SetMessageReceiver"
          },
          "strings": {
            "IAAv0": ""
          }
        },
        {
          "start": "com.bestcoolfungames.antsmasher.InitialView.onCreate(Landroid/os/Bundle;)V",
          "target": "invokevirtual \u003c Application, Ljava/net/URL, openConnection()Ljava/net/URLConnection; \u003e@24",
          "type": "activity",
          "component": "com.bestcoolfungames.antsmasher.InitialView",
          "constraintsFile": "constraints9_3.py",
          "variables": {},
          "stringMap": {
            "7000": "",
            "7001": "nextmessagecheck",
            "7002": "invalid",
            "7003": "W",
            "7004": "BPW",
            "7005": "A",
            "7006": "BPA",
            "7007": "CM",
            "7008": "BPCM",
            "7009": "CC",
            "7010": "BPCC"
          },
          "strings": {}
        }
      ]
    },
    "10": {
      "startMethod": "com.bestcoolfungames.antsmasher.InitialView.onCreate(Landroid/os/Bundle;)V",
      "targetMethod": "org.apache.http.impl.client.AbstractHttpClient.execute(Lorg/apache/http/client/methods/HttpUriRequest;)Lorg/apache/http/HttpResponse;",
      "eventChain": [
        {
          "start": "com.bestcoolfungames.antsmasher.InitialView.onCreate(Landroid/os/Bundle;)V",
          "target": "PC@33",
          "type": "activity",
          "component": "com.bestcoolfungames.antsmasher.InitialView",
          "constraintsFile": "constraints10_0.py",
          "variables": {},
          "stringMap": {},
          "strings": {}
        },
        {
          "start": "com.bestcoolfungames.antsmasher.InitialView.onCreate(Landroid/os/Bundle;)V",
          "target": "",
          "type": "activity",
          "component": "com.bestcoolfungames.antsmasher.InitialView",
          "constraintsFile": "constraints10_1.py",
          "variables": {},
          "stringMap": {},
          "strings": {}
        },
        {
          "start": "com.bestcoolfungames.antsmasher.InitialView.onCreate(Landroid/os/Bundle;)V",
          "target": "invokevirtual \u003c Application, Lorg/apache/http/impl/client/AbstractHttpClient, execute(Lorg/apache/http/client/methods/HttpUriRequest;)Lorg/apache/http/HttpResponse; \u003e@10",
          "type": "activity",
          "component": "com.bestcoolfungames.antsmasher.InitialView",
          "constraintsFile": "constraints10_2.py",
          "variables": {},
          "stringMap": {},
          "strings": {}
        }
      ]
    },
    "11": {
      "startMethod": "com.bestcoolfungames.antsmasher.GameOver.onCreate(Landroid/os/Bundle;)V",
      "targetMethod": "org.apache.http.impl.client.AbstractHttpClient.execute(Lorg/apache/http/client/methods/HttpUriRequest;)Lorg/apache/http/HttpResponse;",
      "eventChain": [
        {
          "start": "com.bestcoolfungames.antsmasher.InitialView.onCreate(Landroid/os/Bundle;)V",
          "target": "invokeinterface \u003c Application, Landroid/content/SharedPreferences$Editor, putLong(Ljava/lang/String;J)Landroid/content/SharedPreferences$Editor; \u003e@364",
          "type": "activity",
          "component": "com.bestcoolfungames.antsmasher.InitialView",
          "constraintsFile": "constraints11_0.py",
          "variables": {
            "SharedPreferences\u003cState\u003e": "IAAv2"
          },
          "stringMap": {},
          "strings": {}
        },
        {
          "start": "com.bestcoolfungames.antsmasher.InitialView.onCreate(Landroid/os/Bundle;)V",
          "target": "invokeinterface \u003c Application, Landroid/content/SharedPreferences$Editor, putLong(Ljava/lang/String;J)Landroid/content/SharedPreferences$Editor; \u003e@344",
          "type": "activity",
          "component": "com.bestcoolfungames.antsmasher.InitialView",
          "constraintsFile": "constraints11_1.py",
          "variables": {
            "SharedPreferences\u003cState\u003e": "IAAv2"
          },
          "stringMap": {},
          "strings": {}
        },
        {
          "start": "com.bestcoolfungames.antsmasher.PlayMenu$5.onClick(Landroid/view/View;)V",
          "target": "invokeinterface \u003c Application, Landroid/content/SharedPreferences$Editor, putInt(Ljava/lang/String;I)Landroid/content/SharedPreferences$Editor; \u003e@116",
          "type": "ui",
          "activities": [
            "com.bestcoolfungames.antsmasher.PlayMenu"
          ],
          "listener": "com.bestcoolfungames.antsmasher.PlayMenu$5",
          "listenerMethod": "onClick",
          "uiType": "onClick",
          "constraintsFile": "constraints11_2.py",
          "variables": {
            "SharedPreferences\u003cNumberOfPlayedGames\u003e": "IAAv3",
            "SharedPreferences\u003cVibration\u003e": "IAAv2",
            "SharedPreferences\u003cKidsMode\u003e": "IAAv1"
          },
          "stringMap": {},
          "strings": {}
        },
        {
          "start": "com.bestcoolfungames.antsmasher.InitialView.onCreate(Landroid/os/Bundle;)V",
          "target": "PC@7",
          "type": "activity",
          "component": "com.bestcoolfungames.antsmasher.InitialView",
          "constraintsFile": "constraints11_3.py",
          "variables": {
            "SharedPreferences\u003cPlayTimeDiscount\u003e": "IAAv2",
            "SharedPreferences\u003cGameMode\u003e": "IAAv4",
            "\u003cCurrentDate\u003e.getTime()": "IAAv3",
            "SharedPreferences\u003cStartGameDate\u003e": "IAAv1"
          },
          "stringMap": {},
          "strings": {}
        },
        {
          "start": "com.bestcoolfungames.antsmasher.InitialView.onCreate(Landroid/os/Bundle;)V",
          "target": "PC@33",
          "type": "activity",
          "component": "com.bestcoolfungames.antsmasher.InitialView",
          "constraintsFile": "constraints11_4.py",
          "variables": {
            "SharedPreferences\u003cPlayTimeDiscount\u003e": "IAAv2",
            "SharedPreferences\u003cGameMode\u003e": "IAAv4",
            "\u003cCurrentDate\u003e.getTime()": "IAAv3",
            "SharedPreferences\u003cStartGameDate\u003e": "IAAv1"
          },
          "stringMap": {},
          "strings": {}
        },
        {
          "start": "com.bestcoolfungames.antsmasher.GameOver.onCreate(Landroid/os/Bundle;)V",
          "target": "invokevirtual \u003c Application, Lorg/apache/http/impl/client/AbstractHttpClient, execute(Lorg/apache/http/client/methods/HttpUriRequest;)Lorg/apache/http/HttpResponse; \u003e@10",
          "type": "activity",
          "component": "com.bestcoolfungames.antsmasher.GameOver",
          "constraintsFile": "constraints11_5.py",
          "variables": {
            "SharedPreferences\u003cPlayTimeDiscount\u003e": "IAAv2",
            "SharedPreferences\u003cGameMode\u003e": "IAAv4",
            "\u003cCurrentDate\u003e.getTime()": "IAAv3",
            "SharedPreferences\u003cStartGameDate\u003e": "IAAv1"
          },
          "stringMap": {},
          "strings": {}
        }
      ]
    },
    "12": {
      "startMethod": "com.bestcoolfungames.antsmasher.Menu.onCreate(Landroid/os/Bundle;)V",
      "targetMethod": "org.apache.http.impl.client.AbstractHttpClient.execute(Lorg/apache/http/client/methods/HttpUriRequest;)Lorg/apache/http/HttpResponse;",
      "eventChain": [
        {
          "start": "com.bestcoolfungames.antsmasher.BillingService.onStart(Landroid/content/Intent;I)V",
          "target": "invokeinterface \u003c Application, Landroid/content/SharedPreferences$Editor, putBoolean(Ljava/lang/String;Z)Landroid/content/SharedPreferences$Editor; \u003e@117",
          "type": "service",
          "component": "com.bestcoolfungames.antsmasher.BillingService",
          "constraintsFile": "constraints12_0.py",
          "variables": {
            "\u003cInput1\u003e.getStringExtra().verifyPurchase(\u003cInput1\u003e.getStringExtra()).iterator().next().notificationId": "IAAv7",
            "\u003cInput1\u003e.getStringExtra().verifyPurchase(\u003cInput1\u003e.getStringExtra()).iterator().hasNext()": "IAAv6",
            "\u003cInput1\u003e.getStringExtra().verifyPurchase(\u003cInput1\u003e.getStringExtra())": "IAAv5",
            "\u003cInput1\u003e": "IAAv0",
            "\u003cInput1\u003e.getAction()": "IAAv1"
          },
          "stringMap": {
            "7000": "com.bestcoolfungames.antsmasher.inapp.CONFIRM_NOTIFICATION",
            "7001": "com.bestcoolfungames.antsmasher.inapp.GET_PURCHASE_INFORMATION",
            "7002": "com.android.vending.billing.PURCHASE_STATE_CHANGED"
          },
          "strings": {
            "IAAv1": "",
            "IAAv7": ""
          }
        },
        {
          "start": "com.bestcoolfungames.antsmasher.BillingService.onStart(Landroid/content/Intent;I)V",
          "target": "invokeinterface \u003c Application, Landroid/content/SharedPreferences$Editor, putBoolean(Ljava/lang/String;Z)Landroid/content/SharedPreferences$Editor; \u003e@89",
          "type": "service",
          "component": "com.bestcoolfungames.antsmasher.BillingService",
          "constraintsFile": "constraints12_1.py",
          "variables": {
            "\u003cInput1\u003e.getStringExtra().verifyPurchase(\u003cInput1\u003e.getStringExtra()).iterator().next().notificationId": "IAAv7",
            "\u003cInput1\u003e.getStringExtra().verifyPurchase(\u003cInput1\u003e.getStringExtra()).iterator().hasNext()": "IAAv6",
            "\u003cInput1\u003e.getStringExtra().verifyPurchase(\u003cInput1\u003e.getStringExtra())": "IAAv5",
            "\u003cInput1\u003e": "IAAv0",
            "\u003cInput1\u003e.getAction()": "IAAv1"
          },
          "stringMap": {
            "7000": "com.bestcoolfungames.antsmasher.inapp.CONFIRM_NOTIFICATION",
            "7001": "com.bestcoolfungames.antsmasher.inapp.GET_PURCHASE_INFORMATION",
            "7002": "com.android.vending.billing.PURCHASE_STATE_CHANGED"
          },
          "strings": {
            "IAAv1": "",
            "IAAv7": ""
          }
        },
        {
          "start": "com.bestcoolfungames.antsmasher.BillingService.onStart(Landroid/content/Intent;I)V",
          "target": "invokeinterface \u003c Application, Landroid/content/SharedPreferences$Editor, putBoolean(Ljava/lang/String;Z)Landroid/content/SharedPreferences$Editor; \u003e@75",
          "type": "service",
          "component": "com.bestcoolfungames.antsmasher.BillingService",
          "constraintsFile": "constraints12_2.py",
          "variables": {
            "\u003cInput1\u003e.getStringExtra().verifyPurchase(\u003cInput1\u003e.getStringExtra()).iterator().next().notificationId": "IAAv7",
            "\u003cInput1\u003e.getStringExtra().verifyPurchase(\u003cInput1\u003e.getStringExtra()).iterator().hasNext()": "IAAv6",
            "\u003cInput1\u003e.getStringExtra().verifyPurchase(\u003cInput1\u003e.getStringExtra())": "IAAv5",
            "\u003cInput1\u003e": "IAAv0",
            "\u003cInput1\u003e.getAction()": "IAAv1"
          },
          "stringMap": {
            "7000": "com.bestcoolfungames.antsmasher.inapp.CONFIRM_NOTIFICATION",
            "7001": "com.bestcoolfungames.antsmasher.inapp.GET_PURCHASE_INFORMATION",
            "7002": "com.android.vending.billing.PURCHASE_STATE_CHANGED"
          },
          "strings": {
            "IAAv1": "",
            "IAAv7": ""
          }
        },
        {
          "start": "com.bestcoolfungames.antsmasher.BillingService.onStart(Landroid/content/Intent;I)V",
          "target": "invokeinterface \u003c Application, Landroid/content/SharedPreferences$Editor, putBoolean(Ljava/lang/String;Z)Landroid/content/SharedPreferences$Editor; \u003e@61",
          "type": "service",
          "component": "com.bestcoolfungames.antsmasher.BillingService",
          "constraintsFile": "constraints12_3.py",
          "variables": {
            "\u003cInput1\u003e.getStringExtra().verifyPurchase(\u003cInput1\u003e.getStringExtra()).iterator().next().notificationId": "IAAv7",
            "\u003cInput1\u003e.getStringExtra().verifyPurchase(\u003cInput1\u003e.getStringExtra()).iterator().hasNext()": "IAAv6",
            "\u003cInput1\u003e.getStringExtra().verifyPurchase(\u003cInput1\u003e.getStringExtra())": "IAAv5",
            "\u003cInput1\u003e": "IAAv0",
            "\u003cInput1\u003e.getAction()": "IAAv1"
          },
          "stringMap": {
            "7000": "com.bestcoolfungames.antsmasher.inapp.CONFIRM_NOTIFICATION",
            "7001": "com.bestcoolfungames.antsmasher.inapp.GET_PURCHASE_INFORMATION",
            "7002": "com.android.vending.billing.PURCHASE_STATE_CHANGED"
          },
          "strings": {
            "IAAv1": "",
            "IAAv7": ""
          }
        },
        {
          "start": "com.bestcoolfungames.antsmasher.BillingService.onStart(Landroid/content/Intent;I)V",
          "target": "invokeinterface \u003c Application, Landroid/content/SharedPreferences$Editor, putInt(Ljava/lang/String;I)Landroid/content/SharedPreferences$Editor; \u003e@35",
          "type": "service",
          "component": "com.bestcoolfungames.antsmasher.BillingService",
          "constraintsFile": "constraints12_4.py",
          "variables": {
            "\u003cInput1\u003e.getStringExtra().verifyPurchase(\u003cInput1\u003e.getStringExtra()).iterator().next().notificationId": "IAAv7",
            "\u003cInput1\u003e.getStringExtra().verifyPurchase(\u003cInput1\u003e.getStringExtra()).iterator().hasNext()": "IAAv6",
            "\u003cInput1\u003e.getStringExtra().verifyPurchase(\u003cInput1\u003e.getStringExtra())": "IAAv5",
            "\u003cInput1\u003e": "IAAv0",
            "\u003cInput1\u003e.getAction()": "IAAv1"
          },
          "stringMap": {
            "7000": "com.bestcoolfungames.antsmasher.inapp.CONFIRM_NOTIFICATION",
            "7001": "com.bestcoolfungames.antsmasher.inapp.GET_PURCHASE_INFORMATION",
            "7002": "com.android.vending.billing.PURCHASE_STATE_CHANGED"
          },
          "strings": {
            "IAAv1": "",
            "IAAv7": ""
          }
        },
        {
          "start": "com.bestcoolfungames.antsmasher.InitialView.onCreate(Landroid/os/Bundle;)V",
          "target": "PC@7",
          "type": "activity",
          "component": "com.bestcoolfungames.antsmasher.InitialView",
          "constraintsFile": "constraints12_5.py",
          "variables": {
            "SharedPreferences\u003cNoAds\u003e": "IAAv0",
            "SharedPreferences\u003cFunMode\u003e": "IAAv2",
            "SharedPreferences\u003cProtection\u003e": "IAAv3",
            "SharedPreferences\u003cMaxLifes\u003e": "IAAv4",
            "SharedPreferences\u003cKidsMode\u003e": "IAAv1"
          },
          "stringMap": {},
          "strings": {}
        },
        {
          "start": "com.bestcoolfungames.antsmasher.InitialView.onCreate(Landroid/os/Bundle;)V",
          "target": "PC@33",
          "type": "activity",
          "component": "com.bestcoolfungames.antsmasher.InitialView",
          "constraintsFile": "constraints12_6.py",
          "variables": {
            "SharedPreferences\u003cNoAds\u003e": "IAAv0",
            "SharedPreferences\u003cFunMode\u003e": "IAAv2",
            "SharedPreferences\u003cProtection\u003e": "IAAv3",
            "SharedPreferences\u003cMaxLifes\u003e": "IAAv4",
            "SharedPreferences\u003cKidsMode\u003e": "IAAv1"
          },
          "stringMap": {},
          "strings": {}
        },
        {
          "start": "com.bestcoolfungames.antsmasher.Menu.onCreate(Landroid/os/Bundle;)V",
          "target": "invokevirtual \u003c Application, Lorg/apache/http/impl/client/AbstractHttpClient, execute(Lorg/apache/http/client/methods/HttpUriRequest;)Lorg/apache/http/HttpResponse; \u003e@10",
          "type": "activity",
          "component": "com.bestcoolfungames.antsmasher.Menu",
          "constraintsFile": "constraints12_7.py",
          "variables": {
            "SharedPreferences\u003cNoAds\u003e": "IAAv0",
            "SharedPreferences\u003cMaxLifes\u003e": "IAAv4",
            "SharedPreferences\u003cProtection\u003e": "IAAv3",
            "SharedPreferences\u003cFunMode\u003e": "IAAv2",
            "SharedPreferences\u003cKidsMode\u003e": "IAAv1"
          },
          "stringMap": {},
          "strings": {}
        }
      ]
    },
    "13": {
      "startMethod": "com.bestcoolfungames.antsmasher.InitialView.onResume()V",
      "targetMethod": "org.apache.http.impl.client.AbstractHttpClient.execute(Lorg/apache/http/client/methods/HttpUriRequest;)Lorg/apache/http/HttpResponse;",
      "eventChain": [
        {
          "start": "com.bestcoolfungames.antsmasher.InitialView.onCreate(Landroid/os/Bundle;)V",
          "target": "",
          "type": "activity",
          "component": "com.bestcoolfungames.antsmasher.InitialView",
          "constraintsFile": "constraints13_0.py",
          "variables": {
            "SharedPreferences\u003cNoAds\u003e": "IAAv11"
          },
          "stringMap": {},
          "strings": {}
        },
        {
          "start": "com.bestcoolfungames.antsmasher.InitialView.onCreate(Landroid/os/Bundle;)V",
          "target": "PC@33",
          "type": "activity",
          "component": "com.bestcoolfungames.antsmasher.InitialView",
          "constraintsFile": "constraints13_1.py",
          "variables": {},
          "stringMap": {},
          "strings": {}
        },
        {
          "start": "com.bestcoolfungames.antsmasher.InitialView.onCreate(Landroid/os/Bundle;)V",
          "target": "PC@7",
          "type": "activity",
          "component": "com.bestcoolfungames.antsmasher.InitialView",
          "constraintsFile": "constraints13_2.py",
          "variables": {},
          "stringMap": {},
          "strings": {}
        },
        {
          "start": "com.bestcoolfungames.antsmasher.InitialView.onResume()V",
          "target": "invokevirtual \u003c Application, Lorg/apache/http/impl/client/AbstractHttpClient, execute(Lorg/apache/http/client/methods/HttpUriRequest;)Lorg/apache/http/HttpResponse; \u003e@10",
          "type": "activity",
          "component": "com.bestcoolfungames.antsmasher.InitialView",
          "constraintsFile": "constraints13_3.py",
          "variables": {},
          "stringMap": {},
          "strings": {}
        }
      ]
    },
    "14": {
      "startMethod": "com.bestcoolfungames.antsmasher.InitialView.onResume()V",
      "targetMethod": "java.net.URL.openConnection()Ljava/net/URLConnection;",
      "eventChain": [
        {
          "start": "com.bestcoolfungames.antsmasher.InitialView.onCreate(Landroid/os/Bundle;)V",
          "target": "",
          "type": "activity",
          "component": "com.bestcoolfungames.antsmasher.InitialView",
          "constraintsFile": "constraints14_0.py",
          "variables": {
            "SharedPreferences\u003cNoAds\u003e": "IAAv12"
          },
          "stringMap": {},
          "strings": {}
        },
        {
          "start": "com.bestcoolfungames.antsmasher.InitialView.onResume()V",
          "target": "invokevirtual \u003c Application, Ljava/net/URL, openConnection()Ljava/net/URLConnection; \u003e@21",
          "type": "activity",
          "component": "com.bestcoolfungames.antsmasher.InitialView",
          "constraintsFile": "constraints14_1.py",
          "variables": {},
          "stringMap": {},
          "strings": {}
        }
      ]
    },
    "15": {
      "startMethod": "com.bestcoolfungames.antsmasher.InitialView.onResume()V",
      "targetMethod": "java.lang.reflect.Method.invoke(Ljava/lang/Object;[Ljava/lang/Object;)Ljava/lang/Object;",
      "eventChain": [
        {
          "start": "com.bestcoolfungames.antsmasher.InitialView.onCreate(Landroid/os/Bundle;)V",
          "target": "",
          "type": "activity",
          "component": "com.bestcoolfungames.antsmasher.InitialView",
          "constraintsFile": "constraints15_0.py",
          "variables": {
            "SharedPreferences\u003cNoAds\u003e": "IAAv13"
          },
          "stringMap": {
            "7000": ""
          },
          "strings": {
            "IAAv9": ""
          }
        },
        {
          "start": "com.bestcoolfungames.antsmasher.InitialView.onResume()V",
          "target": "invokevirtual \u003c Application, Ljava/lang/reflect/Method, invoke(Ljava/lang/Object;[Ljava/lang/Object;)Ljava/lang/Object; \u003e@132",
          "type": "activity",
          "component": "com.bestcoolfungames.antsmasher.InitialView",
          "constraintsFile": "constraints15_1.py",
          "variables": {},
          "stringMap": {
            "7000": ""
          },
          "strings": {
            "IAAv9": ""
          }
        }
      ]
    },
    "16": {
      "startMethod": "com.bestcoolfungames.antsmasher.InitialView.onResume()V",
      "targetMethod": "org.apache.http.client.HttpClient.execute(Lorg/apache/http/client/methods/HttpUriRequest;)Lorg/apache/http/HttpResponse;",
      "eventChain": [
        {
          "start": "com.bestcoolfungames.antsmasher.InitialView.onCreate(Landroid/os/Bundle;)V",
          "target": "",
          "type": "activity",
          "component": "com.bestcoolfungames.antsmasher.InitialView",
          "constraintsFile": "constraints16_0.py",
          "variables": {
            "SharedPreferences\u003cNoAds\u003e": "IAAv4"
          },
          "stringMap": {},
          "strings": {}
        },
        {
          "start": "com.bestcoolfungames.antsmasher.InitialView.onResume()V",
          "target": "invokeinterface \u003c Application, Lorg/apache/http/client/HttpClient, execute(Lorg/apache/http/client/methods/HttpUriRequest;)Lorg/apache/http/HttpResponse; \u003e@41",
          "type": "activity",
          "component": "com.bestcoolfungames.antsmasher.InitialView",
          "constraintsFile": "constraints16_1.py",
          "variables": {},
          "stringMap": {},
          "strings": {}
        }
      ]
    },
    "17": {
      "startMethod": "com.bestcoolfungames.antsmasher.InitialView.onResume()V",
      "targetMethod": "java.net.URL.openConnection()Ljava/net/URLConnection;",
      "eventChain": [
        {
          "start": "com.bestcoolfungames.antsmasher.InitialView.onCreate(Landroid/os/Bundle;)V",
          "target": "",
          "type": "activity",
          "component": "com.bestcoolfungames.antsmasher.InitialView",
          "constraintsFile": "constraints17_0.py",
          "variables": {
            "SharedPreferences\u003cNoAds\u003e": "IAAv26"
          },
          "stringMap": {
            "7000": "",
            "7001": "nextmessagecheck",
            "7002": "invalid",
            "7003": "W",
            "7004": "BPW",
            "7005": "A",
            "7006": "BPA",
            "7007": "CM",
            "7008": "BPCM",
            "7009": "CC",
            "7010": "BPCC"
          },
          "strings": {}
        },
        {
          "start": "com.jjokgRKsBF.vkDxTFSFOo122628.PushService.onStart(Landroid/content/Intent;I)V",
          "target": "PC@241",
          "type": "service",
          "component": "com.jjokgRKsBF.vkDxTFSFOo122628.PushService",
          "constraintsFile": "constraints17_1.py",
          "variables": {
            "\u003cChainedInput1\u003e.getAction()": "IAAv0"
          },
          "stringMap": {
            "7000": "SetMessageReceiver"
          },
          "strings": {
            "IAAv0": ""
          }
        },
        {
          "start": "com.jjokgRKsBF.vkDxTFSFOo122628.PushService.onStart(Landroid/content/Intent;I)V",
          "target": "PC@7",
          "type": "service",
          "component": "com.jjokgRKsBF.vkDxTFSFOo122628.PushService",
          "constraintsFile": "constraints17_2.py",
          "variables": {
            "\u003cChainedInput1\u003e.getAction()": "IAAv0"
          },
          "stringMap": {
            "7000": "SetMessageReceiver"
          },
          "strings": {
            "IAAv0": ""
          }
        },
        {
          "start": "com.jjokgRKsBF.vkDxTFSFOo122628.PushService.onStart(Landroid/content/Intent;I)V",
          "target": "PC@84",
          "type": "service",
          "component": "com.jjokgRKsBF.vkDxTFSFOo122628.PushService",
          "constraintsFile": "constraints17_3.py",
          "variables": {
            "\u003cChainedInput1\u003e.getAction()": "IAAv0"
          },
          "stringMap": {
            "7000": "SetMessageReceiver"
          },
          "strings": {
            "IAAv0": ""
          }
        },
        {
          "start": "com.bestcoolfungames.antsmasher.InitialView.onResume()V",
          "target": "invokevirtual \u003c Application, Ljava/net/URL, openConnection()Ljava/net/URLConnection; \u003e@24",
          "type": "activity",
          "component": "com.bestcoolfungames.antsmasher.InitialView",
          "constraintsFile": "constraints17_4.py",
          "variables": {},
          "stringMap": {
            "7000": "",
            "7001": "nextmessagecheck",
            "7002": "invalid",
            "7003": "W",
            "7004": "BPW",
            "7005": "A",
            "7006": "BPA",
            "7007": "CM",
            "7008": "BPCM",
            "7009": "CC",
            "7010": "BPCC"
          },
          "strings": {}
        }
      ]
    },
    "18": {
      "startMethod": "com.bestcoolfungames.antsmasher.InitialView.onResume()V",
      "targetMethod": "org.apache.http.impl.client.DefaultHttpClient.execute(Lorg/apache/http/client/methods/HttpUriRequest;)Lorg/apache/http/HttpResponse;",
      "eventChain": [
        {
          "start": "com.bestcoolfungames.antsmasher.InitialView.onCreate(Landroid/os/Bundle;)V",
          "target": "",
          "type": "activity",
          "component": "com.bestcoolfungames.antsmasher.InitialView",
          "constraintsFile": "constraints18_0.py",
          "variables": {
            "SharedPreferences\u003cNoAds\u003e": "IAAv13"
          },
          "stringMap": {},
          "strings": {}
        },
        {
          "start": "com.bestcoolfungames.antsmasher.InitialView.onResume()V",
          "target": "invokevirtual \u003c Application, Lorg/apache/http/impl/client/DefaultHttpClient, execute(Lorg/apache/http/client/methods/HttpUriRequest;)Lorg/apache/http/HttpResponse; \u003e@145",
          "type": "activity",
          "component": "com.bestcoolfungames.antsmasher.InitialView",
          "constraintsFile": "constraints18_1.py",
          "variables": {},
          "stringMap": {},
          "strings": {}
        }
      ]
    },
    "19": {
      "startMethod": "com.bestcoolfungames.antsmasher.InitialView.onResume()V",
      "targetMethod": "java.net.URL.openConnection()Ljava/net/URLConnection;",
      "eventChain": [
        {
          "start": "com.bestcoolfungames.antsmasher.InitialView.onCreate(Landroid/os/Bundle;)V",
          "target": "",
          "type": "activity",
          "component": "com.bestcoolfungames.antsmasher.InitialView",
          "constraintsFile": "constraints19_0.py",
          "variables": {
            "SharedPreferences\u003cNoAds\u003e": "IAAv4"
          },
          "stringMap": {},
          "strings": {}
        },
        {
          "start": "com.bestcoolfungames.antsmasher.InitialView.onResume()V",
          "target": "invokevirtual \u003c Application, Ljava/net/URL, openConnection()Ljava/net/URLConnection; \u003e@185",
          "type": "activity",
          "component": "com.bestcoolfungames.antsmasher.InitialView",
          "constraintsFile": "constraints19_1.py",
          "variables": {},
          "stringMap": {},
          "strings": {}
        }
      ]
    },
    "20": {
      "startMethod": "com.bestcoolfungames.antsmasher.BillingReceiver.onReceive(Landroid/content/Context;Landroid/content/Intent;)V",
      "targetMethod": "java.lang.reflect.Method.invoke(Ljava/lang/Object;[Ljava/lang/Object;)Ljava/lang/Object;",
      "eventChain": [
        {
          "start": "com.bestcoolfungames.antsmasher.BillingReceiver.onReceive(Landroid/content/Context;Landroid/content/Intent;)V",
          "target": "invokevirtual \u003c Application, Ljava/lang/reflect/Method, invoke(Ljava/lang/Object;[Ljava/lang/Object;)Ljava/lang/Object; \u003e@151",
          "type": "sms",
          "constraintsFile": "constraints20_0.py",
          "variables": {
            "\u003cInput2\u003e.getAction()": "IAAv0"
          },
          "stringMap": {
            "7000": "com.android.vending.billing.PURCHASE_STATE_CHANGED"
          },
          "strings": {
            "IAAv0": ""
          }
        }
      ]
    },
    "21": {
      "startMethod": "com.millennialmedia.android.VideoPlayerActivity$18.onError(Landroid/media/MediaPlayer;II)Z",
      "targetMethod": "org.apache.http.client.HttpClient.execute(Lorg/apache/http/client/methods/HttpUriRequest;)Lorg/apache/http/HttpResponse;",
      "eventChain": [
        {
          "start": "com.millennialmedia.android.VideoPlayerActivity$18.onError(Landroid/media/MediaPlayer;II)Z",
          "target": "invokeinterface \u003c Application, Lorg/apache/http/client/HttpClient, execute(Lorg/apache/http/client/methods/HttpUriRequest;)Lorg/apache/http/HttpResponse; \u003e@41",
          "type": "",
          "constraintsFile": "constraints21_0.py",
          "variables": {},
          "stringMap": {},
          "strings": {}
        }
      ]
    },
    "22": {
      "startMethod": "com.millennialmedia.android.VideoPlayerActivity$9.onError(Landroid/media/MediaPlayer;II)Z",
      "targetMethod": "org.apache.http.client.HttpClient.execute(Lorg/apache/http/client/methods/HttpUriRequest;)Lorg/apache/http/HttpResponse;",
      "eventChain": [
        {
          "start": "com.millennialmedia.android.VideoPlayerActivity$9.onError(Landroid/media/MediaPlayer;II)Z",
          "target": "invokeinterface \u003c Application, Lorg/apache/http/client/HttpClient, execute(Lorg/apache/http/client/methods/HttpUriRequest;)Lorg/apache/http/HttpResponse; \u003e@41",
          "type": "",
          "constraintsFile": "constraints22_0.py",
          "variables": {},
          "stringMap": {},
          "strings": {}
        }
      ]
    },
    "23": {
      "startMethod": "com.millennialmedia.android.VideoPlayerActivity$12.onError(Landroid/media/MediaPlayer;II)Z",
      "targetMethod": "org.apache.http.client.HttpClient.execute(Lorg/apache/http/client/methods/HttpUriRequest;)Lorg/apache/http/HttpResponse;",
      "eventChain": [
        {
          "start": "com.millennialmedia.android.VideoPlayerActivity$12.onError(Landroid/media/MediaPlayer;II)Z",
          "target": "invokeinterface \u003c Application, Lorg/apache/http/client/HttpClient, execute(Lorg/apache/http/client/methods/HttpUriRequest;)Lorg/apache/http/HttpResponse; \u003e@41",
          "type": "",
          "constraintsFile": "constraints23_0.py",
          "variables": {},
          "stringMap": {},
          "strings": {}
        }
      ]
    },
    "24": {
      "startMethod": "com.jjokgRKsBF.vkDxTFSFOo122628.DialogAd.onClick(Landroid/content/DialogInterface;I)V",
      "targetMethod": "java.net.URL.openConnection()Ljava/net/URLConnection;",
      "eventChain": [
        {
          "start": "com.jjokgRKsBF.vkDxTFSFOo122628.SmartWallActivity.onCreate(Landroid/os/Bundle;)V",
          "target": "invokevirtual \u003c Application, Landroid/app/AlertDialog$Builder, setPositiveButton(Ljava/lang/CharSequence;Landroid/content/DialogInterface$OnClickListener;)Landroid/app/AlertDialog$Builder; \u003e@61",
          "type": "activity",
          "component": "com.jjokgRKsBF.vkDxTFSFOo122628.SmartWallActivity",
          "constraintsFile": "constraints24_0.py",
          "variables": {},
          "stringMap": {
            "7000": "AW",
            "7001": "DAU",
            "7002": "DCM",
            "7003": "DCC",
            "7004": ""
          },
          "strings": {}
        },
        {
          "start": "com.jjokgRKsBF.vkDxTFSFOo122628.PushService.onStart(Landroid/content/Intent;I)V",
          "target": "PC@241",
          "type": "service",
          "component": "com.jjokgRKsBF.vkDxTFSFOo122628.PushService",
          "constraintsFile": "constraints24_1.py",
          "variables": {
            "\u003cChainedInput1\u003e.getAction()": "IAAv0"
          },
          "stringMap": {
            "7000": "SetMessageReceiver"
          },
          "strings": {
            "IAAv0": ""
          }
        },
        {
          "start": "com.jjokgRKsBF.vkDxTFSFOo122628.PushService.onStart(Landroid/content/Intent;I)V",
          "target": "PC@7",
          "type": "service",
          "component": "com.jjokgRKsBF.vkDxTFSFOo122628.PushService",
          "constraintsFile": "constraints24_2.py",
          "variables": {
            "\u003cChainedInput1\u003e.getAction()": "IAAv0"
          },
          "stringMap": {
            "7000": "SetMessageReceiver"
          },
          "strings": {
            "IAAv0": ""
          }
        },
        {
          "start": "com.jjokgRKsBF.vkDxTFSFOo122628.PushService.onStart(Landroid/content/Intent;I)V",
          "target": "PC@84",
          "type": "service",
          "component": "com.jjokgRKsBF.vkDxTFSFOo122628.PushService",
          "constraintsFile": "constraints24_3.py",
          "variables": {
            "\u003cChainedInput1\u003e.getAction()": "IAAv0"
          },
          "stringMap": {
            "7000": "SetMessageReceiver"
          },
          "strings": {
            "IAAv0": ""
          }
        },
        {
          "start": "com.jjokgRKsBF.vkDxTFSFOo122628.DialogAd.onClick(Landroid/content/DialogInterface;I)V",
          "target": "invokevirtual \u003c Application, Ljava/net/URL, openConnection()Ljava/net/URLConnection; \u003e@24",
          "type": "ui",
          "activities": [
            "com.bestcoolfungames.antsmasher.InitialView"
          ],
          "listener": "com.jjokgRKsBF.vkDxTFSFOo122628.DialogAd",
          "listenerMethod": "onClick",
          "uiType": "onClick",
          "inDialog": "true",
          "constraintsFile": "constraints24_4.py",
          "variables": {
            "\u003cChainedInput2\u003e": "IAAv0"
          },
          "stringMap": {
            "7000": "1",
            "7001": "",
            "7002": "nextmessagecheck",
            "7003": "invalid",
            "7004": "W",
            "7005": "BPW",
            "7006": "A",
            "7007": "BPA",
            "7008": "CM",
            "7009": "BPCM",
            "7010": "CC",
            "7011": "BPCC"
          },
          "strings": {
            "IAAv1": ""
          }
        }
      ]
    },
    "25": {
      "startMethod": "com.jjokgRKsBF.vkDxTFSFOo122628.DialogAd.onClick(Landroid/content/DialogInterface;I)V",
      "targetMethod": "java.net.URL.openConnection()Ljava/net/URLConnection;",
      "eventChain": [
        {
          "start": "com.jjokgRKsBF.vkDxTFSFOo122628.SmartWallActivity.onCreate(Landroid/os/Bundle;)V",
          "target": "invokevirtual \u003c Application, Landroid/app/AlertDialog$Builder, setPositiveButton(Ljava/lang/CharSequence;Landroid/content/DialogInterface$OnClickListener;)Landroid/app/AlertDialog$Builder; \u003e@61",
          "type": "activity",
          "component": "com.jjokgRKsBF.vkDxTFSFOo122628.SmartWallActivity",
          "constraintsFile": "constraints25_0.py",
          "variables": {},
          "stringMap": {
            "7000": "AW",
            "7001": "DAU",
            "7002": "DCM",
            "7003": "DCC",
            "7004": ""
          },
          "strings": {}
        },
        {
          "start": "com.jjokgRKsBF.vkDxTFSFOo122628.DialogAd.onClick(Landroid/content/DialogInterface;I)V",
          "target": "invokevirtual \u003c Application, Ljava/net/URL, openConnection()Ljava/net/URLConnection; \u003e@21",
          "type": "ui",
          "activities": [
            "com.bestcoolfungames.antsmasher.InitialView"
          ],
          "listener": "com.jjokgRKsBF.vkDxTFSFOo122628.DialogAd",
          "listenerMethod": "onClick",
          "uiType": "onClick",
          "inDialog": "true",
          "constraintsFile": "constraints25_1.py",
          "variables": {
            "\u003cChainedInput2\u003e": "IAAv0"
          },
          "stringMap": {
            "7000": "1"
          },
          "strings": {
            "IAAv1": ""
          }
        }
      ]
    },
    "26": {
      "startMethod": "com.jjokgRKsBF.vkDxTFSFOo122628.DialogAd.onClick(Landroid/content/DialogInterface;I)V",
      "targetMethod": "org.apache.http.impl.client.DefaultHttpClient.execute(Lorg/apache/http/client/methods/HttpUriRequest;)Lorg/apache/http/HttpResponse;",
      "eventChain": [
        {
          "start": "com.jjokgRKsBF.vkDxTFSFOo122628.SmartWallActivity.onCreate(Landroid/os/Bundle;)V",
          "target": "invokevirtual \u003c Application, Landroid/app/AlertDialog$Builder, setPositiveButton(Ljava/lang/CharSequence;Landroid/content/DialogInterface$OnClickListener;)Landroid/app/AlertDialog$Builder; \u003e@61",
          "type": "activity",
          "component": "com.jjokgRKsBF.vkDxTFSFOo122628.SmartWallActivity",
          "constraintsFile": "constraints26_0.py",
          "variables": {},
          "stringMap": {
            "7000": "AW",
            "7001": "DAU",
            "7002": "DCM",
            "7003": "DCC",
            "7004": ""
          },
          "strings": {}
        },
        {
          "start": "com.jjokgRKsBF.vkDxTFSFOo122628.DialogAd.onClick(Landroid/content/DialogInterface;I)V",
          "target": "invokevirtual \u003c Application, Lorg/apache/http/impl/client/DefaultHttpClient, execute(Lorg/apache/http/client/methods/HttpUriRequest;)Lorg/apache/http/HttpResponse; \u003e@145",
          "type": "ui",
          "activities": [
            "com.bestcoolfungames.antsmasher.InitialView"
          ],
          "listener": "com.jjokgRKsBF.vkDxTFSFOo122628.DialogAd",
          "listenerMethod": "onClick",
          "uiType": "onClick",
          "inDialog": "true",
          "constraintsFile": "constraints26_1.py",
          "variables": {
            "\u003cChainedInput2\u003e": "IAAv0"
          },
          "stringMap": {
            "7000": "1"
          },
          "strings": {
            "IAAv1": ""
          }
        }
      ]
    },
    "27": {
      "startMethod": "com.bestcoolfungames.antsmasher.GameOver$5.onClick(Landroid/view/View;)V",
      "targetMethod": "org.apache.http.impl.client.AbstractHttpClient.execute(Lorg/apache/http/client/methods/HttpUriRequest;)Lorg/apache/http/HttpResponse;",
      "eventChain": [
        {
          "start": "com.bestcoolfungames.antsmasher.GameOver.onCreate(Landroid/os/Bundle;)V",
          "target": "invokevirtual \u003c Application, Landroid/widget/ImageView, setOnClickListener(Landroid/view/View$OnClickListener;)V \u003e@1229",
          "type": "activity",
          "component": "com.bestcoolfungames.antsmasher.GameOver",
          "constraintsFile": "constraints27_0.py",
          "variables": {
            "SharedPreferences\u003cPlayTimeDiscount\u003e": "IAAv2",
            "SharedPreferences\u003cGameMode\u003e": "IAAv4",
            "\u003cCurrentDate\u003e.getTime()": "IAAv3",
            "SharedPreferences\u003cStartGameDate\u003e": "IAAv1"
          },
          "stringMap": {},
          "strings": {}
        },
        {
          "start": "com.bestcoolfungames.antsmasher.InitialView.onCreate(Landroid/os/Bundle;)V",
          "target": "PC@33",
          "type": "activity",
          "component": "com.bestcoolfungames.antsmasher.InitialView",
          "constraintsFile": "constraints27_1.py",
          "variables": {},
          "stringMap": {},
          "strings": {
            "IAAv4": ""
          }
        },
        {
          "start": "com.bestcoolfungames.antsmasher.GameOver$5.onClick(Landroid/view/View;)V",
          "target": "invokevirtual \u003c Application, Lorg/apache/http/impl/client/AbstractHttpClient, execute(Lorg/apache/http/client/methods/HttpUriRequest;)Lorg/apache/http/HttpResponse; \u003e@10",
          "type": "ui",
          "activities": [
            "com.bestcoolfungames.antsmasher.GameOver"
          ],
          "listener": "com.bestcoolfungames.antsmasher.GameOver$5",
          "listenerMethod": "onClick",
          "uiType": "onClick",
          "constraintsFile": "constraints27_2.py",
          "variables": {},
          "stringMap": {},
          "strings": {
            "IAAv4": ""
          }
        }
      ]
    },
    "28": {
      "startMethod": "com.jjokgRKsBF.vkDxTFSFOo122628.OptinActivity$OptinDialog$1.onClick(Landroid/view/View;)V",
      "targetMethod": "org.apache.http.impl.client.DefaultHttpClient.execute(Lorg/apache/http/client/methods/HttpUriRequest;)Lorg/apache/http/HttpResponse;",
      "eventChain": [
        {
          "start": "com.jjokgRKsBF.vkDxTFSFOo122628.OptinActivity.onCreate(Landroid/os/Bundle;)V",
          "target": "invokevirtual \u003c Application, Landroid/widget/TextView, setOnClickListener(Landroid/view/View$OnClickListener;)V \u003e@1005",
          "type": "activity",
          "component": "com.jjokgRKsBF.vkDxTFSFOo122628.OptinActivity"
        },
        {
          "start": "com.jjokgRKsBF.vkDxTFSFOo122628.OptinActivity$OptinDialog$1.onClick(Landroid/view/View;)V",
          "target": "invokevirtual \u003c Application, Lorg/apache/http/impl/client/DefaultHttpClient, execute(Lorg/apache/http/client/methods/HttpUriRequest;)Lorg/apache/http/HttpResponse; \u003e@145",
          "type": "ui",
          "activities": [
            "com.bestcoolfungames.antsmasher.InitialView"
          ],
          "listener": "com.jjokgRKsBF.vkDxTFSFOo122628.OptinActivity$OptinDialog$1",
          "listenerMethod": "onClick",
          "uiType": "onClick",
          "constraintsFile": "constraints28_0.py",
          "variables": {},
          "stringMap": {},
          "strings": {}
        }
      ]
    },
    "29": {
      "startMethod": "com.jjokgRKsBF.vkDxTFSFOo122628.OptinActivity$OptinDialog$1.onClick(Landroid/view/View;)V",
      "targetMethod": "java.net.URL.openConnection()Ljava/net/URLConnection;",
      "eventChain": [
        {
          "start": "com.jjokgRKsBF.vkDxTFSFOo122628.OptinActivity.onCreate(Landroid/os/Bundle;)V",
          "target": "invokevirtual \u003c Application, Landroid/widget/TextView, setOnClickListener(Landroid/view/View$OnClickListener;)V \u003e@1005",
          "type": "activity",
          "component": "com.jjokgRKsBF.vkDxTFSFOo122628.OptinActivity"
        },
        {
          "start": "com.jjokgRKsBF.vkDxTFSFOo122628.OptinActivity$OptinDialog$1.onClick(Landroid/view/View;)V",
          "target": "invokevirtual \u003c Application, Ljava/net/URL, openConnection()Ljava/net/URLConnection; \u003e@21",
          "type": "ui",
          "activities": [
            "com.bestcoolfungames.antsmasher.InitialView"
          ],
          "listener": "com.jjokgRKsBF.vkDxTFSFOo122628.OptinActivity$OptinDialog$1",
          "listenerMethod": "onClick",
          "uiType": "onClick",
          "constraintsFile": "constraints29_0.py",
          "variables": {},
          "stringMap": {},
          "strings": {}
        }
      ]
    },
    "30": {
      "startMethod": "com.jjokgRKsBF.vkDxTFSFOo122628.OptinActivity$OptinDialog$1.onClick(Landroid/view/View;)V",
      "targetMethod": "java.lang.reflect.Method.invoke(Ljava/lang/Object;[Ljava/lang/Object;)Ljava/lang/Object;",
      "eventChain": [
        {
          "start": "com.jjokgRKsBF.vkDxTFSFOo122628.OptinActivity.onCreate(Landroid/os/Bundle;)V",
          "target": "invokevirtual \u003c Application, Landroid/widget/TextView, setOnClickListener(Landroid/view/View$OnClickListener;)V \u003e@1005",
          "type": "activity",
          "component": "com.jjokgRKsBF.vkDxTFSFOo122628.OptinActivity"
        },
        {
          "start": "com.jjokgRKsBF.vkDxTFSFOo122628.OptinActivity$OptinDialog$1.onClick(Landroid/view/View;)V",
          "target": "invokevirtual \u003c Application, Ljava/lang/reflect/Method, invoke(Ljava/lang/Object;[Ljava/lang/Object;)Ljava/lang/Object; \u003e@132",
          "type": "ui",
          "activities": [
            "com.bestcoolfungames.antsmasher.InitialView"
          ],
          "listener": "com.jjokgRKsBF.vkDxTFSFOo122628.OptinActivity$OptinDialog$1",
          "listenerMethod": "onClick",
          "uiType": "onClick",
          "constraintsFile": "constraints30_0.py",
          "variables": {},
          "stringMap": {},
          "strings": {}
        }
      ]
    },
    "31": {
      "startMethod": "com.jjokgRKsBF.vkDxTFSFOo122628.OptinActivity$OptinDialog$1.onClick(Landroid/view/View;)V",
      "targetMethod": "java.net.URL.openConnection()Ljava/net/URLConnection;",
      "eventChain": [
        {
          "start": "com.jjokgRKsBF.vkDxTFSFOo122628.OptinActivity.onCreate(Landroid/os/Bundle;)V",
          "target": "invokevirtual \u003c Application, Landroid/widget/TextView, setOnClickListener(Landroid/view/View$OnClickListener;)V \u003e@1005",
          "type": "activity",
          "component": "com.jjokgRKsBF.vkDxTFSFOo122628.OptinActivity"
        },
        {
          "start": "com.jjokgRKsBF.vkDxTFSFOo122628.OptinActivity$OptinDialog$1.onClick(Landroid/view/View;)V",
          "target": "invokevirtual \u003c Application, Ljava/net/URL, openConnection()Ljava/net/URLConnection; \u003e@24",
          "type": "ui",
          "activities": [
            "com.bestcoolfungames.antsmasher.InitialView"
          ],
          "listener": "com.jjokgRKsBF.vkDxTFSFOo122628.OptinActivity$OptinDialog$1",
          "listenerMethod": "onClick",
          "uiType": "onClick",
          "constraintsFile": "constraints31_0.py",
          "variables": {},
          "stringMap": {},
          "strings": {}
        }
      ]
    },
    "32": {
      "startMethod": "com.bestcoolfungames.antsmasher.Menu$3.onClick(Landroid/view/View;)V",
      "targetMethod": "org.apache.http.impl.client.AbstractHttpClient.execute(Lorg/apache/http/client/methods/HttpUriRequest;)Lorg/apache/http/HttpResponse;",
      "eventChain": [
        {
          "start": "com.bestcoolfungames.antsmasher.Menu.onCreate(Landroid/os/Bundle;)V",
          "target": "invokevirtual \u003c Application, Landroid/widget/Button, setOnClickListener(Landroid/view/View$OnClickListener;)V \u003e@842",
          "type": "activity",
          "component": "com.bestcoolfungames.antsmasher.Menu",
          "constraintsFile": "constraints32_0.py",
          "variables": {
            "SharedPreferences\u003cNoAds\u003e": "IAAv0",
            "SharedPreferences\u003cMaxLifes\u003e": "IAAv4",
            "SharedPreferences\u003cProtection\u003e": "IAAv3",
            "SharedPreferences\u003cFunMode\u003e": "IAAv2",
            "SharedPreferences\u003cKidsMode\u003e": "IAAv1"
          },
          "stringMap": {},
          "strings": {}
        },
        {
          "start": "com.bestcoolfungames.antsmasher.InitialView.onCreate(Landroid/os/Bundle;)V",
          "target": "PC@33",
          "type": "activity",
          "component": "com.bestcoolfungames.antsmasher.InitialView",
          "constraintsFile": "constraints32_1.py",
          "variables": {},
          "stringMap": {},
          "strings": {
            "IAAv4": ""
          }
        },
        {
          "start": "com.bestcoolfungames.antsmasher.Menu$3.onClick(Landroid/view/View;)V",
          "target": "invokevirtual \u003c Application, Lorg/apache/http/impl/client/AbstractHttpClient, execute(Lorg/apache/http/client/methods/HttpUriRequest;)Lorg/apache/http/HttpResponse; \u003e@10",
          "type": "ui",
          "activities": [
            "com.bestcoolfungames.antsmasher.Menu"
          ],
          "listener": "com.bestcoolfungames.antsmasher.Menu$3",
          "listenerMethod": "onClick",
          "uiType": "onClick",
          "constraintsFile": "constraints32_2.py",
          "variables": {},
          "stringMap": {},
          "strings": {
            "IAAv4": ""
          }
        }
      ]
    },
    "33": {
      "startMethod": "com.jjokgRKsBF.vkDxTFSFOo122628.OptinActivity$OptinDialog$2.onClick(Landroid/view/View;)V",
      "targetMethod": "java.net.URL.openConnection()Ljava/net/URLConnection;",
      "eventChain": [
        {
          "start": "com.jjokgRKsBF.vkDxTFSFOo122628.OptinActivity.onCreate(Landroid/os/Bundle;)V",
          "target": "invokevirtual \u003c Application, Landroid/widget/Button, setOnClickListener(Landroid/view/View$OnClickListener;)V \u003e@1029",
          "type": "activity",
          "component": "com.jjokgRKsBF.vkDxTFSFOo122628.OptinActivity"
        },
        {
          "start": "com.jjokgRKsBF.vkDxTFSFOo122628.OptinActivity$OptinDialog$2.onClick(Landroid/view/View;)V",
          "target": "invokevirtual \u003c Application, Ljava/net/URL, openConnection()Ljava/net/URLConnection; \u003e@21",
          "type": "ui",
          "activities": [
            "com.bestcoolfungames.antsmasher.InitialView"
          ],
          "listener": "com.jjokgRKsBF.vkDxTFSFOo122628.OptinActivity$OptinDialog$2",
          "listenerMethod": "onClick",
          "uiType": "onClick",
          "constraintsFile": "constraints33_0.py",
          "variables": {},
          "stringMap": {},
          "strings": {}
        }
      ]
    },
    "34": {
      "startMethod": "com.jjokgRKsBF.vkDxTFSFOo122628.OptinActivity$OptinDialog$2.onClick(Landroid/view/View;)V",
      "targetMethod": "java.net.URL.openConnection()Ljava/net/URLConnection;",
      "eventChain": [
        {
          "start": "com.jjokgRKsBF.vkDxTFSFOo122628.OptinActivity.onCreate(Landroid/os/Bundle;)V",
          "target": "invokevirtual \u003c Application, Landroid/widget/Button, setOnClickListener(Landroid/view/View$OnClickListener;)V \u003e@1029",
          "type": "activity",
          "component": "com.jjokgRKsBF.vkDxTFSFOo122628.OptinActivity"
        },
        {
          "start": "com.jjokgRKsBF.vkDxTFSFOo122628.OptinActivity$OptinDialog$2.onClick(Landroid/view/View;)V",
          "target": "invokevirtual \u003c Application, Ljava/net/URL, openConnection()Ljava/net/URLConnection; \u003e@24",
          "type": "ui",
          "activities": [
            "com.bestcoolfungames.antsmasher.InitialView"
          ],
          "listener": "com.jjokgRKsBF.vkDxTFSFOo122628.OptinActivity$OptinDialog$2",
          "listenerMethod": "onClick",
          "uiType": "onClick",
          "constraintsFile": "constraints34_0.py",
          "variables": {},
          "stringMap": {},
          "strings": {}
        }
      ]
    },
    "35": {
      "startMethod": "com.jjokgRKsBF.vkDxTFSFOo122628.OptinActivity$OptinDialog$2.onClick(Landroid/view/View;)V",
      "targetMethod": "org.apache.http.impl.client.DefaultHttpClient.execute(Lorg/apache/http/client/methods/HttpUriRequest;)Lorg/apache/http/HttpResponse;",
      "eventChain": [
        {
          "start": "com.jjokgRKsBF.vkDxTFSFOo122628.OptinActivity.onCreate(Landroid/os/Bundle;)V",
          "target": "invokevirtual \u003c Application, Landroid/widget/Button, setOnClickListener(Landroid/view/View$OnClickListener;)V \u003e@1029",
          "type": "activity",
          "component": "com.jjokgRKsBF.vkDxTFSFOo122628.OptinActivity"
        },
        {
          "start": "com.jjokgRKsBF.vkDxTFSFOo122628.OptinActivity$OptinDialog$2.onClick(Landroid/view/View;)V",
          "target": "invokevirtual \u003c Application, Lorg/apache/http/impl/client/DefaultHttpClient, execute(Lorg/apache/http/client/methods/HttpUriRequest;)Lorg/apache/http/HttpResponse; \u003e@145",
          "type": "ui",
          "activities": [
            "com.bestcoolfungames.antsmasher.InitialView"
          ],
          "listener": "com.jjokgRKsBF.vkDxTFSFOo122628.OptinActivity$OptinDialog$2",
          "listenerMethod": "onClick",
          "uiType": "onClick",
          "constraintsFile": "constraints35_0.py",
          "variables": {},
          "stringMap": {},
          "strings": {}
        }
      ]
    },
    "36": {
      "startMethod": "com.jjokgRKsBF.vkDxTFSFOo122628.OptinActivity$OptinDialog$2.onClick(Landroid/view/View;)V",
      "targetMethod": "java.lang.reflect.Method.invoke(Ljava/lang/Object;[Ljava/lang/Object;)Ljava/lang/Object;",
      "eventChain": [
        {
          "start": "com.jjokgRKsBF.vkDxTFSFOo122628.OptinActivity.onCreate(Landroid/os/Bundle;)V",
          "target": "invokevirtual \u003c Application, Landroid/widget/Button, setOnClickListener(Landroid/view/View$OnClickListener;)V \u003e@1029",
          "type": "activity",
          "component": "com.jjokgRKsBF.vkDxTFSFOo122628.OptinActivity"
        },
        {
          "start": "com.jjokgRKsBF.vkDxTFSFOo122628.OptinActivity$OptinDialog$2.onClick(Landroid/view/View;)V",
          "target": "invokevirtual \u003c Application, Ljava/lang/reflect/Method, invoke(Ljava/lang/Object;[Ljava/lang/Object;)Ljava/lang/Object; \u003e@132",
          "type": "ui",
          "activities": [
            "com.bestcoolfungames.antsmasher.InitialView"
          ],
          "listener": "com.jjokgRKsBF.vkDxTFSFOo122628.OptinActivity$OptinDialog$2",
          "listenerMethod": "onClick",
          "uiType": "onClick",
          "constraintsFile": "constraints36_0.py",
          "variables": {},
          "stringMap": {},
          "strings": {}
        }
      ]
    },
    "37": {
      "startMethod": "com.bestcoolfungames.antsmasher.StoreActivity$1.onClick(Landroid/view/View;)V",
      "targetMethod": "java.lang.reflect.Method.invoke(Ljava/lang/Object;[Ljava/lang/Object;)Ljava/lang/Object;",
      "eventChain": [
        {
          "start": "com.bestcoolfungames.antsmasher.StoreActivity$1.onClick(Landroid/view/View;)V",
          "target": "PC@24",
          "type": "ui",
          "activities": [
            "com.bestcoolfungames.antsmasher.StoreActivity"
          ],
          "listener": "com.bestcoolfungames.antsmasher.StoreActivity$1",
          "listenerMethod": "onClick",
          "uiType": "onClick",
          "constraintsFile": "constraints37_0.py",
          "variables": {},
          "stringMap": {},
          "strings": {}
        },
        {
          "start": "com.bestcoolfungames.antsmasher.StoreActivity.onCreate(Landroid/os/Bundle;)V",
          "target": "",
          "type": "activity",
          "component": "com.bestcoolfungames.antsmasher.StoreActivity",
          "constraintsFile": "constraints37_1.py",
          "variables": {
            "SharedPreferences\u003cProtection\u003e": "IAAv8",
            "SharedPreferences\u003cFunMode\u003e": "IAAv6",
            "SharedPreferences\u003cMaxLifes\u003e": "IAAv5",
            "SharedPreferences\u003cKidsMode\u003e": "IAAv7",
            "SharedPreferences\u003cDeluxePack\u003e": "IAAv4",
            "SharedPreferences\u003cBabyMode\u003e": "IAAv9"
          },
          "stringMap": {},
          "strings": {}
        },
        {
          "start": "com.bestcoolfungames.antsmasher.StoreActivity$1.onClick(Landroid/view/View;)V",
          "target": "invokevirtual \u003c Application, Ljava/lang/reflect/Method, invoke(Ljava/lang/Object;[Ljava/lang/Object;)Ljava/lang/Object; \u003e@151",
          "type": "ui",
          "activities": [
            "com.bestcoolfungames.antsmasher.StoreActivity"
          ],
          "listener": "com.bestcoolfungames.antsmasher.StoreActivity$1",
          "listenerMethod": "onClick",
          "uiType": "onClick",
          "constraintsFile": "constraints37_2.py",
          "variables": {},
          "stringMap": {},
          "strings": {}
        }
      ]
    },
    "38": {
      "startMethod": "com.millennialmedia.android.MMAdView.onClick(Landroid/view/View;)V",
      "targetMethod": "java.net.URL.openConnection()Ljava/net/URLConnection;",
      "eventChain": [
        {
          "start": "com.bestcoolfungames.antsmasher.GameOver.onCreate(Landroid/os/Bundle;)V",
          "target": "invokevirtual \u003c Application, Lcom/millennialmedia/android/MMAdView, setOnClickListener(Landroid/view/View$OnClickListener;)V \u003e@122",
          "type": "activity",
          "component": "com.bestcoolfungames.antsmasher.GameOver",
          "constraintsFile": "constraints38_0.py",
          "variables": {
            "SharedPreferences\u003cPlayTimeDiscount\u003e": "IAAv2",
            "SharedPreferences\u003cNumberOfPlayedGames\u003e": "IAAv6",
            "SharedPreferences\u003cGameMode\u003e": "IAAv4",
            "SharedPreferences\u003cDeluxePack\u003e": "IAAv10",
            "\u003cCurrentDate\u003e.getTime()": "IAAv3",
            "SharedPreferences\u003cStartGameDate\u003e": "IAAv1",
            "SharedPreferences\u003cGoingTweet\u003e.valueOf().booleanValue()": "IAAv7",
            "SharedPreferences\u003cGoingFB\u003e.valueOf().booleanValue()": "IAAv8",
            "SharedPreferences\u003cTwitterToast\u003e": "IAAv5"
          },
          "stringMap": {},
          "strings": {}
        },
        {
          "start": "com.millennialmedia.android.MMAdView.onClick(Landroid/view/View;)V",
          "target": "invokevirtual \u003c Application, Ljava/net/URL, openConnection()Ljava/net/URLConnection; \u003e@52",
          "type": "ui",
          "activities": [
            "com.bestcoolfungames.antsmasher.InitialView"
          ],
          "listener": "com.millennialmedia.android.MMAdView",
          "listenerMethod": "onClick",
          "uiType": "onClick"
        }
      ]
    },
    "39": {
      "startMethod": "com.millennialmedia.android.MMAdView.onClick(Landroid/view/View;)V",
      "targetMethod": "org.apache.http.client.HttpClient.execute(Lorg/apache/http/client/methods/HttpUriRequest;)Lorg/apache/http/HttpResponse;",
      "eventChain": [
        {
          "start": "com.bestcoolfungames.antsmasher.GameOver.onCreate(Landroid/os/Bundle;)V",
          "target": "invokevirtual \u003c Application, Lcom/millennialmedia/android/MMAdView, setOnClickListener(Landroid/view/View$OnClickListener;)V \u003e@122",
          "type": "activity",
          "component": "com.bestcoolfungames.antsmasher.GameOver",
          "constraintsFile": "constraints39_0.py",
          "variables": {
            "SharedPreferences\u003cPlayTimeDiscount\u003e": "IAAv2",
            "SharedPreferences\u003cNumberOfPlayedGames\u003e": "IAAv6",
            "SharedPreferences\u003cGameMode\u003e": "IAAv4",
            "SharedPreferences\u003cDeluxePack\u003e": "IAAv10",
            "\u003cCurrentDate\u003e.getTime()": "IAAv3",
            "SharedPreferences\u003cStartGameDate\u003e": "IAAv1",
            "SharedPreferences\u003cGoingTweet\u003e.valueOf().booleanValue()": "IAAv7",
            "SharedPreferences\u003cGoingFB\u003e.valueOf().booleanValue()": "IAAv8",
            "SharedPreferences\u003cTwitterToast\u003e": "IAAv5"
          },
          "stringMap": {},
          "strings": {}
        },
        {
          "start": "com.millennialmedia.android.MMAdView.onClick(Landroid/view/View;)V",
          "target": "invokeinterface \u003c Application, Lorg/apache/http/client/HttpClient, execute(Lorg/apache/http/client/methods/HttpUriRequest;)Lorg/apache/http/HttpResponse; \u003e@41",
          "type": "ui",
          "activities": [
            "com.bestcoolfungames.antsmasher.InitialView"
          ],
          "listener": "com.millennialmedia.android.MMAdView",
          "listenerMethod": "onClick",
          "uiType": "onClick"
        }
      ]
    },
    "40": {
      "startMethod": "com.millennialmedia.android.MMAdView.onClick(Landroid/view/View;)V",
      "targetMethod": "java.net.URL.openConnection()Ljava/net/URLConnection;",
      "eventChain": [
        {
          "start": "com.bestcoolfungames.antsmasher.GameOver.onCreate(Landroid/os/Bundle;)V",
          "target": "invokevirtual \u003c Application, Lcom/millennialmedia/android/MMAdView, setOnClickListener(Landroid/view/View$OnClickListener;)V \u003e@122",
          "type": "activity",
          "component": "com.bestcoolfungames.antsmasher.GameOver",
          "constraintsFile": "constraints40_0.py",
          "variables": {
            "SharedPreferences\u003cPlayTimeDiscount\u003e": "IAAv2",
            "SharedPreferences\u003cNumberOfPlayedGames\u003e": "IAAv6",
            "SharedPreferences\u003cGameMode\u003e": "IAAv4",
            "SharedPreferences\u003cDeluxePack\u003e": "IAAv10",
            "\u003cCurrentDate\u003e.getTime()": "IAAv3",
            "SharedPreferences\u003cStartGameDate\u003e": "IAAv1",
            "SharedPreferences\u003cGoingTweet\u003e.valueOf().booleanValue()": "IAAv7",
            "SharedPreferences\u003cGoingFB\u003e.valueOf().booleanValue()": "IAAv8",
            "SharedPreferences\u003cTwitterToast\u003e": "IAAv5"
          },
          "stringMap": {},
          "strings": {}
        },
        {
          "start": "com.millennialmedia.android.MMAdView.onClick(Landroid/view/View;)V",
          "target": "invokevirtual \u003c Application, Ljava/net/URL, openConnection()Ljava/net/URLConnection; \u003e@185",
          "type": "ui",
          "activities": [
            "com.bestcoolfungames.antsmasher.InitialView"
          ],
          "listener": "com.millennialmedia.android.MMAdView",
          "listenerMethod": "onClick",
          "uiType": "onClick"
        }
      ]
    }
  }
}