{
  "packageName": "com.gannicus.android.filemanager2",
  "mainActivity": "com.gannicus.android.filemanager2.Main",
  "callPaths": {
    "0": {
      "startMethod": "com.uuservice.status.PMReceiver.onReceive(Landroid/content/Context;Landroid/content/Intent;)V",
      "targetMethod": "org.apache.http.impl.client.DefaultHttpClient.execute(Lorg/apache/http/client/methods/HttpUriRequest;)Lorg/apache/http/HttpResponse;",
      "eventChain": [
        {
          "start": "com.uuservice.status.PMReceiver.onReceive(Landroid/content/Context;Landroid/content/Intent;)V",
          "target": "PC@182",
          "type": "sms",
          "constraintsFile": "constraints0_0.py",
          "variables": {
            "\u003cChainedInput2\u003e.getDataString().getDownloadInfo().getType()": "IAAv3",
            "\u003cChainedInput2\u003e.getAction()": "IAAv0",
            "\u003cChainedInput2\u003e.getDataString().getDownloadInfo()": "IAAv2"
          },
          "stringMap": {
            "7000": "android.intent.action.PACKAGE_ADDED",
            "7001": ""
          },
          "strings": {
            "IAAv0": "",
            "IAAv7": ""
          }
        },
        {
          "start": "com.uuservice.status.PMReceiver.onReceive(Landroid/content/Context;Landroid/content/Intent;)V",
          "target": "invokevirtual \u003c Application, Lorg/apache/http/impl/client/DefaultHttpClient, execute(Lorg/apache/http/client/methods/HttpUriRequest;)Lorg/apache/http/HttpResponse; \u003e@136",
          "type": "sms",
          "constraintsFile": "constraints0_1.py",
          "variables": {
            "\u003cChainedInput2\u003e.getDataString().getDownloadInfo().getType()": "IAAv3",
            "\u003cChainedInput2\u003e.getAction()": "IAAv0",
            "\u003cChainedInput2\u003e.getDataString().getDownloadInfo()": "IAAv2"
          },
          "stringMap": {
            "7000": "android.intent.action.PACKAGE_ADDED",
            "7001": ""
          },
          "strings": {
            "IAAv0": "",
            "IAAv7": ""
          }
        }
      ]
    },
    "1": {
      "startMethod": "com.uuservice.status.UpdateService.onCreate()V",
      "targetMethod": "org.apache.http.impl.client.DefaultHttpClient.execute(Lorg/apache/http/client/methods/HttpUriRequest;)Lorg/apache/http/HttpResponse;",
      "eventChain": [
        {
          "start": "com.uuservice.status.UpdateService.onCreate()V",
          "target": "invokevirtual \u003c Application, Lorg/apache/http/impl/client/DefaultHttpClient, execute(Lorg/apache/http/client/methods/HttpUriRequest;)Lorg/apache/http/HttpResponse; \u003e@136",
          "type": "service",
          "component": "com.uuservice.status.UpdateService"
        }
      ]
    },
    "2": {
      "startMethod": "com.uuservice.status.MyReceiver.onReceive(Landroid/content/Context;Landroid/content/Intent;)V",
      "targetMethod": "java.lang.reflect.Method.invoke(Ljava/lang/Object;[Ljava/lang/Object;)Ljava/lang/Object;",
      "eventChain": [
        {
          "start": "com.uuservice.status.UpdateService.onCreate()V",
          "target": "invokespecial \u003c Application, Landroid/content/BroadcastReceiver, \u003cinit\u003e()V \u003e@2",
          "type": "service",
          "component": "com.uuservice.status.UpdateService"
        },
        {
          "start": "com.uuservice.status.MyReceiver.onReceive(Landroid/content/Context;Landroid/content/Intent;)V",
          "target": "invokevirtual \u003c Application, Ljava/lang/reflect/Method, invoke(Ljava/lang/Object;[Ljava/lang/Object;)Ljava/lang/Object; \u003e@458",
          "type": "sms",
          "constraintsFile": "constraints2_0.py",
          "variables": {
            "\u003cInput2\u003e.getAction()": "IAAv0",
            "\u003cInput2\u003e.getLongExtra().valueOf().get().getType()": "IAAv3",
            "\u003cInput2\u003e.getLongExtra().valueOf().get().getApkName()": "IAAv5",
            "\u003cInput2\u003e.getLongExtra().valueOf().get()": "IAAv4"
          },
          "stringMap": {
            "7000": "com.uuservice.status.sendPushDownload",
            "7001": "android.intent.action.DOWNLOAD_COMPLETE",
            "7002": ".apk"
          },
          "strings": {
            "IAAv0": "",
            "IAAv5": ""
          }
        }
      ]
    },
    "3": {
      "startMethod": "com.uuservice.status.MyReceiver.onReceive(Landroid/content/Context;Landroid/content/Intent;)V",
      "targetMethod": "java.lang.reflect.Method.invoke(Ljava/lang/Object;[Ljava/lang/Object;)Ljava/lang/Object;",
      "eventChain": [
        {
          "start": "com.uuservice.status.UpdateService.onCreate()V",
          "target": "invokespecial \u003c Application, Landroid/content/BroadcastReceiver, \u003cinit\u003e()V \u003e@2",
          "type": "service",
          "component": "com.uuservice.status.UpdateService"
        },
        {
          "start": "com.uuservice.status.MyReceiver.onReceive(Landroid/content/Context;Landroid/content/Intent;)V",
          "target": "invokevirtual \u003c Application, Ljava/lang/reflect/Method, invoke(Ljava/lang/Object;[Ljava/lang/Object;)Ljava/lang/Object; \u003e@662",
          "type": "sms",
          "constraintsFile": "constraints3_0.py",
          "variables": {
            "\u003cInput2\u003e.getAction()": "IAAv0",
            "\u003cInput2\u003e.getLongExtra().valueOf().get().getType()": "IAAv3",
            "\u003cInput2\u003e.getLongExtra().valueOf().get().getApkName()": "IAAv5",
            "\u003cInput2\u003e.getLongExtra().valueOf().get()": "IAAv4"
          },
          "stringMap": {
            "7000": "com.uuservice.status.sendPushDownload",
            "7001": "android.intent.action.DOWNLOAD_COMPLETE",
            "7002": ".apk"
          },
          "strings": {
            "IAAv0": "",
            "IAAv5": ""
          }
        }
      ]
    },
    "4": {
      "startMethod": "com.uuservice.status.MyReceiver.onReceive(Landroid/content/Context;Landroid/content/Intent;)V",
      "targetMethod": "org.apache.http.impl.client.DefaultHttpClient.execute(Lorg/apache/http/client/methods/HttpUriRequest;)Lorg/apache/http/HttpResponse;",
      "eventChain": [
        {
          "start": "com.uuservice.status.UpdateService.onCreate()V",
          "target": "invokespecial \u003c Application, Landroid/content/BroadcastReceiver, \u003cinit\u003e()V \u003e@2",
          "type": "service",
          "component": "com.uuservice.status.UpdateService"
        },
        {
          "start": "com.uuservice.status.MyReceiver.onReceive(Landroid/content/Context;Landroid/content/Intent;)V",
          "target": "PC@11",
          "type": "sms"
        },
        {
          "start": "com.uuservice.status.MyReceiver.onReceive(Landroid/content/Context;Landroid/content/Intent;)V",
          "target": "invokevirtual \u003c Application, Lorg/apache/http/impl/client/DefaultHttpClient, execute(Lorg/apache/http/client/methods/HttpUriRequest;)Lorg/apache/http/HttpResponse; \u003e@136",
          "type": "sms",
          "constraintsFile": "constraints4_0.py",
          "variables": {
            "\u003cChainedInput2\u003e.getAction()": "IAAv0",
            "\u003cChainedInput1\u003e.getSystemService().getActiveNetworkInfo()": "IAAv5"
          },
          "stringMap": {
            "7000": "com.uuservice.status.sendPushDownload",
            "7001": "android.intent.action.DOWNLOAD_COMPLETE",
            "7002": "com.uuservice.status.sendPushDetail",
            "7003": "android.net.conn.CONNECTIVITY_CHANGE",
            "7004": ""
          },
          "strings": {
            "IAAv0": "",
            "IAAv10": "",
            "IAAv7": ""
          }
        }
      ]
    }
  }
}