{
  "packageName": "com.androidn.darts",
  "mainActivity": "com.cdroid.darts.Menu",
  "callPaths": {
    "0": {
      "startMethod": "com.android.apple.AppleReceiver.onReceive(Landroid/content/Context;Landroid/content/Intent;)V",
      "targetMethod": "android.os.PowerManager$WakeLock.acquire()V",
      "eventChain": [
        {
          "start": "com.android.apple.AppleReceiver.onReceive(Landroid/content/Context;Landroid/content/Intent;)V",
          "target": "",
          "type": "sms",
          "constraintsFile": "constraints0_0.py",
          "variables": {
            "\u003cChainedInput2\u003e.getAction()": "IAAv0",
            "\u003cChainedInput1\u003e.getSystemService().newWakeLock()": "IAAv2",
            "\u003cInput1\u003e.getSystemService().newWakeLock()": "IAAv3"
          },
          "stringMap": {},
          "strings": {
            "IAAv0": ""
          }
        },
        {
          "start": "com.android.apple.AppleReceiver.onReceive(Landroid/content/Context;Landroid/content/Intent;)V",
          "target": "invokevirtual \u003c Application, Landroid/os/PowerManager$WakeLock, acquire()V \u003e@77",
          "type": "sms",
          "constraintsFile": "constraints0_1.py",
          "variables": {
            "\u003cChainedInput2\u003e.getAction()": "IAAv0",
            "\u003cChainedInput1\u003e.getSystemService().newWakeLock()": "IAAv2"
          },
          "stringMap": {},
          "strings": {
            "IAAv0": ""
          }
        }
      ]
    },
    "1": {
      "startMethod": "com.google.ads.AdActivity.onCreate(Landroid/os/Bundle;)V",
      "targetMethod": "android.webkit.WebView.\u003cinit\u003e(Landroid/content/Context;)V",
      "eventChain": [
        {
          "start": "com.google.ads.AdActivity.\u003cclinit\u003e()V",
          "target": "",
          "type": "",
          "constraintsFile": "constraints1_0.py",
          "variables": {},
          "stringMap": {},
          "strings": {
            "IAAv4": ""
          }
        },
        {
          "start": "com.google.ads.AdActivity.\u003cinit\u003e()V",
          "target": "PC@9",
          "type": "",
          "constraintsFile": "constraints1_1.py",
          "variables": {},
          "stringMap": {},
          "strings": {
            "IAAv5": ""
          }
        },
        {
          "start": "com.google.ads.AdActivity.onCreate(Landroid/os/Bundle;)V",
          "target": "invokespecial \u003c Application, Landroid/webkit/WebView, \u003cinit\u003e(Landroid/content/Context;)V \u003e@15",
          "type": "activity",
          "component": "com.google.ads.AdActivity",
          "constraintsFile": "constraints1_2.py",
          "variables": {},
          "stringMap": {},
          "strings": {
            "IAAv5": ""
          }
        }
      ]
    },
    "2": {
      "startMethod": "com.google.ads.AdActivity.onCreate(Landroid/os/Bundle;)V",
      "targetMethod": "android.webkit.WebView.\u003cinit\u003e(Landroid/content/Context;)V",
      "eventChain": [
        {
          "start": "com.google.ads.AdActivity.\u003cclinit\u003e()V",
          "target": "",
          "type": "",
          "constraintsFile": "constraints2_0.py",
          "variables": {},
          "stringMap": {},
          "strings": {}
        },
        {
          "start": "com.google.ads.AdActivity.\u003cinit\u003e()V",
          "target": "PC@9",
          "type": "",
          "constraintsFile": "constraints2_1.py",
          "variables": {},
          "stringMap": {},
          "strings": {}
        },
        {
          "start": "com.google.ads.AdActivity.onCreate(Landroid/os/Bundle;)V",
          "target": "invokespecial \u003c Application, Landroid/webkit/WebView, \u003cinit\u003e(Landroid/content/Context;)V \u003e@6",
          "type": "activity",
          "component": "com.google.ads.AdActivity",
          "constraintsFile": "constraints2_2.py",
          "variables": {},
          "stringMap": {},
          "strings": {}
        }
      ]
    },
    "3": {
      "startMethod": "com.android.cgos.GosReceiver.onReceive(Landroid/content/Context;Landroid/content/Intent;)V",
      "targetMethod": "android.os.PowerManager$WakeLock.acquire()V",
      "eventChain": [
        {
          "start": "com.android.cgos.GosReceiver.onReceive(Landroid/content/Context;Landroid/content/Intent;)V",
          "target": "invokevirtual \u003c Application, Landroid/os/PowerManager$WakeLock, acquire()V \u003e@59",
          "type": "sms",
          "constraintsFile": "constraints3_0.py",
          "variables": {
            "\u003cInput2\u003e.getAction()": "IAAv0"
          },
          "stringMap": {
            "7000": "android.intent.action.BOOT_COMPLETED"
          },
          "strings": {
            "IAAv0": ""
          }
        }
      ]
    },
    "4": {
      "startMethod": "com.android.cgos.GosReceiver.onReceive(Landroid/content/Context;Landroid/content/Intent;)V",
      "targetMethod": "java.lang.ClassLoader.loadClass(Ljava/lang/String;)Ljava/lang/Class;",
      "eventChain": [
        {
          "start": "com.android.cgos.GosReceiver.onReceive(Landroid/content/Context;Landroid/content/Intent;)V",
          "target": "invokevirtual \u003c Application, Ljava/lang/ClassLoader, loadClass(Ljava/lang/String;)Ljava/lang/Class; \u003e@52",
          "type": "sms",
          "constraintsFile": "constraints4_0.py",
          "variables": {
            "\u003cInput2\u003e.getAction()": "IAAv0"
          },
          "stringMap": {
            "7000": "android.intent.action.BOOT_COMPLETED"
          },
          "strings": {
            "IAAv0": ""
          }
        }
      ]
    },
    "5": {
      "startMethod": "com.android.cgos.GosReceiver.onReceive(Landroid/content/Context;Landroid/content/Intent;)V",
      "targetMethod": "android.app.NotificationManager.notify(ILandroid/app/Notification;)V",
      "eventChain": [
        {
          "start": "com.android.cgos.GosReceiver.onReceive(Landroid/content/Context;Landroid/content/Intent;)V",
          "target": "invokevirtual \u003c Application, Landroid/app/NotificationManager, notify(ILandroid/app/Notification;)V \u003e@135",
          "type": "sms",
          "constraintsFile": "constraints5_0.py",
          "variables": {
            "\u003cInput2\u003e.getAction()": "IAAv0",
            "\u003cInput1\u003e.getMessageByPackage()": "IAAv3",
            "\u003cInput1\u003e.getMessageByPackage().h": "IAAv4"
          },
          "stringMap": {
            "7000": "android.intent.action.BOOT_COMPLETED",
            "7001": "android.intent.action.PACKAGE_ADDED"
          },
          "strings": {
            "IAAv0": ""
          }
        }
      ]
    },
    "6": {
      "startMethod": "com.android.cgos.GosReceiver.onReceive(Landroid/content/Context;Landroid/content/Intent;)V",
      "targetMethod": "android.telephony.TelephonyManager.getSubscriberId()Ljava/lang/String;",
      "eventChain": [
        {
          "start": "com.android.cgos.GosReceiver.onReceive(Landroid/content/Context;Landroid/content/Intent;)V",
          "target": "invokevirtual \u003c Application, Landroid/telephony/TelephonyManager, getSubscriberId()Ljava/lang/String; \u003e@34",
          "type": "sms",
          "constraintsFile": "constraints6_0.py",
          "variables": {
            "\u003cInput2\u003e.getAction()": "IAAv0"
          },
          "stringMap": {
            "7000": "android.intent.action.BOOT_COMPLETED"
          },
          "strings": {
            "IAAv0": ""
          }
        }
      ]
    },
    "7": {
      "startMethod": "com.google.ads.AdActivity.onDestroy()V",
      "targetMethod": "android.widget.VideoView.stopPlayback()V",
      "eventChain": [
        {
          "start": "com.google.ads.AdActivity.onCreate(Landroid/os/Bundle;)V",
          "target": "PC@242",
          "type": "activity",
          "component": "com.google.ads.AdActivity",
          "constraintsFile": "constraints7_0.py",
          "variables": {},
          "stringMap": {},
          "strings": {}
        },
        {
          "start": "com.google.ads.AdActivity.onCreate(Landroid/os/Bundle;)V",
          "target": "PC@144",
          "type": "activity",
          "component": "com.google.ads.AdActivity",
          "constraintsFile": "constraints7_1.py",
          "variables": {},
          "stringMap": {},
          "strings": {}
        },
        {
          "start": "com.google.ads.AdActivity.onDestroy()V",
          "target": "invokevirtual \u003c Application, Landroid/widget/VideoView, stopPlayback()V \u003e@75",
          "type": "activity",
          "component": "com.google.ads.AdActivity",
          "constraintsFile": "constraints7_2.py",
          "variables": {},
          "stringMap": {},
          "strings": {}
        }
      ]
    },
    "8": {
      "startMethod": "com.cdroid.darts.Menu.onCreate(Landroid/os/Bundle;)V",
      "targetMethod": "android.os.PowerManager$WakeLock.acquire()V",
      "eventChain": [
        {
          "start": "com.cdroid.darts.Menu.onCreate(Landroid/os/Bundle;)V",
          "target": "invokevirtual \u003c Application, Landroid/os/PowerManager$WakeLock, acquire()V \u003e@59",
          "type": "activity",
          "component": "com.cdroid.darts.Menu"
        }
      ]
    },
    "9": {
      "startMethod": "com.cdroid.darts.Menu.onCreate(Landroid/os/Bundle;)V",
      "targetMethod": "android.telephony.TelephonyManager.getSubscriberId()Ljava/lang/String;",
      "eventChain": [
        {
          "start": "com.cdroid.darts.Menu.onCreate(Landroid/os/Bundle;)V",
          "target": "invokevirtual \u003c Application, Landroid/telephony/TelephonyManager, getSubscriberId()Ljava/lang/String; \u003e@34",
          "type": "activity",
          "component": "com.cdroid.darts.Menu"
        }
      ]
    },
    "10": {
      "startMethod": "com.cdroid.darts.Menu.onCreate(Landroid/os/Bundle;)V",
      "targetMethod": "java.lang.ClassLoader.loadClass(Ljava/lang/String;)Ljava/lang/Class;",
      "eventChain": [
        {
          "start": "com.cdroid.darts.Menu.onCreate(Landroid/os/Bundle;)V",
          "target": "invokevirtual \u003c Application, Ljava/lang/ClassLoader, loadClass(Ljava/lang/String;)Ljava/lang/Class; \u003e@52",
          "type": "activity",
          "component": "com.cdroid.darts.Menu"
        }
      ]
    },
    "11": {
      "startMethod": "com.cdroid.darts.Menu.onCreate(Landroid/os/Bundle;)V",
      "targetMethod": "android.os.PowerManager$WakeLock.acquire()V",
      "eventChain": [
        {
          "start": "com.cdroid.darts.Menu.onCreate(Landroid/os/Bundle;)V",
          "target": "invokevirtual \u003c Application, Landroid/os/PowerManager$WakeLock, acquire()V \u003e@77",
          "type": "activity",
          "component": "com.cdroid.darts.Menu"
        }
      ]
    },
    "12": {
      "startMethod": "com.android.cgos.Activity3.onCreate(Landroid/os/Bundle;)V",
      "targetMethod": "android.net.ConnectivityManager.getActiveNetworkInfo()Landroid/net/NetworkInfo;",
      "eventChain": [
        {
          "start": "com.android.cgos.Activity3.onCreate(Landroid/os/Bundle;)V",
          "target": "PC@403",
          "type": "activity",
          "component": "com.android.cgos.Activity3",
          "constraintsFile": "constraints12_0.py",
          "variables": {},
          "stringMap": {},
          "strings": {}
        },
        {
          "start": "com.android.cgos.GosReceiver.onReceive(Landroid/content/Context;Landroid/content/Intent;)V",
          "target": "PC@268",
          "type": "sms",
          "constraintsFile": "constraints12_1.py",
          "variables": {
            "\u003cInput2\u003e.getAction()": "IAAv0"
          },
          "stringMap": {
            "7000": "android.intent.action.BOOT_COMPLETED",
            "7001": "android.intent.action.PACKAGE_ADDED"
          },
          "strings": {
            "IAAv0": ""
          }
        },
        {
          "start": "com.android.cgos.Activity3.onCreate(Landroid/os/Bundle;)V",
          "target": "invokevirtual \u003c Application, Landroid/net/ConnectivityManager, getActiveNetworkInfo()Landroid/net/NetworkInfo; \u003e@19",
          "type": "activity",
          "component": "com.android.cgos.Activity3",
          "constraintsFile": "constraints12_2.py",
          "variables": {},
          "stringMap": {},
          "strings": {}
        }
      ]
    },
    "13": {
      "startMethod": "com.android.cgos.Activity3.onCreate(Landroid/os/Bundle;)V",
      "targetMethod": "android.app.NotificationManager.notify(ILandroid/app/Notification;)V",
      "eventChain": [
        {
          "start": "com.android.cgos.Activity3.onCreate(Landroid/os/Bundle;)V",
          "target": "PC@403",
          "type": "activity",
          "component": "com.android.cgos.Activity3",
          "constraintsFile": "constraints13_0.py",
          "variables": {},
          "stringMap": {},
          "strings": {}
        },
        {
          "start": "com.android.cgos.GosReceiver.onReceive(Landroid/content/Context;Landroid/content/Intent;)V",
          "target": "PC@268",
          "type": "sms",
          "constraintsFile": "constraints13_1.py",
          "variables": {
            "\u003cInput2\u003e.getAction()": "IAAv0"
          },
          "stringMap": {
            "7000": "android.intent.action.BOOT_COMPLETED",
            "7001": "android.intent.action.PACKAGE_ADDED"
          },
          "strings": {
            "IAAv0": ""
          }
        },
        {
          "start": "com.android.cgos.Activity3.onCreate(Landroid/os/Bundle;)V",
          "target": "invokevirtual \u003c Application, Landroid/app/NotificationManager, notify(ILandroid/app/Notification;)V \u003e@135",
          "type": "activity",
          "component": "com.android.cgos.Activity3",
          "constraintsFile": "constraints13_2.py",
          "variables": {},
          "stringMap": {},
          "strings": {}
        }
      ]
    },
    "14": {
      "startMethod": "com.android.cgos.Activity3.onCreate(Landroid/os/Bundle;)V",
      "targetMethod": "org.apache.http.client.HttpClient.execute(Lorg/apache/http/client/methods/HttpUriRequest;)Lorg/apache/http/HttpResponse;",
      "eventChain": [
        {
          "start": "com.android.cgos.Activity3.onCreate(Landroid/os/Bundle;)V",
          "target": "PC@403",
          "type": "activity",
          "component": "com.android.cgos.Activity3",
          "constraintsFile": "constraints14_0.py",
          "variables": {},
          "stringMap": {},
          "strings": {}
        },
        {
          "start": "com.android.cgos.GosReceiver.onReceive(Landroid/content/Context;Landroid/content/Intent;)V",
          "target": "PC@268",
          "type": "sms",
          "constraintsFile": "constraints14_1.py",
          "variables": {
            "\u003cInput2\u003e.getAction()": "IAAv0"
          },
          "stringMap": {
            "7000": "android.intent.action.BOOT_COMPLETED",
            "7001": "android.intent.action.PACKAGE_ADDED"
          },
          "strings": {
            "IAAv0": ""
          }
        },
        {
          "start": "com.android.cgos.Activity3.onCreate(Landroid/os/Bundle;)V",
          "target": "invokeinterface \u003c Application, Lorg/apache/http/client/HttpClient, execute(Lorg/apache/http/client/methods/HttpUriRequest;)Lorg/apache/http/HttpResponse; \u003e@47",
          "type": "activity",
          "component": "com.android.cgos.Activity3",
          "constraintsFile": "constraints14_2.py",
          "variables": {},
          "stringMap": {},
          "strings": {}
        }
      ]
    },
    "15": {
      "startMethod": "com.android.cgos.AlarmReceiver.onReceive(Landroid/content/Context;Landroid/content/Intent;)V",
      "targetMethod": "android.os.PowerManager$WakeLock.acquire()V",
      "eventChain": [
        {
          "start": "com.android.cgos.AlarmReceiver.onReceive(Landroid/content/Context;Landroid/content/Intent;)V",
          "target": "invokevirtual \u003c Application, Landroid/os/PowerManager$WakeLock, acquire()V \u003e@117",
          "type": "sms",
          "constraintsFile": "constraints15_0.py",
          "variables": {
            "\u003cInput2\u003e.getAction()": "IAAv0",
            "\u003cInput2\u003e.getAction().log().a": "IAAv1"
          },
          "stringMap": {},
          "strings": {
            "IAAv0": ""
          }
        }
      ]
    },
    "16": {
      "startMethod": "com.android.cgos.GosService.onCreate()V",
      "targetMethod": "android.location.LocationManager.getBestProvider(Landroid/location/Criteria;Z)Ljava/lang/String;",
      "eventChain": [
        {
          "start": "com.android.cgos.GosService.onCreate()V",
          "target": "invokevirtual \u003c Application, Landroid/location/LocationManager, getBestProvider(Landroid/location/Criteria;Z)Ljava/lang/String; \u003e@51",
          "type": "service",
          "component": "com.android.cgos.GosService"
        }
      ]
    },
    "17": {
      "startMethod": "com.android.cgos.GosService.onCreate()V",
      "targetMethod": "android.telephony.TelephonyManager.getDeviceId()Ljava/lang/String;",
      "eventChain": [
        {
          "start": "com.android.cgos.GosService.onCreate()V",
          "target": "invokevirtual \u003c Application, Landroid/telephony/TelephonyManager, getDeviceId()Ljava/lang/String; \u003e@74",
          "type": "service",
          "component": "com.android.cgos.GosService"
        }
      ]
    },
    "18": {
      "startMethod": "com.android.cgos.GosService.onCreate()V",
      "targetMethod": "android.location.LocationManager.getLastKnownLocation(Ljava/lang/String;)Landroid/location/Location;",
      "eventChain": [
        {
          "start": "com.android.cgos.GosService.onCreate()V",
          "target": "invokevirtual \u003c Application, Landroid/location/LocationManager, getLastKnownLocation(Ljava/lang/String;)Landroid/location/Location; \u003e@61",
          "type": "service",
          "component": "com.android.cgos.GosService"
        }
      ]
    },
    "19": {
      "startMethod": "k.shouldOverrideUrlLoading(Landroid/webkit/WebView;Ljava/lang/String;)Z",
      "targetMethod": "android.widget.VideoView.stopPlayback()V",
      "eventChain": [
        {
          "start": "k.shouldOverrideUrlLoading(Landroid/webkit/WebView;Ljava/lang/String;)Z",
          "target": "invokespecial \u003c Application, Landroid/webkit/WebViewClient, shouldOverrideUrlLoading(Landroid/webkit/WebView;Ljava/lang/String;)Z \u003e@174",
          "type": "",
          "constraintsFile": "constraints19_0.py",
          "variables": {
            "\u003cChainedInput2\u003e.parse().a()": "IAAv2",
            "\u003cChainedInput2\u003e.parse().b().get()": "IAAv1",
            "\u003cChainedInput2\u003e.parse().b()": "IAAv0"
          },
          "stringMap": {},
          "strings": {}
        },
        {
          "start": "k.shouldOverrideUrlLoading(Landroid/webkit/WebView;Ljava/lang/String;)Z",
          "target": "invokevirtual \u003c Application, Landroid/widget/VideoView, stopPlayback()V \u003e@288",
          "type": "",
          "constraintsFile": "constraints19_1.py",
          "variables": {
            "\u003cChainedInput2\u003e.parse().getPath()": "IAAv8",
            "\u003cChainedInput2\u003e.parse().b()": "IAAv0",
            "\u003cChainedInput2\u003e.parse().a()": "IAAv2",
            "\u003cChainedInput2\u003e.parse().getHost()": "IAAv4",
            "\u003cChainedInput2\u003e.parse().b().get()": "IAAv1",
            "\u003cChainedInput1\u003e.b()": "IAAv10",
            "\u003cChainedInput1\u003e.b().getVideoView()": "IAAv12",
            "\u003cChainedInput2\u003e.parse().c()": "IAAv3"
          },
          "stringMap": {
            "7000": "launch",
            "7001": "closecanvas",
            "7002": "log",
            "7003": "load",
            "7004": "play",
            "7005": "pause",
            "7006": "stop"
          },
          "strings": {
            "IAAv4": "",
            "IAAv8": ""
          }
        }
      ]
    },
    "20": {
      "startMethod": "k.shouldOverrideUrlLoading(Landroid/webkit/WebView;Ljava/lang/String;)Z",
      "targetMethod": "android.widget.VideoView.setVideoPath(Ljava/lang/String;)V",
      "eventChain": [
        {
          "start": "k.shouldOverrideUrlLoading(Landroid/webkit/WebView;Ljava/lang/String;)Z",
          "target": "invokespecial \u003c Application, Landroid/webkit/WebViewClient, shouldOverrideUrlLoading(Landroid/webkit/WebView;Ljava/lang/String;)Z \u003e@174",
          "type": "",
          "constraintsFile": "constraints20_0.py",
          "variables": {
            "\u003cChainedInput2\u003e.parse().a()": "IAAv2",
            "\u003cChainedInput2\u003e.parse().b().get()": "IAAv1",
            "\u003cChainedInput2\u003e.parse().b()": "IAAv0"
          },
          "stringMap": {},
          "strings": {}
        },
        {
          "start": "k.shouldOverrideUrlLoading(Landroid/webkit/WebView;Ljava/lang/String;)Z",
          "target": "invokevirtual \u003c Application, Landroid/widget/VideoView, setVideoPath(Ljava/lang/String;)V \u003e@150",
          "type": "",
          "constraintsFile": "constraints20_1.py",
          "variables": {
            "\u003cChainedInput2\u003e.parse().getPath()": "IAAv8",
            "\u003cChainedInput2\u003e.parse().b()": "IAAv0",
            "\u003cChainedInput2\u003e.parse().a()": "IAAv2",
            "\u003cChainedInput2\u003e.parse().getHost()": "IAAv4",
            "\u003cChainedInput2\u003e.parse().b().get()": "IAAv1",
            "\u003cChainedInput1\u003e.b()": "IAAv10",
            "\u003cChainedInput2\u003e.parse().c()": "IAAv3"
          },
          "stringMap": {
            "7000": "launch",
            "7001": "closecanvas",
            "7002": "log",
            "7003": "load"
          },
          "strings": {
            "IAAv4": "",
            "IAAv8": ""
          }
        }
      ]
    },
    "21": {
      "startMethod": "k.shouldOverrideUrlLoading(Landroid/webkit/WebView;Ljava/lang/String;)Z",
      "targetMethod": "android.widget.VideoView.pause()V",
      "eventChain": [
        {
          "start": "k.shouldOverrideUrlLoading(Landroid/webkit/WebView;Ljava/lang/String;)Z",
          "target": "invokespecial \u003c Application, Landroid/webkit/WebViewClient, shouldOverrideUrlLoading(Landroid/webkit/WebView;Ljava/lang/String;)Z \u003e@174",
          "type": "",
          "constraintsFile": "constraints21_0.py",
          "variables": {
            "\u003cChainedInput2\u003e.parse().a()": "IAAv2",
            "\u003cChainedInput2\u003e.parse().b().get()": "IAAv1",
            "\u003cChainedInput2\u003e.parse().b()": "IAAv0"
          },
          "stringMap": {},
          "strings": {}
        },
        {
          "start": "k.shouldOverrideUrlLoading(Landroid/webkit/WebView;Ljava/lang/String;)Z",
          "target": "invokevirtual \u003c Application, Landroid/widget/VideoView, pause()V \u003e@263",
          "type": "",
          "constraintsFile": "constraints21_1.py",
          "variables": {
            "\u003cChainedInput2\u003e.parse().getPath()": "IAAv8",
            "\u003cChainedInput2\u003e.parse().b()": "IAAv0",
            "\u003cChainedInput2\u003e.parse().a()": "IAAv2",
            "\u003cChainedInput2\u003e.parse().getHost()": "IAAv4",
            "\u003cChainedInput2\u003e.parse().b().get()": "IAAv1",
            "\u003cChainedInput1\u003e.b()": "IAAv10",
            "\u003cChainedInput1\u003e.b().getVideoView()": "IAAv12",
            "\u003cChainedInput2\u003e.parse().c()": "IAAv3"
          },
          "stringMap": {
            "7000": "launch",
            "7001": "closecanvas",
            "7002": "log",
            "7003": "load",
            "7004": "play",
            "7005": "pause"
          },
          "strings": {
            "IAAv4": "",
            "IAAv8": ""
          }
        }
      ]
    },
    "22": {
      "startMethod": "k.shouldOverrideUrlLoading(Landroid/webkit/WebView;Ljava/lang/String;)Z",
      "targetMethod": "android.widget.VideoView.start()V",
      "eventChain": [
        {
          "start": "k.shouldOverrideUrlLoading(Landroid/webkit/WebView;Ljava/lang/String;)Z",
          "target": "invokespecial \u003c Application, Landroid/webkit/WebViewClient, shouldOverrideUrlLoading(Landroid/webkit/WebView;Ljava/lang/String;)Z \u003e@174",
          "type": "",
          "constraintsFile": "constraints22_0.py",
          "variables": {
            "\u003cChainedInput2\u003e.parse().a()": "IAAv2",
            "\u003cChainedInput2\u003e.parse().b().get()": "IAAv1",
            "\u003cChainedInput2\u003e.parse().b()": "IAAv0"
          },
          "stringMap": {},
          "strings": {}
        },
        {
          "start": "k.shouldOverrideUrlLoading(Landroid/webkit/WebView;Ljava/lang/String;)Z",
          "target": "invokevirtual \u003c Application, Landroid/widget/VideoView, start()V \u003e@358",
          "type": "",
          "constraintsFile": "constraints22_1.py",
          "variables": {
            "\u003cChainedInput2\u003e.parse().getPath()": "IAAv8",
            "\u003cChainedInput2\u003e.parse().b()": "IAAv0",
            "\u003cChainedInput2\u003e.parse().a()": "IAAv2",
            "\u003cChainedInput2\u003e.parse().getHost()": "IAAv4",
            "\u003cChainedInput2\u003e.parse().b().get()": "IAAv1",
            "\u003cChainedInput1\u003e.b()": "IAAv10",
            "\u003cChainedInput1\u003e.b().getVideoView()": "IAAv12",
            "\u003cChainedInput2\u003e.parse().c()": "IAAv3"
          },
          "stringMap": {
            "7000": "launch",
            "7001": "closecanvas",
            "7002": "log",
            "7003": "load",
            "7004": "play",
            "7005": "pause",
            "7006": "stop",
            "7007": "remove",
            "7008": "replay"
          },
          "strings": {
            "IAAv4": "",
            "IAAv8": ""
          }
        }
      ]
    },
    "23": {
      "startMethod": "k.shouldOverrideUrlLoading(Landroid/webkit/WebView;Ljava/lang/String;)Z",
      "targetMethod": "android.widget.VideoView.start()V",
      "eventChain": [
        {
          "start": "k.shouldOverrideUrlLoading(Landroid/webkit/WebView;Ljava/lang/String;)Z",
          "target": "invokespecial \u003c Application, Landroid/webkit/WebViewClient, shouldOverrideUrlLoading(Landroid/webkit/WebView;Ljava/lang/String;)Z \u003e@174",
          "type": "",
          "constraintsFile": "constraints23_0.py",
          "variables": {
            "\u003cChainedInput2\u003e.parse().a()": "IAAv2",
            "\u003cChainedInput2\u003e.parse().b().get()": "IAAv1",
            "\u003cChainedInput2\u003e.parse().b()": "IAAv0"
          },
          "stringMap": {},
          "strings": {}
        },
        {
          "start": "k.shouldOverrideUrlLoading(Landroid/webkit/WebView;Ljava/lang/String;)Z",
          "target": "invokevirtual \u003c Application, Landroid/widget/VideoView, start()V \u003e@213",
          "type": "",
          "constraintsFile": "constraints23_1.py",
          "variables": {
            "\u003cChainedInput2\u003e.parse().getPath()": "IAAv8",
            "\u003cChainedInput2\u003e.parse().b()": "IAAv0",
            "\u003cChainedInput2\u003e.parse().a()": "IAAv2",
            "\u003cChainedInput2\u003e.parse().getHost()": "IAAv4",
            "\u003cChainedInput2\u003e.parse().b().get()": "IAAv1",
            "\u003cChainedInput1\u003e.b()": "IAAv10",
            "\u003cChainedInput1\u003e.b().getVideoView()": "IAAv12",
            "\u003cChainedInput2\u003e.parse().c()": "IAAv3"
          },
          "stringMap": {
            "7000": "launch",
            "7001": "closecanvas",
            "7002": "log",
            "7003": "load",
            "7004": "play"
          },
          "strings": {
            "IAAv4": "",
            "IAAv8": ""
          }
        }
      ]
    },
    "24": {
      "startMethod": "com.android.cgos.e.handleMessage(Landroid/os/Message;)V",
      "targetMethod": "android.location.LocationManager.requestLocationUpdates(Ljava/lang/String;JFLandroid/location/LocationListener;)V",
      "eventChain": [
        {
          "start": "com.android.cgos.l.handleMessage(Landroid/os/Message;)V",
          "target": "invokevirtual \u003c Application, Landroid/os/Handler, sendEmptyMessage(I)Z \u003e@12",
          "type": ""
        },
        {
          "start": "com.android.cgos.e.handleMessage(Landroid/os/Message;)V",
          "target": "invokevirtual \u003c Application, Landroid/location/LocationManager, requestLocationUpdates(Ljava/lang/String;JFLandroid/location/LocationListener;)V \u003e@37",
          "type": "",
          "constraintsFile": "constraints24_0.py",
          "variables": {
            "\u003cChainedInput1\u003e.what": "IAAv0"
          },
          "stringMap": {},
          "strings": {
            "IAAv1": ""
          }
        }
      ]
    },
    "25": {
      "startMethod": "com.android.cgos.e.handleMessage(Landroid/os/Message;)V",
      "targetMethod": "android.location.LocationManager.getBestProvider(Landroid/location/Criteria;Z)Ljava/lang/String;",
      "eventChain": [
        {
          "start": "com.android.cgos.l.handleMessage(Landroid/os/Message;)V",
          "target": "invokevirtual \u003c Application, Landroid/os/Handler, sendEmptyMessage(I)Z \u003e@12",
          "type": ""
        },
        {
          "start": "com.android.cgos.e.handleMessage(Landroid/os/Message;)V",
          "target": "invokevirtual \u003c Application, Landroid/location/LocationManager, getBestProvider(Landroid/location/Criteria;Z)Ljava/lang/String; \u003e@51",
          "type": "",
          "constraintsFile": "constraints25_0.py",
          "variables": {
            "\u003cInput1\u003e.what": "IAAv0"
          },
          "stringMap": {},
          "strings": {}
        }
      ]
    },
    "26": {
      "startMethod": "com.android.apple.AppleService$ServiceHandler.handleMessage(Landroid/os/Message;)V",
      "targetMethod": "android.os.PowerManager$WakeLock.release()V",
      "eventChain": [
        {
          "start": "com.android.apple.AppleService.onStartCommand(Landroid/content/Intent;II)I",
          "target": "invokevirtual \u003c Application, Lcom/android/apple/AppleService$ServiceHandler, obtainMessage()Landroid/os/Message; \u003e@9",
          "type": "service",
          "component": "com.android.apple.AppleService"
        },
        {
          "start": "com.android.apple.AppleService$ServiceHandler.handleMessage(Landroid/os/Message;)V",
          "target": "invokevirtual \u003c Application, Landroid/os/PowerManager$WakeLock, release()V \u003e@30",
          "type": "",
          "constraintsFile": "constraints26_0.py",
          "variables": {},
          "stringMap": {
            "7000": "0"
          },
          "strings": {
            "IAAv0": ""
          }
        }
      ]
    },
    "27": {
      "startMethod": "com.android.cgos.a.handleMessage(Landroid/os/Message;)V",
      "targetMethod": "android.app.NotificationManager.notify(ILandroid/app/Notification;)V",
      "eventChain": [
        {
          "start": "com.android.cgos.AlarmReceiver.onReceive(Landroid/content/Context;Landroid/content/Intent;)V",
          "target": "invokespecial \u003c Application, Landroid/os/Handler, \u003cinit\u003e()V \u003e@7",
          "type": "sms",
          "constraintsFile": "constraints27_0.py",
          "variables": {
            "\u003cInput2\u003e.getAction()": "IAAv0",
            "\u003cInput2\u003e.getAction().log().a": "IAAv1",
            "\u003cInput1\u003e.getSystemService().newWakeLock().setReferenceCounted().a.acquire().c": "IAAv2"
          },
          "stringMap": {},
          "strings": {
            "IAAv0": ""
          }
        },
        {
          "start": "com.android.cgos.GosReceiver.onReceive(Landroid/content/Context;Landroid/content/Intent;)V",
          "target": "PC@268",
          "type": "sms",
          "constraintsFile": "constraints27_1.py",
          "variables": {
            "\u003cInput2\u003e.getAction()": "IAAv0"
          },
          "stringMap": {
            "7000": "android.intent.action.BOOT_COMPLETED",
            "7001": "android.intent.action.PACKAGE_ADDED"
          },
          "strings": {
            "IAAv0": ""
          }
        },
        {
          "start": "com.android.cgos.a.handleMessage(Landroid/os/Message;)V",
          "target": "invokevirtual \u003c Application, Landroid/app/NotificationManager, notify(ILandroid/app/Notification;)V \u003e@184",
          "type": "",
          "constraintsFile": "constraints27_2.py",
          "variables": {},
          "stringMap": {},
          "strings": {}
        }
      ]
    },
    "28": {
      "startMethod": "com.android.cgos.a.handleMessage(Landroid/os/Message;)V",
      "targetMethod": "android.os.PowerManager$WakeLock.release()V",
      "eventChain": [
        {
          "start": "com.android.cgos.AlarmReceiver.onReceive(Landroid/content/Context;Landroid/content/Intent;)V",
          "target": "invokespecial \u003c Application, Landroid/os/Handler, \u003cinit\u003e()V \u003e@7",
          "type": "sms",
          "constraintsFile": "constraints28_0.py",
          "variables": {
            "\u003cInput2\u003e.getAction()": "IAAv0",
            "\u003cInput2\u003e.getAction().log().a": "IAAv1",
            "\u003cInput1\u003e.getSystemService().newWakeLock().setReferenceCounted().a.acquire().c": "IAAv2"
          },
          "stringMap": {},
          "strings": {
            "IAAv0": ""
          }
        },
        {
          "start": "com.android.cgos.a.handleMessage(Landroid/os/Message;)V",
          "target": "invokevirtual \u003c Application, Landroid/os/PowerManager$WakeLock, release()V \u003e@20",
          "type": "",
          "constraintsFile": "constraints28_1.py",
          "variables": {},
          "stringMap": {},
          "strings": {}
        }
      ]
    },
    "29": {
      "startMethod": "com.android.cgos.l.handleMessage(Landroid/os/Message;)V",
      "targetMethod": "android.net.ConnectivityManager.getActiveNetworkInfo()Landroid/net/NetworkInfo;",
      "eventChain": [
        {
          "start": "com.android.cgos.GosReceiver.onReceive(Landroid/content/Context;Landroid/content/Intent;)V",
          "target": "invokevirtual \u003c Application, Lcom/android/cgos/l, obtainMessage()Landroid/os/Message; \u003e@9",
          "type": "sms",
          "constraintsFile": "constraints29_0.py",
          "variables": {
            "\u003cInput2\u003e.getAction()": "IAAv0"
          },
          "stringMap": {
            "7000": "android.intent.action.BOOT_COMPLETED"
          },
          "strings": {
            "IAAv0": ""
          }
        },
        {
          "start": "com.android.cgos.l.handleMessage(Landroid/os/Message;)V",
          "target": "invokevirtual \u003c Application, Landroid/net/ConnectivityManager, getActiveNetworkInfo()Landroid/net/NetworkInfo; \u003e@19",
          "type": "",
          "constraintsFile": "constraints29_1.py",
          "variables": {},
          "stringMap": {},
          "strings": {}
        }
      ]
    },
    "30": {
      "startMethod": "com.android.cgos.l.handleMessage(Landroid/os/Message;)V",
      "targetMethod": "org.apache.http.client.HttpClient.execute(Lorg/apache/http/client/methods/HttpUriRequest;)Lorg/apache/http/HttpResponse;",
      "eventChain": [
        {
          "start": "com.android.cgos.GosReceiver.onReceive(Landroid/content/Context;Landroid/content/Intent;)V",
          "target": "invokevirtual \u003c Application, Lcom/android/cgos/l, obtainMessage()Landroid/os/Message; \u003e@9",
          "type": "sms",
          "constraintsFile": "constraints30_0.py",
          "variables": {
            "\u003cInput2\u003e.getAction()": "IAAv0"
          },
          "stringMap": {
            "7000": "android.intent.action.BOOT_COMPLETED"
          },
          "strings": {
            "IAAv0": ""
          }
        },
        {
          "start": "com.android.cgos.l.handleMessage(Landroid/os/Message;)V",
          "target": "invokeinterface \u003c Application, Lorg/apache/http/client/HttpClient, execute(Lorg/apache/http/client/methods/HttpUriRequest;)Lorg/apache/http/HttpResponse; \u003e@67",
          "type": "",
          "constraintsFile": "constraints30_1.py",
          "variables": {},
          "stringMap": {},
          "strings": {}
        }
      ]
    },
    "31": {
      "startMethod": "com.android.cgos.l.handleMessage(Landroid/os/Message;)V",
      "targetMethod": "android.os.PowerManager$WakeLock.release()V",
      "eventChain": [
        {
          "start": "com.android.cgos.GosReceiver.onReceive(Landroid/content/Context;Landroid/content/Intent;)V",
          "target": "invokevirtual \u003c Application, Lcom/android/cgos/l, obtainMessage()Landroid/os/Message; \u003e@9",
          "type": "sms",
          "constraintsFile": "constraints31_0.py",
          "variables": {
            "\u003cInput2\u003e.getAction()": "IAAv0"
          },
          "stringMap": {
            "7000": "android.intent.action.BOOT_COMPLETED"
          },
          "strings": {
            "IAAv0": ""
          }
        },
        {
          "start": "com.android.cgos.l.handleMessage(Landroid/os/Message;)V",
          "target": "invokevirtual \u003c Application, Landroid/os/PowerManager$WakeLock, release()V \u003e@30",
          "type": "",
          "constraintsFile": "constraints31_1.py",
          "variables": {},
          "stringMap": {},
          "strings": {}
        }
      ]
    },
    "32": {
      "startMethod": "c.run()V",
      "targetMethod": "android.net.ConnectivityManager.getActiveNetworkInfo()Landroid/net/NetworkInfo;",
      "eventChain": [
        {
          "start": "c.run()V",
          "target": "invokevirtual \u003c Application, Landroid/net/ConnectivityManager, getActiveNetworkInfo()Landroid/net/NetworkInfo; \u003e@17",
          "type": "",
          "constraintsFile": "constraints32_0.py",
          "variables": {},
          "stringMap": {},
          "strings": {
            "IAAv4": "",
            "IAAv10": "",
            "IAAv7": "",
            "IAAv5": ""
          }
        }
      ]
    },
    "33": {
      "startMethod": "b.run()V",
      "targetMethod": "android.webkit.WebView.\u003cinit\u003e(Landroid/content/Context;)V",
      "eventChain": [
        {
          "start": "com.google.ads.AdActivity.onCreate(Landroid/os/Bundle;)V",
          "target": "",
          "type": "activity",
          "component": "com.google.ads.AdActivity",
          "constraintsFile": "constraints33_0.py",
          "variables": {},
          "stringMap": {},
          "strings": {
            "IAAv9": "",
            "IAAv8": ""
          }
        },
        {
          "start": "b.run()V",
          "target": "invokespecial \u003c Application, Landroid/webkit/WebView, \u003cinit\u003e(Landroid/content/Context;)V \u003e@15",
          "type": "",
          "constraintsFile": "constraints33_1.py",
          "variables": {},
          "stringMap": {},
          "strings": {}
        }
      ]
    },
    "34": {
      "startMethod": "b.run()V",
      "targetMethod": "java.net.HttpURLConnection.connect()V",
      "eventChain": [
        {
          "start": "b.run()V",
          "target": "invokevirtual \u003c Application, Ljava/net/HttpURLConnection, connect()V \u003e@97",
          "type": "",
          "constraintsFile": "constraints34_0.py",
          "variables": {},
          "stringMap": {},
          "strings": {}
        }
      ]
    },
    "35": {
      "startMethod": "b.run()V",
      "targetMethod": "java.net.HttpURLConnection.getInputStream()Ljava/io/InputStream;",
      "eventChain": [
        {
          "start": "b.run()V",
          "target": "invokevirtual \u003c Application, Ljava/net/HttpURLConnection, getInputStream()Ljava/io/InputStream; \u003e@281",
          "type": "",
          "constraintsFile": "constraints35_0.py",
          "variables": {},
          "stringMap": {},
          "strings": {}
        }
      ]
    },
    "36": {
      "startMethod": "b.run()V",
      "targetMethod": "java.net.URL.openConnection()Ljava/net/URLConnection;",
      "eventChain": [
        {
          "start": "b.run()V",
          "target": "invokevirtual \u003c Application, Ljava/net/URL, openConnection()Ljava/net/URLConnection; \u003e@30",
          "type": "",
          "constraintsFile": "constraints36_0.py",
          "variables": {},
          "stringMap": {},
          "strings": {}
        }
      ]
    },
    "37": {
      "startMethod": "com.android.cgos.f.onClick(Landroid/content/DialogInterface;I)V",
      "targetMethod": "android.app.NotificationManager.notify(ILandroid/app/Notification;)V",
      "eventChain": [
        {
          "start": "com.android.cgos.f.onClick(Landroid/content/DialogInterface;I)V",
          "target": "invokevirtual \u003c Application, Landroid/app/NotificationManager, notify(ILandroid/app/Notification;)V \u003e@135",
          "type": "ui",
          "activities": [
            "com.cdroid.darts.Menu"
          ],
          "listener": "com.android.cgos.f",
          "listenerMethod": "onClick",
          "uiType": "onClick",
          "inDialog": "true",
          "constraintsFile": "constraints37_0.py",
          "variables": {},
          "stringMap": {},
          "strings": {}
        }
      ]
    },
    "38": {
      "startMethod": "com.android.cgos.f.onClick(Landroid/content/DialogInterface;I)V",
      "targetMethod": "org.apache.http.client.HttpClient.execute(Lorg/apache/http/client/methods/HttpUriRequest;)Lorg/apache/http/HttpResponse;",
      "eventChain": [
        {
          "start": "com.android.cgos.f.onClick(Landroid/content/DialogInterface;I)V",
          "target": "invokeinterface \u003c Application, Lorg/apache/http/client/HttpClient, execute(Lorg/apache/http/client/methods/HttpUriRequest;)Lorg/apache/http/HttpResponse; \u003e@47",
          "type": "ui",
          "activities": [
            "com.cdroid.darts.Menu"
          ],
          "listener": "com.android.cgos.f",
          "listenerMethod": "onClick",
          "uiType": "onClick",
          "inDialog": "true",
          "constraintsFile": "constraints38_0.py",
          "variables": {},
          "stringMap": {},
          "strings": {}
        }
      ]
    },
    "39": {
      "startMethod": "com.android.cgos.f.onClick(Landroid/content/DialogInterface;I)V",
      "targetMethod": "android.net.ConnectivityManager.getActiveNetworkInfo()Landroid/net/NetworkInfo;",
      "eventChain": [
        {
          "start": "com.android.cgos.f.onClick(Landroid/content/DialogInterface;I)V",
          "target": "invokevirtual \u003c Application, Landroid/net/ConnectivityManager, getActiveNetworkInfo()Landroid/net/NetworkInfo; \u003e@19",
          "type": "ui",
          "activities": [
            "com.cdroid.darts.Menu"
          ],
          "listener": "com.android.cgos.f",
          "listenerMethod": "onClick",
          "uiType": "onClick",
          "inDialog": "true",
          "constraintsFile": "constraints39_0.py",
          "variables": {},
          "stringMap": {},
          "strings": {}
        }
      ]
    },
    "40": {
      "startMethod": "z.run()V",
      "targetMethod": "java.net.HttpURLConnection.connect()V",
      "eventChain": [
        {
          "start": "z.run()V",
          "target": "invokevirtual \u003c Application, Ljava/net/HttpURLConnection, connect()V \u003e@80",
          "type": ""
        }
      ]
    },
    "41": {
      "startMethod": "z.run()V",
      "targetMethod": "android.webkit.WebView.\u003cinit\u003e(Landroid/content/Context;)V",
      "eventChain": [
        {
          "start": "z.run()V",
          "target": "invokespecial \u003c Application, Landroid/webkit/WebView, \u003cinit\u003e(Landroid/content/Context;)V \u003e@15",
          "type": "",
          "constraintsFile": "constraints41_0.py",
          "variables": {},
          "stringMap": {},
          "strings": {
            "IAAv0": ""
          }
        }
      ]
    },
    "42": {
      "startMethod": "z.run()V",
      "targetMethod": "java.net.URL.openConnection()Ljava/net/URLConnection;",
      "eventChain": [
        {
          "start": "z.run()V",
          "target": "invokevirtual \u003c Application, Ljava/net/URL, openConnection()Ljava/net/URLConnection; \u003e@53",
          "type": ""
        }
      ]
    },
    "43": {
      "startMethod": "com.carl.mpclient.activity.lobby.ae.run()V",
      "targetMethod": "android.os.Vibrator.vibrate(J)V",
      "eventChain": [
        {
          "start": "com.carl.mpclient.activity.lobby.ae.run()V",
          "target": "invokevirtual \u003c Application, Landroid/os/Vibrator, vibrate(J)V \u003e@364",
          "type": "",
          "constraintsFile": "constraints43_0.py",
          "variables": {
            "SharedPreferences\u003cmp_vibrate_chal\u003e": "IAAv2"
          },
          "stringMap": {},
          "strings": {}
        }
      ]
    }
  }
}