{
  "packageName": "com.wacan.mouginstourisme",
  "mainActivity": "com.wacan.mouginstourisme.Mougins",
  "callPaths": {
    "0": {
      "startMethod": "com.wacan.mouginstourisme.Mougins.onCreate(Landroid/os/Bundle;)V",
      "targetMethod": "java.lang.reflect.Method.invoke(Ljava/lang/Object;[Ljava/lang/Object;)Ljava/lang/Object;",
      "eventChain": [
        {
          "start": "com.wacan.mouginstourisme.Mougins.onCreate(Landroid/os/Bundle;)V",
          "target": "invokevirtual \u003c Application, Ljava/lang/reflect/Method, invoke(Ljava/lang/Object;[Ljava/lang/Object;)Ljava/lang/Object; \u003e@104",
          "type": "activity",
          "component": "com.wacan.mouginstourisme.Mougins"
        }
      ]
    },
    "1": {
      "startMethod": "com.wacan.mouginstourisme.Mougins.onCreate(Landroid/os/Bundle;)V",
      "targetMethod": "java.lang.reflect.Method.invoke(Ljava/lang/Object;[Ljava/lang/Object;)Ljava/lang/Object;",
      "eventChain": [
        {
          "start": "com.wacan.mouginstourisme.Mougins.onCreate(Landroid/os/Bundle;)V",
          "target": "invokevirtual \u003c Application, Ljava/lang/reflect/Method, invoke(Ljava/lang/Object;[Ljava/lang/Object;)Ljava/lang/Object; \u003e@151",
          "type": "activity",
          "component": "com.wacan.mouginstourisme.Mougins"
        }
      ]
    }
  }
}