{
  "packageName": "com.androidemu.harvemaoxiandao4",
  "mainActivity": "com.androidemu.harvemaoxiandao4.MainActivity",
  "callPaths": {
    "0": {
      "startMethod": "com.androidemu.harvemaoxiandao4.MainActivity.onResume()V",
      "targetMethod": "org.apache.http.client.HttpClient.execute(Lorg/apache/http/client/methods/HttpUriRequest;)Lorg/apache/http/HttpResponse;",
      "eventChain": [
        {
          "start": "com.androidemu.harvemaoxiandao4.MainActivity.onResume()V",
          "target": "invokeinterface \u003c Application, Lorg/apache/http/client/HttpClient, execute(Lorg/apache/http/client/methods/HttpUriRequest;)Lorg/apache/http/HttpResponse; \u003e@191",
          "type": "activity",
          "component": "com.androidemu.harvemaoxiandao4.MainActivity"
        }
      ]
    },
    "1": {
      "startMethod": "com.androidemu.harvemaoxiandao4.MainActivity.onResume()V",
      "targetMethod": "org.apache.http.impl.client.DefaultHttpClient.execute(Lorg/apache/http/client/methods/HttpUriRequest;)Lorg/apache/http/HttpResponse;",
      "eventChain": [
        {
          "start": "com.androidemu.harvemaoxiandao4.MainActivity.onResume()V",
          "target": "invokevirtual \u003c Application, Lorg/apache/http/impl/client/DefaultHttpClient, execute(Lorg/apache/http/client/methods/HttpUriRequest;)Lorg/apache/http/HttpResponse; \u003e@297",
          "type": "activity",
          "component": "com.androidemu.harvemaoxiandao4.MainActivity"
        }
      ]
    },
    "2": {
      "startMethod": "com.androidemu.harvemaoxiandao4.EmulatorActivity.onResume()V",
      "targetMethod": "org.apache.http.client.HttpClient.execute(Lorg/apache/http/client/methods/HttpUriRequest;)Lorg/apache/http/HttpResponse;",
      "eventChain": [
        {
          "start": "com.androidemu.harvemaoxiandao4.MainActivity.onResume()V",
          "target": "invokeinterface \u003c Application, Landroid/content/SharedPreferences$Editor, putString(Ljava/lang/String;Ljava/lang/String;)Landroid/content/SharedPreferences$Editor; \u003e@95",
          "type": "activity",
          "component": "com.androidemu.harvemaoxiandao4.MainActivity"
        },
        {
          "start": "com.androidemu.harvemaoxiandao4.EmulatorActivity.onCreate(Landroid/os/Bundle;)V",
          "target": "PC@1012",
          "type": "activity",
          "component": "com.androidemu.harvemaoxiandao4.EmulatorActivity",
          "constraintsFile": "constraints2_0.py",
          "variables": {
            "SharedPreferences\u003cpush_flag\u003e": "IAAv1"
          },
          "stringMap": {
            "7000": ""
          },
          "strings": {
            "IAAv1": "",
            "IAAv5": ""
          }
        },
        {
          "start": "com.androidemu.harvemaoxiandao4.EmulatorActivity.onResume()V",
          "target": "invokeinterface \u003c Application, Lorg/apache/http/client/HttpClient, execute(Lorg/apache/http/client/methods/HttpUriRequest;)Lorg/apache/http/HttpResponse; \u003e@191",
          "type": "activity",
          "component": "com.androidemu.harvemaoxiandao4.EmulatorActivity",
          "constraintsFile": "constraints2_1.py",
          "variables": {
            "SharedPreferences\u003cpush_flag\u003e": "IAAv2"
          },
          "stringMap": {
            "7000": ""
          },
          "strings": {
            "IAAv2": "",
            "IAAv6": ""
          }
        }
      ]
    },
    "3": {
      "startMethod": "com.androidemu.harvemaoxiandao4.EmulatorActivity.onResume()V",
      "targetMethod": "org.apache.http.impl.client.DefaultHttpClient.execute(Lorg/apache/http/client/methods/HttpUriRequest;)Lorg/apache/http/HttpResponse;",
      "eventChain": [
        {
          "start": "com.androidemu.harvemaoxiandao4.MainActivity.onResume()V",
          "target": "invokeinterface \u003c Application, Landroid/content/SharedPreferences$Editor, putString(Ljava/lang/String;Ljava/lang/String;)Landroid/content/SharedPreferences$Editor; \u003e@95",
          "type": "activity",
          "component": "com.androidemu.harvemaoxiandao4.MainActivity"
        },
        {
          "start": "com.androidemu.harvemaoxiandao4.EmulatorActivity.onCreate(Landroid/os/Bundle;)V",
          "target": "PC@1012",
          "type": "activity",
          "component": "com.androidemu.harvemaoxiandao4.EmulatorActivity",
          "constraintsFile": "constraints3_0.py",
          "variables": {
            "SharedPreferences\u003cpush_flag\u003e": "IAAv1"
          },
          "stringMap": {
            "7000": ""
          },
          "strings": {
            "IAAv1": "",
            "IAAv5": ""
          }
        },
        {
          "start": "com.androidemu.harvemaoxiandao4.MainActivity.onResume()V",
          "target": "PC@9",
          "type": "activity",
          "component": "com.androidemu.harvemaoxiandao4.MainActivity"
        },
        {
          "start": "com.androidemu.harvemaoxiandao4.EmulatorActivity.onResume()V",
          "target": "invokevirtual \u003c Application, Lorg/apache/http/impl/client/DefaultHttpClient, execute(Lorg/apache/http/client/methods/HttpUriRequest;)Lorg/apache/http/HttpResponse; \u003e@297",
          "type": "activity",
          "component": "com.androidemu.harvemaoxiandao4.EmulatorActivity",
          "constraintsFile": "constraints3_1.py",
          "variables": {
            "SharedPreferences\u003cpush_flag\u003e": "IAAv2"
          },
          "stringMap": {
            "7000": ""
          },
          "strings": {
            "IAAv2": "",
            "IAAv6": ""
          }
        }
      ]
    },
    "4": {
      "startMethod": "com.waps.OffersWebView.onCreate(Landroid/os/Bundle;)V",
      "targetMethod": "org.apache.http.client.HttpClient.execute(Lorg/apache/http/client/methods/HttpUriRequest;)Lorg/apache/http/HttpResponse;",
      "eventChain": [
        {
          "start": "com.androidemu.harvemaoxiandao4.MainActivity.onResume()V",
          "target": "invokeinterface \u003c Application, Landroid/content/SharedPreferences$Editor, putString(Ljava/lang/String;Ljava/lang/String;)Landroid/content/SharedPreferences$Editor; \u003e@191",
          "type": "activity",
          "component": "com.androidemu.harvemaoxiandao4.MainActivity"
        },
        {
          "start": "com.androidemu.harvemaoxiandao4.MainActivity.onResume()V",
          "target": "invokeinterface \u003c Application, Landroid/content/SharedPreferences$Editor, putString(Ljava/lang/String;Ljava/lang/String;)Landroid/content/SharedPreferences$Editor; \u003e@205",
          "type": "activity",
          "component": "com.androidemu.harvemaoxiandao4.MainActivity"
        },
        {
          "start": "com.androidemu.harvemaoxiandao4.MainActivity.onResume()V",
          "target": "invokeinterface \u003c Application, Landroid/content/SharedPreferences$Editor, putString(Ljava/lang/String;Ljava/lang/String;)Landroid/content/SharedPreferences$Editor; \u003e@178",
          "type": "activity",
          "component": "com.androidemu.harvemaoxiandao4.MainActivity"
        },
        {
          "start": "com.waps.OffersWebView.\u003cinit\u003e()V",
          "target": "PC@157",
          "type": "",
          "constraintsFile": "constraints4_0.py",
          "variables": {
            "SharedPreferences\u003cpackageName\u003e": "IAAv6",
            "SharedPreferences\u003cshort_className\u003e": "IAAv1",
            "SharedPreferences\u003cclassName\u003e": "IAAv8"
          },
          "stringMap": {
            "7000": "",
            "7001": "com.waps.OffersWebView",
            "7002": "feedback",
            "7003": "down_type",
            "7004": "true",
            "7005": "false",
            "7006": "OffersWebView",
            "7007": "notify",
            "7008": "show"
          },
          "strings": {
            "IAAv1": "",
            "IAAv8": "",
            "IAAv6": ""
          }
        },
        {
          "start": "com.waps.OffersWebView.\u003cinit\u003e()V",
          "target": "PC@212",
          "type": "",
          "constraintsFile": "constraints4_1.py",
          "variables": {
            "SharedPreferences\u003cpackageName\u003e": "IAAv6",
            "SharedPreferences\u003cshort_className\u003e": "IAAv1",
            "SharedPreferences\u003cclassName\u003e": "IAAv8"
          },
          "stringMap": {
            "7000": "",
            "7001": "com.waps.OffersWebView",
            "7002": "feedback",
            "7003": "down_type",
            "7004": "true",
            "7005": "false",
            "7006": "OffersWebView",
            "7007": "notify",
            "7008": "show"
          },
          "strings": {
            "IAAv1": "",
            "IAAv8": "",
            "IAAv6": ""
          }
        },
        {
          "start": "com.waps.OffersWebView.\u003cinit\u003e()V",
          "target": "PC@104",
          "type": "",
          "constraintsFile": "constraints4_2.py",
          "variables": {
            "SharedPreferences\u003cpackageName\u003e": "IAAv6",
            "SharedPreferences\u003cshort_className\u003e": "IAAv1",
            "SharedPreferences\u003cclassName\u003e": "IAAv8"
          },
          "stringMap": {
            "7000": "",
            "7001": "com.waps.OffersWebView",
            "7002": "feedback",
            "7003": "down_type",
            "7004": "true",
            "7005": "false",
            "7006": "OffersWebView",
            "7007": "notify",
            "7008": "show"
          },
          "strings": {
            "IAAv1": "",
            "IAAv8": "",
            "IAAv6": ""
          }
        },
        {
          "start": "com.waps.OffersWebView.\u003cinit\u003e()V",
          "target": "PC@220",
          "type": "",
          "constraintsFile": "constraints4_3.py",
          "variables": {
            "SharedPreferences\u003cpackageName\u003e": "IAAv6",
            "SharedPreferences\u003cshort_className\u003e": "IAAv1",
            "SharedPreferences\u003cclassName\u003e": "IAAv8"
          },
          "stringMap": {
            "7000": "",
            "7001": "com.waps.OffersWebView",
            "7002": "feedback",
            "7003": "down_type",
            "7004": "true",
            "7005": "false",
            "7006": "OffersWebView",
            "7007": "notify",
            "7008": "show"
          },
          "strings": {
            "IAAv1": "",
            "IAAv8": "",
            "IAAv6": ""
          }
        },
        {
          "start": "com.waps.OffersWebView.\u003cinit\u003e()V",
          "target": "PC@25",
          "type": "",
          "constraintsFile": "constraints4_4.py",
          "variables": {
            "SharedPreferences\u003cpackageName\u003e": "IAAv6",
            "SharedPreferences\u003cshort_className\u003e": "IAAv1",
            "SharedPreferences\u003cclassName\u003e": "IAAv8"
          },
          "stringMap": {
            "7000": "",
            "7001": "com.waps.OffersWebView",
            "7002": "feedback",
            "7003": "down_type",
            "7004": "true",
            "7005": "false",
            "7006": "OffersWebView",
            "7007": "notify",
            "7008": "show"
          },
          "strings": {
            "IAAv1": "",
            "IAAv8": "",
            "IAAv6": ""
          }
        },
        {
          "start": "com.waps.OffersWebView.\u003cinit\u003e()V",
          "target": "PC@189",
          "type": "",
          "constraintsFile": "constraints4_5.py",
          "variables": {
            "SharedPreferences\u003cpackageName\u003e": "IAAv6",
            "SharedPreferences\u003cshort_className\u003e": "IAAv1",
            "SharedPreferences\u003cclassName\u003e": "IAAv8"
          },
          "stringMap": {
            "7000": "",
            "7001": "com.waps.OffersWebView",
            "7002": "feedback",
            "7003": "down_type",
            "7004": "true",
            "7005": "false",
            "7006": "OffersWebView",
            "7007": "notify",
            "7008": "show"
          },
          "strings": {
            "IAAv1": "",
            "IAAv8": "",
            "IAAv6": ""
          }
        },
        {
          "start": "com.waps.OffersWebView.\u003cinit\u003e()V",
          "target": "PC@112",
          "type": "",
          "constraintsFile": "constraints4_6.py",
          "variables": {
            "SharedPreferences\u003cpackageName\u003e": "IAAv6",
            "SharedPreferences\u003cshort_className\u003e": "IAAv1",
            "SharedPreferences\u003cclassName\u003e": "IAAv8"
          },
          "stringMap": {
            "7000": "",
            "7001": "com.waps.OffersWebView",
            "7002": "feedback",
            "7003": "down_type",
            "7004": "true",
            "7005": "false",
            "7006": "OffersWebView",
            "7007": "notify",
            "7008": "show"
          },
          "strings": {
            "IAAv1": "",
            "IAAv8": "",
            "IAAv6": ""
          }
        },
        {
          "start": "com.waps.OffersWebView.onCreate(Landroid/os/Bundle;)V",
          "target": "PC@67",
          "type": "activity",
          "component": "com.waps.OffersWebView"
        },
        {
          "start": "com.waps.OffersWebView.onCreate(Landroid/os/Bundle;)V",
          "target": "invokeinterface \u003c Application, Lorg/apache/http/client/HttpClient, execute(Lorg/apache/http/client/methods/HttpUriRequest;)Lorg/apache/http/HttpResponse; \u003e@191",
          "type": "activity",
          "component": "com.waps.OffersWebView",
          "constraintsFile": "constraints4_7.py",
          "variables": {
            "SharedPreferences\u003cpackageName\u003e": "IAAv6",
            "SharedPreferences\u003cshort_className\u003e": "IAAv1",
            "SharedPreferences\u003cclassName\u003e": "IAAv8"
          },
          "stringMap": {
            "7000": "",
            "7001": "com.waps.OffersWebView",
            "7002": "feedback",
            "7003": "down_type",
            "7004": "true",
            "7005": "false",
            "7006": "OffersWebView",
            "7007": "notify",
            "7008": "show"
          },
          "strings": {
            "IAAv1": "",
            "IAAv8": "",
            "IAAv6": ""
          }
        }
      ]
    },
    "5": {
      "startMethod": "com.androidemu.harvemaoxiandao4.MainActivity.onCreate(Landroid/os/Bundle;)V",
      "targetMethod": "java.lang.reflect.Method.invoke(Ljava/lang/Object;[Ljava/lang/Object;)Ljava/lang/Object;",
      "eventChain": [
        {
          "start": "com.androidemu.harvemaoxiandao4.MainActivity.onCreate(Landroid/os/Bundle;)V",
          "target": "invokevirtual \u003c Application, Ljava/lang/reflect/Method, invoke(Ljava/lang/Object;[Ljava/lang/Object;)Ljava/lang/Object; \u003e@244",
          "type": "activity",
          "component": "com.androidemu.harvemaoxiandao4.MainActivity"
        }
      ]
    },
    "6": {
      "startMethod": "com.androidemu.harvemaoxiandao4.MainActivity.onCreate(Landroid/os/Bundle;)V",
      "targetMethod": "org.apache.http.impl.client.DefaultHttpClient.execute(Lorg/apache/http/client/methods/HttpUriRequest;)Lorg/apache/http/HttpResponse;",
      "eventChain": [
        {
          "start": "com.androidemu.harvemaoxiandao4.MainActivity.onCreate(Landroid/os/Bundle;)V",
          "target": "invokevirtual \u003c Application, Lorg/apache/http/impl/client/DefaultHttpClient, execute(Lorg/apache/http/client/methods/HttpUriRequest;)Lorg/apache/http/HttpResponse; \u003e@297",
          "type": "activity",
          "component": "com.androidemu.harvemaoxiandao4.MainActivity"
        }
      ]
    },
    "7": {
      "startMethod": "com.androidemu.harvemaoxiandao4.MainActivity.onCreate(Landroid/os/Bundle;)V",
      "targetMethod": "org.apache.http.client.HttpClient.execute(Lorg/apache/http/client/methods/HttpUriRequest;)Lorg/apache/http/HttpResponse;",
      "eventChain": [
        {
          "start": "com.androidemu.harvemaoxiandao4.MainActivity.onCreate(Landroid/os/Bundle;)V",
          "target": "invokeinterface \u003c Application, Lorg/apache/http/client/HttpClient, execute(Lorg/apache/http/client/methods/HttpUriRequest;)Lorg/apache/http/HttpResponse; \u003e@191",
          "type": "activity",
          "component": "com.androidemu.harvemaoxiandao4.MainActivity"
        }
      ]
    },
    "8": {
      "startMethod": "com.androidemu.harvemaoxiandao4.EmulatorActivity.onCreate(Landroid/os/Bundle;)V",
      "targetMethod": "org.apache.http.client.HttpClient.execute(Lorg/apache/http/client/methods/HttpUriRequest;)Lorg/apache/http/HttpResponse;",
      "eventChain": [
        {
          "start": "com.androidemu.harvemaoxiandao4.MainActivity.onResume()V",
          "target": "invokeinterface \u003c Application, Landroid/content/SharedPreferences$Editor, putString(Ljava/lang/String;Ljava/lang/String;)Landroid/content/SharedPreferences$Editor; \u003e@95",
          "type": "activity",
          "component": "com.androidemu.harvemaoxiandao4.MainActivity"
        },
        {
          "start": "com.androidemu.harvemaoxiandao4.EmulatorActivity.onCreate(Landroid/os/Bundle;)V",
          "target": "invokeinterface \u003c Application, Lorg/apache/http/client/HttpClient, execute(Lorg/apache/http/client/methods/HttpUriRequest;)Lorg/apache/http/HttpResponse; \u003e@191",
          "type": "activity",
          "component": "com.androidemu.harvemaoxiandao4.EmulatorActivity",
          "constraintsFile": "constraints8_0.py",
          "variables": {
            "SharedPreferences\u003cfree_game_num_key\u003e": "IAAv0",
            "SharedPreferences\u003cpush_flag\u003e": "IAAv2"
          },
          "stringMap": {
            "7000": ""
          },
          "strings": {
            "IAAv2": "",
            "IAAv6": ""
          }
        }
      ]
    },
    "9": {
      "startMethod": "com.androidemu.harvemaoxiandao4.EmulatorActivity.onCreate(Landroid/os/Bundle;)V",
      "targetMethod": "org.apache.http.impl.client.DefaultHttpClient.execute(Lorg/apache/http/client/methods/HttpUriRequest;)Lorg/apache/http/HttpResponse;",
      "eventChain": [
        {
          "start": "com.androidemu.harvemaoxiandao4.MainActivity.onResume()V",
          "target": "invokeinterface \u003c Application, Landroid/content/SharedPreferences$Editor, putString(Ljava/lang/String;Ljava/lang/String;)Landroid/content/SharedPreferences$Editor; \u003e@95",
          "type": "activity",
          "component": "com.androidemu.harvemaoxiandao4.MainActivity"
        },
        {
          "start": "com.androidemu.harvemaoxiandao4.MainActivity.onResume()V",
          "target": "PC@9",
          "type": "activity",
          "component": "com.androidemu.harvemaoxiandao4.MainActivity"
        },
        {
          "start": "com.androidemu.harvemaoxiandao4.EmulatorActivity.onCreate(Landroid/os/Bundle;)V",
          "target": "invokevirtual \u003c Application, Lorg/apache/http/impl/client/DefaultHttpClient, execute(Lorg/apache/http/client/methods/HttpUriRequest;)Lorg/apache/http/HttpResponse; \u003e@297",
          "type": "activity",
          "component": "com.androidemu.harvemaoxiandao4.EmulatorActivity",
          "constraintsFile": "constraints9_0.py",
          "variables": {
            "SharedPreferences\u003cfree_game_num_key\u003e": "IAAv0",
            "SharedPreferences\u003cpush_flag\u003e": "IAAv2"
          },
          "stringMap": {
            "7000": ""
          },
          "strings": {
            "IAAv2": "",
            "IAAv6": ""
          }
        }
      ]
    },
    "10": {
      "startMethod": "com.androidemu.harvemaoxiandao4.EmulatorActivity.onCreate(Landroid/os/Bundle;)V",
      "targetMethod": "java.lang.reflect.Method.invoke(Ljava/lang/Object;[Ljava/lang/Object;)Ljava/lang/Object;",
      "eventChain": [
        {
          "start": "com.androidemu.harvemaoxiandao4.MainActivity.onResume()V",
          "target": "invokeinterface \u003c Application, Landroid/content/SharedPreferences$Editor, putBoolean(Ljava/lang/String;Z)Landroid/content/SharedPreferences$Editor; \u003e@573",
          "type": "activity",
          "component": "com.androidemu.harvemaoxiandao4.MainActivity"
        },
        {
          "start": "com.androidemu.harvemaoxiandao4.EmulatorActivity.onCreate(Landroid/os/Bundle;)V",
          "target": "invokevirtual \u003c Application, Ljava/lang/reflect/Method, invoke(Ljava/lang/Object;[Ljava/lang/Object;)Ljava/lang/Object; \u003e@244",
          "type": "activity",
          "component": "com.androidemu.harvemaoxiandao4.EmulatorActivity",
          "constraintsFile": "constraints10_0.py",
          "variables": {
            "SharedPreferences\u003cshow_ad_flag\u003e": "IAAv0"
          },
          "stringMap": {},
          "strings": {}
        }
      ]
    },
    "11": {
      "startMethod": "com.madhouse.android.ads.eeee.onKeyUp(ILandroid/view/KeyEvent;)Z",
      "targetMethod": "java.net.URL.openConnection()Ljava/net/URLConnection;",
      "eventChain": [
        {
          "start": "com.madhouse.android.ads.eeee.onKeyUp(ILandroid/view/KeyEvent;)Z",
          "target": "invokevirtual \u003c Application, Ljava/net/URL, openConnection()Ljava/net/URLConnection; \u003e@18",
          "type": "ui",
          "activities": [
            "com.androidemu.harvemaoxiandao4.MainActivity"
          ],
          "listener": "com.madhouse.android.ads.eeee",
          "listenerMethod": "onKeyUp",
          "uiType": "onKeyUp",
          "constraintsFile": "constraints11_0.py",
          "variables": {
            "\u003cInput1\u003e": "IAAv0"
          },
          "stringMap": {},
          "strings": {}
        }
      ]
    },
    "12": {
      "startMethod": "com.madhouse.android.ads.eeee.onKeyUp(ILandroid/view/KeyEvent;)Z",
      "targetMethod": "java.lang.reflect.Method.invoke(Ljava/lang/Object;[Ljava/lang/Object;)Ljava/lang/Object;",
      "eventChain": [
        {
          "start": "com.madhouse.android.ads.eeee.onKeyUp(ILandroid/view/KeyEvent;)Z",
          "target": "invokevirtual \u003c Application, Ljava/lang/reflect/Method, invoke(Ljava/lang/Object;[Ljava/lang/Object;)Ljava/lang/Object; \u003e@95",
          "type": "ui",
          "activities": [
            "com.androidemu.harvemaoxiandao4.MainActivity"
          ],
          "listener": "com.madhouse.android.ads.eeee",
          "listenerMethod": "onKeyUp",
          "uiType": "onKeyUp",
          "constraintsFile": "constraints12_0.py",
          "variables": {
            "\u003cInput1\u003e": "IAAv0"
          },
          "stringMap": {},
          "strings": {}
        }
      ]
    },
    "13": {
      "startMethod": "com.madhouse.android.ads.____.onKeyUp(ILandroid/view/KeyEvent;)Z",
      "targetMethod": "java.net.URL.openConnection()Ljava/net/URLConnection;",
      "eventChain": [
        {
          "start": "com.madhouse.android.ads.____.onKeyUp(ILandroid/view/KeyEvent;)Z",
          "target": "invokevirtual \u003c Application, Ljava/net/URL, openConnection()Ljava/net/URLConnection; \u003e@18",
          "type": "ui",
          "activities": [
            "com.androidemu.harvemaoxiandao4.MainActivity"
          ],
          "listener": "com.madhouse.android.ads.____",
          "listenerMethod": "onKeyUp",
          "uiType": "onKeyUp",
          "constraintsFile": "constraints13_0.py",
          "variables": {
            "\u003cInput1\u003e": "IAAv0"
          },
          "stringMap": {},
          "strings": {}
        }
      ]
    },
    "14": {
      "startMethod": "com.madhouse.android.ads.____.onKeyUp(ILandroid/view/KeyEvent;)Z",
      "targetMethod": "java.lang.reflect.Method.invoke(Ljava/lang/Object;[Ljava/lang/Object;)Ljava/lang/Object;",
      "eventChain": [
        {
          "start": "com.madhouse.android.ads.____.onKeyUp(ILandroid/view/KeyEvent;)Z",
          "target": "invokevirtual \u003c Application, Ljava/lang/reflect/Method, invoke(Ljava/lang/Object;[Ljava/lang/Object;)Ljava/lang/Object; \u003e@95",
          "type": "ui",
          "activities": [
            "com.androidemu.harvemaoxiandao4.MainActivity"
          ],
          "listener": "com.madhouse.android.ads.____",
          "listenerMethod": "onKeyUp",
          "uiType": "onKeyUp",
          "constraintsFile": "constraints14_0.py",
          "variables": {
            "\u003cInput1\u003e": "IAAv0"
          },
          "stringMap": {},
          "strings": {}
        }
      ]
    },
    "15": {
      "startMethod": "com.waps.w.onClick(Landroid/content/DialogInterface;I)V",
      "targetMethod": "java.net.URL.openConnection()Ljava/net/URLConnection;",
      "eventChain": [
        {
          "start": "com.waps.u.onDownloadStart(Ljava/lang/String;Ljava/lang/String;Ljava/lang/String;Ljava/lang/String;J)V",
          "target": "invokevirtual \u003c Application, Landroid/app/AlertDialog$Builder, setNeutralButton(Ljava/lang/CharSequence;Landroid/content/DialogInterface$OnClickListener;)Landroid/app/AlertDialog$Builder; \u003e@217",
          "type": "",
          "constraintsFile": "constraints15_0.py",
          "variables": {},
          "stringMap": {},
          "strings": {}
        },
        {
          "start": "com.waps.w.onClick(Landroid/content/DialogInterface;I)V",
          "target": "invokevirtual \u003c Application, Ljava/net/URL, openConnection()Ljava/net/URLConnection; \u003e@33",
          "type": "ui",
          "activities": [
            "com.androidemu.harvemaoxiandao4.MainActivity"
          ],
          "listener": "com.waps.w",
          "listenerMethod": "onClick",
          "uiType": "onClick",
          "inDialog": "true",
          "constraintsFile": "constraints15_1.py",
          "variables": {},
          "stringMap": {},
          "strings": {}
        }
      ]
    },
    "16": {
      "startMethod": "com.waps.w.onClick(Landroid/content/DialogInterface;I)V",
      "targetMethod": "org.apache.http.impl.client.DefaultHttpClient.execute(Lorg/apache/http/client/methods/HttpUriRequest;)Lorg/apache/http/HttpResponse;",
      "eventChain": [
        {
          "start": "com.waps.u.onDownloadStart(Ljava/lang/String;Ljava/lang/String;Ljava/lang/String;Ljava/lang/String;J)V",
          "target": "invokevirtual \u003c Application, Landroid/app/AlertDialog$Builder, setNeutralButton(Ljava/lang/CharSequence;Landroid/content/DialogInterface$OnClickListener;)Landroid/app/AlertDialog$Builder; \u003e@217",
          "type": "",
          "constraintsFile": "constraints16_0.py",
          "variables": {},
          "stringMap": {},
          "strings": {}
        },
        {
          "start": "com.waps.w.onClick(Landroid/content/DialogInterface;I)V",
          "target": "invokevirtual \u003c Application, Lorg/apache/http/impl/client/DefaultHttpClient, execute(Lorg/apache/http/client/methods/HttpUriRequest;)Lorg/apache/http/HttpResponse; \u003e@163",
          "type": "ui",
          "activities": [
            "com.androidemu.harvemaoxiandao4.MainActivity"
          ],
          "listener": "com.waps.w",
          "listenerMethod": "onClick",
          "uiType": "onClick",
          "inDialog": "true",
          "constraintsFile": "constraints16_1.py",
          "variables": {},
          "stringMap": {},
          "strings": {}
        }
      ]
    },
    "17": {
      "startMethod": "com.androidemu.harvemaoxiandao4.EmulatorActivation$3$1.onClick(Landroid/content/DialogInterface;I)V",
      "targetMethod": "org.apache.http.client.HttpClient.execute(Lorg/apache/http/client/methods/HttpUriRequest;)Lorg/apache/http/HttpResponse;",
      "eventChain": [
        {
          "start": "com.androidemu.harvemaoxiandao4.EmulatorActivation$3.onClick(Landroid/view/View;)V",
          "target": "invokevirtual \u003c Application, Landroid/app/AlertDialog$Builder, setPositiveButton(Ljava/lang/CharSequence;Landroid/content/DialogInterface$OnClickListener;)Landroid/app/AlertDialog$Builder; \u003e@127",
          "type": "ui",
          "activities": [
            "com.androidemu.harvemaoxiandao4.EmulatorActivation"
          ],
          "listener": "com.androidemu.harvemaoxiandao4.EmulatorActivation$3",
          "listenerMethod": "onClick",
          "uiType": "onClick"
        },
        {
          "start": "com.androidemu.harvemaoxiandao4.EmulatorActivation$3$1.onClick(Landroid/content/DialogInterface;I)V",
          "target": "invokeinterface \u003c Application, Lorg/apache/http/client/HttpClient, execute(Lorg/apache/http/client/methods/HttpUriRequest;)Lorg/apache/http/HttpResponse; \u003e@191",
          "type": "ui",
          "activities": [
            "com.androidemu.harvemaoxiandao4.MainActivity"
          ],
          "listener": "com.androidemu.harvemaoxiandao4.EmulatorActivation$3$1",
          "listenerMethod": "onClick",
          "uiType": "onClick",
          "inDialog": "true"
        }
      ]
    },
    "18": {
      "startMethod": "com.androidemu.harvemaoxiandao4.EmulatorActivation$3$1.onClick(Landroid/content/DialogInterface;I)V",
      "targetMethod": "org.apache.http.impl.client.DefaultHttpClient.execute(Lorg/apache/http/client/methods/HttpUriRequest;)Lorg/apache/http/HttpResponse;",
      "eventChain": [
        {
          "start": "com.androidemu.harvemaoxiandao4.EmulatorActivation$3.onClick(Landroid/view/View;)V",
          "target": "invokevirtual \u003c Application, Landroid/app/AlertDialog$Builder, setPositiveButton(Ljava/lang/CharSequence;Landroid/content/DialogInterface$OnClickListener;)Landroid/app/AlertDialog$Builder; \u003e@127",
          "type": "ui",
          "activities": [
            "com.androidemu.harvemaoxiandao4.EmulatorActivation"
          ],
          "listener": "com.androidemu.harvemaoxiandao4.EmulatorActivation$3",
          "listenerMethod": "onClick",
          "uiType": "onClick"
        },
        {
          "start": "com.androidemu.harvemaoxiandao4.EmulatorActivation$3$1.onClick(Landroid/content/DialogInterface;I)V",
          "target": "invokevirtual \u003c Application, Lorg/apache/http/impl/client/DefaultHttpClient, execute(Lorg/apache/http/client/methods/HttpUriRequest;)Lorg/apache/http/HttpResponse; \u003e@297",
          "type": "ui",
          "activities": [
            "com.androidemu.harvemaoxiandao4.MainActivity"
          ],
          "listener": "com.androidemu.harvemaoxiandao4.EmulatorActivation$3$1",
          "listenerMethod": "onClick",
          "uiType": "onClick",
          "inDialog": "true"
        }
      ]
    },
    "19": {
      "startMethod": "com.androidemu.harvemaoxiandao4.EmulatorViewInit$2$1.onClick(Landroid/content/DialogInterface;I)V",
      "targetMethod": "org.apache.http.client.HttpClient.execute(Lorg/apache/http/client/methods/HttpUriRequest;)Lorg/apache/http/HttpResponse;",
      "eventChain": [
        {
          "start": "com.androidemu.harvemaoxiandao4.EmulatorViewInit$2.onClick(Landroid/view/View;)V",
          "target": "invokevirtual \u003c Application, Landroid/app/AlertDialog$Builder, setPositiveButton(Ljava/lang/CharSequence;Landroid/content/DialogInterface$OnClickListener;)Landroid/app/AlertDialog$Builder; \u003e@140",
          "type": "ui",
          "activities": [
            "com.androidemu.harvemaoxiandao4.MainActivity"
          ],
          "listener": "com.androidemu.harvemaoxiandao4.EmulatorViewInit$2",
          "listenerMethod": "onClick",
          "uiType": "onClick",
          "constraintsFile": "constraints19_0.py",
          "variables": {
            "\u003cInput1\u003e.getId()": "IAAv0"
          },
          "stringMap": {},
          "strings": {}
        },
        {
          "start": "com.androidemu.harvemaoxiandao4.EmulatorViewInit$2$1.onClick(Landroid/content/DialogInterface;I)V",
          "target": "invokeinterface \u003c Application, Lorg/apache/http/client/HttpClient, execute(Lorg/apache/http/client/methods/HttpUriRequest;)Lorg/apache/http/HttpResponse; \u003e@191",
          "type": "ui",
          "activities": [
            "com.androidemu.harvemaoxiandao4.MainActivity"
          ],
          "listener": "com.androidemu.harvemaoxiandao4.EmulatorViewInit$2$1",
          "listenerMethod": "onClick",
          "uiType": "onClick",
          "inDialog": "true"
        }
      ]
    },
    "20": {
      "startMethod": "com.androidemu.harvemaoxiandao4.EmulatorViewInit$2$1.onClick(Landroid/content/DialogInterface;I)V",
      "targetMethod": "org.apache.http.impl.client.DefaultHttpClient.execute(Lorg/apache/http/client/methods/HttpUriRequest;)Lorg/apache/http/HttpResponse;",
      "eventChain": [
        {
          "start": "com.androidemu.harvemaoxiandao4.EmulatorViewInit$2.onClick(Landroid/view/View;)V",
          "target": "invokevirtual \u003c Application, Landroid/app/AlertDialog$Builder, setPositiveButton(Ljava/lang/CharSequence;Landroid/content/DialogInterface$OnClickListener;)Landroid/app/AlertDialog$Builder; \u003e@140",
          "type": "ui",
          "activities": [
            "com.androidemu.harvemaoxiandao4.MainActivity"
          ],
          "listener": "com.androidemu.harvemaoxiandao4.EmulatorViewInit$2",
          "listenerMethod": "onClick",
          "uiType": "onClick",
          "constraintsFile": "constraints20_0.py",
          "variables": {
            "\u003cInput1\u003e.getId()": "IAAv0"
          },
          "stringMap": {},
          "strings": {}
        },
        {
          "start": "com.androidemu.harvemaoxiandao4.EmulatorViewInit$2$1.onClick(Landroid/content/DialogInterface;I)V",
          "target": "invokevirtual \u003c Application, Lorg/apache/http/impl/client/DefaultHttpClient, execute(Lorg/apache/http/client/methods/HttpUriRequest;)Lorg/apache/http/HttpResponse; \u003e@297",
          "type": "ui",
          "activities": [
            "com.androidemu.harvemaoxiandao4.MainActivity"
          ],
          "listener": "com.androidemu.harvemaoxiandao4.EmulatorViewInit$2$1",
          "listenerMethod": "onClick",
          "uiType": "onClick",
          "inDialog": "true"
        }
      ]
    },
    "21": {
      "startMethod": "com.androidemu.harvemaoxiandao4.EmulatorViewInit$3$1.onClick(Landroid/content/DialogInterface;I)V",
      "targetMethod": "org.apache.http.impl.client.DefaultHttpClient.execute(Lorg/apache/http/client/methods/HttpUriRequest;)Lorg/apache/http/HttpResponse;",
      "eventChain": [
        {
          "start": "com.androidemu.harvemaoxiandao4.EmulatorViewInit$3.onClick(Landroid/view/View;)V",
          "target": "invokevirtual \u003c Application, Landroid/app/AlertDialog$Builder, setPositiveButton(Ljava/lang/CharSequence;Landroid/content/DialogInterface$OnClickListener;)Landroid/app/AlertDialog$Builder; \u003e@140",
          "type": "ui",
          "activities": [
            "com.androidemu.harvemaoxiandao4.MainActivity"
          ],
          "listener": "com.androidemu.harvemaoxiandao4.EmulatorViewInit$3",
          "listenerMethod": "onClick",
          "uiType": "onClick",
          "constraintsFile": "constraints21_0.py",
          "variables": {
            "\u003cInput1\u003e.getId()": "IAAv0"
          },
          "stringMap": {},
          "strings": {}
        },
        {
          "start": "com.androidemu.harvemaoxiandao4.EmulatorViewInit$3$1.onClick(Landroid/content/DialogInterface;I)V",
          "target": "invokevirtual \u003c Application, Lorg/apache/http/impl/client/DefaultHttpClient, execute(Lorg/apache/http/client/methods/HttpUriRequest;)Lorg/apache/http/HttpResponse; \u003e@297",
          "type": "ui",
          "activities": [
            "com.androidemu.harvemaoxiandao4.MainActivity"
          ],
          "listener": "com.androidemu.harvemaoxiandao4.EmulatorViewInit$3$1",
          "listenerMethod": "onClick",
          "uiType": "onClick",
          "inDialog": "true"
        }
      ]
    },
    "22": {
      "startMethod": "com.androidemu.harvemaoxiandao4.EmulatorViewInit$3$1.onClick(Landroid/content/DialogInterface;I)V",
      "targetMethod": "org.apache.http.client.HttpClient.execute(Lorg/apache/http/client/methods/HttpUriRequest;)Lorg/apache/http/HttpResponse;",
      "eventChain": [
        {
          "start": "com.androidemu.harvemaoxiandao4.EmulatorViewInit$3.onClick(Landroid/view/View;)V",
          "target": "invokevirtual \u003c Application, Landroid/app/AlertDialog$Builder, setPositiveButton(Ljava/lang/CharSequence;Landroid/content/DialogInterface$OnClickListener;)Landroid/app/AlertDialog$Builder; \u003e@140",
          "type": "ui",
          "activities": [
            "com.androidemu.harvemaoxiandao4.MainActivity"
          ],
          "listener": "com.androidemu.harvemaoxiandao4.EmulatorViewInit$3",
          "listenerMethod": "onClick",
          "uiType": "onClick",
          "constraintsFile": "constraints22_0.py",
          "variables": {
            "\u003cInput1\u003e.getId()": "IAAv0"
          },
          "stringMap": {},
          "strings": {}
        },
        {
          "start": "com.androidemu.harvemaoxiandao4.EmulatorViewInit$3$1.onClick(Landroid/content/DialogInterface;I)V",
          "target": "invokeinterface \u003c Application, Lorg/apache/http/client/HttpClient, execute(Lorg/apache/http/client/methods/HttpUriRequest;)Lorg/apache/http/HttpResponse; \u003e@191",
          "type": "ui",
          "activities": [
            "com.androidemu.harvemaoxiandao4.MainActivity"
          ],
          "listener": "com.androidemu.harvemaoxiandao4.EmulatorViewInit$3$1",
          "listenerMethod": "onClick",
          "uiType": "onClick",
          "inDialog": "true"
        }
      ]
    },
    "23": {
      "startMethod": "com.androidemu.harvemaoxiandao4.EmulatorViewInit$2.onClick(Landroid/view/View;)V",
      "targetMethod": "org.apache.http.client.HttpClient.execute(Lorg/apache/http/client/methods/HttpUriRequest;)Lorg/apache/http/HttpResponse;",
      "eventChain": [
        {
          "start": "com.androidemu.harvemaoxiandao4.EmulatorActivity.onCreate(Landroid/os/Bundle;)V",
          "target": "invokevirtual \u003c Application, Landroid/widget/Button, setOnClickListener(Landroid/view/View$OnClickListener;)V \u003e@348",
          "type": "activity",
          "component": "com.androidemu.harvemaoxiandao4.EmulatorActivity"
        },
        {
          "start": "com.androidemu.harvemaoxiandao4.EmulatorViewInit$2.onClick(Landroid/view/View;)V",
          "target": "invokeinterface \u003c Application, Lorg/apache/http/client/HttpClient, execute(Lorg/apache/http/client/methods/HttpUriRequest;)Lorg/apache/http/HttpResponse; \u003e@191",
          "type": "ui",
          "activities": [
            "com.androidemu.harvemaoxiandao4.MainActivity"
          ],
          "listener": "com.androidemu.harvemaoxiandao4.EmulatorViewInit$2",
          "listenerMethod": "onClick",
          "uiType": "onClick",
          "constraintsFile": "constraints23_0.py",
          "variables": {
            "\u003cInput1\u003e.getId()": "IAAv0"
          },
          "stringMap": {},
          "strings": {}
        }
      ]
    },
    "24": {
      "startMethod": "com.androidemu.harvemaoxiandao4.EmulatorViewInit$2.onClick(Landroid/view/View;)V",
      "targetMethod": "org.apache.http.impl.client.DefaultHttpClient.execute(Lorg/apache/http/client/methods/HttpUriRequest;)Lorg/apache/http/HttpResponse;",
      "eventChain": [
        {
          "start": "com.androidemu.harvemaoxiandao4.EmulatorActivity.onCreate(Landroid/os/Bundle;)V",
          "target": "invokevirtual \u003c Application, Landroid/widget/Button, setOnClickListener(Landroid/view/View$OnClickListener;)V \u003e@348",
          "type": "activity",
          "component": "com.androidemu.harvemaoxiandao4.EmulatorActivity"
        },
        {
          "start": "com.androidemu.harvemaoxiandao4.EmulatorViewInit$2.onClick(Landroid/view/View;)V",
          "target": "invokevirtual \u003c Application, Lorg/apache/http/impl/client/DefaultHttpClient, execute(Lorg/apache/http/client/methods/HttpUriRequest;)Lorg/apache/http/HttpResponse; \u003e@297",
          "type": "ui",
          "activities": [
            "com.androidemu.harvemaoxiandao4.MainActivity"
          ],
          "listener": "com.androidemu.harvemaoxiandao4.EmulatorViewInit$2",
          "listenerMethod": "onClick",
          "uiType": "onClick",
          "constraintsFile": "constraints24_0.py",
          "variables": {
            "\u003cInput1\u003e.getId()": "IAAv0"
          },
          "stringMap": {},
          "strings": {}
        }
      ]
    },
    "25": {
      "startMethod": "com.androidemu.harvemaoxiandao4.EmulatorActivation$3.onClick(Landroid/view/View;)V",
      "targetMethod": "org.apache.http.impl.client.DefaultHttpClient.execute(Lorg/apache/http/client/methods/HttpUriRequest;)Lorg/apache/http/HttpResponse;",
      "eventChain": [
        {
          "start": "com.androidemu.harvemaoxiandao4.MainActivity.onCreate(Landroid/os/Bundle;)V",
          "target": "invokevirtual \u003c Application, Landroid/widget/Button, setOnClickListener(Landroid/view/View$OnClickListener;)V \u003e@515",
          "type": "activity",
          "component": "com.androidemu.harvemaoxiandao4.MainActivity"
        },
        {
          "start": "com.androidemu.harvemaoxiandao4.EmulatorActivation$3.onClick(Landroid/view/View;)V",
          "target": "invokevirtual \u003c Application, Lorg/apache/http/impl/client/DefaultHttpClient, execute(Lorg/apache/http/client/methods/HttpUriRequest;)Lorg/apache/http/HttpResponse; \u003e@297",
          "type": "ui",
          "activities": [
            "com.androidemu.harvemaoxiandao4.EmulatorActivation"
          ],
          "listener": "com.androidemu.harvemaoxiandao4.EmulatorActivation$3",
          "listenerMethod": "onClick",
          "uiType": "onClick"
        }
      ]
    },
    "26": {
      "startMethod": "com.androidemu.harvemaoxiandao4.EmulatorActivation$3.onClick(Landroid/view/View;)V",
      "targetMethod": "org.apache.http.client.HttpClient.execute(Lorg/apache/http/client/methods/HttpUriRequest;)Lorg/apache/http/HttpResponse;",
      "eventChain": [
        {
          "start": "com.androidemu.harvemaoxiandao4.MainActivity.onCreate(Landroid/os/Bundle;)V",
          "target": "invokevirtual \u003c Application, Landroid/widget/Button, setOnClickListener(Landroid/view/View$OnClickListener;)V \u003e@515",
          "type": "activity",
          "component": "com.androidemu.harvemaoxiandao4.MainActivity"
        },
        {
          "start": "com.androidemu.harvemaoxiandao4.EmulatorActivation$3.onClick(Landroid/view/View;)V",
          "target": "invokeinterface \u003c Application, Lorg/apache/http/client/HttpClient, execute(Lorg/apache/http/client/methods/HttpUriRequest;)Lorg/apache/http/HttpResponse; \u003e@191",
          "type": "ui",
          "activities": [
            "com.androidemu.harvemaoxiandao4.EmulatorActivation"
          ],
          "listener": "com.androidemu.harvemaoxiandao4.EmulatorActivation$3",
          "listenerMethod": "onClick",
          "uiType": "onClick"
        }
      ]
    },
    "27": {
      "startMethod": "com.androidemu.harvemaoxiandao4.EmulatorViewInit$3.onClick(Landroid/view/View;)V",
      "targetMethod": "org.apache.http.client.HttpClient.execute(Lorg/apache/http/client/methods/HttpUriRequest;)Lorg/apache/http/HttpResponse;",
      "eventChain": [
        {
          "start": "com.androidemu.harvemaoxiandao4.EmulatorActivity.onCreate(Landroid/os/Bundle;)V",
          "target": "invokevirtual \u003c Application, Landroid/widget/Button, setOnClickListener(Landroid/view/View$OnClickListener;)V \u003e@400",
          "type": "activity",
          "component": "com.androidemu.harvemaoxiandao4.EmulatorActivity"
        },
        {
          "start": "com.androidemu.harvemaoxiandao4.EmulatorViewInit$3.onClick(Landroid/view/View;)V",
          "target": "invokeinterface \u003c Application, Lorg/apache/http/client/HttpClient, execute(Lorg/apache/http/client/methods/HttpUriRequest;)Lorg/apache/http/HttpResponse; \u003e@191",
          "type": "ui",
          "activities": [
            "com.androidemu.harvemaoxiandao4.MainActivity"
          ],
          "listener": "com.androidemu.harvemaoxiandao4.EmulatorViewInit$3",
          "listenerMethod": "onClick",
          "uiType": "onClick",
          "constraintsFile": "constraints27_0.py",
          "variables": {
            "\u003cInput1\u003e.getId()": "IAAv0"
          },
          "stringMap": {},
          "strings": {}
        }
      ]
    },
    "28": {
      "startMethod": "com.androidemu.harvemaoxiandao4.EmulatorViewInit$3.onClick(Landroid/view/View;)V",
      "targetMethod": "org.apache.http.impl.client.DefaultHttpClient.execute(Lorg/apache/http/client/methods/HttpUriRequest;)Lorg/apache/http/HttpResponse;",
      "eventChain": [
        {
          "start": "com.androidemu.harvemaoxiandao4.EmulatorActivity.onCreate(Landroid/os/Bundle;)V",
          "target": "invokevirtual \u003c Application, Landroid/widget/Button, setOnClickListener(Landroid/view/View$OnClickListener;)V \u003e@400",
          "type": "activity",
          "component": "com.androidemu.harvemaoxiandao4.EmulatorActivity"
        },
        {
          "start": "com.androidemu.harvemaoxiandao4.EmulatorViewInit$3.onClick(Landroid/view/View;)V",
          "target": "invokevirtual \u003c Application, Lorg/apache/http/impl/client/DefaultHttpClient, execute(Lorg/apache/http/client/methods/HttpUriRequest;)Lorg/apache/http/HttpResponse; \u003e@297",
          "type": "ui",
          "activities": [
            "com.androidemu.harvemaoxiandao4.MainActivity"
          ],
          "listener": "com.androidemu.harvemaoxiandao4.EmulatorViewInit$3",
          "listenerMethod": "onClick",
          "uiType": "onClick",
          "constraintsFile": "constraints28_0.py",
          "variables": {
            "\u003cInput1\u003e.getId()": "IAAv0"
          },
          "stringMap": {},
          "strings": {}
        }
      ]
    },
    "29": {
      "startMethod": "com.androidemu.harvemaoxiandao4.EmulatorActivation$4.onClick(Landroid/view/View;)V",
      "targetMethod": "org.apache.http.client.HttpClient.execute(Lorg/apache/http/client/methods/HttpUriRequest;)Lorg/apache/http/HttpResponse;",
      "eventChain": [
        {
          "start": "com.androidemu.harvemaoxiandao4.MainActivity.onCreate(Landroid/os/Bundle;)V",
          "target": "invokevirtual \u003c Application, Landroid/widget/Button, setOnClickListener(Landroid/view/View$OnClickListener;)V \u003e@557",
          "type": "activity",
          "component": "com.androidemu.harvemaoxiandao4.MainActivity"
        },
        {
          "start": "com.androidemu.harvemaoxiandao4.EmulatorActivation$4.onClick(Landroid/view/View;)V",
          "target": "invokeinterface \u003c Application, Lorg/apache/http/client/HttpClient, execute(Lorg/apache/http/client/methods/HttpUriRequest;)Lorg/apache/http/HttpResponse; \u003e@191",
          "type": "ui",
          "activities": [
            "com.androidemu.harvemaoxiandao4.EmulatorActivation"
          ],
          "listener": "com.androidemu.harvemaoxiandao4.EmulatorActivation$4",
          "listenerMethod": "onClick",
          "uiType": "onClick"
        }
      ]
    },
    "30": {
      "startMethod": "com.androidemu.harvemaoxiandao4.EmulatorActivation$4.onClick(Landroid/view/View;)V",
      "targetMethod": "org.apache.http.impl.client.DefaultHttpClient.execute(Lorg/apache/http/client/methods/HttpUriRequest;)Lorg/apache/http/HttpResponse;",
      "eventChain": [
        {
          "start": "com.androidemu.harvemaoxiandao4.MainActivity.onCreate(Landroid/os/Bundle;)V",
          "target": "invokevirtual \u003c Application, Landroid/widget/Button, setOnClickListener(Landroid/view/View$OnClickListener;)V \u003e@557",
          "type": "activity",
          "component": "com.androidemu.harvemaoxiandao4.MainActivity"
        },
        {
          "start": "com.androidemu.harvemaoxiandao4.EmulatorActivation$4.onClick(Landroid/view/View;)V",
          "target": "invokevirtual \u003c Application, Lorg/apache/http/impl/client/DefaultHttpClient, execute(Lorg/apache/http/client/methods/HttpUriRequest;)Lorg/apache/http/HttpResponse; \u003e@297",
          "type": "ui",
          "activities": [
            "com.androidemu.harvemaoxiandao4.EmulatorActivation"
          ],
          "listener": "com.androidemu.harvemaoxiandao4.EmulatorActivation$4",
          "listenerMethod": "onClick",
          "uiType": "onClick"
        }
      ]
    },
    "31": {
      "startMethod": "com.waps.s.onClick(Landroid/view/View;)V",
      "targetMethod": "org.apache.http.client.HttpClient.execute(Lorg/apache/http/client/methods/HttpUriRequest;)Lorg/apache/http/HttpResponse;",
      "eventChain": [
        {
          "start": "com.androidemu.harvemaoxiandao4.MainActivity.onCreate(Landroid/os/Bundle;)V",
          "target": "invokevirtual \u003c Application, Landroid/view/View, setOnClickListener(Landroid/view/View$OnClickListener;)V \u003e@579",
          "type": "activity",
          "component": "com.androidemu.harvemaoxiandao4.MainActivity"
        },
        {
          "start": "com.waps.s.onClick(Landroid/view/View;)V",
          "target": "invokeinterface \u003c Application, Lorg/apache/http/client/HttpClient, execute(Lorg/apache/http/client/methods/HttpUriRequest;)Lorg/apache/http/HttpResponse; \u003e@191",
          "type": "ui",
          "activities": [
            "com.androidemu.harvemaoxiandao4.MainActivity"
          ],
          "listener": "com.waps.s",
          "listenerMethod": "onClick",
          "uiType": "onClick",
          "constraintsFile": "constraints31_0.py",
          "variables": {},
          "stringMap": {
            "7000": ""
          },
          "strings": {
            "IAAv0": ""
          }
        }
      ]
    },
    "32": {
      "startMethod": "com.waps.u.onDownloadStart(Ljava/lang/String;Ljava/lang/String;Ljava/lang/String;Ljava/lang/String;J)V",
      "targetMethod": "org.apache.http.impl.client.DefaultHttpClient.execute(Lorg/apache/http/client/methods/HttpUriRequest;)Lorg/apache/http/HttpResponse;",
      "eventChain": [
        {
          "start": "com.waps.OffersWebView.onCreate(Landroid/os/Bundle;)V",
          "target": "invokevirtual \u003c Application, Landroid/webkit/WebView, setDownloadListener(Landroid/webkit/DownloadListener;)V \u003e@1098",
          "type": "activity",
          "component": "com.waps.OffersWebView",
          "constraintsFile": "constraints32_0.py",
          "variables": {
            "SharedPreferences\u003cpackageName\u003e": "IAAv6",
            "SharedPreferences\u003cshort_className\u003e": "IAAv1",
            "SharedPreferences\u003cclassName\u003e": "IAAv8"
          },
          "stringMap": {
            "7000": "",
            "7001": "com.waps.OffersWebView",
            "7002": "feedback",
            "7003": "down_type",
            "7004": "true",
            "7005": "false",
            "7006": "OffersWebView",
            "7007": "notify",
            "7008": "show"
          },
          "strings": {
            "IAAv1": "",
            "IAAv8": "",
            "IAAv6": ""
          }
        },
        {
          "start": "com.waps.w.onClick(Landroid/content/DialogInterface;I)V",
          "target": "",
          "type": "ui",
          "activities": [
            "com.androidemu.harvemaoxiandao4.MainActivity"
          ],
          "listener": "com.waps.w",
          "listenerMethod": "onClick",
          "uiType": "onClick",
          "inDialog": "true",
          "constraintsFile": "constraints32_1.py",
          "variables": {},
          "stringMap": {},
          "strings": {}
        },
        {
          "start": "com.waps.u.onDownloadStart(Ljava/lang/String;Ljava/lang/String;Ljava/lang/String;Ljava/lang/String;J)V",
          "target": "invokevirtual \u003c Application, Lorg/apache/http/impl/client/DefaultHttpClient, execute(Lorg/apache/http/client/methods/HttpUriRequest;)Lorg/apache/http/HttpResponse; \u003e@163",
          "type": "",
          "constraintsFile": "constraints32_2.py",
          "variables": {},
          "stringMap": {},
          "strings": {}
        }
      ]
    },
    "33": {
      "startMethod": "com.waps.u.onDownloadStart(Ljava/lang/String;Ljava/lang/String;Ljava/lang/String;Ljava/lang/String;J)V",
      "targetMethod": "java.net.URL.openConnection()Ljava/net/URLConnection;",
      "eventChain": [
        {
          "start": "com.waps.OffersWebView.onCreate(Landroid/os/Bundle;)V",
          "target": "invokevirtual \u003c Application, Landroid/webkit/WebView, setDownloadListener(Landroid/webkit/DownloadListener;)V \u003e@1098",
          "type": "activity",
          "component": "com.waps.OffersWebView",
          "constraintsFile": "constraints33_0.py",
          "variables": {
            "SharedPreferences\u003cpackageName\u003e": "IAAv6",
            "SharedPreferences\u003cshort_className\u003e": "IAAv1",
            "SharedPreferences\u003cclassName\u003e": "IAAv8"
          },
          "stringMap": {
            "7000": "",
            "7001": "com.waps.OffersWebView",
            "7002": "feedback",
            "7003": "down_type",
            "7004": "true",
            "7005": "false",
            "7006": "OffersWebView",
            "7007": "notify",
            "7008": "show"
          },
          "strings": {
            "IAAv1": "",
            "IAAv8": "",
            "IAAv6": ""
          }
        },
        {
          "start": "com.waps.u.onDownloadStart(Ljava/lang/String;Ljava/lang/String;Ljava/lang/String;Ljava/lang/String;J)V",
          "target": "invokevirtual \u003c Application, Ljava/net/URL, openConnection()Ljava/net/URLConnection; \u003e@33",
          "type": "",
          "constraintsFile": "constraints33_1.py",
          "variables": {},
          "stringMap": {},
          "strings": {}
        }
      ]
    },
    "34": {
      "startMethod": "com.waps.q.onReceive(Landroid/content/Context;Landroid/content/Intent;)V",
      "targetMethod": "org.apache.http.client.HttpClient.execute(Lorg/apache/http/client/methods/HttpUriRequest;)Lorg/apache/http/HttpResponse;",
      "eventChain": [
        {
          "start": "com.waps.x.onClick(Landroid/content/DialogInterface;I)V",
          "target": "invokespecial \u003c Application, Landroid/content/BroadcastReceiver, \u003cinit\u003e()V \u003e@2",
          "type": "ui",
          "activities": [
            "com.androidemu.harvemaoxiandao4.MainActivity"
          ],
          "listener": "com.waps.x",
          "listenerMethod": "onClick",
          "uiType": "onClick",
          "inDialog": "true"
        },
        {
          "start": "com.androidemu.harvemaoxiandao4.MainActivity.onResume()V",
          "target": "",
          "type": "activity",
          "component": "com.androidemu.harvemaoxiandao4.MainActivity"
        },
        {
          "start": "com.waps.q.onReceive(Landroid/content/Context;Landroid/content/Intent;)V",
          "target": "invokeinterface \u003c Application, Lorg/apache/http/client/HttpClient, execute(Lorg/apache/http/client/methods/HttpUriRequest;)Lorg/apache/http/HttpResponse; \u003e@191",
          "type": "sms",
          "constraintsFile": "constraints34_0.py",
          "variables": {
            "\u003cChainedInput2\u003e.getDataString()": "IAAv2",
            "\u003cChainedInput2\u003e.getAction()": "IAAv0"
          },
          "stringMap": {
            "7000": "android.intent.action.PACKAGE_ADDED"
          },
          "strings": {
            "IAAv2": "",
            "IAAv0": ""
          }
        }
      ]
    }
  }
}