{
  "packageName": "com.dempsey.abssolution",
  "mainActivity": "com.dempsey.abssolution.MainActivity",
  "callPaths": {
    "0": {
      "startMethod": "com.dempsey.abssolution.FitnessAdviceActivity.onCreate(Landroid/os/Bundle;)V",
      "targetMethod": "org.apache.http.client.HttpClient.execute(Lorg/apache/http/client/methods/HttpUriRequest;)Lorg/apache/http/HttpResponse;",
      "eventChain": [
        {
          "start": "com.dempsey.abssolution.FitnessAdviceActivity.onCreate(Landroid/os/Bundle;)V",
          "target": "invokeinterface \u003c Application, Lorg/apache/http/client/HttpClient, execute(Lorg/apache/http/client/methods/HttpUriRequest;)Lorg/apache/http/HttpResponse; \u003e@31",
          "type": "activity",
          "component": "com.dempsey.abssolution.FitnessAdviceActivity"
        }
      ]
    },
    "1": {
      "startMethod": "com.dempsey.abssolution.DietPlanActivity.onCreate(Landroid/os/Bundle;)V",
      "targetMethod": "java.net.URL.openConnection()Ljava/net/URLConnection;",
      "eventChain": [
        {
          "start": "com.dempsey.abssolution.DietPlanActivity.onCreate(Landroid/os/Bundle;)V",
          "target": "invokevirtual \u003c Application, Ljava/net/URL, openConnection()Ljava/net/URLConnection; \u003e@20",
          "type": "activity",
          "component": "com.dempsey.abssolution.DietPlanActivity"
        }
      ]
    },
    "2": {
      "startMethod": "com.dempsey.abssolution.DietPlanActivity.onCreate(Landroid/os/Bundle;)V",
      "targetMethod": "org.apache.http.client.HttpClient.execute(Lorg/apache/http/client/methods/HttpUriRequest;)Lorg/apache/http/HttpResponse;",
      "eventChain": [
        {
          "start": "com.dempsey.abssolution.DietPlanActivity.onCreate(Landroid/os/Bundle;)V",
          "target": "invokeinterface \u003c Application, Lorg/apache/http/client/HttpClient, execute(Lorg/apache/http/client/methods/HttpUriRequest;)Lorg/apache/http/HttpResponse; \u003e@31",
          "type": "activity",
          "component": "com.dempsey.abssolution.DietPlanActivity"
        }
      ]
    }
  }
}