{
  "packageName": "com.karolisjc.shamanrun",
  "mainActivity": "com.unity3d.player.UnityPlayerActivity",
  "callPaths": {
    "0": {
      "startMethod": "com.unity3d.player.UnityPlayerActivity.onResume()V",
      "targetMethod": "android.location.LocationManager.getLastKnownLocation(Ljava/lang/String;)Landroid/location/Location;",
      "eventChain": [
        {
          "start": "com.unity3d.player.q.\u003cclinit\u003e()V",
          "target": "",
          "type": "",
          "constraintsFile": "constraints0_0.py",
          "variables": {},
          "stringMap": {},
          "strings": {}
        },
        {
          "start": "com.unity3d.player.UnityPlayerActivity.onResume()V",
          "target": "invokevirtual \u003c Application, Landroid/location/LocationManager, getLastKnownLocation(Ljava/lang/String;)Landroid/location/Location; \u003e@233",
          "type": "activity",
          "component": "com.unity3d.player.UnityPlayerActivity",
          "constraintsFile": "constraints0_1.py",
          "variables": {},
          "stringMap": {},
          "strings": {}
        }
      ]
    },
    "1": {
      "startMethod": "com.unity3d.player.UnityPlayerActivity.onResume()V",
      "targetMethod": "android.location.LocationManager.getProviders(Z)Ljava/util/List;",
      "eventChain": [
        {
          "start": "com.unity3d.player.q.\u003cclinit\u003e()V",
          "target": "",
          "type": "",
          "constraintsFile": "constraints1_0.py",
          "variables": {},
          "stringMap": {},
          "strings": {}
        },
        {
          "start": "com.unity3d.player.UnityPlayerActivity.onResume()V",
          "target": "invokevirtual \u003c Application, Landroid/location/LocationManager, getProviders(Z)Ljava/util/List; \u003e@81",
          "type": "activity",
          "component": "com.unity3d.player.UnityPlayerActivity",
          "constraintsFile": "constraints1_1.py",
          "variables": {},
          "stringMap": {},
          "strings": {}
        }
      ]
    },
    "2": {
      "startMethod": "com.unity3d.player.UnityPlayerActivity.onResume()V",
      "targetMethod": "android.location.LocationManager.getProvider(Ljava/lang/String;)Landroid/location/LocationProvider;",
      "eventChain": [
        {
          "start": "com.unity3d.player.q.\u003cclinit\u003e()V",
          "target": "",
          "type": "",
          "constraintsFile": "constraints2_0.py",
          "variables": {},
          "stringMap": {},
          "strings": {}
        },
        {
          "start": "com.unity3d.player.UnityPlayerActivity.onResume()V",
          "target": "invokevirtual \u003c Application, Landroid/location/LocationManager, getProvider(Ljava/lang/String;)Landroid/location/LocationProvider; \u003e@216",
          "type": "activity",
          "component": "com.unity3d.player.UnityPlayerActivity",
          "constraintsFile": "constraints2_1.py",
          "variables": {},
          "stringMap": {},
          "strings": {}
        }
      ]
    },
    "3": {
      "startMethod": "com.unity3d.player.UnityPlayerActivity.onResume()V",
      "targetMethod": "android.location.LocationManager.requestLocationUpdates(Ljava/lang/String;JFLandroid/location/LocationListener;Landroid/os/Looper;)V",
      "eventChain": [
        {
          "start": "com.unity3d.player.q.\u003cclinit\u003e()V",
          "target": "",
          "type": "",
          "constraintsFile": "constraints3_0.py",
          "variables": {},
          "stringMap": {},
          "strings": {}
        },
        {
          "start": "com.unity3d.player.UnityPlayerActivity.onResume()V",
          "target": "invokevirtual \u003c Application, Landroid/location/LocationManager, requestLocationUpdates(Ljava/lang/String;JFLandroid/location/LocationListener;Landroid/os/Looper;)V \u003e@277",
          "type": "activity",
          "component": "com.unity3d.player.UnityPlayerActivity",
          "constraintsFile": "constraints3_1.py",
          "variables": {},
          "stringMap": {},
          "strings": {}
        }
      ]
    },
    "4": {
      "startMethod": "com.unity3d.player.UnityPlayerActivity.onResume()V",
      "targetMethod": "android.location.LocationManager.getProviders(Landroid/location/Criteria;Z)Ljava/util/List;",
      "eventChain": [
        {
          "start": "com.unity3d.player.q.\u003cclinit\u003e()V",
          "target": "",
          "type": "",
          "constraintsFile": "constraints4_0.py",
          "variables": {},
          "stringMap": {},
          "strings": {}
        },
        {
          "start": "com.unity3d.player.UnityPlayerActivity.onResume()V",
          "target": "invokevirtual \u003c Application, Landroid/location/LocationManager, getProviders(Landroid/location/Criteria;Z)Ljava/util/List; \u003e@33",
          "type": "activity",
          "component": "com.unity3d.player.UnityPlayerActivity",
          "constraintsFile": "constraints4_1.py",
          "variables": {},
          "stringMap": {},
          "strings": {}
        }
      ]
    },
    "5": {
      "startMethod": "com.unity3d.player.UnityPlayerActivity.onResume()V",
      "targetMethod": "android.location.LocationManager.getProvider(Ljava/lang/String;)Landroid/location/LocationProvider;",
      "eventChain": [
        {
          "start": "com.unity3d.player.q.\u003cclinit\u003e()V",
          "target": "",
          "type": "",
          "constraintsFile": "constraints5_0.py",
          "variables": {},
          "stringMap": {},
          "strings": {}
        },
        {
          "start": "com.unity3d.player.UnityPlayerActivity.onResume()V",
          "target": "invokevirtual \u003c Application, Landroid/location/LocationManager, getProvider(Ljava/lang/String;)Landroid/location/LocationProvider; \u003e@155",
          "type": "activity",
          "component": "com.unity3d.player.UnityPlayerActivity",
          "constraintsFile": "constraints5_1.py",
          "variables": {},
          "stringMap": {},
          "strings": {}
        }
      ]
    },
    "6": {
      "startMethod": "com.unity3d.player.w.onKeyDown(ILandroid/view/KeyEvent;)Z",
      "targetMethod": "android.location.LocationManager.getProviders(Landroid/location/Criteria;Z)Ljava/util/List;",
      "eventChain": [
        {
          "start": "com.unity3d.player.w.onKeyDown(ILandroid/view/KeyEvent;)Z",
          "target": "PC@216",
          "type": "ui",
          "activities": [
            "com.unity3d.player.UnityPlayerActivity"
          ],
          "listener": "com.unity3d.player.w",
          "listenerMethod": "onKeyDown",
          "uiType": "onKeyDown",
          "constraintsFile": "constraints6_0.py",
          "variables": {
            "\u003cChainedInput1\u003e": "IAAv0",
            "\u003cChainedInput2\u003e.isSystem()": "IAAv2"
          },
          "stringMap": {},
          "strings": {}
        },
        {
          "start": "com.unity3d.player.w.onKeyDown(ILandroid/view/KeyEvent;)Z",
          "target": "invokevirtual \u003c Application, Landroid/location/LocationManager, getProviders(Landroid/location/Criteria;Z)Ljava/util/List; \u003e@33",
          "type": "ui",
          "activities": [
            "com.unity3d.player.UnityPlayerActivity"
          ],
          "listener": "com.unity3d.player.w",
          "listenerMethod": "onKeyDown",
          "uiType": "onKeyDown",
          "constraintsFile": "constraints6_1.py",
          "variables": {
            "\u003cChainedInput1\u003e": "IAAv0",
            "\u003cChainedInput2\u003e.isSystem()": "IAAv2"
          },
          "stringMap": {},
          "strings": {}
        }
      ]
    },
    "7": {
      "startMethod": "com.unity3d.player.w.onKeyDown(ILandroid/view/KeyEvent;)Z",
      "targetMethod": "android.location.LocationManager.getProvider(Ljava/lang/String;)Landroid/location/LocationProvider;",
      "eventChain": [
        {
          "start": "com.unity3d.player.w.onKeyDown(ILandroid/view/KeyEvent;)Z",
          "target": "PC@216",
          "type": "ui",
          "activities": [
            "com.unity3d.player.UnityPlayerActivity"
          ],
          "listener": "com.unity3d.player.w",
          "listenerMethod": "onKeyDown",
          "uiType": "onKeyDown",
          "constraintsFile": "constraints7_0.py",
          "variables": {
            "\u003cChainedInput1\u003e": "IAAv0",
            "\u003cChainedInput2\u003e.isSystem()": "IAAv2"
          },
          "stringMap": {},
          "strings": {}
        },
        {
          "start": "com.unity3d.player.w.onKeyDown(ILandroid/view/KeyEvent;)Z",
          "target": "invokevirtual \u003c Application, Landroid/location/LocationManager, getProvider(Ljava/lang/String;)Landroid/location/LocationProvider; \u003e@216",
          "type": "ui",
          "activities": [
            "com.unity3d.player.UnityPlayerActivity"
          ],
          "listener": "com.unity3d.player.w",
          "listenerMethod": "onKeyDown",
          "uiType": "onKeyDown",
          "constraintsFile": "constraints7_1.py",
          "variables": {
            "\u003cChainedInput1\u003e": "IAAv0",
            "\u003cChainedInput2\u003e.isSystem()": "IAAv2"
          },
          "stringMap": {},
          "strings": {}
        }
      ]
    },
    "8": {
      "startMethod": "com.unity3d.player.w.onKeyDown(ILandroid/view/KeyEvent;)Z",
      "targetMethod": "android.media.MediaPlayer.pause()V",
      "eventChain": [
        {
          "start": "com.unity3d.player.w.onKeyDown(ILandroid/view/KeyEvent;)Z",
          "target": "PC@216",
          "type": "ui",
          "activities": [
            "com.unity3d.player.UnityPlayerActivity"
          ],
          "listener": "com.unity3d.player.w",
          "listenerMethod": "onKeyDown",
          "uiType": "onKeyDown",
          "constraintsFile": "constraints8_0.py",
          "variables": {
            "\u003cChainedInput1\u003e": "IAAv0",
            "\u003cChainedInput2\u003e.isSystem()": "IAAv2"
          },
          "stringMap": {},
          "strings": {}
        },
        {
          "start": "com.unity3d.player.w.onKeyDown(ILandroid/view/KeyEvent;)Z",
          "target": "invokevirtual \u003c Application, Landroid/media/MediaPlayer, pause()V \u003e@17",
          "type": "ui",
          "activities": [
            "com.unity3d.player.UnityPlayerActivity"
          ],
          "listener": "com.unity3d.player.w",
          "listenerMethod": "onKeyDown",
          "uiType": "onKeyDown",
          "constraintsFile": "constraints8_1.py",
          "variables": {
            "\u003cChainedInput1\u003e": "IAAv0",
            "\u003cChainedInput2\u003e.isSystem()": "IAAv2"
          },
          "stringMap": {},
          "strings": {}
        }
      ]
    },
    "9": {
      "startMethod": "com.unity3d.player.w.onKeyDown(ILandroid/view/KeyEvent;)Z",
      "targetMethod": "android.media.MediaPlayer.release()V",
      "eventChain": [
        {
          "start": "com.unity3d.player.w.onKeyDown(ILandroid/view/KeyEvent;)Z",
          "target": "PC@216",
          "type": "ui",
          "activities": [
            "com.unity3d.player.UnityPlayerActivity"
          ],
          "listener": "com.unity3d.player.w",
          "listenerMethod": "onKeyDown",
          "uiType": "onKeyDown",
          "constraintsFile": "constraints9_0.py",
          "variables": {
            "\u003cChainedInput1\u003e": "IAAv0",
            "\u003cChainedInput2\u003e.isSystem()": "IAAv2"
          },
          "stringMap": {},
          "strings": {}
        },
        {
          "start": "com.unity3d.player.w.onKeyDown(ILandroid/view/KeyEvent;)Z",
          "target": "invokevirtual \u003c Application, Landroid/media/MediaPlayer, release()V \u003e@18",
          "type": "ui",
          "activities": [
            "com.unity3d.player.UnityPlayerActivity"
          ],
          "listener": "com.unity3d.player.w",
          "listenerMethod": "onKeyDown",
          "uiType": "onKeyDown",
          "constraintsFile": "constraints9_1.py",
          "variables": {
            "\u003cChainedInput1\u003e": "IAAv0",
            "\u003cChainedInput2\u003e.isSystem()": "IAAv2"
          },
          "stringMap": {},
          "strings": {}
        }
      ]
    },
    "10": {
      "startMethod": "com.unity3d.player.w.onKeyDown(ILandroid/view/KeyEvent;)Z",
      "targetMethod": "android.location.LocationManager.getProviders(Z)Ljava/util/List;",
      "eventChain": [
        {
          "start": "com.unity3d.player.w.onKeyDown(ILandroid/view/KeyEvent;)Z",
          "target": "PC@216",
          "type": "ui",
          "activities": [
            "com.unity3d.player.UnityPlayerActivity"
          ],
          "listener": "com.unity3d.player.w",
          "listenerMethod": "onKeyDown",
          "uiType": "onKeyDown",
          "constraintsFile": "constraints10_0.py",
          "variables": {
            "\u003cChainedInput1\u003e": "IAAv0",
            "\u003cChainedInput2\u003e.isSystem()": "IAAv2"
          },
          "stringMap": {},
          "strings": {}
        },
        {
          "start": "com.unity3d.player.w.onKeyDown(ILandroid/view/KeyEvent;)Z",
          "target": "invokevirtual \u003c Application, Landroid/location/LocationManager, getProviders(Z)Ljava/util/List; \u003e@81",
          "type": "ui",
          "activities": [
            "com.unity3d.player.UnityPlayerActivity"
          ],
          "listener": "com.unity3d.player.w",
          "listenerMethod": "onKeyDown",
          "uiType": "onKeyDown",
          "constraintsFile": "constraints10_1.py",
          "variables": {
            "\u003cChainedInput1\u003e": "IAAv0",
            "\u003cChainedInput2\u003e.isSystem()": "IAAv2"
          },
          "stringMap": {},
          "strings": {}
        }
      ]
    },
    "11": {
      "startMethod": "com.unity3d.player.w.onKeyDown(ILandroid/view/KeyEvent;)Z",
      "targetMethod": "android.location.LocationManager.getProvider(Ljava/lang/String;)Landroid/location/LocationProvider;",
      "eventChain": [
        {
          "start": "com.unity3d.player.w.onKeyDown(ILandroid/view/KeyEvent;)Z",
          "target": "PC@216",
          "type": "ui",
          "activities": [
            "com.unity3d.player.UnityPlayerActivity"
          ],
          "listener": "com.unity3d.player.w",
          "listenerMethod": "onKeyDown",
          "uiType": "onKeyDown",
          "constraintsFile": "constraints11_0.py",
          "variables": {
            "\u003cChainedInput1\u003e": "IAAv0",
            "\u003cChainedInput2\u003e.isSystem()": "IAAv2"
          },
          "stringMap": {},
          "strings": {}
        },
        {
          "start": "com.unity3d.player.w.onKeyDown(ILandroid/view/KeyEvent;)Z",
          "target": "invokevirtual \u003c Application, Landroid/location/LocationManager, getProvider(Ljava/lang/String;)Landroid/location/LocationProvider; \u003e@155",
          "type": "ui",
          "activities": [
            "com.unity3d.player.UnityPlayerActivity"
          ],
          "listener": "com.unity3d.player.w",
          "listenerMethod": "onKeyDown",
          "uiType": "onKeyDown",
          "constraintsFile": "constraints11_1.py",
          "variables": {
            "\u003cChainedInput1\u003e": "IAAv0",
            "\u003cChainedInput2\u003e.isSystem()": "IAAv2"
          },
          "stringMap": {},
          "strings": {}
        }
      ]
    },
    "12": {
      "startMethod": "com.unity3d.player.w.onKeyDown(ILandroid/view/KeyEvent;)Z",
      "targetMethod": "android.location.LocationManager.getLastKnownLocation(Ljava/lang/String;)Landroid/location/Location;",
      "eventChain": [
        {
          "start": "com.unity3d.player.w.onKeyDown(ILandroid/view/KeyEvent;)Z",
          "target": "PC@216",
          "type": "ui",
          "activities": [
            "com.unity3d.player.UnityPlayerActivity"
          ],
          "listener": "com.unity3d.player.w",
          "listenerMethod": "onKeyDown",
          "uiType": "onKeyDown",
          "constraintsFile": "constraints12_0.py",
          "variables": {
            "\u003cChainedInput1\u003e": "IAAv0",
            "\u003cChainedInput2\u003e.isSystem()": "IAAv2"
          },
          "stringMap": {},
          "strings": {}
        },
        {
          "start": "com.unity3d.player.w.onKeyDown(ILandroid/view/KeyEvent;)Z",
          "target": "invokevirtual \u003c Application, Landroid/location/LocationManager, getLastKnownLocation(Ljava/lang/String;)Landroid/location/Location; \u003e@233",
          "type": "ui",
          "activities": [
            "com.unity3d.player.UnityPlayerActivity"
          ],
          "listener": "com.unity3d.player.w",
          "listenerMethod": "onKeyDown",
          "uiType": "onKeyDown",
          "constraintsFile": "constraints12_1.py",
          "variables": {
            "\u003cChainedInput1\u003e": "IAAv0",
            "\u003cChainedInput2\u003e.isSystem()": "IAAv2"
          },
          "stringMap": {},
          "strings": {}
        }
      ]
    },
    "13": {
      "startMethod": "com.unity3d.player.w.onKeyDown(ILandroid/view/KeyEvent;)Z",
      "targetMethod": "android.location.LocationManager.requestLocationUpdates(Ljava/lang/String;JFLandroid/location/LocationListener;Landroid/os/Looper;)V",
      "eventChain": [
        {
          "start": "com.unity3d.player.w.onKeyDown(ILandroid/view/KeyEvent;)Z",
          "target": "PC@216",
          "type": "ui",
          "activities": [
            "com.unity3d.player.UnityPlayerActivity"
          ],
          "listener": "com.unity3d.player.w",
          "listenerMethod": "onKeyDown",
          "uiType": "onKeyDown",
          "constraintsFile": "constraints13_0.py",
          "variables": {
            "\u003cChainedInput1\u003e": "IAAv0",
            "\u003cChainedInput2\u003e.isSystem()": "IAAv2"
          },
          "stringMap": {},
          "strings": {}
        },
        {
          "start": "com.unity3d.player.w.onKeyDown(ILandroid/view/KeyEvent;)Z",
          "target": "invokevirtual \u003c Application, Landroid/location/LocationManager, requestLocationUpdates(Ljava/lang/String;JFLandroid/location/LocationListener;Landroid/os/Looper;)V \u003e@277",
          "type": "ui",
          "activities": [
            "com.unity3d.player.UnityPlayerActivity"
          ],
          "listener": "com.unity3d.player.w",
          "listenerMethod": "onKeyDown",
          "uiType": "onKeyDown",
          "constraintsFile": "constraints13_1.py",
          "variables": {
            "\u003cChainedInput1\u003e": "IAAv0",
            "\u003cChainedInput2\u003e.isSystem()": "IAAv2"
          },
          "stringMap": {},
          "strings": {}
        }
      ]
    },
    "14": {
      "startMethod": "com.unity3d.player.UnityPlayerActivity.onWindowFocusChanged(Z)V",
      "targetMethod": "android.location.LocationManager.getProviders(Z)Ljava/util/List;",
      "eventChain": [
        {
          "start": "com.unity3d.player.UnityPlayerActivity.onWindowFocusChanged(Z)V",
          "target": "invokevirtual \u003c Application, Landroid/location/LocationManager, getProviders(Z)Ljava/util/List; \u003e@81",
          "type": "ui",
          "activities": [
            "com.unity3d.player.UnityPlayerActivity"
          ],
          "listener": "com.unity3d.player.UnityPlayerActivity",
          "listenerMethod": "onWindowFocusChanged",
          "uiType": "onWindowFocusChanged",
          "constraintsFile": "constraints14_0.py",
          "variables": {
            "\u003cChainedInput1\u003e": "IAAv0"
          },
          "stringMap": {},
          "strings": {}
        }
      ]
    },
    "15": {
      "startMethod": "com.unity3d.player.UnityPlayerActivity.onWindowFocusChanged(Z)V",
      "targetMethod": "android.location.LocationManager.getProvider(Ljava/lang/String;)Landroid/location/LocationProvider;",
      "eventChain": [
        {
          "start": "com.unity3d.player.UnityPlayerActivity.onWindowFocusChanged(Z)V",
          "target": "invokevirtual \u003c Application, Landroid/location/LocationManager, getProvider(Ljava/lang/String;)Landroid/location/LocationProvider; \u003e@216",
          "type": "ui",
          "activities": [
            "com.unity3d.player.UnityPlayerActivity"
          ],
          "listener": "com.unity3d.player.UnityPlayerActivity",
          "listenerMethod": "onWindowFocusChanged",
          "uiType": "onWindowFocusChanged",
          "constraintsFile": "constraints15_0.py",
          "variables": {
            "\u003cChainedInput1\u003e": "IAAv0"
          },
          "stringMap": {},
          "strings": {}
        }
      ]
    },
    "16": {
      "startMethod": "com.unity3d.player.UnityPlayerActivity.onWindowFocusChanged(Z)V",
      "targetMethod": "android.location.LocationManager.getProvider(Ljava/lang/String;)Landroid/location/LocationProvider;",
      "eventChain": [
        {
          "start": "com.unity3d.player.UnityPlayerActivity.onWindowFocusChanged(Z)V",
          "target": "invokevirtual \u003c Application, Landroid/location/LocationManager, getProvider(Ljava/lang/String;)Landroid/location/LocationProvider; \u003e@155",
          "type": "ui",
          "activities": [
            "com.unity3d.player.UnityPlayerActivity"
          ],
          "listener": "com.unity3d.player.UnityPlayerActivity",
          "listenerMethod": "onWindowFocusChanged",
          "uiType": "onWindowFocusChanged",
          "constraintsFile": "constraints16_0.py",
          "variables": {
            "\u003cChainedInput1\u003e": "IAAv0"
          },
          "stringMap": {},
          "strings": {}
        }
      ]
    },
    "17": {
      "startMethod": "com.unity3d.player.UnityPlayerActivity.onWindowFocusChanged(Z)V",
      "targetMethod": "android.location.LocationManager.getProviders(Landroid/location/Criteria;Z)Ljava/util/List;",
      "eventChain": [
        {
          "start": "com.unity3d.player.UnityPlayerActivity.onWindowFocusChanged(Z)V",
          "target": "invokevirtual \u003c Application, Landroid/location/LocationManager, getProviders(Landroid/location/Criteria;Z)Ljava/util/List; \u003e@33",
          "type": "ui",
          "activities": [
            "com.unity3d.player.UnityPlayerActivity"
          ],
          "listener": "com.unity3d.player.UnityPlayerActivity",
          "listenerMethod": "onWindowFocusChanged",
          "uiType": "onWindowFocusChanged",
          "constraintsFile": "constraints17_0.py",
          "variables": {
            "\u003cChainedInput1\u003e": "IAAv0"
          },
          "stringMap": {},
          "strings": {}
        }
      ]
    },
    "18": {
      "startMethod": "com.unity3d.player.UnityPlayerActivity.onWindowFocusChanged(Z)V",
      "targetMethod": "android.location.LocationManager.getLastKnownLocation(Ljava/lang/String;)Landroid/location/Location;",
      "eventChain": [
        {
          "start": "com.unity3d.player.UnityPlayerActivity.onWindowFocusChanged(Z)V",
          "target": "invokevirtual \u003c Application, Landroid/location/LocationManager, getLastKnownLocation(Ljava/lang/String;)Landroid/location/Location; \u003e@233",
          "type": "ui",
          "activities": [
            "com.unity3d.player.UnityPlayerActivity"
          ],
          "listener": "com.unity3d.player.UnityPlayerActivity",
          "listenerMethod": "onWindowFocusChanged",
          "uiType": "onWindowFocusChanged",
          "constraintsFile": "constraints18_0.py",
          "variables": {
            "\u003cChainedInput1\u003e": "IAAv0"
          },
          "stringMap": {},
          "strings": {}
        }
      ]
    },
    "19": {
      "startMethod": "com.unity3d.player.UnityPlayerActivity.onWindowFocusChanged(Z)V",
      "targetMethod": "android.location.LocationManager.requestLocationUpdates(Ljava/lang/String;JFLandroid/location/LocationListener;Landroid/os/Looper;)V",
      "eventChain": [
        {
          "start": "com.unity3d.player.UnityPlayerActivity.onWindowFocusChanged(Z)V",
          "target": "invokevirtual \u003c Application, Landroid/location/LocationManager, requestLocationUpdates(Ljava/lang/String;JFLandroid/location/LocationListener;Landroid/os/Looper;)V \u003e@277",
          "type": "ui",
          "activities": [
            "com.unity3d.player.UnityPlayerActivity"
          ],
          "listener": "com.unity3d.player.UnityPlayerActivity",
          "listenerMethod": "onWindowFocusChanged",
          "uiType": "onWindowFocusChanged",
          "constraintsFile": "constraints19_0.py",
          "variables": {
            "\u003cChainedInput1\u003e": "IAAv0"
          },
          "stringMap": {},
          "strings": {}
        }
      ]
    },
    "20": {
      "startMethod": "com.unity3d.player.UnityPlayerNativeActivity.onWindowFocusChanged(Z)V",
      "targetMethod": "android.location.LocationManager.getLastKnownLocation(Ljava/lang/String;)Landroid/location/Location;",
      "eventChain": [
        {
          "start": "com.unity3d.player.UnityPlayerNativeActivity.onWindowFocusChanged(Z)V",
          "target": "invokevirtual \u003c Application, Landroid/location/LocationManager, getLastKnownLocation(Ljava/lang/String;)Landroid/location/Location; \u003e@233",
          "type": "ui",
          "activities": [
            "com.unity3d.player.UnityPlayerActivity"
          ],
          "listener": "com.unity3d.player.UnityPlayerNativeActivity",
          "listenerMethod": "onWindowFocusChanged",
          "uiType": "onWindowFocusChanged",
          "constraintsFile": "constraints20_0.py",
          "variables": {
            "\u003cChainedInput1\u003e": "IAAv0"
          },
          "stringMap": {},
          "strings": {}
        }
      ]
    },
    "21": {
      "startMethod": "com.unity3d.player.UnityPlayerNativeActivity.onWindowFocusChanged(Z)V",
      "targetMethod": "android.location.LocationManager.getProviders(Z)Ljava/util/List;",
      "eventChain": [
        {
          "start": "com.unity3d.player.UnityPlayerNativeActivity.onWindowFocusChanged(Z)V",
          "target": "invokevirtual \u003c Application, Landroid/location/LocationManager, getProviders(Z)Ljava/util/List; \u003e@81",
          "type": "ui",
          "activities": [
            "com.unity3d.player.UnityPlayerActivity"
          ],
          "listener": "com.unity3d.player.UnityPlayerNativeActivity",
          "listenerMethod": "onWindowFocusChanged",
          "uiType": "onWindowFocusChanged",
          "constraintsFile": "constraints21_0.py",
          "variables": {
            "\u003cChainedInput1\u003e": "IAAv0"
          },
          "stringMap": {},
          "strings": {}
        }
      ]
    },
    "22": {
      "startMethod": "com.unity3d.player.UnityPlayerNativeActivity.onWindowFocusChanged(Z)V",
      "targetMethod": "android.location.LocationManager.getProvider(Ljava/lang/String;)Landroid/location/LocationProvider;",
      "eventChain": [
        {
          "start": "com.unity3d.player.UnityPlayerNativeActivity.onWindowFocusChanged(Z)V",
          "target": "invokevirtual \u003c Application, Landroid/location/LocationManager, getProvider(Ljava/lang/String;)Landroid/location/LocationProvider; \u003e@155",
          "type": "ui",
          "activities": [
            "com.unity3d.player.UnityPlayerActivity"
          ],
          "listener": "com.unity3d.player.UnityPlayerNativeActivity",
          "listenerMethod": "onWindowFocusChanged",
          "uiType": "onWindowFocusChanged",
          "constraintsFile": "constraints22_0.py",
          "variables": {
            "\u003cChainedInput1\u003e": "IAAv0"
          },
          "stringMap": {},
          "strings": {}
        }
      ]
    },
    "23": {
      "startMethod": "com.unity3d.player.UnityPlayerNativeActivity.onWindowFocusChanged(Z)V",
      "targetMethod": "android.location.LocationManager.getProvider(Ljava/lang/String;)Landroid/location/LocationProvider;",
      "eventChain": [
        {
          "start": "com.unity3d.player.UnityPlayerNativeActivity.onWindowFocusChanged(Z)V",
          "target": "invokevirtual \u003c Application, Landroid/location/LocationManager, getProvider(Ljava/lang/String;)Landroid/location/LocationProvider; \u003e@216",
          "type": "ui",
          "activities": [
            "com.unity3d.player.UnityPlayerActivity"
          ],
          "listener": "com.unity3d.player.UnityPlayerNativeActivity",
          "listenerMethod": "onWindowFocusChanged",
          "uiType": "onWindowFocusChanged",
          "constraintsFile": "constraints23_0.py",
          "variables": {
            "\u003cChainedInput1\u003e": "IAAv0"
          },
          "stringMap": {},
          "strings": {}
        }
      ]
    },
    "24": {
      "startMethod": "com.unity3d.player.UnityPlayerNativeActivity.onWindowFocusChanged(Z)V",
      "targetMethod": "android.location.LocationManager.requestLocationUpdates(Ljava/lang/String;JFLandroid/location/LocationListener;Landroid/os/Looper;)V",
      "eventChain": [
        {
          "start": "com.unity3d.player.UnityPlayerNativeActivity.onWindowFocusChanged(Z)V",
          "target": "invokevirtual \u003c Application, Landroid/location/LocationManager, requestLocationUpdates(Ljava/lang/String;JFLandroid/location/LocationListener;Landroid/os/Looper;)V \u003e@277",
          "type": "ui",
          "activities": [
            "com.unity3d.player.UnityPlayerActivity"
          ],
          "listener": "com.unity3d.player.UnityPlayerNativeActivity",
          "listenerMethod": "onWindowFocusChanged",
          "uiType": "onWindowFocusChanged",
          "constraintsFile": "constraints24_0.py",
          "variables": {
            "\u003cChainedInput1\u003e": "IAAv0"
          },
          "stringMap": {},
          "strings": {}
        }
      ]
    },
    "25": {
      "startMethod": "com.unity3d.player.UnityPlayerNativeActivity.onWindowFocusChanged(Z)V",
      "targetMethod": "android.location.LocationManager.getProviders(Landroid/location/Criteria;Z)Ljava/util/List;",
      "eventChain": [
        {
          "start": "com.unity3d.player.UnityPlayerNativeActivity.onWindowFocusChanged(Z)V",
          "target": "invokevirtual \u003c Application, Landroid/location/LocationManager, getProviders(Landroid/location/Criteria;Z)Ljava/util/List; \u003e@33",
          "type": "ui",
          "activities": [
            "com.unity3d.player.UnityPlayerActivity"
          ],
          "listener": "com.unity3d.player.UnityPlayerNativeActivity",
          "listenerMethod": "onWindowFocusChanged",
          "uiType": "onWindowFocusChanged",
          "constraintsFile": "constraints25_0.py",
          "variables": {
            "\u003cChainedInput1\u003e": "IAAv0"
          },
          "stringMap": {},
          "strings": {}
        }
      ]
    },
    "26": {
      "startMethod": "com.unity3d.player.w.onTouchEvent(Landroid/view/MotionEvent;)Z",
      "targetMethod": "android.location.LocationManager.getProviders(Landroid/location/Criteria;Z)Ljava/util/List;",
      "eventChain": [
        {
          "start": "com.unity3d.player.w.onKeyDown(ILandroid/view/KeyEvent;)Z",
          "target": "invokespecial \u003c Application, Landroid/widget/FrameLayout, onKeyDown(ILandroid/view/KeyEvent;)Z \u003e@70",
          "type": "ui",
          "activities": [
            "com.unity3d.player.UnityPlayerActivity"
          ],
          "listener": "com.unity3d.player.w",
          "listenerMethod": "onKeyDown",
          "uiType": "onKeyDown",
          "constraintsFile": "constraints26_0.py",
          "variables": {
            "\u003cChainedInput1\u003e": "IAAv0",
            "\u003cChainedInput2\u003e.isSystem()": "IAAv2"
          },
          "stringMap": {},
          "strings": {}
        },
        {
          "start": "com.unity3d.player.w.onKeyDown(ILandroid/view/KeyEvent;)Z",
          "target": "PC@216",
          "type": "ui",
          "activities": [
            "com.unity3d.player.UnityPlayerActivity"
          ],
          "listener": "com.unity3d.player.w",
          "listenerMethod": "onKeyDown",
          "uiType": "onKeyDown",
          "constraintsFile": "constraints26_1.py",
          "variables": {
            "\u003cChainedInput1\u003e": "IAAv0",
            "\u003cChainedInput2\u003e.isSystem()": "IAAv2"
          },
          "stringMap": {},
          "strings": {}
        },
        {
          "start": "com.unity3d.player.w.onTouchEvent(Landroid/view/MotionEvent;)Z",
          "target": "invokevirtual \u003c Application, Landroid/location/LocationManager, getProviders(Landroid/location/Criteria;Z)Ljava/util/List; \u003e@33",
          "type": "ui",
          "activities": [
            "com.unity3d.player.UnityPlayerActivity"
          ],
          "listener": "com.unity3d.player.w",
          "listenerMethod": "onTouchEvent",
          "uiType": "onTouchEvent",
          "constraintsFile": "constraints26_2.py",
          "variables": {
            "\u003cChainedInput1\u003e.getAction()": "IAAv1"
          },
          "stringMap": {},
          "strings": {}
        }
      ]
    },
    "27": {
      "startMethod": "com.unity3d.player.w.onTouchEvent(Landroid/view/MotionEvent;)Z",
      "targetMethod": "android.media.MediaPlayer.release()V",
      "eventChain": [
        {
          "start": "com.unity3d.player.w.onKeyDown(ILandroid/view/KeyEvent;)Z",
          "target": "invokespecial \u003c Application, Landroid/widget/FrameLayout, onKeyDown(ILandroid/view/KeyEvent;)Z \u003e@70",
          "type": "ui",
          "activities": [
            "com.unity3d.player.UnityPlayerActivity"
          ],
          "listener": "com.unity3d.player.w",
          "listenerMethod": "onKeyDown",
          "uiType": "onKeyDown",
          "constraintsFile": "constraints27_0.py",
          "variables": {
            "\u003cChainedInput1\u003e": "IAAv0",
            "\u003cChainedInput2\u003e.isSystem()": "IAAv2"
          },
          "stringMap": {},
          "strings": {}
        },
        {
          "start": "com.unity3d.player.w.onKeyDown(ILandroid/view/KeyEvent;)Z",
          "target": "PC@216",
          "type": "ui",
          "activities": [
            "com.unity3d.player.UnityPlayerActivity"
          ],
          "listener": "com.unity3d.player.w",
          "listenerMethod": "onKeyDown",
          "uiType": "onKeyDown",
          "constraintsFile": "constraints27_1.py",
          "variables": {
            "\u003cChainedInput1\u003e": "IAAv0",
            "\u003cChainedInput2\u003e.isSystem()": "IAAv2"
          },
          "stringMap": {},
          "strings": {}
        },
        {
          "start": "com.unity3d.player.w.onTouchEvent(Landroid/view/MotionEvent;)Z",
          "target": "invokevirtual \u003c Application, Landroid/media/MediaPlayer, release()V \u003e@18",
          "type": "ui",
          "activities": [
            "com.unity3d.player.UnityPlayerActivity"
          ],
          "listener": "com.unity3d.player.w",
          "listenerMethod": "onTouchEvent",
          "uiType": "onTouchEvent",
          "constraintsFile": "constraints27_2.py",
          "variables": {
            "\u003cChainedInput1\u003e.getAction()": "IAAv1"
          },
          "stringMap": {},
          "strings": {}
        }
      ]
    },
    "28": {
      "startMethod": "com.unity3d.player.w.onTouchEvent(Landroid/view/MotionEvent;)Z",
      "targetMethod": "android.location.LocationManager.getProvider(Ljava/lang/String;)Landroid/location/LocationProvider;",
      "eventChain": [
        {
          "start": "com.unity3d.player.w.onKeyDown(ILandroid/view/KeyEvent;)Z",
          "target": "invokespecial \u003c Application, Landroid/widget/FrameLayout, onKeyDown(ILandroid/view/KeyEvent;)Z \u003e@70",
          "type": "ui",
          "activities": [
            "com.unity3d.player.UnityPlayerActivity"
          ],
          "listener": "com.unity3d.player.w",
          "listenerMethod": "onKeyDown",
          "uiType": "onKeyDown",
          "constraintsFile": "constraints28_0.py",
          "variables": {
            "\u003cChainedInput1\u003e": "IAAv0",
            "\u003cChainedInput2\u003e.isSystem()": "IAAv2"
          },
          "stringMap": {},
          "strings": {}
        },
        {
          "start": "com.unity3d.player.w.onKeyDown(ILandroid/view/KeyEvent;)Z",
          "target": "PC@216",
          "type": "ui",
          "activities": [
            "com.unity3d.player.UnityPlayerActivity"
          ],
          "listener": "com.unity3d.player.w",
          "listenerMethod": "onKeyDown",
          "uiType": "onKeyDown",
          "constraintsFile": "constraints28_1.py",
          "variables": {
            "\u003cChainedInput1\u003e": "IAAv0",
            "\u003cChainedInput2\u003e.isSystem()": "IAAv2"
          },
          "stringMap": {},
          "strings": {}
        },
        {
          "start": "com.unity3d.player.w.onTouchEvent(Landroid/view/MotionEvent;)Z",
          "target": "invokevirtual \u003c Application, Landroid/location/LocationManager, getProvider(Ljava/lang/String;)Landroid/location/LocationProvider; \u003e@216",
          "type": "ui",
          "activities": [
            "com.unity3d.player.UnityPlayerActivity"
          ],
          "listener": "com.unity3d.player.w",
          "listenerMethod": "onTouchEvent",
          "uiType": "onTouchEvent",
          "constraintsFile": "constraints28_2.py",
          "variables": {
            "\u003cChainedInput1\u003e.getAction()": "IAAv1"
          },
          "stringMap": {},
          "strings": {}
        }
      ]
    },
    "29": {
      "startMethod": "com.unity3d.player.w.onTouchEvent(Landroid/view/MotionEvent;)Z",
      "targetMethod": "android.location.LocationManager.getProvider(Ljava/lang/String;)Landroid/location/LocationProvider;",
      "eventChain": [
        {
          "start": "com.unity3d.player.w.onKeyDown(ILandroid/view/KeyEvent;)Z",
          "target": "invokespecial \u003c Application, Landroid/widget/FrameLayout, onKeyDown(ILandroid/view/KeyEvent;)Z \u003e@70",
          "type": "ui",
          "activities": [
            "com.unity3d.player.UnityPlayerActivity"
          ],
          "listener": "com.unity3d.player.w",
          "listenerMethod": "onKeyDown",
          "uiType": "onKeyDown",
          "constraintsFile": "constraints29_0.py",
          "variables": {
            "\u003cChainedInput1\u003e": "IAAv0",
            "\u003cChainedInput2\u003e.isSystem()": "IAAv2"
          },
          "stringMap": {},
          "strings": {}
        },
        {
          "start": "com.unity3d.player.w.onKeyDown(ILandroid/view/KeyEvent;)Z",
          "target": "PC@216",
          "type": "ui",
          "activities": [
            "com.unity3d.player.UnityPlayerActivity"
          ],
          "listener": "com.unity3d.player.w",
          "listenerMethod": "onKeyDown",
          "uiType": "onKeyDown",
          "constraintsFile": "constraints29_1.py",
          "variables": {
            "\u003cChainedInput1\u003e": "IAAv0",
            "\u003cChainedInput2\u003e.isSystem()": "IAAv2"
          },
          "stringMap": {},
          "strings": {}
        },
        {
          "start": "com.unity3d.player.w.onTouchEvent(Landroid/view/MotionEvent;)Z",
          "target": "invokevirtual \u003c Application, Landroid/location/LocationManager, getProvider(Ljava/lang/String;)Landroid/location/LocationProvider; \u003e@155",
          "type": "ui",
          "activities": [
            "com.unity3d.player.UnityPlayerActivity"
          ],
          "listener": "com.unity3d.player.w",
          "listenerMethod": "onTouchEvent",
          "uiType": "onTouchEvent",
          "constraintsFile": "constraints29_2.py",
          "variables": {
            "\u003cChainedInput1\u003e.getAction()": "IAAv1"
          },
          "stringMap": {},
          "strings": {}
        }
      ]
    },
    "30": {
      "startMethod": "com.unity3d.player.w.onTouchEvent(Landroid/view/MotionEvent;)Z",
      "targetMethod": "android.media.MediaPlayer.pause()V",
      "eventChain": [
        {
          "start": "com.unity3d.player.w.onKeyDown(ILandroid/view/KeyEvent;)Z",
          "target": "invokespecial \u003c Application, Landroid/widget/FrameLayout, onKeyDown(ILandroid/view/KeyEvent;)Z \u003e@70",
          "type": "ui",
          "activities": [
            "com.unity3d.player.UnityPlayerActivity"
          ],
          "listener": "com.unity3d.player.w",
          "listenerMethod": "onKeyDown",
          "uiType": "onKeyDown",
          "constraintsFile": "constraints30_0.py",
          "variables": {
            "\u003cChainedInput1\u003e": "IAAv0",
            "\u003cChainedInput2\u003e.isSystem()": "IAAv2"
          },
          "stringMap": {},
          "strings": {}
        },
        {
          "start": "com.unity3d.player.w.onKeyDown(ILandroid/view/KeyEvent;)Z",
          "target": "PC@216",
          "type": "ui",
          "activities": [
            "com.unity3d.player.UnityPlayerActivity"
          ],
          "listener": "com.unity3d.player.w",
          "listenerMethod": "onKeyDown",
          "uiType": "onKeyDown",
          "constraintsFile": "constraints30_1.py",
          "variables": {
            "\u003cChainedInput1\u003e": "IAAv0",
            "\u003cChainedInput2\u003e.isSystem()": "IAAv2"
          },
          "stringMap": {},
          "strings": {}
        },
        {
          "start": "com.unity3d.player.w.onTouchEvent(Landroid/view/MotionEvent;)Z",
          "target": "invokevirtual \u003c Application, Landroid/media/MediaPlayer, pause()V \u003e@17",
          "type": "ui",
          "activities": [
            "com.unity3d.player.UnityPlayerActivity"
          ],
          "listener": "com.unity3d.player.w",
          "listenerMethod": "onTouchEvent",
          "uiType": "onTouchEvent",
          "constraintsFile": "constraints30_2.py",
          "variables": {
            "\u003cChainedInput1\u003e.getAction()": "IAAv1"
          },
          "stringMap": {},
          "strings": {}
        }
      ]
    },
    "31": {
      "startMethod": "com.unity3d.player.w.onTouchEvent(Landroid/view/MotionEvent;)Z",
      "targetMethod": "android.location.LocationManager.requestLocationUpdates(Ljava/lang/String;JFLandroid/location/LocationListener;Landroid/os/Looper;)V",
      "eventChain": [
        {
          "start": "com.unity3d.player.w.onKeyDown(ILandroid/view/KeyEvent;)Z",
          "target": "invokespecial \u003c Application, Landroid/widget/FrameLayout, onKeyDown(ILandroid/view/KeyEvent;)Z \u003e@70",
          "type": "ui",
          "activities": [
            "com.unity3d.player.UnityPlayerActivity"
          ],
          "listener": "com.unity3d.player.w",
          "listenerMethod": "onKeyDown",
          "uiType": "onKeyDown",
          "constraintsFile": "constraints31_0.py",
          "variables": {
            "\u003cChainedInput1\u003e": "IAAv0",
            "\u003cChainedInput2\u003e.isSystem()": "IAAv2"
          },
          "stringMap": {},
          "strings": {}
        },
        {
          "start": "com.unity3d.player.w.onKeyDown(ILandroid/view/KeyEvent;)Z",
          "target": "PC@216",
          "type": "ui",
          "activities": [
            "com.unity3d.player.UnityPlayerActivity"
          ],
          "listener": "com.unity3d.player.w",
          "listenerMethod": "onKeyDown",
          "uiType": "onKeyDown",
          "constraintsFile": "constraints31_1.py",
          "variables": {
            "\u003cChainedInput1\u003e": "IAAv0",
            "\u003cChainedInput2\u003e.isSystem()": "IAAv2"
          },
          "stringMap": {},
          "strings": {}
        },
        {
          "start": "com.unity3d.player.w.onTouchEvent(Landroid/view/MotionEvent;)Z",
          "target": "invokevirtual \u003c Application, Landroid/location/LocationManager, requestLocationUpdates(Ljava/lang/String;JFLandroid/location/LocationListener;Landroid/os/Looper;)V \u003e@277",
          "type": "ui",
          "activities": [
            "com.unity3d.player.UnityPlayerActivity"
          ],
          "listener": "com.unity3d.player.w",
          "listenerMethod": "onTouchEvent",
          "uiType": "onTouchEvent",
          "constraintsFile": "constraints31_2.py",
          "variables": {
            "\u003cChainedInput1\u003e.getAction()": "IAAv1"
          },
          "stringMap": {},
          "strings": {}
        }
      ]
    },
    "32": {
      "startMethod": "com.unity3d.player.w.onTouchEvent(Landroid/view/MotionEvent;)Z",
      "targetMethod": "android.location.LocationManager.getProviders(Z)Ljava/util/List;",
      "eventChain": [
        {
          "start": "com.unity3d.player.w.onKeyDown(ILandroid/view/KeyEvent;)Z",
          "target": "invokespecial \u003c Application, Landroid/widget/FrameLayout, onKeyDown(ILandroid/view/KeyEvent;)Z \u003e@70",
          "type": "ui",
          "activities": [
            "com.unity3d.player.UnityPlayerActivity"
          ],
          "listener": "com.unity3d.player.w",
          "listenerMethod": "onKeyDown",
          "uiType": "onKeyDown",
          "constraintsFile": "constraints32_0.py",
          "variables": {
            "\u003cChainedInput1\u003e": "IAAv0",
            "\u003cChainedInput2\u003e.isSystem()": "IAAv2"
          },
          "stringMap": {},
          "strings": {}
        },
        {
          "start": "com.unity3d.player.w.onKeyDown(ILandroid/view/KeyEvent;)Z",
          "target": "PC@216",
          "type": "ui",
          "activities": [
            "com.unity3d.player.UnityPlayerActivity"
          ],
          "listener": "com.unity3d.player.w",
          "listenerMethod": "onKeyDown",
          "uiType": "onKeyDown",
          "constraintsFile": "constraints32_1.py",
          "variables": {
            "\u003cChainedInput1\u003e": "IAAv0",
            "\u003cChainedInput2\u003e.isSystem()": "IAAv2"
          },
          "stringMap": {},
          "strings": {}
        },
        {
          "start": "com.unity3d.player.w.onTouchEvent(Landroid/view/MotionEvent;)Z",
          "target": "invokevirtual \u003c Application, Landroid/location/LocationManager, getProviders(Z)Ljava/util/List; \u003e@81",
          "type": "ui",
          "activities": [
            "com.unity3d.player.UnityPlayerActivity"
          ],
          "listener": "com.unity3d.player.w",
          "listenerMethod": "onTouchEvent",
          "uiType": "onTouchEvent",
          "constraintsFile": "constraints32_2.py",
          "variables": {
            "\u003cChainedInput1\u003e.getAction()": "IAAv1"
          },
          "stringMap": {},
          "strings": {}
        }
      ]
    },
    "33": {
      "startMethod": "com.unity3d.player.w.onTouchEvent(Landroid/view/MotionEvent;)Z",
      "targetMethod": "android.location.LocationManager.getLastKnownLocation(Ljava/lang/String;)Landroid/location/Location;",
      "eventChain": [
        {
          "start": "com.unity3d.player.w.onKeyDown(ILandroid/view/KeyEvent;)Z",
          "target": "invokespecial \u003c Application, Landroid/widget/FrameLayout, onKeyDown(ILandroid/view/KeyEvent;)Z \u003e@70",
          "type": "ui",
          "activities": [
            "com.unity3d.player.UnityPlayerActivity"
          ],
          "listener": "com.unity3d.player.w",
          "listenerMethod": "onKeyDown",
          "uiType": "onKeyDown",
          "constraintsFile": "constraints33_0.py",
          "variables": {
            "\u003cChainedInput1\u003e": "IAAv0",
            "\u003cChainedInput2\u003e.isSystem()": "IAAv2"
          },
          "stringMap": {},
          "strings": {}
        },
        {
          "start": "com.unity3d.player.w.onKeyDown(ILandroid/view/KeyEvent;)Z",
          "target": "PC@216",
          "type": "ui",
          "activities": [
            "com.unity3d.player.UnityPlayerActivity"
          ],
          "listener": "com.unity3d.player.w",
          "listenerMethod": "onKeyDown",
          "uiType": "onKeyDown",
          "constraintsFile": "constraints33_1.py",
          "variables": {
            "\u003cChainedInput1\u003e": "IAAv0",
            "\u003cChainedInput2\u003e.isSystem()": "IAAv2"
          },
          "stringMap": {},
          "strings": {}
        },
        {
          "start": "com.unity3d.player.w.onTouchEvent(Landroid/view/MotionEvent;)Z",
          "target": "invokevirtual \u003c Application, Landroid/location/LocationManager, getLastKnownLocation(Ljava/lang/String;)Landroid/location/Location; \u003e@233",
          "type": "ui",
          "activities": [
            "com.unity3d.player.UnityPlayerActivity"
          ],
          "listener": "com.unity3d.player.w",
          "listenerMethod": "onTouchEvent",
          "uiType": "onTouchEvent",
          "constraintsFile": "constraints33_2.py",
          "variables": {
            "\u003cChainedInput1\u003e.getAction()": "IAAv1"
          },
          "stringMap": {},
          "strings": {}
        }
      ]
    },
    "34": {
      "startMethod": "org.fmod.a.run()V",
      "targetMethod": "android.media.AudioRecord.\u003cinit\u003e(IIIII)V",
      "eventChain": [
        {
          "start": "org.fmod.a.run()V",
          "target": "PC@110",
          "type": "",
          "constraintsFile": "constraints34_0.py",
          "variables": {},
          "stringMap": {},
          "strings": {}
        },
        {
          "start": "org.fmod.a.run()V",
          "target": "invokespecial \u003c Application, Landroid/media/AudioRecord, \u003cinit\u003e(IIIII)V \u003e@83",
          "type": "",
          "constraintsFile": "constraints34_1.py",
          "variables": {},
          "stringMap": {},
          "strings": {}
        }
      ]
    },
    "35": {
      "startMethod": "com.unity3d.player.UnityWebRequest.run()V",
      "targetMethod": "java.net.URL.openConnection()Ljava/net/URLConnection;",
      "eventChain": [
        {
          "start": "com.unity3d.player.UnityWebRequest.run()V",
          "target": "invokevirtual \u003c Application, Ljava/net/URL, openConnection()Ljava/net/URLConnection; \u003e@35",
          "type": ""
        }
      ]
    },
    "36": {
      "startMethod": "com.unity3d.player.UnityWebRequest.run()V",
      "targetMethod": "java.net.URLConnection.getInputStream()Ljava/io/InputStream;",
      "eventChain": [
        {
          "start": "com.unity3d.player.UnityWebRequest.run()V",
          "target": "invokevirtual \u003c Application, Ljava/net/URLConnection, getInputStream()Ljava/io/InputStream; \u003e@647",
          "type": "",
          "constraintsFile": "constraints36_0.py",
          "variables": {},
          "stringMap": {},
          "strings": {}
        }
      ]
    },
    "37": {
      "startMethod": "com.unity3d.player.w.onCompletion(Landroid/media/MediaPlayer;)V",
      "targetMethod": "android.media.MediaPlayer.pause()V",
      "eventChain": [
        {
          "start": "com.unity3d.player.w.\u003cclinit\u003e()V",
          "target": "",
          "type": "",
          "constraintsFile": "constraints37_0.py",
          "variables": {},
          "stringMap": {},
          "strings": {}
        },
        {
          "start": "com.unity3d.player.w.onCompletion(Landroid/media/MediaPlayer;)V",
          "target": "invokevirtual \u003c Application, Landroid/media/MediaPlayer, pause()V \u003e@17",
          "type": "",
          "constraintsFile": "constraints37_1.py",
          "variables": {},
          "stringMap": {},
          "strings": {}
        }
      ]
    },
    "38": {
      "startMethod": "com.unity3d.player.w.onCompletion(Landroid/media/MediaPlayer;)V",
      "targetMethod": "android.location.LocationManager.getProvider(Ljava/lang/String;)Landroid/location/LocationProvider;",
      "eventChain": [
        {
          "start": "com.unity3d.player.w.\u003cclinit\u003e()V",
          "target": "",
          "type": "",
          "constraintsFile": "constraints38_0.py",
          "variables": {},
          "stringMap": {},
          "strings": {}
        },
        {
          "start": "com.unity3d.player.w.onCompletion(Landroid/media/MediaPlayer;)V",
          "target": "invokevirtual \u003c Application, Landroid/location/LocationManager, getProvider(Ljava/lang/String;)Landroid/location/LocationProvider; \u003e@216",
          "type": "",
          "constraintsFile": "constraints38_1.py",
          "variables": {},
          "stringMap": {},
          "strings": {}
        }
      ]
    },
    "39": {
      "startMethod": "com.unity3d.player.w.onCompletion(Landroid/media/MediaPlayer;)V",
      "targetMethod": "android.media.MediaPlayer.release()V",
      "eventChain": [
        {
          "start": "com.unity3d.player.w.\u003cclinit\u003e()V",
          "target": "",
          "type": "",
          "constraintsFile": "constraints39_0.py",
          "variables": {},
          "stringMap": {},
          "strings": {}
        },
        {
          "start": "com.unity3d.player.w.onCompletion(Landroid/media/MediaPlayer;)V",
          "target": "invokevirtual \u003c Application, Landroid/media/MediaPlayer, release()V \u003e@18",
          "type": "",
          "constraintsFile": "constraints39_1.py",
          "variables": {},
          "stringMap": {},
          "strings": {}
        }
      ]
    },
    "40": {
      "startMethod": "com.unity3d.player.w.onCompletion(Landroid/media/MediaPlayer;)V",
      "targetMethod": "android.location.LocationManager.getProvider(Ljava/lang/String;)Landroid/location/LocationProvider;",
      "eventChain": [
        {
          "start": "com.unity3d.player.w.\u003cclinit\u003e()V",
          "target": "",
          "type": "",
          "constraintsFile": "constraints40_0.py",
          "variables": {},
          "stringMap": {},
          "strings": {}
        },
        {
          "start": "com.unity3d.player.w.onCompletion(Landroid/media/MediaPlayer;)V",
          "target": "invokevirtual \u003c Application, Landroid/location/LocationManager, getProvider(Ljava/lang/String;)Landroid/location/LocationProvider; \u003e@155",
          "type": "",
          "constraintsFile": "constraints40_1.py",
          "variables": {},
          "stringMap": {},
          "strings": {}
        }
      ]
    },
    "41": {
      "startMethod": "com.unity3d.player.w.onCompletion(Landroid/media/MediaPlayer;)V",
      "targetMethod": "android.location.LocationManager.requestLocationUpdates(Ljava/lang/String;JFLandroid/location/LocationListener;Landroid/os/Looper;)V",
      "eventChain": [
        {
          "start": "com.unity3d.player.w.\u003cclinit\u003e()V",
          "target": "",
          "type": "",
          "constraintsFile": "constraints41_0.py",
          "variables": {},
          "stringMap": {},
          "strings": {}
        },
        {
          "start": "com.unity3d.player.w.onCompletion(Landroid/media/MediaPlayer;)V",
          "target": "invokevirtual \u003c Application, Landroid/location/LocationManager, requestLocationUpdates(Ljava/lang/String;JFLandroid/location/LocationListener;Landroid/os/Looper;)V \u003e@277",
          "type": "",
          "constraintsFile": "constraints41_1.py",
          "variables": {},
          "stringMap": {},
          "strings": {}
        }
      ]
    },
    "42": {
      "startMethod": "com.unity3d.player.w.onCompletion(Landroid/media/MediaPlayer;)V",
      "targetMethod": "android.location.LocationManager.getProviders(Z)Ljava/util/List;",
      "eventChain": [
        {
          "start": "com.unity3d.player.w.\u003cclinit\u003e()V",
          "target": "",
          "type": "",
          "constraintsFile": "constraints42_0.py",
          "variables": {},
          "stringMap": {},
          "strings": {}
        },
        {
          "start": "com.unity3d.player.w.onCompletion(Landroid/media/MediaPlayer;)V",
          "target": "invokevirtual \u003c Application, Landroid/location/LocationManager, getProviders(Z)Ljava/util/List; \u003e@81",
          "type": "",
          "constraintsFile": "constraints42_1.py",
          "variables": {},
          "stringMap": {},
          "strings": {}
        }
      ]
    },
    "43": {
      "startMethod": "com.unity3d.player.w.onCompletion(Landroid/media/MediaPlayer;)V",
      "targetMethod": "android.location.LocationManager.getProviders(Landroid/location/Criteria;Z)Ljava/util/List;",
      "eventChain": [
        {
          "start": "com.unity3d.player.w.\u003cclinit\u003e()V",
          "target": "",
          "type": "",
          "constraintsFile": "constraints43_0.py",
          "variables": {},
          "stringMap": {},
          "strings": {}
        },
        {
          "start": "com.unity3d.player.w.onCompletion(Landroid/media/MediaPlayer;)V",
          "target": "invokevirtual \u003c Application, Landroid/location/LocationManager, getProviders(Landroid/location/Criteria;Z)Ljava/util/List; \u003e@33",
          "type": "",
          "constraintsFile": "constraints43_1.py",
          "variables": {},
          "stringMap": {},
          "strings": {}
        }
      ]
    },
    "44": {
      "startMethod": "com.unity3d.player.w.onCompletion(Landroid/media/MediaPlayer;)V",
      "targetMethod": "android.location.LocationManager.getLastKnownLocation(Ljava/lang/String;)Landroid/location/Location;",
      "eventChain": [
        {
          "start": "com.unity3d.player.w.\u003cclinit\u003e()V",
          "target": "",
          "type": "",
          "constraintsFile": "constraints44_0.py",
          "variables": {},
          "stringMap": {},
          "strings": {}
        },
        {
          "start": "com.unity3d.player.w.onCompletion(Landroid/media/MediaPlayer;)V",
          "target": "invokevirtual \u003c Application, Landroid/location/LocationManager, getLastKnownLocation(Ljava/lang/String;)Landroid/location/Location; \u003e@233",
          "type": "",
          "constraintsFile": "constraints44_1.py",
          "variables": {},
          "stringMap": {},
          "strings": {}
        }
      ]
    },
    "45": {
      "startMethod": "com.unity3d.player.UnityPlayerNativeActivity.onResume()V",
      "targetMethod": "android.location.LocationManager.getProviders(Landroid/location/Criteria;Z)Ljava/util/List;",
      "eventChain": [
        {
          "start": "com.unity3d.player.UnityPlayerNativeActivity.onResume()V",
          "target": "invokespecial \u003c Application, Landroid/app/NativeActivity, onResume()V \u003e@2",
          "type": ""
        },
        {
          "start": "com.unity3d.player.q.\u003cclinit\u003e()V",
          "target": "",
          "type": "",
          "constraintsFile": "constraints45_0.py",
          "variables": {},
          "stringMap": {},
          "strings": {}
        },
        {
          "start": "com.unity3d.player.UnityPlayerNativeActivity.onResume()V",
          "target": "invokevirtual \u003c Application, Landroid/location/LocationManager, getProviders(Landroid/location/Criteria;Z)Ljava/util/List; \u003e@33",
          "type": "",
          "constraintsFile": "constraints45_1.py",
          "variables": {},
          "stringMap": {},
          "strings": {}
        }
      ]
    },
    "46": {
      "startMethod": "com.unity3d.player.UnityPlayerNativeActivity.onResume()V",
      "targetMethod": "android.location.LocationManager.getProviders(Z)Ljava/util/List;",
      "eventChain": [
        {
          "start": "com.unity3d.player.UnityPlayerNativeActivity.onResume()V",
          "target": "invokespecial \u003c Application, Landroid/app/NativeActivity, onResume()V \u003e@2",
          "type": ""
        },
        {
          "start": "com.unity3d.player.q.\u003cclinit\u003e()V",
          "target": "",
          "type": "",
          "constraintsFile": "constraints46_0.py",
          "variables": {},
          "stringMap": {},
          "strings": {}
        },
        {
          "start": "com.unity3d.player.UnityPlayerNativeActivity.onResume()V",
          "target": "invokevirtual \u003c Application, Landroid/location/LocationManager, getProviders(Z)Ljava/util/List; \u003e@81",
          "type": "",
          "constraintsFile": "constraints46_1.py",
          "variables": {},
          "stringMap": {},
          "strings": {}
        }
      ]
    },
    "47": {
      "startMethod": "com.unity3d.player.UnityPlayerNativeActivity.onResume()V",
      "targetMethod": "android.location.LocationManager.requestLocationUpdates(Ljava/lang/String;JFLandroid/location/LocationListener;Landroid/os/Looper;)V",
      "eventChain": [
        {
          "start": "com.unity3d.player.UnityPlayerNativeActivity.onResume()V",
          "target": "invokespecial \u003c Application, Landroid/app/NativeActivity, onResume()V \u003e@2",
          "type": ""
        },
        {
          "start": "com.unity3d.player.q.\u003cclinit\u003e()V",
          "target": "",
          "type": "",
          "constraintsFile": "constraints47_0.py",
          "variables": {},
          "stringMap": {},
          "strings": {}
        },
        {
          "start": "com.unity3d.player.UnityPlayerNativeActivity.onResume()V",
          "target": "invokevirtual \u003c Application, Landroid/location/LocationManager, requestLocationUpdates(Ljava/lang/String;JFLandroid/location/LocationListener;Landroid/os/Looper;)V \u003e@277",
          "type": "",
          "constraintsFile": "constraints47_1.py",
          "variables": {},
          "stringMap": {},
          "strings": {}
        }
      ]
    },
    "48": {
      "startMethod": "com.unity3d.player.UnityPlayerNativeActivity.onResume()V",
      "targetMethod": "android.location.LocationManager.getProvider(Ljava/lang/String;)Landroid/location/LocationProvider;",
      "eventChain": [
        {
          "start": "com.unity3d.player.UnityPlayerNativeActivity.onResume()V",
          "target": "invokespecial \u003c Application, Landroid/app/NativeActivity, onResume()V \u003e@2",
          "type": ""
        },
        {
          "start": "com.unity3d.player.q.\u003cclinit\u003e()V",
          "target": "",
          "type": "",
          "constraintsFile": "constraints48_0.py",
          "variables": {},
          "stringMap": {},
          "strings": {}
        },
        {
          "start": "com.unity3d.player.UnityPlayerNativeActivity.onResume()V",
          "target": "invokevirtual \u003c Application, Landroid/location/LocationManager, getProvider(Ljava/lang/String;)Landroid/location/LocationProvider; \u003e@155",
          "type": "",
          "constraintsFile": "constraints48_1.py",
          "variables": {},
          "stringMap": {},
          "strings": {}
        }
      ]
    },
    "49": {
      "startMethod": "com.unity3d.player.UnityPlayerNativeActivity.onResume()V",
      "targetMethod": "android.location.LocationManager.getLastKnownLocation(Ljava/lang/String;)Landroid/location/Location;",
      "eventChain": [
        {
          "start": "com.unity3d.player.UnityPlayerNativeActivity.onResume()V",
          "target": "invokespecial \u003c Application, Landroid/app/NativeActivity, onResume()V \u003e@2",
          "type": ""
        },
        {
          "start": "com.unity3d.player.q.\u003cclinit\u003e()V",
          "target": "",
          "type": "",
          "constraintsFile": "constraints49_0.py",
          "variables": {},
          "stringMap": {},
          "strings": {}
        },
        {
          "start": "com.unity3d.player.UnityPlayerNativeActivity.onResume()V",
          "target": "invokevirtual \u003c Application, Landroid/location/LocationManager, getLastKnownLocation(Ljava/lang/String;)Landroid/location/Location; \u003e@233",
          "type": "",
          "constraintsFile": "constraints49_1.py",
          "variables": {},
          "stringMap": {},
          "strings": {}
        }
      ]
    },
    "50": {
      "startMethod": "com.unity3d.player.UnityPlayerNativeActivity.onResume()V",
      "targetMethod": "android.location.LocationManager.getProvider(Ljava/lang/String;)Landroid/location/LocationProvider;",
      "eventChain": [
        {
          "start": "com.unity3d.player.UnityPlayerNativeActivity.onResume()V",
          "target": "invokespecial \u003c Application, Landroid/app/NativeActivity, onResume()V \u003e@2",
          "type": ""
        },
        {
          "start": "com.unity3d.player.q.\u003cclinit\u003e()V",
          "target": "",
          "type": "",
          "constraintsFile": "constraints50_0.py",
          "variables": {},
          "stringMap": {},
          "strings": {}
        },
        {
          "start": "com.unity3d.player.UnityPlayerNativeActivity.onResume()V",
          "target": "invokevirtual \u003c Application, Landroid/location/LocationManager, getProvider(Ljava/lang/String;)Landroid/location/LocationProvider; \u003e@216",
          "type": "",
          "constraintsFile": "constraints50_1.py",
          "variables": {},
          "stringMap": {},
          "strings": {}
        }
      ]
    },
    "51": {
      "startMethod": "com.unity3d.player.w.onPrepared(Landroid/media/MediaPlayer;)V",
      "targetMethod": "android.media.MediaPlayer.start()V",
      "eventChain": [
        {
          "start": "com.unity3d.player.w.\u003cclinit\u003e()V",
          "target": "",
          "type": "",
          "constraintsFile": "constraints51_0.py",
          "variables": {},
          "stringMap": {},
          "strings": {}
        },
        {
          "start": "com.unity3d.player.w.onVideoSizeChanged(Landroid/media/MediaPlayer;II)V",
          "target": "PC@24",
          "type": "",
          "constraintsFile": "constraints51_1.py",
          "variables": {
            "\u003cChainedInput2\u003e": "IAAv3",
            "\u003cChainedInput3\u003e.a().a": "IAAv6",
            "\u003cChainedInput3\u003e": "IAAv4"
          },
          "stringMap": {},
          "strings": {}
        },
        {
          "start": "com.unity3d.player.w.onVideoSizeChanged(Landroid/media/MediaPlayer;II)V",
          "target": "PC@165",
          "type": "",
          "constraintsFile": "constraints51_2.py",
          "variables": {
            "\u003cChainedInput2\u003e": "IAAv4",
            "\u003cChainedInput3\u003e": "IAAv5"
          },
          "stringMap": {},
          "strings": {}
        },
        {
          "start": "com.unity3d.player.w.surfaceCreated(Landroid/view/SurfaceHolder;)V",
          "target": "PC@18",
          "type": "ui",
          "activities": [
            "com.unity3d.player.UnityPlayerActivity"
          ],
          "listener": "com.unity3d.player.w",
          "listenerMethod": "surfaceCreated",
          "uiType": "surfaceCreated",
          "constraintsFile": "constraints51_3.py",
          "variables": {},
          "stringMap": {},
          "strings": {}
        },
        {
          "start": "com.unity3d.player.w.onPrepared(Landroid/media/MediaPlayer;)V",
          "target": "invokevirtual \u003c Application, Landroid/media/MediaPlayer, start()V \u003e@17",
          "type": "",
          "constraintsFile": "constraints51_4.py",
          "variables": {},
          "stringMap": {},
          "strings": {}
        }
      ]
    },
    "52": {
      "startMethod": "com.unity3d.player.w.surfaceCreated(Landroid/view/SurfaceHolder;)V",
      "targetMethod": "android.location.LocationManager.getLastKnownLocation(Ljava/lang/String;)Landroid/location/Location;",
      "eventChain": [
        {
          "start": "com.unity3d.player.w.\u003cclinit\u003e()V",
          "target": "",
          "type": "",
          "constraintsFile": "constraints52_0.py",
          "variables": {},
          "stringMap": {},
          "strings": {}
        },
        {
          "start": "com.unity3d.player.w.surfaceCreated(Landroid/view/SurfaceHolder;)V",
          "target": "invokevirtual \u003c Application, Landroid/location/LocationManager, getLastKnownLocation(Ljava/lang/String;)Landroid/location/Location; \u003e@233",
          "type": "ui",
          "activities": [
            "com.unity3d.player.UnityPlayerActivity"
          ],
          "listener": "com.unity3d.player.w",
          "listenerMethod": "surfaceCreated",
          "uiType": "surfaceCreated",
          "constraintsFile": "constraints52_1.py",
          "variables": {},
          "stringMap": {},
          "strings": {}
        }
      ]
    },
    "53": {
      "startMethod": "com.unity3d.player.w.surfaceCreated(Landroid/view/SurfaceHolder;)V",
      "targetMethod": "android.location.LocationManager.requestLocationUpdates(Ljava/lang/String;JFLandroid/location/LocationListener;Landroid/os/Looper;)V",
      "eventChain": [
        {
          "start": "com.unity3d.player.w.\u003cclinit\u003e()V",
          "target": "",
          "type": "",
          "constraintsFile": "constraints53_0.py",
          "variables": {},
          "stringMap": {},
          "strings": {}
        },
        {
          "start": "com.unity3d.player.w.surfaceCreated(Landroid/view/SurfaceHolder;)V",
          "target": "invokevirtual \u003c Application, Landroid/location/LocationManager, requestLocationUpdates(Ljava/lang/String;JFLandroid/location/LocationListener;Landroid/os/Looper;)V \u003e@277",
          "type": "ui",
          "activities": [
            "com.unity3d.player.UnityPlayerActivity"
          ],
          "listener": "com.unity3d.player.w",
          "listenerMethod": "surfaceCreated",
          "uiType": "surfaceCreated",
          "constraintsFile": "constraints53_1.py",
          "variables": {},
          "stringMap": {},
          "strings": {}
        }
      ]
    },
    "54": {
      "startMethod": "com.unity3d.player.w.surfaceCreated(Landroid/view/SurfaceHolder;)V",
      "targetMethod": "android.location.LocationManager.getProvider(Ljava/lang/String;)Landroid/location/LocationProvider;",
      "eventChain": [
        {
          "start": "com.unity3d.player.w.\u003cclinit\u003e()V",
          "target": "",
          "type": "",
          "constraintsFile": "constraints54_0.py",
          "variables": {},
          "stringMap": {},
          "strings": {}
        },
        {
          "start": "com.unity3d.player.w.surfaceCreated(Landroid/view/SurfaceHolder;)V",
          "target": "invokevirtual \u003c Application, Landroid/location/LocationManager, getProvider(Ljava/lang/String;)Landroid/location/LocationProvider; \u003e@216",
          "type": "ui",
          "activities": [
            "com.unity3d.player.UnityPlayerActivity"
          ],
          "listener": "com.unity3d.player.w",
          "listenerMethod": "surfaceCreated",
          "uiType": "surfaceCreated",
          "constraintsFile": "constraints54_1.py",
          "variables": {},
          "stringMap": {},
          "strings": {}
        }
      ]
    },
    "55": {
      "startMethod": "com.unity3d.player.w.surfaceCreated(Landroid/view/SurfaceHolder;)V",
      "targetMethod": "android.media.MediaPlayer.release()V",
      "eventChain": [
        {
          "start": "com.unity3d.player.w.\u003cclinit\u003e()V",
          "target": "",
          "type": "",
          "constraintsFile": "constraints55_0.py",
          "variables": {},
          "stringMap": {},
          "strings": {}
        },
        {
          "start": "com.unity3d.player.w.surfaceCreated(Landroid/view/SurfaceHolder;)V",
          "target": "invokevirtual \u003c Application, Landroid/media/MediaPlayer, release()V \u003e@18",
          "type": "ui",
          "activities": [
            "com.unity3d.player.UnityPlayerActivity"
          ],
          "listener": "com.unity3d.player.w",
          "listenerMethod": "surfaceCreated",
          "uiType": "surfaceCreated",
          "constraintsFile": "constraints55_1.py",
          "variables": {},
          "stringMap": {},
          "strings": {}
        }
      ]
    },
    "56": {
      "startMethod": "com.unity3d.player.w.surfaceCreated(Landroid/view/SurfaceHolder;)V",
      "targetMethod": "android.location.LocationManager.getProviders(Z)Ljava/util/List;",
      "eventChain": [
        {
          "start": "com.unity3d.player.w.\u003cclinit\u003e()V",
          "target": "",
          "type": "",
          "constraintsFile": "constraints56_0.py",
          "variables": {},
          "stringMap": {},
          "strings": {}
        },
        {
          "start": "com.unity3d.player.w.surfaceCreated(Landroid/view/SurfaceHolder;)V",
          "target": "invokevirtual \u003c Application, Landroid/location/LocationManager, getProviders(Z)Ljava/util/List; \u003e@81",
          "type": "ui",
          "activities": [
            "com.unity3d.player.UnityPlayerActivity"
          ],
          "listener": "com.unity3d.player.w",
          "listenerMethod": "surfaceCreated",
          "uiType": "surfaceCreated",
          "constraintsFile": "constraints56_1.py",
          "variables": {},
          "stringMap": {},
          "strings": {}
        }
      ]
    },
    "57": {
      "startMethod": "com.unity3d.player.w.surfaceCreated(Landroid/view/SurfaceHolder;)V",
      "targetMethod": "android.location.LocationManager.getProvider(Ljava/lang/String;)Landroid/location/LocationProvider;",
      "eventChain": [
        {
          "start": "com.unity3d.player.w.\u003cclinit\u003e()V",
          "target": "",
          "type": "",
          "constraintsFile": "constraints57_0.py",
          "variables": {},
          "stringMap": {},
          "strings": {}
        },
        {
          "start": "com.unity3d.player.w.surfaceCreated(Landroid/view/SurfaceHolder;)V",
          "target": "invokevirtual \u003c Application, Landroid/location/LocationManager, getProvider(Ljava/lang/String;)Landroid/location/LocationProvider; \u003e@155",
          "type": "ui",
          "activities": [
            "com.unity3d.player.UnityPlayerActivity"
          ],
          "listener": "com.unity3d.player.w",
          "listenerMethod": "surfaceCreated",
          "uiType": "surfaceCreated",
          "constraintsFile": "constraints57_1.py",
          "variables": {},
          "stringMap": {},
          "strings": {}
        }
      ]
    },
    "58": {
      "startMethod": "com.unity3d.player.w.surfaceCreated(Landroid/view/SurfaceHolder;)V",
      "targetMethod": "android.location.LocationManager.getProviders(Landroid/location/Criteria;Z)Ljava/util/List;",
      "eventChain": [
        {
          "start": "com.unity3d.player.w.\u003cclinit\u003e()V",
          "target": "",
          "type": "",
          "constraintsFile": "constraints58_0.py",
          "variables": {},
          "stringMap": {},
          "strings": {}
        },
        {
          "start": "com.unity3d.player.w.surfaceCreated(Landroid/view/SurfaceHolder;)V",
          "target": "invokevirtual \u003c Application, Landroid/location/LocationManager, getProviders(Landroid/location/Criteria;Z)Ljava/util/List; \u003e@33",
          "type": "ui",
          "activities": [
            "com.unity3d.player.UnityPlayerActivity"
          ],
          "listener": "com.unity3d.player.w",
          "listenerMethod": "surfaceCreated",
          "uiType": "surfaceCreated",
          "constraintsFile": "constraints58_1.py",
          "variables": {},
          "stringMap": {},
          "strings": {}
        }
      ]
    },
    "59": {
      "startMethod": "com.unity3d.player.w.surfaceCreated(Landroid/view/SurfaceHolder;)V",
      "targetMethod": "android.media.MediaPlayer.pause()V",
      "eventChain": [
        {
          "start": "com.unity3d.player.w.\u003cclinit\u003e()V",
          "target": "",
          "type": "",
          "constraintsFile": "constraints59_0.py",
          "variables": {},
          "stringMap": {},
          "strings": {}
        },
        {
          "start": "com.unity3d.player.w.surfaceCreated(Landroid/view/SurfaceHolder;)V",
          "target": "invokevirtual \u003c Application, Landroid/media/MediaPlayer, pause()V \u003e@17",
          "type": "ui",
          "activities": [
            "com.unity3d.player.UnityPlayerActivity"
          ],
          "listener": "com.unity3d.player.w",
          "listenerMethod": "surfaceCreated",
          "uiType": "surfaceCreated",
          "constraintsFile": "constraints59_1.py",
          "variables": {},
          "stringMap": {},
          "strings": {}
        }
      ]
    },
    "60": {
      "startMethod": "com.unity3d.player.w.surfaceDestroyed(Landroid/view/SurfaceHolder;)V",
      "targetMethod": "android.media.MediaPlayer.release()V",
      "eventChain": [
        {
          "start": "com.unity3d.player.w.\u003cclinit\u003e()V",
          "target": "",
          "type": "",
          "constraintsFile": "constraints60_0.py",
          "variables": {},
          "stringMap": {},
          "strings": {}
        },
        {
          "start": "com.unity3d.player.w.surfaceDestroyed(Landroid/view/SurfaceHolder;)V",
          "target": "invokevirtual \u003c Application, Landroid/media/MediaPlayer, release()V \u003e@18",
          "type": "ui",
          "activities": [
            "com.unity3d.player.UnityPlayerActivity"
          ],
          "listener": "com.unity3d.player.w",
          "listenerMethod": "surfaceDestroyed",
          "uiType": "surfaceDestroyed",
          "constraintsFile": "constraints60_1.py",
          "variables": {},
          "stringMap": {},
          "strings": {}
        }
      ]
    },
    "61": {
      "startMethod": "com.unity3d.player.w.onVideoSizeChanged(Landroid/media/MediaPlayer;II)V",
      "targetMethod": "android.media.MediaPlayer.start()V",
      "eventChain": [
        {
          "start": "com.unity3d.player.w.\u003cclinit\u003e()V",
          "target": "",
          "type": "",
          "constraintsFile": "constraints61_0.py",
          "variables": {
            "\u003cChainedInput2\u003e": "IAAv0",
            "\u003cChainedInput3\u003e.a().a": "IAAv3",
            "\u003cChainedInput3\u003e": "IAAv1"
          },
          "stringMap": {},
          "strings": {}
        },
        {
          "start": "com.unity3d.player.w.onVideoSizeChanged(Landroid/media/MediaPlayer;II)V",
          "target": "PC@24",
          "type": "",
          "constraintsFile": "constraints61_1.py",
          "variables": {
            "\u003cChainedInput2\u003e": "IAAv1",
            "\u003cChainedInput3\u003e.a().a": "IAAv4",
            "\u003cChainedInput3\u003e": "IAAv2"
          },
          "stringMap": {},
          "strings": {}
        },
        {
          "start": "com.unity3d.player.w.surfaceCreated(Landroid/view/SurfaceHolder;)V",
          "target": "PC@18",
          "type": "ui",
          "activities": [
            "com.unity3d.player.UnityPlayerActivity"
          ],
          "listener": "com.unity3d.player.w",
          "listenerMethod": "surfaceCreated",
          "uiType": "surfaceCreated",
          "constraintsFile": "constraints61_2.py",
          "variables": {},
          "stringMap": {},
          "strings": {}
        },
        {
          "start": "com.unity3d.player.w.onVideoSizeChanged(Landroid/media/MediaPlayer;II)V",
          "target": "invokevirtual \u003c Application, Landroid/media/MediaPlayer, start()V \u003e@17",
          "type": "",
          "constraintsFile": "constraints61_3.py",
          "variables": {
            "\u003cChainedInput2\u003e": "IAAv1",
            "\u003cChainedInput3\u003e.a().a": "IAAv4",
            "\u003cChainedInput3\u003e": "IAAv2"
          },
          "stringMap": {},
          "strings": {}
        }
      ]
    }
  }
}