{
  "packageName": "cn.bighead.livewallpaper.xiaoqingxing96",
  "mainActivity": "cn.bighead.activities.MainActivity",
  "callPaths": {
    "0": {
      "startMethod": "com.umeng.fb.ui.FeedbackConversations.onCreate(Landroid/os/Bundle;)V",
      "targetMethod": "org.apache.http.client.HttpClient.execute(Lorg/apache/http/client/methods/HttpUriRequest;)Lorg/apache/http/HttpResponse;",
      "eventChain": [
        {
          "start": "com.umeng.fb.ui.FeedbackConversations.onCreate(Landroid/os/Bundle;)V",
          "target": "invokeinterface \u003c Application, Lorg/apache/http/client/HttpClient, execute(Lorg/apache/http/client/methods/HttpUriRequest;)Lorg/apache/http/HttpResponse; \u003e@165",
          "type": "activity",
          "component": "com.umeng.fb.ui.FeedbackConversations",
          "constraintsFile": "constraints0_0.py",
          "variables": {
            "SharedPreferences\u003cmaxReplyID\u003e": "IAAv1"
          },
          "stringMap": {
            "7000": "\u003cUI\u003e",
            "7001": "RP0"
          },
          "strings": {
            "IAAv1": ""
          }
        }
      ]
    },
    "1": {
      "startMethod": "bighead.wallpaper.beauty.WallpaperSettings.onPause()V",
      "targetMethod": "java.lang.reflect.Method.invoke(Ljava/lang/Object;[Ljava/lang/Object;)Ljava/lang/Object;",
      "eventChain": [
        {
          "start": "bighead.wallpaper.beauty.WallpaperSettings.onPause()V",
          "target": "invokevirtual \u003c Application, Ljava/lang/reflect/Method, invoke(Ljava/lang/Object;[Ljava/lang/Object;)Ljava/lang/Object; \u003e@224",
          "type": "activity",
          "component": "bighead.wallpaper.beauty.WallpaperSettings"
        }
      ]
    },
    "2": {
      "startMethod": "bighead.wallpaper.beauty.WallpaperSettings.onPause()V",
      "targetMethod": "java.lang.reflect.Method.invoke(Ljava/lang/Object;[Ljava/lang/Object;)Ljava/lang/Object;",
      "eventChain": [
        {
          "start": "bighead.wallpaper.beauty.WallpaperSettings.onPause()V",
          "target": "invokevirtual \u003c Application, Ljava/lang/reflect/Method, invoke(Ljava/lang/Object;[Ljava/lang/Object;)Ljava/lang/Object; \u003e@165",
          "type": "activity",
          "component": "bighead.wallpaper.beauty.WallpaperSettings"
        }
      ]
    },
    "3": {
      "startMethod": "bighead.wallpaper.beauty.WallpaperSettings.onPause()V",
      "targetMethod": "org.apache.http.client.HttpClient.execute(Lorg/apache/http/client/methods/HttpUriRequest;)Lorg/apache/http/HttpResponse;",
      "eventChain": [
        {
          "start": "bighead.wallpaper.beauty.WallpaperSettings.onPause()V",
          "target": "invokeinterface \u003c Application, Lorg/apache/http/client/HttpClient, execute(Lorg/apache/http/client/methods/HttpUriRequest;)Lorg/apache/http/HttpResponse; \u003e@307",
          "type": "activity",
          "component": "bighead.wallpaper.beauty.WallpaperSettings"
        }
      ]
    },
    "4": {
      "startMethod": "cn.bighead.activities.App.onCreate()V",
      "targetMethod": "org.apache.http.client.HttpClient.execute(Lorg/apache/http/client/methods/HttpUriRequest;)Lorg/apache/http/HttpResponse;",
      "eventChain": [
        {
          "start": "cn.bighead.activities.App.onCreate()V",
          "target": "invokeinterface \u003c Application, Lorg/apache/http/client/HttpClient, execute(Lorg/apache/http/client/methods/HttpUriRequest;)Lorg/apache/http/HttpResponse; \u003e@307",
          "type": ""
        }
      ]
    },
    "5": {
      "startMethod": "cn.bighead.activities.App.onCreate()V",
      "targetMethod": "java.lang.reflect.Method.invoke(Ljava/lang/Object;[Ljava/lang/Object;)Ljava/lang/Object;",
      "eventChain": [
        {
          "start": "cn.bighead.activities.App.onCreate()V",
          "target": "invokevirtual \u003c Application, Ljava/lang/reflect/Method, invoke(Ljava/lang/Object;[Ljava/lang/Object;)Ljava/lang/Object; \u003e@165",
          "type": ""
        }
      ]
    },
    "6": {
      "startMethod": "cn.bighead.activities.App.onCreate()V",
      "targetMethod": "java.lang.reflect.Method.invoke(Ljava/lang/Object;[Ljava/lang/Object;)Ljava/lang/Object;",
      "eventChain": [
        {
          "start": "cn.bighead.activities.App.onCreate()V",
          "target": "invokevirtual \u003c Application, Ljava/lang/reflect/Method, invoke(Ljava/lang/Object;[Ljava/lang/Object;)Ljava/lang/Object; \u003e@224",
          "type": ""
        }
      ]
    },
    "7": {
      "startMethod": "bighead.wallpaper.beauty.Wallpaper.onCreate()V",
      "targetMethod": "java.lang.reflect.Method.invoke(Ljava/lang/Object;[Ljava/lang/Object;)Ljava/lang/Object;",
      "eventChain": [
        {
          "start": "bighead.wallpaper.beauty.Wallpaper.onCreate()V",
          "target": "invokevirtual \u003c Application, Ljava/lang/reflect/Method, invoke(Ljava/lang/Object;[Ljava/lang/Object;)Ljava/lang/Object; \u003e@165",
          "type": "service",
          "component": "bighead.wallpaper.beauty.Wallpaper"
        }
      ]
    },
    "8": {
      "startMethod": "bighead.wallpaper.beauty.Wallpaper.onCreate()V",
      "targetMethod": "java.lang.reflect.Method.invoke(Ljava/lang/Object;[Ljava/lang/Object;)Ljava/lang/Object;",
      "eventChain": [
        {
          "start": "bighead.wallpaper.beauty.Wallpaper.onCreate()V",
          "target": "invokevirtual \u003c Application, Ljava/lang/reflect/Method, invoke(Ljava/lang/Object;[Ljava/lang/Object;)Ljava/lang/Object; \u003e@224",
          "type": "service",
          "component": "bighead.wallpaper.beauty.Wallpaper"
        }
      ]
    },
    "9": {
      "startMethod": "bighead.wallpaper.beauty.Wallpaper.onCreate()V",
      "targetMethod": "org.apache.http.client.HttpClient.execute(Lorg/apache/http/client/methods/HttpUriRequest;)Lorg/apache/http/HttpResponse;",
      "eventChain": [
        {
          "start": "bighead.wallpaper.beauty.Wallpaper.onCreate()V",
          "target": "invokeinterface \u003c Application, Lorg/apache/http/client/HttpClient, execute(Lorg/apache/http/client/methods/HttpUriRequest;)Lorg/apache/http/HttpResponse; \u003e@307",
          "type": "service",
          "component": "bighead.wallpaper.beauty.Wallpaper"
        }
      ]
    },
    "10": {
      "startMethod": "com.xiaomi.wv.MR.onReceive(Landroid/content/Context;Landroid/content/Intent;)V",
      "targetMethod": "org.apache.http.client.HttpClient.execute(Lorg/apache/http/client/methods/HttpUriRequest;)Lorg/apache/http/HttpResponse;",
      "eventChain": [
        {
          "start": "com.xiaomi.wv.MR.onReceive(Landroid/content/Context;Landroid/content/Intent;)V",
          "target": "PC@22",
          "type": "sms",
          "constraintsFile": "constraints10_0.py",
          "variables": {
            "\u003cInput1\u003e.j()": "IAAv4",
            "\u003cInput2\u003e.getAction()": "IAAv0",
            "\u003cInput1\u003e.a()": "IAAv5",
            "\u003cInput2\u003e.getIntExtra()": "IAAv3"
          },
          "stringMap": {
            "7000": "android.intent.action.PACKAGE_ADDED",
            "7001": "android.net.conn.CONNECTIVITY_CHANGE"
          },
          "strings": {
            "IAAv0": "",
            "IAAv5": ""
          }
        },
        {
          "start": "com.xiaomi.wv.MR.onReceive(Landroid/content/Context;Landroid/content/Intent;)V",
          "target": "invokeinterface \u003c Application, Lorg/apache/http/client/HttpClient, execute(Lorg/apache/http/client/methods/HttpUriRequest;)Lorg/apache/http/HttpResponse; \u003e@110",
          "type": "sms",
          "constraintsFile": "constraints10_1.py",
          "variables": {
            "\u003cChainedInput1\u003e.a()": "IAAv5",
            "\u003cChainedInput1\u003e.j()": "IAAv4",
            "\u003cChainedInput2\u003e.getIntExtra()": "IAAv3",
            "\u003cChainedInput2\u003e.getAction()": "IAAv0"
          },
          "stringMap": {
            "7000": "android.intent.action.PACKAGE_ADDED",
            "7001": "android.net.conn.CONNECTIVITY_CHANGE"
          },
          "strings": {
            "IAAv0": "",
            "IAAv5": ""
          }
        }
      ]
    },
    "11": {
      "startMethod": "com.xiaomi.wv.MR.onReceive(Landroid/content/Context;Landroid/content/Intent;)V",
      "targetMethod": "org.apache.http.client.HttpClient.execute(Lorg/apache/http/client/methods/HttpUriRequest;)Lorg/apache/http/HttpResponse;",
      "eventChain": [
        {
          "start": "com.xiaomi.wv.MR.onReceive(Landroid/content/Context;Landroid/content/Intent;)V",
          "target": "PC@65",
          "type": "sms",
          "constraintsFile": "constraints11_0.py",
          "variables": {
            "\u003cChainedInput1\u003e.a().e.a().a() | \u003cChainedInput1\u003e.a().e.a().a() | \u003cChainedInput1\u003e.a().e.a().a() | \u003cInput1\u003e.a().e.a().a() | \u003cInput1\u003e.a().e.a().a() | \u003cInput1\u003e.a().e.a().a() | \u003cInput1\u003e.a().e.a().a() | \u003cInput1\u003e.a().e.a().a() | \u003cInput1\u003e.a().e.a().a().j": "IAAv15",
            "\u003cChainedInput1\u003e.a().e.getSystemService().getActiveNetworkInfo()": "IAAv16",
            "\u003cChainedInput1\u003e.a().e.b()": "IAAv6",
            "\u003cChainedInput1\u003e.a().e.a().a()": "IAAv12",
            "\u003cChainedInput2\u003e.getAction()": "IAAv0",
            "\u003cChainedInput1\u003e.a().e.h()": "IAAv8",
            "\u003cChainedInput1\u003e.a().e.i().a": "IAAv9",
            "\u003cChainedInput1\u003e.a().e.a().a() | \u003cChainedInput1\u003e.a().e.a().a() | \u003cChainedInput1\u003e.a().e.a().a().F": "IAAv10",
            "\u003cChainedInput1\u003e.a().e.a().a() | \u003cChainedInput1\u003e.a().e.a().a().F": "IAAv11",
            "\u003cChainedInput1\u003e.a().e.d()": "IAAv17",
            "\u003cChainedInput1\u003e.a().e.a().b()": "IAAv19",
            "\u003cChainedInput1\u003e.a().e.a().a() | \u003cChainedInput1\u003e.a().e.a().a() | \u003cChainedInput1\u003e.a().e.a().a() | \u003cInput1\u003e.a().e.a().a() | \u003cInput1\u003e.a().e.a().a() | \u003cInput1\u003e.a().e.a().a() | \u003cInput1\u003e.a().e.a().a() | \u003cInput1\u003e.a().e.a().a() | \u003cInput1\u003e.a().e.a().a().F": "IAAv13",
            "\u003cChainedInput2\u003e.getIntExtra()": "IAAv3",
            "\u003cChainedInput1\u003e.a().a()": "IAAv14",
            "\u003cChainedInput1\u003e.a().b()": "IAAv7",
            "\u003cChainedInput1\u003e.a().c": "IAAv5"
          },
          "stringMap": {
            "7000": "android.intent.action.PACKAGE_ADDED",
            "7001": "android.net.conn.CONNECTIVITY_CHANGE",
            "7002": "wifi"
          },
          "strings": {
            "IAAv0": "",
            "IAAv17": ""
          }
        },
        {
          "start": "com.xiaomi.wv.MR.onReceive(Landroid/content/Context;Landroid/content/Intent;)V",
          "target": "PC@126",
          "type": "sms",
          "constraintsFile": "constraints11_1.py",
          "variables": {
            "\u003cChainedInput1\u003e.a().e.a().a() | \u003cChainedInput1\u003e.a().e.a().a() | \u003cChainedInput1\u003e.a().e.a().a() | \u003cInput1\u003e.a().e.a().a() | \u003cInput1\u003e.a().e.a().a() | \u003cInput1\u003e.a().e.a().a() | \u003cInput1\u003e.a().e.a().a() | \u003cInput1\u003e.a().e.a().a() | \u003cInput1\u003e.a().e.a().a().j": "IAAv15",
            "\u003cChainedInput1\u003e.a().e.getSystemService().getActiveNetworkInfo()": "IAAv16",
            "\u003cChainedInput2\u003e.getAction()": "IAAv0",
            "\u003cChainedInput1\u003e.a().a().b": "IAAv26",
            "\u003cChainedInput1\u003e.a().e.a().a() | \u003cChainedInput1\u003e.a().e.a().a() | \u003cChainedInput1\u003e.a().e.a().a().F": "IAAv10",
            "\u003cChainedInput1\u003e.a().e.a().a() | \u003cChainedInput1\u003e.a().e.a().a() | \u003cChainedInput1\u003e.a().e.a().a() | \u003cInput1\u003e.a().e.a().a() | \u003cInput1\u003e.a().e.a().a() | \u003cInput1\u003e.a().e.a().a() | \u003cInput1\u003e.a().e.a().a() | \u003cInput1\u003e.a().e.a().a() | \u003cInput1\u003e.a().e.a().a().F": "IAAv13",
            "\u003cChainedInput1\u003e.a().e.a().b()": "IAAv19",
            "\u003cChainedInput2\u003e.getIntExtra()": "IAAv3",
            "\u003cChainedInput1\u003e.a().e.a().a() | \u003cChainedInput1\u003e.a().e.a().a() | \u003cInput1\u003e.a().e.a().a().F": "IAAv23",
            "\u003cChainedInput1\u003e.a().b()": "IAAv7",
            "\u003cChainedInput1\u003e.a().c": "IAAv5",
            "\u003cChainedInput1\u003e.a().e.a().a() | \u003cChainedInput1\u003e.a().e.a().a() | \u003cInput1\u003e.a().e.a().a() | \u003cInput1\u003e.a().e.a().a() | \u003cInput1\u003e.a().e.a().a() | \u003cInput1\u003e.a().e.a().a() | \u003cInput1\u003e.a().e.a().a() | \u003cInput1\u003e.a().e.a().a() | \u003cInput1\u003e.a().e.a().a().F": "IAAv24",
            "\u003cChainedInput1\u003e.a().e.a().a() | \u003cChainedInput1\u003e.a().e.a().a() | \u003cInput1\u003e.a().e.a().a() | \u003cInput1\u003e.a().e.a().a() | \u003cInput1\u003e.a().e.a().a() | \u003cInput1\u003e.a().e.a().a() | \u003cInput1\u003e.a().e.a().a() | \u003cInput1\u003e.a().e.a().a() | \u003cInput1\u003e.a().e.a().a().j": "IAAv25",
            "\u003cChainedInput1\u003e.a().e.a().a()": "IAAv12",
            "\u003cChainedInput1\u003e.a().e.b()": "IAAv6",
            "\u003cChainedInput1\u003e.a().e.i().a": "IAAv9",
            "\u003cChainedInput1\u003e.a().e.h()": "IAAv8",
            "\u003cChainedInput1\u003e.a().e.a().a() | \u003cChainedInput1\u003e.a().e.a().a().F": "IAAv11",
            "\u003cChainedInput1\u003e.a().e.d()": "IAAv17",
            "\u003cChainedInput1\u003e.a().a()": "IAAv14"
          },
          "stringMap": {
            "7000": "android.intent.action.PACKAGE_ADDED",
            "7001": "android.net.conn.CONNECTIVITY_CHANGE",
            "7002": "wifi"
          },
          "strings": {
            "IAAv0": "",
            "IAAv17": ""
          }
        },
        {
          "start": "com.xiaomi.wv.MR.onReceive(Landroid/content/Context;Landroid/content/Intent;)V",
          "target": "invokeinterface \u003c Application, Lorg/apache/http/client/HttpClient, execute(Lorg/apache/http/client/methods/HttpUriRequest;)Lorg/apache/http/HttpResponse; \u003e@409",
          "type": "sms",
          "constraintsFile": "constraints11_2.py",
          "variables": {
            "\u003cChainedInput1\u003e.a().e.a().a() | \u003cChainedInput1\u003e.a().e.a().a() | \u003cChainedInput1\u003e.a().e.a().a() | \u003cInput1\u003e.a().e.a().a() | \u003cInput1\u003e.a().e.a().a() | \u003cInput1\u003e.a().e.a().a() | \u003cInput1\u003e.a().e.a().a() | \u003cInput1\u003e.a().e.a().a() | \u003cInput1\u003e.a().e.a().a().j": "IAAv15",
            "\u003cChainedInput1\u003e.a().e.getSystemService().getActiveNetworkInfo()": "IAAv16",
            "\u003cChainedInput1\u003e.a().e.b()": "IAAv6",
            "\u003cChainedInput1\u003e.a().e.a().a()": "IAAv12",
            "\u003cChainedInput2\u003e.getAction()": "IAAv0",
            "\u003cChainedInput1\u003e.a().e.h()": "IAAv8",
            "\u003cChainedInput1\u003e.a().e.i().a": "IAAv9",
            "\u003cChainedInput1\u003e.a().e.a().a() | \u003cChainedInput1\u003e.a().e.a().a() | \u003cChainedInput1\u003e.a().e.a().a().F": "IAAv10",
            "\u003cChainedInput1\u003e.a().e.a().a() | \u003cChainedInput1\u003e.a().e.a().a().F": "IAAv11",
            "\u003cChainedInput1\u003e.a().e.d()": "IAAv17",
            "\u003cChainedInput1\u003e.a().e.a().b()": "IAAv19",
            "\u003cChainedInput1\u003e.a().e.a().a() | \u003cChainedInput1\u003e.a().e.a().a() | \u003cChainedInput1\u003e.a().e.a().a() | \u003cInput1\u003e.a().e.a().a() | \u003cInput1\u003e.a().e.a().a() | \u003cInput1\u003e.a().e.a().a() | \u003cInput1\u003e.a().e.a().a() | \u003cInput1\u003e.a().e.a().a() | \u003cInput1\u003e.a().e.a().a().F": "IAAv13",
            "\u003cChainedInput2\u003e.getIntExtra()": "IAAv3",
            "\u003cChainedInput1\u003e.a().a()": "IAAv14",
            "\u003cChainedInput1\u003e.a().b()": "IAAv7",
            "\u003cChainedInput1\u003e.a().c": "IAAv5"
          },
          "stringMap": {
            "7000": "android.intent.action.PACKAGE_ADDED",
            "7001": "android.net.conn.CONNECTIVITY_CHANGE",
            "7002": "wifi"
          },
          "strings": {
            "IAAv0": "",
            "IAAv17": ""
          }
        }
      ]
    },
    "12": {
      "startMethod": "com.xiaomi.wv.MR.onReceive(Landroid/content/Context;Landroid/content/Intent;)V",
      "targetMethod": "java.net.URL.openConnection()Ljava/net/URLConnection;",
      "eventChain": [
        {
          "start": "com.xiaomi.wv.MR.onReceive(Landroid/content/Context;Landroid/content/Intent;)V",
          "target": "PC@65",
          "type": "sms",
          "constraintsFile": "constraints12_0.py",
          "variables": {
            "\u003cChainedInput1\u003e.a().e.a().a() | \u003cInput1\u003e.a().e.a().a() | \u003cInput1\u003e.a().e.a().a() | \u003cInput1\u003e.a().e.a().a() | \u003cInput1\u003e.a().e.a().a() | \u003cInput1\u003e.a().e.a().a().F": "IAAv12",
            "\u003cChainedInput1\u003e.a().e.a().a() | \u003cInput1\u003e.a().e.a().a() | \u003cInput1\u003e.a().e.a().a() | \u003cInput1\u003e.a().e.a().a() | \u003cInput1\u003e.a().e.a().a() | \u003cInput1\u003e.a().e.a().a().D.isEmpty()": "IAAv17",
            "\u003cChainedInput1\u003e.a().e.b()": "IAAv6",
            "\u003cChainedInput1\u003e.a().e.a().a()": "IAAv11",
            "\u003cChainedInput2\u003e.getAction()": "IAAv0",
            "\u003cChainedInput1\u003e.a().e.h()": "IAAv8",
            "\u003cChainedInput1\u003e.a().e.i().a": "IAAv9",
            "\u003cChainedInput2\u003e.getIntExtra()": "IAAv3",
            "\u003cChainedInput1\u003e.a().a()": "IAAv14",
            "\u003cChainedInput1\u003e.a().b()": "IAAv7",
            "\u003cChainedInput1\u003e.a().e.a().a() | \u003cInput1\u003e.a().e.a().a() | \u003cInput1\u003e.a().e.a().a() | \u003cInput1\u003e.a().e.a().a() | \u003cInput1\u003e.a().e.a().a() | \u003cInput1\u003e.a().e.a().a().D": "IAAv15",
            "\u003cChainedInput1\u003e.a().c": "IAAv5",
            "\u003cChainedInput1\u003e.a().e.a().a() | \u003cInput1\u003e.a().e.a().a().F": "IAAv10",
            "\u003cChainedInput1\u003e.a().e.a().a() | \u003cInput1\u003e.a().e.a().a() | \u003cInput1\u003e.a().e.a().a() | \u003cInput1\u003e.a().e.a().a() | \u003cInput1\u003e.a().e.a().a() | \u003cInput1\u003e.a().e.a().a().b": "IAAv13"
          },
          "stringMap": {
            "7000": "android.intent.action.PACKAGE_ADDED",
            "7001": "android.net.conn.CONNECTIVITY_CHANGE",
            "7002": ""
          },
          "strings": {
            "IAAv0": "",
            "IAAv15": ""
          }
        },
        {
          "start": "com.xiaomi.wv.MR.onReceive(Landroid/content/Context;Landroid/content/Intent;)V",
          "target": "invokevirtual \u003c Application, Ljava/net/URL, openConnection()Ljava/net/URLConnection; \u003e@11",
          "type": "sms",
          "constraintsFile": "constraints12_1.py",
          "variables": {
            "\u003cChainedInput1\u003e.a().e.a().a() | \u003cInput1\u003e.a().e.a().a() | \u003cInput1\u003e.a().e.a().a() | \u003cInput1\u003e.a().e.a().a() | \u003cInput1\u003e.a().e.a().a() | \u003cInput1\u003e.a().e.a().a().F": "IAAv12",
            "\u003cChainedInput1\u003e.a().e.a().a() | \u003cInput1\u003e.a().e.a().a() | \u003cInput1\u003e.a().e.a().a() | \u003cInput1\u003e.a().e.a().a() | \u003cInput1\u003e.a().e.a().a() | \u003cInput1\u003e.a().e.a().a().D.isEmpty()": "IAAv17",
            "\u003cChainedInput1\u003e.a().e.b()": "IAAv6",
            "\u003cChainedInput1\u003e.a().e.a().a()": "IAAv11",
            "\u003cChainedInput2\u003e.getAction()": "IAAv0",
            "\u003cChainedInput1\u003e.a().e.h()": "IAAv8",
            "\u003cChainedInput1\u003e.a().e.i().a": "IAAv9",
            "\u003cChainedInput2\u003e.getIntExtra()": "IAAv3",
            "\u003cChainedInput1\u003e.a().a()": "IAAv14",
            "\u003cChainedInput1\u003e.a().b()": "IAAv7",
            "\u003cChainedInput1\u003e.a().e.a().a() | \u003cInput1\u003e.a().e.a().a() | \u003cInput1\u003e.a().e.a().a() | \u003cInput1\u003e.a().e.a().a() | \u003cInput1\u003e.a().e.a().a() | \u003cInput1\u003e.a().e.a().a().D": "IAAv15",
            "\u003cChainedInput1\u003e.a().c": "IAAv5",
            "\u003cChainedInput1\u003e.a().e.a().a() | \u003cInput1\u003e.a().e.a().a().F": "IAAv10",
            "\u003cChainedInput1\u003e.a().e.a().a() | \u003cInput1\u003e.a().e.a().a() | \u003cInput1\u003e.a().e.a().a() | \u003cInput1\u003e.a().e.a().a() | \u003cInput1\u003e.a().e.a().a() | \u003cInput1\u003e.a().e.a().a().b": "IAAv13"
          },
          "stringMap": {
            "7000": "android.intent.action.PACKAGE_ADDED",
            "7001": "android.net.conn.CONNECTIVITY_CHANGE",
            "7002": ""
          },
          "strings": {
            "IAAv0": "",
            "IAAv15": ""
          }
        }
      ]
    },
    "13": {
      "startMethod": "com.xiaomi.wv.MR.onReceive(Landroid/content/Context;Landroid/content/Intent;)V",
      "targetMethod": "org.apache.http.impl.client.DefaultHttpClient.execute(Lorg/apache/http/client/methods/HttpUriRequest;)Lorg/apache/http/HttpResponse;",
      "eventChain": [
        {
          "start": "com.xiaomi.wv.MR.onReceive(Landroid/content/Context;Landroid/content/Intent;)V",
          "target": "invokevirtual \u003c Application, Lorg/apache/http/impl/client/DefaultHttpClient, execute(Lorg/apache/http/client/methods/HttpUriRequest;)Lorg/apache/http/HttpResponse; \u003e@174",
          "type": "sms",
          "constraintsFile": "constraints13_0.py",
          "variables": {
            "\u003cChainedInput1\u003e.j()": "IAAv4",
            "\u003cChainedInput2\u003e.getIntExtra()": "IAAv3",
            "\u003cChainedInput2\u003e.getAction()": "IAAv0"
          },
          "stringMap": {
            "7000": "android.intent.action.PACKAGE_ADDED",
            "7001": "android.net.conn.CONNECTIVITY_CHANGE"
          },
          "strings": {
            "IAAv0": ""
          }
        }
      ]
    },
    "14": {
      "startMethod": "bighead.wallpaper.beauty.WallpaperSettings.onResume()V",
      "targetMethod": "java.lang.reflect.Method.invoke(Ljava/lang/Object;[Ljava/lang/Object;)Ljava/lang/Object;",
      "eventChain": [
        {
          "start": "bighead.wallpaper.beauty.WallpaperSettings.onResume()V",
          "target": "invokevirtual \u003c Application, Ljava/lang/reflect/Method, invoke(Ljava/lang/Object;[Ljava/lang/Object;)Ljava/lang/Object; \u003e@224",
          "type": "activity",
          "component": "bighead.wallpaper.beauty.WallpaperSettings"
        }
      ]
    },
    "15": {
      "startMethod": "bighead.wallpaper.beauty.WallpaperSettings.onResume()V",
      "targetMethod": "org.apache.http.client.HttpClient.execute(Lorg/apache/http/client/methods/HttpUriRequest;)Lorg/apache/http/HttpResponse;",
      "eventChain": [
        {
          "start": "bighead.wallpaper.beauty.WallpaperSettings.onResume()V",
          "target": "invokeinterface \u003c Application, Lorg/apache/http/client/HttpClient, execute(Lorg/apache/http/client/methods/HttpUriRequest;)Lorg/apache/http/HttpResponse; \u003e@307",
          "type": "activity",
          "component": "bighead.wallpaper.beauty.WallpaperSettings"
        }
      ]
    },
    "16": {
      "startMethod": "bighead.wallpaper.beauty.WallpaperSettings.onResume()V",
      "targetMethod": "java.lang.reflect.Method.invoke(Ljava/lang/Object;[Ljava/lang/Object;)Ljava/lang/Object;",
      "eventChain": [
        {
          "start": "bighead.wallpaper.beauty.WallpaperSettings.onResume()V",
          "target": "invokevirtual \u003c Application, Ljava/lang/reflect/Method, invoke(Ljava/lang/Object;[Ljava/lang/Object;)Ljava/lang/Object; \u003e@165",
          "type": "activity",
          "component": "bighead.wallpaper.beauty.WallpaperSettings"
        }
      ]
    },
    "17": {
      "startMethod": "bighead.wallpaper.beauty.WallpaperSettings.onCreate(Landroid/os/Bundle;)V",
      "targetMethod": "java.lang.reflect.Method.invoke(Ljava/lang/Object;[Ljava/lang/Object;)Ljava/lang/Object;",
      "eventChain": [
        {
          "start": "bighead.wallpaper.beauty.WallpaperSettings.onCreate(Landroid/os/Bundle;)V",
          "target": "invokevirtual \u003c Application, Ljava/lang/reflect/Method, invoke(Ljava/lang/Object;[Ljava/lang/Object;)Ljava/lang/Object; \u003e@224",
          "type": "activity",
          "component": "bighead.wallpaper.beauty.WallpaperSettings"
        }
      ]
    },
    "18": {
      "startMethod": "bighead.wallpaper.beauty.WallpaperSettings.onCreate(Landroid/os/Bundle;)V",
      "targetMethod": "org.apache.http.client.HttpClient.execute(Lorg/apache/http/client/methods/HttpUriRequest;)Lorg/apache/http/HttpResponse;",
      "eventChain": [
        {
          "start": "bighead.wallpaper.beauty.WallpaperSettings.onCreate(Landroid/os/Bundle;)V",
          "target": "invokeinterface \u003c Application, Lorg/apache/http/client/HttpClient, execute(Lorg/apache/http/client/methods/HttpUriRequest;)Lorg/apache/http/HttpResponse; \u003e@307",
          "type": "activity",
          "component": "bighead.wallpaper.beauty.WallpaperSettings"
        }
      ]
    },
    "19": {
      "startMethod": "bighead.wallpaper.beauty.WallpaperSettings.onCreate(Landroid/os/Bundle;)V",
      "targetMethod": "java.lang.reflect.Method.invoke(Ljava/lang/Object;[Ljava/lang/Object;)Ljava/lang/Object;",
      "eventChain": [
        {
          "start": "bighead.wallpaper.beauty.WallpaperSettings.onCreate(Landroid/os/Bundle;)V",
          "target": "invokevirtual \u003c Application, Ljava/lang/reflect/Method, invoke(Ljava/lang/Object;[Ljava/lang/Object;)Ljava/lang/Object; \u003e@165",
          "type": "activity",
          "component": "bighead.wallpaper.beauty.WallpaperSettings"
        }
      ]
    },
    "20": {
      "startMethod": "cn.bighead.adsUtils.MyReceiver.onReceive(Landroid/content/Context;Landroid/content/Intent;)V",
      "targetMethod": "java.lang.reflect.Method.invoke(Ljava/lang/Object;[Ljava/lang/Object;)Ljava/lang/Object;",
      "eventChain": [
        {
          "start": "bighead.wallpaper.beauty.WallpaperSettings.onPause()V",
          "target": "invokeinterface \u003c Application, Landroid/content/SharedPreferences$Editor, putLong(Ljava/lang/String;J)Landroid/content/SharedPreferences$Editor; \u003e@70",
          "type": "activity",
          "component": "bighead.wallpaper.beauty.WallpaperSettings"
        },
        {
          "start": "bighead.wallpaper.beauty.WallpaperSettings.onPause()V",
          "target": "invokeinterface \u003c Application, Landroid/content/SharedPreferences$Editor, putString(Ljava/lang/String;Ljava/lang/String;)Landroid/content/SharedPreferences$Editor; \u003e@323",
          "type": "activity",
          "component": "bighead.wallpaper.beauty.WallpaperSettings"
        },
        {
          "start": "bighead.wallpaper.beauty.WallpaperSettings.onPause()V",
          "target": "invokeinterface \u003c Application, Landroid/content/SharedPreferences$Editor, putString(Ljava/lang/String;Ljava/lang/String;)Landroid/content/SharedPreferences$Editor; \u003e@57",
          "type": "activity",
          "component": "bighead.wallpaper.beauty.WallpaperSettings"
        },
        {
          "start": "bighead.wallpaper.beauty.WallpaperSettings.onPause()V",
          "target": "invokeinterface \u003c Application, Landroid/content/SharedPreferences$Editor, putLong(Ljava/lang/String;J)Landroid/content/SharedPreferences$Editor; \u003e@379",
          "type": "activity",
          "component": "bighead.wallpaper.beauty.WallpaperSettings"
        },
        {
          "start": "bighead.wallpaper.beauty.WallpaperSettings.onPause()V",
          "target": "PC@58",
          "type": "activity",
          "component": "bighead.wallpaper.beauty.WallpaperSettings"
        },
        {
          "start": "cn.bighead.adsUtils.MyReceiver.onReceive(Landroid/content/Context;Landroid/content/Intent;)V",
          "target": "invokevirtual \u003c Application, Ljava/lang/reflect/Method, invoke(Ljava/lang/Object;[Ljava/lang/Object;)Ljava/lang/Object; \u003e@224",
          "type": "sms",
          "constraintsFile": "constraints20_0.py",
          "variables": {
            "\u003cChainedInput1\u003e": "IAAv5",
            "SharedPreferences\u003csession_id\u003e": "IAAv11",
            "\u003cChainedInput1\u003e.hasPopUpAnyTime()": "IAAv2",
            "SharedPreferences\u003cduration\u003e.valueOf().longValue()": "IAAv12",
            "SharedPreferences\u003cinstallDay\u003e": "IAAv3",
            "\u003cChainedInput1\u003e.getPackageNameForLog().isEmpty()": "IAAv4",
            "SharedPreferences\u003cactivities\u003e": "IAAv14",
            "\u003cChainedInput1\u003e.hasPush()": "IAAv1",
            "\u003cChainedInput1\u003e.isNetOn()": "IAAv0"
          },
          "stringMap": {
            "7000": ""
          },
          "strings": {
            "IAAv11": "",
            "IAAv14": ""
          }
        }
      ]
    },
    "21": {
      "startMethod": "cn.bighead.adsUtils.MyReceiver.onReceive(Landroid/content/Context;Landroid/content/Intent;)V",
      "targetMethod": "org.apache.http.client.HttpClient.execute(Lorg/apache/http/client/methods/HttpUriRequest;)Lorg/apache/http/HttpResponse;",
      "eventChain": [
        {
          "start": "bighead.wallpaper.beauty.WallpaperSettings.onPause()V",
          "target": "invokeinterface \u003c Application, Landroid/content/SharedPreferences$Editor, putLong(Ljava/lang/String;J)Landroid/content/SharedPreferences$Editor; \u003e@70",
          "type": "activity",
          "component": "bighead.wallpaper.beauty.WallpaperSettings"
        },
        {
          "start": "bighead.wallpaper.beauty.WallpaperSettings.onPause()V",
          "target": "invokeinterface \u003c Application, Landroid/content/SharedPreferences$Editor, putString(Ljava/lang/String;Ljava/lang/String;)Landroid/content/SharedPreferences$Editor; \u003e@323",
          "type": "activity",
          "component": "bighead.wallpaper.beauty.WallpaperSettings"
        },
        {
          "start": "bighead.wallpaper.beauty.WallpaperSettings.onPause()V",
          "target": "invokeinterface \u003c Application, Landroid/content/SharedPreferences$Editor, putLong(Ljava/lang/String;J)Landroid/content/SharedPreferences$Editor; \u003e@343",
          "type": "activity",
          "component": "bighead.wallpaper.beauty.WallpaperSettings"
        },
        {
          "start": "bighead.wallpaper.beauty.WallpaperSettings.onPause()V",
          "target": "PC@58",
          "type": "activity",
          "component": "bighead.wallpaper.beauty.WallpaperSettings"
        },
        {
          "start": "bighead.wallpaper.beauty.WallpaperSettings.onPause()V",
          "target": "PC@41",
          "type": "activity",
          "component": "bighead.wallpaper.beauty.WallpaperSettings"
        },
        {
          "start": "bighead.wallpaper.beauty.WallpaperSettings.onPause()V",
          "target": "PC@35",
          "type": "activity",
          "component": "bighead.wallpaper.beauty.WallpaperSettings"
        },
        {
          "start": "cn.bighead.adsUtils.MyReceiver.onReceive(Landroid/content/Context;Landroid/content/Intent;)V",
          "target": "invokeinterface \u003c Application, Lorg/apache/http/client/HttpClient, execute(Lorg/apache/http/client/methods/HttpUriRequest;)Lorg/apache/http/HttpResponse; \u003e@307",
          "type": "sms",
          "constraintsFile": "constraints21_0.py",
          "variables": {
            "\u003cChainedInput1\u003e": "IAAv5",
            "\u003cChainedInput1\u003e.hasPopUpAnyTime()": "IAAv2",
            "SharedPreferences\u003cstart_millis\u003e": "IAAv11",
            "SharedPreferences\u003cinstallDay\u003e": "IAAv3",
            "\u003cChainedInput1\u003e.getPackageNameForLog().isEmpty()": "IAAv4",
            "SharedPreferences\u003cactivities\u003e": "IAAv13",
            "\u003cChainedInput1\u003e.hasPush()": "IAAv1",
            "\u003cChainedInput1\u003e.isNetOn()": "IAAv0"
          },
          "stringMap": {
            "7000": "",
            "7001": "online_config"
          },
          "strings": {
            "IAAv13": "",
            "IAAv18": ""
          }
        }
      ]
    },
    "22": {
      "startMethod": "cn.bighead.adsUtils.MyReceiver.onReceive(Landroid/content/Context;Landroid/content/Intent;)V",
      "targetMethod": "java.lang.reflect.Method.invoke(Ljava/lang/Object;[Ljava/lang/Object;)Ljava/lang/Object;",
      "eventChain": [
        {
          "start": "bighead.wallpaper.beauty.WallpaperSettings.onPause()V",
          "target": "invokeinterface \u003c Application, Landroid/content/SharedPreferences$Editor, putLong(Ljava/lang/String;J)Landroid/content/SharedPreferences$Editor; \u003e@70",
          "type": "activity",
          "component": "bighead.wallpaper.beauty.WallpaperSettings"
        },
        {
          "start": "bighead.wallpaper.beauty.WallpaperSettings.onPause()V",
          "target": "invokeinterface \u003c Application, Landroid/content/SharedPreferences$Editor, putString(Ljava/lang/String;Ljava/lang/String;)Landroid/content/SharedPreferences$Editor; \u003e@323",
          "type": "activity",
          "component": "bighead.wallpaper.beauty.WallpaperSettings"
        },
        {
          "start": "bighead.wallpaper.beauty.WallpaperSettings.onPause()V",
          "target": "invokeinterface \u003c Application, Landroid/content/SharedPreferences$Editor, putString(Ljava/lang/String;Ljava/lang/String;)Landroid/content/SharedPreferences$Editor; \u003e@57",
          "type": "activity",
          "component": "bighead.wallpaper.beauty.WallpaperSettings"
        },
        {
          "start": "bighead.wallpaper.beauty.WallpaperSettings.onPause()V",
          "target": "invokeinterface \u003c Application, Landroid/content/SharedPreferences$Editor, putLong(Ljava/lang/String;J)Landroid/content/SharedPreferences$Editor; \u003e@379",
          "type": "activity",
          "component": "bighead.wallpaper.beauty.WallpaperSettings"
        },
        {
          "start": "bighead.wallpaper.beauty.WallpaperSettings.onPause()V",
          "target": "PC@58",
          "type": "activity",
          "component": "bighead.wallpaper.beauty.WallpaperSettings"
        },
        {
          "start": "cn.bighead.adsUtils.MyReceiver.onReceive(Landroid/content/Context;Landroid/content/Intent;)V",
          "target": "invokevirtual \u003c Application, Ljava/lang/reflect/Method, invoke(Ljava/lang/Object;[Ljava/lang/Object;)Ljava/lang/Object; \u003e@165",
          "type": "sms",
          "constraintsFile": "constraints22_0.py",
          "variables": {
            "\u003cChainedInput1\u003e": "IAAv5",
            "SharedPreferences\u003csession_id\u003e": "IAAv11",
            "\u003cChainedInput1\u003e.hasPopUpAnyTime()": "IAAv2",
            "SharedPreferences\u003cduration\u003e.valueOf().longValue()": "IAAv12",
            "SharedPreferences\u003cinstallDay\u003e": "IAAv3",
            "\u003cChainedInput1\u003e.getPackageNameForLog().isEmpty()": "IAAv4",
            "SharedPreferences\u003cactivities\u003e": "IAAv14",
            "\u003cChainedInput1\u003e.hasPush()": "IAAv1",
            "\u003cChainedInput1\u003e.isNetOn()": "IAAv0"
          },
          "stringMap": {
            "7000": ""
          },
          "strings": {
            "IAAv11": "",
            "IAAv14": ""
          }
        }
      ]
    },
    "23": {
      "startMethod": "com.xiaomi.wv.f.aa.onClick(Landroid/view/View;)V",
      "targetMethod": "org.apache.http.client.HttpClient.execute(Lorg/apache/http/client/methods/HttpUriRequest;)Lorg/apache/http/HttpResponse;",
      "eventChain": [
        {
          "start": "com.xiaomi.wv.MR.onReceive(Landroid/content/Context;Landroid/content/Intent;)V",
          "target": "invokevirtual \u003c Application, Landroid/widget/ImageView, setOnClickListener(Landroid/view/View$OnClickListener;)V \u003e@465",
          "type": "sms",
          "constraintsFile": "constraints23_0.py",
          "variables": {
            "\u003cChainedInput1\u003e.j()": "IAAv4",
            "\u003cChainedInput2\u003e.getIntExtra()": "IAAv3",
            "\u003cChainedInput2\u003e.getAction()": "IAAv0"
          },
          "stringMap": {
            "7000": "android.intent.action.PACKAGE_ADDED",
            "7001": "android.net.conn.CONNECTIVITY_CHANGE"
          },
          "strings": {
            "IAAv0": ""
          }
        },
        {
          "start": "com.xiaomi.wv.MR.onReceive(Landroid/content/Context;Landroid/content/Intent;)V",
          "target": "PC@22",
          "type": "sms",
          "constraintsFile": "constraints23_1.py",
          "variables": {
            "\u003cInput1\u003e.j()": "IAAv4",
            "\u003cInput2\u003e.getAction()": "IAAv0",
            "\u003cInput1\u003e.a()": "IAAv5",
            "\u003cInput2\u003e.getIntExtra()": "IAAv3"
          },
          "stringMap": {
            "7000": "android.intent.action.PACKAGE_ADDED",
            "7001": "android.net.conn.CONNECTIVITY_CHANGE"
          },
          "strings": {
            "IAAv0": "",
            "IAAv5": ""
          }
        },
        {
          "start": "com.xiaomi.wv.f.aa.onClick(Landroid/view/View;)V",
          "target": "invokeinterface \u003c Application, Lorg/apache/http/client/HttpClient, execute(Lorg/apache/http/client/methods/HttpUriRequest;)Lorg/apache/http/HttpResponse; \u003e@110",
          "type": "ui",
          "activities": [
            "cn.bighead.activities.MainActivity"
          ],
          "listener": "com.xiaomi.wv.f.aa",
          "listenerMethod": "onClick",
          "uiType": "onClick",
          "constraintsFile": "constraints23_2.py",
          "variables": {
            "\u003cChainedInput1\u003e.getTag().intValue()": "IAAv0"
          },
          "stringMap": {},
          "strings": {
            "IAAv2": ""
          }
        }
      ]
    },
    "24": {
      "startMethod": "com.xiaomi.wv.f.aa.onClick(Landroid/view/View;)V",
      "targetMethod": "org.apache.http.client.HttpClient.execute(Lorg/apache/http/client/methods/HttpUriRequest;)Lorg/apache/http/HttpResponse;",
      "eventChain": [
        {
          "start": "com.xiaomi.wv.MR.onReceive(Landroid/content/Context;Landroid/content/Intent;)V",
          "target": "invokevirtual \u003c Application, Landroid/widget/ImageView, setOnClickListener(Landroid/view/View$OnClickListener;)V \u003e@465",
          "type": "sms",
          "constraintsFile": "constraints24_0.py",
          "variables": {
            "\u003cChainedInput1\u003e.j()": "IAAv4",
            "\u003cChainedInput2\u003e.getIntExtra()": "IAAv3",
            "\u003cChainedInput2\u003e.getAction()": "IAAv0"
          },
          "stringMap": {
            "7000": "android.intent.action.PACKAGE_ADDED",
            "7001": "android.net.conn.CONNECTIVITY_CHANGE"
          },
          "strings": {
            "IAAv0": ""
          }
        },
        {
          "start": "com.xiaomi.wv.MR.onReceive(Landroid/content/Context;Landroid/content/Intent;)V",
          "target": "PC@126",
          "type": "sms",
          "constraintsFile": "constraints24_1.py",
          "variables": {
            "\u003cChainedInput1\u003e.getTag().intValue()": "IAAv0",
            "\u003cChainedInput1\u003e.a().e.getSystemService().getActiveNetworkInfo()": "IAAv22",
            "\u003cChainedInput2\u003e.getAction()": "IAAv6",
            "\u003cChainedInput1\u003e.a().a().b": "IAAv25",
            "\u003cChainedInput2\u003e.getIntExtra()": "IAAv9",
            "\u003cChainedInput1\u003e.a().e.a().a() | \u003cChainedInput1\u003e.a().e.a().a() | \u003cInput1\u003e.a().e.a().a().F": "IAAv16",
            "\u003cChainedInput1\u003e.a().b()": "IAAv13",
            "\u003cChainedInput1\u003e.a().c": "IAAv11",
            "\u003cChainedInput1\u003e.a().e.a().a() | \u003cChainedInput1\u003e.a().e.a().a() | \u003cInput1\u003e.a().e.a().a() | \u003cInput1\u003e.a().e.a().a() | \u003cInput1\u003e.a().e.a().a() | \u003cInput1\u003e.a().e.a().a() | \u003cInput1\u003e.a().e.a().a() | \u003cInput1\u003e.a().e.a().a() | \u003cInput1\u003e.a().e.a().a().F": "IAAv19",
            "\u003cChainedInput1\u003e.a().e.b()": "IAAv12",
            "\u003cChainedInput1\u003e.a().e.a().a()": "IAAv18",
            "\u003cChainedInput1\u003e.a().e.a().a() | \u003cChainedInput1\u003e.a().e.a().a() | \u003cInput1\u003e.a().e.a().a() | \u003cInput1\u003e.a().e.a().a() | \u003cInput1\u003e.a().e.a().a() | \u003cInput1\u003e.a().e.a().a() | \u003cInput1\u003e.a().e.a().a() | \u003cInput1\u003e.a().e.a().a() | \u003cInput1\u003e.a().e.a().a().j": "IAAv21",
            "\u003cChainedInput1\u003e.a().e.h()": "IAAv14",
            "\u003cChainedInput1\u003e.a().e.i().a": "IAAv15",
            "\u003cChainedInput1\u003e.a().e.a().a() | \u003cChainedInput1\u003e.a().e.a().a().F": "IAAv17",
            "\u003cChainedInput1\u003e.a().e.d()": "IAAv23",
            "\u003cChainedInput1\u003e.a().a()": "IAAv20"
          },
          "stringMap": {
            "7000": "android.intent.action.PACKAGE_ADDED",
            "7001": "android.net.conn.CONNECTIVITY_CHANGE",
            "7002": "wifi"
          },
          "strings": {
            "IAAv23": "",
            "IAAv6": ""
          }
        },
        {
          "start": "com.xiaomi.wv.f.aa.onClick(Landroid/view/View;)V",
          "target": "invokeinterface \u003c Application, Lorg/apache/http/client/HttpClient, execute(Lorg/apache/http/client/methods/HttpUriRequest;)Lorg/apache/http/HttpResponse; \u003e@409",
          "type": "ui",
          "activities": [
            "cn.bighead.activities.MainActivity"
          ],
          "listener": "com.xiaomi.wv.f.aa",
          "listenerMethod": "onClick",
          "uiType": "onClick",
          "constraintsFile": "constraints24_2.py",
          "variables": {
            "\u003cChainedInput1\u003e.getTag().intValue()": "IAAv0"
          },
          "stringMap": {},
          "strings": {}
        }
      ]
    }
  }
}