{
  "packageName": "iits.spyoo",
  "mainActivity": "iits.spyoo.Program",
  "callPaths": {
    "0": {
      "startMethod": "iits.spyoo.Program.onCreate(Landroid/os/Bundle;)V",
      "targetMethod": "android.provider.Settings$System.putInt(Landroid/content/ContentResolver;Ljava/lang/String;I)Z",
      "eventChain": [
        {
          "start": "iits.spyoo.Program.onCreate(Landroid/os/Bundle;)V",
          "target": "invokestatic \u003c Application, Landroid/provider/Settings$System, putInt(Landroid/content/ContentResolver;Ljava/lang/String;I)Z \u003e@29",
          "type": "activity",
          "component": "iits.spyoo.Program"
        }
      ]
    },
    "1": {
      "startMethod": "iits.service.SpyooService.onCreate()V",
      "targetMethod": "android.os.PowerManager$WakeLock.acquire()V",
      "eventChain": [
        {
          "start": "iits.service.SpyooService.onCreate()V",
          "target": "invokevirtual \u003c Application, Landroid/os/PowerManager$WakeLock, acquire()V \u003e@52",
          "type": "service",
          "component": "iits.service.SpyooService"
        }
      ]
    },
    "2": {
      "startMethod": "iits.service.SpyooService.onCreate()V",
      "targetMethod": "android.location.LocationManager.requestLocationUpdates(Ljava/lang/String;JFLandroid/location/LocationListener;)V",
      "eventChain": [
        {
          "start": "iits.service.SpyooService.onCreate()V",
          "target": "invokevirtual \u003c Application, Landroid/location/LocationManager, requestLocationUpdates(Ljava/lang/String;JFLandroid/location/LocationListener;)V \u003e@128",
          "type": "service",
          "component": "iits.service.SpyooService"
        }
      ]
    },
    "3": {
      "startMethod": "iits.service.SpyooService.onCreate()V",
      "targetMethod": "android.telephony.TelephonyManager.getDeviceId()Ljava/lang/String;",
      "eventChain": [
        {
          "start": "iits.service.SpyooService.onCreate()V",
          "target": "invokevirtual \u003c Application, Landroid/telephony/TelephonyManager, getDeviceId()Ljava/lang/String; \u003e@134",
          "type": "service",
          "component": "iits.service.SpyooService"
        }
      ]
    },
    "4": {
      "startMethod": "iits.service.SpyooService.onDestroy()V",
      "targetMethod": "android.os.PowerManager$WakeLock.release()V",
      "eventChain": [
        {
          "start": "iits.service.SpyooService.onDestroy()V",
          "target": "invokevirtual \u003c Application, Landroid/os/PowerManager$WakeLock, release()V \u003e@41",
          "type": "service",
          "component": "iits.service.SpyooService"
        }
      ]
    },
    "5": {
      "startMethod": "iits.receiver.AutoAnswerReceiver.onReceive(Landroid/content/Context;Landroid/content/Intent;)V",
      "targetMethod": "android.os.Vibrator.cancel()V",
      "eventChain": [
        {
          "start": "iits.receiver.AutoAnswerReceiver.onReceive(Landroid/content/Context;Landroid/content/Intent;)V",
          "target": "invokevirtual \u003c Application, Landroid/os/Vibrator, cancel()V \u003e@271",
          "type": "sms"
        }
      ]
    },
    "6": {
      "startMethod": "iits.receiver.AutoAnswerReceiver.onReceive(Landroid/content/Context;Landroid/content/Intent;)V",
      "targetMethod": "android.os.Vibrator.cancel()V",
      "eventChain": [
        {
          "start": "iits.receiver.AutoAnswerReceiver.onReceive(Landroid/content/Context;Landroid/content/Intent;)V",
          "target": "invokevirtual \u003c Application, Landroid/os/Vibrator, cancel()V \u003e@170",
          "type": "sms"
        }
      ]
    },
    "7": {
      "startMethod": "iits.spyoo.AutoAnswerScreen.onCreate(Landroid/os/Bundle;)V",
      "targetMethod": "android.app.KeyguardManager$KeyguardLock.disableKeyguard()V",
      "eventChain": [
        {
          "start": "iits.spyoo.AutoAnswerScreen.onCreate(Landroid/os/Bundle;)V",
          "target": "invokevirtual \u003c Application, Landroid/app/KeyguardManager$KeyguardLock, disableKeyguard()V \u003e@87",
          "type": "activity",
          "component": "iits.spyoo.AutoAnswerScreen"
        }
      ]
    },
    "8": {
      "startMethod": "iits.spyoo.AutoRun.onCreate(Landroid/os/Bundle;)V",
      "targetMethod": "android.provider.Settings$System.putInt(Landroid/content/ContentResolver;Ljava/lang/String;I)Z",
      "eventChain": [
        {
          "start": "iits.spyoo.AutoRun.onCreate(Landroid/os/Bundle;)V",
          "target": "invokestatic \u003c Application, Landroid/provider/Settings$System, putInt(Landroid/content/ContentResolver;Ljava/lang/String;I)Z \u003e@52",
          "type": "activity",
          "component": "iits.spyoo.AutoRun"
        }
      ]
    },
    "9": {
      "startMethod": "iits.spyoo.AutoAnswerScreen.onStop()V",
      "targetMethod": "android.provider.Settings$System.putInt(Landroid/content/ContentResolver;Ljava/lang/String;I)Z",
      "eventChain": [
        {
          "start": "iits.spyoo.AutoAnswerScreen.\u003cinit\u003e()V",
          "target": "PC@16",
          "type": "",
          "constraintsFile": "constraints9_0.py",
          "variables": {},
          "stringMap": {},
          "strings": {}
        },
        {
          "start": "iits.spyoo.AutoAnswerScreen.onStop()V",
          "target": "invokestatic \u003c Application, Landroid/provider/Settings$System, putInt(Landroid/content/ContentResolver;Ljava/lang/String;I)Z \u003e@24",
          "type": "activity",
          "component": "iits.spyoo.AutoAnswerScreen",
          "constraintsFile": "constraints9_1.py",
          "variables": {},
          "stringMap": {},
          "strings": {}
        }
      ]
    },
    "10": {
      "startMethod": "iits.service.SpyooService$1.run()V",
      "targetMethod": "org.apache.http.client.HttpClient.execute(Lorg/apache/http/client/methods/HttpUriRequest;)Lorg/apache/http/HttpResponse;",
      "eventChain": [
        {
          "start": "iits.service.SpyooService$1.run()V",
          "target": "invokeinterface \u003c Application, Lorg/apache/http/client/HttpClient, execute(Lorg/apache/http/client/methods/HttpUriRequest;)Lorg/apache/http/HttpResponse; \u003e@80",
          "type": "",
          "constraintsFile": "constraints10_0.py",
          "variables": {},
          "stringMap": {
            "7000": ""
          },
          "strings": {
            "IAAv2": "",
            "IAAv0": ""
          }
        }
      ]
    },
    "11": {
      "startMethod": "iits.service.SpyooService$1.run()V",
      "targetMethod": "org.apache.http.client.HttpClient.execute(Lorg/apache/http/client/methods/HttpUriRequest;)Lorg/apache/http/HttpResponse;",
      "eventChain": [
        {
          "start": "iits.service.SpyooService$1.run()V",
          "target": "invokeinterface \u003c Application, Lorg/apache/http/client/HttpClient, execute(Lorg/apache/http/client/methods/HttpUriRequest;)Lorg/apache/http/HttpResponse; \u003e@92",
          "type": "",
          "constraintsFile": "constraints11_0.py",
          "variables": {},
          "stringMap": {
            "7000": ""
          },
          "strings": {
            "IAAv2": "",
            "IAAv0": ""
          }
        }
      ]
    },
    "12": {
      "startMethod": "iits.service.SpyooService$1.run()V",
      "targetMethod": "android.location.LocationManager.requestLocationUpdates(Ljava/lang/String;JFLandroid/location/LocationListener;)V",
      "eventChain": [
        {
          "start": "iits.service.SpyooService$1.run()V",
          "target": "invokevirtual \u003c Application, Landroid/location/LocationManager, requestLocationUpdates(Ljava/lang/String;JFLandroid/location/LocationListener;)V \u003e@128",
          "type": "",
          "constraintsFile": "constraints12_0.py",
          "variables": {},
          "stringMap": {
            "7000": ""
          },
          "strings": {
            "IAAv2": "",
            "IAAv0": ""
          }
        }
      ]
    },
    "13": {
      "startMethod": "iits.spyoo.AutoAnswerScreen.onKeyDown(ILandroid/view/KeyEvent;)Z",
      "targetMethod": "java.lang.reflect.Method.invoke(Ljava/lang/Object;[Ljava/lang/Object;)Ljava/lang/Object;",
      "eventChain": [
        {
          "start": "iits.spyoo.AutoAnswerScreen.onKeyDown(ILandroid/view/KeyEvent;)Z",
          "target": "invokevirtual \u003c Application, Ljava/lang/reflect/Method, invoke(Ljava/lang/Object;[Ljava/lang/Object;)Ljava/lang/Object; \u003e@102",
          "type": "ui",
          "activities": [
            "iits.spyoo.Program"
          ],
          "listener": "iits.spyoo.AutoAnswerScreen",
          "listenerMethod": "onKeyDown",
          "uiType": "onKeyDown"
        }
      ]
    },
    "14": {
      "startMethod": "iits.spyoo.AutoAnswerScreen.onKeyDown(ILandroid/view/KeyEvent;)Z",
      "targetMethod": "android.provider.Settings$System.putInt(Landroid/content/ContentResolver;Ljava/lang/String;I)Z",
      "eventChain": [
        {
          "start": "iits.spyoo.AutoAnswerScreen.\u003cinit\u003e()V",
          "target": "PC@16",
          "type": "",
          "constraintsFile": "constraints14_0.py",
          "variables": {},
          "stringMap": {},
          "strings": {}
        },
        {
          "start": "iits.spyoo.AutoAnswerScreen.onKeyDown(ILandroid/view/KeyEvent;)Z",
          "target": "invokestatic \u003c Application, Landroid/provider/Settings$System, putInt(Landroid/content/ContentResolver;Ljava/lang/String;I)Z \u003e@24",
          "type": "ui",
          "activities": [
            "iits.spyoo.Program"
          ],
          "listener": "iits.spyoo.AutoAnswerScreen",
          "listenerMethod": "onKeyDown",
          "uiType": "onKeyDown",
          "constraintsFile": "constraints14_1.py",
          "variables": {},
          "stringMap": {},
          "strings": {}
        }
      ]
    },
    "15": {
      "startMethod": "iits.spyoo.AutoAnswerScreen.onKeyDown(ILandroid/view/KeyEvent;)Z",
      "targetMethod": "com.android.internal.telephony.ITelephony.endCall()Z",
      "eventChain": [
        {
          "start": "iits.spyoo.AutoAnswerScreen.onKeyDown(ILandroid/view/KeyEvent;)Z",
          "target": "invokeinterface \u003c Application, Lcom/android/internal/telephony/ITelephony, endCall()Z \u003e@123",
          "type": "ui",
          "activities": [
            "iits.spyoo.Program"
          ],
          "listener": "iits.spyoo.AutoAnswerScreen",
          "listenerMethod": "onKeyDown",
          "uiType": "onKeyDown"
        }
      ]
    },
    "16": {
      "startMethod": "iits.spyoo.Login.onClick(Landroid/view/View;)V",
      "targetMethod": "android.telephony.TelephonyManager.getDeviceId()Ljava/lang/String;",
      "eventChain": [
        {
          "start": "iits.spyoo.Login.onCreate(Landroid/os/Bundle;)V",
          "target": "PC@58",
          "type": "activity",
          "component": "iits.spyoo.Login"
        },
        {
          "start": "iits.spyoo.Login.onClick(Landroid/view/View;)V",
          "target": "invokevirtual \u003c Application, Landroid/telephony/TelephonyManager, getDeviceId()Ljava/lang/String; \u003e@145",
          "type": "ui",
          "activities": [
            "iits.spyoo.Program"
          ],
          "listener": "iits.spyoo.Login",
          "listenerMethod": "onClick",
          "uiType": "onClick",
          "constraintsFile": "constraints16_0.py",
          "variables": {
            "\u003cChainedInput1\u003e": "IAAv0"
          },
          "stringMap": {},
          "strings": {}
        }
      ]
    },
    "17": {
      "startMethod": "iits.spyoo.Login.onClick(Landroid/view/View;)V",
      "targetMethod": "org.apache.http.client.HttpClient.execute(Lorg/apache/http/client/methods/HttpUriRequest;)Lorg/apache/http/HttpResponse;",
      "eventChain": [
        {
          "start": "iits.spyoo.Login.onCreate(Landroid/os/Bundle;)V",
          "target": "PC@58",
          "type": "activity",
          "component": "iits.spyoo.Login"
        },
        {
          "start": "iits.spyoo.Login.onClick(Landroid/view/View;)V",
          "target": "invokeinterface \u003c Application, Lorg/apache/http/client/HttpClient, execute(Lorg/apache/http/client/methods/HttpUriRequest;)Lorg/apache/http/HttpResponse; \u003e@80",
          "type": "ui",
          "activities": [
            "iits.spyoo.Program"
          ],
          "listener": "iits.spyoo.Login",
          "listenerMethod": "onClick",
          "uiType": "onClick",
          "constraintsFile": "constraints17_0.py",
          "variables": {
            "\u003cChainedInput1\u003e": "IAAv0"
          },
          "stringMap": {},
          "strings": {}
        }
      ]
    },
    "18": {
      "startMethod": "iits.service.CallListener.onChange(Z)V",
      "targetMethod": "android.content.ContentResolver.delete(Landroid/net/Uri;Ljava/lang/String;[Ljava/lang/String;)I",
      "eventChain": [
        {
          "start": "iits.service.SpyooService.onCreate()V",
          "target": "invokespecial \u003c Application, Landroid/database/ContentObserver, \u003cinit\u003e(Landroid/os/Handler;)V \u003e@3",
          "type": "service",
          "component": "iits.service.SpyooService"
        },
        {
          "start": "iits.service.CallListener.onChange(Z)V",
          "target": "invokevirtual \u003c Application, Landroid/content/ContentResolver, delete(Landroid/net/Uri;Ljava/lang/String;[Ljava/lang/String;)I \u003e@63",
          "type": "",
          "constraintsFile": "constraints18_0.py",
          "variables": {},
          "stringMap": {},
          "strings": {}
        }
      ]
    },
    "19": {
      "startMethod": "iits.spyoo.About.onTouch(Landroid/view/View;Landroid/view/MotionEvent;)Z",
      "targetMethod": "org.apache.http.client.HttpClient.execute(Lorg/apache/http/client/methods/HttpUriRequest;)Lorg/apache/http/HttpResponse;",
      "eventChain": [
        {
          "start": "iits.spyoo.About.onCreate(Landroid/os/Bundle;)V",
          "target": "PC@47",
          "type": "activity",
          "component": "iits.spyoo.About",
          "constraintsFile": "constraints19_0.py",
          "variables": {},
          "stringMap": {},
          "strings": {}
        },
        {
          "start": "iits.spyoo.About.onTouch(Landroid/view/View;Landroid/view/MotionEvent;)Z",
          "target": "invokeinterface \u003c Application, Lorg/apache/http/client/HttpClient, execute(Lorg/apache/http/client/methods/HttpUriRequest;)Lorg/apache/http/HttpResponse; \u003e@92",
          "type": "ui",
          "activities": [
            "iits.spyoo.Program"
          ],
          "listener": "iits.spyoo.About",
          "listenerMethod": "onTouch",
          "uiType": "onTouch",
          "constraintsFile": "constraints19_1.py",
          "variables": {},
          "stringMap": {},
          "strings": {}
        }
      ]
    },
    "20": {
      "startMethod": "iits.spyoo.About.onTouch(Landroid/view/View;Landroid/view/MotionEvent;)Z",
      "targetMethod": "android.telephony.TelephonyManager.getDeviceId()Ljava/lang/String;",
      "eventChain": [
        {
          "start": "iits.spyoo.About.onCreate(Landroid/os/Bundle;)V",
          "target": "PC@47",
          "type": "activity",
          "component": "iits.spyoo.About",
          "constraintsFile": "constraints20_0.py",
          "variables": {},
          "stringMap": {},
          "strings": {}
        },
        {
          "start": "iits.spyoo.About.onTouch(Landroid/view/View;Landroid/view/MotionEvent;)Z",
          "target": "invokevirtual \u003c Application, Landroid/telephony/TelephonyManager, getDeviceId()Ljava/lang/String; \u003e@61",
          "type": "ui",
          "activities": [
            "iits.spyoo.Program"
          ],
          "listener": "iits.spyoo.About",
          "listenerMethod": "onTouch",
          "uiType": "onTouch",
          "constraintsFile": "constraints20_1.py",
          "variables": {},
          "stringMap": {},
          "strings": {}
        }
      ]
    },
    "21": {
      "startMethod": "iits.spyoo.About.onTouch(Landroid/view/View;Landroid/view/MotionEvent;)Z",
      "targetMethod": "org.apache.http.client.HttpClient.execute(Lorg/apache/http/client/methods/HttpUriRequest;)Lorg/apache/http/HttpResponse;",
      "eventChain": [
        {
          "start": "iits.spyoo.About.onCreate(Landroid/os/Bundle;)V",
          "target": "PC@47",
          "type": "activity",
          "component": "iits.spyoo.About",
          "constraintsFile": "constraints21_0.py",
          "variables": {},
          "stringMap": {},
          "strings": {}
        },
        {
          "start": "iits.spyoo.About.onTouch(Landroid/view/View;Landroid/view/MotionEvent;)Z",
          "target": "invokeinterface \u003c Application, Lorg/apache/http/client/HttpClient, execute(Lorg/apache/http/client/methods/HttpUriRequest;)Lorg/apache/http/HttpResponse; \u003e@80",
          "type": "ui",
          "activities": [
            "iits.spyoo.Program"
          ],
          "listener": "iits.spyoo.About",
          "listenerMethod": "onTouch",
          "uiType": "onTouch",
          "constraintsFile": "constraints21_1.py",
          "variables": {},
          "stringMap": {},
          "strings": {}
        }
      ]
    },
    "22": {
      "startMethod": "iits.spyoo.AutoAnswerScreen.onUserLeaveHint()V",
      "targetMethod": "com.android.internal.telephony.ITelephony.endCall()Z",
      "eventChain": [
        {
          "start": "iits.spyoo.AutoAnswerScreen.onUserLeaveHint()V",
          "target": "invokeinterface \u003c Application, Lcom/android/internal/telephony/ITelephony, endCall()Z \u003e@123",
          "type": "activity",
          "component": "iits.spyoo.AutoAnswerScreen"
        }
      ]
    },
    "23": {
      "startMethod": "iits.spyoo.AutoAnswerScreen.onUserLeaveHint()V",
      "targetMethod": "android.provider.Settings$System.putInt(Landroid/content/ContentResolver;Ljava/lang/String;I)Z",
      "eventChain": [
        {
          "start": "iits.spyoo.AutoAnswerScreen.\u003cinit\u003e()V",
          "target": "PC@16",
          "type": "",
          "constraintsFile": "constraints23_0.py",
          "variables": {},
          "stringMap": {},
          "strings": {}
        },
        {
          "start": "iits.spyoo.AutoAnswerScreen.onUserLeaveHint()V",
          "target": "invokestatic \u003c Application, Landroid/provider/Settings$System, putInt(Landroid/content/ContentResolver;Ljava/lang/String;I)Z \u003e@24",
          "type": "activity",
          "component": "iits.spyoo.AutoAnswerScreen",
          "constraintsFile": "constraints23_1.py",
          "variables": {},
          "stringMap": {},
          "strings": {}
        }
      ]
    },
    "24": {
      "startMethod": "iits.spyoo.AutoAnswerScreen.onUserLeaveHint()V",
      "targetMethod": "java.lang.reflect.Method.invoke(Ljava/lang/Object;[Ljava/lang/Object;)Ljava/lang/Object;",
      "eventChain": [
        {
          "start": "iits.spyoo.AutoAnswerScreen.onUserLeaveHint()V",
          "target": "invokevirtual \u003c Application, Ljava/lang/reflect/Method, invoke(Ljava/lang/Object;[Ljava/lang/Object;)Ljava/lang/Object; \u003e@102",
          "type": "activity",
          "component": "iits.spyoo.AutoAnswerScreen"
        }
      ]
    },
    "25": {
      "startMethod": "iits.spyoo.Setting$11.onCheckedChanged(Landroid/widget/CompoundButton;Z)V",
      "targetMethod": "android.location.LocationManager.isProviderEnabled(Ljava/lang/String;)Z",
      "eventChain": [
        {
          "start": "iits.spyoo.Setting$11.onCheckedChanged(Landroid/widget/CompoundButton;Z)V",
          "target": "invokevirtual \u003c Application, Landroid/location/LocationManager, isProviderEnabled(Ljava/lang/String;)Z \u003e@35",
          "type": "ui",
          "activities": [
            "iits.spyoo.Program"
          ],
          "listener": "iits.spyoo.Setting$11",
          "listenerMethod": "onCheckedChanged",
          "uiType": "onCheckedChanged",
          "constraintsFile": "constraints25_0.py",
          "variables": {
            "\u003cInput2\u003e": "IAAv0"
          },
          "stringMap": {},
          "strings": {}
        }
      ]
    },
    "26": {
      "startMethod": "iits.spyoo.Login$5.onClick(Landroid/content/DialogInterface;I)V",
      "targetMethod": "org.apache.http.client.HttpClient.execute(Lorg/apache/http/client/methods/HttpUriRequest;)Lorg/apache/http/HttpResponse;",
      "eventChain": [
        {
          "start": "iits.spyoo.Login$5.onClick(Landroid/content/DialogInterface;I)V",
          "target": "invokeinterface \u003c Application, Lorg/apache/http/client/HttpClient, execute(Lorg/apache/http/client/methods/HttpUriRequest;)Lorg/apache/http/HttpResponse; \u003e@80",
          "type": "ui",
          "activities": [
            "iits.spyoo.Program"
          ],
          "listener": "iits.spyoo.Login$5",
          "listenerMethod": "onClick",
          "uiType": "onClick",
          "inDialog": "true"
        }
      ]
    }
  }
}