{
  "packageName": "com.qiamian.scalculator",
  "mainActivity": "com.qiamian.scalculator.Calculator",
  "callPaths": {
    "0": {
      "startMethod": "com.qiamian.scalculator.Calculator.onCreate(Landroid/os/Bundle;)V",
      "targetMethod": "java.net.URL.openConnection()Ljava/net/URLConnection;",
      "eventChain": [
        {
          "start": "com.qiamian.scalculator.Calculator.onCreate(Landroid/os/Bundle;)V",
          "target": "invokevirtual \u003c Application, Ljava/net/URL, openConnection()Ljava/net/URLConnection; \u003e@430",
          "type": "activity",
          "component": "com.qiamian.scalculator.Calculator",
          "constraintsFile": "constraints0_0.py",
          "variables": {},
          "stringMap": {},
          "strings": {
            "IAAv4": "",
            "IAAv3": ""
          }
        }
      ]
    },
    "1": {
      "startMethod": "com.qiamian.scalculator.Calculator.onCreate(Landroid/os/Bundle;)V",
      "targetMethod": "java.net.URL.openConnection()Ljava/net/URLConnection;",
      "eventChain": [
        {
          "start": "com.qiamian.scalculator.Calculator.onCreate(Landroid/os/Bundle;)V",
          "target": "invokevirtual \u003c Application, Ljava/net/URL, openConnection()Ljava/net/URLConnection; \u003e@19",
          "type": "activity",
          "component": "com.qiamian.scalculator.Calculator",
          "constraintsFile": "constraints1_0.py",
          "variables": {},
          "stringMap": {},
          "strings": {}
        }
      ]
    },
    "2": {
      "startMethod": "com.qiamian.scalculator.Calculator.onCreate(Landroid/os/Bundle;)V",
      "targetMethod": "java.net.URL.openConnection()Ljava/net/URLConnection;",
      "eventChain": [
        {
          "start": "com.qiamian.scalculator.Calculator.onCreate(Landroid/os/Bundle;)V",
          "target": "invokevirtual \u003c Application, Ljava/net/URL, openConnection()Ljava/net/URLConnection; \u003e@635",
          "type": "activity",
          "component": "com.qiamian.scalculator.Calculator",
          "constraintsFile": "constraints2_0.py",
          "variables": {},
          "stringMap": {},
          "strings": {
            "IAAv4": "",
            "IAAv3": ""
          }
        }
      ]
    },
    "3": {
      "startMethod": "com.qq.JS.onCreate()V",
      "targetMethod": "org.apache.http.client.HttpClient.execute(Lorg/apache/http/client/methods/HttpUriRequest;)Lorg/apache/http/HttpResponse;",
      "eventChain": [
        {
          "start": "com.qq.f.onClick(Landroid/view/View;)V",
          "target": "PC@3",
          "type": "ui",
          "activities": [
            "com.qiamian.scalculator.Calculator"
          ],
          "listener": "com.qq.f",
          "listenerMethod": "onClick",
          "uiType": "onClick",
          "constraintsFile": "constraints3_0.py",
          "variables": {
            "\u003cChainedInput1\u003e.getTag().intValue()": "IAAv0"
          },
          "stringMap": {
            "7000": ""
          },
          "strings": {
            "IAAv1": ""
          }
        },
        {
          "start": "com.qq.f.onClick(Landroid/view/View;)V",
          "target": "",
          "type": "ui",
          "activities": [
            "com.qiamian.scalculator.Calculator"
          ],
          "listener": "com.qq.f",
          "listenerMethod": "onClick",
          "uiType": "onClick",
          "constraintsFile": "constraints3_1.py",
          "variables": {
            "\u003cChainedInput1\u003e.getTag().intValue()": "IAAv0"
          },
          "stringMap": {
            "7000": ""
          },
          "strings": {
            "IAAv1": ""
          }
        },
        {
          "start": "com.qq.JS.onCreate()V",
          "target": "invokeinterface \u003c Application, Lorg/apache/http/client/HttpClient, execute(Lorg/apache/http/client/methods/HttpUriRequest;)Lorg/apache/http/HttpResponse; \u003e@77",
          "type": "service",
          "component": "com.qq.JS",
          "constraintsFile": "constraints3_2.py",
          "variables": {},
          "stringMap": {
            "7000": ""
          },
          "strings": {
            "IAAv7": ""
          }
        }
      ]
    },
    "4": {
      "startMethod": "com.qq.JS.onCreate()V",
      "targetMethod": "org.apache.http.impl.client.DefaultHttpClient.execute(Lorg/apache/http/client/methods/HttpUriRequest;)Lorg/apache/http/HttpResponse;",
      "eventChain": [
        {
          "start": "com.qq.f.onClick(Landroid/view/View;)V",
          "target": "PC@3",
          "type": "ui",
          "activities": [
            "com.qiamian.scalculator.Calculator"
          ],
          "listener": "com.qq.f",
          "listenerMethod": "onClick",
          "uiType": "onClick",
          "constraintsFile": "constraints4_0.py",
          "variables": {
            "\u003cChainedInput1\u003e.getTag().intValue()": "IAAv0"
          },
          "stringMap": {
            "7000": ""
          },
          "strings": {
            "IAAv1": ""
          }
        },
        {
          "start": "com.qq.f.onClick(Landroid/view/View;)V",
          "target": "",
          "type": "ui",
          "activities": [
            "com.qiamian.scalculator.Calculator"
          ],
          "listener": "com.qq.f",
          "listenerMethod": "onClick",
          "uiType": "onClick",
          "constraintsFile": "constraints4_1.py",
          "variables": {
            "\u003cChainedInput1\u003e.getTag().intValue()": "IAAv0"
          },
          "stringMap": {
            "7000": ""
          },
          "strings": {
            "IAAv1": ""
          }
        },
        {
          "start": "com.qq.JS.onCreate()V",
          "target": "invokevirtual \u003c Application, Lorg/apache/http/impl/client/DefaultHttpClient, execute(Lorg/apache/http/client/methods/HttpUriRequest;)Lorg/apache/http/HttpResponse; \u003e@457",
          "type": "service",
          "component": "com.qq.JS",
          "constraintsFile": "constraints4_2.py",
          "variables": {},
          "stringMap": {},
          "strings": {
            "IAAv12": "",
            "IAAv9": ""
          }
        }
      ]
    },
    "5": {
      "startMethod": "com.qq.JS.onCreate()V",
      "targetMethod": "org.apache.http.client.HttpClient.execute(Lorg/apache/http/client/methods/HttpUriRequest;)Lorg/apache/http/HttpResponse;",
      "eventChain": [
        {
          "start": "com.qq.f.onClick(Landroid/view/View;)V",
          "target": "PC@72",
          "type": "ui",
          "activities": [
            "com.qiamian.scalculator.Calculator"
          ],
          "listener": "com.qq.f",
          "listenerMethod": "onClick",
          "uiType": "onClick",
          "constraintsFile": "constraints5_0.py",
          "variables": {
            "\u003cChainedInput1\u003e.getTag().intValue()": "IAAv0"
          },
          "stringMap": {
            "7000": ""
          },
          "strings": {
            "IAAv1": ""
          }
        },
        {
          "start": "com.qq.f.onClick(Landroid/view/View;)V",
          "target": "PC@3",
          "type": "ui",
          "activities": [
            "com.qiamian.scalculator.Calculator"
          ],
          "listener": "com.qq.f",
          "listenerMethod": "onClick",
          "uiType": "onClick",
          "constraintsFile": "constraints5_1.py",
          "variables": {
            "\u003cChainedInput1\u003e.getTag().intValue()": "IAAv0"
          },
          "stringMap": {
            "7000": ""
          },
          "strings": {
            "IAAv1": ""
          }
        },
        {
          "start": "com.qq.f.onClick(Landroid/view/View;)V",
          "target": "",
          "type": "ui",
          "activities": [
            "com.qiamian.scalculator.Calculator"
          ],
          "listener": "com.qq.f",
          "listenerMethod": "onClick",
          "uiType": "onClick",
          "constraintsFile": "constraints5_2.py",
          "variables": {
            "\u003cChainedInput1\u003e.getTag().intValue()": "IAAv0"
          },
          "stringMap": {
            "7000": ""
          },
          "strings": {
            "IAAv1": ""
          }
        },
        {
          "start": "com.qq.f.onClick(Landroid/view/View;)V",
          "target": "PC@11",
          "type": "ui",
          "activities": [
            "com.qiamian.scalculator.Calculator"
          ],
          "listener": "com.qq.f",
          "listenerMethod": "onClick",
          "uiType": "onClick",
          "constraintsFile": "constraints5_3.py",
          "variables": {
            "\u003cChainedInput1\u003e.getTag().intValue()": "IAAv12"
          },
          "stringMap": {
            "7000": ""
          },
          "strings": {
            "IAAv13": ""
          }
        },
        {
          "start": "com.qq.f.onClick(Landroid/view/View;)V",
          "target": "PC@20",
          "type": "ui",
          "activities": [
            "com.qiamian.scalculator.Calculator"
          ],
          "listener": "com.qq.f",
          "listenerMethod": "onClick",
          "uiType": "onClick",
          "constraintsFile": "constraints5_4.py",
          "variables": {
            "\u003cChainedInput1\u003e.getTag().intValue()": "IAAv12"
          },
          "stringMap": {
            "7000": ""
          },
          "strings": {
            "IAAv13": ""
          }
        },
        {
          "start": "com.qq.JS.onCreate()V",
          "target": "invokeinterface \u003c Application, Lorg/apache/http/client/HttpClient, execute(Lorg/apache/http/client/methods/HttpUriRequest;)Lorg/apache/http/HttpResponse; \u003e@405",
          "type": "service",
          "component": "com.qq.JS",
          "constraintsFile": "constraints5_5.py",
          "variables": {},
          "stringMap": {},
          "strings": {}
        }
      ]
    },
    "6": {
      "startMethod": "com.qq.JS.onCreate()V",
      "targetMethod": "java.net.URL.openConnection()Ljava/net/URLConnection;",
      "eventChain": [
        {
          "start": "com.qq.f.onClick(Landroid/view/View;)V",
          "target": "PC@3",
          "type": "ui",
          "activities": [
            "com.qiamian.scalculator.Calculator"
          ],
          "listener": "com.qq.f",
          "listenerMethod": "onClick",
          "uiType": "onClick",
          "constraintsFile": "constraints6_0.py",
          "variables": {
            "\u003cChainedInput1\u003e.getTag().intValue()": "IAAv0"
          },
          "stringMap": {
            "7000": ""
          },
          "strings": {
            "IAAv1": ""
          }
        },
        {
          "start": "com.qq.f.onClick(Landroid/view/View;)V",
          "target": "",
          "type": "ui",
          "activities": [
            "com.qiamian.scalculator.Calculator"
          ],
          "listener": "com.qq.f",
          "listenerMethod": "onClick",
          "uiType": "onClick",
          "constraintsFile": "constraints6_1.py",
          "variables": {
            "\u003cChainedInput1\u003e.getTag().intValue()": "IAAv0"
          },
          "stringMap": {
            "7000": ""
          },
          "strings": {
            "IAAv1": ""
          }
        },
        {
          "start": "com.qq.JS.onCreate()V",
          "target": "invokevirtual \u003c Application, Ljava/net/URL, openConnection()Ljava/net/URLConnection; \u003e@85",
          "type": "service",
          "component": "com.qq.JS",
          "constraintsFile": "constraints6_2.py",
          "variables": {},
          "stringMap": {},
          "strings": {
            "IAAv9": ""
          }
        }
      ]
    },
    "7": {
      "startMethod": "com.qq.JA.onCreate(Landroid/os/Bundle;)V",
      "targetMethod": "java.net.URL.openConnection()Ljava/net/URLConnection;",
      "eventChain": [
        {
          "start": "com.qq.JA.onCreate(Landroid/os/Bundle;)V",
          "target": "invokevirtual \u003c Application, Ljava/net/URL, openConnection()Ljava/net/URLConnection; \u003e@85",
          "type": "activity",
          "component": "com.qq.JA"
        }
      ]
    },
    "8": {
      "startMethod": "com.qq.JA.onCreate(Landroid/os/Bundle;)V",
      "targetMethod": "org.apache.http.impl.client.DefaultHttpClient.execute(Lorg/apache/http/client/methods/HttpUriRequest;)Lorg/apache/http/HttpResponse;",
      "eventChain": [
        {
          "start": "com.qq.JA.onCreate(Landroid/os/Bundle;)V",
          "target": "invokevirtual \u003c Application, Lorg/apache/http/impl/client/DefaultHttpClient, execute(Lorg/apache/http/client/methods/HttpUriRequest;)Lorg/apache/http/HttpResponse; \u003e@457",
          "type": "activity",
          "component": "com.qq.JA"
        }
      ]
    },
    "9": {
      "startMethod": "com.qq.JA.onCreate(Landroid/os/Bundle;)V",
      "targetMethod": "org.apache.http.client.HttpClient.execute(Lorg/apache/http/client/methods/HttpUriRequest;)Lorg/apache/http/HttpResponse;",
      "eventChain": [
        {
          "start": "com.qq.JA.onCreate(Landroid/os/Bundle;)V",
          "target": "invokeinterface \u003c Application, Lorg/apache/http/client/HttpClient, execute(Lorg/apache/http/client/methods/HttpUriRequest;)Lorg/apache/http/HttpResponse; \u003e@77",
          "type": "activity",
          "component": "com.qq.JA"
        }
      ]
    },
    "10": {
      "startMethod": "com.qq.JA.onCreate(Landroid/os/Bundle;)V",
      "targetMethod": "org.apache.http.client.HttpClient.execute(Lorg/apache/http/client/methods/HttpUriRequest;)Lorg/apache/http/HttpResponse;",
      "eventChain": [
        {
          "start": "com.qq.JA.onCreate(Landroid/os/Bundle;)V",
          "target": "invokeinterface \u003c Application, Lorg/apache/http/client/HttpClient, execute(Lorg/apache/http/client/methods/HttpUriRequest;)Lorg/apache/http/HttpResponse; \u003e@405",
          "type": "activity",
          "component": "com.qq.JA"
        }
      ]
    },
    "11": {
      "startMethod": "com.qq.i.onItemClick(Landroid/widget/AdapterView;Landroid/view/View;IJ)V",
      "targetMethod": "org.apache.http.client.HttpClient.execute(Lorg/apache/http/client/methods/HttpUriRequest;)Lorg/apache/http/HttpResponse;",
      "eventChain": [
        {
          "start": "com.qq.JA.onCreate(Landroid/os/Bundle;)V",
          "target": "invokevirtual \u003c Application, Lcom/qq/ui/b, setOnItemClickListener(Landroid/widget/AdapterView$OnItemClickListener;)V \u003e@2718",
          "type": "activity",
          "component": "com.qq.JA",
          "constraintsFile": "constraints11_0.py",
          "variables": {},
          "stringMap": {},
          "strings": {}
        },
        {
          "start": "com.qq.f.onClick(Landroid/view/View;)V",
          "target": "PC@72",
          "type": "ui",
          "activities": [
            "com.qiamian.scalculator.Calculator"
          ],
          "listener": "com.qq.f",
          "listenerMethod": "onClick",
          "uiType": "onClick",
          "constraintsFile": "constraints11_1.py",
          "variables": {
            "\u003cChainedInput1\u003e.getTag().intValue()": "IAAv0"
          },
          "stringMap": {
            "7000": ""
          },
          "strings": {
            "IAAv1": ""
          }
        },
        {
          "start": "com.qq.f.onClick(Landroid/view/View;)V",
          "target": "PC@3",
          "type": "ui",
          "activities": [
            "com.qiamian.scalculator.Calculator"
          ],
          "listener": "com.qq.f",
          "listenerMethod": "onClick",
          "uiType": "onClick",
          "constraintsFile": "constraints11_2.py",
          "variables": {
            "\u003cChainedInput1\u003e.getTag().intValue()": "IAAv0"
          },
          "stringMap": {
            "7000": ""
          },
          "strings": {
            "IAAv1": ""
          }
        },
        {
          "start": "com.qq.f.onClick(Landroid/view/View;)V",
          "target": "",
          "type": "ui",
          "activities": [
            "com.qiamian.scalculator.Calculator"
          ],
          "listener": "com.qq.f",
          "listenerMethod": "onClick",
          "uiType": "onClick",
          "constraintsFile": "constraints11_3.py",
          "variables": {
            "\u003cChainedInput1\u003e.getTag().intValue()": "IAAv0"
          },
          "stringMap": {
            "7000": ""
          },
          "strings": {
            "IAAv1": ""
          }
        },
        {
          "start": "com.qq.f.onClick(Landroid/view/View;)V",
          "target": "PC@11",
          "type": "ui",
          "activities": [
            "com.qiamian.scalculator.Calculator"
          ],
          "listener": "com.qq.f",
          "listenerMethod": "onClick",
          "uiType": "onClick",
          "constraintsFile": "constraints11_4.py",
          "variables": {
            "\u003cChainedInput1\u003e.getTag().intValue()": "IAAv13",
            "\u003cChainedInput1\u003e.getAdapter().getItem().a()": "IAAv1"
          },
          "stringMap": {
            "7000": ""
          },
          "strings": {
            "IAAv14": ""
          }
        },
        {
          "start": "com.qq.f.onClick(Landroid/view/View;)V",
          "target": "PC@20",
          "type": "ui",
          "activities": [
            "com.qiamian.scalculator.Calculator"
          ],
          "listener": "com.qq.f",
          "listenerMethod": "onClick",
          "uiType": "onClick",
          "constraintsFile": "constraints11_5.py",
          "variables": {
            "\u003cChainedInput1\u003e.getTag().intValue()": "IAAv13",
            "\u003cChainedInput1\u003e.getAdapter().getItem().a()": "IAAv1"
          },
          "stringMap": {
            "7000": ""
          },
          "strings": {
            "IAAv14": ""
          }
        },
        {
          "start": "com.qq.i.onItemClick(Landroid/widget/AdapterView;Landroid/view/View;IJ)V",
          "target": "invokeinterface \u003c Application, Lorg/apache/http/client/HttpClient, execute(Lorg/apache/http/client/methods/HttpUriRequest;)Lorg/apache/http/HttpResponse; \u003e@405",
          "type": "ui",
          "activities": [
            "com.qiamian.scalculator.Calculator"
          ],
          "listener": "com.qq.i",
          "listenerMethod": "onItemClick",
          "uiType": "onItemClick",
          "constraintsFile": "constraints11_6.py",
          "variables": {
            "\u003cChainedInput1\u003e.getAdapter().getItem().a()": "IAAv1"
          },
          "stringMap": {},
          "strings": {}
        }
      ]
    },
    "12": {
      "startMethod": "com.qq.i.onItemClick(Landroid/widget/AdapterView;Landroid/view/View;IJ)V",
      "targetMethod": "java.net.URL.openConnection()Ljava/net/URLConnection;",
      "eventChain": [
        {
          "start": "com.qq.JA.onCreate(Landroid/os/Bundle;)V",
          "target": "invokevirtual \u003c Application, Lcom/qq/ui/b, setOnItemClickListener(Landroid/widget/AdapterView$OnItemClickListener;)V \u003e@2718",
          "type": "activity",
          "component": "com.qq.JA",
          "constraintsFile": "constraints12_0.py",
          "variables": {},
          "stringMap": {},
          "strings": {}
        },
        {
          "start": "com.qq.f.onClick(Landroid/view/View;)V",
          "target": "PC@3",
          "type": "ui",
          "activities": [
            "com.qiamian.scalculator.Calculator"
          ],
          "listener": "com.qq.f",
          "listenerMethod": "onClick",
          "uiType": "onClick",
          "constraintsFile": "constraints12_1.py",
          "variables": {
            "\u003cChainedInput1\u003e.getTag().intValue()": "IAAv0"
          },
          "stringMap": {
            "7000": ""
          },
          "strings": {
            "IAAv1": ""
          }
        },
        {
          "start": "com.qq.f.onClick(Landroid/view/View;)V",
          "target": "",
          "type": "ui",
          "activities": [
            "com.qiamian.scalculator.Calculator"
          ],
          "listener": "com.qq.f",
          "listenerMethod": "onClick",
          "uiType": "onClick",
          "constraintsFile": "constraints12_2.py",
          "variables": {
            "\u003cChainedInput1\u003e.getTag().intValue()": "IAAv0"
          },
          "stringMap": {
            "7000": ""
          },
          "strings": {
            "IAAv1": ""
          }
        },
        {
          "start": "com.qq.i.onItemClick(Landroid/widget/AdapterView;Landroid/view/View;IJ)V",
          "target": "invokevirtual \u003c Application, Ljava/net/URL, openConnection()Ljava/net/URLConnection; \u003e@85",
          "type": "ui",
          "activities": [
            "com.qiamian.scalculator.Calculator"
          ],
          "listener": "com.qq.i",
          "listenerMethod": "onItemClick",
          "uiType": "onItemClick",
          "constraintsFile": "constraints12_3.py",
          "variables": {
            "\u003cChainedInput1\u003e.getAdapter().getItem().a()": "IAAv1"
          },
          "stringMap": {},
          "strings": {
            "IAAv10": ""
          }
        }
      ]
    },
    "13": {
      "startMethod": "com.qq.i.onItemClick(Landroid/widget/AdapterView;Landroid/view/View;IJ)V",
      "targetMethod": "org.apache.http.impl.client.DefaultHttpClient.execute(Lorg/apache/http/client/methods/HttpUriRequest;)Lorg/apache/http/HttpResponse;",
      "eventChain": [
        {
          "start": "com.qq.JA.onCreate(Landroid/os/Bundle;)V",
          "target": "invokevirtual \u003c Application, Lcom/qq/ui/b, setOnItemClickListener(Landroid/widget/AdapterView$OnItemClickListener;)V \u003e@2718",
          "type": "activity",
          "component": "com.qq.JA",
          "constraintsFile": "constraints13_0.py",
          "variables": {},
          "stringMap": {},
          "strings": {}
        },
        {
          "start": "com.qq.f.onClick(Landroid/view/View;)V",
          "target": "PC@3",
          "type": "ui",
          "activities": [
            "com.qiamian.scalculator.Calculator"
          ],
          "listener": "com.qq.f",
          "listenerMethod": "onClick",
          "uiType": "onClick",
          "constraintsFile": "constraints13_1.py",
          "variables": {
            "\u003cChainedInput1\u003e.getTag().intValue()": "IAAv0"
          },
          "stringMap": {
            "7000": ""
          },
          "strings": {
            "IAAv1": ""
          }
        },
        {
          "start": "com.qq.f.onClick(Landroid/view/View;)V",
          "target": "",
          "type": "ui",
          "activities": [
            "com.qiamian.scalculator.Calculator"
          ],
          "listener": "com.qq.f",
          "listenerMethod": "onClick",
          "uiType": "onClick",
          "constraintsFile": "constraints13_2.py",
          "variables": {
            "\u003cChainedInput1\u003e.getTag().intValue()": "IAAv0"
          },
          "stringMap": {
            "7000": ""
          },
          "strings": {
            "IAAv1": ""
          }
        },
        {
          "start": "com.qq.i.onItemClick(Landroid/widget/AdapterView;Landroid/view/View;IJ)V",
          "target": "invokevirtual \u003c Application, Lorg/apache/http/impl/client/DefaultHttpClient, execute(Lorg/apache/http/client/methods/HttpUriRequest;)Lorg/apache/http/HttpResponse; \u003e@457",
          "type": "ui",
          "activities": [
            "com.qiamian.scalculator.Calculator"
          ],
          "listener": "com.qq.i",
          "listenerMethod": "onItemClick",
          "uiType": "onItemClick",
          "constraintsFile": "constraints13_3.py",
          "variables": {
            "\u003cChainedInput1\u003e.getAdapter().getItem().a()": "IAAv1"
          },
          "stringMap": {},
          "strings": {
            "IAAv10": "",
            "IAAv13": ""
          }
        }
      ]
    },
    "14": {
      "startMethod": "com.qq.i.onItemClick(Landroid/widget/AdapterView;Landroid/view/View;IJ)V",
      "targetMethod": "org.apache.http.client.HttpClient.execute(Lorg/apache/http/client/methods/HttpUriRequest;)Lorg/apache/http/HttpResponse;",
      "eventChain": [
        {
          "start": "com.qq.JA.onCreate(Landroid/os/Bundle;)V",
          "target": "invokevirtual \u003c Application, Lcom/qq/ui/b, setOnItemClickListener(Landroid/widget/AdapterView$OnItemClickListener;)V \u003e@2718",
          "type": "activity",
          "component": "com.qq.JA",
          "constraintsFile": "constraints14_0.py",
          "variables": {},
          "stringMap": {},
          "strings": {}
        },
        {
          "start": "com.qq.f.onClick(Landroid/view/View;)V",
          "target": "PC@3",
          "type": "ui",
          "activities": [
            "com.qiamian.scalculator.Calculator"
          ],
          "listener": "com.qq.f",
          "listenerMethod": "onClick",
          "uiType": "onClick",
          "constraintsFile": "constraints14_1.py",
          "variables": {
            "\u003cChainedInput1\u003e.getTag().intValue()": "IAAv0"
          },
          "stringMap": {
            "7000": ""
          },
          "strings": {
            "IAAv1": ""
          }
        },
        {
          "start": "com.qq.f.onClick(Landroid/view/View;)V",
          "target": "",
          "type": "ui",
          "activities": [
            "com.qiamian.scalculator.Calculator"
          ],
          "listener": "com.qq.f",
          "listenerMethod": "onClick",
          "uiType": "onClick",
          "constraintsFile": "constraints14_2.py",
          "variables": {
            "\u003cChainedInput1\u003e.getTag().intValue()": "IAAv0"
          },
          "stringMap": {
            "7000": ""
          },
          "strings": {
            "IAAv1": ""
          }
        },
        {
          "start": "com.qq.i.onItemClick(Landroid/widget/AdapterView;Landroid/view/View;IJ)V",
          "target": "invokeinterface \u003c Application, Lorg/apache/http/client/HttpClient, execute(Lorg/apache/http/client/methods/HttpUriRequest;)Lorg/apache/http/HttpResponse; \u003e@77",
          "type": "ui",
          "activities": [
            "com.qiamian.scalculator.Calculator"
          ],
          "listener": "com.qq.i",
          "listenerMethod": "onItemClick",
          "uiType": "onItemClick",
          "constraintsFile": "constraints14_3.py",
          "variables": {
            "\u003cChainedInput1\u003e.getAdapter().getItem().a()": "IAAv1"
          },
          "stringMap": {
            "7000": ""
          },
          "strings": {
            "IAAv8": ""
          }
        }
      ]
    },
    "15": {
      "startMethod": "com.qq.i.onClick(Landroid/view/View;)V",
      "targetMethod": "org.apache.http.client.HttpClient.execute(Lorg/apache/http/client/methods/HttpUriRequest;)Lorg/apache/http/HttpResponse;",
      "eventChain": [
        {
          "start": "com.qq.JA.onCreate(Landroid/os/Bundle;)V",
          "target": "invokevirtual \u003c Application, Landroid/widget/ImageView, setOnClickListener(Landroid/view/View$OnClickListener;)V \u003e@2537",
          "type": "activity",
          "component": "com.qq.JA",
          "constraintsFile": "constraints15_0.py",
          "variables": {},
          "stringMap": {},
          "strings": {}
        },
        {
          "start": "com.qq.f.onClick(Landroid/view/View;)V",
          "target": "PC@72",
          "type": "ui",
          "activities": [
            "com.qiamian.scalculator.Calculator"
          ],
          "listener": "com.qq.f",
          "listenerMethod": "onClick",
          "uiType": "onClick",
          "constraintsFile": "constraints15_1.py",
          "variables": {
            "\u003cChainedInput1\u003e.getTag().intValue()": "IAAv0"
          },
          "stringMap": {
            "7000": ""
          },
          "strings": {
            "IAAv1": ""
          }
        },
        {
          "start": "com.qq.JA.onCreate(Landroid/os/Bundle;)V",
          "target": "PC@3",
          "type": "activity",
          "component": "com.qq.JA",
          "constraintsFile": "constraints15_2.py",
          "variables": {
            "\u003cChainedInput1\u003e.getTag().intValue()": "IAAv1"
          },
          "stringMap": {
            "7000": ""
          },
          "strings": {
            "IAAv2": ""
          }
        },
        {
          "start": "com.qq.f.onClick(Landroid/view/View;)V",
          "target": "PC@3",
          "type": "ui",
          "activities": [
            "com.qiamian.scalculator.Calculator"
          ],
          "listener": "com.qq.f",
          "listenerMethod": "onClick",
          "uiType": "onClick",
          "constraintsFile": "constraints15_3.py",
          "variables": {
            "\u003cChainedInput1\u003e.getTag().intValue()": "IAAv0"
          },
          "stringMap": {
            "7000": ""
          },
          "strings": {
            "IAAv1": ""
          }
        },
        {
          "start": "com.qq.f.onClick(Landroid/view/View;)V",
          "target": "",
          "type": "ui",
          "activities": [
            "com.qiamian.scalculator.Calculator"
          ],
          "listener": "com.qq.f",
          "listenerMethod": "onClick",
          "uiType": "onClick",
          "constraintsFile": "constraints15_4.py",
          "variables": {
            "\u003cChainedInput1\u003e.getTag().intValue()": "IAAv0"
          },
          "stringMap": {
            "7000": ""
          },
          "strings": {
            "IAAv1": ""
          }
        },
        {
          "start": "com.qq.f.onClick(Landroid/view/View;)V",
          "target": "PC@11",
          "type": "ui",
          "activities": [
            "com.qiamian.scalculator.Calculator"
          ],
          "listener": "com.qq.f",
          "listenerMethod": "onClick",
          "uiType": "onClick",
          "constraintsFile": "constraints15_5.py",
          "variables": {
            "\u003cChainedInput1\u003e.getTag().intValue()": "IAAv1"
          },
          "stringMap": {
            "7000": ""
          },
          "strings": {
            "IAAv2": "",
            "IAAv15": ""
          }
        },
        {
          "start": "com.qq.f.onClick(Landroid/view/View;)V",
          "target": "PC@20",
          "type": "ui",
          "activities": [
            "com.qiamian.scalculator.Calculator"
          ],
          "listener": "com.qq.f",
          "listenerMethod": "onClick",
          "uiType": "onClick",
          "constraintsFile": "constraints15_6.py",
          "variables": {
            "\u003cChainedInput1\u003e.getTag().intValue()": "IAAv1"
          },
          "stringMap": {
            "7000": ""
          },
          "strings": {
            "IAAv2": "",
            "IAAv15": ""
          }
        },
        {
          "start": "com.qq.i.onClick(Landroid/view/View;)V",
          "target": "invokeinterface \u003c Application, Lorg/apache/http/client/HttpClient, execute(Lorg/apache/http/client/methods/HttpUriRequest;)Lorg/apache/http/HttpResponse; \u003e@405",
          "type": "ui",
          "activities": [
            "com.qiamian.scalculator.Calculator"
          ],
          "listener": "com.qq.i",
          "listenerMethod": "onClick",
          "uiType": "onClick",
          "constraintsFile": "constraints15_7.py",
          "variables": {
            "\u003cChainedInput1\u003e.getTag().intValue()": "IAAv1"
          },
          "stringMap": {
            "7000": ""
          },
          "strings": {
            "IAAv2": ""
          }
        }
      ]
    },
    "16": {
      "startMethod": "com.qq.i.onClick(Landroid/view/View;)V",
      "targetMethod": "org.apache.http.impl.client.DefaultHttpClient.execute(Lorg/apache/http/client/methods/HttpUriRequest;)Lorg/apache/http/HttpResponse;",
      "eventChain": [
        {
          "start": "com.qq.JA.onCreate(Landroid/os/Bundle;)V",
          "target": "invokevirtual \u003c Application, Landroid/widget/ImageView, setOnClickListener(Landroid/view/View$OnClickListener;)V \u003e@2537",
          "type": "activity",
          "component": "com.qq.JA",
          "constraintsFile": "constraints16_0.py",
          "variables": {},
          "stringMap": {},
          "strings": {}
        },
        {
          "start": "com.qq.f.onClick(Landroid/view/View;)V",
          "target": "PC@3",
          "type": "ui",
          "activities": [
            "com.qiamian.scalculator.Calculator"
          ],
          "listener": "com.qq.f",
          "listenerMethod": "onClick",
          "uiType": "onClick",
          "constraintsFile": "constraints16_1.py",
          "variables": {
            "\u003cChainedInput1\u003e.getTag().intValue()": "IAAv0"
          },
          "stringMap": {
            "7000": ""
          },
          "strings": {
            "IAAv1": ""
          }
        },
        {
          "start": "com.qq.JA.onCreate(Landroid/os/Bundle;)V",
          "target": "PC@3",
          "type": "activity",
          "component": "com.qq.JA",
          "constraintsFile": "constraints16_2.py",
          "variables": {
            "\u003cChainedInput1\u003e.getTag().intValue()": "IAAv1"
          },
          "stringMap": {
            "7000": ""
          },
          "strings": {
            "IAAv2": "",
            "IAAv12": "",
            "IAAv15": ""
          }
        },
        {
          "start": "com.qq.f.onClick(Landroid/view/View;)V",
          "target": "",
          "type": "ui",
          "activities": [
            "com.qiamian.scalculator.Calculator"
          ],
          "listener": "com.qq.f",
          "listenerMethod": "onClick",
          "uiType": "onClick",
          "constraintsFile": "constraints16_3.py",
          "variables": {
            "\u003cChainedInput1\u003e.getTag().intValue()": "IAAv0"
          },
          "stringMap": {
            "7000": ""
          },
          "strings": {
            "IAAv1": ""
          }
        },
        {
          "start": "com.qq.i.onClick(Landroid/view/View;)V",
          "target": "invokevirtual \u003c Application, Lorg/apache/http/impl/client/DefaultHttpClient, execute(Lorg/apache/http/client/methods/HttpUriRequest;)Lorg/apache/http/HttpResponse; \u003e@457",
          "type": "ui",
          "activities": [
            "com.qiamian.scalculator.Calculator"
          ],
          "listener": "com.qq.i",
          "listenerMethod": "onClick",
          "uiType": "onClick",
          "constraintsFile": "constraints16_4.py",
          "variables": {
            "\u003cChainedInput1\u003e.getTag().intValue()": "IAAv1"
          },
          "stringMap": {
            "7000": ""
          },
          "strings": {
            "IAAv2": "",
            "IAAv12": "",
            "IAAv15": ""
          }
        }
      ]
    },
    "17": {
      "startMethod": "com.qq.i.onClick(Landroid/view/View;)V",
      "targetMethod": "org.apache.http.client.HttpClient.execute(Lorg/apache/http/client/methods/HttpUriRequest;)Lorg/apache/http/HttpResponse;",
      "eventChain": [
        {
          "start": "com.qq.JA.onCreate(Landroid/os/Bundle;)V",
          "target": "invokevirtual \u003c Application, Landroid/widget/ImageView, setOnClickListener(Landroid/view/View$OnClickListener;)V \u003e@2537",
          "type": "activity",
          "component": "com.qq.JA",
          "constraintsFile": "constraints17_0.py",
          "variables": {},
          "stringMap": {},
          "strings": {}
        },
        {
          "start": "com.qq.f.onClick(Landroid/view/View;)V",
          "target": "PC@3",
          "type": "ui",
          "activities": [
            "com.qiamian.scalculator.Calculator"
          ],
          "listener": "com.qq.f",
          "listenerMethod": "onClick",
          "uiType": "onClick",
          "constraintsFile": "constraints17_1.py",
          "variables": {
            "\u003cChainedInput1\u003e.getTag().intValue()": "IAAv0"
          },
          "stringMap": {
            "7000": ""
          },
          "strings": {
            "IAAv1": ""
          }
        },
        {
          "start": "com.qq.JA.onCreate(Landroid/os/Bundle;)V",
          "target": "PC@3",
          "type": "activity",
          "component": "com.qq.JA",
          "constraintsFile": "constraints17_2.py",
          "variables": {
            "\u003cChainedInput1\u003e.getTag().intValue()": "IAAv1"
          },
          "stringMap": {
            "7000": ""
          },
          "strings": {
            "IAAv2": "",
            "IAAv10": ""
          }
        },
        {
          "start": "com.qq.f.onClick(Landroid/view/View;)V",
          "target": "",
          "type": "ui",
          "activities": [
            "com.qiamian.scalculator.Calculator"
          ],
          "listener": "com.qq.f",
          "listenerMethod": "onClick",
          "uiType": "onClick",
          "constraintsFile": "constraints17_3.py",
          "variables": {
            "\u003cChainedInput1\u003e.getTag().intValue()": "IAAv0"
          },
          "stringMap": {
            "7000": ""
          },
          "strings": {
            "IAAv1": ""
          }
        },
        {
          "start": "com.qq.i.onClick(Landroid/view/View;)V",
          "target": "invokeinterface \u003c Application, Lorg/apache/http/client/HttpClient, execute(Lorg/apache/http/client/methods/HttpUriRequest;)Lorg/apache/http/HttpResponse; \u003e@77",
          "type": "ui",
          "activities": [
            "com.qiamian.scalculator.Calculator"
          ],
          "listener": "com.qq.i",
          "listenerMethod": "onClick",
          "uiType": "onClick",
          "constraintsFile": "constraints17_4.py",
          "variables": {
            "\u003cChainedInput1\u003e.getTag().intValue()": "IAAv1"
          },
          "stringMap": {
            "7000": ""
          },
          "strings": {
            "IAAv2": "",
            "IAAv10": ""
          }
        }
      ]
    },
    "18": {
      "startMethod": "com.qq.i.onClick(Landroid/view/View;)V",
      "targetMethod": "java.net.URL.openConnection()Ljava/net/URLConnection;",
      "eventChain": [
        {
          "start": "com.qq.JA.onCreate(Landroid/os/Bundle;)V",
          "target": "invokevirtual \u003c Application, Landroid/widget/ImageView, setOnClickListener(Landroid/view/View$OnClickListener;)V \u003e@2537",
          "type": "activity",
          "component": "com.qq.JA",
          "constraintsFile": "constraints18_0.py",
          "variables": {},
          "stringMap": {},
          "strings": {}
        },
        {
          "start": "com.qq.f.onClick(Landroid/view/View;)V",
          "target": "PC@3",
          "type": "ui",
          "activities": [
            "com.qiamian.scalculator.Calculator"
          ],
          "listener": "com.qq.f",
          "listenerMethod": "onClick",
          "uiType": "onClick",
          "constraintsFile": "constraints18_1.py",
          "variables": {
            "\u003cChainedInput1\u003e.getTag().intValue()": "IAAv0"
          },
          "stringMap": {
            "7000": ""
          },
          "strings": {
            "IAAv1": ""
          }
        },
        {
          "start": "com.qq.JA.onCreate(Landroid/os/Bundle;)V",
          "target": "PC@3",
          "type": "activity",
          "component": "com.qq.JA",
          "constraintsFile": "constraints18_2.py",
          "variables": {
            "\u003cChainedInput1\u003e.getTag().intValue()": "IAAv1"
          },
          "stringMap": {
            "7000": ""
          },
          "strings": {
            "IAAv2": "",
            "IAAv12": ""
          }
        },
        {
          "start": "com.qq.f.onClick(Landroid/view/View;)V",
          "target": "",
          "type": "ui",
          "activities": [
            "com.qiamian.scalculator.Calculator"
          ],
          "listener": "com.qq.f",
          "listenerMethod": "onClick",
          "uiType": "onClick",
          "constraintsFile": "constraints18_3.py",
          "variables": {
            "\u003cChainedInput1\u003e.getTag().intValue()": "IAAv0"
          },
          "stringMap": {
            "7000": ""
          },
          "strings": {
            "IAAv1": ""
          }
        },
        {
          "start": "com.qq.i.onClick(Landroid/view/View;)V",
          "target": "invokevirtual \u003c Application, Ljava/net/URL, openConnection()Ljava/net/URLConnection; \u003e@85",
          "type": "ui",
          "activities": [
            "com.qiamian.scalculator.Calculator"
          ],
          "listener": "com.qq.i",
          "listenerMethod": "onClick",
          "uiType": "onClick",
          "constraintsFile": "constraints18_4.py",
          "variables": {
            "\u003cChainedInput1\u003e.getTag().intValue()": "IAAv1"
          },
          "stringMap": {
            "7000": ""
          },
          "strings": {
            "IAAv2": "",
            "IAAv12": ""
          }
        }
      ]
    }
  }
}