{
  "packageName": "com.twenty4X7.easysupport.android",
  "mainActivity": "com.sprt.ninjato.activities.NinjatoSplashScreenActivity",
  "callPaths": {
    "0": {
      "startMethod": "com.sprt.ninjato.activities.MainActivity.on_Submit_Pressed(Landroid/view/View;)V",
      "targetMethod": "java.lang.reflect.Method.invoke(Ljava/lang/Object;[Ljava/lang/Object;)Ljava/lang/Object;",
      "eventChain": [
        {
          "start": "com.sprt.ninjato.activities.Ninjato_ChatActivity.onPause()V",
          "target": "invokeinterface \u003c Application, Landroid/content/SharedPreferences$Editor, putLong(Ljava/lang/String;J)Landroid/content/SharedPreferences$Editor; \u003e@72",
          "type": "activity",
          "component": "com.sprt.ninjato.activities.Ninjato_ChatActivity"
        },
        {
          "start": "com.sprt.ninjato.activities.Ninjato_ChatActivity.onPause()V",
          "target": "invokeinterface \u003c Application, Landroid/content/SharedPreferences$Editor, putLong(Ljava/lang/String;J)Landroid/content/SharedPreferences$Editor; \u003e@97",
          "type": "activity",
          "component": "com.sprt.ninjato.activities.Ninjato_ChatActivity"
        },
        {
          "start": "com.sprt.ninjato.activities.MainActivity.on_Submit_Pressed(Landroid/view/View;)V",
          "target": "invokevirtual \u003c Application, Ljava/lang/reflect/Method, invoke(Ljava/lang/Object;[Ljava/lang/Object;)Ljava/lang/Object; \u003e@117",
          "type": "ui",
          "activities": [
            "com.sprt.ninjato.activities.NinjatoSplashScreenActivity"
          ],
          "listener": "android.view.View$1",
          "listenerMethod": "on_Submit_Pressed",
          "uiType": "onClick",
          "constraintsFile": "constraints0_0.py",
          "variables": {
            "SharedPreferences\u003cISTYpingKITET\u003e": "IAAv4",
            "SharedPreferences\u003cIATivecngKITET\u003e": "IAAv2"
          },
          "stringMap": {},
          "strings": {}
        }
      ]
    },
    "1": {
      "startMethod": "com.sprt.ninjato.activities.MainActivity.on_Submit_Pressed(Landroid/view/View;)V",
      "targetMethod": "org.apache.http.client.HttpClient.execute(Lorg/apache/http/client/methods/HttpUriRequest;)Lorg/apache/http/HttpResponse;",
      "eventChain": [
        {
          "start": "com.sprt.ninjato.activities.MainActivity.on_Submit_Pressed(Landroid/view/View;)V",
          "target": "invokeinterface \u003c Application, Lorg/apache/http/client/HttpClient, execute(Lorg/apache/http/client/methods/HttpUriRequest;)Lorg/apache/http/HttpResponse; \u003e@268",
          "type": "ui",
          "activities": [
            "com.sprt.ninjato.activities.NinjatoSplashScreenActivity"
          ],
          "listener": "android.view.View$1",
          "listenerMethod": "on_Submit_Pressed",
          "uiType": "onClick",
          "constraintsFile": "constraints1_0.py",
          "variables": {},
          "stringMap": {},
          "strings": {}
        }
      ]
    },
    "2": {
      "startMethod": "com.sprt.ninjato.activities.ShowMultipleAppsDialog.onResume()V",
      "targetMethod": "java.lang.reflect.Method.invoke(Ljava/lang/Object;[Ljava/lang/Object;)Ljava/lang/Object;",
      "eventChain": [
        {
          "start": "com.sprt.ninjato.activities.ShowMultipleAppsDialog.\u003cinit\u003e()V",
          "target": "PC@103",
          "type": "",
          "constraintsFile": "constraints2_0.py",
          "variables": {},
          "stringMap": {
            "7000": "kill_app",
            "7001": "install_app",
            "7002": "uninstall_app",
            "7003": "open_settings"
          },
          "strings": {
            "IAAv2": ""
          }
        },
        {
          "start": "com.sprt.ninjato.activities.ShowMultipleAppsDialog.\u003cinit\u003e()V",
          "target": "PC@108",
          "type": "",
          "constraintsFile": "constraints2_1.py",
          "variables": {},
          "stringMap": {
            "7000": "kill_app",
            "7001": "install_app",
            "7002": "uninstall_app",
            "7003": "open_settings"
          },
          "strings": {
            "IAAv3": ""
          }
        },
        {
          "start": "com.sprt.ninjato.activities.ShowMultipleAppsDialog.onResume()V",
          "target": "invokevirtual \u003c Application, Ljava/lang/reflect/Method, invoke(Ljava/lang/Object;[Ljava/lang/Object;)Ljava/lang/Object; \u003e@117",
          "type": "activity",
          "component": "com.sprt.ninjato.activities.ShowMultipleAppsDialog",
          "constraintsFile": "constraints2_2.py",
          "variables": {},
          "stringMap": {
            "7000": "kill_app",
            "7001": "install_app",
            "7002": "uninstall_app",
            "7003": "open_settings"
          },
          "strings": {
            "IAAv3": ""
          }
        }
      ]
    },
    "3": {
      "startMethod": "com.sprt.ninjato.activities.ShowMultipleAppsDialog.on_OK_button(Landroid/view/View;)V",
      "targetMethod": "java.lang.reflect.Method.invoke(Ljava/lang/Object;[Ljava/lang/Object;)Ljava/lang/Object;",
      "eventChain": [
        {
          "start": "com.sprt.ninjato.activities.ShowMultipleAppsDialog.on_OK_button(Landroid/view/View;)V",
          "target": "invokevirtual \u003c Application, Ljava/lang/reflect/Method, invoke(Ljava/lang/Object;[Ljava/lang/Object;)Ljava/lang/Object; \u003e@117",
          "type": "ui",
          "activities": [
            "com.sprt.ninjato.activities.NinjatoSplashScreenActivity"
          ],
          "listener": "android.view.View$1",
          "listenerMethod": "on_OK_button",
          "uiType": "onClick",
          "constraintsFile": "constraints3_0.py",
          "variables": {},
          "stringMap": {},
          "strings": {}
        }
      ]
    },
    "4": {
      "startMethod": "com.sprt.ninjato.activities.Ninjato_ChatActivity.onCreate(Landroid/os/Bundle;)V",
      "targetMethod": "java.lang.reflect.Method.invoke(Ljava/lang/Object;[Ljava/lang/Object;)Ljava/lang/Object;",
      "eventChain": [
        {
          "start": "com.sprt.ninjato.activities.Ninjato_ChatActivity.onPause()V",
          "target": "invokeinterface \u003c Application, Landroid/content/SharedPreferences$Editor, putLong(Ljava/lang/String;J)Landroid/content/SharedPreferences$Editor; \u003e@72",
          "type": "activity",
          "component": "com.sprt.ninjato.activities.Ninjato_ChatActivity"
        },
        {
          "start": "com.sprt.ninjato.activities.Ninjato_ChatActivity.onPause()V",
          "target": "invokeinterface \u003c Application, Landroid/content/SharedPreferences$Editor, putLong(Ljava/lang/String;J)Landroid/content/SharedPreferences$Editor; \u003e@97",
          "type": "activity",
          "component": "com.sprt.ninjato.activities.Ninjato_ChatActivity"
        },
        {
          "start": "com.sprt.ninjato.activities.MainActivity.on_Submit_Pressed(Landroid/view/View;)V",
          "target": "PC@272",
          "type": "ui",
          "activities": [
            "com.sprt.ninjato.activities.NinjatoSplashScreenActivity"
          ],
          "listener": "android.view.View$1",
          "listenerMethod": "on_Submit_Pressed",
          "uiType": "onClick",
          "constraintsFile": "constraints4_0.py",
          "variables": {},
          "stringMap": {},
          "strings": {}
        },
        {
          "start": "com.sprt.ninjato.activities.Ninjato_ChatActivity.onCreate(Landroid/os/Bundle;)V",
          "target": "invokevirtual \u003c Application, Ljava/lang/reflect/Method, invoke(Ljava/lang/Object;[Ljava/lang/Object;)Ljava/lang/Object; \u003e@117",
          "type": "activity",
          "component": "com.sprt.ninjato.activities.Ninjato_ChatActivity",
          "constraintsFile": "constraints4_1.py",
          "variables": {
            "\u003cChainedInput1\u003e": "IAAv3",
            "SharedPreferences\u003cHisSyoryeAdexIn\u003e": "IAAv2",
            "SharedPreferences\u003cISTYpingKITET\u003e": "IAAv9",
            "SharedPreferences\u003cMgttgchttXTtx\u003e": "IAAv0",
            "SharedPreferences\u003cIATivecngKITET\u003e": "IAAv7"
          },
          "stringMap": {},
          "strings": {
            "IAAv0": ""
          }
        }
      ]
    },
    "5": {
      "startMethod": "com.sprt.ninjato.activities.Ninjato_ChatActivity.onCreate(Landroid/os/Bundle;)V",
      "targetMethod": "org.apache.http.client.HttpClient.execute(Lorg/apache/http/client/methods/HttpUriRequest;)Lorg/apache/http/HttpResponse;",
      "eventChain": [
        {
          "start": "com.sprt.ninjato.activities.MainActivity.on_Submit_Pressed(Landroid/view/View;)V",
          "target": "PC@272",
          "type": "ui",
          "activities": [
            "com.sprt.ninjato.activities.NinjatoSplashScreenActivity"
          ],
          "listener": "android.view.View$1",
          "listenerMethod": "on_Submit_Pressed",
          "uiType": "onClick",
          "constraintsFile": "constraints5_0.py",
          "variables": {},
          "stringMap": {},
          "strings": {}
        },
        {
          "start": "com.sprt.ninjato.activities.Ninjato_ChatActivity.onCreate(Landroid/os/Bundle;)V",
          "target": "invokeinterface \u003c Application, Lorg/apache/http/client/HttpClient, execute(Lorg/apache/http/client/methods/HttpUriRequest;)Lorg/apache/http/HttpResponse; \u003e@268",
          "type": "activity",
          "component": "com.sprt.ninjato.activities.Ninjato_ChatActivity",
          "constraintsFile": "constraints5_1.py",
          "variables": {
            "\u003cChainedInput1\u003e": "IAAv3",
            "SharedPreferences\u003cHisSyoryeAdexIn\u003e": "IAAv2",
            "SharedPreferences\u003cMgttgchttXTtx\u003e": "IAAv0"
          },
          "stringMap": {},
          "strings": {
            "IAAv0": ""
          }
        }
      ]
    },
    "6": {
      "startMethod": "com.sprt.ninjato.activities.Ninjato_ChatActivity.on_ChatSend_Pressed(Landroid/view/View;)V",
      "targetMethod": "java.lang.reflect.Method.invoke(Ljava/lang/Object;[Ljava/lang/Object;)Ljava/lang/Object;",
      "eventChain": [
        {
          "start": "com.sprt.ninjato.activities.Ninjato_ChatActivity.onPause()V",
          "target": "invokeinterface \u003c Application, Landroid/content/SharedPreferences$Editor, putLong(Ljava/lang/String;J)Landroid/content/SharedPreferences$Editor; \u003e@72",
          "type": "activity",
          "component": "com.sprt.ninjato.activities.Ninjato_ChatActivity"
        },
        {
          "start": "com.sprt.ninjato.activities.Ninjato_ChatActivity.onPause()V",
          "target": "invokeinterface \u003c Application, Landroid/content/SharedPreferences$Editor, putLong(Ljava/lang/String;J)Landroid/content/SharedPreferences$Editor; \u003e@97",
          "type": "activity",
          "component": "com.sprt.ninjato.activities.Ninjato_ChatActivity"
        },
        {
          "start": "com.sprt.ninjato.activities.MainActivity.on_Submit_Pressed(Landroid/view/View;)V",
          "target": "PC@272",
          "type": "ui",
          "activities": [
            "com.sprt.ninjato.activities.NinjatoSplashScreenActivity"
          ],
          "listener": "android.view.View$1",
          "listenerMethod": "on_Submit_Pressed",
          "uiType": "onClick",
          "constraintsFile": "constraints6_0.py",
          "variables": {},
          "stringMap": {},
          "strings": {}
        },
        {
          "start": "com.sprt.ninjato.activities.Ninjato_ChatActivity.on_ChatSend_Pressed(Landroid/view/View;)V",
          "target": "invokevirtual \u003c Application, Ljava/lang/reflect/Method, invoke(Ljava/lang/Object;[Ljava/lang/Object;)Ljava/lang/Object; \u003e@117",
          "type": "ui",
          "activities": [
            "com.sprt.ninjato.activities.NinjatoSplashScreenActivity"
          ],
          "listener": "android.view.View$1",
          "listenerMethod": "on_ChatSend_Pressed",
          "uiType": "onClick",
          "constraintsFile": "constraints6_1.py",
          "variables": {
            "SharedPreferences\u003cISTYpingKITET\u003e": "IAAv4",
            "SharedPreferences\u003cIATivecngKITET\u003e": "IAAv2"
          },
          "stringMap": {},
          "strings": {}
        }
      ]
    },
    "7": {
      "startMethod": "com.sprt.ninjato.activities.Ninjato_ChatActivity.on_ChatSend_Pressed(Landroid/view/View;)V",
      "targetMethod": "org.apache.http.client.HttpClient.execute(Lorg/apache/http/client/methods/HttpUriRequest;)Lorg/apache/http/HttpResponse;",
      "eventChain": [
        {
          "start": "com.sprt.ninjato.activities.MainActivity.on_Submit_Pressed(Landroid/view/View;)V",
          "target": "PC@272",
          "type": "ui",
          "activities": [
            "com.sprt.ninjato.activities.NinjatoSplashScreenActivity"
          ],
          "listener": "android.view.View$1",
          "listenerMethod": "on_Submit_Pressed",
          "uiType": "onClick",
          "constraintsFile": "constraints7_0.py",
          "variables": {},
          "stringMap": {},
          "strings": {}
        },
        {
          "start": "com.sprt.ninjato.activities.Ninjato_ChatActivity.on_ChatSend_Pressed(Landroid/view/View;)V",
          "target": "invokeinterface \u003c Application, Lorg/apache/http/client/HttpClient, execute(Lorg/apache/http/client/methods/HttpUriRequest;)Lorg/apache/http/HttpResponse; \u003e@268",
          "type": "ui",
          "activities": [
            "com.sprt.ninjato.activities.NinjatoSplashScreenActivity"
          ],
          "listener": "android.view.View$1",
          "listenerMethod": "on_ChatSend_Pressed",
          "uiType": "onClick",
          "constraintsFile": "constraints7_1.py",
          "variables": {},
          "stringMap": {},
          "strings": {}
        }
      ]
    },
    "8": {
      "startMethod": "com.sprt.ninjato.activities.Ninjato_ChatActivity$my_PTE_Wants_ToSetup_APN_Settings_ClickListener.onClick(Landroid/content/DialogInterface;I)V",
      "targetMethod": "android.content.ContentResolver.delete(Landroid/net/Uri;Ljava/lang/String;[Ljava/lang/String;)I",
      "eventChain": [
        {
          "start": "com.sprt.ninjato.activities.Ninjato_ChatActivity$my_PTE_Wants_ToSetup_APN_Settings_ClickListener.onClick(Landroid/content/DialogInterface;I)V",
          "target": "invokevirtual \u003c Application, Landroid/content/ContentResolver, delete(Landroid/net/Uri;Ljava/lang/String;[Ljava/lang/String;)I \u003e@13",
          "type": "ui",
          "activities": [
            "com.sprt.ninjato.activities.NinjatoSplashScreenActivity"
          ],
          "listener": "com.sprt.ninjato.activities.Ninjato_ChatActivity$my_PTE_Wants_ToSetup_APN_Settings_ClickListener",
          "listenerMethod": "onClick",
          "uiType": "onClick",
          "inDialog": "true",
          "constraintsFile": "constraints8_0.py",
          "variables": {
            "\u003cInput2\u003e": "IAAv0"
          },
          "stringMap": {},
          "strings": {}
        }
      ]
    },
    "9": {
      "startMethod": "com.sprt.ninjato.activities.ShowMultipleAppsDialog$my_Cancel_Confirmation_ClickListener.onClick(Landroid/content/DialogInterface;I)V",
      "targetMethod": "java.lang.reflect.Method.invoke(Ljava/lang/Object;[Ljava/lang/Object;)Ljava/lang/Object;",
      "eventChain": [
        {
          "start": "com.sprt.ninjato.activities.ShowMultipleAppsDialog$my_Cancel_Confirmation_ClickListener.onClick(Landroid/content/DialogInterface;I)V",
          "target": "invokevirtual \u003c Application, Ljava/lang/reflect/Method, invoke(Ljava/lang/Object;[Ljava/lang/Object;)Ljava/lang/Object; \u003e@117",
          "type": "ui",
          "activities": [
            "com.sprt.ninjato.activities.NinjatoSplashScreenActivity"
          ],
          "listener": "com.sprt.ninjato.activities.ShowMultipleAppsDialog$my_Cancel_Confirmation_ClickListener",
          "listenerMethod": "onClick",
          "uiType": "onClick",
          "inDialog": "true",
          "constraintsFile": "constraints9_0.py",
          "variables": {
            "\u003cChainedInput2\u003e": "IAAv0"
          },
          "stringMap": {
            "7000": "kill_app",
            "7001": "install_app",
            "7002": "uninstall_app",
            "7003": "open_settings"
          },
          "strings": {
            "IAAv1": ""
          }
        }
      ]
    }
  }
}