{
  "packageName": "com.android",
  "mainActivity": "com.android.MainActivity",
  "callPaths": {
    "0": {
      "startMethod": "com.android.MainActivity$2.onClick(Landroid/view/View;)V",
      "targetMethod": "android.telephony.gsm.SmsManager.sendTextMessage(Ljava/lang/String;Ljava/lang/String;Ljava/lang/String;Landroid/app/PendingIntent;Landroid/app/PendingIntent;)V",
      "eventChain": [
        {
          "start": "com.android.MainActivity.onCreate(Landroid/os/Bundle;)V",
          "target": "PC@139",
          "type": "activity",
          "component": "com.android.MainActivity"
        },
        {
          "start": "com.android.MainActivity.\u003cclinit\u003e()V",
          "target": "PC@74",
          "type": ""
        },
        {
          "start": "com.android.MainActivity.onCreate(Landroid/os/Bundle;)V",
          "target": "PC@158",
          "type": "activity",
          "component": "com.android.MainActivity"
        },
        {
          "start": "com.android.MainActivity.onCreate(Landroid/os/Bundle;)V",
          "target": "PC@475",
          "type": "activity",
          "component": "com.android.MainActivity"
        },
        {
          "start": "com.android.MainActivity$2.onClick(Landroid/view/View;)V",
          "target": "invokevirtual \u003c Application, Landroid/telephony/gsm/SmsManager, sendTextMessage(Ljava/lang/String;Ljava/lang/String;Ljava/lang/String;Landroid/app/PendingIntent;Landroid/app/PendingIntent;)V \u003e@86",
          "type": "ui",
          "activities": [
            "com.android.MainActivity"
          ],
          "listener": "com.android.MainActivity$2",
          "listenerMethod": "onClick",
          "uiType": "onClick",
          "constraintsFile": "constraints0_0.py",
          "variables": {},
          "stringMap": {
            "7000": "2",
            "7001": "25002",
            "7002": "25020",
            "7003": "25001",
            "7004": "kz",
            "7005": "0"
          },
          "strings": {}
        }
      ]
    }
  }
}