{
  "packageName": "com.fywork.summer",
  "mainActivity": "",
  "callPaths": {
    "0": {
      "startMethod": "com.waps.OffersWebView.onCreate(Landroid/os/Bundle;)V",
      "targetMethod": "org.apache.http.client.HttpClient.execute(Lorg/apache/http/client/methods/HttpUriRequest;)Lorg/apache/http/HttpResponse;",
      "eventChain": [
        {
          "start": "com.waps.OffersWebView.\u003cinit\u003e()V",
          "target": "PC@109",
          "type": "",
          "constraintsFile": "constraints0_0.py",
          "variables": {},
          "stringMap": {
            "7000": "feedback",
            "7001": "",
            "7002": "down_type",
            "7003": "true",
            "7004": "false",
            "7005": "OffersWebView",
            "7006": "notify",
            "7007": "show"
          },
          "strings": {}
        },
        {
          "start": "com.waps.OffersWebView.\u003cinit\u003e()V",
          "target": "PC@186",
          "type": "",
          "constraintsFile": "constraints0_1.py",
          "variables": {},
          "stringMap": {
            "7000": "feedback",
            "7001": "",
            "7002": "down_type",
            "7003": "true",
            "7004": "false",
            "7005": "OffersWebView",
            "7006": "notify",
            "7007": "show"
          },
          "strings": {}
        },
        {
          "start": "com.waps.OffersWebView.\u003cinit\u003e()V",
          "target": "PC@154",
          "type": "",
          "constraintsFile": "constraints0_2.py",
          "variables": {},
          "stringMap": {
            "7000": "feedback",
            "7001": "",
            "7002": "down_type",
            "7003": "true",
            "7004": "false",
            "7005": "OffersWebView",
            "7006": "notify",
            "7007": "show"
          },
          "strings": {}
        },
        {
          "start": "com.waps.OffersWebView.\u003cinit\u003e()V",
          "target": "PC@209",
          "type": "",
          "constraintsFile": "constraints0_3.py",
          "variables": {},
          "stringMap": {
            "7000": "feedback",
            "7001": "",
            "7002": "down_type",
            "7003": "true",
            "7004": "false",
            "7005": "OffersWebView",
            "7006": "notify",
            "7007": "show"
          },
          "strings": {}
        },
        {
          "start": "com.waps.OffersWebView.\u003cinit\u003e()V",
          "target": "PC@101",
          "type": "",
          "constraintsFile": "constraints0_4.py",
          "variables": {},
          "stringMap": {
            "7000": "feedback",
            "7001": "",
            "7002": "down_type",
            "7003": "true",
            "7004": "false",
            "7005": "OffersWebView",
            "7006": "notify",
            "7007": "show"
          },
          "strings": {}
        },
        {
          "start": "com.waps.OffersWebView.\u003cinit\u003e()V",
          "target": "PC@22",
          "type": "",
          "constraintsFile": "constraints0_5.py",
          "variables": {},
          "stringMap": {
            "7000": "feedback",
            "7001": "",
            "7002": "down_type",
            "7003": "true",
            "7004": "false",
            "7005": "OffersWebView",
            "7006": "notify",
            "7007": "show"
          },
          "strings": {}
        },
        {
          "start": "com.waps.OffersWebView.onCreate(Landroid/os/Bundle;)V",
          "target": "invokeinterface \u003c Application, Lorg/apache/http/client/HttpClient, execute(Lorg/apache/http/client/methods/HttpUriRequest;)Lorg/apache/http/HttpResponse; \u003e@179",
          "type": "activity",
          "component": "com.waps.OffersWebView",
          "constraintsFile": "constraints0_6.py",
          "variables": {},
          "stringMap": {
            "7000": "feedback",
            "7001": "",
            "7002": "down_type",
            "7003": "true",
            "7004": "false",
            "7005": "OffersWebView",
            "7006": "notify",
            "7007": "show"
          },
          "strings": {}
        }
      ]
    },
    "1": {
      "startMethod": "com.fywork.summer.SettingActivity.onResume()V",
      "targetMethod": "org.apache.http.client.HttpClient.execute(Lorg/apache/http/client/methods/HttpUriRequest;)Lorg/apache/http/HttpResponse;",
      "eventChain": [
        {
          "start": "com.fywork.summer.SettingActivity.onResume()V",
          "target": "invokeinterface \u003c Application, Lorg/apache/http/client/HttpClient, execute(Lorg/apache/http/client/methods/HttpUriRequest;)Lorg/apache/http/HttpResponse; \u003e@331",
          "type": "activity",
          "component": "com.fywork.summer.SettingActivity"
        }
      ]
    },
    "2": {
      "startMethod": "com.fywork.summer.SettingActivity.onResume()V",
      "targetMethod": "java.net.URL.openConnection()Ljava/net/URLConnection;",
      "eventChain": [
        {
          "start": "com.fywork.summer.SettingActivity.onResume()V",
          "target": "invokevirtual \u003c Application, Ljava/net/URL, openConnection()Ljava/net/URLConnection; \u003e@70",
          "type": "activity",
          "component": "com.fywork.summer.SettingActivity"
        }
      ]
    },
    "3": {
      "startMethod": "com.fywork.summer.SettingActivity.onResume()V",
      "targetMethod": "org.apache.http.client.HttpClient.execute(Lorg/apache/http/client/methods/HttpUriRequest;)Lorg/apache/http/HttpResponse;",
      "eventChain": [
        {
          "start": "com.fywork.summer.SettingActivity.onResume()V",
          "target": "invokeinterface \u003c Application, Lorg/apache/http/client/HttpClient, execute(Lorg/apache/http/client/methods/HttpUriRequest;)Lorg/apache/http/HttpResponse; \u003e@179",
          "type": "activity",
          "component": "com.fywork.summer.SettingActivity"
        }
      ]
    },
    "4": {
      "startMethod": "com.fywork.summer.SettingActivity.onResume()V",
      "targetMethod": "org.apache.http.impl.client.DefaultHttpClient.execute(Lorg/apache/http/client/methods/HttpUriRequest;)Lorg/apache/http/HttpResponse;",
      "eventChain": [
        {
          "start": "com.fywork.summer.SettingActivity.onResume()V",
          "target": "invokevirtual \u003c Application, Lorg/apache/http/impl/client/DefaultHttpClient, execute(Lorg/apache/http/client/methods/HttpUriRequest;)Lorg/apache/http/HttpResponse; \u003e@281",
          "type": "activity",
          "component": "com.fywork.summer.SettingActivity"
        }
      ]
    },
    "5": {
      "startMethod": "com.fywork.summer.SettingActivity.onDestroy()V",
      "targetMethod": "org.apache.http.client.HttpClient.execute(Lorg/apache/http/client/methods/HttpUriRequest;)Lorg/apache/http/HttpResponse;",
      "eventChain": [
        {
          "start": "com.fywork.summer.SettingActivity.onDestroy()V",
          "target": "invokeinterface \u003c Application, Lorg/apache/http/client/HttpClient, execute(Lorg/apache/http/client/methods/HttpUriRequest;)Lorg/apache/http/HttpResponse; \u003e@179",
          "type": "activity",
          "component": "com.fywork.summer.SettingActivity"
        }
      ]
    },
    "6": {
      "startMethod": "com.fywork.summer.SettingActivity.onDestroy()V",
      "targetMethod": "org.apache.http.impl.client.DefaultHttpClient.execute(Lorg/apache/http/client/methods/HttpUriRequest;)Lorg/apache/http/HttpResponse;",
      "eventChain": [
        {
          "start": "com.fywork.summer.SettingActivity.onDestroy()V",
          "target": "invokevirtual \u003c Application, Lorg/apache/http/impl/client/DefaultHttpClient, execute(Lorg/apache/http/client/methods/HttpUriRequest;)Lorg/apache/http/HttpResponse; \u003e@281",
          "type": "activity",
          "component": "com.fywork.summer.SettingActivity"
        }
      ]
    },
    "7": {
      "startMethod": "com.fywork.summer.OnTimeup.onReceive(Landroid/content/Context;Landroid/content/Intent;)V",
      "targetMethod": "org.apache.http.impl.client.DefaultHttpClient.execute(Lorg/apache/http/client/methods/HttpUriRequest;)Lorg/apache/http/HttpResponse;",
      "eventChain": [
        {
          "start": "com.fywork.summer.SettingActivity.onResume()V",
          "target": "invokeinterface \u003c Application, Landroid/content/SharedPreferences$Editor, putString(Ljava/lang/String;Ljava/lang/String;)Landroid/content/SharedPreferences$Editor; \u003e@65",
          "type": "activity",
          "component": "com.fywork.summer.SettingActivity"
        },
        {
          "start": "com.waps.OffersWebView.onCreate(Landroid/os/Bundle;)V",
          "target": "",
          "type": "activity",
          "component": "com.waps.OffersWebView",
          "constraintsFile": "constraints7_0.py",
          "variables": {},
          "stringMap": {
            "7000": "feedback",
            "7001": "",
            "7002": "down_type",
            "7003": "true",
            "7004": "false",
            "7005": "OffersWebView",
            "7006": "notify",
            "7007": "show"
          },
          "strings": {}
        },
        {
          "start": "com.waps.OffersWebView.onCreate(Landroid/os/Bundle;)V",
          "target": "PC@9",
          "type": "activity",
          "component": "com.waps.OffersWebView",
          "constraintsFile": "constraints7_1.py",
          "variables": {
            "SharedPreferences\u003cpush_flag\u003e": "IAAv0",
            "\u003cChainedInput1\u003e.getSystemService().getActiveNetworkInfo()": "IAAv3",
            "\u003cChainedInput1\u003e.getSystemService().getActiveNetworkInfo().getExtraInfo()": "IAAv4"
          },
          "stringMap": {
            "7000": "",
            "7001": "3gwap",
            "7002": "cmwap",
            "7003": "feedback",
            "7004": "down_type",
            "7005": "true",
            "7006": "false",
            "7007": "OffersWebView",
            "7008": "notify",
            "7009": "show"
          },
          "strings": {
            "IAAv4": "",
            "IAAv0": "",
            "IAAv8": ""
          }
        },
        {
          "start": "com.fywork.summer.OnTimeup.onReceive(Landroid/content/Context;Landroid/content/Intent;)V",
          "target": "invokevirtual \u003c Application, Lorg/apache/http/impl/client/DefaultHttpClient, execute(Lorg/apache/http/client/methods/HttpUriRequest;)Lorg/apache/http/HttpResponse; \u003e@281",
          "type": "sms",
          "constraintsFile": "constraints7_2.py",
          "variables": {
            "\u003cChainedInput1\u003e.getSystemService().getActiveNetworkInfo().getExtraInfo()": "IAAv4",
            "\u003cChainedInput1\u003e.getSystemService().getActiveNetworkInfo()": "IAAv3",
            "SharedPreferences\u003cpush_flag\u003e": "IAAv0"
          },
          "stringMap": {
            "7000": "",
            "7001": "3gwap",
            "7002": "cmwap"
          },
          "strings": {
            "IAAv4": "",
            "IAAv0": "",
            "IAAv8": ""
          }
        }
      ]
    },
    "8": {
      "startMethod": "com.fywork.summer.OnTimeup.onReceive(Landroid/content/Context;Landroid/content/Intent;)V",
      "targetMethod": "org.apache.http.client.HttpClient.execute(Lorg/apache/http/client/methods/HttpUriRequest;)Lorg/apache/http/HttpResponse;",
      "eventChain": [
        {
          "start": "com.fywork.summer.SettingActivity.onResume()V",
          "target": "invokeinterface \u003c Application, Landroid/content/SharedPreferences$Editor, putString(Ljava/lang/String;Ljava/lang/String;)Landroid/content/SharedPreferences$Editor; \u003e@65",
          "type": "activity",
          "component": "com.fywork.summer.SettingActivity"
        },
        {
          "start": "com.waps.OffersWebView.onCreate(Landroid/os/Bundle;)V",
          "target": "",
          "type": "activity",
          "component": "com.waps.OffersWebView",
          "constraintsFile": "constraints8_0.py",
          "variables": {},
          "stringMap": {
            "7000": "feedback",
            "7001": "",
            "7002": "down_type",
            "7003": "true",
            "7004": "false",
            "7005": "OffersWebView",
            "7006": "notify",
            "7007": "show"
          },
          "strings": {}
        },
        {
          "start": "com.fywork.summer.OnTimeup.onReceive(Landroid/content/Context;Landroid/content/Intent;)V",
          "target": "invokeinterface \u003c Application, Lorg/apache/http/client/HttpClient, execute(Lorg/apache/http/client/methods/HttpUriRequest;)Lorg/apache/http/HttpResponse; \u003e@179",
          "type": "sms",
          "constraintsFile": "constraints8_1.py",
          "variables": {
            "\u003cChainedInput1\u003e.getSystemService().getActiveNetworkInfo().getExtraInfo()": "IAAv4",
            "\u003cChainedInput1\u003e.getSystemService().getActiveNetworkInfo()": "IAAv3",
            "SharedPreferences\u003cpush_flag\u003e": "IAAv0"
          },
          "stringMap": {
            "7000": "",
            "7001": "3gwap",
            "7002": "cmwap"
          },
          "strings": {
            "IAAv4": "",
            "IAAv0": "",
            "IAAv8": ""
          }
        }
      ]
    },
    "9": {
      "startMethod": "com.fywork.summer.SettingActivity.onCreate(Landroid/os/Bundle;)V",
      "targetMethod": "org.apache.http.client.HttpClient.execute(Lorg/apache/http/client/methods/HttpUriRequest;)Lorg/apache/http/HttpResponse;",
      "eventChain": [
        {
          "start": "com.fywork.summer.SettingActivity.onCreate(Landroid/os/Bundle;)V",
          "target": "invokeinterface \u003c Application, Lorg/apache/http/client/HttpClient, execute(Lorg/apache/http/client/methods/HttpUriRequest;)Lorg/apache/http/HttpResponse; \u003e@331",
          "type": "activity",
          "component": "com.fywork.summer.SettingActivity"
        }
      ]
    },
    "10": {
      "startMethod": "com.fywork.summer.SettingActivity.onCreate(Landroid/os/Bundle;)V",
      "targetMethod": "org.apache.http.impl.client.DefaultHttpClient.execute(Lorg/apache/http/client/methods/HttpUriRequest;)Lorg/apache/http/HttpResponse;",
      "eventChain": [
        {
          "start": "com.fywork.summer.SettingActivity.onCreate(Landroid/os/Bundle;)V",
          "target": "invokevirtual \u003c Application, Lorg/apache/http/impl/client/DefaultHttpClient, execute(Lorg/apache/http/client/methods/HttpUriRequest;)Lorg/apache/http/HttpResponse; \u003e@281",
          "type": "activity",
          "component": "com.fywork.summer.SettingActivity"
        }
      ]
    },
    "11": {
      "startMethod": "com.fywork.summer.SettingActivity.onCreate(Landroid/os/Bundle;)V",
      "targetMethod": "org.apache.http.client.HttpClient.execute(Lorg/apache/http/client/methods/HttpUriRequest;)Lorg/apache/http/HttpResponse;",
      "eventChain": [
        {
          "start": "com.fywork.summer.SettingActivity.onCreate(Landroid/os/Bundle;)V",
          "target": "invokeinterface \u003c Application, Lorg/apache/http/client/HttpClient, execute(Lorg/apache/http/client/methods/HttpUriRequest;)Lorg/apache/http/HttpResponse; \u003e@179",
          "type": "activity",
          "component": "com.fywork.summer.SettingActivity"
        }
      ]
    },
    "12": {
      "startMethod": "com.fywork.summer.SettingActivity.onCreate(Landroid/os/Bundle;)V",
      "targetMethod": "java.net.URL.openConnection()Ljava/net/URLConnection;",
      "eventChain": [
        {
          "start": "com.fywork.summer.SettingActivity.onCreate(Landroid/os/Bundle;)V",
          "target": "invokevirtual \u003c Application, Ljava/net/URL, openConnection()Ljava/net/URLConnection; \u003e@70",
          "type": "activity",
          "component": "com.fywork.summer.SettingActivity"
        }
      ]
    },
    "13": {
      "startMethod": "com.fywork.summer.SettingActivity.onPause()V",
      "targetMethod": "org.apache.http.client.HttpClient.execute(Lorg/apache/http/client/methods/HttpUriRequest;)Lorg/apache/http/HttpResponse;",
      "eventChain": [
        {
          "start": "com.fywork.summer.SettingActivity.onPause()V",
          "target": "invokeinterface \u003c Application, Lorg/apache/http/client/HttpClient, execute(Lorg/apache/http/client/methods/HttpUriRequest;)Lorg/apache/http/HttpResponse; \u003e@331",
          "type": "activity",
          "component": "com.fywork.summer.SettingActivity"
        }
      ]
    },
    "14": {
      "startMethod": "com.fywork.summer.SettingActivity.onPause()V",
      "targetMethod": "java.net.URL.openConnection()Ljava/net/URLConnection;",
      "eventChain": [
        {
          "start": "com.fywork.summer.SettingActivity.onPause()V",
          "target": "invokevirtual \u003c Application, Ljava/net/URL, openConnection()Ljava/net/URLConnection; \u003e@70",
          "type": "activity",
          "component": "com.fywork.summer.SettingActivity"
        }
      ]
    },
    "15": {
      "startMethod": "com.waps.y.onClick(Landroid/content/DialogInterface;I)V",
      "targetMethod": "java.net.URL.openConnection()Ljava/net/URLConnection;",
      "eventChain": [
        {
          "start": "com.waps.w.onDownloadStart(Ljava/lang/String;Ljava/lang/String;Ljava/lang/String;Ljava/lang/String;J)V",
          "target": "invokevirtual \u003c Application, Landroid/app/AlertDialog$Builder, setNeutralButton(Ljava/lang/CharSequence;Landroid/content/DialogInterface$OnClickListener;)Landroid/app/AlertDialog$Builder; \u003e@209",
          "type": "",
          "constraintsFile": "constraints15_0.py",
          "variables": {},
          "stringMap": {},
          "strings": {}
        },
        {
          "start": "com.waps.y.onClick(Landroid/content/DialogInterface;I)V",
          "target": "invokevirtual \u003c Application, Ljava/net/URL, openConnection()Ljava/net/URLConnection; \u003e@29",
          "type": "ui",
          "activities": [
            ""
          ],
          "listener": "com.waps.y",
          "listenerMethod": "onClick",
          "uiType": "onClick",
          "inDialog": "true",
          "constraintsFile": "constraints15_1.py",
          "variables": {},
          "stringMap": {},
          "strings": {}
        }
      ]
    },
    "16": {
      "startMethod": "com.waps.y.onClick(Landroid/content/DialogInterface;I)V",
      "targetMethod": "org.apache.http.impl.client.DefaultHttpClient.execute(Lorg/apache/http/client/methods/HttpUriRequest;)Lorg/apache/http/HttpResponse;",
      "eventChain": [
        {
          "start": "com.waps.w.onDownloadStart(Ljava/lang/String;Ljava/lang/String;Ljava/lang/String;Ljava/lang/String;J)V",
          "target": "invokevirtual \u003c Application, Landroid/app/AlertDialog$Builder, setNeutralButton(Ljava/lang/CharSequence;Landroid/content/DialogInterface$OnClickListener;)Landroid/app/AlertDialog$Builder; \u003e@209",
          "type": "",
          "constraintsFile": "constraints16_0.py",
          "variables": {},
          "stringMap": {},
          "strings": {}
        },
        {
          "start": "com.waps.y.onClick(Landroid/content/DialogInterface;I)V",
          "target": "invokevirtual \u003c Application, Lorg/apache/http/impl/client/DefaultHttpClient, execute(Lorg/apache/http/client/methods/HttpUriRequest;)Lorg/apache/http/HttpResponse; \u003e@159",
          "type": "ui",
          "activities": [
            ""
          ],
          "listener": "com.waps.y",
          "listenerMethod": "onClick",
          "uiType": "onClick",
          "inDialog": "true",
          "constraintsFile": "constraints16_1.py",
          "variables": {},
          "stringMap": {},
          "strings": {}
        }
      ]
    },
    "17": {
      "startMethod": "com.mobclick.android.i.onClick(Landroid/content/DialogInterface;I)V",
      "targetMethod": "java.net.URL.openConnection()Ljava/net/URLConnection;",
      "eventChain": [
        {
          "start": "com.fywork.summer.SettingActivity.onResume()V",
          "target": "invokevirtual \u003c Application, Landroid/app/AlertDialog$Builder, setPositiveButton(Ljava/lang/CharSequence;Landroid/content/DialogInterface$OnClickListener;)Landroid/app/AlertDialog$Builder; \u003e@300",
          "type": "activity",
          "component": "com.fywork.summer.SettingActivity"
        },
        {
          "start": "com.mobclick.android.i.onClick(Landroid/content/DialogInterface;I)V",
          "target": "invokevirtual \u003c Application, Ljava/net/URL, openConnection()Ljava/net/URLConnection; \u003e@19",
          "type": "ui",
          "activities": [
            ""
          ],
          "listener": "com.mobclick.android.i",
          "listenerMethod": "onClick",
          "uiType": "onClick",
          "inDialog": "true"
        }
      ]
    },
    "18": {
      "startMethod": "com.fywork.summer.SettingActivity$4.onClick(Landroid/content/DialogInterface;I)V",
      "targetMethod": "org.apache.http.client.HttpClient.execute(Lorg/apache/http/client/methods/HttpUriRequest;)Lorg/apache/http/HttpResponse;",
      "eventChain": [
        {
          "start": "com.fywork.summer.SettingActivity$2.onPreferenceClick(Landroid/preference/Preference;)Z",
          "target": "invokevirtual \u003c Application, Landroid/app/AlertDialog$Builder, setNeutralButton(Ljava/lang/CharSequence;Landroid/content/DialogInterface$OnClickListener;)Landroid/app/AlertDialog$Builder; \u003e@110",
          "type": "",
          "constraintsFile": "constraints18_0.py",
          "variables": {},
          "stringMap": {},
          "strings": {}
        },
        {
          "start": "com.fywork.summer.SettingActivity.onResume()V",
          "target": "invokeinterface \u003c Application, Landroid/content/SharedPreferences$Editor, putString(Ljava/lang/String;Ljava/lang/String;)Landroid/content/SharedPreferences$Editor; \u003e@65",
          "type": "activity",
          "component": "com.fywork.summer.SettingActivity"
        },
        {
          "start": "com.waps.OffersWebView.onCreate(Landroid/os/Bundle;)V",
          "target": "",
          "type": "activity",
          "component": "com.waps.OffersWebView",
          "constraintsFile": "constraints18_1.py",
          "variables": {},
          "stringMap": {
            "7000": "feedback",
            "7001": "",
            "7002": "down_type",
            "7003": "true",
            "7004": "false",
            "7005": "OffersWebView",
            "7006": "notify",
            "7007": "show"
          },
          "strings": {}
        },
        {
          "start": "com.fywork.summer.SettingActivity$4.onClick(Landroid/content/DialogInterface;I)V",
          "target": "invokeinterface \u003c Application, Lorg/apache/http/client/HttpClient, execute(Lorg/apache/http/client/methods/HttpUriRequest;)Lorg/apache/http/HttpResponse; \u003e@179",
          "type": "ui",
          "activities": [
            ""
          ],
          "listener": "com.fywork.summer.SettingActivity$4",
          "listenerMethod": "onClick",
          "uiType": "onClick",
          "inDialog": "true",
          "constraintsFile": "constraints18_2.py",
          "variables": {
            "SharedPreferences\u003cpush_flag\u003e": "IAAv0"
          },
          "stringMap": {
            "7000": "",
            "7001": "3gwap",
            "7002": "cmwap"
          },
          "strings": {
            "IAAv4": "",
            "IAAv0": "",
            "IAAv8": ""
          }
        }
      ]
    },
    "19": {
      "startMethod": "com.fywork.summer.SettingActivity$4.onClick(Landroid/content/DialogInterface;I)V",
      "targetMethod": "org.apache.http.impl.client.DefaultHttpClient.execute(Lorg/apache/http/client/methods/HttpUriRequest;)Lorg/apache/http/HttpResponse;",
      "eventChain": [
        {
          "start": "com.fywork.summer.SettingActivity$2.onPreferenceClick(Landroid/preference/Preference;)Z",
          "target": "invokevirtual \u003c Application, Landroid/app/AlertDialog$Builder, setNeutralButton(Ljava/lang/CharSequence;Landroid/content/DialogInterface$OnClickListener;)Landroid/app/AlertDialog$Builder; \u003e@110",
          "type": "",
          "constraintsFile": "constraints19_0.py",
          "variables": {},
          "stringMap": {},
          "strings": {}
        },
        {
          "start": "com.fywork.summer.SettingActivity.onResume()V",
          "target": "invokeinterface \u003c Application, Landroid/content/SharedPreferences$Editor, putString(Ljava/lang/String;Ljava/lang/String;)Landroid/content/SharedPreferences$Editor; \u003e@65",
          "type": "activity",
          "component": "com.fywork.summer.SettingActivity"
        },
        {
          "start": "com.waps.OffersWebView.onCreate(Landroid/os/Bundle;)V",
          "target": "",
          "type": "activity",
          "component": "com.waps.OffersWebView",
          "constraintsFile": "constraints19_1.py",
          "variables": {},
          "stringMap": {
            "7000": "feedback",
            "7001": "",
            "7002": "down_type",
            "7003": "true",
            "7004": "false",
            "7005": "OffersWebView",
            "7006": "notify",
            "7007": "show"
          },
          "strings": {}
        },
        {
          "start": "com.waps.OffersWebView.onCreate(Landroid/os/Bundle;)V",
          "target": "PC@9",
          "type": "activity",
          "component": "com.waps.OffersWebView",
          "constraintsFile": "constraints19_2.py",
          "variables": {
            "SharedPreferences\u003cpush_flag\u003e": "IAAv0"
          },
          "stringMap": {
            "7000": "",
            "7001": "3gwap",
            "7002": "cmwap",
            "7003": "feedback",
            "7004": "down_type",
            "7005": "true",
            "7006": "false",
            "7007": "OffersWebView",
            "7008": "notify",
            "7009": "show"
          },
          "strings": {
            "IAAv4": "",
            "IAAv0": "",
            "IAAv8": ""
          }
        },
        {
          "start": "com.fywork.summer.SettingActivity$4.onClick(Landroid/content/DialogInterface;I)V",
          "target": "invokevirtual \u003c Application, Lorg/apache/http/impl/client/DefaultHttpClient, execute(Lorg/apache/http/client/methods/HttpUriRequest;)Lorg/apache/http/HttpResponse; \u003e@281",
          "type": "ui",
          "activities": [
            ""
          ],
          "listener": "com.fywork.summer.SettingActivity$4",
          "listenerMethod": "onClick",
          "uiType": "onClick",
          "inDialog": "true",
          "constraintsFile": "constraints19_3.py",
          "variables": {
            "SharedPreferences\u003cpush_flag\u003e": "IAAv0"
          },
          "stringMap": {
            "7000": "",
            "7001": "3gwap",
            "7002": "cmwap"
          },
          "strings": {
            "IAAv4": "",
            "IAAv0": "",
            "IAAv8": ""
          }
        }
      ]
    },
    "20": {
      "startMethod": "com.fywork.summer.SettingActivity$3.onClick(Landroid/content/DialogInterface;I)V",
      "targetMethod": "org.apache.http.client.HttpClient.execute(Lorg/apache/http/client/methods/HttpUriRequest;)Lorg/apache/http/HttpResponse;",
      "eventChain": [
        {
          "start": "com.fywork.summer.SettingActivity$2.onPreferenceClick(Landroid/preference/Preference;)Z",
          "target": "invokevirtual \u003c Application, Landroid/app/AlertDialog$Builder, setPositiveButton(Ljava/lang/CharSequence;Landroid/content/DialogInterface$OnClickListener;)Landroid/app/AlertDialog$Builder; \u003e@87",
          "type": "",
          "constraintsFile": "constraints20_0.py",
          "variables": {},
          "stringMap": {},
          "strings": {}
        },
        {
          "start": "com.fywork.summer.SettingActivity.onResume()V",
          "target": "invokeinterface \u003c Application, Landroid/content/SharedPreferences$Editor, putString(Ljava/lang/String;Ljava/lang/String;)Landroid/content/SharedPreferences$Editor; \u003e@65",
          "type": "activity",
          "component": "com.fywork.summer.SettingActivity"
        },
        {
          "start": "com.fywork.summer.SettingActivity$3.onClick(Landroid/content/DialogInterface;I)V",
          "target": "invokeinterface \u003c Application, Lorg/apache/http/client/HttpClient, execute(Lorg/apache/http/client/methods/HttpUriRequest;)Lorg/apache/http/HttpResponse; \u003e@179",
          "type": "ui",
          "activities": [
            ""
          ],
          "listener": "com.fywork.summer.SettingActivity$3",
          "listenerMethod": "onClick",
          "uiType": "onClick",
          "inDialog": "true",
          "constraintsFile": "constraints20_1.py",
          "variables": {
            "SharedPreferences\u003cpush_flag\u003e": "IAAv0"
          },
          "stringMap": {
            "7000": "",
            "7001": "3gwap",
            "7002": "cmwap"
          },
          "strings": {
            "IAAv4": "",
            "IAAv0": "",
            "IAAv8": ""
          }
        }
      ]
    },
    "21": {
      "startMethod": "com.fywork.summer.SettingActivity$3.onClick(Landroid/content/DialogInterface;I)V",
      "targetMethod": "org.apache.http.impl.client.DefaultHttpClient.execute(Lorg/apache/http/client/methods/HttpUriRequest;)Lorg/apache/http/HttpResponse;",
      "eventChain": [
        {
          "start": "com.fywork.summer.SettingActivity$2.onPreferenceClick(Landroid/preference/Preference;)Z",
          "target": "invokevirtual \u003c Application, Landroid/app/AlertDialog$Builder, setPositiveButton(Ljava/lang/CharSequence;Landroid/content/DialogInterface$OnClickListener;)Landroid/app/AlertDialog$Builder; \u003e@87",
          "type": "",
          "constraintsFile": "constraints21_0.py",
          "variables": {},
          "stringMap": {},
          "strings": {}
        },
        {
          "start": "com.fywork.summer.SettingActivity.onResume()V",
          "target": "invokeinterface \u003c Application, Landroid/content/SharedPreferences$Editor, putString(Ljava/lang/String;Ljava/lang/String;)Landroid/content/SharedPreferences$Editor; \u003e@65",
          "type": "activity",
          "component": "com.fywork.summer.SettingActivity"
        },
        {
          "start": "com.waps.OffersWebView.onCreate(Landroid/os/Bundle;)V",
          "target": "PC@9",
          "type": "activity",
          "component": "com.waps.OffersWebView",
          "constraintsFile": "constraints21_1.py",
          "variables": {
            "SharedPreferences\u003cpush_flag\u003e": "IAAv0"
          },
          "stringMap": {
            "7000": "",
            "7001": "3gwap",
            "7002": "cmwap",
            "7003": "feedback",
            "7004": "down_type",
            "7005": "true",
            "7006": "false",
            "7007": "OffersWebView",
            "7008": "notify",
            "7009": "show"
          },
          "strings": {
            "IAAv4": "",
            "IAAv0": "",
            "IAAv8": ""
          }
        },
        {
          "start": "com.fywork.summer.SettingActivity$3.onClick(Landroid/content/DialogInterface;I)V",
          "target": "invokevirtual \u003c Application, Lorg/apache/http/impl/client/DefaultHttpClient, execute(Lorg/apache/http/client/methods/HttpUriRequest;)Lorg/apache/http/HttpResponse; \u003e@281",
          "type": "ui",
          "activities": [
            ""
          ],
          "listener": "com.fywork.summer.SettingActivity$3",
          "listenerMethod": "onClick",
          "uiType": "onClick",
          "inDialog": "true",
          "constraintsFile": "constraints21_2.py",
          "variables": {
            "SharedPreferences\u003cpush_flag\u003e": "IAAv0"
          },
          "stringMap": {
            "7000": "",
            "7001": "3gwap",
            "7002": "cmwap"
          },
          "strings": {
            "IAAv4": "",
            "IAAv0": "",
            "IAAv8": ""
          }
        }
      ]
    },
    "22": {
      "startMethod": "com.fywork.summer.SettingActivity$6.onClick(Landroid/content/DialogInterface;I)V",
      "targetMethod": "org.apache.http.client.HttpClient.execute(Lorg/apache/http/client/methods/HttpUriRequest;)Lorg/apache/http/HttpResponse;",
      "eventChain": [
        {
          "start": "com.fywork.summer.SettingActivity$3.onClick(Landroid/content/DialogInterface;I)V",
          "target": "invokevirtual \u003c Application, Landroid/app/AlertDialog$Builder, setPositiveButton(Ljava/lang/CharSequence;Landroid/content/DialogInterface$OnClickListener;)Landroid/app/AlertDialog$Builder; \u003e@87",
          "type": "ui",
          "activities": [
            ""
          ],
          "listener": "com.fywork.summer.SettingActivity$3",
          "listenerMethod": "onClick",
          "uiType": "onClick",
          "inDialog": "true"
        },
        {
          "start": "com.fywork.summer.SettingActivity.onResume()V",
          "target": "invokeinterface \u003c Application, Landroid/content/SharedPreferences$Editor, putString(Ljava/lang/String;Ljava/lang/String;)Landroid/content/SharedPreferences$Editor; \u003e@65",
          "type": "activity",
          "component": "com.fywork.summer.SettingActivity"
        },
        {
          "start": "com.waps.OffersWebView.onCreate(Landroid/os/Bundle;)V",
          "target": "",
          "type": "activity",
          "component": "com.waps.OffersWebView",
          "constraintsFile": "constraints22_0.py",
          "variables": {},
          "stringMap": {
            "7000": "feedback",
            "7001": "",
            "7002": "down_type",
            "7003": "true",
            "7004": "false",
            "7005": "OffersWebView",
            "7006": "notify",
            "7007": "show"
          },
          "strings": {}
        },
        {
          "start": "com.fywork.summer.SettingActivity$6.onClick(Landroid/content/DialogInterface;I)V",
          "target": "invokeinterface \u003c Application, Lorg/apache/http/client/HttpClient, execute(Lorg/apache/http/client/methods/HttpUriRequest;)Lorg/apache/http/HttpResponse; \u003e@179",
          "type": "ui",
          "activities": [
            ""
          ],
          "listener": "com.fywork.summer.SettingActivity$6",
          "listenerMethod": "onClick",
          "uiType": "onClick",
          "inDialog": "true",
          "constraintsFile": "constraints22_1.py",
          "variables": {
            "SharedPreferences\u003cpush_flag\u003e": "IAAv0"
          },
          "stringMap": {
            "7000": "",
            "7001": "3gwap",
            "7002": "cmwap"
          },
          "strings": {
            "IAAv4": "",
            "IAAv0": "",
            "IAAv8": ""
          }
        }
      ]
    },
    "23": {
      "startMethod": "com.fywork.summer.SettingActivity$6.onClick(Landroid/content/DialogInterface;I)V",
      "targetMethod": "org.apache.http.impl.client.DefaultHttpClient.execute(Lorg/apache/http/client/methods/HttpUriRequest;)Lorg/apache/http/HttpResponse;",
      "eventChain": [
        {
          "start": "com.fywork.summer.SettingActivity$3.onClick(Landroid/content/DialogInterface;I)V",
          "target": "invokevirtual \u003c Application, Landroid/app/AlertDialog$Builder, setPositiveButton(Ljava/lang/CharSequence;Landroid/content/DialogInterface$OnClickListener;)Landroid/app/AlertDialog$Builder; \u003e@87",
          "type": "ui",
          "activities": [
            ""
          ],
          "listener": "com.fywork.summer.SettingActivity$3",
          "listenerMethod": "onClick",
          "uiType": "onClick",
          "inDialog": "true"
        },
        {
          "start": "com.fywork.summer.SettingActivity.onResume()V",
          "target": "invokeinterface \u003c Application, Landroid/content/SharedPreferences$Editor, putString(Ljava/lang/String;Ljava/lang/String;)Landroid/content/SharedPreferences$Editor; \u003e@65",
          "type": "activity",
          "component": "com.fywork.summer.SettingActivity"
        },
        {
          "start": "com.waps.OffersWebView.onCreate(Landroid/os/Bundle;)V",
          "target": "",
          "type": "activity",
          "component": "com.waps.OffersWebView",
          "constraintsFile": "constraints23_0.py",
          "variables": {},
          "stringMap": {
            "7000": "feedback",
            "7001": "",
            "7002": "down_type",
            "7003": "true",
            "7004": "false",
            "7005": "OffersWebView",
            "7006": "notify",
            "7007": "show"
          },
          "strings": {}
        },
        {
          "start": "com.waps.OffersWebView.onCreate(Landroid/os/Bundle;)V",
          "target": "PC@9",
          "type": "activity",
          "component": "com.waps.OffersWebView",
          "constraintsFile": "constraints23_1.py",
          "variables": {
            "SharedPreferences\u003cpush_flag\u003e": "IAAv0"
          },
          "stringMap": {
            "7000": "",
            "7001": "3gwap",
            "7002": "cmwap",
            "7003": "feedback",
            "7004": "down_type",
            "7005": "true",
            "7006": "false",
            "7007": "OffersWebView",
            "7008": "notify",
            "7009": "show"
          },
          "strings": {
            "IAAv4": "",
            "IAAv0": "",
            "IAAv8": ""
          }
        },
        {
          "start": "com.fywork.summer.SettingActivity$6.onClick(Landroid/content/DialogInterface;I)V",
          "target": "invokevirtual \u003c Application, Lorg/apache/http/impl/client/DefaultHttpClient, execute(Lorg/apache/http/client/methods/HttpUriRequest;)Lorg/apache/http/HttpResponse; \u003e@281",
          "type": "ui",
          "activities": [
            ""
          ],
          "listener": "com.fywork.summer.SettingActivity$6",
          "listenerMethod": "onClick",
          "uiType": "onClick",
          "inDialog": "true",
          "constraintsFile": "constraints23_2.py",
          "variables": {
            "SharedPreferences\u003cpush_flag\u003e": "IAAv0"
          },
          "stringMap": {
            "7000": "",
            "7001": "3gwap",
            "7002": "cmwap"
          },
          "strings": {
            "IAAv4": "",
            "IAAv0": "",
            "IAAv8": ""
          }
        }
      ]
    },
    "24": {
      "startMethod": "com.waps.s.onClick(Landroid/view/View;)V",
      "targetMethod": "org.apache.http.client.HttpClient.execute(Lorg/apache/http/client/methods/HttpUriRequest;)Lorg/apache/http/HttpResponse;",
      "eventChain": [
        {
          "start": "com.waps.s.onClick(Landroid/view/View;)V",
          "target": "invokeinterface \u003c Application, Lorg/apache/http/client/HttpClient, execute(Lorg/apache/http/client/methods/HttpUriRequest;)Lorg/apache/http/HttpResponse; \u003e@179",
          "type": "ui",
          "activities": [
            ""
          ],
          "listener": "com.waps.s",
          "listenerMethod": "onClick",
          "uiType": "onClick",
          "constraintsFile": "constraints24_0.py",
          "variables": {},
          "stringMap": {
            "7000": ""
          },
          "strings": {
            "IAAv0": ""
          }
        }
      ]
    },
    "25": {
      "startMethod": "com.waps.w.onDownloadStart(Ljava/lang/String;Ljava/lang/String;Ljava/lang/String;Ljava/lang/String;J)V",
      "targetMethod": "org.apache.http.impl.client.DefaultHttpClient.execute(Lorg/apache/http/client/methods/HttpUriRequest;)Lorg/apache/http/HttpResponse;",
      "eventChain": [
        {
          "start": "com.waps.OffersWebView.onCreate(Landroid/os/Bundle;)V",
          "target": "invokevirtual \u003c Application, Landroid/webkit/WebView, setDownloadListener(Landroid/webkit/DownloadListener;)V \u003e@921",
          "type": "activity",
          "component": "com.waps.OffersWebView",
          "constraintsFile": "constraints25_0.py",
          "variables": {},
          "stringMap": {
            "7000": "feedback",
            "7001": "",
            "7002": "down_type",
            "7003": "true",
            "7004": "false",
            "7005": "OffersWebView",
            "7006": "notify",
            "7007": "show"
          },
          "strings": {}
        },
        {
          "start": "com.waps.y.onClick(Landroid/content/DialogInterface;I)V",
          "target": "",
          "type": "ui",
          "activities": [
            ""
          ],
          "listener": "com.waps.y",
          "listenerMethod": "onClick",
          "uiType": "onClick",
          "inDialog": "true",
          "constraintsFile": "constraints25_1.py",
          "variables": {},
          "stringMap": {},
          "strings": {}
        },
        {
          "start": "com.waps.w.onDownloadStart(Ljava/lang/String;Ljava/lang/String;Ljava/lang/String;Ljava/lang/String;J)V",
          "target": "invokevirtual \u003c Application, Lorg/apache/http/impl/client/DefaultHttpClient, execute(Lorg/apache/http/client/methods/HttpUriRequest;)Lorg/apache/http/HttpResponse; \u003e@159",
          "type": "",
          "constraintsFile": "constraints25_2.py",
          "variables": {},
          "stringMap": {},
          "strings": {}
        }
      ]
    },
    "26": {
      "startMethod": "com.waps.w.onDownloadStart(Ljava/lang/String;Ljava/lang/String;Ljava/lang/String;Ljava/lang/String;J)V",
      "targetMethod": "java.net.URL.openConnection()Ljava/net/URLConnection;",
      "eventChain": [
        {
          "start": "com.waps.OffersWebView.onCreate(Landroid/os/Bundle;)V",
          "target": "invokevirtual \u003c Application, Landroid/webkit/WebView, setDownloadListener(Landroid/webkit/DownloadListener;)V \u003e@921",
          "type": "activity",
          "component": "com.waps.OffersWebView",
          "constraintsFile": "constraints26_0.py",
          "variables": {},
          "stringMap": {
            "7000": "feedback",
            "7001": "",
            "7002": "down_type",
            "7003": "true",
            "7004": "false",
            "7005": "OffersWebView",
            "7006": "notify",
            "7007": "show"
          },
          "strings": {}
        },
        {
          "start": "com.waps.w.onDownloadStart(Ljava/lang/String;Ljava/lang/String;Ljava/lang/String;Ljava/lang/String;J)V",
          "target": "invokevirtual \u003c Application, Ljava/net/URL, openConnection()Ljava/net/URLConnection; \u003e@29",
          "type": "",
          "constraintsFile": "constraints26_1.py",
          "variables": {},
          "stringMap": {},
          "strings": {}
        }
      ]
    },
    "27": {
      "startMethod": "com.waps.q.onReceive(Landroid/content/Context;Landroid/content/Intent;)V",
      "targetMethod": "org.apache.http.client.HttpClient.execute(Lorg/apache/http/client/methods/HttpUriRequest;)Lorg/apache/http/HttpResponse;",
      "eventChain": [
        {
          "start": "com.waps.z.onClick(Landroid/content/DialogInterface;I)V",
          "target": "invokespecial \u003c Application, Landroid/content/BroadcastReceiver, \u003cinit\u003e()V \u003e@2",
          "type": "ui",
          "activities": [
            ""
          ],
          "listener": "com.waps.z",
          "listenerMethod": "onClick",
          "uiType": "onClick",
          "inDialog": "true"
        },
        {
          "start": "com.waps.OffersWebView.onCreate(Landroid/os/Bundle;)V",
          "target": "",
          "type": "activity",
          "component": "com.waps.OffersWebView",
          "constraintsFile": "constraints27_0.py",
          "variables": {},
          "stringMap": {
            "7000": "feedback",
            "7001": "",
            "7002": "down_type",
            "7003": "true",
            "7004": "false",
            "7005": "OffersWebView",
            "7006": "notify",
            "7007": "show"
          },
          "strings": {}
        },
        {
          "start": "com.waps.q.onReceive(Landroid/content/Context;Landroid/content/Intent;)V",
          "target": "invokeinterface \u003c Application, Lorg/apache/http/client/HttpClient, execute(Lorg/apache/http/client/methods/HttpUriRequest;)Lorg/apache/http/HttpResponse; \u003e@179",
          "type": "sms",
          "constraintsFile": "constraints27_1.py",
          "variables": {
            "\u003cChainedInput2\u003e.getDataString()": "IAAv2",
            "\u003cChainedInput2\u003e.getAction()": "IAAv0"
          },
          "stringMap": {
            "7000": "android.intent.action.PACKAGE_ADDED"
          },
          "strings": {
            "IAAv2": "",
            "IAAv0": ""
          }
        }
      ]
    }
  }
}