{
  "packageName": "com.omg.wcento.n3.lib",
  "mainActivity": "com.aiya.woqu.app.MainActivity",
  "callPaths": {
    "0": {
      "startMethod": "com.abc.de.net.OpenReceiver.onReceive(Landroid/content/Context;Landroid/content/Intent;)V",
      "targetMethod": "java.lang.ClassLoader.loadClass(Ljava/lang/String;)Ljava/lang/Class;",
      "eventChain": [
        {
          "start": "com.abc.de.net.OpenReceiver.onReceive(Landroid/content/Context;Landroid/content/Intent;)V",
          "target": "invokevirtual \u003c Application, Ljava/lang/ClassLoader, loadClass(Ljava/lang/String;)Ljava/lang/Class; \u003e@37",
          "type": "sms"
        }
      ]
    },
    "1": {
      "startMethod": "com.secapk.wrapper.ApplicationWrapper.onCreate()V",
      "targetMethod": "java.lang.ClassLoader.loadClass(Ljava/lang/String;)Ljava/lang/Class;",
      "eventChain": [
        {
          "start": "com.secapk.wrapper.ApplicationWrapper.onCreate()V",
          "target": "invokevirtual \u003c Application, Ljava/lang/ClassLoader, loadClass(Ljava/lang/String;)Ljava/lang/Class; \u003e@50",
          "type": ""
        }
      ]
    }
  }
}