{
  "packageName": "com.tutusw.onekeyvpn",
  "mainActivity": "com.tutusw.onekeyvpn.OpenVpnSettings",
  "callPaths": {
    "0": {
      "startMethod": "com.tutusw.onekeyvpn.service.OpenVpnService.onCreate()V",
      "targetMethod": "android.app.NotificationManager.notify(ILandroid/app/Notification;)V",
      "eventChain": [
        {
          "start": "com.tutusw.onekeyvpn.service.OpenVpnService.onCreate()V",
          "target": "invokevirtual \u003c Application, Landroid/app/NotificationManager, notify(ILandroid/app/Notification;)V \u003e@173",
          "type": "service",
          "component": "com.tutusw.onekeyvpn.service.OpenVpnService"
        }
      ]
    },
    "1": {
      "startMethod": "com.tutusw.onekeyvpn.service.OpenVpnService.onCreate()V",
      "targetMethod": "android.app.NotificationManager.notify(ILandroid/app/Notification;)V",
      "eventChain": [
        {
          "start": "com.tutusw.onekeyvpn.service.OpenVpnService.onCreate()V",
          "target": "invokevirtual \u003c Application, Landroid/app/NotificationManager, notify(ILandroid/app/Notification;)V \u003e@209",
          "type": "service",
          "component": "com.tutusw.onekeyvpn.service.OpenVpnService"
        }
      ]
    },
    "2": {
      "startMethod": "com.tutusw.onekeyvpn.service.OpenVpnService.onCreate()V",
      "targetMethod": "android.app.NotificationManager.notify(ILandroid/app/Notification;)V",
      "eventChain": [
        {
          "start": "com.tutusw.onekeyvpn.service.OpenVpnService.onCreate()V",
          "target": "invokevirtual \u003c Application, Landroid/app/NotificationManager, notify(ILandroid/app/Notification;)V \u003e@216",
          "type": "service",
          "component": "com.tutusw.onekeyvpn.service.OpenVpnService"
        }
      ]
    },
    "3": {
      "startMethod": "com.tutusw.onekeyvpn.service.OpenVpnService.onCreate()V",
      "targetMethod": "android.app.NotificationManager.notify(ILandroid/app/Notification;)V",
      "eventChain": [
        {
          "start": "com.tutusw.onekeyvpn.service.OpenVpnService.onCreate()V",
          "target": "invokevirtual \u003c Application, Landroid/app/NotificationManager, notify(ILandroid/app/Notification;)V \u003e@173",
          "type": "service",
          "component": "com.tutusw.onekeyvpn.service.OpenVpnService"
        }
      ]
    },
    "4": {
      "startMethod": "com.tutusw.onekeyvpn.OpenVpnSettings.onCreate(Landroid/os/Bundle;)V",
      "targetMethod": "android.telephony.TelephonyManager.getDeviceId()Ljava/lang/String;",
      "eventChain": [
        {
          "start": "com.tutusw.onekeyvpn.OpenVpnSettings.\u003cinit\u003e()V",
          "target": "PC@44",
          "type": "",
          "constraintsFile": "constraints4_0.py",
          "variables": {},
          "stringMap": {},
          "strings": {}
        },
        {
          "start": "com.tutusw.onekeyvpn.OpenVpnSettings.onCreate(Landroid/os/Bundle;)V",
          "target": "invokevirtual \u003c Application, Landroid/telephony/TelephonyManager, getDeviceId()Ljava/lang/String; \u003e@22",
          "type": "activity",
          "component": "com.tutusw.onekeyvpn.OpenVpnSettings",
          "constraintsFile": "constraints4_1.py",
          "variables": {},
          "stringMap": {},
          "strings": {}
        }
      ]
    },
    "5": {
      "startMethod": "com.tutusw.onekeyvpn.OpenVpnSettings.onPrepareDialog(ILandroid/app/Dialog;)V",
      "targetMethod": "android.app.NotificationManager.notify(ILandroid/app/Notification;)V",
      "eventChain": [
        {
          "start": "com.tutusw.onekeyvpn.OpenVpnSettings.onPrepareDialog(ILandroid/app/Dialog;)V",
          "target": "invokevirtual \u003c Application, Landroid/app/NotificationManager, notify(ILandroid/app/Notification;)V \u003e@173",
          "type": "activity",
          "component": "com.tutusw.onekeyvpn.OpenVpnSettings",
          "constraintsFile": "constraints5_0.py",
          "variables": {
            "\u003cInput1\u003e": "IAAv0"
          },
          "stringMap": {},
          "strings": {}
        }
      ]
    },
    "6": {
      "startMethod": "com.tutusw.onekeyvpn.OpenVpnSettings.onPrepareDialog(ILandroid/app/Dialog;)V",
      "targetMethod": "android.app.NotificationManager.notify(ILandroid/app/Notification;)V",
      "eventChain": [
        {
          "start": "com.tutusw.onekeyvpn.OpenVpnSettings.onPrepareDialog(ILandroid/app/Dialog;)V",
          "target": "invokevirtual \u003c Application, Landroid/app/NotificationManager, notify(ILandroid/app/Notification;)V \u003e@209",
          "type": "activity",
          "component": "com.tutusw.onekeyvpn.OpenVpnSettings",
          "constraintsFile": "constraints6_0.py",
          "variables": {
            "\u003cInput1\u003e": "IAAv0"
          },
          "stringMap": {},
          "strings": {}
        }
      ]
    },
    "7": {
      "startMethod": "com.tutusw.onekeyvpn.OpenVpnSettings.onPrepareDialog(ILandroid/app/Dialog;)V",
      "targetMethod": "android.app.NotificationManager.notify(ILandroid/app/Notification;)V",
      "eventChain": [
        {
          "start": "com.tutusw.onekeyvpn.OpenVpnSettings.onPrepareDialog(ILandroid/app/Dialog;)V",
          "target": "invokevirtual \u003c Application, Landroid/app/NotificationManager, notify(ILandroid/app/Notification;)V \u003e@216",
          "type": "activity",
          "component": "com.tutusw.onekeyvpn.OpenVpnSettings",
          "constraintsFile": "constraints7_0.py",
          "variables": {
            "\u003cInput1\u003e": "IAAv0"
          },
          "stringMap": {},
          "strings": {}
        }
      ]
    },
    "8": {
      "startMethod": "com.tutusw.onekeyvpn.OpenVpnSettings.onPrepareDialog(ILandroid/app/Dialog;)V",
      "targetMethod": "android.app.NotificationManager.notify(ILandroid/app/Notification;)V",
      "eventChain": [
        {
          "start": "com.tutusw.onekeyvpn.OpenVpnSettings.onPrepareDialog(ILandroid/app/Dialog;)V",
          "target": "invokevirtual \u003c Application, Landroid/app/NotificationManager, notify(ILandroid/app/Notification;)V \u003e@173",
          "type": "activity",
          "component": "com.tutusw.onekeyvpn.OpenVpnSettings",
          "constraintsFile": "constraints8_0.py",
          "variables": {
            "\u003cInput1\u003e": "IAAv0"
          },
          "stringMap": {},
          "strings": {}
        }
      ]
    },
    "9": {
      "startMethod": "com.tutusw.onekeyvpn.OpenVpnSettings$3.onClick(Landroid/content/DialogInterface;I)V",
      "targetMethod": "android.app.NotificationManager.notify(ILandroid/app/Notification;)V",
      "eventChain": [
        {
          "start": "com.tutusw.onekeyvpn.OpenVpnSettings$3.onClick(Landroid/content/DialogInterface;I)V",
          "target": "invokevirtual \u003c Application, Landroid/app/NotificationManager, notify(ILandroid/app/Notification;)V \u003e@209",
          "type": "ui",
          "activities": [
            "com.tutusw.onekeyvpn.OpenVpnSettings"
          ],
          "listener": "com.tutusw.onekeyvpn.OpenVpnSettings$3",
          "listenerMethod": "onClick",
          "uiType": "onClick",
          "inDialog": "true",
          "constraintsFile": "constraints9_0.py",
          "variables": {},
          "stringMap": {},
          "strings": {}
        }
      ]
    },
    "10": {
      "startMethod": "com.tutusw.onekeyvpn.OpenVpnSettings$3.onClick(Landroid/content/DialogInterface;I)V",
      "targetMethod": "android.app.NotificationManager.notify(ILandroid/app/Notification;)V",
      "eventChain": [
        {
          "start": "com.tutusw.onekeyvpn.OpenVpnSettings$3.onClick(Landroid/content/DialogInterface;I)V",
          "target": "invokevirtual \u003c Application, Landroid/app/NotificationManager, notify(ILandroid/app/Notification;)V \u003e@173",
          "type": "ui",
          "activities": [
            "com.tutusw.onekeyvpn.OpenVpnSettings"
          ],
          "listener": "com.tutusw.onekeyvpn.OpenVpnSettings$3",
          "listenerMethod": "onClick",
          "uiType": "onClick",
          "inDialog": "true",
          "constraintsFile": "constraints10_0.py",
          "variables": {},
          "stringMap": {},
          "strings": {}
        }
      ]
    },
    "11": {
      "startMethod": "com.tutusw.onekeyvpn.OpenVpnSettings$3.onClick(Landroid/content/DialogInterface;I)V",
      "targetMethod": "android.app.NotificationManager.notify(ILandroid/app/Notification;)V",
      "eventChain": [
        {
          "start": "com.tutusw.onekeyvpn.OpenVpnSettings$3.onClick(Landroid/content/DialogInterface;I)V",
          "target": "invokevirtual \u003c Application, Landroid/app/NotificationManager, notify(ILandroid/app/Notification;)V \u003e@173",
          "type": "ui",
          "activities": [
            "com.tutusw.onekeyvpn.OpenVpnSettings"
          ],
          "listener": "com.tutusw.onekeyvpn.OpenVpnSettings$3",
          "listenerMethod": "onClick",
          "uiType": "onClick",
          "inDialog": "true",
          "constraintsFile": "constraints11_0.py",
          "variables": {},
          "stringMap": {},
          "strings": {}
        }
      ]
    },
    "12": {
      "startMethod": "com.tutusw.onekeyvpn.OpenVpnSettings$3.onClick(Landroid/content/DialogInterface;I)V",
      "targetMethod": "android.app.NotificationManager.notify(ILandroid/app/Notification;)V",
      "eventChain": [
        {
          "start": "com.tutusw.onekeyvpn.OpenVpnSettings$3.onClick(Landroid/content/DialogInterface;I)V",
          "target": "invokevirtual \u003c Application, Landroid/app/NotificationManager, notify(ILandroid/app/Notification;)V \u003e@216",
          "type": "ui",
          "activities": [
            "com.tutusw.onekeyvpn.OpenVpnSettings"
          ],
          "listener": "com.tutusw.onekeyvpn.OpenVpnSettings$3",
          "listenerMethod": "onClick",
          "uiType": "onClick",
          "inDialog": "true",
          "constraintsFile": "constraints12_0.py",
          "variables": {},
          "stringMap": {},
          "strings": {}
        }
      ]
    }
  }
}