{
  "packageName": "com.lekusoft.android.wallpaper.a20110704097",
  "mainActivity": "com.lekusoft.android.wallpaper.a20110704097.StartWall",
  "callPaths": {
    "0": {
      "startMethod": "com.lekusoft.android.wallpaper.a20110704097.UpdateWall.onCreate(Landroid/os/Bundle;)V",
      "targetMethod": "java.net.URL.openConnection()Ljava/net/URLConnection;",
      "eventChain": [
        {
          "start": "com.lekusoft.android.wallpaper.a20110704097.UpdateWall.onCreate(Landroid/os/Bundle;)V",
          "target": "invokevirtual \u003c Application, Ljava/net/URL, openConnection()Ljava/net/URLConnection; \u003e@22",
          "type": "activity",
          "component": "com.lekusoft.android.wallpaper.a20110704097.UpdateWall",
          "constraintsFile": "constraints0_0.py",
          "variables": {},
          "stringMap": {},
          "strings": {}
        }
      ]
    },
    "1": {
      "startMethod": "com.lekusoft.android.wallpaper.a20110704097.UpdateWall.onCreate(Landroid/os/Bundle;)V",
      "targetMethod": "java.net.URL.openConnection()Ljava/net/URLConnection;",
      "eventChain": [
        {
          "start": "com.lekusoft.android.wallpaper.a20110704097.UpdateWall.onCreate(Landroid/os/Bundle;)V",
          "target": "invokevirtual \u003c Application, Ljava/net/URL, openConnection()Ljava/net/URLConnection; \u003e@23",
          "type": "activity",
          "component": "com.lekusoft.android.wallpaper.a20110704097.UpdateWall",
          "constraintsFile": "constraints1_0.py",
          "variables": {},
          "stringMap": {},
          "strings": {}
        }
      ]
    },
    "2": {
      "startMethod": "com.google.ads.InstallReceiver.onReceive(Landroid/content/Context;Landroid/content/Intent;)V",
      "targetMethod": "java.net.URL.openConnection()Ljava/net/URLConnection;",
      "eventChain": [
        {
          "start": "com.google.ads.InstallReceiver.onReceive(Landroid/content/Context;Landroid/content/Intent;)V",
          "target": "invokevirtual \u003c Application, Ljava/net/URL, openConnection()Ljava/net/URLConnection; \u003e@129",
          "type": "sms"
        }
      ]
    }
  }
}