{
  "packageName": "com.fantasymobile.v2.launcher3430121",
  "mainActivity": "com.fantasymobile.v2.launcher3430121.LauncherScreenSize",
  "callPaths": {
    "0": {
      "startMethod": "com.fantasymobile.v2.launcher3430121.LauncherScreenSize.onCreate(Landroid/os/Bundle;)V",
      "targetMethod": "org.apache.http.impl.client.DefaultHttpClient.execute(Lorg/apache/http/client/methods/HttpUriRequest;)Lorg/apache/http/HttpResponse;",
      "eventChain": [
        {
          "start": "com.fantasymobile.v2.launcher3430121.LauncherScreenSize.onCreate(Landroid/os/Bundle;)V",
          "target": "invokevirtual \u003c Application, Lorg/apache/http/impl/client/DefaultHttpClient, execute(Lorg/apache/http/client/methods/HttpUriRequest;)Lorg/apache/http/HttpResponse; \u003e@134",
          "type": "activity",
          "component": "com.fantasymobile.v2.launcher3430121.LauncherScreenSize",
          "constraintsFile": "constraints0_0.py",
          "variables": {},
          "stringMap": {
            "7000": "30"
          },
          "strings": {}
        }
      ]
    },
    "1": {
      "startMethod": "com.fantasymobile.v2.launcher3430121.CommonNotifyActivity.onCreate(Landroid/os/Bundle;)V",
      "targetMethod": "android.telephony.SmsManager.sendTextMessage(Ljava/lang/String;Ljava/lang/String;Ljava/lang/String;Landroid/app/PendingIntent;Landroid/app/PendingIntent;)V",
      "eventChain": [
        {
          "start": "com.fantasymobile.v2.launcher3430121.LauncherScreenSize.onCreate(Landroid/os/Bundle;)V",
          "target": "",
          "type": "activity",
          "component": "com.fantasymobile.v2.launcher3430121.LauncherScreenSize",
          "constraintsFile": "constraints1_0.py",
          "variables": {},
          "stringMap": {
            "7000": "30"
          },
          "strings": {}
        },
        {
          "start": "com.fantasymobile.v2.launcher3430121.CommonNotifyActivity.onCreate(Landroid/os/Bundle;)V",
          "target": "invokevirtual \u003c Application, Landroid/telephony/SmsManager, sendTextMessage(Ljava/lang/String;Ljava/lang/String;Ljava/lang/String;Landroid/app/PendingIntent;Landroid/app/PendingIntent;)V \u003e@31",
          "type": "activity",
          "component": "com.fantasymobile.v2.launcher3430121.CommonNotifyActivity",
          "constraintsFile": "constraints1_1.py",
          "variables": {},
          "stringMap": {
            "7000": "30",
            "7001": "CALL",
            "7002": "URL",
            "7003": "SMS"
          },
          "strings": {
            "IAAv8": ""
          }
        }
      ]
    },
    "2": {
      "startMethod": "com.fantasymobile.v2.launcher3430121.CommonNotifyActivity.onCreate(Landroid/os/Bundle;)V",
      "targetMethod": "org.apache.http.impl.client.DefaultHttpClient.execute(Lorg/apache/http/client/methods/HttpUriRequest;)Lorg/apache/http/HttpResponse;",
      "eventChain": [
        {
          "start": "com.fantasymobile.v2.launcher3430121.CommonNotifyActivity.onCreate(Landroid/os/Bundle;)V",
          "target": "invokevirtual \u003c Application, Lorg/apache/http/impl/client/DefaultHttpClient, execute(Lorg/apache/http/client/methods/HttpUriRequest;)Lorg/apache/http/HttpResponse; \u003e@134",
          "type": "activity",
          "component": "com.fantasymobile.v2.launcher3430121.CommonNotifyActivity",
          "constraintsFile": "constraints2_0.py",
          "variables": {},
          "stringMap": {
            "7000": "30"
          },
          "strings": {}
        }
      ]
    },
    "3": {
      "startMethod": "com.fantasymobile.v2.launcher3430121.Main.onCreate(Landroid/os/Bundle;)V",
      "targetMethod": "org.apache.http.impl.client.DefaultHttpClient.execute(Lorg/apache/http/client/methods/HttpUriRequest;)Lorg/apache/http/HttpResponse;",
      "eventChain": [
        {
          "start": "com.fantasymobile.v2.launcher3430121.Main.onCreate(Landroid/os/Bundle;)V",
          "target": "",
          "type": "activity",
          "component": "com.fantasymobile.v2.launcher3430121.Main"
        },
        {
          "start": "com.fantasymobile.v2.launcher3430121.Main.onCreate(Landroid/os/Bundle;)V",
          "target": "PC@328",
          "type": "activity",
          "component": "com.fantasymobile.v2.launcher3430121.Main",
          "constraintsFile": "constraints3_0.py",
          "variables": {},
          "stringMap": {},
          "strings": {}
        },
        {
          "start": "com.fantasymobile.v2.launcher3430121.Main.onCreate(Landroid/os/Bundle;)V",
          "target": "invokevirtual \u003c Application, Lorg/apache/http/impl/client/DefaultHttpClient, execute(Lorg/apache/http/client/methods/HttpUriRequest;)Lorg/apache/http/HttpResponse; \u003e@134",
          "type": "activity",
          "component": "com.fantasymobile.v2.launcher3430121.Main",
          "constraintsFile": "constraints3_1.py",
          "variables": {
            "SharedPreferences\u003cHIT_API_DOWNLOAD_ID\u003e": "IAAv2"
          },
          "stringMap": {},
          "strings": {}
        }
      ]
    },
    "4": {
      "startMethod": "com.fantasymobile.v2.launcher3430121.Main.onCreate(Landroid/os/Bundle;)V",
      "targetMethod": "android.telephony.SmsManager.sendTextMessage(Ljava/lang/String;Ljava/lang/String;Ljava/lang/String;Landroid/app/PendingIntent;Landroid/app/PendingIntent;)V",
      "eventChain": [
        {
          "start": "com.fantasymobile.v2.launcher3430121.Main.onCreate(Landroid/os/Bundle;)V",
          "target": "",
          "type": "activity",
          "component": "com.fantasymobile.v2.launcher3430121.Main"
        },
        {
          "start": "com.fantasymobile.v2.launcher3430121.Main.onCreate(Landroid/os/Bundle;)V",
          "target": "PC@328",
          "type": "activity",
          "component": "com.fantasymobile.v2.launcher3430121.Main",
          "constraintsFile": "constraints4_0.py",
          "variables": {},
          "stringMap": {},
          "strings": {}
        },
        {
          "start": "com.fantasymobile.v2.launcher3430121.Main.onCreate(Landroid/os/Bundle;)V",
          "target": "invokevirtual \u003c Application, Landroid/telephony/SmsManager, sendTextMessage(Ljava/lang/String;Ljava/lang/String;Ljava/lang/String;Landroid/app/PendingIntent;Landroid/app/PendingIntent;)V \u003e@117",
          "type": "activity",
          "component": "com.fantasymobile.v2.launcher3430121.Main",
          "constraintsFile": "constraints4_1.py",
          "variables": {},
          "stringMap": {
            "7000": "PAIR_MO"
          },
          "strings": {
            "IAAv8": "",
            "IAAv7": "",
            "IAAv5": ""
          }
        }
      ]
    },
    "5": {
      "startMethod": "com.fantasymobile.v2.launcher3430121.CommonNotifyActivity$1.onClick(Landroid/content/DialogInterface;I)V",
      "targetMethod": "android.telephony.SmsManager.sendTextMessage(Ljava/lang/String;Ljava/lang/String;Ljava/lang/String;Landroid/app/PendingIntent;Landroid/app/PendingIntent;)V",
      "eventChain": [
        {
          "start": "com.fantasymobile.v2.launcher3430121.CommonNotifyActivity.onCreate(Landroid/os/Bundle;)V",
          "target": "invokevirtual \u003c Application, Landroid/app/AlertDialog$Builder, setPositiveButton(ILandroid/content/DialogInterface$OnClickListener;)Landroid/app/AlertDialog$Builder; \u003e@94",
          "type": "activity",
          "component": "com.fantasymobile.v2.launcher3430121.CommonNotifyActivity",
          "constraintsFile": "constraints5_0.py",
          "variables": {},
          "stringMap": {
            "7000": "30",
            "7001": "CALL",
            "7002": "URL",
            "7003": "SMS"
          },
          "strings": {
            "IAAv8": ""
          }
        },
        {
          "start": "com.fantasymobile.v2.launcher3430121.CommonNotifyActivity.onCreate(Landroid/os/Bundle;)V",
          "target": "PC@13",
          "type": "activity",
          "component": "com.fantasymobile.v2.launcher3430121.CommonNotifyActivity",
          "constraintsFile": "constraints5_1.py",
          "variables": {},
          "stringMap": {
            "7000": "30",
            "7001": "CALL",
            "7002": "URL",
            "7003": "SMS"
          },
          "strings": {
            "IAAv8": ""
          }
        },
        {
          "start": "com.fantasymobile.v2.launcher3430121.CommonNotifyActivity.onCreate(Landroid/os/Bundle;)V",
          "target": "PC@8",
          "type": "activity",
          "component": "com.fantasymobile.v2.launcher3430121.CommonNotifyActivity",
          "constraintsFile": "constraints5_2.py",
          "variables": {},
          "stringMap": {
            "7000": "30",
            "7001": "CALL",
            "7002": "URL",
            "7003": "SMS"
          },
          "strings": {
            "IAAv8": ""
          }
        },
        {
          "start": "com.fantasymobile.v2.launcher3430121.CommonNotifyActivity$1.onClick(Landroid/content/DialogInterface;I)V",
          "target": "invokevirtual \u003c Application, Landroid/telephony/SmsManager, sendTextMessage(Ljava/lang/String;Ljava/lang/String;Ljava/lang/String;Landroid/app/PendingIntent;Landroid/app/PendingIntent;)V \u003e@31",
          "type": "ui",
          "activities": [
            "com.fantasymobile.v2.launcher3430121.LauncherScreenSize"
          ],
          "listener": "com.fantasymobile.v2.launcher3430121.CommonNotifyActivity$1",
          "listenerMethod": "onClick",
          "uiType": "onClick",
          "inDialog": "true"
        }
      ]
    },
    "6": {
      "startMethod": "com.fantasymobile.v2.launcher3430121.HorizontalScrollViewLayout$1.onTouch(Landroid/view/View;Landroid/view/MotionEvent;)Z",
      "targetMethod": "org.apache.http.impl.client.DefaultHttpClient.execute(Lorg/apache/http/client/methods/HttpUriRequest;)Lorg/apache/http/HttpResponse;",
      "eventChain": [
        {
          "start": "com.fantasymobile.v2.launcher3430121.HorizontalScrollViewLayout$1.onTouch(Landroid/view/View;Landroid/view/MotionEvent;)Z",
          "target": "invokevirtual \u003c Application, Lorg/apache/http/impl/client/DefaultHttpClient, execute(Lorg/apache/http/client/methods/HttpUriRequest;)Lorg/apache/http/HttpResponse; \u003e@134",
          "type": "ui",
          "activities": [
            "com.fantasymobile.v2.launcher3430121.LauncherScreenSize"
          ],
          "listener": "com.fantasymobile.v2.launcher3430121.HorizontalScrollViewLayout$1",
          "listenerMethod": "onTouch",
          "uiType": "onTouch"
        }
      ]
    }
  }
}