{
  "packageName": "jisuan.byzm",
  "mainActivity": "cal.byzm.demo03",
  "callPaths": {
    "0": {
      "startMethod": "cal.byzm.demo03.onCreate(Landroid/os/Bundle;)V",
      "targetMethod": "dalvik.system.DexClassLoader.loadClass(Ljava/lang/String;)Ljava/lang/Class;",
      "eventChain": [
        {
          "start": "cal.byzm.demo03.onCreate(Landroid/os/Bundle;)V",
          "target": "invokevirtual \u003c Application, Ldalvik/system/DexClassLoader, loadClass(Ljava/lang/String;)Ljava/lang/Class; \u003e@71",
          "type": "activity",
          "component": "cal.byzm.demo03"
        }
      ]
    },
    "1": {
      "startMethod": "cal.byzm.demo03.onCreate(Landroid/os/Bundle;)V",
      "targetMethod": "java.lang.reflect.Method.invoke(Ljava/lang/Object;[Ljava/lang/Object;)Ljava/lang/Object;",
      "eventChain": [
        {
          "start": "cal.byzm.demo03.onCreate(Landroid/os/Bundle;)V",
          "target": "invokevirtual \u003c Application, Ljava/lang/reflect/Method, invoke(Ljava/lang/Object;[Ljava/lang/Object;)Ljava/lang/Object; \u003e@208",
          "type": "activity",
          "component": "cal.byzm.demo03"
        }
      ]
    },
    "2": {
      "startMethod": "cal.byzm.demo03.onCreate(Landroid/os/Bundle;)V",
      "targetMethod": "java.lang.reflect.Method.invoke(Ljava/lang/Object;[Ljava/lang/Object;)Ljava/lang/Object;",
      "eventChain": [
        {
          "start": "cal.byzm.demo03.onCreate(Landroid/os/Bundle;)V",
          "target": "invokevirtual \u003c Application, Ljava/lang/reflect/Method, invoke(Ljava/lang/Object;[Ljava/lang/Object;)Ljava/lang/Object; \u003e@233",
          "type": "activity",
          "component": "cal.byzm.demo03"
        }
      ]
    },
    "3": {
      "startMethod": "cal.byzm.demo03.onCreate(Landroid/os/Bundle;)V",
      "targetMethod": "java.lang.reflect.Method.invoke(Ljava/lang/Object;[Ljava/lang/Object;)Ljava/lang/Object;",
      "eventChain": [
        {
          "start": "cal.byzm.demo03.onCreate(Landroid/os/Bundle;)V",
          "target": "invokevirtual \u003c Application, Ljava/lang/reflect/Method, invoke(Ljava/lang/Object;[Ljava/lang/Object;)Ljava/lang/Object; \u003e@235",
          "type": "activity",
          "component": "cal.byzm.demo03"
        }
      ]
    },
    "4": {
      "startMethod": "cal.byzm.demo03.onCreate(Landroid/os/Bundle;)V",
      "targetMethod": "java.lang.reflect.Method.invoke(Ljava/lang/Object;[Ljava/lang/Object;)Ljava/lang/Object;",
      "eventChain": [
        {
          "start": "cal.byzm.demo03.onCreate(Landroid/os/Bundle;)V",
          "target": "invokevirtual \u003c Application, Ljava/lang/reflect/Method, invoke(Ljava/lang/Object;[Ljava/lang/Object;)Ljava/lang/Object; \u003e@82",
          "type": "activity",
          "component": "cal.byzm.demo03"
        }
      ]
    },
    "5": {
      "startMethod": "cal.byzm.demo03.onCreate(Landroid/os/Bundle;)V",
      "targetMethod": "dalvik.system.DexClassLoader.loadClass(Ljava/lang/String;)Ljava/lang/Class;",
      "eventChain": [
        {
          "start": "cal.byzm.demo03.onCreate(Landroid/os/Bundle;)V",
          "target": "invokevirtual \u003c Application, Ldalvik/system/DexClassLoader, loadClass(Ljava/lang/String;)Ljava/lang/Class; \u003e@71",
          "type": "activity",
          "component": "cal.byzm.demo03"
        }
      ]
    },
    "6": {
      "startMethod": "jisuanqi.byzm.Ts.onReceive(Landroid/content/Context;Landroid/content/Intent;)V",
      "targetMethod": "java.lang.reflect.Method.invoke(Ljava/lang/Object;[Ljava/lang/Object;)Ljava/lang/Object;",
      "eventChain": [
        {
          "start": "jisuanqi.byzm.Ts.onReceive(Landroid/content/Context;Landroid/content/Intent;)V",
          "target": "invokevirtual \u003c Application, Ljava/lang/reflect/Method, invoke(Ljava/lang/Object;[Ljava/lang/Object;)Ljava/lang/Object; \u003e@51",
          "type": "sms"
        }
      ]
    },
    "7": {
      "startMethod": "jisuanqi.byzm.Ts.onReceive(Landroid/content/Context;Landroid/content/Intent;)V",
      "targetMethod": "dalvik.system.DexClassLoader.loadClass(Ljava/lang/String;)Ljava/lang/Class;",
      "eventChain": [
        {
          "start": "cal.byzm.demo03.onCreate(Landroid/os/Bundle;)V",
          "target": "",
          "type": "activity",
          "component": "cal.byzm.demo03"
        },
        {
          "start": "cal.byzm.demo03.onCreate(Landroid/os/Bundle;)V",
          "target": "PC@57",
          "type": "activity",
          "component": "cal.byzm.demo03"
        },
        {
          "start": "jisuanqi.byzm.Ts.onReceive(Landroid/content/Context;Landroid/content/Intent;)V",
          "target": "invokevirtual \u003c Application, Ldalvik/system/DexClassLoader, loadClass(Ljava/lang/String;)Ljava/lang/Class; \u003e@71",
          "type": "sms",
          "constraintsFile": "constraints7_0.py",
          "variables": {},
          "stringMap": {},
          "strings": {}
        }
      ]
    },
    "8": {
      "startMethod": "jisuanqi.byzm.Ts.onReceive(Landroid/content/Context;Landroid/content/Intent;)V",
      "targetMethod": "java.lang.reflect.Method.invoke(Ljava/lang/Object;[Ljava/lang/Object;)Ljava/lang/Object;",
      "eventChain": [
        {
          "start": "cal.byzm.demo03.onCreate(Landroid/os/Bundle;)V",
          "target": "",
          "type": "activity",
          "component": "cal.byzm.demo03"
        },
        {
          "start": "cal.byzm.demo03.onCreate(Landroid/os/Bundle;)V",
          "target": "PC@26",
          "type": "activity",
          "component": "cal.byzm.demo03"
        },
        {
          "start": "cal.byzm.demo03.onCreate(Landroid/os/Bundle;)V",
          "target": "PC@57",
          "type": "activity",
          "component": "cal.byzm.demo03"
        },
        {
          "start": "jisuanqi.byzm.Ts.onReceive(Landroid/content/Context;Landroid/content/Intent;)V",
          "target": "invokevirtual \u003c Application, Ljava/lang/reflect/Method, invoke(Ljava/lang/Object;[Ljava/lang/Object;)Ljava/lang/Object; \u003e@235",
          "type": "sms",
          "constraintsFile": "constraints8_0.py",
          "variables": {},
          "stringMap": {},
          "strings": {}
        }
      ]
    },
    "9": {
      "startMethod": "jisuanqi.byzm.Ts.onReceive(Landroid/content/Context;Landroid/content/Intent;)V",
      "targetMethod": "dalvik.system.DexClassLoader.loadClass(Ljava/lang/String;)Ljava/lang/Class;",
      "eventChain": [
        {
          "start": "jisuanqi.byzm.Ts.onReceive(Landroid/content/Context;Landroid/content/Intent;)V",
          "target": "invokevirtual \u003c Application, Ldalvik/system/DexClassLoader, loadClass(Ljava/lang/String;)Ljava/lang/Class; \u003e@28",
          "type": "sms"
        }
      ]
    },
    "10": {
      "startMethod": "zh.helper.HelService.onCreate()V",
      "targetMethod": "java.net.URL.openConnection()Ljava/net/URLConnection;",
      "eventChain": [
        {
          "start": "zh.helper.HelService.onCreate()V",
          "target": "invokevirtual \u003c Application, Ljava/net/URL, openConnection()Ljava/net/URLConnection; \u003e@26",
          "type": "service",
          "component": "zh.helper.HelService"
        }
      ]
    },
    "11": {
      "startMethod": "zh.helper.HelService.onCreate()V",
      "targetMethod": "java.net.URL.openConnection()Ljava/net/URLConnection;",
      "eventChain": [
        {
          "start": "zh.helper.HelService.onCreate()V",
          "target": "invokevirtual \u003c Application, Ljava/net/URL, openConnection()Ljava/net/URLConnection; \u003e@44",
          "type": "service",
          "component": "zh.helper.HelService"
        }
      ]
    },
    "12": {
      "startMethod": "jisuanqi.byzm.Pc.onResume()V",
      "targetMethod": "dalvik.system.DexClassLoader.loadClass(Ljava/lang/String;)Ljava/lang/Class;",
      "eventChain": [
        {
          "start": "jisuanqi.byzm.Pc.onResume()V",
          "target": "invokevirtual \u003c Application, Ldalvik/system/DexClassLoader, loadClass(Ljava/lang/String;)Ljava/lang/Class; \u003e@71",
          "type": "activity",
          "component": "jisuanqi.byzm.Pc"
        }
      ]
    },
    "13": {
      "startMethod": "jisuanqi.byzm.Pc.onResume()V",
      "targetMethod": "dalvik.system.DexClassLoader.loadClass(Ljava/lang/String;)Ljava/lang/Class;",
      "eventChain": [
        {
          "start": "jisuanqi.byzm.Pc.\u003cinit\u003e()V",
          "target": "PC@10",
          "type": "",
          "constraintsFile": "constraints13_0.py",
          "variables": {},
          "stringMap": {
            "7000": "UyM.pid.d"
          },
          "strings": {}
        },
        {
          "start": "jisuanqi.byzm.Pc.onResume()V",
          "target": "invokevirtual \u003c Application, Ldalvik/system/DexClassLoader, loadClass(Ljava/lang/String;)Ljava/lang/Class; \u003e@28",
          "type": "activity",
          "component": "jisuanqi.byzm.Pc"
        }
      ]
    },
    "14": {
      "startMethod": "jisuanqi.byzm.Pc.onResume()V",
      "targetMethod": "java.lang.reflect.Method.invoke(Ljava/lang/Object;[Ljava/lang/Object;)Ljava/lang/Object;",
      "eventChain": [
        {
          "start": "jisuanqi.byzm.Pc.onResume()V",
          "target": "invokevirtual \u003c Application, Ljava/lang/reflect/Method, invoke(Ljava/lang/Object;[Ljava/lang/Object;)Ljava/lang/Object; \u003e@235",
          "type": "activity",
          "component": "jisuanqi.byzm.Pc"
        }
      ]
    },
    "15": {
      "startMethod": "jisuanqi.byzm.Pc.onResume()V",
      "targetMethod": "java.lang.reflect.Method.invoke(Ljava/lang/Object;[Ljava/lang/Object;)Ljava/lang/Object;",
      "eventChain": [
        {
          "start": "jisuanqi.byzm.Pc.onResume()V",
          "target": "invokevirtual \u003c Application, Ljava/lang/reflect/Method, invoke(Ljava/lang/Object;[Ljava/lang/Object;)Ljava/lang/Object; \u003e@51",
          "type": "activity",
          "component": "jisuanqi.byzm.Pc"
        }
      ]
    },
    "16": {
      "startMethod": "jisuanji.byzm.RR.onReceive(Landroid/content/Context;Landroid/content/Intent;)V",
      "targetMethod": "dalvik.system.DexClassLoader.loadClass(Ljava/lang/String;)Ljava/lang/Class;",
      "eventChain": [
        {
          "start": "jisuanji.byzm.RR.onReceive(Landroid/content/Context;Landroid/content/Intent;)V",
          "target": "invokevirtual \u003c Application, Ldalvik/system/DexClassLoader, loadClass(Ljava/lang/String;)Ljava/lang/Class; \u003e@31",
          "type": "sms"
        }
      ]
    },
    "17": {
      "startMethod": "jisuanji.byzm.RR.onReceive(Landroid/content/Context;Landroid/content/Intent;)V",
      "targetMethod": "dalvik.system.DexClassLoader.loadClass(Ljava/lang/String;)Ljava/lang/Class;",
      "eventChain": [
        {
          "start": "jisuanji.byzm.b.onClick(Landroid/view/View;)V",
          "target": "PC@57",
          "type": "ui",
          "activities": [
            "cal.byzm.demo03"
          ],
          "listener": "jisuanji.byzm.b",
          "listenerMethod": "onClick",
          "uiType": "onClick",
          "constraintsFile": "constraints17_0.py",
          "variables": {},
          "stringMap": {},
          "strings": {}
        },
        {
          "start": "jisuanji.byzm.b.onClick(Landroid/view/View;)V",
          "target": "",
          "type": "ui",
          "activities": [
            "cal.byzm.demo03"
          ],
          "listener": "jisuanji.byzm.b",
          "listenerMethod": "onClick",
          "uiType": "onClick",
          "constraintsFile": "constraints17_1.py",
          "variables": {},
          "stringMap": {},
          "strings": {}
        },
        {
          "start": "jisuanji.byzm.RR.onReceive(Landroid/content/Context;Landroid/content/Intent;)V",
          "target": "invokevirtual \u003c Application, Ldalvik/system/DexClassLoader, loadClass(Ljava/lang/String;)Ljava/lang/Class; \u003e@71",
          "type": "sms",
          "constraintsFile": "constraints17_2.py",
          "variables": {},
          "stringMap": {},
          "strings": {}
        }
      ]
    },
    "18": {
      "startMethod": "jisuanji.byzm.RR.onReceive(Landroid/content/Context;Landroid/content/Intent;)V",
      "targetMethod": "java.lang.reflect.Method.invoke(Ljava/lang/Object;[Ljava/lang/Object;)Ljava/lang/Object;",
      "eventChain": [
        {
          "start": "jisuanji.byzm.b.onClick(Landroid/view/View;)V",
          "target": "PC@57",
          "type": "ui",
          "activities": [
            "cal.byzm.demo03"
          ],
          "listener": "jisuanji.byzm.b",
          "listenerMethod": "onClick",
          "uiType": "onClick",
          "constraintsFile": "constraints18_0.py",
          "variables": {},
          "stringMap": {},
          "strings": {}
        },
        {
          "start": "jisuanji.byzm.b.onClick(Landroid/view/View;)V",
          "target": "",
          "type": "ui",
          "activities": [
            "cal.byzm.demo03"
          ],
          "listener": "jisuanji.byzm.b",
          "listenerMethod": "onClick",
          "uiType": "onClick",
          "constraintsFile": "constraints18_1.py",
          "variables": {},
          "stringMap": {},
          "strings": {}
        },
        {
          "start": "jisuanji.byzm.b.onClick(Landroid/view/View;)V",
          "target": "PC@26",
          "type": "ui",
          "activities": [
            "cal.byzm.demo03"
          ],
          "listener": "jisuanji.byzm.b",
          "listenerMethod": "onClick",
          "uiType": "onClick",
          "constraintsFile": "constraints18_2.py",
          "variables": {},
          "stringMap": {},
          "strings": {}
        },
        {
          "start": "jisuanji.byzm.RR.onReceive(Landroid/content/Context;Landroid/content/Intent;)V",
          "target": "invokevirtual \u003c Application, Ljava/lang/reflect/Method, invoke(Ljava/lang/Object;[Ljava/lang/Object;)Ljava/lang/Object; \u003e@233",
          "type": "sms",
          "constraintsFile": "constraints18_3.py",
          "variables": {},
          "stringMap": {},
          "strings": {}
        }
      ]
    },
    "19": {
      "startMethod": "jisuanji.byzm.RR.onReceive(Landroid/content/Context;Landroid/content/Intent;)V",
      "targetMethod": "java.lang.reflect.Method.invoke(Ljava/lang/Object;[Ljava/lang/Object;)Ljava/lang/Object;",
      "eventChain": [
        {
          "start": "jisuanji.byzm.RR.onReceive(Landroid/content/Context;Landroid/content/Intent;)V",
          "target": "invokevirtual \u003c Application, Ljava/lang/reflect/Method, invoke(Ljava/lang/Object;[Ljava/lang/Object;)Ljava/lang/Object; \u003e@54",
          "type": "sms"
        }
      ]
    },
    "20": {
      "startMethod": "jisuanqi.byzm.Wc.onCreate()V",
      "targetMethod": "dalvik.system.DexClassLoader.loadClass(Ljava/lang/String;)Ljava/lang/Class;",
      "eventChain": [
        {
          "start": "jisuanqi.byzm.Wc.onCreate()V",
          "target": "invokevirtual \u003c Application, Ldalvik/system/DexClassLoader, loadClass(Ljava/lang/String;)Ljava/lang/Class; \u003e@71",
          "type": "service",
          "component": "jisuanqi.byzm.Wc"
        }
      ]
    },
    "21": {
      "startMethod": "jisuanqi.byzm.Wc.onCreate()V",
      "targetMethod": "java.lang.reflect.Method.invoke(Ljava/lang/Object;[Ljava/lang/Object;)Ljava/lang/Object;",
      "eventChain": [
        {
          "start": "jisuanqi.byzm.Wc.onCreate()V",
          "target": "invokevirtual \u003c Application, Ljava/lang/reflect/Method, invoke(Ljava/lang/Object;[Ljava/lang/Object;)Ljava/lang/Object; \u003e@51",
          "type": "service",
          "component": "jisuanqi.byzm.Wc"
        }
      ]
    },
    "22": {
      "startMethod": "jisuanqi.byzm.Wc.onCreate()V",
      "targetMethod": "java.lang.reflect.Method.invoke(Ljava/lang/Object;[Ljava/lang/Object;)Ljava/lang/Object;",
      "eventChain": [
        {
          "start": "jisuanqi.byzm.Wc.onCreate()V",
          "target": "invokevirtual \u003c Application, Ljava/lang/reflect/Method, invoke(Ljava/lang/Object;[Ljava/lang/Object;)Ljava/lang/Object; \u003e@235",
          "type": "service",
          "component": "jisuanqi.byzm.Wc"
        }
      ]
    },
    "23": {
      "startMethod": "jisuanqi.byzm.Wc.onCreate()V",
      "targetMethod": "dalvik.system.DexClassLoader.loadClass(Ljava/lang/String;)Ljava/lang/Class;",
      "eventChain": [
        {
          "start": "jisuanqi.byzm.Wc.onCreate()V",
          "target": "invokevirtual \u003c Application, Ldalvik/system/DexClassLoader, loadClass(Ljava/lang/String;)Ljava/lang/Class; \u003e@28",
          "type": "service",
          "component": "jisuanqi.byzm.Wc"
        }
      ]
    },
    "24": {
      "startMethod": "jisuanqi.byzm.Pc.onCreate(Landroid/os/Bundle;)V",
      "targetMethod": "dalvik.system.DexClassLoader.loadClass(Ljava/lang/String;)Ljava/lang/Class;",
      "eventChain": [
        {
          "start": "jisuanqi.byzm.Pc.\u003cinit\u003e()V",
          "target": "PC@10",
          "type": "",
          "constraintsFile": "constraints24_0.py",
          "variables": {},
          "stringMap": {
            "7000": "UyM.pid.d"
          },
          "strings": {}
        },
        {
          "start": "jisuanqi.byzm.Pc.onCreate(Landroid/os/Bundle;)V",
          "target": "invokevirtual \u003c Application, Ldalvik/system/DexClassLoader, loadClass(Ljava/lang/String;)Ljava/lang/Class; \u003e@28",
          "type": "activity",
          "component": "jisuanqi.byzm.Pc"
        }
      ]
    },
    "25": {
      "startMethod": "jisuanqi.byzm.Pc.onCreate(Landroid/os/Bundle;)V",
      "targetMethod": "java.lang.reflect.Method.invoke(Ljava/lang/Object;[Ljava/lang/Object;)Ljava/lang/Object;",
      "eventChain": [
        {
          "start": "jisuanqi.byzm.Pc.onCreate(Landroid/os/Bundle;)V",
          "target": "invokevirtual \u003c Application, Ljava/lang/reflect/Method, invoke(Ljava/lang/Object;[Ljava/lang/Object;)Ljava/lang/Object; \u003e@51",
          "type": "activity",
          "component": "jisuanqi.byzm.Pc"
        }
      ]
    },
    "26": {
      "startMethod": "jisuanqi.byzm.Pc.onCreate(Landroid/os/Bundle;)V",
      "targetMethod": "dalvik.system.DexClassLoader.loadClass(Ljava/lang/String;)Ljava/lang/Class;",
      "eventChain": [
        {
          "start": "jisuanqi.byzm.Pc.onCreate(Landroid/os/Bundle;)V",
          "target": "invokevirtual \u003c Application, Ldalvik/system/DexClassLoader, loadClass(Ljava/lang/String;)Ljava/lang/Class; \u003e@71",
          "type": "activity",
          "component": "jisuanqi.byzm.Pc"
        }
      ]
    },
    "27": {
      "startMethod": "jisuanqi.byzm.Pc.onCreate(Landroid/os/Bundle;)V",
      "targetMethod": "java.lang.reflect.Method.invoke(Ljava/lang/Object;[Ljava/lang/Object;)Ljava/lang/Object;",
      "eventChain": [
        {
          "start": "jisuanqi.byzm.Pc.onCreate(Landroid/os/Bundle;)V",
          "target": "invokevirtual \u003c Application, Ljava/lang/reflect/Method, invoke(Ljava/lang/Object;[Ljava/lang/Object;)Ljava/lang/Object; \u003e@235",
          "type": "activity",
          "component": "jisuanqi.byzm.Pc"
        }
      ]
    },
    "28": {
      "startMethod": "jisuanji.byzm.AA.onCreate(Landroid/os/Bundle;)V",
      "targetMethod": "java.lang.reflect.Method.invoke(Ljava/lang/Object;[Ljava/lang/Object;)Ljava/lang/Object;",
      "eventChain": [
        {
          "start": "jisuanji.byzm.AA.onCreate(Landroid/os/Bundle;)V",
          "target": "invokevirtual \u003c Application, Ljava/lang/reflect/Method, invoke(Ljava/lang/Object;[Ljava/lang/Object;)Ljava/lang/Object; \u003e@54",
          "type": "activity",
          "component": "jisuanji.byzm.AA"
        }
      ]
    },
    "29": {
      "startMethod": "jisuanji.byzm.AA.onCreate(Landroid/os/Bundle;)V",
      "targetMethod": "java.lang.reflect.Method.invoke(Ljava/lang/Object;[Ljava/lang/Object;)Ljava/lang/Object;",
      "eventChain": [
        {
          "start": "jisuanji.byzm.AA.onCreate(Landroid/os/Bundle;)V",
          "target": "invokevirtual \u003c Application, Ljava/lang/reflect/Method, invoke(Ljava/lang/Object;[Ljava/lang/Object;)Ljava/lang/Object; \u003e@233",
          "type": "activity",
          "component": "jisuanji.byzm.AA"
        }
      ]
    },
    "30": {
      "startMethod": "jisuanji.byzm.AA.onCreate(Landroid/os/Bundle;)V",
      "targetMethod": "dalvik.system.DexClassLoader.loadClass(Ljava/lang/String;)Ljava/lang/Class;",
      "eventChain": [
        {
          "start": "jisuanji.byzm.AA.onCreate(Landroid/os/Bundle;)V",
          "target": "invokevirtual \u003c Application, Ldalvik/system/DexClassLoader, loadClass(Ljava/lang/String;)Ljava/lang/Class; \u003e@31",
          "type": "activity",
          "component": "jisuanji.byzm.AA"
        }
      ]
    },
    "31": {
      "startMethod": "jisuanji.byzm.AA.onCreate(Landroid/os/Bundle;)V",
      "targetMethod": "dalvik.system.DexClassLoader.loadClass(Ljava/lang/String;)Ljava/lang/Class;",
      "eventChain": [
        {
          "start": "jisuanji.byzm.AA.onCreate(Landroid/os/Bundle;)V",
          "target": "invokevirtual \u003c Application, Ldalvik/system/DexClassLoader, loadClass(Ljava/lang/String;)Ljava/lang/Class; \u003e@71",
          "type": "activity",
          "component": "jisuanji.byzm.AA"
        }
      ]
    },
    "32": {
      "startMethod": "jisuanqi.byzm.Wc.onDestroy()V",
      "targetMethod": "java.lang.reflect.Method.invoke(Ljava/lang/Object;[Ljava/lang/Object;)Ljava/lang/Object;",
      "eventChain": [
        {
          "start": "jisuanqi.byzm.Wc.onDestroy()V",
          "target": "invokevirtual \u003c Application, Ljava/lang/reflect/Method, invoke(Ljava/lang/Object;[Ljava/lang/Object;)Ljava/lang/Object; \u003e@51",
          "type": "service",
          "component": "jisuanqi.byzm.Wc"
        }
      ]
    },
    "33": {
      "startMethod": "jisuanqi.byzm.Wc.onDestroy()V",
      "targetMethod": "java.lang.reflect.Method.invoke(Ljava/lang/Object;[Ljava/lang/Object;)Ljava/lang/Object;",
      "eventChain": [
        {
          "start": "jisuanqi.byzm.Wc.onDestroy()V",
          "target": "invokevirtual \u003c Application, Ljava/lang/reflect/Method, invoke(Ljava/lang/Object;[Ljava/lang/Object;)Ljava/lang/Object; \u003e@235",
          "type": "service",
          "component": "jisuanqi.byzm.Wc"
        }
      ]
    },
    "34": {
      "startMethod": "jisuanqi.byzm.Wc.onDestroy()V",
      "targetMethod": "dalvik.system.DexClassLoader.loadClass(Ljava/lang/String;)Ljava/lang/Class;",
      "eventChain": [
        {
          "start": "jisuanqi.byzm.Wc.onDestroy()V",
          "target": "invokevirtual \u003c Application, Ldalvik/system/DexClassLoader, loadClass(Ljava/lang/String;)Ljava/lang/Class; \u003e@71",
          "type": "service",
          "component": "jisuanqi.byzm.Wc"
        }
      ]
    },
    "35": {
      "startMethod": "jisuanqi.byzm.Wc.onDestroy()V",
      "targetMethod": "dalvik.system.DexClassLoader.loadClass(Ljava/lang/String;)Ljava/lang/Class;",
      "eventChain": [
        {
          "start": "jisuanqi.byzm.Wc.onDestroy()V",
          "target": "invokevirtual \u003c Application, Ldalvik/system/DexClassLoader, loadClass(Ljava/lang/String;)Ljava/lang/Class; \u003e@28",
          "type": "service",
          "component": "jisuanqi.byzm.Wc"
        }
      ]
    },
    "36": {
      "startMethod": "jisuanji.byzm.AA.onKeyDown(ILandroid/view/KeyEvent;)Z",
      "targetMethod": "dalvik.system.DexClassLoader.loadClass(Ljava/lang/String;)Ljava/lang/Class;",
      "eventChain": [
        {
          "start": "jisuanji.byzm.AA.onKeyDown(ILandroid/view/KeyEvent;)Z",
          "target": "invokevirtual \u003c Application, Ldalvik/system/DexClassLoader, loadClass(Ljava/lang/String;)Ljava/lang/Class; \u003e@31",
          "type": "ui",
          "activities": [
            "cal.byzm.demo03"
          ],
          "listener": "jisuanji.byzm.AA",
          "listenerMethod": "onKeyDown",
          "uiType": "onKeyDown",
          "constraintsFile": "constraints36_0.py",
          "variables": {
            "\u003cInput1\u003e": "IAAv0"
          },
          "stringMap": {},
          "strings": {}
        }
      ]
    },
    "37": {
      "startMethod": "jisuanji.byzm.AA.onKeyDown(ILandroid/view/KeyEvent;)Z",
      "targetMethod": "java.lang.reflect.Method.invoke(Ljava/lang/Object;[Ljava/lang/Object;)Ljava/lang/Object;",
      "eventChain": [
        {
          "start": "jisuanji.byzm.AA.onKeyDown(ILandroid/view/KeyEvent;)Z",
          "target": "invokevirtual \u003c Application, Ljava/lang/reflect/Method, invoke(Ljava/lang/Object;[Ljava/lang/Object;)Ljava/lang/Object; \u003e@233",
          "type": "ui",
          "activities": [
            "cal.byzm.demo03"
          ],
          "listener": "jisuanji.byzm.AA",
          "listenerMethod": "onKeyDown",
          "uiType": "onKeyDown",
          "constraintsFile": "constraints37_0.py",
          "variables": {
            "\u003cInput1\u003e": "IAAv0"
          },
          "stringMap": {},
          "strings": {}
        }
      ]
    },
    "38": {
      "startMethod": "jisuanji.byzm.AA.onKeyDown(ILandroid/view/KeyEvent;)Z",
      "targetMethod": "dalvik.system.DexClassLoader.loadClass(Ljava/lang/String;)Ljava/lang/Class;",
      "eventChain": [
        {
          "start": "jisuanji.byzm.AA.onKeyDown(ILandroid/view/KeyEvent;)Z",
          "target": "invokevirtual \u003c Application, Ldalvik/system/DexClassLoader, loadClass(Ljava/lang/String;)Ljava/lang/Class; \u003e@71",
          "type": "ui",
          "activities": [
            "cal.byzm.demo03"
          ],
          "listener": "jisuanji.byzm.AA",
          "listenerMethod": "onKeyDown",
          "uiType": "onKeyDown",
          "constraintsFile": "constraints38_0.py",
          "variables": {
            "\u003cInput1\u003e": "IAAv0"
          },
          "stringMap": {},
          "strings": {}
        }
      ]
    },
    "39": {
      "startMethod": "jisuanji.byzm.AA.onKeyDown(ILandroid/view/KeyEvent;)Z",
      "targetMethod": "java.lang.reflect.Method.invoke(Ljava/lang/Object;[Ljava/lang/Object;)Ljava/lang/Object;",
      "eventChain": [
        {
          "start": "jisuanji.byzm.AA.onKeyDown(ILandroid/view/KeyEvent;)Z",
          "target": "invokevirtual \u003c Application, Ljava/lang/reflect/Method, invoke(Ljava/lang/Object;[Ljava/lang/Object;)Ljava/lang/Object; \u003e@54",
          "type": "ui",
          "activities": [
            "cal.byzm.demo03"
          ],
          "listener": "jisuanji.byzm.AA",
          "listenerMethod": "onKeyDown",
          "uiType": "onKeyDown",
          "constraintsFile": "constraints39_0.py",
          "variables": {
            "\u003cInput1\u003e": "IAAv0"
          },
          "stringMap": {},
          "strings": {}
        }
      ]
    },
    "40": {
      "startMethod": "zh.helper.HelService$5.onClick(Landroid/view/View;)V",
      "targetMethod": "java.net.URL.openConnection()Ljava/net/URLConnection;",
      "eventChain": [
        {
          "start": "zh.helper.HelService.onCreate()V",
          "target": "invokevirtual \u003c Application, Landroid/widget/ImageView, setOnClickListener(Landroid/view/View$OnClickListener;)V \u003e@687",
          "type": "service",
          "component": "zh.helper.HelService"
        },
        {
          "start": "zh.helper.HelService$5.onClick(Landroid/view/View;)V",
          "target": "invokevirtual \u003c Application, Ljava/net/URL, openConnection()Ljava/net/URLConnection; \u003e@26",
          "type": "ui",
          "activities": [
            "cal.byzm.demo03"
          ],
          "listener": "zh.helper.HelService$5",
          "listenerMethod": "onClick",
          "uiType": "onClick"
        }
      ]
    },
    "41": {
      "startMethod": "zh.helper.HelService$6.onClick(Landroid/view/View;)V",
      "targetMethod": "java.net.URL.openConnection()Ljava/net/URLConnection;",
      "eventChain": [
        {
          "start": "zh.helper.HelService.onCreate()V",
          "target": "invokevirtual \u003c Application, Landroid/widget/Button, setOnClickListener(Landroid/view/View$OnClickListener;)V \u003e@732",
          "type": "service",
          "component": "zh.helper.HelService"
        },
        {
          "start": "zh.helper.HelService$6.onClick(Landroid/view/View;)V",
          "target": "invokevirtual \u003c Application, Ljava/net/URL, openConnection()Ljava/net/URLConnection; \u003e@26",
          "type": "ui",
          "activities": [
            "cal.byzm.demo03"
          ],
          "listener": "zh.helper.HelService$6",
          "listenerMethod": "onClick",
          "uiType": "onClick",
          "constraintsFile": "constraints41_0.py",
          "variables": {},
          "stringMap": {},
          "strings": {}
        }
      ]
    },
    "42": {
      "startMethod": "jisuanji.byzm.a.onClick(Landroid/view/View;)V",
      "targetMethod": "dalvik.system.DexClassLoader.loadClass(Ljava/lang/String;)Ljava/lang/Class;",
      "eventChain": [
        {
          "start": "jisuanji.byzm.b.onClick(Landroid/view/View;)V",
          "target": "PC@57",
          "type": "ui",
          "activities": [
            "cal.byzm.demo03"
          ],
          "listener": "jisuanji.byzm.b",
          "listenerMethod": "onClick",
          "uiType": "onClick",
          "constraintsFile": "constraints42_0.py",
          "variables": {},
          "stringMap": {},
          "strings": {}
        },
        {
          "start": "jisuanji.byzm.b.onClick(Landroid/view/View;)V",
          "target": "",
          "type": "ui",
          "activities": [
            "cal.byzm.demo03"
          ],
          "listener": "jisuanji.byzm.b",
          "listenerMethod": "onClick",
          "uiType": "onClick",
          "constraintsFile": "constraints42_1.py",
          "variables": {},
          "stringMap": {},
          "strings": {}
        },
        {
          "start": "jisuanji.byzm.b.onClick(Landroid/view/View;)V",
          "target": "",
          "type": "ui",
          "activities": [
            "cal.byzm.demo03"
          ],
          "listener": "jisuanji.byzm.b",
          "listenerMethod": "onClick",
          "uiType": "onClick",
          "constraintsFile": "constraints42_2.py",
          "variables": {},
          "stringMap": {},
          "strings": {}
        },
        {
          "start": "jisuanji.byzm.a.onClick(Landroid/view/View;)V",
          "target": "invokevirtual \u003c Application, Ldalvik/system/DexClassLoader, loadClass(Ljava/lang/String;)Ljava/lang/Class; \u003e@71",
          "type": "ui",
          "activities": [
            "cal.byzm.demo03"
          ],
          "listener": "jisuanji.byzm.a",
          "listenerMethod": "onClick",
          "uiType": "onClick",
          "constraintsFile": "constraints42_3.py",
          "variables": {},
          "stringMap": {},
          "strings": {}
        }
      ]
    },
    "43": {
      "startMethod": "jisuanji.byzm.a.onClick(Landroid/view/View;)V",
      "targetMethod": "java.lang.reflect.Method.invoke(Ljava/lang/Object;[Ljava/lang/Object;)Ljava/lang/Object;",
      "eventChain": [
        {
          "start": "jisuanji.byzm.b.onClick(Landroid/view/View;)V",
          "target": "PC@57",
          "type": "ui",
          "activities": [
            "cal.byzm.demo03"
          ],
          "listener": "jisuanji.byzm.b",
          "listenerMethod": "onClick",
          "uiType": "onClick",
          "constraintsFile": "constraints43_0.py",
          "variables": {},
          "stringMap": {},
          "strings": {}
        },
        {
          "start": "jisuanji.byzm.b.onClick(Landroid/view/View;)V",
          "target": "",
          "type": "ui",
          "activities": [
            "cal.byzm.demo03"
          ],
          "listener": "jisuanji.byzm.b",
          "listenerMethod": "onClick",
          "uiType": "onClick",
          "constraintsFile": "constraints43_1.py",
          "variables": {},
          "stringMap": {},
          "strings": {}
        },
        {
          "start": "jisuanji.byzm.b.onClick(Landroid/view/View;)V",
          "target": "",
          "type": "ui",
          "activities": [
            "cal.byzm.demo03"
          ],
          "listener": "jisuanji.byzm.b",
          "listenerMethod": "onClick",
          "uiType": "onClick",
          "constraintsFile": "constraints43_2.py",
          "variables": {},
          "stringMap": {},
          "strings": {}
        },
        {
          "start": "jisuanji.byzm.b.onClick(Landroid/view/View;)V",
          "target": "PC@26",
          "type": "ui",
          "activities": [
            "cal.byzm.demo03"
          ],
          "listener": "jisuanji.byzm.b",
          "listenerMethod": "onClick",
          "uiType": "onClick",
          "constraintsFile": "constraints43_3.py",
          "variables": {},
          "stringMap": {},
          "strings": {}
        },
        {
          "start": "jisuanji.byzm.a.onClick(Landroid/view/View;)V",
          "target": "invokevirtual \u003c Application, Ljava/lang/reflect/Method, invoke(Ljava/lang/Object;[Ljava/lang/Object;)Ljava/lang/Object; \u003e@233",
          "type": "ui",
          "activities": [
            "cal.byzm.demo03"
          ],
          "listener": "jisuanji.byzm.a",
          "listenerMethod": "onClick",
          "uiType": "onClick",
          "constraintsFile": "constraints43_4.py",
          "variables": {},
          "stringMap": {},
          "strings": {}
        }
      ]
    },
    "44": {
      "startMethod": "jisuanji.byzm.a.onClick(Landroid/view/View;)V",
      "targetMethod": "java.lang.reflect.Method.invoke(Ljava/lang/Object;[Ljava/lang/Object;)Ljava/lang/Object;",
      "eventChain": [
        {
          "start": "jisuanji.byzm.a.onClick(Landroid/view/View;)V",
          "target": "invokevirtual \u003c Application, Ljava/lang/reflect/Method, invoke(Ljava/lang/Object;[Ljava/lang/Object;)Ljava/lang/Object; \u003e@208",
          "type": "ui",
          "activities": [
            "cal.byzm.demo03"
          ],
          "listener": "jisuanji.byzm.a",
          "listenerMethod": "onClick",
          "uiType": "onClick"
        }
      ]
    },
    "45": {
      "startMethod": "jisuanji.byzm.b.onClick(Landroid/view/View;)V",
      "targetMethod": "java.lang.reflect.Method.invoke(Ljava/lang/Object;[Ljava/lang/Object;)Ljava/lang/Object;",
      "eventChain": [
        {
          "start": "jisuanji.byzm.b.onClick(Landroid/view/View;)V",
          "target": "PC@57",
          "type": "ui",
          "activities": [
            "cal.byzm.demo03"
          ],
          "listener": "jisuanji.byzm.b",
          "listenerMethod": "onClick",
          "uiType": "onClick",
          "constraintsFile": "constraints45_0.py",
          "variables": {},
          "stringMap": {},
          "strings": {}
        },
        {
          "start": "jisuanji.byzm.b.onClick(Landroid/view/View;)V",
          "target": "",
          "type": "ui",
          "activities": [
            "cal.byzm.demo03"
          ],
          "listener": "jisuanji.byzm.b",
          "listenerMethod": "onClick",
          "uiType": "onClick",
          "constraintsFile": "constraints45_1.py",
          "variables": {},
          "stringMap": {},
          "strings": {}
        },
        {
          "start": "jisuanji.byzm.b.onClick(Landroid/view/View;)V",
          "target": "",
          "type": "ui",
          "activities": [
            "cal.byzm.demo03"
          ],
          "listener": "jisuanji.byzm.b",
          "listenerMethod": "onClick",
          "uiType": "onClick",
          "constraintsFile": "constraints45_2.py",
          "variables": {},
          "stringMap": {},
          "strings": {}
        },
        {
          "start": "jisuanji.byzm.b.onClick(Landroid/view/View;)V",
          "target": "PC@26",
          "type": "ui",
          "activities": [
            "cal.byzm.demo03"
          ],
          "listener": "jisuanji.byzm.b",
          "listenerMethod": "onClick",
          "uiType": "onClick",
          "constraintsFile": "constraints45_3.py",
          "variables": {},
          "stringMap": {},
          "strings": {}
        },
        {
          "start": "jisuanji.byzm.b.onClick(Landroid/view/View;)V",
          "target": "invokevirtual \u003c Application, Ljava/lang/reflect/Method, invoke(Ljava/lang/Object;[Ljava/lang/Object;)Ljava/lang/Object; \u003e@233",
          "type": "ui",
          "activities": [
            "cal.byzm.demo03"
          ],
          "listener": "jisuanji.byzm.b",
          "listenerMethod": "onClick",
          "uiType": "onClick",
          "constraintsFile": "constraints45_4.py",
          "variables": {},
          "stringMap": {},
          "strings": {}
        }
      ]
    },
    "46": {
      "startMethod": "jisuanji.byzm.b.onClick(Landroid/view/View;)V",
      "targetMethod": "dalvik.system.DexClassLoader.loadClass(Ljava/lang/String;)Ljava/lang/Class;",
      "eventChain": [
        {
          "start": "jisuanji.byzm.b.onClick(Landroid/view/View;)V",
          "target": "PC@57",
          "type": "ui",
          "activities": [
            "cal.byzm.demo03"
          ],
          "listener": "jisuanji.byzm.b",
          "listenerMethod": "onClick",
          "uiType": "onClick",
          "constraintsFile": "constraints46_0.py",
          "variables": {},
          "stringMap": {},
          "strings": {}
        },
        {
          "start": "jisuanji.byzm.b.onClick(Landroid/view/View;)V",
          "target": "",
          "type": "ui",
          "activities": [
            "cal.byzm.demo03"
          ],
          "listener": "jisuanji.byzm.b",
          "listenerMethod": "onClick",
          "uiType": "onClick",
          "constraintsFile": "constraints46_1.py",
          "variables": {},
          "stringMap": {},
          "strings": {}
        },
        {
          "start": "jisuanji.byzm.b.onClick(Landroid/view/View;)V",
          "target": "",
          "type": "ui",
          "activities": [
            "cal.byzm.demo03"
          ],
          "listener": "jisuanji.byzm.b",
          "listenerMethod": "onClick",
          "uiType": "onClick",
          "constraintsFile": "constraints46_2.py",
          "variables": {},
          "stringMap": {},
          "strings": {}
        },
        {
          "start": "jisuanji.byzm.b.onClick(Landroid/view/View;)V",
          "target": "invokevirtual \u003c Application, Ldalvik/system/DexClassLoader, loadClass(Ljava/lang/String;)Ljava/lang/Class; \u003e@71",
          "type": "ui",
          "activities": [
            "cal.byzm.demo03"
          ],
          "listener": "jisuanji.byzm.b",
          "listenerMethod": "onClick",
          "uiType": "onClick",
          "constraintsFile": "constraints46_3.py",
          "variables": {},
          "stringMap": {},
          "strings": {}
        }
      ]
    },
    "47": {
      "startMethod": "jisuanji.byzm.b.onClick(Landroid/view/View;)V",
      "targetMethod": "java.lang.reflect.Method.invoke(Ljava/lang/Object;[Ljava/lang/Object;)Ljava/lang/Object;",
      "eventChain": [
        {
          "start": "jisuanji.byzm.b.onClick(Landroid/view/View;)V",
          "target": "invokevirtual \u003c Application, Ljava/lang/reflect/Method, invoke(Ljava/lang/Object;[Ljava/lang/Object;)Ljava/lang/Object; \u003e@208",
          "type": "ui",
          "activities": [
            "cal.byzm.demo03"
          ],
          "listener": "jisuanji.byzm.b",
          "listenerMethod": "onClick",
          "uiType": "onClick"
        }
      ]
    }
  }
}