{
  "packageName": "com.imohoo.badcat",
  "mainActivity": "cn.emagsoftware.gamebilling.activity.GameOpenActivity",
  "callPaths": {
    "0": {
      "startMethod": "cn.emagsoftware.gamebilling.activity.BillingActivity.onCreate(Landroid/os/Bundle;)V",
      "targetMethod": "java.lang.reflect.Method.invoke(Ljava/lang/Object;[Ljava/lang/Object;)Ljava/lang/Object;",
      "eventChain": [
        {
          "start": "cn.emagsoftware.gamebilling.activity.BillingActivity.onCreate(Landroid/os/Bundle;)V",
          "target": "invokevirtual \u003c Application, Ljava/lang/reflect/Method, invoke(Ljava/lang/Object;[Ljava/lang/Object;)Ljava/lang/Object; \u003e@285",
          "type": "activity",
          "component": "cn.emagsoftware.gamebilling.activity.BillingActivity"
        }
      ]
    },
    "1": {
      "startMethod": "cn.emagsoftware.gamebilling.activity.BillingActivity.onCreate(Landroid/os/Bundle;)V",
      "targetMethod": "java.lang.reflect.Method.invoke(Ljava/lang/Object;[Ljava/lang/Object;)Ljava/lang/Object;",
      "eventChain": [
        {
          "start": "cn.emagsoftware.gamebilling.activity.BillingActivity.onCreate(Landroid/os/Bundle;)V",
          "target": "invokevirtual \u003c Application, Ljava/lang/reflect/Method, invoke(Ljava/lang/Object;[Ljava/lang/Object;)Ljava/lang/Object; \u003e@85",
          "type": "activity",
          "component": "cn.emagsoftware.gamebilling.activity.BillingActivity"
        }
      ]
    },
    "2": {
      "startMethod": "cn.emagsoftware.gamebilling.activity.BillingActivity.onCreate(Landroid/os/Bundle;)V",
      "targetMethod": "java.lang.reflect.Method.invoke(Ljava/lang/Object;[Ljava/lang/Object;)Ljava/lang/Object;",
      "eventChain": [
        {
          "start": "cn.emagsoftware.gamebilling.activity.BillingActivity.onCreate(Landroid/os/Bundle;)V",
          "target": "invokevirtual \u003c Application, Ljava/lang/reflect/Method, invoke(Ljava/lang/Object;[Ljava/lang/Object;)Ljava/lang/Object; \u003e@86",
          "type": "activity",
          "component": "cn.emagsoftware.gamebilling.activity.BillingActivity"
        }
      ]
    },
    "3": {
      "startMethod": "cn.emagsoftware.gamebilling.activity.BillingActivity.onCreate(Landroid/os/Bundle;)V",
      "targetMethod": "java.lang.reflect.Method.invoke(Ljava/lang/Object;[Ljava/lang/Object;)Ljava/lang/Object;",
      "eventChain": [
        {
          "start": "cn.emagsoftware.gamebilling.activity.BillingActivity.onCreate(Landroid/os/Bundle;)V",
          "target": "invokevirtual \u003c Application, Ljava/lang/reflect/Method, invoke(Ljava/lang/Object;[Ljava/lang/Object;)Ljava/lang/Object; \u003e@140",
          "type": "activity",
          "component": "cn.emagsoftware.gamebilling.activity.BillingActivity"
        }
      ]
    },
    "4": {
      "startMethod": "cn.emagsoftware.gamebilling.activity.BillingActivity.onCreate(Landroid/os/Bundle;)V",
      "targetMethod": "java.lang.reflect.Method.invoke(Ljava/lang/Object;[Ljava/lang/Object;)Ljava/lang/Object;",
      "eventChain": [
        {
          "start": "cn.emagsoftware.gamebilling.activity.BillingActivity.onCreate(Landroid/os/Bundle;)V",
          "target": "invokevirtual \u003c Application, Ljava/lang/reflect/Method, invoke(Ljava/lang/Object;[Ljava/lang/Object;)Ljava/lang/Object; \u003e@96",
          "type": "activity",
          "component": "cn.emagsoftware.gamebilling.activity.BillingActivity"
        }
      ]
    },
    "5": {
      "startMethod": "cn.emagsoftware.gamebilling.activity.BillingActivity.onCreate(Landroid/os/Bundle;)V",
      "targetMethod": "java.lang.reflect.Method.invoke(Ljava/lang/Object;[Ljava/lang/Object;)Ljava/lang/Object;",
      "eventChain": [
        {
          "start": "cn.emagsoftware.gamebilling.activity.BillingActivity.onCreate(Landroid/os/Bundle;)V",
          "target": "invokevirtual \u003c Application, Ljava/lang/reflect/Method, invoke(Ljava/lang/Object;[Ljava/lang/Object;)Ljava/lang/Object; \u003e@239",
          "type": "activity",
          "component": "cn.emagsoftware.gamebilling.activity.BillingActivity"
        }
      ]
    },
    "6": {
      "startMethod": "cn.emagsoftware.gamebilling.activity.BillingActivity.onCreate(Landroid/os/Bundle;)V",
      "targetMethod": "java.lang.reflect.Method.invoke(Ljava/lang/Object;[Ljava/lang/Object;)Ljava/lang/Object;",
      "eventChain": [
        {
          "start": "cn.emagsoftware.gamebilling.activity.BillingActivity.onCreate(Landroid/os/Bundle;)V",
          "target": "invokevirtual \u003c Application, Ljava/lang/reflect/Method, invoke(Ljava/lang/Object;[Ljava/lang/Object;)Ljava/lang/Object; \u003e@123",
          "type": "activity",
          "component": "cn.emagsoftware.gamebilling.activity.BillingActivity"
        }
      ]
    },
    "7": {
      "startMethod": "cn.emagsoftware.gamecommunity.view.UserRegisterView$1.onClick(Landroid/view/View;)V",
      "targetMethod": "java.lang.reflect.Method.invoke(Ljava/lang/Object;[Ljava/lang/Object;)Ljava/lang/Object;",
      "eventChain": [
        {
          "start": "cn.emagsoftware.gamecommunity.view.UserRegisterView$1.onClick(Landroid/view/View;)V",
          "target": "invokevirtual \u003c Application, Ljava/lang/reflect/Method, invoke(Ljava/lang/Object;[Ljava/lang/Object;)Ljava/lang/Object; \u003e@92",
          "type": "ui",
          "activities": [
            "cn.emagsoftware.gamebilling.activity.GameOpenActivity"
          ],
          "listener": "cn.emagsoftware.gamecommunity.view.UserRegisterView$1",
          "listenerMethod": "onClick",
          "uiType": "onClick",
          "constraintsFile": "constraints7_0.py",
          "variables": {},
          "stringMap": {},
          "strings": {}
        }
      ]
    },
    "8": {
      "startMethod": "cn.emagsoftware.gamecommunity.view.UserRegisterView$1.onClick(Landroid/view/View;)V",
      "targetMethod": "java.lang.reflect.Method.invoke(Ljava/lang/Object;[Ljava/lang/Object;)Ljava/lang/Object;",
      "eventChain": [
        {
          "start": "cn.emagsoftware.gamecommunity.view.UserRegisterView$1.onClick(Landroid/view/View;)V",
          "target": "invokevirtual \u003c Application, Ljava/lang/reflect/Method, invoke(Ljava/lang/Object;[Ljava/lang/Object;)Ljava/lang/Object; \u003e@313",
          "type": "ui",
          "activities": [
            "cn.emagsoftware.gamebilling.activity.GameOpenActivity"
          ],
          "listener": "cn.emagsoftware.gamecommunity.view.UserRegisterView$1",
          "listenerMethod": "onClick",
          "uiType": "onClick",
          "constraintsFile": "constraints8_0.py",
          "variables": {},
          "stringMap": {},
          "strings": {}
        }
      ]
    },
    "9": {
      "startMethod": "cn.emagsoftware.gamecommunity.view.UserRegisterView$1.onClick(Landroid/view/View;)V",
      "targetMethod": "java.lang.reflect.Method.invoke(Ljava/lang/Object;[Ljava/lang/Object;)Ljava/lang/Object;",
      "eventChain": [
        {
          "start": "cn.emagsoftware.gamecommunity.view.UserRegisterView$1.onClick(Landroid/view/View;)V",
          "target": "invokevirtual \u003c Application, Ljava/lang/reflect/Method, invoke(Ljava/lang/Object;[Ljava/lang/Object;)Ljava/lang/Object; \u003e@151",
          "type": "ui",
          "activities": [
            "cn.emagsoftware.gamebilling.activity.GameOpenActivity"
          ],
          "listener": "cn.emagsoftware.gamecommunity.view.UserRegisterView$1",
          "listenerMethod": "onClick",
          "uiType": "onClick",
          "constraintsFile": "constraints9_0.py",
          "variables": {},
          "stringMap": {},
          "strings": {}
        }
      ]
    },
    "10": {
      "startMethod": "cn.emagsoftware.gamecommunity.view.UserRegisterView$1.onClick(Landroid/view/View;)V",
      "targetMethod": "java.lang.reflect.Method.invoke(Ljava/lang/Object;[Ljava/lang/Object;)Ljava/lang/Object;",
      "eventChain": [
        {
          "start": "cn.emagsoftware.gamecommunity.view.UserRegisterView$1.onClick(Landroid/view/View;)V",
          "target": "invokevirtual \u003c Application, Ljava/lang/reflect/Method, invoke(Ljava/lang/Object;[Ljava/lang/Object;)Ljava/lang/Object; \u003e@360",
          "type": "ui",
          "activities": [
            "cn.emagsoftware.gamebilling.activity.GameOpenActivity"
          ],
          "listener": "cn.emagsoftware.gamecommunity.view.UserRegisterView$1",
          "listenerMethod": "onClick",
          "uiType": "onClick",
          "constraintsFile": "constraints10_0.py",
          "variables": {},
          "stringMap": {},
          "strings": {}
        }
      ]
    },
    "11": {
      "startMethod": "cn.emagsoftware.gamecommunity.view.UserRegisterView$1.onClick(Landroid/view/View;)V",
      "targetMethod": "java.lang.reflect.Method.invoke(Ljava/lang/Object;[Ljava/lang/Object;)Ljava/lang/Object;",
      "eventChain": [
        {
          "start": "cn.emagsoftware.gamecommunity.view.UserRegisterView$1.onClick(Landroid/view/View;)V",
          "target": "invokevirtual \u003c Application, Ljava/lang/reflect/Method, invoke(Ljava/lang/Object;[Ljava/lang/Object;)Ljava/lang/Object; \u003e@260",
          "type": "ui",
          "activities": [
            "cn.emagsoftware.gamebilling.activity.GameOpenActivity"
          ],
          "listener": "cn.emagsoftware.gamecommunity.view.UserRegisterView$1",
          "listenerMethod": "onClick",
          "uiType": "onClick",
          "constraintsFile": "constraints11_0.py",
          "variables": {},
          "stringMap": {},
          "strings": {}
        }
      ]
    },
    "12": {
      "startMethod": "cn.emagsoftware.gamecommunity.view.UserRegisterView$1.onClick(Landroid/view/View;)V",
      "targetMethod": "android.telephony.SmsManager.sendTextMessage(Ljava/lang/String;Ljava/lang/String;Ljava/lang/String;Landroid/app/PendingIntent;Landroid/app/PendingIntent;)V",
      "eventChain": [
        {
          "start": "cn.emagsoftware.gamecommunity.view.UserRegisterView$1.onClick(Landroid/view/View;)V",
          "target": "invokevirtual \u003c Application, Landroid/telephony/SmsManager, sendTextMessage(Ljava/lang/String;Ljava/lang/String;Ljava/lang/String;Landroid/app/PendingIntent;Landroid/app/PendingIntent;)V \u003e@615",
          "type": "ui",
          "activities": [
            "cn.emagsoftware.gamebilling.activity.GameOpenActivity"
          ],
          "listener": "cn.emagsoftware.gamecommunity.view.UserRegisterView$1",
          "listenerMethod": "onClick",
          "uiType": "onClick",
          "constraintsFile": "constraints12_0.py",
          "variables": {},
          "stringMap": {},
          "strings": {}
        }
      ]
    },
    "13": {
      "startMethod": "cn.emagsoftware.gamecommunity.view.UserRegisterView$1.onClick(Landroid/view/View;)V",
      "targetMethod": "java.lang.reflect.Method.invoke(Ljava/lang/Object;[Ljava/lang/Object;)Ljava/lang/Object;",
      "eventChain": [
        {
          "start": "cn.emagsoftware.gamecommunity.view.UserRegisterView$1.onClick(Landroid/view/View;)V",
          "target": "invokevirtual \u003c Application, Ljava/lang/reflect/Method, invoke(Ljava/lang/Object;[Ljava/lang/Object;)Ljava/lang/Object; \u003e@537",
          "type": "ui",
          "activities": [
            "cn.emagsoftware.gamebilling.activity.GameOpenActivity"
          ],
          "listener": "cn.emagsoftware.gamecommunity.view.UserRegisterView$1",
          "listenerMethod": "onClick",
          "uiType": "onClick",
          "constraintsFile": "constraints13_0.py",
          "variables": {},
          "stringMap": {},
          "strings": {}
        }
      ]
    },
    "14": {
      "startMethod": "cn.emagsoftware.gamecommunity.view.UserRegisterView$1.onClick(Landroid/view/View;)V",
      "targetMethod": "java.lang.reflect.Method.invoke(Ljava/lang/Object;[Ljava/lang/Object;)Ljava/lang/Object;",
      "eventChain": [
        {
          "start": "cn.emagsoftware.gamecommunity.view.UserRegisterView$1.onClick(Landroid/view/View;)V",
          "target": "invokevirtual \u003c Application, Ljava/lang/reflect/Method, invoke(Ljava/lang/Object;[Ljava/lang/Object;)Ljava/lang/Object; \u003e@137",
          "type": "ui",
          "activities": [
            "cn.emagsoftware.gamebilling.activity.GameOpenActivity"
          ],
          "listener": "cn.emagsoftware.gamecommunity.view.UserRegisterView$1",
          "listenerMethod": "onClick",
          "uiType": "onClick",
          "constraintsFile": "constraints14_0.py",
          "variables": {},
          "stringMap": {},
          "strings": {}
        }
      ]
    },
    "15": {
      "startMethod": "cn.emagsoftware.gamecommunity.view.UserRegisterView$1.onClick(Landroid/view/View;)V",
      "targetMethod": "java.lang.reflect.Method.invoke(Ljava/lang/Object;[Ljava/lang/Object;)Ljava/lang/Object;",
      "eventChain": [
        {
          "start": "cn.emagsoftware.gamecommunity.view.UserRegisterView$1.onClick(Landroid/view/View;)V",
          "target": "invokevirtual \u003c Application, Ljava/lang/reflect/Method, invoke(Ljava/lang/Object;[Ljava/lang/Object;)Ljava/lang/Object; \u003e@266",
          "type": "ui",
          "activities": [
            "cn.emagsoftware.gamebilling.activity.GameOpenActivity"
          ],
          "listener": "cn.emagsoftware.gamecommunity.view.UserRegisterView$1",
          "listenerMethod": "onClick",
          "uiType": "onClick",
          "constraintsFile": "constraints15_0.py",
          "variables": {},
          "stringMap": {},
          "strings": {}
        }
      ]
    },
    "16": {
      "startMethod": "cn.emagsoftware.gamecommunity.view.UserRegisterView$1.onClick(Landroid/view/View;)V",
      "targetMethod": "java.lang.reflect.Method.invoke(Ljava/lang/Object;[Ljava/lang/Object;)Ljava/lang/Object;",
      "eventChain": [
        {
          "start": "cn.emagsoftware.gamecommunity.view.UserRegisterView$1.onClick(Landroid/view/View;)V",
          "target": "invokevirtual \u003c Application, Ljava/lang/reflect/Method, invoke(Ljava/lang/Object;[Ljava/lang/Object;)Ljava/lang/Object; \u003e@95",
          "type": "ui",
          "activities": [
            "cn.emagsoftware.gamebilling.activity.GameOpenActivity"
          ],
          "listener": "cn.emagsoftware.gamecommunity.view.UserRegisterView$1",
          "listenerMethod": "onClick",
          "uiType": "onClick",
          "constraintsFile": "constraints16_0.py",
          "variables": {},
          "stringMap": {},
          "strings": {}
        }
      ]
    },
    "17": {
      "startMethod": "cn.emagsoftware.gamecommunity.view.UserRegisterView$1.onClick(Landroid/view/View;)V",
      "targetMethod": "android.telephony.SmsManager.sendTextMessage(Ljava/lang/String;Ljava/lang/String;Ljava/lang/String;Landroid/app/PendingIntent;Landroid/app/PendingIntent;)V",
      "eventChain": [
        {
          "start": "cn.emagsoftware.gamecommunity.view.UserRegisterView$1.onClick(Landroid/view/View;)V",
          "target": "invokevirtual \u003c Application, Landroid/telephony/SmsManager, sendTextMessage(Ljava/lang/String;Ljava/lang/String;Ljava/lang/String;Landroid/app/PendingIntent;Landroid/app/PendingIntent;)V \u003e@578",
          "type": "ui",
          "activities": [
            "cn.emagsoftware.gamebilling.activity.GameOpenActivity"
          ],
          "listener": "cn.emagsoftware.gamecommunity.view.UserRegisterView$1",
          "listenerMethod": "onClick",
          "uiType": "onClick",
          "constraintsFile": "constraints17_0.py",
          "variables": {},
          "stringMap": {},
          "strings": {}
        }
      ]
    },
    "18": {
      "startMethod": "cn.emagsoftware.gamecommunity.view.UserRegisterView$1.onClick(Landroid/view/View;)V",
      "targetMethod": "java.lang.reflect.Method.invoke(Ljava/lang/Object;[Ljava/lang/Object;)Ljava/lang/Object;",
      "eventChain": [
        {
          "start": "cn.emagsoftware.gamecommunity.view.UserRegisterView$1.onClick(Landroid/view/View;)V",
          "target": "invokevirtual \u003c Application, Ljava/lang/reflect/Method, invoke(Ljava/lang/Object;[Ljava/lang/Object;)Ljava/lang/Object; \u003e@103",
          "type": "ui",
          "activities": [
            "cn.emagsoftware.gamebilling.activity.GameOpenActivity"
          ],
          "listener": "cn.emagsoftware.gamecommunity.view.UserRegisterView$1",
          "listenerMethod": "onClick",
          "uiType": "onClick",
          "constraintsFile": "constraints18_0.py",
          "variables": {},
          "stringMap": {},
          "strings": {}
        }
      ]
    },
    "19": {
      "startMethod": "cn.emagsoftware.gamebilling.view.BillingView$8.onClick(Landroid/view/View;)V",
      "targetMethod": "android.telephony.SmsManager.sendTextMessage(Ljava/lang/String;Ljava/lang/String;Ljava/lang/String;Landroid/app/PendingIntent;Landroid/app/PendingIntent;)V",
      "eventChain": [
        {
          "start": "cn.emagsoftware.gamebilling.activity.BillingActivity.onCreate(Landroid/os/Bundle;)V",
          "target": "invokevirtual \u003c Application, Landroid/widget/Button, setOnClickListener(Landroid/view/View$OnClickListener;)V \u003e@174",
          "type": "activity",
          "component": "cn.emagsoftware.gamebilling.activity.BillingActivity"
        },
        {
          "start": "cn.emagsoftware.gamebilling.view.BillingView$8.onClick(Landroid/view/View;)V",
          "target": "invokevirtual \u003c Application, Landroid/telephony/SmsManager, sendTextMessage(Ljava/lang/String;Ljava/lang/String;Ljava/lang/String;Landroid/app/PendingIntent;Landroid/app/PendingIntent;)V \u003e@605",
          "type": "ui",
          "activities": [
            "cn.emagsoftware.gamebilling.activity.GameOpenActivity"
          ],
          "listener": "cn.emagsoftware.gamebilling.view.BillingView$8",
          "listenerMethod": "onClick",
          "uiType": "onClick",
          "constraintsFile": "constraints19_0.py",
          "variables": {},
          "stringMap": {},
          "strings": {}
        }
      ]
    },
    "20": {
      "startMethod": "cn.emagsoftware.gamebilling.view.BillingView$8.onClick(Landroid/view/View;)V",
      "targetMethod": "java.lang.reflect.Method.invoke(Ljava/lang/Object;[Ljava/lang/Object;)Ljava/lang/Object;",
      "eventChain": [
        {
          "start": "cn.emagsoftware.gamebilling.activity.BillingActivity.onCreate(Landroid/os/Bundle;)V",
          "target": "invokevirtual \u003c Application, Landroid/widget/Button, setOnClickListener(Landroid/view/View$OnClickListener;)V \u003e@174",
          "type": "activity",
          "component": "cn.emagsoftware.gamebilling.activity.BillingActivity"
        },
        {
          "start": "cn.emagsoftware.gamebilling.view.BillingView$8.onClick(Landroid/view/View;)V",
          "target": "invokevirtual \u003c Application, Ljava/lang/reflect/Method, invoke(Ljava/lang/Object;[Ljava/lang/Object;)Ljava/lang/Object; \u003e@85",
          "type": "ui",
          "activities": [
            "cn.emagsoftware.gamebilling.activity.GameOpenActivity"
          ],
          "listener": "cn.emagsoftware.gamebilling.view.BillingView$8",
          "listenerMethod": "onClick",
          "uiType": "onClick",
          "constraintsFile": "constraints20_0.py",
          "variables": {},
          "stringMap": {},
          "strings": {}
        }
      ]
    },
    "21": {
      "startMethod": "cn.emagsoftware.gamebilling.view.BillingView$8.onClick(Landroid/view/View;)V",
      "targetMethod": "java.lang.reflect.Method.invoke(Ljava/lang/Object;[Ljava/lang/Object;)Ljava/lang/Object;",
      "eventChain": [
        {
          "start": "cn.emagsoftware.gamebilling.activity.BillingActivity.onCreate(Landroid/os/Bundle;)V",
          "target": "invokevirtual \u003c Application, Landroid/widget/Button, setOnClickListener(Landroid/view/View$OnClickListener;)V \u003e@174",
          "type": "activity",
          "component": "cn.emagsoftware.gamebilling.activity.BillingActivity"
        },
        {
          "start": "cn.emagsoftware.gamebilling.view.BillingView$8.onClick(Landroid/view/View;)V",
          "target": "invokevirtual \u003c Application, Ljava/lang/reflect/Method, invoke(Ljava/lang/Object;[Ljava/lang/Object;)Ljava/lang/Object; \u003e@65",
          "type": "ui",
          "activities": [
            "cn.emagsoftware.gamebilling.activity.GameOpenActivity"
          ],
          "listener": "cn.emagsoftware.gamebilling.view.BillingView$8",
          "listenerMethod": "onClick",
          "uiType": "onClick",
          "constraintsFile": "constraints21_0.py",
          "variables": {
            "\u003cDeviceID\u003e.isEmpty()": "IAAv2"
          },
          "stringMap": {},
          "strings": {}
        }
      ]
    },
    "22": {
      "startMethod": "cn.emagsoftware.gamebilling.view.BillingView$8.onClick(Landroid/view/View;)V",
      "targetMethod": "java.lang.reflect.Method.invoke(Ljava/lang/Object;[Ljava/lang/Object;)Ljava/lang/Object;",
      "eventChain": [
        {
          "start": "cn.emagsoftware.gamebilling.activity.BillingActivity.onCreate(Landroid/os/Bundle;)V",
          "target": "invokevirtual \u003c Application, Landroid/widget/Button, setOnClickListener(Landroid/view/View$OnClickListener;)V \u003e@174",
          "type": "activity",
          "component": "cn.emagsoftware.gamebilling.activity.BillingActivity"
        },
        {
          "start": "cn.emagsoftware.gamebilling.view.BillingView$8.onClick(Landroid/view/View;)V",
          "target": "invokevirtual \u003c Application, Ljava/lang/reflect/Method, invoke(Ljava/lang/Object;[Ljava/lang/Object;)Ljava/lang/Object; \u003e@140",
          "type": "ui",
          "activities": [
            "cn.emagsoftware.gamebilling.activity.GameOpenActivity"
          ],
          "listener": "cn.emagsoftware.gamebilling.view.BillingView$8",
          "listenerMethod": "onClick",
          "uiType": "onClick",
          "constraintsFile": "constraints22_0.py",
          "variables": {},
          "stringMap": {},
          "strings": {}
        }
      ]
    },
    "23": {
      "startMethod": "cn.emagsoftware.gamebilling.view.BillingView$8.onClick(Landroid/view/View;)V",
      "targetMethod": "java.lang.reflect.Method.invoke(Ljava/lang/Object;[Ljava/lang/Object;)Ljava/lang/Object;",
      "eventChain": [
        {
          "start": "cn.emagsoftware.gamebilling.activity.BillingActivity.onCreate(Landroid/os/Bundle;)V",
          "target": "invokevirtual \u003c Application, Landroid/widget/Button, setOnClickListener(Landroid/view/View$OnClickListener;)V \u003e@174",
          "type": "activity",
          "component": "cn.emagsoftware.gamebilling.activity.BillingActivity"
        },
        {
          "start": "cn.emagsoftware.gamebilling.view.BillingView$8.onClick(Landroid/view/View;)V",
          "target": "invokevirtual \u003c Application, Ljava/lang/reflect/Method, invoke(Ljava/lang/Object;[Ljava/lang/Object;)Ljava/lang/Object; \u003e@123",
          "type": "ui",
          "activities": [
            "cn.emagsoftware.gamebilling.activity.GameOpenActivity"
          ],
          "listener": "cn.emagsoftware.gamebilling.view.BillingView$8",
          "listenerMethod": "onClick",
          "uiType": "onClick",
          "constraintsFile": "constraints23_0.py",
          "variables": {},
          "stringMap": {},
          "strings": {}
        }
      ]
    },
    "24": {
      "startMethod": "cn.emagsoftware.gamebilling.view.BillingView$8.onClick(Landroid/view/View;)V",
      "targetMethod": "java.lang.reflect.Method.invoke(Ljava/lang/Object;[Ljava/lang/Object;)Ljava/lang/Object;",
      "eventChain": [
        {
          "start": "cn.emagsoftware.gamebilling.activity.BillingActivity.onCreate(Landroid/os/Bundle;)V",
          "target": "invokevirtual \u003c Application, Landroid/widget/Button, setOnClickListener(Landroid/view/View$OnClickListener;)V \u003e@174",
          "type": "activity",
          "component": "cn.emagsoftware.gamebilling.activity.BillingActivity"
        },
        {
          "start": "cn.emagsoftware.gamebilling.view.BillingView$8.onClick(Landroid/view/View;)V",
          "target": "invokevirtual \u003c Application, Ljava/lang/reflect/Method, invoke(Ljava/lang/Object;[Ljava/lang/Object;)Ljava/lang/Object; \u003e@86",
          "type": "ui",
          "activities": [
            "cn.emagsoftware.gamebilling.activity.GameOpenActivity"
          ],
          "listener": "cn.emagsoftware.gamebilling.view.BillingView$8",
          "listenerMethod": "onClick",
          "uiType": "onClick",
          "constraintsFile": "constraints24_0.py",
          "variables": {},
          "stringMap": {},
          "strings": {}
        }
      ]
    },
    "25": {
      "startMethod": "cn.emagsoftware.gamebilling.view.BillingView$8.onClick(Landroid/view/View;)V",
      "targetMethod": "android.telephony.SmsManager.sendTextMessage(Ljava/lang/String;Ljava/lang/String;Ljava/lang/String;Landroid/app/PendingIntent;Landroid/app/PendingIntent;)V",
      "eventChain": [
        {
          "start": "cn.emagsoftware.gamebilling.activity.BillingActivity.onCreate(Landroid/os/Bundle;)V",
          "target": "invokevirtual \u003c Application, Landroid/widget/Button, setOnClickListener(Landroid/view/View$OnClickListener;)V \u003e@174",
          "type": "activity",
          "component": "cn.emagsoftware.gamebilling.activity.BillingActivity"
        },
        {
          "start": "cn.emagsoftware.gamebilling.view.BillingView$8.onClick(Landroid/view/View;)V",
          "target": "invokevirtual \u003c Application, Landroid/telephony/SmsManager, sendTextMessage(Ljava/lang/String;Ljava/lang/String;Ljava/lang/String;Landroid/app/PendingIntent;Landroid/app/PendingIntent;)V \u003e@562",
          "type": "ui",
          "activities": [
            "cn.emagsoftware.gamebilling.activity.GameOpenActivity"
          ],
          "listener": "cn.emagsoftware.gamebilling.view.BillingView$8",
          "listenerMethod": "onClick",
          "uiType": "onClick",
          "constraintsFile": "constraints25_0.py",
          "variables": {},
          "stringMap": {},
          "strings": {}
        }
      ]
    },
    "26": {
      "startMethod": "cn.emagsoftware.gamebilling.view.BillingView$8.onClick(Landroid/view/View;)V",
      "targetMethod": "java.lang.reflect.Method.invoke(Ljava/lang/Object;[Ljava/lang/Object;)Ljava/lang/Object;",
      "eventChain": [
        {
          "start": "cn.emagsoftware.gamebilling.activity.BillingActivity.onCreate(Landroid/os/Bundle;)V",
          "target": "invokevirtual \u003c Application, Landroid/widget/Button, setOnClickListener(Landroid/view/View$OnClickListener;)V \u003e@174",
          "type": "activity",
          "component": "cn.emagsoftware.gamebilling.activity.BillingActivity"
        },
        {
          "start": "cn.emagsoftware.gamebilling.view.BillingView$8.onClick(Landroid/view/View;)V",
          "target": "invokevirtual \u003c Application, Ljava/lang/reflect/Method, invoke(Ljava/lang/Object;[Ljava/lang/Object;)Ljava/lang/Object; \u003e@521",
          "type": "ui",
          "activities": [
            "cn.emagsoftware.gamebilling.activity.GameOpenActivity"
          ],
          "listener": "cn.emagsoftware.gamebilling.view.BillingView$8",
          "listenerMethod": "onClick",
          "uiType": "onClick",
          "constraintsFile": "constraints26_0.py",
          "variables": {},
          "stringMap": {},
          "strings": {}
        }
      ]
    },
    "27": {
      "startMethod": "cn.emagsoftware.gamebilling.view.BillingView$8.onClick(Landroid/view/View;)V",
      "targetMethod": "java.lang.reflect.Method.invoke(Ljava/lang/Object;[Ljava/lang/Object;)Ljava/lang/Object;",
      "eventChain": [
        {
          "start": "cn.emagsoftware.gamebilling.activity.BillingActivity.onCreate(Landroid/os/Bundle;)V",
          "target": "invokevirtual \u003c Application, Landroid/widget/Button, setOnClickListener(Landroid/view/View$OnClickListener;)V \u003e@174",
          "type": "activity",
          "component": "cn.emagsoftware.gamebilling.activity.BillingActivity"
        },
        {
          "start": "cn.emagsoftware.gamebilling.view.BillingView$8.onClick(Landroid/view/View;)V",
          "target": "invokevirtual \u003c Application, Ljava/lang/reflect/Method, invoke(Ljava/lang/Object;[Ljava/lang/Object;)Ljava/lang/Object; \u003e@344",
          "type": "ui",
          "activities": [
            "cn.emagsoftware.gamebilling.activity.GameOpenActivity"
          ],
          "listener": "cn.emagsoftware.gamebilling.view.BillingView$8",
          "listenerMethod": "onClick",
          "uiType": "onClick",
          "constraintsFile": "constraints27_0.py",
          "variables": {},
          "stringMap": {},
          "strings": {}
        }
      ]
    },
    "28": {
      "startMethod": "cn.emagsoftware.gamebilling.view.BillingView$8.onClick(Landroid/view/View;)V",
      "targetMethod": "java.lang.reflect.Method.invoke(Ljava/lang/Object;[Ljava/lang/Object;)Ljava/lang/Object;",
      "eventChain": [
        {
          "start": "cn.emagsoftware.gamebilling.activity.BillingActivity.onCreate(Landroid/os/Bundle;)V",
          "target": "invokevirtual \u003c Application, Landroid/widget/Button, setOnClickListener(Landroid/view/View$OnClickListener;)V \u003e@174",
          "type": "activity",
          "component": "cn.emagsoftware.gamebilling.activity.BillingActivity"
        },
        {
          "start": "cn.emagsoftware.gamebilling.view.BillingView$8.onClick(Landroid/view/View;)V",
          "target": "invokevirtual \u003c Application, Ljava/lang/reflect/Method, invoke(Ljava/lang/Object;[Ljava/lang/Object;)Ljava/lang/Object; \u003e@239",
          "type": "ui",
          "activities": [
            "cn.emagsoftware.gamebilling.activity.GameOpenActivity"
          ],
          "listener": "cn.emagsoftware.gamebilling.view.BillingView$8",
          "listenerMethod": "onClick",
          "uiType": "onClick",
          "constraintsFile": "constraints28_0.py",
          "variables": {},
          "stringMap": {},
          "strings": {}
        }
      ]
    },
    "29": {
      "startMethod": "cn.emagsoftware.gamebilling.view.BillingView$8.onClick(Landroid/view/View;)V",
      "targetMethod": "java.lang.reflect.Method.invoke(Ljava/lang/Object;[Ljava/lang/Object;)Ljava/lang/Object;",
      "eventChain": [
        {
          "start": "cn.emagsoftware.gamebilling.activity.BillingActivity.onCreate(Landroid/os/Bundle;)V",
          "target": "invokevirtual \u003c Application, Landroid/widget/Button, setOnClickListener(Landroid/view/View$OnClickListener;)V \u003e@174",
          "type": "activity",
          "component": "cn.emagsoftware.gamebilling.activity.BillingActivity"
        },
        {
          "start": "cn.emagsoftware.gamebilling.view.BillingView$8.onClick(Landroid/view/View;)V",
          "target": "invokevirtual \u003c Application, Ljava/lang/reflect/Method, invoke(Ljava/lang/Object;[Ljava/lang/Object;)Ljava/lang/Object; \u003e@96",
          "type": "ui",
          "activities": [
            "cn.emagsoftware.gamebilling.activity.GameOpenActivity"
          ],
          "listener": "cn.emagsoftware.gamebilling.view.BillingView$8",
          "listenerMethod": "onClick",
          "uiType": "onClick",
          "constraintsFile": "constraints29_0.py",
          "variables": {},
          "stringMap": {},
          "strings": {}
        }
      ]
    },
    "30": {
      "startMethod": "cn.emagsoftware.gamebilling.view.BillingView$8.onClick(Landroid/view/View;)V",
      "targetMethod": "java.lang.reflect.Method.invoke(Ljava/lang/Object;[Ljava/lang/Object;)Ljava/lang/Object;",
      "eventChain": [
        {
          "start": "cn.emagsoftware.gamebilling.activity.BillingActivity.onCreate(Landroid/os/Bundle;)V",
          "target": "invokevirtual \u003c Application, Landroid/widget/Button, setOnClickListener(Landroid/view/View$OnClickListener;)V \u003e@174",
          "type": "activity",
          "component": "cn.emagsoftware.gamebilling.activity.BillingActivity"
        },
        {
          "start": "cn.emagsoftware.gamebilling.view.BillingView$8.onClick(Landroid/view/View;)V",
          "target": "invokevirtual \u003c Application, Ljava/lang/reflect/Method, invoke(Ljava/lang/Object;[Ljava/lang/Object;)Ljava/lang/Object; \u003e@250",
          "type": "ui",
          "activities": [
            "cn.emagsoftware.gamebilling.activity.GameOpenActivity"
          ],
          "listener": "cn.emagsoftware.gamebilling.view.BillingView$8",
          "listenerMethod": "onClick",
          "uiType": "onClick",
          "constraintsFile": "constraints30_0.py",
          "variables": {},
          "stringMap": {},
          "strings": {}
        }
      ]
    },
    "31": {
      "startMethod": "cn.emagsoftware.gamebilling.view.BillingView$8.onClick(Landroid/view/View;)V",
      "targetMethod": "java.lang.reflect.Method.invoke(Ljava/lang/Object;[Ljava/lang/Object;)Ljava/lang/Object;",
      "eventChain": [
        {
          "start": "cn.emagsoftware.gamebilling.activity.BillingActivity.onCreate(Landroid/os/Bundle;)V",
          "target": "invokevirtual \u003c Application, Landroid/widget/Button, setOnClickListener(Landroid/view/View$OnClickListener;)V \u003e@174",
          "type": "activity",
          "component": "cn.emagsoftware.gamebilling.activity.BillingActivity"
        },
        {
          "start": "cn.emagsoftware.gamebilling.view.BillingView$8.onClick(Landroid/view/View;)V",
          "target": "invokevirtual \u003c Application, Ljava/lang/reflect/Method, invoke(Ljava/lang/Object;[Ljava/lang/Object;)Ljava/lang/Object; \u003e@285",
          "type": "ui",
          "activities": [
            "cn.emagsoftware.gamebilling.activity.GameOpenActivity"
          ],
          "listener": "cn.emagsoftware.gamebilling.view.BillingView$8",
          "listenerMethod": "onClick",
          "uiType": "onClick",
          "constraintsFile": "constraints31_0.py",
          "variables": {},
          "stringMap": {},
          "strings": {}
        }
      ]
    },
    "32": {
      "startMethod": "cn.emagsoftware.sdk.sms.SmsSendCallback.onReceive(Landroid/content/Context;Landroid/content/Intent;)V",
      "targetMethod": "java.lang.reflect.Method.invoke(Ljava/lang/Object;[Ljava/lang/Object;)Ljava/lang/Object;",
      "eventChain": [
        {
          "start": "cn.emagsoftware.sdk.sms.SmsSendCallback.onReceive(Landroid/content/Context;Landroid/content/Intent;)V",
          "target": "invokevirtual \u003c Application, Lcn/emagsoftware/sdk/sms/SmsSendCallback, getResultCode()I \u003e@23",
          "type": "sms",
          "constraintsFile": "constraints32_0.py",
          "variables": {},
          "stringMap": {},
          "strings": {}
        },
        {
          "start": "cn.emagsoftware.gamebilling.view.BillingView$8.onClick(Landroid/view/View;)V",
          "target": "PC@66",
          "type": "ui",
          "activities": [
            "cn.emagsoftware.gamebilling.activity.GameOpenActivity"
          ],
          "listener": "cn.emagsoftware.gamebilling.view.BillingView$8",
          "listenerMethod": "onClick",
          "uiType": "onClick",
          "constraintsFile": "constraints32_1.py",
          "variables": {
            "\u003cChainedInput2\u003e.getAction()": "IAAv3",
            "\u003cChainedInput2\u003e.getIntExtra()": "IAAv2"
          },
          "stringMap": {
            "7000": "cn.emagsoftware.telephony.SMS_SENT",
            "7001": "-2"
          },
          "strings": {
            "IAAv3": "",
            "IAAv6": ""
          }
        },
        {
          "start": "cn.emagsoftware.gamebilling.view.BillingView$8.onClick(Landroid/view/View;)V",
          "target": "PC@37",
          "type": "ui",
          "activities": [
            "cn.emagsoftware.gamebilling.activity.GameOpenActivity"
          ],
          "listener": "cn.emagsoftware.gamebilling.view.BillingView$8",
          "listenerMethod": "onClick",
          "uiType": "onClick",
          "constraintsFile": "constraints32_2.py",
          "variables": {
            "\u003cChainedInput2\u003e.getAction()": "IAAv1"
          },
          "stringMap": {
            "7000": "cn.emagsoftware.telephony.SMS_SENT",
            "7001": "-2"
          },
          "strings": {
            "IAAv4": "",
            "IAAv1": ""
          }
        },
        {
          "start": "cn.emagsoftware.sdk.sms.SmsSendCallback.onReceive(Landroid/content/Context;Landroid/content/Intent;)V",
          "target": "invokevirtual \u003c Application, Ljava/lang/reflect/Method, invoke(Ljava/lang/Object;[Ljava/lang/Object;)Ljava/lang/Object; \u003e@285",
          "type": "sms",
          "constraintsFile": "constraints32_3.py",
          "variables": {
            "\u003cChainedInput2\u003e.getIntExtra()": "IAAv2",
            "\u003cChainedInput2\u003e.getAction()": "IAAv3"
          },
          "stringMap": {
            "7000": "cn.emagsoftware.telephony.SMS_SENT",
            "7001": "-2"
          },
          "strings": {
            "IAAv3": "",
            "IAAv6": ""
          }
        }
      ]
    },
    "33": {
      "startMethod": "cn.emagsoftware.sdk.sms.SmsSendCallback.onReceive(Landroid/content/Context;Landroid/content/Intent;)V",
      "targetMethod": "java.lang.reflect.Method.invoke(Ljava/lang/Object;[Ljava/lang/Object;)Ljava/lang/Object;",
      "eventChain": [
        {
          "start": "cn.emagsoftware.sdk.sms.SmsSendCallback.onReceive(Landroid/content/Context;Landroid/content/Intent;)V",
          "target": "invokevirtual \u003c Application, Lcn/emagsoftware/sdk/sms/SmsSendCallback, getResultCode()I \u003e@23",
          "type": "sms",
          "constraintsFile": "constraints33_0.py",
          "variables": {},
          "stringMap": {},
          "strings": {}
        },
        {
          "start": "cn.emagsoftware.gamebilling.view.BillingView$8.onClick(Landroid/view/View;)V",
          "target": "PC@66",
          "type": "ui",
          "activities": [
            "cn.emagsoftware.gamebilling.activity.GameOpenActivity"
          ],
          "listener": "cn.emagsoftware.gamebilling.view.BillingView$8",
          "listenerMethod": "onClick",
          "uiType": "onClick",
          "constraintsFile": "constraints33_1.py",
          "variables": {
            "\u003cChainedInput2\u003e.getAction()": "IAAv3",
            "\u003cChainedInput2\u003e.getIntExtra()": "IAAv2"
          },
          "stringMap": {
            "7000": "cn.emagsoftware.telephony.SMS_SENT",
            "7001": "-2"
          },
          "strings": {
            "IAAv3": "",
            "IAAv6": ""
          }
        },
        {
          "start": "cn.emagsoftware.gamebilling.view.BillingView$8.onClick(Landroid/view/View;)V",
          "target": "PC@37",
          "type": "ui",
          "activities": [
            "cn.emagsoftware.gamebilling.activity.GameOpenActivity"
          ],
          "listener": "cn.emagsoftware.gamebilling.view.BillingView$8",
          "listenerMethod": "onClick",
          "uiType": "onClick",
          "constraintsFile": "constraints33_2.py",
          "variables": {
            "\u003cChainedInput2\u003e.getAction()": "IAAv1"
          },
          "stringMap": {
            "7000": "cn.emagsoftware.telephony.SMS_SENT",
            "7001": "-2"
          },
          "strings": {
            "IAAv4": "",
            "IAAv1": ""
          }
        },
        {
          "start": "cn.emagsoftware.sdk.sms.SmsSendCallback.onReceive(Landroid/content/Context;Landroid/content/Intent;)V",
          "target": "invokevirtual \u003c Application, Ljava/lang/reflect/Method, invoke(Ljava/lang/Object;[Ljava/lang/Object;)Ljava/lang/Object; \u003e@239",
          "type": "sms",
          "constraintsFile": "constraints33_3.py",
          "variables": {
            "\u003cChainedInput2\u003e.getIntExtra()": "IAAv2",
            "\u003cChainedInput2\u003e.getAction()": "IAAv3"
          },
          "stringMap": {
            "7000": "cn.emagsoftware.telephony.SMS_SENT",
            "7001": "-2"
          },
          "strings": {
            "IAAv3": "",
            "IAAv6": ""
          }
        }
      ]
    },
    "34": {
      "startMethod": "cn.emagsoftware.sdk.sms.SmsSendCallback.onReceive(Landroid/content/Context;Landroid/content/Intent;)V",
      "targetMethod": "java.lang.reflect.Method.invoke(Ljava/lang/Object;[Ljava/lang/Object;)Ljava/lang/Object;",
      "eventChain": [
        {
          "start": "cn.emagsoftware.sdk.sms.SmsSendCallback.onReceive(Landroid/content/Context;Landroid/content/Intent;)V",
          "target": "invokevirtual \u003c Application, Lcn/emagsoftware/sdk/sms/SmsSendCallback, getResultCode()I \u003e@23",
          "type": "sms",
          "constraintsFile": "constraints34_0.py",
          "variables": {},
          "stringMap": {},
          "strings": {}
        },
        {
          "start": "cn.emagsoftware.gamebilling.view.BillingView$8.onClick(Landroid/view/View;)V",
          "target": "PC@66",
          "type": "ui",
          "activities": [
            "cn.emagsoftware.gamebilling.activity.GameOpenActivity"
          ],
          "listener": "cn.emagsoftware.gamebilling.view.BillingView$8",
          "listenerMethod": "onClick",
          "uiType": "onClick",
          "constraintsFile": "constraints34_1.py",
          "variables": {
            "\u003cChainedInput2\u003e.getAction()": "IAAv3",
            "\u003cChainedInput2\u003e.getIntExtra()": "IAAv2"
          },
          "stringMap": {
            "7000": "cn.emagsoftware.telephony.SMS_SENT",
            "7001": "-2"
          },
          "strings": {
            "IAAv3": "",
            "IAAv6": ""
          }
        },
        {
          "start": "cn.emagsoftware.gamebilling.view.BillingView$8.onClick(Landroid/view/View;)V",
          "target": "PC@37",
          "type": "ui",
          "activities": [
            "cn.emagsoftware.gamebilling.activity.GameOpenActivity"
          ],
          "listener": "cn.emagsoftware.gamebilling.view.BillingView$8",
          "listenerMethod": "onClick",
          "uiType": "onClick",
          "constraintsFile": "constraints34_2.py",
          "variables": {
            "\u003cChainedInput2\u003e.getAction()": "IAAv1"
          },
          "stringMap": {
            "7000": "cn.emagsoftware.telephony.SMS_SENT",
            "7001": "-2"
          },
          "strings": {
            "IAAv4": "",
            "IAAv1": ""
          }
        },
        {
          "start": "cn.emagsoftware.sdk.sms.SmsSendCallback.onReceive(Landroid/content/Context;Landroid/content/Intent;)V",
          "target": "invokevirtual \u003c Application, Ljava/lang/reflect/Method, invoke(Ljava/lang/Object;[Ljava/lang/Object;)Ljava/lang/Object; \u003e@85",
          "type": "sms",
          "constraintsFile": "constraints34_3.py",
          "variables": {
            "\u003cChainedInput2\u003e.getIntExtra()": "IAAv2",
            "\u003cChainedInput2\u003e.getAction()": "IAAv3"
          },
          "stringMap": {
            "7000": "cn.emagsoftware.telephony.SMS_SENT",
            "7001": "-2"
          },
          "strings": {
            "IAAv3": "",
            "IAAv6": ""
          }
        }
      ]
    },
    "35": {
      "startMethod": "cn.emagsoftware.sdk.sms.SmsSendCallback.onReceive(Landroid/content/Context;Landroid/content/Intent;)V",
      "targetMethod": "java.lang.reflect.Method.invoke(Ljava/lang/Object;[Ljava/lang/Object;)Ljava/lang/Object;",
      "eventChain": [
        {
          "start": "cn.emagsoftware.sdk.sms.SmsSendCallback.onReceive(Landroid/content/Context;Landroid/content/Intent;)V",
          "target": "invokevirtual \u003c Application, Lcn/emagsoftware/sdk/sms/SmsSendCallback, getResultCode()I \u003e@23",
          "type": "sms",
          "constraintsFile": "constraints35_0.py",
          "variables": {},
          "stringMap": {},
          "strings": {}
        },
        {
          "start": "cn.emagsoftware.gamebilling.view.BillingView$8.onClick(Landroid/view/View;)V",
          "target": "PC@66",
          "type": "ui",
          "activities": [
            "cn.emagsoftware.gamebilling.activity.GameOpenActivity"
          ],
          "listener": "cn.emagsoftware.gamebilling.view.BillingView$8",
          "listenerMethod": "onClick",
          "uiType": "onClick",
          "constraintsFile": "constraints35_1.py",
          "variables": {
            "\u003cChainedInput2\u003e.getAction()": "IAAv3",
            "\u003cChainedInput2\u003e.getIntExtra()": "IAAv2"
          },
          "stringMap": {
            "7000": "cn.emagsoftware.telephony.SMS_SENT",
            "7001": "-2"
          },
          "strings": {
            "IAAv3": "",
            "IAAv6": ""
          }
        },
        {
          "start": "cn.emagsoftware.gamebilling.view.BillingView$8.onClick(Landroid/view/View;)V",
          "target": "PC@37",
          "type": "ui",
          "activities": [
            "cn.emagsoftware.gamebilling.activity.GameOpenActivity"
          ],
          "listener": "cn.emagsoftware.gamebilling.view.BillingView$8",
          "listenerMethod": "onClick",
          "uiType": "onClick",
          "constraintsFile": "constraints35_2.py",
          "variables": {
            "\u003cChainedInput2\u003e.getAction()": "IAAv1"
          },
          "stringMap": {
            "7000": "cn.emagsoftware.telephony.SMS_SENT",
            "7001": "-2"
          },
          "strings": {
            "IAAv4": "",
            "IAAv1": ""
          }
        },
        {
          "start": "cn.emagsoftware.sdk.sms.SmsSendCallback.onReceive(Landroid/content/Context;Landroid/content/Intent;)V",
          "target": "invokevirtual \u003c Application, Ljava/lang/reflect/Method, invoke(Ljava/lang/Object;[Ljava/lang/Object;)Ljava/lang/Object; \u003e@96",
          "type": "sms",
          "constraintsFile": "constraints35_3.py",
          "variables": {
            "\u003cChainedInput2\u003e.getIntExtra()": "IAAv2",
            "\u003cChainedInput2\u003e.getAction()": "IAAv3"
          },
          "stringMap": {
            "7000": "cn.emagsoftware.telephony.SMS_SENT",
            "7001": "-2"
          },
          "strings": {
            "IAAv3": "",
            "IAAv6": ""
          }
        }
      ]
    },
    "36": {
      "startMethod": "cn.emagsoftware.sdk.sms.SmsSendCallback.onReceive(Landroid/content/Context;Landroid/content/Intent;)V",
      "targetMethod": "java.lang.reflect.Method.invoke(Ljava/lang/Object;[Ljava/lang/Object;)Ljava/lang/Object;",
      "eventChain": [
        {
          "start": "cn.emagsoftware.sdk.sms.SmsSendCallback.onReceive(Landroid/content/Context;Landroid/content/Intent;)V",
          "target": "invokevirtual \u003c Application, Lcn/emagsoftware/sdk/sms/SmsSendCallback, getResultCode()I \u003e@23",
          "type": "sms",
          "constraintsFile": "constraints36_0.py",
          "variables": {},
          "stringMap": {},
          "strings": {}
        },
        {
          "start": "cn.emagsoftware.gamebilling.view.BillingView$8.onClick(Landroid/view/View;)V",
          "target": "PC@66",
          "type": "ui",
          "activities": [
            "cn.emagsoftware.gamebilling.activity.GameOpenActivity"
          ],
          "listener": "cn.emagsoftware.gamebilling.view.BillingView$8",
          "listenerMethod": "onClick",
          "uiType": "onClick",
          "constraintsFile": "constraints36_1.py",
          "variables": {
            "\u003cChainedInput2\u003e.getAction()": "IAAv3",
            "\u003cChainedInput2\u003e.getIntExtra()": "IAAv2",
            "\u003cDeviceID\u003e.isEmpty()": "IAAv13"
          },
          "stringMap": {
            "7000": "cn.emagsoftware.telephony.SMS_SENT",
            "7001": "-2"
          },
          "strings": {
            "IAAv3": "",
            "IAAv6": ""
          }
        },
        {
          "start": "cn.emagsoftware.gamebilling.view.BillingView$8.onClick(Landroid/view/View;)V",
          "target": "PC@37",
          "type": "ui",
          "activities": [
            "cn.emagsoftware.gamebilling.activity.GameOpenActivity"
          ],
          "listener": "cn.emagsoftware.gamebilling.view.BillingView$8",
          "listenerMethod": "onClick",
          "uiType": "onClick",
          "constraintsFile": "constraints36_2.py",
          "variables": {
            "\u003cChainedInput2\u003e.getAction()": "IAAv1",
            "\u003cDeviceID\u003e.isEmpty()": "IAAv11"
          },
          "stringMap": {
            "7000": "cn.emagsoftware.telephony.SMS_SENT",
            "7001": "-2"
          },
          "strings": {
            "IAAv4": "",
            "IAAv1": ""
          }
        },
        {
          "start": "cn.emagsoftware.sdk.sms.SmsSendCallback.onReceive(Landroid/content/Context;Landroid/content/Intent;)V",
          "target": "invokevirtual \u003c Application, Ljava/lang/reflect/Method, invoke(Ljava/lang/Object;[Ljava/lang/Object;)Ljava/lang/Object; \u003e@65",
          "type": "sms",
          "constraintsFile": "constraints36_3.py",
          "variables": {
            "\u003cChainedInput2\u003e.getAction()": "IAAv3",
            "\u003cChainedInput2\u003e.getIntExtra()": "IAAv2",
            "\u003cDeviceID\u003e.isEmpty()": "IAAv13"
          },
          "stringMap": {
            "7000": "cn.emagsoftware.telephony.SMS_SENT",
            "7001": "-2"
          },
          "strings": {
            "IAAv3": "",
            "IAAv6": ""
          }
        }
      ]
    },
    "37": {
      "startMethod": "cn.emagsoftware.sdk.sms.SmsSendCallback.onReceive(Landroid/content/Context;Landroid/content/Intent;)V",
      "targetMethod": "java.lang.reflect.Method.invoke(Ljava/lang/Object;[Ljava/lang/Object;)Ljava/lang/Object;",
      "eventChain": [
        {
          "start": "cn.emagsoftware.sdk.sms.SmsSendCallback.onReceive(Landroid/content/Context;Landroid/content/Intent;)V",
          "target": "invokevirtual \u003c Application, Lcn/emagsoftware/sdk/sms/SmsSendCallback, getResultCode()I \u003e@23",
          "type": "sms",
          "constraintsFile": "constraints37_0.py",
          "variables": {},
          "stringMap": {},
          "strings": {}
        },
        {
          "start": "cn.emagsoftware.gamebilling.view.BillingView$8.onClick(Landroid/view/View;)V",
          "target": "PC@66",
          "type": "ui",
          "activities": [
            "cn.emagsoftware.gamebilling.activity.GameOpenActivity"
          ],
          "listener": "cn.emagsoftware.gamebilling.view.BillingView$8",
          "listenerMethod": "onClick",
          "uiType": "onClick",
          "constraintsFile": "constraints37_1.py",
          "variables": {
            "\u003cChainedInput2\u003e.getAction()": "IAAv3",
            "\u003cChainedInput2\u003e.getIntExtra()": "IAAv2"
          },
          "stringMap": {
            "7000": "cn.emagsoftware.telephony.SMS_SENT",
            "7001": "-2"
          },
          "strings": {
            "IAAv3": "",
            "IAAv6": ""
          }
        },
        {
          "start": "cn.emagsoftware.gamebilling.view.BillingView$8.onClick(Landroid/view/View;)V",
          "target": "PC@37",
          "type": "ui",
          "activities": [
            "cn.emagsoftware.gamebilling.activity.GameOpenActivity"
          ],
          "listener": "cn.emagsoftware.gamebilling.view.BillingView$8",
          "listenerMethod": "onClick",
          "uiType": "onClick",
          "constraintsFile": "constraints37_2.py",
          "variables": {
            "\u003cChainedInput2\u003e.getAction()": "IAAv1"
          },
          "stringMap": {
            "7000": "cn.emagsoftware.telephony.SMS_SENT",
            "7001": "-2"
          },
          "strings": {
            "IAAv4": "",
            "IAAv1": ""
          }
        },
        {
          "start": "cn.emagsoftware.sdk.sms.SmsSendCallback.onReceive(Landroid/content/Context;Landroid/content/Intent;)V",
          "target": "invokevirtual \u003c Application, Ljava/lang/reflect/Method, invoke(Ljava/lang/Object;[Ljava/lang/Object;)Ljava/lang/Object; \u003e@86",
          "type": "sms",
          "constraintsFile": "constraints37_3.py",
          "variables": {
            "\u003cChainedInput2\u003e.getIntExtra()": "IAAv2",
            "\u003cChainedInput2\u003e.getAction()": "IAAv3"
          },
          "stringMap": {
            "7000": "cn.emagsoftware.telephony.SMS_SENT",
            "7001": "-2"
          },
          "strings": {
            "IAAv3": "",
            "IAAv6": ""
          }
        }
      ]
    },
    "38": {
      "startMethod": "cn.emagsoftware.sdk.sms.SmsSendCallback.onReceive(Landroid/content/Context;Landroid/content/Intent;)V",
      "targetMethod": "java.lang.reflect.Method.invoke(Ljava/lang/Object;[Ljava/lang/Object;)Ljava/lang/Object;",
      "eventChain": [
        {
          "start": "cn.emagsoftware.sdk.sms.SmsSendCallback.onReceive(Landroid/content/Context;Landroid/content/Intent;)V",
          "target": "invokevirtual \u003c Application, Lcn/emagsoftware/sdk/sms/SmsSendCallback, getResultCode()I \u003e@23",
          "type": "sms",
          "constraintsFile": "constraints38_0.py",
          "variables": {},
          "stringMap": {},
          "strings": {}
        },
        {
          "start": "cn.emagsoftware.gamebilling.view.BillingView$8.onClick(Landroid/view/View;)V",
          "target": "PC@66",
          "type": "ui",
          "activities": [
            "cn.emagsoftware.gamebilling.activity.GameOpenActivity"
          ],
          "listener": "cn.emagsoftware.gamebilling.view.BillingView$8",
          "listenerMethod": "onClick",
          "uiType": "onClick",
          "constraintsFile": "constraints38_1.py",
          "variables": {
            "\u003cChainedInput2\u003e.getAction()": "IAAv3",
            "\u003cChainedInput2\u003e.getIntExtra()": "IAAv2"
          },
          "stringMap": {
            "7000": "cn.emagsoftware.telephony.SMS_SENT",
            "7001": "-2"
          },
          "strings": {
            "IAAv3": "",
            "IAAv6": ""
          }
        },
        {
          "start": "cn.emagsoftware.gamebilling.view.BillingView$8.onClick(Landroid/view/View;)V",
          "target": "PC@37",
          "type": "ui",
          "activities": [
            "cn.emagsoftware.gamebilling.activity.GameOpenActivity"
          ],
          "listener": "cn.emagsoftware.gamebilling.view.BillingView$8",
          "listenerMethod": "onClick",
          "uiType": "onClick",
          "constraintsFile": "constraints38_2.py",
          "variables": {
            "\u003cChainedInput2\u003e.getAction()": "IAAv1"
          },
          "stringMap": {
            "7000": "cn.emagsoftware.telephony.SMS_SENT",
            "7001": "-2"
          },
          "strings": {
            "IAAv4": "",
            "IAAv1": ""
          }
        },
        {
          "start": "cn.emagsoftware.sdk.sms.SmsSendCallback.onReceive(Landroid/content/Context;Landroid/content/Intent;)V",
          "target": "invokevirtual \u003c Application, Ljava/lang/reflect/Method, invoke(Ljava/lang/Object;[Ljava/lang/Object;)Ljava/lang/Object; \u003e@123",
          "type": "sms",
          "constraintsFile": "constraints38_3.py",
          "variables": {
            "\u003cChainedInput2\u003e.getIntExtra()": "IAAv2",
            "\u003cChainedInput2\u003e.getAction()": "IAAv3"
          },
          "stringMap": {
            "7000": "cn.emagsoftware.telephony.SMS_SENT",
            "7001": "-2"
          },
          "strings": {
            "IAAv3": "",
            "IAAv6": ""
          }
        }
      ]
    },
    "39": {
      "startMethod": "cn.emagsoftware.sdk.sms.SmsSendCallback.onReceive(Landroid/content/Context;Landroid/content/Intent;)V",
      "targetMethod": "java.lang.reflect.Method.invoke(Ljava/lang/Object;[Ljava/lang/Object;)Ljava/lang/Object;",
      "eventChain": [
        {
          "start": "cn.emagsoftware.sdk.sms.SmsSendCallback.onReceive(Landroid/content/Context;Landroid/content/Intent;)V",
          "target": "invokevirtual \u003c Application, Lcn/emagsoftware/sdk/sms/SmsSendCallback, getResultCode()I \u003e@23",
          "type": "sms",
          "constraintsFile": "constraints39_0.py",
          "variables": {},
          "stringMap": {},
          "strings": {}
        },
        {
          "start": "cn.emagsoftware.gamebilling.view.BillingView$8.onClick(Landroid/view/View;)V",
          "target": "PC@66",
          "type": "ui",
          "activities": [
            "cn.emagsoftware.gamebilling.activity.GameOpenActivity"
          ],
          "listener": "cn.emagsoftware.gamebilling.view.BillingView$8",
          "listenerMethod": "onClick",
          "uiType": "onClick",
          "constraintsFile": "constraints39_1.py",
          "variables": {
            "\u003cChainedInput2\u003e.getAction()": "IAAv3",
            "\u003cChainedInput2\u003e.getIntExtra()": "IAAv2"
          },
          "stringMap": {
            "7000": "cn.emagsoftware.telephony.SMS_SENT",
            "7001": "-2"
          },
          "strings": {
            "IAAv3": "",
            "IAAv6": ""
          }
        },
        {
          "start": "cn.emagsoftware.gamebilling.view.BillingView$8.onClick(Landroid/view/View;)V",
          "target": "PC@37",
          "type": "ui",
          "activities": [
            "cn.emagsoftware.gamebilling.activity.GameOpenActivity"
          ],
          "listener": "cn.emagsoftware.gamebilling.view.BillingView$8",
          "listenerMethod": "onClick",
          "uiType": "onClick",
          "constraintsFile": "constraints39_2.py",
          "variables": {
            "\u003cChainedInput2\u003e.getAction()": "IAAv1"
          },
          "stringMap": {
            "7000": "cn.emagsoftware.telephony.SMS_SENT",
            "7001": "-2"
          },
          "strings": {
            "IAAv4": "",
            "IAAv1": ""
          }
        },
        {
          "start": "cn.emagsoftware.sdk.sms.SmsSendCallback.onReceive(Landroid/content/Context;Landroid/content/Intent;)V",
          "target": "invokevirtual \u003c Application, Ljava/lang/reflect/Method, invoke(Ljava/lang/Object;[Ljava/lang/Object;)Ljava/lang/Object; \u003e@140",
          "type": "sms",
          "constraintsFile": "constraints39_3.py",
          "variables": {
            "\u003cChainedInput2\u003e.getIntExtra()": "IAAv2",
            "\u003cChainedInput2\u003e.getAction()": "IAAv3"
          },
          "stringMap": {
            "7000": "cn.emagsoftware.telephony.SMS_SENT",
            "7001": "-2"
          },
          "strings": {
            "IAAv3": "",
            "IAAv6": ""
          }
        }
      ]
    }
  }
}