{
  "packageName": "gts.td2.am.full",
  "mainActivity": "gts.td2.am.full.ttt",
  "callPaths": {
    "0": {
      "startMethod": "gts.td2.am.full.ttt.onPause()V",
      "targetMethod": "java.lang.reflect.Method.invoke(Ljava/lang/Object;[Ljava/lang/Object;)Ljava/lang/Object;",
      "eventChain": [
        {
          "start": "gts.td2.am.full.ttt.onPause()V",
          "target": "invokevirtual \u003c Application, Ljava/lang/reflect/Method, invoke(Ljava/lang/Object;[Ljava/lang/Object;)Ljava/lang/Object; \u003e@166",
          "type": "activity",
          "component": "gts.td2.am.full.ttt"
        }
      ]
    },
    "1": {
      "startMethod": "gts.td2.am.full.ttt.onPause()V",
      "targetMethod": "org.apache.http.client.HttpClient.execute(Lorg/apache/http/client/methods/HttpUriRequest;)Lorg/apache/http/HttpResponse;",
      "eventChain": [
        {
          "start": "gts.td2.am.full.ttt.onPause()V",
          "target": "invokeinterface \u003c Application, Lorg/apache/http/client/HttpClient, execute(Lorg/apache/http/client/methods/HttpUriRequest;)Lorg/apache/http/HttpResponse; \u003e@309",
          "type": "activity",
          "component": "gts.td2.am.full.ttt"
        }
      ]
    },
    "2": {
      "startMethod": "gts.td2.am.full.ttt.onPause()V",
      "targetMethod": "java.lang.reflect.Method.invoke(Ljava/lang/Object;[Ljava/lang/Object;)Ljava/lang/Object;",
      "eventChain": [
        {
          "start": "gts.td2.am.full.ttt.onPause()V",
          "target": "invokevirtual \u003c Application, Ljava/lang/reflect/Method, invoke(Ljava/lang/Object;[Ljava/lang/Object;)Ljava/lang/Object; \u003e@225",
          "type": "activity",
          "component": "gts.td2.am.full.ttt"
        }
      ]
    },
    "3": {
      "startMethod": "gts.td2.am.full.ttt.onResume()V",
      "targetMethod": "java.lang.reflect.Method.invoke(Ljava/lang/Object;[Ljava/lang/Object;)Ljava/lang/Object;",
      "eventChain": [
        {
          "start": "gts.td2.am.full.ttt.onResume()V",
          "target": "invokevirtual \u003c Application, Ljava/lang/reflect/Method, invoke(Ljava/lang/Object;[Ljava/lang/Object;)Ljava/lang/Object; \u003e@225",
          "type": "activity",
          "component": "gts.td2.am.full.ttt"
        }
      ]
    },
    "4": {
      "startMethod": "gts.td2.am.full.ttt.onResume()V",
      "targetMethod": "java.lang.reflect.Method.invoke(Ljava/lang/Object;[Ljava/lang/Object;)Ljava/lang/Object;",
      "eventChain": [
        {
          "start": "gts.td2.am.full.ttt.onResume()V",
          "target": "invokevirtual \u003c Application, Ljava/lang/reflect/Method, invoke(Ljava/lang/Object;[Ljava/lang/Object;)Ljava/lang/Object; \u003e@166",
          "type": "activity",
          "component": "gts.td2.am.full.ttt"
        }
      ]
    },
    "5": {
      "startMethod": "gts.td2.am.full.ttt.onResume()V",
      "targetMethod": "org.apache.http.client.HttpClient.execute(Lorg/apache/http/client/methods/HttpUriRequest;)Lorg/apache/http/HttpResponse;",
      "eventChain": [
        {
          "start": "gts.td2.am.full.ttt.onResume()V",
          "target": "invokeinterface \u003c Application, Lorg/apache/http/client/HttpClient, execute(Lorg/apache/http/client/methods/HttpUriRequest;)Lorg/apache/http/HttpResponse; \u003e@309",
          "type": "activity",
          "component": "gts.td2.am.full.ttt"
        }
      ]
    },
    "6": {
      "startMethod": "gts.td2.am.full.ttt.onCreate(Landroid/os/Bundle;)V",
      "targetMethod": "java.lang.reflect.Method.invoke(Ljava/lang/Object;[Ljava/lang/Object;)Ljava/lang/Object;",
      "eventChain": [
        {
          "start": "gts.td2.am.full.ttt.onPause()V",
          "target": "invokeinterface \u003c Application, Landroid/content/SharedPreferences$Editor, putString(Ljava/lang/String;Ljava/lang/String;)Landroid/content/SharedPreferences$Editor; \u003e@352",
          "type": "activity",
          "component": "gts.td2.am.full.ttt"
        },
        {
          "start": "gts.td2.am.full.ttt.onPause()V",
          "target": "invokeinterface \u003c Application, Landroid/content/SharedPreferences$Editor, putString(Ljava/lang/String;Ljava/lang/String;)Landroid/content/SharedPreferences$Editor; \u003e@57",
          "type": "activity",
          "component": "gts.td2.am.full.ttt"
        },
        {
          "start": "gts.td2.am.full.ttt.onPause()V",
          "target": "invokeinterface \u003c Application, Landroid/content/SharedPreferences$Editor, putLong(Ljava/lang/String;J)Landroid/content/SharedPreferences$Editor; \u003e@405",
          "type": "activity",
          "component": "gts.td2.am.full.ttt"
        },
        {
          "start": "gts.td2.am.full.ttt.onPause()V",
          "target": "PC@12",
          "type": "activity",
          "component": "gts.td2.am.full.ttt"
        },
        {
          "start": "gts.td2.am.full.ttt.onCreate(Landroid/os/Bundle;)V",
          "target": "invokevirtual \u003c Application, Ljava/lang/reflect/Method, invoke(Ljava/lang/Object;[Ljava/lang/Object;)Ljava/lang/Object; \u003e@166",
          "type": "activity",
          "component": "gts.td2.am.full.ttt",
          "constraintsFile": "constraints6_0.py",
          "variables": {
            "SharedPreferences\u003csession_id\u003e": "IAAv2",
            "SharedPreferences\u003cactivities\u003e": "IAAv5",
            "SharedPreferences\u003cduration\u003e.valueOf().longValue()": "IAAv3"
          },
          "stringMap": {
            "7000": ""
          },
          "strings": {
            "IAAv2": "",
            "IAAv5": ""
          }
        }
      ]
    },
    "7": {
      "startMethod": "gts.td2.am.full.ttt.onCreate(Landroid/os/Bundle;)V",
      "targetMethod": "java.lang.reflect.Method.invoke(Ljava/lang/Object;[Ljava/lang/Object;)Ljava/lang/Object;",
      "eventChain": [
        {
          "start": "gts.td2.am.full.ttt.onPause()V",
          "target": "invokeinterface \u003c Application, Landroid/content/SharedPreferences$Editor, putString(Ljava/lang/String;Ljava/lang/String;)Landroid/content/SharedPreferences$Editor; \u003e@352",
          "type": "activity",
          "component": "gts.td2.am.full.ttt"
        },
        {
          "start": "gts.td2.am.full.ttt.onPause()V",
          "target": "invokeinterface \u003c Application, Landroid/content/SharedPreferences$Editor, putString(Ljava/lang/String;Ljava/lang/String;)Landroid/content/SharedPreferences$Editor; \u003e@57",
          "type": "activity",
          "component": "gts.td2.am.full.ttt"
        },
        {
          "start": "gts.td2.am.full.ttt.onPause()V",
          "target": "invokeinterface \u003c Application, Landroid/content/SharedPreferences$Editor, putLong(Ljava/lang/String;J)Landroid/content/SharedPreferences$Editor; \u003e@405",
          "type": "activity",
          "component": "gts.td2.am.full.ttt"
        },
        {
          "start": "gts.td2.am.full.ttt.onPause()V",
          "target": "PC@12",
          "type": "activity",
          "component": "gts.td2.am.full.ttt"
        },
        {
          "start": "gts.td2.am.full.ttt.onCreate(Landroid/os/Bundle;)V",
          "target": "invokevirtual \u003c Application, Ljava/lang/reflect/Method, invoke(Ljava/lang/Object;[Ljava/lang/Object;)Ljava/lang/Object; \u003e@225",
          "type": "activity",
          "component": "gts.td2.am.full.ttt",
          "constraintsFile": "constraints7_0.py",
          "variables": {
            "SharedPreferences\u003csession_id\u003e": "IAAv2",
            "SharedPreferences\u003cactivities\u003e": "IAAv5",
            "SharedPreferences\u003cduration\u003e.valueOf().longValue()": "IAAv3"
          },
          "stringMap": {
            "7000": ""
          },
          "strings": {
            "IAAv2": "",
            "IAAv5": ""
          }
        }
      ]
    },
    "8": {
      "startMethod": "gts.td2.am.full.ttt.onCreate(Landroid/os/Bundle;)V",
      "targetMethod": "org.apache.http.client.HttpClient.execute(Lorg/apache/http/client/methods/HttpUriRequest;)Lorg/apache/http/HttpResponse;",
      "eventChain": [
        {
          "start": "gts.td2.am.full.ttt.onPause()V",
          "target": "PC@23",
          "type": "activity",
          "component": "gts.td2.am.full.ttt"
        },
        {
          "start": "gts.td2.am.full.ttt.onCreate(Landroid/os/Bundle;)V",
          "target": "invokeinterface \u003c Application, Lorg/apache/http/client/HttpClient, execute(Lorg/apache/http/client/methods/HttpUriRequest;)Lorg/apache/http/HttpResponse; \u003e@309",
          "type": "activity",
          "component": "gts.td2.am.full.ttt",
          "constraintsFile": "constraints8_0.py",
          "variables": {},
          "stringMap": {
            "7000": "update"
          },
          "strings": {
            "IAAv4": ""
          }
        }
      ]
    },
    "9": {
      "startMethod": "cn.emagsoftware.gamebilling.activity.BillingActivity.onCreate(Landroid/os/Bundle;)V",
      "targetMethod": "java.lang.reflect.Method.invoke(Ljava/lang/Object;[Ljava/lang/Object;)Ljava/lang/Object;",
      "eventChain": [
        {
          "start": "cn.emagsoftware.gamebilling.activity.BillingActivity.onCreate(Landroid/os/Bundle;)V",
          "target": "invokevirtual \u003c Application, Ljava/lang/reflect/Method, invoke(Ljava/lang/Object;[Ljava/lang/Object;)Ljava/lang/Object; \u003e@95",
          "type": "activity",
          "component": "cn.emagsoftware.gamebilling.activity.BillingActivity"
        }
      ]
    },
    "10": {
      "startMethod": "cn.emagsoftware.gamebilling.activity.BillingActivity.onCreate(Landroid/os/Bundle;)V",
      "targetMethod": "java.lang.reflect.Method.invoke(Ljava/lang/Object;[Ljava/lang/Object;)Ljava/lang/Object;",
      "eventChain": [
        {
          "start": "cn.emagsoftware.gamebilling.activity.BillingActivity.onCreate(Landroid/os/Bundle;)V",
          "target": "invokevirtual \u003c Application, Ljava/lang/reflect/Method, invoke(Ljava/lang/Object;[Ljava/lang/Object;)Ljava/lang/Object; \u003e@260",
          "type": "activity",
          "component": "cn.emagsoftware.gamebilling.activity.BillingActivity"
        }
      ]
    },
    "11": {
      "startMethod": "cn.emagsoftware.gamebilling.activity.BillingActivity.onCreate(Landroid/os/Bundle;)V",
      "targetMethod": "java.lang.reflect.Method.invoke(Ljava/lang/Object;[Ljava/lang/Object;)Ljava/lang/Object;",
      "eventChain": [
        {
          "start": "cn.emagsoftware.gamebilling.activity.BillingActivity.onCreate(Landroid/os/Bundle;)V",
          "target": "invokevirtual \u003c Application, Ljava/lang/reflect/Method, invoke(Ljava/lang/Object;[Ljava/lang/Object;)Ljava/lang/Object; \u003e@92",
          "type": "activity",
          "component": "cn.emagsoftware.gamebilling.activity.BillingActivity"
        }
      ]
    },
    "12": {
      "startMethod": "cn.emagsoftware.gamebilling.activity.BillingActivity.onCreate(Landroid/os/Bundle;)V",
      "targetMethod": "java.lang.reflect.Method.invoke(Ljava/lang/Object;[Ljava/lang/Object;)Ljava/lang/Object;",
      "eventChain": [
        {
          "start": "cn.emagsoftware.gamebilling.activity.BillingActivity.onCreate(Landroid/os/Bundle;)V",
          "target": "invokevirtual \u003c Application, Ljava/lang/reflect/Method, invoke(Ljava/lang/Object;[Ljava/lang/Object;)Ljava/lang/Object; \u003e@313",
          "type": "activity",
          "component": "cn.emagsoftware.gamebilling.activity.BillingActivity"
        }
      ]
    },
    "13": {
      "startMethod": "cn.emagsoftware.gamebilling.activity.BillingActivity.onCreate(Landroid/os/Bundle;)V",
      "targetMethod": "java.lang.reflect.Method.invoke(Ljava/lang/Object;[Ljava/lang/Object;)Ljava/lang/Object;",
      "eventChain": [
        {
          "start": "cn.emagsoftware.gamebilling.activity.BillingActivity.onCreate(Landroid/os/Bundle;)V",
          "target": "invokevirtual \u003c Application, Ljava/lang/reflect/Method, invoke(Ljava/lang/Object;[Ljava/lang/Object;)Ljava/lang/Object; \u003e@103",
          "type": "activity",
          "component": "cn.emagsoftware.gamebilling.activity.BillingActivity"
        }
      ]
    },
    "14": {
      "startMethod": "cn.emagsoftware.gamebilling.activity.BillingActivity.onCreate(Landroid/os/Bundle;)V",
      "targetMethod": "java.lang.reflect.Method.invoke(Ljava/lang/Object;[Ljava/lang/Object;)Ljava/lang/Object;",
      "eventChain": [
        {
          "start": "cn.emagsoftware.gamebilling.activity.BillingActivity.onCreate(Landroid/os/Bundle;)V",
          "target": "invokevirtual \u003c Application, Ljava/lang/reflect/Method, invoke(Ljava/lang/Object;[Ljava/lang/Object;)Ljava/lang/Object; \u003e@137",
          "type": "activity",
          "component": "cn.emagsoftware.gamebilling.activity.BillingActivity"
        }
      ]
    },
    "15": {
      "startMethod": "cn.emagsoftware.gamebilling.activity.BillingActivity.onCreate(Landroid/os/Bundle;)V",
      "targetMethod": "java.lang.reflect.Method.invoke(Ljava/lang/Object;[Ljava/lang/Object;)Ljava/lang/Object;",
      "eventChain": [
        {
          "start": "cn.emagsoftware.gamebilling.activity.BillingActivity.onCreate(Landroid/os/Bundle;)V",
          "target": "invokevirtual \u003c Application, Ljava/lang/reflect/Method, invoke(Ljava/lang/Object;[Ljava/lang/Object;)Ljava/lang/Object; \u003e@151",
          "type": "activity",
          "component": "cn.emagsoftware.gamebilling.activity.BillingActivity"
        }
      ]
    },
    "16": {
      "startMethod": "com.mobclick.android.j.onClick(Landroid/content/DialogInterface;I)V",
      "targetMethod": "org.apache.http.client.HttpClient.execute(Lorg/apache/http/client/methods/HttpUriRequest;)Lorg/apache/http/HttpResponse;",
      "eventChain": [
        {
          "start": "gts.td2.am.full.ttt.onPause()V",
          "target": "invokevirtual \u003c Application, Landroid/app/AlertDialog$Builder, setPositiveButton(Ljava/lang/CharSequence;Landroid/content/DialogInterface$OnClickListener;)Landroid/app/AlertDialog$Builder; \u003e@368",
          "type": "activity",
          "component": "gts.td2.am.full.ttt"
        },
        {
          "start": "com.mobclick.android.j.onClick(Landroid/content/DialogInterface;I)V",
          "target": "invokeinterface \u003c Application, Lorg/apache/http/client/HttpClient, execute(Lorg/apache/http/client/methods/HttpUriRequest;)Lorg/apache/http/HttpResponse; \u003e@8",
          "type": "ui",
          "activities": [
            "gts.td2.am.full.ttt"
          ],
          "listener": "com.mobclick.android.j",
          "listenerMethod": "onClick",
          "uiType": "onClick",
          "inDialog": "true"
        }
      ]
    },
    "17": {
      "startMethod": "cn.emagsoftware.gamebilling.view.BillingView$1.onClick(Landroid/view/View;)V",
      "targetMethod": "java.lang.reflect.Method.invoke(Ljava/lang/Object;[Ljava/lang/Object;)Ljava/lang/Object;",
      "eventChain": [
        {
          "start": "cn.emagsoftware.gamebilling.activity.BillingActivity.onCreate(Landroid/os/Bundle;)V",
          "target": "invokevirtual \u003c Application, Landroid/widget/Button, setOnClickListener(Landroid/view/View$OnClickListener;)V \u003e@193",
          "type": "activity",
          "component": "cn.emagsoftware.gamebilling.activity.BillingActivity"
        },
        {
          "start": "cn.emagsoftware.gamebilling.view.BillingView$1.onClick(Landroid/view/View;)V",
          "target": "invokevirtual \u003c Application, Ljava/lang/reflect/Method, invoke(Ljava/lang/Object;[Ljava/lang/Object;)Ljava/lang/Object; \u003e@360",
          "type": "ui",
          "activities": [
            "gts.td2.am.full.ttt"
          ],
          "listener": "cn.emagsoftware.gamebilling.view.BillingView$1",
          "listenerMethod": "onClick",
          "uiType": "onClick",
          "constraintsFile": "constraints17_0.py",
          "variables": {},
          "stringMap": {},
          "strings": {}
        }
      ]
    },
    "18": {
      "startMethod": "cn.emagsoftware.gamebilling.view.BillingView$1.onClick(Landroid/view/View;)V",
      "targetMethod": "android.telephony.SmsManager.sendTextMessage(Ljava/lang/String;Ljava/lang/String;Ljava/lang/String;Landroid/app/PendingIntent;Landroid/app/PendingIntent;)V",
      "eventChain": [
        {
          "start": "cn.emagsoftware.gamebilling.activity.BillingActivity.onCreate(Landroid/os/Bundle;)V",
          "target": "invokevirtual \u003c Application, Landroid/widget/Button, setOnClickListener(Landroid/view/View$OnClickListener;)V \u003e@193",
          "type": "activity",
          "component": "cn.emagsoftware.gamebilling.activity.BillingActivity"
        },
        {
          "start": "cn.emagsoftware.gamebilling.view.BillingView$1.onClick(Landroid/view/View;)V",
          "target": "invokevirtual \u003c Application, Landroid/telephony/SmsManager, sendTextMessage(Ljava/lang/String;Ljava/lang/String;Ljava/lang/String;Landroid/app/PendingIntent;Landroid/app/PendingIntent;)V \u003e@578",
          "type": "ui",
          "activities": [
            "gts.td2.am.full.ttt"
          ],
          "listener": "cn.emagsoftware.gamebilling.view.BillingView$1",
          "listenerMethod": "onClick",
          "uiType": "onClick",
          "constraintsFile": "constraints18_0.py",
          "variables": {},
          "stringMap": {},
          "strings": {}
        }
      ]
    },
    "19": {
      "startMethod": "cn.emagsoftware.gamebilling.view.BillingView$1.onClick(Landroid/view/View;)V",
      "targetMethod": "java.lang.reflect.Method.invoke(Ljava/lang/Object;[Ljava/lang/Object;)Ljava/lang/Object;",
      "eventChain": [
        {
          "start": "cn.emagsoftware.gamebilling.activity.BillingActivity.onCreate(Landroid/os/Bundle;)V",
          "target": "invokevirtual \u003c Application, Landroid/widget/Button, setOnClickListener(Landroid/view/View$OnClickListener;)V \u003e@193",
          "type": "activity",
          "component": "cn.emagsoftware.gamebilling.activity.BillingActivity"
        },
        {
          "start": "cn.emagsoftware.gamebilling.view.BillingView$1.onClick(Landroid/view/View;)V",
          "target": "invokevirtual \u003c Application, Ljava/lang/reflect/Method, invoke(Ljava/lang/Object;[Ljava/lang/Object;)Ljava/lang/Object; \u003e@95",
          "type": "ui",
          "activities": [
            "gts.td2.am.full.ttt"
          ],
          "listener": "cn.emagsoftware.gamebilling.view.BillingView$1",
          "listenerMethod": "onClick",
          "uiType": "onClick",
          "constraintsFile": "constraints19_0.py",
          "variables": {},
          "stringMap": {},
          "strings": {}
        }
      ]
    },
    "20": {
      "startMethod": "cn.emagsoftware.gamebilling.view.BillingView$1.onClick(Landroid/view/View;)V",
      "targetMethod": "java.lang.reflect.Method.invoke(Ljava/lang/Object;[Ljava/lang/Object;)Ljava/lang/Object;",
      "eventChain": [
        {
          "start": "cn.emagsoftware.gamebilling.activity.BillingActivity.onCreate(Landroid/os/Bundle;)V",
          "target": "invokevirtual \u003c Application, Landroid/widget/Button, setOnClickListener(Landroid/view/View$OnClickListener;)V \u003e@193",
          "type": "activity",
          "component": "cn.emagsoftware.gamebilling.activity.BillingActivity"
        },
        {
          "start": "cn.emagsoftware.gamebilling.view.BillingView$1.onClick(Landroid/view/View;)V",
          "target": "invokevirtual \u003c Application, Ljava/lang/reflect/Method, invoke(Ljava/lang/Object;[Ljava/lang/Object;)Ljava/lang/Object; \u003e@313",
          "type": "ui",
          "activities": [
            "gts.td2.am.full.ttt"
          ],
          "listener": "cn.emagsoftware.gamebilling.view.BillingView$1",
          "listenerMethod": "onClick",
          "uiType": "onClick",
          "constraintsFile": "constraints20_0.py",
          "variables": {},
          "stringMap": {},
          "strings": {}
        }
      ]
    },
    "21": {
      "startMethod": "cn.emagsoftware.gamebilling.view.BillingView$1.onClick(Landroid/view/View;)V",
      "targetMethod": "java.lang.reflect.Method.invoke(Ljava/lang/Object;[Ljava/lang/Object;)Ljava/lang/Object;",
      "eventChain": [
        {
          "start": "cn.emagsoftware.gamebilling.activity.BillingActivity.onCreate(Landroid/os/Bundle;)V",
          "target": "invokevirtual \u003c Application, Landroid/widget/Button, setOnClickListener(Landroid/view/View$OnClickListener;)V \u003e@193",
          "type": "activity",
          "component": "cn.emagsoftware.gamebilling.activity.BillingActivity"
        },
        {
          "start": "cn.emagsoftware.gamebilling.view.BillingView$1.onClick(Landroid/view/View;)V",
          "target": "invokevirtual \u003c Application, Ljava/lang/reflect/Method, invoke(Ljava/lang/Object;[Ljava/lang/Object;)Ljava/lang/Object; \u003e@137",
          "type": "ui",
          "activities": [
            "gts.td2.am.full.ttt"
          ],
          "listener": "cn.emagsoftware.gamebilling.view.BillingView$1",
          "listenerMethod": "onClick",
          "uiType": "onClick",
          "constraintsFile": "constraints21_0.py",
          "variables": {},
          "stringMap": {},
          "strings": {}
        }
      ]
    },
    "22": {
      "startMethod": "cn.emagsoftware.gamebilling.view.BillingView$1.onClick(Landroid/view/View;)V",
      "targetMethod": "android.telephony.SmsManager.sendTextMessage(Ljava/lang/String;Ljava/lang/String;Ljava/lang/String;Landroid/app/PendingIntent;Landroid/app/PendingIntent;)V",
      "eventChain": [
        {
          "start": "cn.emagsoftware.gamebilling.activity.BillingActivity.onCreate(Landroid/os/Bundle;)V",
          "target": "invokevirtual \u003c Application, Landroid/widget/Button, setOnClickListener(Landroid/view/View$OnClickListener;)V \u003e@193",
          "type": "activity",
          "component": "cn.emagsoftware.gamebilling.activity.BillingActivity"
        },
        {
          "start": "cn.emagsoftware.gamebilling.view.BillingView$1.onClick(Landroid/view/View;)V",
          "target": "invokevirtual \u003c Application, Landroid/telephony/SmsManager, sendTextMessage(Ljava/lang/String;Ljava/lang/String;Ljava/lang/String;Landroid/app/PendingIntent;Landroid/app/PendingIntent;)V \u003e@615",
          "type": "ui",
          "activities": [
            "gts.td2.am.full.ttt"
          ],
          "listener": "cn.emagsoftware.gamebilling.view.BillingView$1",
          "listenerMethod": "onClick",
          "uiType": "onClick",
          "constraintsFile": "constraints22_0.py",
          "variables": {},
          "stringMap": {},
          "strings": {}
        }
      ]
    },
    "23": {
      "startMethod": "cn.emagsoftware.gamebilling.view.BillingView$1.onClick(Landroid/view/View;)V",
      "targetMethod": "java.lang.reflect.Method.invoke(Ljava/lang/Object;[Ljava/lang/Object;)Ljava/lang/Object;",
      "eventChain": [
        {
          "start": "cn.emagsoftware.gamebilling.activity.BillingActivity.onCreate(Landroid/os/Bundle;)V",
          "target": "invokevirtual \u003c Application, Landroid/widget/Button, setOnClickListener(Landroid/view/View$OnClickListener;)V \u003e@193",
          "type": "activity",
          "component": "cn.emagsoftware.gamebilling.activity.BillingActivity"
        },
        {
          "start": "cn.emagsoftware.gamebilling.view.BillingView$1.onClick(Landroid/view/View;)V",
          "target": "invokevirtual \u003c Application, Ljava/lang/reflect/Method, invoke(Ljava/lang/Object;[Ljava/lang/Object;)Ljava/lang/Object; \u003e@266",
          "type": "ui",
          "activities": [
            "gts.td2.am.full.ttt"
          ],
          "listener": "cn.emagsoftware.gamebilling.view.BillingView$1",
          "listenerMethod": "onClick",
          "uiType": "onClick",
          "constraintsFile": "constraints23_0.py",
          "variables": {},
          "stringMap": {},
          "strings": {}
        }
      ]
    },
    "24": {
      "startMethod": "cn.emagsoftware.gamebilling.view.BillingView$1.onClick(Landroid/view/View;)V",
      "targetMethod": "java.lang.reflect.Method.invoke(Ljava/lang/Object;[Ljava/lang/Object;)Ljava/lang/Object;",
      "eventChain": [
        {
          "start": "cn.emagsoftware.gamebilling.activity.BillingActivity.onCreate(Landroid/os/Bundle;)V",
          "target": "invokevirtual \u003c Application, Landroid/widget/Button, setOnClickListener(Landroid/view/View$OnClickListener;)V \u003e@193",
          "type": "activity",
          "component": "cn.emagsoftware.gamebilling.activity.BillingActivity"
        },
        {
          "start": "cn.emagsoftware.gamebilling.view.BillingView$1.onClick(Landroid/view/View;)V",
          "target": "invokevirtual \u003c Application, Ljava/lang/reflect/Method, invoke(Ljava/lang/Object;[Ljava/lang/Object;)Ljava/lang/Object; \u003e@103",
          "type": "ui",
          "activities": [
            "gts.td2.am.full.ttt"
          ],
          "listener": "cn.emagsoftware.gamebilling.view.BillingView$1",
          "listenerMethod": "onClick",
          "uiType": "onClick",
          "constraintsFile": "constraints24_0.py",
          "variables": {},
          "stringMap": {},
          "strings": {}
        }
      ]
    },
    "25": {
      "startMethod": "cn.emagsoftware.gamebilling.view.BillingView$1.onClick(Landroid/view/View;)V",
      "targetMethod": "java.lang.reflect.Method.invoke(Ljava/lang/Object;[Ljava/lang/Object;)Ljava/lang/Object;",
      "eventChain": [
        {
          "start": "cn.emagsoftware.gamebilling.activity.BillingActivity.onCreate(Landroid/os/Bundle;)V",
          "target": "invokevirtual \u003c Application, Landroid/widget/Button, setOnClickListener(Landroid/view/View$OnClickListener;)V \u003e@193",
          "type": "activity",
          "component": "cn.emagsoftware.gamebilling.activity.BillingActivity"
        },
        {
          "start": "cn.emagsoftware.gamebilling.view.BillingView$1.onClick(Landroid/view/View;)V",
          "target": "invokevirtual \u003c Application, Ljava/lang/reflect/Method, invoke(Ljava/lang/Object;[Ljava/lang/Object;)Ljava/lang/Object; \u003e@92",
          "type": "ui",
          "activities": [
            "gts.td2.am.full.ttt"
          ],
          "listener": "cn.emagsoftware.gamebilling.view.BillingView$1",
          "listenerMethod": "onClick",
          "uiType": "onClick",
          "constraintsFile": "constraints25_0.py",
          "variables": {},
          "stringMap": {},
          "strings": {}
        }
      ]
    },
    "26": {
      "startMethod": "cn.emagsoftware.gamebilling.view.BillingView$1.onClick(Landroid/view/View;)V",
      "targetMethod": "java.lang.reflect.Method.invoke(Ljava/lang/Object;[Ljava/lang/Object;)Ljava/lang/Object;",
      "eventChain": [
        {
          "start": "cn.emagsoftware.gamebilling.activity.BillingActivity.onCreate(Landroid/os/Bundle;)V",
          "target": "invokevirtual \u003c Application, Landroid/widget/Button, setOnClickListener(Landroid/view/View$OnClickListener;)V \u003e@193",
          "type": "activity",
          "component": "cn.emagsoftware.gamebilling.activity.BillingActivity"
        },
        {
          "start": "cn.emagsoftware.gamebilling.view.BillingView$1.onClick(Landroid/view/View;)V",
          "target": "invokevirtual \u003c Application, Ljava/lang/reflect/Method, invoke(Ljava/lang/Object;[Ljava/lang/Object;)Ljava/lang/Object; \u003e@260",
          "type": "ui",
          "activities": [
            "gts.td2.am.full.ttt"
          ],
          "listener": "cn.emagsoftware.gamebilling.view.BillingView$1",
          "listenerMethod": "onClick",
          "uiType": "onClick",
          "constraintsFile": "constraints26_0.py",
          "variables": {},
          "stringMap": {},
          "strings": {}
        }
      ]
    },
    "27": {
      "startMethod": "cn.emagsoftware.gamebilling.view.BillingView$1.onClick(Landroid/view/View;)V",
      "targetMethod": "java.lang.reflect.Method.invoke(Ljava/lang/Object;[Ljava/lang/Object;)Ljava/lang/Object;",
      "eventChain": [
        {
          "start": "cn.emagsoftware.gamebilling.activity.BillingActivity.onCreate(Landroid/os/Bundle;)V",
          "target": "invokevirtual \u003c Application, Landroid/widget/Button, setOnClickListener(Landroid/view/View$OnClickListener;)V \u003e@193",
          "type": "activity",
          "component": "cn.emagsoftware.gamebilling.activity.BillingActivity"
        },
        {
          "start": "cn.emagsoftware.gamebilling.view.BillingView$1.onClick(Landroid/view/View;)V",
          "target": "invokevirtual \u003c Application, Ljava/lang/reflect/Method, invoke(Ljava/lang/Object;[Ljava/lang/Object;)Ljava/lang/Object; \u003e@151",
          "type": "ui",
          "activities": [
            "gts.td2.am.full.ttt"
          ],
          "listener": "cn.emagsoftware.gamebilling.view.BillingView$1",
          "listenerMethod": "onClick",
          "uiType": "onClick",
          "constraintsFile": "constraints27_0.py",
          "variables": {},
          "stringMap": {},
          "strings": {}
        }
      ]
    },
    "28": {
      "startMethod": "cn.emagsoftware.gamebilling.view.BillingView$1.onClick(Landroid/view/View;)V",
      "targetMethod": "java.lang.reflect.Method.invoke(Ljava/lang/Object;[Ljava/lang/Object;)Ljava/lang/Object;",
      "eventChain": [
        {
          "start": "cn.emagsoftware.gamebilling.activity.BillingActivity.onCreate(Landroid/os/Bundle;)V",
          "target": "invokevirtual \u003c Application, Landroid/widget/Button, setOnClickListener(Landroid/view/View$OnClickListener;)V \u003e@193",
          "type": "activity",
          "component": "cn.emagsoftware.gamebilling.activity.BillingActivity"
        },
        {
          "start": "cn.emagsoftware.gamebilling.view.BillingView$1.onClick(Landroid/view/View;)V",
          "target": "invokevirtual \u003c Application, Ljava/lang/reflect/Method, invoke(Ljava/lang/Object;[Ljava/lang/Object;)Ljava/lang/Object; \u003e@537",
          "type": "ui",
          "activities": [
            "gts.td2.am.full.ttt"
          ],
          "listener": "cn.emagsoftware.gamebilling.view.BillingView$1",
          "listenerMethod": "onClick",
          "uiType": "onClick",
          "constraintsFile": "constraints28_0.py",
          "variables": {},
          "stringMap": {},
          "strings": {}
        }
      ]
    },
    "29": {
      "startMethod": "cn.emagsoftware.sdk.sms.SmsSendCallback.onReceive(Landroid/content/Context;Landroid/content/Intent;)V",
      "targetMethod": "java.lang.reflect.Method.invoke(Ljava/lang/Object;[Ljava/lang/Object;)Ljava/lang/Object;",
      "eventChain": [
        {
          "start": "cn.emagsoftware.gamebilling.view.BillingView$1.onClick(Landroid/view/View;)V",
          "target": "invokevirtual \u003c Application, Landroid/content/Context, registerReceiver(Landroid/content/BroadcastReceiver;Landroid/content/IntentFilter;)Landroid/content/Intent; \u003e@54",
          "type": "ui",
          "activities": [
            "gts.td2.am.full.ttt"
          ],
          "listener": "cn.emagsoftware.gamebilling.view.BillingView$1",
          "listenerMethod": "onClick",
          "uiType": "onClick",
          "constraintsFile": "constraints29_0.py",
          "variables": {},
          "stringMap": {},
          "strings": {}
        },
        {
          "start": "cn.emagsoftware.gamebilling.view.BillingView$1.onClick(Landroid/view/View;)V",
          "target": "PC@37",
          "type": "ui",
          "activities": [
            "gts.td2.am.full.ttt"
          ],
          "listener": "cn.emagsoftware.gamebilling.view.BillingView$1",
          "listenerMethod": "onClick",
          "uiType": "onClick",
          "constraintsFile": "constraints29_1.py",
          "variables": {
            "\u003cChainedInput2\u003e.getAction()": "IAAv1"
          },
          "stringMap": {
            "7000": "cn.emagsoftware.telephony.SMS_SENT",
            "7001": "-2"
          },
          "strings": {
            "IAAv4": "",
            "IAAv1": ""
          }
        },
        {
          "start": "cn.emagsoftware.sdk.sms.SmsSendCallback.onReceive(Landroid/content/Context;Landroid/content/Intent;)V",
          "target": "PC@10",
          "type": "sms",
          "constraintsFile": "constraints29_2.py",
          "variables": {
            "\u003cChainedInput2\u003e.getIntExtra()": "IAAv2",
            "\u003cChainedInput2\u003e.getAction()": "IAAv3"
          },
          "stringMap": {
            "7000": "cn.emagsoftware.telephony.SMS_SENT",
            "7001": "-2"
          },
          "strings": {
            "IAAv3": "",
            "IAAv6": ""
          }
        },
        {
          "start": "cn.emagsoftware.sdk.sms.SmsSendCallback.onReceive(Landroid/content/Context;Landroid/content/Intent;)V",
          "target": "invokevirtual \u003c Application, Ljava/lang/reflect/Method, invoke(Ljava/lang/Object;[Ljava/lang/Object;)Ljava/lang/Object; \u003e@137",
          "type": "sms",
          "constraintsFile": "constraints29_3.py",
          "variables": {
            "\u003cChainedInput2\u003e.getIntExtra()": "IAAv2",
            "\u003cChainedInput2\u003e.getAction()": "IAAv3"
          },
          "stringMap": {
            "7000": "cn.emagsoftware.telephony.SMS_SENT",
            "7001": "-2"
          },
          "strings": {
            "IAAv3": "",
            "IAAv6": ""
          }
        }
      ]
    },
    "30": {
      "startMethod": "cn.emagsoftware.sdk.sms.SmsSendCallback.onReceive(Landroid/content/Context;Landroid/content/Intent;)V",
      "targetMethod": "java.lang.reflect.Method.invoke(Ljava/lang/Object;[Ljava/lang/Object;)Ljava/lang/Object;",
      "eventChain": [
        {
          "start": "cn.emagsoftware.gamebilling.view.BillingView$1.onClick(Landroid/view/View;)V",
          "target": "invokevirtual \u003c Application, Landroid/content/Context, registerReceiver(Landroid/content/BroadcastReceiver;Landroid/content/IntentFilter;)Landroid/content/Intent; \u003e@54",
          "type": "ui",
          "activities": [
            "gts.td2.am.full.ttt"
          ],
          "listener": "cn.emagsoftware.gamebilling.view.BillingView$1",
          "listenerMethod": "onClick",
          "uiType": "onClick",
          "constraintsFile": "constraints30_0.py",
          "variables": {},
          "stringMap": {},
          "strings": {}
        },
        {
          "start": "cn.emagsoftware.gamebilling.view.BillingView$1.onClick(Landroid/view/View;)V",
          "target": "PC@37",
          "type": "ui",
          "activities": [
            "gts.td2.am.full.ttt"
          ],
          "listener": "cn.emagsoftware.gamebilling.view.BillingView$1",
          "listenerMethod": "onClick",
          "uiType": "onClick",
          "constraintsFile": "constraints30_1.py",
          "variables": {
            "\u003cChainedInput2\u003e.getAction()": "IAAv1"
          },
          "stringMap": {
            "7000": "cn.emagsoftware.telephony.SMS_SENT",
            "7001": "-2"
          },
          "strings": {
            "IAAv4": "",
            "IAAv1": ""
          }
        },
        {
          "start": "cn.emagsoftware.sdk.sms.SmsSendCallback.onReceive(Landroid/content/Context;Landroid/content/Intent;)V",
          "target": "PC@10",
          "type": "sms",
          "constraintsFile": "constraints30_2.py",
          "variables": {
            "\u003cChainedInput2\u003e.getIntExtra()": "IAAv2",
            "\u003cChainedInput2\u003e.getAction()": "IAAv3"
          },
          "stringMap": {
            "7000": "cn.emagsoftware.telephony.SMS_SENT",
            "7001": "-2"
          },
          "strings": {
            "IAAv3": "",
            "IAAv6": ""
          }
        },
        {
          "start": "cn.emagsoftware.sdk.sms.SmsSendCallback.onReceive(Landroid/content/Context;Landroid/content/Intent;)V",
          "target": "invokevirtual \u003c Application, Ljava/lang/reflect/Method, invoke(Ljava/lang/Object;[Ljava/lang/Object;)Ljava/lang/Object; \u003e@92",
          "type": "sms",
          "constraintsFile": "constraints30_3.py",
          "variables": {
            "\u003cChainedInput2\u003e.getIntExtra()": "IAAv2",
            "\u003cChainedInput2\u003e.getAction()": "IAAv3"
          },
          "stringMap": {
            "7000": "cn.emagsoftware.telephony.SMS_SENT",
            "7001": "-2"
          },
          "strings": {
            "IAAv3": "",
            "IAAv6": ""
          }
        }
      ]
    },
    "31": {
      "startMethod": "cn.emagsoftware.sdk.sms.SmsSendCallback.onReceive(Landroid/content/Context;Landroid/content/Intent;)V",
      "targetMethod": "java.lang.reflect.Method.invoke(Ljava/lang/Object;[Ljava/lang/Object;)Ljava/lang/Object;",
      "eventChain": [
        {
          "start": "cn.emagsoftware.gamebilling.view.BillingView$1.onClick(Landroid/view/View;)V",
          "target": "invokevirtual \u003c Application, Landroid/content/Context, registerReceiver(Landroid/content/BroadcastReceiver;Landroid/content/IntentFilter;)Landroid/content/Intent; \u003e@54",
          "type": "ui",
          "activities": [
            "gts.td2.am.full.ttt"
          ],
          "listener": "cn.emagsoftware.gamebilling.view.BillingView$1",
          "listenerMethod": "onClick",
          "uiType": "onClick",
          "constraintsFile": "constraints31_0.py",
          "variables": {},
          "stringMap": {},
          "strings": {}
        },
        {
          "start": "cn.emagsoftware.gamebilling.view.BillingView$1.onClick(Landroid/view/View;)V",
          "target": "PC@37",
          "type": "ui",
          "activities": [
            "gts.td2.am.full.ttt"
          ],
          "listener": "cn.emagsoftware.gamebilling.view.BillingView$1",
          "listenerMethod": "onClick",
          "uiType": "onClick",
          "constraintsFile": "constraints31_1.py",
          "variables": {
            "\u003cChainedInput2\u003e.getAction()": "IAAv1"
          },
          "stringMap": {
            "7000": "cn.emagsoftware.telephony.SMS_SENT",
            "7001": "-2"
          },
          "strings": {
            "IAAv4": "",
            "IAAv1": ""
          }
        },
        {
          "start": "cn.emagsoftware.sdk.sms.SmsSendCallback.onReceive(Landroid/content/Context;Landroid/content/Intent;)V",
          "target": "PC@10",
          "type": "sms",
          "constraintsFile": "constraints31_2.py",
          "variables": {
            "\u003cChainedInput2\u003e.getIntExtra()": "IAAv2",
            "\u003cChainedInput2\u003e.getAction()": "IAAv3"
          },
          "stringMap": {
            "7000": "cn.emagsoftware.telephony.SMS_SENT",
            "7001": "-2"
          },
          "strings": {
            "IAAv3": "",
            "IAAv6": ""
          }
        },
        {
          "start": "cn.emagsoftware.sdk.sms.SmsSendCallback.onReceive(Landroid/content/Context;Landroid/content/Intent;)V",
          "target": "invokevirtual \u003c Application, Ljava/lang/reflect/Method, invoke(Ljava/lang/Object;[Ljava/lang/Object;)Ljava/lang/Object; \u003e@95",
          "type": "sms",
          "constraintsFile": "constraints31_3.py",
          "variables": {
            "\u003cChainedInput2\u003e.getIntExtra()": "IAAv2",
            "\u003cChainedInput2\u003e.getAction()": "IAAv3"
          },
          "stringMap": {
            "7000": "cn.emagsoftware.telephony.SMS_SENT",
            "7001": "-2"
          },
          "strings": {
            "IAAv3": "",
            "IAAv6": ""
          }
        }
      ]
    },
    "32": {
      "startMethod": "cn.emagsoftware.sdk.sms.SmsSendCallback.onReceive(Landroid/content/Context;Landroid/content/Intent;)V",
      "targetMethod": "java.lang.reflect.Method.invoke(Ljava/lang/Object;[Ljava/lang/Object;)Ljava/lang/Object;",
      "eventChain": [
        {
          "start": "cn.emagsoftware.gamebilling.view.BillingView$1.onClick(Landroid/view/View;)V",
          "target": "invokevirtual \u003c Application, Landroid/content/Context, registerReceiver(Landroid/content/BroadcastReceiver;Landroid/content/IntentFilter;)Landroid/content/Intent; \u003e@54",
          "type": "ui",
          "activities": [
            "gts.td2.am.full.ttt"
          ],
          "listener": "cn.emagsoftware.gamebilling.view.BillingView$1",
          "listenerMethod": "onClick",
          "uiType": "onClick",
          "constraintsFile": "constraints32_0.py",
          "variables": {},
          "stringMap": {},
          "strings": {}
        },
        {
          "start": "cn.emagsoftware.gamebilling.view.BillingView$1.onClick(Landroid/view/View;)V",
          "target": "PC@37",
          "type": "ui",
          "activities": [
            "gts.td2.am.full.ttt"
          ],
          "listener": "cn.emagsoftware.gamebilling.view.BillingView$1",
          "listenerMethod": "onClick",
          "uiType": "onClick",
          "constraintsFile": "constraints32_1.py",
          "variables": {
            "\u003cChainedInput2\u003e.getAction()": "IAAv1"
          },
          "stringMap": {
            "7000": "cn.emagsoftware.telephony.SMS_SENT",
            "7001": "-2"
          },
          "strings": {
            "IAAv4": "",
            "IAAv1": ""
          }
        },
        {
          "start": "cn.emagsoftware.sdk.sms.SmsSendCallback.onReceive(Landroid/content/Context;Landroid/content/Intent;)V",
          "target": "PC@10",
          "type": "sms",
          "constraintsFile": "constraints32_2.py",
          "variables": {
            "\u003cChainedInput2\u003e.getIntExtra()": "IAAv2",
            "\u003cChainedInput2\u003e.getAction()": "IAAv3"
          },
          "stringMap": {
            "7000": "cn.emagsoftware.telephony.SMS_SENT",
            "7001": "-2"
          },
          "strings": {
            "IAAv3": "",
            "IAAv6": ""
          }
        },
        {
          "start": "cn.emagsoftware.sdk.sms.SmsSendCallback.onReceive(Landroid/content/Context;Landroid/content/Intent;)V",
          "target": "invokevirtual \u003c Application, Ljava/lang/reflect/Method, invoke(Ljava/lang/Object;[Ljava/lang/Object;)Ljava/lang/Object; \u003e@260",
          "type": "sms",
          "constraintsFile": "constraints32_3.py",
          "variables": {
            "\u003cChainedInput2\u003e.getIntExtra()": "IAAv2",
            "\u003cChainedInput2\u003e.getAction()": "IAAv3"
          },
          "stringMap": {
            "7000": "cn.emagsoftware.telephony.SMS_SENT",
            "7001": "-2"
          },
          "strings": {
            "IAAv3": "",
            "IAAv6": ""
          }
        }
      ]
    },
    "33": {
      "startMethod": "cn.emagsoftware.sdk.sms.SmsSendCallback.onReceive(Landroid/content/Context;Landroid/content/Intent;)V",
      "targetMethod": "java.lang.reflect.Method.invoke(Ljava/lang/Object;[Ljava/lang/Object;)Ljava/lang/Object;",
      "eventChain": [
        {
          "start": "cn.emagsoftware.gamebilling.view.BillingView$1.onClick(Landroid/view/View;)V",
          "target": "invokevirtual \u003c Application, Landroid/content/Context, registerReceiver(Landroid/content/BroadcastReceiver;Landroid/content/IntentFilter;)Landroid/content/Intent; \u003e@54",
          "type": "ui",
          "activities": [
            "gts.td2.am.full.ttt"
          ],
          "listener": "cn.emagsoftware.gamebilling.view.BillingView$1",
          "listenerMethod": "onClick",
          "uiType": "onClick",
          "constraintsFile": "constraints33_0.py",
          "variables": {},
          "stringMap": {},
          "strings": {}
        },
        {
          "start": "cn.emagsoftware.gamebilling.view.BillingView$1.onClick(Landroid/view/View;)V",
          "target": "PC@37",
          "type": "ui",
          "activities": [
            "gts.td2.am.full.ttt"
          ],
          "listener": "cn.emagsoftware.gamebilling.view.BillingView$1",
          "listenerMethod": "onClick",
          "uiType": "onClick",
          "constraintsFile": "constraints33_1.py",
          "variables": {
            "\u003cChainedInput2\u003e.getAction()": "IAAv1"
          },
          "stringMap": {
            "7000": "cn.emagsoftware.telephony.SMS_SENT",
            "7001": "-2"
          },
          "strings": {
            "IAAv4": "",
            "IAAv1": ""
          }
        },
        {
          "start": "cn.emagsoftware.sdk.sms.SmsSendCallback.onReceive(Landroid/content/Context;Landroid/content/Intent;)V",
          "target": "PC@10",
          "type": "sms",
          "constraintsFile": "constraints33_2.py",
          "variables": {
            "\u003cChainedInput2\u003e.getIntExtra()": "IAAv2",
            "\u003cChainedInput2\u003e.getAction()": "IAAv3"
          },
          "stringMap": {
            "7000": "cn.emagsoftware.telephony.SMS_SENT",
            "7001": "-2"
          },
          "strings": {
            "IAAv3": "",
            "IAAv6": ""
          }
        },
        {
          "start": "cn.emagsoftware.sdk.sms.SmsSendCallback.onReceive(Landroid/content/Context;Landroid/content/Intent;)V",
          "target": "invokevirtual \u003c Application, Ljava/lang/reflect/Method, invoke(Ljava/lang/Object;[Ljava/lang/Object;)Ljava/lang/Object; \u003e@313",
          "type": "sms",
          "constraintsFile": "constraints33_3.py",
          "variables": {
            "\u003cChainedInput2\u003e.getIntExtra()": "IAAv2",
            "\u003cChainedInput2\u003e.getAction()": "IAAv3"
          },
          "stringMap": {
            "7000": "cn.emagsoftware.telephony.SMS_SENT",
            "7001": "-2"
          },
          "strings": {
            "IAAv3": "",
            "IAAv6": ""
          }
        }
      ]
    },
    "34": {
      "startMethod": "cn.emagsoftware.sdk.sms.SmsSendCallback.onReceive(Landroid/content/Context;Landroid/content/Intent;)V",
      "targetMethod": "java.lang.reflect.Method.invoke(Ljava/lang/Object;[Ljava/lang/Object;)Ljava/lang/Object;",
      "eventChain": [
        {
          "start": "cn.emagsoftware.gamebilling.view.BillingView$1.onClick(Landroid/view/View;)V",
          "target": "invokevirtual \u003c Application, Landroid/content/Context, registerReceiver(Landroid/content/BroadcastReceiver;Landroid/content/IntentFilter;)Landroid/content/Intent; \u003e@54",
          "type": "ui",
          "activities": [
            "gts.td2.am.full.ttt"
          ],
          "listener": "cn.emagsoftware.gamebilling.view.BillingView$1",
          "listenerMethod": "onClick",
          "uiType": "onClick",
          "constraintsFile": "constraints34_0.py",
          "variables": {},
          "stringMap": {},
          "strings": {}
        },
        {
          "start": "cn.emagsoftware.gamebilling.view.BillingView$1.onClick(Landroid/view/View;)V",
          "target": "PC@37",
          "type": "ui",
          "activities": [
            "gts.td2.am.full.ttt"
          ],
          "listener": "cn.emagsoftware.gamebilling.view.BillingView$1",
          "listenerMethod": "onClick",
          "uiType": "onClick",
          "constraintsFile": "constraints34_1.py",
          "variables": {
            "\u003cChainedInput2\u003e.getAction()": "IAAv1"
          },
          "stringMap": {
            "7000": "cn.emagsoftware.telephony.SMS_SENT",
            "7001": "-2"
          },
          "strings": {
            "IAAv4": "",
            "IAAv1": ""
          }
        },
        {
          "start": "cn.emagsoftware.sdk.sms.SmsSendCallback.onReceive(Landroid/content/Context;Landroid/content/Intent;)V",
          "target": "PC@10",
          "type": "sms",
          "constraintsFile": "constraints34_2.py",
          "variables": {
            "\u003cChainedInput2\u003e.getIntExtra()": "IAAv2",
            "\u003cChainedInput2\u003e.getAction()": "IAAv3"
          },
          "stringMap": {
            "7000": "cn.emagsoftware.telephony.SMS_SENT",
            "7001": "-2"
          },
          "strings": {
            "IAAv3": "",
            "IAAv6": ""
          }
        },
        {
          "start": "cn.emagsoftware.sdk.sms.SmsSendCallback.onReceive(Landroid/content/Context;Landroid/content/Intent;)V",
          "target": "invokevirtual \u003c Application, Ljava/lang/reflect/Method, invoke(Ljava/lang/Object;[Ljava/lang/Object;)Ljava/lang/Object; \u003e@151",
          "type": "sms",
          "constraintsFile": "constraints34_3.py",
          "variables": {
            "\u003cChainedInput2\u003e.getIntExtra()": "IAAv2",
            "\u003cChainedInput2\u003e.getAction()": "IAAv3"
          },
          "stringMap": {
            "7000": "cn.emagsoftware.telephony.SMS_SENT",
            "7001": "-2"
          },
          "strings": {
            "IAAv3": "",
            "IAAv6": ""
          }
        }
      ]
    },
    "35": {
      "startMethod": "cn.emagsoftware.sdk.sms.SmsSendCallback.onReceive(Landroid/content/Context;Landroid/content/Intent;)V",
      "targetMethod": "java.lang.reflect.Method.invoke(Ljava/lang/Object;[Ljava/lang/Object;)Ljava/lang/Object;",
      "eventChain": [
        {
          "start": "cn.emagsoftware.gamebilling.view.BillingView$1.onClick(Landroid/view/View;)V",
          "target": "invokevirtual \u003c Application, Landroid/content/Context, registerReceiver(Landroid/content/BroadcastReceiver;Landroid/content/IntentFilter;)Landroid/content/Intent; \u003e@54",
          "type": "ui",
          "activities": [
            "gts.td2.am.full.ttt"
          ],
          "listener": "cn.emagsoftware.gamebilling.view.BillingView$1",
          "listenerMethod": "onClick",
          "uiType": "onClick",
          "constraintsFile": "constraints35_0.py",
          "variables": {},
          "stringMap": {},
          "strings": {}
        },
        {
          "start": "cn.emagsoftware.gamebilling.view.BillingView$1.onClick(Landroid/view/View;)V",
          "target": "PC@37",
          "type": "ui",
          "activities": [
            "gts.td2.am.full.ttt"
          ],
          "listener": "cn.emagsoftware.gamebilling.view.BillingView$1",
          "listenerMethod": "onClick",
          "uiType": "onClick",
          "constraintsFile": "constraints35_1.py",
          "variables": {
            "\u003cChainedInput2\u003e.getAction()": "IAAv1"
          },
          "stringMap": {
            "7000": "cn.emagsoftware.telephony.SMS_SENT",
            "7001": "-2"
          },
          "strings": {
            "IAAv4": "",
            "IAAv1": ""
          }
        },
        {
          "start": "cn.emagsoftware.sdk.sms.SmsSendCallback.onReceive(Landroid/content/Context;Landroid/content/Intent;)V",
          "target": "PC@10",
          "type": "sms",
          "constraintsFile": "constraints35_2.py",
          "variables": {
            "\u003cChainedInput2\u003e.getIntExtra()": "IAAv2",
            "\u003cChainedInput2\u003e.getAction()": "IAAv3"
          },
          "stringMap": {
            "7000": "cn.emagsoftware.telephony.SMS_SENT",
            "7001": "-2"
          },
          "strings": {
            "IAAv3": "",
            "IAAv6": ""
          }
        },
        {
          "start": "cn.emagsoftware.sdk.sms.SmsSendCallback.onReceive(Landroid/content/Context;Landroid/content/Intent;)V",
          "target": "invokevirtual \u003c Application, Ljava/lang/reflect/Method, invoke(Ljava/lang/Object;[Ljava/lang/Object;)Ljava/lang/Object; \u003e@103",
          "type": "sms",
          "constraintsFile": "constraints35_3.py",
          "variables": {
            "\u003cChainedInput2\u003e.getIntExtra()": "IAAv2",
            "\u003cChainedInput2\u003e.getAction()": "IAAv3"
          },
          "stringMap": {
            "7000": "cn.emagsoftware.telephony.SMS_SENT",
            "7001": "-2"
          },
          "strings": {
            "IAAv3": "",
            "IAAv6": ""
          }
        }
      ]
    }
  }
}