{
  "packageName": "com.hema.livewallpaper.he2",
  "mainActivity": "com.hema.livewallpaper.he2.HowToActivity",
  "callPaths": {
    "0": {
      "startMethod": "com.kuguo.ad.MainActivity.onCreate(Landroid/os/Bundle;)V",
      "targetMethod": "org.apache.http.client.HttpClient.execute(Lorg/apache/http/client/methods/HttpUriRequest;)Lorg/apache/http/HttpResponse;",
      "eventChain": [
        {
          "start": "com.kuguo.ad.MainActivity.onCreate(Landroid/os/Bundle;)V",
          "target": "invokeinterface \u003c Application, Lorg/apache/http/client/HttpClient, execute(Lorg/apache/http/client/methods/HttpUriRequest;)Lorg/apache/http/HttpResponse; \u003e@432",
          "type": "activity",
          "component": "com.kuguo.ad.MainActivity"
        }
      ]
    },
    "1": {
      "startMethod": "com.kuguo.ad.MainService.onCreate()V",
      "targetMethod": "org.apache.http.client.HttpClient.execute(Lorg/apache/http/client/methods/HttpUriRequest;)Lorg/apache/http/HttpResponse;",
      "eventChain": [
        {
          "start": "com.kuguo.ad.j.onClick(Landroid/view/View;)V",
          "target": "PC@3",
          "type": "ui",
          "activities": [
            "com.hema.livewallpaper.he2.HowToActivity"
          ],
          "listener": "com.kuguo.ad.j",
          "listenerMethod": "onClick",
          "uiType": "onClick",
          "constraintsFile": "constraints1_0.py",
          "variables": {
            "\u003cChainedInput1\u003e.getTag().intValue()": "IAAv1"
          },
          "stringMap": {
            "7000": ""
          },
          "strings": {
            "IAAv2": ""
          }
        },
        {
          "start": "com.kuguo.ad.j.onClick(Landroid/view/View;)V",
          "target": "PC@68",
          "type": "ui",
          "activities": [
            "com.hema.livewallpaper.he2.HowToActivity"
          ],
          "listener": "com.kuguo.ad.j",
          "listenerMethod": "onClick",
          "uiType": "onClick",
          "constraintsFile": "constraints1_1.py",
          "variables": {
            "\u003cChainedInput1\u003e.getTag().intValue()": "IAAv1"
          },
          "stringMap": {
            "7000": ""
          },
          "strings": {
            "IAAv2": ""
          }
        },
        {
          "start": "com.kuguo.ad.j.onClick(Landroid/view/View;)V",
          "target": "PC@24",
          "type": "ui",
          "activities": [
            "com.hema.livewallpaper.he2.HowToActivity"
          ],
          "listener": "com.kuguo.ad.j",
          "listenerMethod": "onClick",
          "uiType": "onClick",
          "constraintsFile": "constraints1_2.py",
          "variables": {
            "\u003cChainedInput1\u003e.getTag().intValue()": "IAAv13"
          },
          "stringMap": {
            "7000": ""
          },
          "strings": {
            "IAAv14": ""
          }
        },
        {
          "start": "com.kuguo.ad.j.onClick(Landroid/view/View;)V",
          "target": "PC@11",
          "type": "ui",
          "activities": [
            "com.hema.livewallpaper.he2.HowToActivity"
          ],
          "listener": "com.kuguo.ad.j",
          "listenerMethod": "onClick",
          "uiType": "onClick",
          "constraintsFile": "constraints1_3.py",
          "variables": {
            "\u003cChainedInput1\u003e.getTag().intValue()": "IAAv13"
          },
          "stringMap": {
            "7000": ""
          },
          "strings": {
            "IAAv14": ""
          }
        },
        {
          "start": "com.kuguo.ad.j.onClick(Landroid/view/View;)V",
          "target": "",
          "type": "ui",
          "activities": [
            "com.hema.livewallpaper.he2.HowToActivity"
          ],
          "listener": "com.kuguo.ad.j",
          "listenerMethod": "onClick",
          "uiType": "onClick",
          "constraintsFile": "constraints1_4.py",
          "variables": {
            "\u003cChainedInput1\u003e.getTag().intValue()": "IAAv1"
          },
          "stringMap": {
            "7000": ""
          },
          "strings": {
            "IAAv2": ""
          }
        },
        {
          "start": "com.kuguo.ad.MainService.onCreate()V",
          "target": "invokeinterface \u003c Application, Lorg/apache/http/client/HttpClient, execute(Lorg/apache/http/client/methods/HttpUriRequest;)Lorg/apache/http/HttpResponse; \u003e@432",
          "type": "service",
          "component": "com.kuguo.ad.MainService",
          "constraintsFile": "constraints1_5.py",
          "variables": {},
          "stringMap": {},
          "strings": {}
        }
      ]
    },
    "2": {
      "startMethod": "com.kuguo.ad.BoutiqueActivity.onCreate(Landroid/os/Bundle;)V",
      "targetMethod": "org.apache.http.impl.client.DefaultHttpClient.execute(Lorg/apache/http/client/methods/HttpUriRequest;)Lorg/apache/http/HttpResponse;",
      "eventChain": [
        {
          "start": "com.kuguo.ad.BoutiqueActivity.onCreate(Landroid/os/Bundle;)V",
          "target": "invokevirtual \u003c Application, Lorg/apache/http/impl/client/DefaultHttpClient, execute(Lorg/apache/http/client/methods/HttpUriRequest;)Lorg/apache/http/HttpResponse; \u003e@446",
          "type": "activity",
          "component": "com.kuguo.ad.BoutiqueActivity",
          "constraintsFile": "constraints2_0.py",
          "variables": {},
          "stringMap": {},
          "strings": {
            "IAAv4": "",
            "IAAv2": "",
            "IAAv1": ""
          }
        }
      ]
    },
    "3": {
      "startMethod": "com.kuguo.ad.BoutiqueActivity.onCreate(Landroid/os/Bundle;)V",
      "targetMethod": "org.apache.http.client.HttpClient.execute(Lorg/apache/http/client/methods/HttpUriRequest;)Lorg/apache/http/HttpResponse;",
      "eventChain": [
        {
          "start": "com.kuguo.ad.BoutiqueActivity.onCreate(Landroid/os/Bundle;)V",
          "target": "invokeinterface \u003c Application, Lorg/apache/http/client/HttpClient, execute(Lorg/apache/http/client/methods/HttpUriRequest;)Lorg/apache/http/HttpResponse; \u003e@130",
          "type": "activity",
          "component": "com.kuguo.ad.BoutiqueActivity",
          "constraintsFile": "constraints3_0.py",
          "variables": {},
          "stringMap": {},
          "strings": {}
        }
      ]
    },
    "4": {
      "startMethod": "com.kuguo.ad.BoutiqueActivity.onCreate(Landroid/os/Bundle;)V",
      "targetMethod": "org.apache.http.client.HttpClient.execute(Lorg/apache/http/client/methods/HttpUriRequest;)Lorg/apache/http/HttpResponse;",
      "eventChain": [
        {
          "start": "com.kuguo.ad.BoutiqueActivity.onCreate(Landroid/os/Bundle;)V",
          "target": "invokeinterface \u003c Application, Lorg/apache/http/client/HttpClient, execute(Lorg/apache/http/client/methods/HttpUriRequest;)Lorg/apache/http/HttpResponse; \u003e@432",
          "type": "activity",
          "component": "com.kuguo.ad.BoutiqueActivity",
          "constraintsFile": "constraints4_0.py",
          "variables": {},
          "stringMap": {},
          "strings": {}
        }
      ]
    },
    "5": {
      "startMethod": "com.kuguo.ad.BoutiqueActivity.onCreate(Landroid/os/Bundle;)V",
      "targetMethod": "java.net.URL.openConnection()Ljava/net/URLConnection;",
      "eventChain": [
        {
          "start": "com.kuguo.ad.BoutiqueActivity.onCreate(Landroid/os/Bundle;)V",
          "target": "invokevirtual \u003c Application, Ljava/net/URL, openConnection()Ljava/net/URLConnection; \u003e@85",
          "type": "activity",
          "component": "com.kuguo.ad.BoutiqueActivity",
          "constraintsFile": "constraints5_0.py",
          "variables": {},
          "stringMap": {},
          "strings": {
            "IAAv2": "",
            "IAAv1": ""
          }
        }
      ]
    },
    "6": {
      "startMethod": "com.kuguo.ad.j.onClick(Landroid/view/View;)V",
      "targetMethod": "org.apache.http.client.HttpClient.execute(Lorg/apache/http/client/methods/HttpUriRequest;)Lorg/apache/http/HttpResponse;",
      "eventChain": [
        {
          "start": "com.kuguo.ad.MainActivity.onCreate(Landroid/os/Bundle;)V",
          "target": "invokevirtual \u003c Application, Landroid/widget/ImageView, setOnClickListener(Landroid/view/View$OnClickListener;)V \u003e@1833",
          "type": "activity",
          "component": "com.kuguo.ad.MainActivity",
          "constraintsFile": "constraints6_0.py",
          "variables": {},
          "stringMap": {},
          "strings": {}
        },
        {
          "start": "com.kuguo.ad.j.onClick(Landroid/view/View;)V",
          "target": "PC@3",
          "type": "ui",
          "activities": [
            "com.hema.livewallpaper.he2.HowToActivity"
          ],
          "listener": "com.kuguo.ad.j",
          "listenerMethod": "onClick",
          "uiType": "onClick",
          "constraintsFile": "constraints6_1.py",
          "variables": {
            "\u003cChainedInput1\u003e.getTag().intValue()": "IAAv1"
          },
          "stringMap": {
            "7000": ""
          },
          "strings": {
            "IAAv2": ""
          }
        },
        {
          "start": "com.kuguo.ad.j.onClick(Landroid/view/View;)V",
          "target": "PC@68",
          "type": "ui",
          "activities": [
            "com.hema.livewallpaper.he2.HowToActivity"
          ],
          "listener": "com.kuguo.ad.j",
          "listenerMethod": "onClick",
          "uiType": "onClick",
          "constraintsFile": "constraints6_2.py",
          "variables": {
            "\u003cChainedInput1\u003e.getTag().intValue()": "IAAv1"
          },
          "stringMap": {
            "7000": ""
          },
          "strings": {
            "IAAv2": ""
          }
        },
        {
          "start": "com.kuguo.ad.MainActivity.onCreate(Landroid/os/Bundle;)V",
          "target": "PC@3",
          "type": "activity",
          "component": "com.kuguo.ad.MainActivity",
          "constraintsFile": "constraints6_3.py",
          "variables": {
            "\u003cChainedInput1\u003e.getTag().intValue()": "IAAv1"
          },
          "stringMap": {
            "7000": ""
          },
          "strings": {
            "IAAv2": ""
          }
        },
        {
          "start": "com.kuguo.ad.j.onClick(Landroid/view/View;)V",
          "target": "PC@24",
          "type": "ui",
          "activities": [
            "com.hema.livewallpaper.he2.HowToActivity"
          ],
          "listener": "com.kuguo.ad.j",
          "listenerMethod": "onClick",
          "uiType": "onClick",
          "constraintsFile": "constraints6_4.py",
          "variables": {
            "\u003cChainedInput1\u003e.getTag().intValue()": "IAAv1"
          },
          "stringMap": {
            "7000": ""
          },
          "strings": {
            "IAAv2": ""
          }
        },
        {
          "start": "com.kuguo.ad.j.onClick(Landroid/view/View;)V",
          "target": "PC@11",
          "type": "ui",
          "activities": [
            "com.hema.livewallpaper.he2.HowToActivity"
          ],
          "listener": "com.kuguo.ad.j",
          "listenerMethod": "onClick",
          "uiType": "onClick",
          "constraintsFile": "constraints6_5.py",
          "variables": {
            "\u003cChainedInput1\u003e.getTag().intValue()": "IAAv1"
          },
          "stringMap": {
            "7000": ""
          },
          "strings": {
            "IAAv2": ""
          }
        },
        {
          "start": "com.kuguo.ad.j.onClick(Landroid/view/View;)V",
          "target": "",
          "type": "ui",
          "activities": [
            "com.hema.livewallpaper.he2.HowToActivity"
          ],
          "listener": "com.kuguo.ad.j",
          "listenerMethod": "onClick",
          "uiType": "onClick",
          "constraintsFile": "constraints6_6.py",
          "variables": {
            "\u003cChainedInput1\u003e.getTag().intValue()": "IAAv1"
          },
          "stringMap": {
            "7000": ""
          },
          "strings": {
            "IAAv2": ""
          }
        },
        {
          "start": "com.kuguo.ad.j.onClick(Landroid/view/View;)V",
          "target": "invokeinterface \u003c Application, Lorg/apache/http/client/HttpClient, execute(Lorg/apache/http/client/methods/HttpUriRequest;)Lorg/apache/http/HttpResponse; \u003e@432",
          "type": "ui",
          "activities": [
            "com.hema.livewallpaper.he2.HowToActivity"
          ],
          "listener": "com.kuguo.ad.j",
          "listenerMethod": "onClick",
          "uiType": "onClick",
          "constraintsFile": "constraints6_7.py",
          "variables": {
            "\u003cChainedInput1\u003e.getTag().intValue()": "IAAv1"
          },
          "stringMap": {
            "7000": ""
          },
          "strings": {
            "IAAv2": ""
          }
        }
      ]
    }
  }
}