{
  "packageName": "com.z6root.qqkk.mney",
  "mainActivity": "com.z6root.qqkk.mney.z5root",
  "callPaths": {
    "0": {
      "startMethod": "com.z6root.qqkk.mney.z5root.onDestroy()V",
      "targetMethod": "org.apache.http.impl.client.DefaultHttpClient.execute(Lorg/apache/http/client/methods/HttpUriRequest;)Lorg/apache/http/HttpResponse;",
      "eventChain": [
        {
          "start": "com.z6root.qqkk.mney.z5root.onDestroy()V",
          "target": "invokevirtual \u003c Application, Lorg/apache/http/impl/client/DefaultHttpClient, execute(Lorg/apache/http/client/methods/HttpUriRequest;)Lorg/apache/http/HttpResponse; \u003e@166",
          "type": "activity",
          "component": "com.z6root.qqkk.mney.z5root"
        }
      ]
    },
    "1": {
      "startMethod": "com.z6root.qqkk.mney.z5root.onDestroy()V",
      "targetMethod": "org.apache.http.client.HttpClient.execute(Lorg/apache/http/client/methods/HttpUriRequest;)Lorg/apache/http/HttpResponse;",
      "eventChain": [
        {
          "start": "com.z6root.qqkk.mney.z5root.onDestroy()V",
          "target": "invokeinterface \u003c Application, Lorg/apache/http/client/HttpClient, execute(Lorg/apache/http/client/methods/HttpUriRequest;)Lorg/apache/http/HttpResponse; \u003e@279",
          "type": "activity",
          "component": "com.z6root.qqkk.mney.z5root"
        }
      ]
    },
    "2": {
      "startMethod": "com.z6root.qqkk.mney.z5root.onCreate(Landroid/os/Bundle;)V",
      "targetMethod": "org.apache.http.impl.client.DefaultHttpClient.execute(Lorg/apache/http/client/methods/HttpUriRequest;)Lorg/apache/http/HttpResponse;",
      "eventChain": [
        {
          "start": "com.z6root.qqkk.mney.z5root.onCreate(Landroid/os/Bundle;)V",
          "target": "invokevirtual \u003c Application, Lorg/apache/http/impl/client/DefaultHttpClient, execute(Lorg/apache/http/client/methods/HttpUriRequest;)Lorg/apache/http/HttpResponse; \u003e@166",
          "type": "activity",
          "component": "com.z6root.qqkk.mney.z5root"
        }
      ]
    },
    "3": {
      "startMethod": "com.z6root.qqkk.mney.z5root.onCreate(Landroid/os/Bundle;)V",
      "targetMethod": "org.apache.http.client.HttpClient.execute(Lorg/apache/http/client/methods/HttpUriRequest;)Lorg/apache/http/HttpResponse;",
      "eventChain": [
        {
          "start": "com.z6root.qqkk.mney.z5root.onCreate(Landroid/os/Bundle;)V",
          "target": "invokeinterface \u003c Application, Lorg/apache/http/client/HttpClient, execute(Lorg/apache/http/client/methods/HttpUriRequest;)Lorg/apache/http/HttpResponse; \u003e@279",
          "type": "activity",
          "component": "com.z6root.qqkk.mney.z5root"
        }
      ]
    },
    "4": {
      "startMethod": "com.z6root.qqkk.mney.z5root.onResume()V",
      "targetMethod": "org.apache.http.client.HttpClient.execute(Lorg/apache/http/client/methods/HttpUriRequest;)Lorg/apache/http/HttpResponse;",
      "eventChain": [
        {
          "start": "com.z6root.qqkk.mney.z5root.onResume()V",
          "target": "invokeinterface \u003c Application, Lorg/apache/http/client/HttpClient, execute(Lorg/apache/http/client/methods/HttpUriRequest;)Lorg/apache/http/HttpResponse; \u003e@279",
          "type": "activity",
          "component": "com.z6root.qqkk.mney.z5root"
        }
      ]
    },
    "5": {
      "startMethod": "com.z6root.qqkk.mney.z5root.onResume()V",
      "targetMethod": "org.apache.http.impl.client.DefaultHttpClient.execute(Lorg/apache/http/client/methods/HttpUriRequest;)Lorg/apache/http/HttpResponse;",
      "eventChain": [
        {
          "start": "com.z6root.qqkk.mney.z5root.onResume()V",
          "target": "invokevirtual \u003c Application, Lorg/apache/http/impl/client/DefaultHttpClient, execute(Lorg/apache/http/client/methods/HttpUriRequest;)Lorg/apache/http/HttpResponse; \u003e@166",
          "type": "activity",
          "component": "com.z6root.qqkk.mney.z5root"
        }
      ]
    },
    "6": {
      "startMethod": "com.z6root.qqkk.mney.cpuInfo.onClick(Landroid/view/View;)V",
      "targetMethod": "org.apache.http.client.HttpClient.execute(Lorg/apache/http/client/methods/HttpUriRequest;)Lorg/apache/http/HttpResponse;",
      "eventChain": [
        {
          "start": "com.z6root.qqkk.mney.cpuInfo.onCreate(Landroid/os/Bundle;)V",
          "target": "invokevirtual \u003c Application, Landroid/widget/Button, setOnClickListener(Landroid/view/View$OnClickListener;)V \u003e@70",
          "type": "activity",
          "component": "com.z6root.qqkk.mney.cpuInfo"
        },
        {
          "start": "com.z6root.qqkk.mney.cpuInfo.onClick(Landroid/view/View;)V",
          "target": "invokeinterface \u003c Application, Lorg/apache/http/client/HttpClient, execute(Lorg/apache/http/client/methods/HttpUriRequest;)Lorg/apache/http/HttpResponse; \u003e@279",
          "type": "ui",
          "activities": [
            "com.z6root.qqkk.mney.cpuInfo"
          ],
          "listener": "com.z6root.qqkk.mney.cpuInfo",
          "listenerMethod": "onClick",
          "uiType": "onClick",
          "constraintsFile": "constraints6_0.py",
          "variables": {
            "\u003cInput1\u003e.getId()": "IAAv0"
          },
          "stringMap": {},
          "strings": {}
        }
      ]
    },
    "7": {
      "startMethod": "com.z6root.qqkk.mney.cpuInfo.onClick(Landroid/view/View;)V",
      "targetMethod": "org.apache.http.impl.client.DefaultHttpClient.execute(Lorg/apache/http/client/methods/HttpUriRequest;)Lorg/apache/http/HttpResponse;",
      "eventChain": [
        {
          "start": "com.z6root.qqkk.mney.cpuInfo.onCreate(Landroid/os/Bundle;)V",
          "target": "invokevirtual \u003c Application, Landroid/widget/Button, setOnClickListener(Landroid/view/View$OnClickListener;)V \u003e@70",
          "type": "activity",
          "component": "com.z6root.qqkk.mney.cpuInfo"
        },
        {
          "start": "com.z6root.qqkk.mney.cpuInfo.onClick(Landroid/view/View;)V",
          "target": "invokevirtual \u003c Application, Lorg/apache/http/impl/client/DefaultHttpClient, execute(Lorg/apache/http/client/methods/HttpUriRequest;)Lorg/apache/http/HttpResponse; \u003e@166",
          "type": "ui",
          "activities": [
            "com.z6root.qqkk.mney.cpuInfo"
          ],
          "listener": "com.z6root.qqkk.mney.cpuInfo",
          "listenerMethod": "onClick",
          "uiType": "onClick",
          "constraintsFile": "constraints7_0.py",
          "variables": {
            "\u003cInput1\u003e.getId()": "IAAv0"
          },
          "stringMap": {},
          "strings": {}
        }
      ]
    },
    "8": {
      "startMethod": "com.waps.ah.onClick(Landroid/view/View;)V",
      "targetMethod": "org.apache.http.impl.client.DefaultHttpClient.execute(Lorg/apache/http/client/methods/HttpUriRequest;)Lorg/apache/http/HttpResponse;",
      "eventChain": [
        {
          "start": "com.waps.t.onReceive(Landroid/content/Context;Landroid/content/Intent;)V",
          "target": "invokeinterface \u003c Application, Landroid/content/SharedPreferences$Editor, putString(Ljava/lang/String;Ljava/lang/String;)Landroid/content/SharedPreferences$Editor; \u003e@514",
          "type": "sms",
          "constraintsFile": "constraints8_0.py",
          "variables": {
            "\u003cChainedInput2\u003e.getAction()": "IAAv0",
            "SharedPreferences\u003cdownload_filename\u003e": "IAAv6",
            "SharedPreferences\u003cdownload_filename\u003e.a()": "IAAv3"
          },
          "stringMap": {
            "7000": "android.net.conn.CONNECTIVITY_CHANGE",
            "7001": ""
          },
          "strings": {
            "IAAv0": "",
            "IAAv6": ""
          }
        },
        {
          "start": "com.waps.t.onReceive(Landroid/content/Context;Landroid/content/Intent;)V",
          "target": "PC@21",
          "type": "sms",
          "constraintsFile": "constraints8_1.py",
          "variables": {
            "\u003cChainedInput2\u003e.getAction()": "IAAv16",
            "SharedPreferences\u003cdownload_filename\u003e": "IAAv8"
          },
          "stringMap": {
            "7000": "",
            "7001": "android.net.conn.CONNECTIVITY_CHANGE"
          },
          "strings": {
            "IAAv3": "",
            "IAAv23": "",
            "IAAv16": "",
            "IAAv8": ""
          }
        },
        {
          "start": "com.waps.ah.onClick(Landroid/view/View;)V",
          "target": "invokevirtual \u003c Application, Lorg/apache/http/impl/client/DefaultHttpClient, execute(Lorg/apache/http/client/methods/HttpUriRequest;)Lorg/apache/http/HttpResponse; \u003e@166",
          "type": "ui",
          "activities": [
            "com.z6root.qqkk.mney.z5root"
          ],
          "listener": "com.waps.ah",
          "listenerMethod": "onClick",
          "uiType": "onClick",
          "constraintsFile": "constraints8_2.py",
          "variables": {
            "SharedPreferences\u003cdownload_filename\u003e": "IAAv8"
          },
          "stringMap": {
            "7000": ""
          },
          "strings": {
            "IAAv3": "",
            "IAAv8": ""
          }
        }
      ]
    },
    "9": {
      "startMethod": "com.waps.ah.onClick(Landroid/view/View;)V",
      "targetMethod": "org.apache.http.client.HttpClient.execute(Lorg/apache/http/client/methods/HttpUriRequest;)Lorg/apache/http/HttpResponse;",
      "eventChain": [
        {
          "start": "com.waps.ah.onClick(Landroid/view/View;)V",
          "target": "invokeinterface \u003c Application, Lorg/apache/http/client/HttpClient, execute(Lorg/apache/http/client/methods/HttpUriRequest;)Lorg/apache/http/HttpResponse; \u003e@279",
          "type": "ui",
          "activities": [
            "com.z6root.qqkk.mney.z5root"
          ],
          "listener": "com.waps.ah",
          "listenerMethod": "onClick",
          "uiType": "onClick",
          "constraintsFile": "constraints9_0.py",
          "variables": {},
          "stringMap": {
            "7000": "",
            "7001": "ctwap"
          },
          "strings": {
            "IAAv3": "",
            "IAAv10": "",
            "IAAv6": ""
          }
        }
      ]
    },
    "10": {
      "startMethod": "com.waps.w.onReceive(Landroid/content/Context;Landroid/content/Intent;)V",
      "targetMethod": "org.apache.http.impl.client.DefaultHttpClient.execute(Lorg/apache/http/client/methods/HttpUriRequest;)Lorg/apache/http/HttpResponse;",
      "eventChain": [
        {
          "start": "com.z6root.qqkk.mney.z5root.onDestroy()V",
          "target": "invokespecial \u003c Application, Landroid/content/BroadcastReceiver, \u003cinit\u003e()V \u003e@2",
          "type": "activity",
          "component": "com.z6root.qqkk.mney.z5root"
        },
        {
          "start": "com.waps.t.onReceive(Landroid/content/Context;Landroid/content/Intent;)V",
          "target": "invokeinterface \u003c Application, Landroid/content/SharedPreferences$Editor, putString(Ljava/lang/String;Ljava/lang/String;)Landroid/content/SharedPreferences$Editor; \u003e@514",
          "type": "sms",
          "constraintsFile": "constraints10_0.py",
          "variables": {
            "\u003cChainedInput2\u003e.getAction()": "IAAv0",
            "SharedPreferences\u003cdownload_filename\u003e": "IAAv6",
            "SharedPreferences\u003cdownload_filename\u003e.a()": "IAAv3"
          },
          "stringMap": {
            "7000": "android.net.conn.CONNECTIVITY_CHANGE",
            "7001": ""
          },
          "strings": {
            "IAAv0": "",
            "IAAv6": ""
          }
        },
        {
          "start": "com.waps.t.onReceive(Landroid/content/Context;Landroid/content/Intent;)V",
          "target": "",
          "type": "sms",
          "constraintsFile": "constraints10_1.py",
          "variables": {
            "\u003cChainedInput2\u003e.getAction()": "IAAv0"
          },
          "stringMap": {
            "7000": "android.net.conn.CONNECTIVITY_CHANGE"
          },
          "strings": {
            "IAAv0": ""
          }
        },
        {
          "start": "com.waps.t.onReceive(Landroid/content/Context;Landroid/content/Intent;)V",
          "target": "PC@21",
          "type": "sms",
          "constraintsFile": "constraints10_2.py",
          "variables": {
            "\u003cChainedInput2\u003e.getDataString()": "IAAv2",
            "\u003cChainedInput2\u003e.getAction()": "IAAv0",
            "\u003cChainedInput1\u003e.a().o": "IAAv10",
            "\u003cChainedInput1\u003e.a().f": "IAAv15",
            "\u003cChainedInput1\u003e.d().a()": "IAAv8",
            "SharedPreferences\u003cdownload_filename\u003e": "IAAv11"
          },
          "stringMap": {
            "7000": "android.intent.action.PACKAGE_ADDED",
            "7001": "",
            "7002": "android.net.conn.CONNECTIVITY_CHANGE"
          },
          "strings": {
            "IAAv2": "",
            "IAAv24": "",
            "IAAv11": "",
            "IAAv0": "",
            "IAAv6": ""
          }
        },
        {
          "start": "com.waps.w.onReceive(Landroid/content/Context;Landroid/content/Intent;)V",
          "target": "invokevirtual \u003c Application, Lorg/apache/http/impl/client/DefaultHttpClient, execute(Lorg/apache/http/client/methods/HttpUriRequest;)Lorg/apache/http/HttpResponse; \u003e@166",
          "type": "sms",
          "constraintsFile": "constraints10_3.py",
          "variables": {
            "\u003cChainedInput1\u003e.a().o": "IAAv10",
            "\u003cChainedInput2\u003e.getDataString()": "IAAv2",
            "\u003cChainedInput1\u003e.a().f": "IAAv15",
            "\u003cChainedInput2\u003e.getAction()": "IAAv0",
            "\u003cChainedInput1\u003e.d().a()": "IAAv8",
            "SharedPreferences\u003cdownload_filename\u003e": "IAAv11"
          },
          "stringMap": {
            "7000": "android.intent.action.PACKAGE_ADDED",
            "7001": ""
          },
          "strings": {
            "IAAv2": "",
            "IAAv11": "",
            "IAAv0": "",
            "IAAv6": ""
          }
        }
      ]
    },
    "11": {
      "startMethod": "com.waps.w.onReceive(Landroid/content/Context;Landroid/content/Intent;)V",
      "targetMethod": "org.apache.http.client.HttpClient.execute(Lorg/apache/http/client/methods/HttpUriRequest;)Lorg/apache/http/HttpResponse;",
      "eventChain": [
        {
          "start": "com.z6root.qqkk.mney.z5root.onDestroy()V",
          "target": "invokespecial \u003c Application, Landroid/content/BroadcastReceiver, \u003cinit\u003e()V \u003e@2",
          "type": "activity",
          "component": "com.z6root.qqkk.mney.z5root"
        },
        {
          "start": "com.waps.t.onReceive(Landroid/content/Context;Landroid/content/Intent;)V",
          "target": "",
          "type": "sms",
          "constraintsFile": "constraints11_0.py",
          "variables": {
            "\u003cChainedInput2\u003e.getAction()": "IAAv0"
          },
          "stringMap": {
            "7000": "android.net.conn.CONNECTIVITY_CHANGE"
          },
          "strings": {
            "IAAv0": ""
          }
        },
        {
          "start": "com.waps.w.onReceive(Landroid/content/Context;Landroid/content/Intent;)V",
          "target": "invokeinterface \u003c Application, Lorg/apache/http/client/HttpClient, execute(Lorg/apache/http/client/methods/HttpUriRequest;)Lorg/apache/http/HttpResponse; \u003e@279",
          "type": "sms",
          "constraintsFile": "constraints11_1.py",
          "variables": {
            "\u003cChainedInput2\u003e.getDataString()": "IAAv2",
            "\u003cChainedInput2\u003e.getAction()": "IAAv0",
            "\u003cChainedInput1\u003e.d().a()": "IAAv8"
          },
          "stringMap": {
            "7000": "android.intent.action.PACKAGE_ADDED",
            "7001": "",
            "7002": "ctwap",
            "7003": "http://app",
            "7004": "http://ads",
            "7005": "http://push"
          },
          "strings": {
            "IAAv2": "",
            "IAAv0": "",
            "IAAv13": "",
            "IAAv15": "",
            "IAAv9": "",
            "IAAv6": ""
          }
        }
      ]
    },
    "12": {
      "startMethod": "com.waps.t.onReceive(Landroid/content/Context;Landroid/content/Intent;)V",
      "targetMethod": "org.apache.http.impl.client.DefaultHttpClient.execute(Lorg/apache/http/client/methods/HttpUriRequest;)Lorg/apache/http/HttpResponse;",
      "eventChain": [
        {
          "start": "com.z6root.qqkk.mney.z5root.onDestroy()V",
          "target": "invokespecial \u003c Application, Landroid/content/BroadcastReceiver, \u003cinit\u003e()V \u003e@2",
          "type": "activity",
          "component": "com.z6root.qqkk.mney.z5root"
        },
        {
          "start": "com.waps.t.onReceive(Landroid/content/Context;Landroid/content/Intent;)V",
          "target": "invokeinterface \u003c Application, Landroid/content/SharedPreferences$Editor, putString(Ljava/lang/String;Ljava/lang/String;)Landroid/content/SharedPreferences$Editor; \u003e@514",
          "type": "sms",
          "constraintsFile": "constraints12_0.py",
          "variables": {
            "\u003cChainedInput2\u003e.getAction()": "IAAv0",
            "SharedPreferences\u003cdownload_filename\u003e": "IAAv6",
            "SharedPreferences\u003cdownload_filename\u003e.a()": "IAAv3"
          },
          "stringMap": {
            "7000": "android.net.conn.CONNECTIVITY_CHANGE",
            "7001": ""
          },
          "strings": {
            "IAAv0": "",
            "IAAv6": ""
          }
        },
        {
          "start": "com.waps.t.onReceive(Landroid/content/Context;Landroid/content/Intent;)V",
          "target": "PC@48",
          "type": "sms",
          "constraintsFile": "constraints12_1.py",
          "variables": {
            "\u003cChainedInput2\u003e.getAction()": "IAAv0",
            "SharedPreferences\u003cdownload_filename\u003e": "IAAv12"
          },
          "stringMap": {
            "7000": "android.net.conn.CONNECTIVITY_CHANGE",
            "7001": ""
          },
          "strings": {
            "IAAv0": "",
            "IAAv12": "",
            "IAAv7": ""
          }
        },
        {
          "start": "com.waps.t.onReceive(Landroid/content/Context;Landroid/content/Intent;)V",
          "target": "",
          "type": "sms",
          "constraintsFile": "constraints12_2.py",
          "variables": {
            "\u003cChainedInput2\u003e.getAction()": "IAAv0"
          },
          "stringMap": {
            "7000": "android.net.conn.CONNECTIVITY_CHANGE"
          },
          "strings": {
            "IAAv0": ""
          }
        },
        {
          "start": "com.waps.t.onReceive(Landroid/content/Context;Landroid/content/Intent;)V",
          "target": "PC@21",
          "type": "sms",
          "constraintsFile": "constraints12_3.py",
          "variables": {
            "\u003cChainedInput2\u003e.getAction()": "IAAv0",
            "SharedPreferences\u003cdownload_filename\u003e": "IAAv12"
          },
          "stringMap": {
            "7000": "android.net.conn.CONNECTIVITY_CHANGE",
            "7001": ""
          },
          "strings": {
            "IAAv0": "",
            "IAAv12": "",
            "IAAv7": ""
          }
        },
        {
          "start": "com.waps.t.onReceive(Landroid/content/Context;Landroid/content/Intent;)V",
          "target": "",
          "type": "sms",
          "constraintsFile": "constraints12_4.py",
          "variables": {
            "\u003cChainedInput2\u003e.getAction()": "IAAv0",
            "SharedPreferences\u003cdownload_filename\u003e": "IAAv12"
          },
          "stringMap": {
            "7000": "android.net.conn.CONNECTIVITY_CHANGE",
            "7001": ""
          },
          "strings": {
            "IAAv0": "",
            "IAAv12": "",
            "IAAv7": ""
          }
        },
        {
          "start": "com.waps.t.onReceive(Landroid/content/Context;Landroid/content/Intent;)V",
          "target": "invokevirtual \u003c Application, Lorg/apache/http/impl/client/DefaultHttpClient, execute(Lorg/apache/http/client/methods/HttpUriRequest;)Lorg/apache/http/HttpResponse; \u003e@166",
          "type": "sms",
          "constraintsFile": "constraints12_5.py",
          "variables": {
            "\u003cChainedInput2\u003e.getAction()": "IAAv0",
            "SharedPreferences\u003cdownload_filename\u003e": "IAAv12"
          },
          "stringMap": {
            "7000": "android.net.conn.CONNECTIVITY_CHANGE",
            "7001": ""
          },
          "strings": {
            "IAAv0": "",
            "IAAv12": "",
            "IAAv7": ""
          }
        }
      ]
    },
    "13": {
      "startMethod": "com.waps.t.onReceive(Landroid/content/Context;Landroid/content/Intent;)V",
      "targetMethod": "org.apache.http.client.HttpClient.execute(Lorg/apache/http/client/methods/HttpUriRequest;)Lorg/apache/http/HttpResponse;",
      "eventChain": [
        {
          "start": "com.z6root.qqkk.mney.z5root.onDestroy()V",
          "target": "invokespecial \u003c Application, Landroid/content/BroadcastReceiver, \u003cinit\u003e()V \u003e@2",
          "type": "activity",
          "component": "com.z6root.qqkk.mney.z5root"
        },
        {
          "start": "com.waps.t.onReceive(Landroid/content/Context;Landroid/content/Intent;)V",
          "target": "PC@48",
          "type": "sms",
          "constraintsFile": "constraints13_0.py",
          "variables": {
            "\u003cChainedInput2\u003e.getAction()": "IAAv0"
          },
          "stringMap": {
            "7000": "android.net.conn.CONNECTIVITY_CHANGE",
            "7001": "",
            "7002": "ctwap"
          },
          "strings": {
            "IAAv0": "",
            "IAAv10": "",
            "IAAv14": "",
            "IAAv7": ""
          }
        },
        {
          "start": "com.waps.t.onReceive(Landroid/content/Context;Landroid/content/Intent;)V",
          "target": "",
          "type": "sms",
          "constraintsFile": "constraints13_1.py",
          "variables": {
            "\u003cChainedInput2\u003e.getAction()": "IAAv0"
          },
          "stringMap": {
            "7000": "android.net.conn.CONNECTIVITY_CHANGE"
          },
          "strings": {
            "IAAv0": ""
          }
        },
        {
          "start": "com.waps.t.onReceive(Landroid/content/Context;Landroid/content/Intent;)V",
          "target": "",
          "type": "sms",
          "constraintsFile": "constraints13_2.py",
          "variables": {
            "\u003cChainedInput2\u003e.getAction()": "IAAv0",
            "SharedPreferences\u003cdownload_filename\u003e": "IAAv18"
          },
          "stringMap": {
            "7000": "android.net.conn.CONNECTIVITY_CHANGE",
            "7001": "",
            "7002": "ctwap"
          },
          "strings": {
            "IAAv0": "",
            "IAAv10": "",
            "IAAv14": "",
            "IAAv18": "",
            "IAAv7": ""
          }
        },
        {
          "start": "com.waps.t.onReceive(Landroid/content/Context;Landroid/content/Intent;)V",
          "target": "invokeinterface \u003c Application, Lorg/apache/http/client/HttpClient, execute(Lorg/apache/http/client/methods/HttpUriRequest;)Lorg/apache/http/HttpResponse; \u003e@279",
          "type": "sms",
          "constraintsFile": "constraints13_3.py",
          "variables": {
            "\u003cChainedInput2\u003e.getAction()": "IAAv0"
          },
          "stringMap": {
            "7000": "android.net.conn.CONNECTIVITY_CHANGE",
            "7001": "",
            "7002": "ctwap"
          },
          "strings": {
            "IAAv0": "",
            "IAAv10": "",
            "IAAv14": "",
            "IAAv7": ""
          }
        }
      ]
    },
    "14": {
      "startMethod": "com.waps.ai.onDownloadStart(Ljava/lang/String;Ljava/lang/String;Ljava/lang/String;Ljava/lang/String;J)V",
      "targetMethod": "java.net.URL.openConnection()Ljava/net/URLConnection;",
      "eventChain": [
        {
          "start": "com.waps.OffersWebView.onCreate(Landroid/os/Bundle;)V",
          "target": "invokevirtual \u003c Application, Landroid/webkit/WebView, setDownloadListener(Landroid/webkit/DownloadListener;)V \u003e@1094",
          "type": "activity",
          "component": "com.waps.OffersWebView",
          "constraintsFile": "constraints14_0.py",
          "variables": {
            "SharedPreferences\u003cpackageName\u003e": "IAAv4",
            "SharedPreferences\u003cclassName\u003e": "IAAv6"
          },
          "stringMap": {
            "7000": "",
            "7001": "OffersWebView",
            "7002": "feedback",
            "7003": "down_type",
            "7004": "true",
            "7005": "false",
            "7006": "notify"
          },
          "strings": {
            "IAAv4": "",
            "IAAv6": ""
          }
        },
        {
          "start": "com.waps.ai.onDownloadStart(Ljava/lang/String;Ljava/lang/String;Ljava/lang/String;Ljava/lang/String;J)V",
          "target": "",
          "type": "",
          "constraintsFile": "constraints14_1.py",
          "variables": {},
          "stringMap": {},
          "strings": {}
        },
        {
          "start": "com.waps.ai.onDownloadStart(Ljava/lang/String;Ljava/lang/String;Ljava/lang/String;Ljava/lang/String;J)V",
          "target": "invokevirtual \u003c Application, Ljava/net/URL, openConnection()Ljava/net/URLConnection; \u003e@25",
          "type": "",
          "constraintsFile": "constraints14_2.py",
          "variables": {},
          "stringMap": {},
          "strings": {}
        }
      ]
    },
    "15": {
      "startMethod": "com.waps.ai.onDownloadStart(Ljava/lang/String;Ljava/lang/String;Ljava/lang/String;Ljava/lang/String;J)V",
      "targetMethod": "org.apache.http.impl.client.DefaultHttpClient.execute(Lorg/apache/http/client/methods/HttpUriRequest;)Lorg/apache/http/HttpResponse;",
      "eventChain": [
        {
          "start": "com.waps.OffersWebView.onCreate(Landroid/os/Bundle;)V",
          "target": "invokevirtual \u003c Application, Landroid/webkit/WebView, setDownloadListener(Landroid/webkit/DownloadListener;)V \u003e@1094",
          "type": "activity",
          "component": "com.waps.OffersWebView",
          "constraintsFile": "constraints15_0.py",
          "variables": {
            "SharedPreferences\u003cpackageName\u003e": "IAAv4",
            "SharedPreferences\u003cclassName\u003e": "IAAv6"
          },
          "stringMap": {
            "7000": "",
            "7001": "OffersWebView",
            "7002": "feedback",
            "7003": "down_type",
            "7004": "true",
            "7005": "false",
            "7006": "notify"
          },
          "strings": {
            "IAAv4": "",
            "IAAv6": ""
          }
        },
        {
          "start": "com.waps.ai.onDownloadStart(Ljava/lang/String;Ljava/lang/String;Ljava/lang/String;Ljava/lang/String;J)V",
          "target": "",
          "type": "",
          "constraintsFile": "constraints15_1.py",
          "variables": {},
          "stringMap": {
            "7000": ""
          },
          "strings": {
            "IAAv7": ""
          }
        },
        {
          "start": "com.waps.t.onReceive(Landroid/content/Context;Landroid/content/Intent;)V",
          "target": "",
          "type": "sms",
          "constraintsFile": "constraints15_2.py",
          "variables": {
            "\u003cChainedInput2\u003e.getAction()": "IAAv0",
            "SharedPreferences\u003cdownload_filename\u003e": "IAAv12"
          },
          "stringMap": {
            "7000": "android.net.conn.CONNECTIVITY_CHANGE",
            "7001": ""
          },
          "strings": {
            "IAAv0": "",
            "IAAv12": "",
            "IAAv7": ""
          }
        },
        {
          "start": "com.waps.t.onReceive(Landroid/content/Context;Landroid/content/Intent;)V",
          "target": "PC@21",
          "type": "sms",
          "constraintsFile": "constraints15_3.py",
          "variables": {
            "\u003cChainedInput2\u003e.getAction()": "IAAv14",
            "SharedPreferences\u003cdownload_filename\u003e": "IAAv24"
          },
          "stringMap": {
            "7000": "",
            "7001": "android.net.conn.CONNECTIVITY_CHANGE"
          },
          "strings": {
            "IAAv20": "",
            "IAAv24": "",
            "IAAv14": "",
            "IAAv7": ""
          }
        },
        {
          "start": "com.waps.t.onReceive(Landroid/content/Context;Landroid/content/Intent;)V",
          "target": "",
          "type": "sms",
          "constraintsFile": "constraints15_4.py",
          "variables": {
            "\u003cChainedInput2\u003e.getAction()": "IAAv14",
            "SharedPreferences\u003cdownload_filename\u003e": "IAAv24"
          },
          "stringMap": {
            "7000": "",
            "7001": "android.net.conn.CONNECTIVITY_CHANGE"
          },
          "strings": {
            "IAAv20": "",
            "IAAv24": "",
            "IAAv14": "",
            "IAAv7": ""
          }
        },
        {
          "start": "com.waps.ai.onDownloadStart(Ljava/lang/String;Ljava/lang/String;Ljava/lang/String;Ljava/lang/String;J)V",
          "target": "invokevirtual \u003c Application, Lorg/apache/http/impl/client/DefaultHttpClient, execute(Lorg/apache/http/client/methods/HttpUriRequest;)Lorg/apache/http/HttpResponse; \u003e@166",
          "type": "",
          "constraintsFile": "constraints15_5.py",
          "variables": {},
          "stringMap": {
            "7000": ""
          },
          "strings": {
            "IAAv7": ""
          }
        }
      ]
    },
    "16": {
      "startMethod": "com.waps.ai.onDownloadStart(Ljava/lang/String;Ljava/lang/String;Ljava/lang/String;Ljava/lang/String;J)V",
      "targetMethod": "org.apache.http.client.HttpClient.execute(Lorg/apache/http/client/methods/HttpUriRequest;)Lorg/apache/http/HttpResponse;",
      "eventChain": [
        {
          "start": "com.waps.OffersWebView.onCreate(Landroid/os/Bundle;)V",
          "target": "invokevirtual \u003c Application, Landroid/webkit/WebView, setDownloadListener(Landroid/webkit/DownloadListener;)V \u003e@1094",
          "type": "activity",
          "component": "com.waps.OffersWebView",
          "constraintsFile": "constraints16_0.py",
          "variables": {
            "SharedPreferences\u003cpackageName\u003e": "IAAv4",
            "SharedPreferences\u003cclassName\u003e": "IAAv6"
          },
          "stringMap": {
            "7000": "",
            "7001": "OffersWebView",
            "7002": "feedback",
            "7003": "down_type",
            "7004": "true",
            "7005": "false",
            "7006": "notify"
          },
          "strings": {
            "IAAv4": "",
            "IAAv6": ""
          }
        },
        {
          "start": "com.waps.ai.onDownloadStart(Ljava/lang/String;Ljava/lang/String;Ljava/lang/String;Ljava/lang/String;J)V",
          "target": "",
          "type": "",
          "constraintsFile": "constraints16_1.py",
          "variables": {},
          "stringMap": {
            "7000": "",
            "7001": "ctwap"
          },
          "strings": {
            "IAAv11": "",
            "IAAv14": "",
            "IAAv18": "",
            "IAAv7": ""
          }
        },
        {
          "start": "com.waps.t.onReceive(Landroid/content/Context;Landroid/content/Intent;)V",
          "target": "",
          "type": "sms",
          "constraintsFile": "constraints16_2.py",
          "variables": {
            "\u003cChainedInput2\u003e.getAction()": "IAAv0"
          },
          "stringMap": {
            "7000": "android.net.conn.CONNECTIVITY_CHANGE"
          },
          "strings": {
            "IAAv0": ""
          }
        },
        {
          "start": "com.waps.t.onReceive(Landroid/content/Context;Landroid/content/Intent;)V",
          "target": "",
          "type": "sms",
          "constraintsFile": "constraints16_3.py",
          "variables": {
            "\u003cChainedInput2\u003e.getAction()": "IAAv20",
            "SharedPreferences\u003cdownload_filename\u003e": "IAAv29"
          },
          "stringMap": {
            "7000": "",
            "7001": "ctwap",
            "7002": "android.net.conn.CONNECTIVITY_CHANGE"
          },
          "strings": {
            "IAAv20": "",
            "IAAv11": "",
            "IAAv14": "",
            "IAAv25": "",
            "IAAv18": "",
            "IAAv7": "",
            "IAAv29": ""
          }
        },
        {
          "start": "com.waps.ai.onDownloadStart(Ljava/lang/String;Ljava/lang/String;Ljava/lang/String;Ljava/lang/String;J)V",
          "target": "invokeinterface \u003c Application, Lorg/apache/http/client/HttpClient, execute(Lorg/apache/http/client/methods/HttpUriRequest;)Lorg/apache/http/HttpResponse; \u003e@279",
          "type": "",
          "constraintsFile": "constraints16_4.py",
          "variables": {},
          "stringMap": {
            "7000": "",
            "7001": "ctwap"
          },
          "strings": {
            "IAAv11": "",
            "IAAv14": "",
            "IAAv18": "",
            "IAAv7": ""
          }
        }
      ]
    },
    "17": {
      "startMethod": "com.waps.aj.onClick(Landroid/content/DialogInterface;I)V",
      "targetMethod": "org.apache.http.impl.client.DefaultHttpClient.execute(Lorg/apache/http/client/methods/HttpUriRequest;)Lorg/apache/http/HttpResponse;",
      "eventChain": [
        {
          "start": "com.waps.ai.onDownloadStart(Ljava/lang/String;Ljava/lang/String;Ljava/lang/String;Ljava/lang/String;J)V",
          "target": "invokevirtual \u003c Application, Landroid/app/AlertDialog$Builder, setNeutralButton(Ljava/lang/CharSequence;Landroid/content/DialogInterface$OnClickListener;)Landroid/app/AlertDialog$Builder; \u003e@395",
          "type": "",
          "constraintsFile": "constraints17_0.py",
          "variables": {},
          "stringMap": {},
          "strings": {}
        },
        {
          "start": "com.waps.t.onReceive(Landroid/content/Context;Landroid/content/Intent;)V",
          "target": "",
          "type": "sms",
          "constraintsFile": "constraints17_1.py",
          "variables": {
            "\u003cChainedInput2\u003e.getAction()": "IAAv0",
            "SharedPreferences\u003cdownload_filename\u003e": "IAAv12"
          },
          "stringMap": {
            "7000": "android.net.conn.CONNECTIVITY_CHANGE",
            "7001": ""
          },
          "strings": {
            "IAAv0": "",
            "IAAv12": "",
            "IAAv7": ""
          }
        },
        {
          "start": "com.waps.aj.onClick(Landroid/content/DialogInterface;I)V",
          "target": "invokevirtual \u003c Application, Lorg/apache/http/impl/client/DefaultHttpClient, execute(Lorg/apache/http/client/methods/HttpUriRequest;)Lorg/apache/http/HttpResponse; \u003e@166",
          "type": "ui",
          "activities": [
            "com.z6root.qqkk.mney.z5root"
          ],
          "listener": "com.waps.aj",
          "listenerMethod": "onClick",
          "uiType": "onClick",
          "inDialog": "true",
          "constraintsFile": "constraints17_2.py",
          "variables": {},
          "stringMap": {
            "7000": ""
          },
          "strings": {
            "IAAv1": ""
          }
        }
      ]
    },
    "18": {
      "startMethod": "com.waps.aj.onClick(Landroid/content/DialogInterface;I)V",
      "targetMethod": "org.apache.http.client.HttpClient.execute(Lorg/apache/http/client/methods/HttpUriRequest;)Lorg/apache/http/HttpResponse;",
      "eventChain": [
        {
          "start": "com.waps.ai.onDownloadStart(Ljava/lang/String;Ljava/lang/String;Ljava/lang/String;Ljava/lang/String;J)V",
          "target": "invokevirtual \u003c Application, Landroid/app/AlertDialog$Builder, setNeutralButton(Ljava/lang/CharSequence;Landroid/content/DialogInterface$OnClickListener;)Landroid/app/AlertDialog$Builder; \u003e@395",
          "type": "",
          "constraintsFile": "constraints18_0.py",
          "variables": {},
          "stringMap": {},
          "strings": {}
        },
        {
          "start": "com.waps.t.onReceive(Landroid/content/Context;Landroid/content/Intent;)V",
          "target": "",
          "type": "sms",
          "constraintsFile": "constraints18_1.py",
          "variables": {
            "\u003cChainedInput2\u003e.getAction()": "IAAv0"
          },
          "stringMap": {
            "7000": "android.net.conn.CONNECTIVITY_CHANGE"
          },
          "strings": {
            "IAAv0": ""
          }
        },
        {
          "start": "com.waps.aj.onClick(Landroid/content/DialogInterface;I)V",
          "target": "invokeinterface \u003c Application, Lorg/apache/http/client/HttpClient, execute(Lorg/apache/http/client/methods/HttpUriRequest;)Lorg/apache/http/HttpResponse; \u003e@279",
          "type": "ui",
          "activities": [
            "com.z6root.qqkk.mney.z5root"
          ],
          "listener": "com.waps.aj",
          "listenerMethod": "onClick",
          "uiType": "onClick",
          "inDialog": "true",
          "constraintsFile": "constraints18_2.py",
          "variables": {},
          "stringMap": {
            "7000": "",
            "7001": "ctwap"
          },
          "strings": {
            "IAAv2": "",
            "IAAv9": "",
            "IAAv5": ""
          }
        }
      ]
    }
  }
}