{
  "packageName": "com.cookie.burst",
  "mainActivity": "com.cookie.burst.SplashScreen",
  "callPaths": {
    "0": {
      "startMethod": "com.cookie.burst.CookieBurst.onCreate(Landroid/os/Bundle;)V",
      "targetMethod": "org.apache.http.impl.client.DefaultHttpClient.execute(Lorg/apache/http/client/methods/HttpUriRequest;)Lorg/apache/http/HttpResponse;",
      "eventChain": [
        {
          "start": "com.cookie.burst.CookieBurst.onCreate(Landroid/os/Bundle;)V",
          "target": "invokeinterface \u003c Application, Landroid/content/SharedPreferences$Editor, putLong(Ljava/lang/String;J)Landroid/content/SharedPreferences$Editor; \u003e@853",
          "type": "activity",
          "component": "com.cookie.burst.CookieBurst",
          "constraintsFile": "constraints0_0.py",
          "variables": {
            "SharedPreferences\u003ccheck_datetime\u003e": "IAAv1"
          },
          "stringMap": {},
          "strings": {}
        },
        {
          "start": "com.cookie.burst.CookieBurst.onCreate(Landroid/os/Bundle;)V",
          "target": "invokevirtual \u003c Application, Lorg/apache/http/impl/client/DefaultHttpClient, execute(Lorg/apache/http/client/methods/HttpUriRequest;)Lorg/apache/http/HttpResponse; \u003e@56",
          "type": "activity",
          "component": "com.cookie.burst.CookieBurst",
          "constraintsFile": "constraints0_1.py",
          "variables": {
            "SharedPreferences\u003ccheck_datetime\u003e": "IAAv1"
          },
          "stringMap": {},
          "strings": {}
        }
      ]
    },
    "1": {
      "startMethod": "com.cookie.burst.CookieBurst.onCreate(Landroid/os/Bundle;)V",
      "targetMethod": "java.lang.reflect.Method.invoke(Ljava/lang/Object;[Ljava/lang/Object;)Ljava/lang/Object;",
      "eventChain": [
        {
          "start": "com.cookie.burst.CookieBurst.onCreate(Landroid/os/Bundle;)V",
          "target": "invokevirtual \u003c Application, Ljava/lang/reflect/Method, invoke(Ljava/lang/Object;[Ljava/lang/Object;)Ljava/lang/Object; \u003e@245",
          "type": "activity",
          "component": "com.cookie.burst.CookieBurst"
        }
      ]
    },
    "2": {
      "startMethod": "com.cookie.burst.CookieBurst.onCreate(Landroid/os/Bundle;)V",
      "targetMethod": "org.apache.http.client.HttpClient.execute(Lorg/apache/http/client/methods/HttpUriRequest;)Lorg/apache/http/HttpResponse;",
      "eventChain": [
        {
          "start": "com.cookie.burst.CookieBurst.\u003cinit\u003e()V",
          "target": "PC@45",
          "type": "",
          "constraintsFile": "constraints2_0.py",
          "variables": {},
          "stringMap": {
            "7000": "inappad",
            "7001": "rich_media"
          },
          "strings": {}
        },
        {
          "start": "com.cookie.burst.CookieBurst.onCreate(Landroid/os/Bundle;)V",
          "target": "PC@54",
          "type": "activity",
          "component": "com.cookie.burst.CookieBurst",
          "constraintsFile": "constraints2_1.py",
          "variables": {},
          "stringMap": {},
          "strings": {}
        },
        {
          "start": "com.cookie.burst.CookieBurst.onCreate(Landroid/os/Bundle;)V",
          "target": "invokeinterface \u003c Application, Lorg/apache/http/client/HttpClient, execute(Lorg/apache/http/client/methods/HttpUriRequest;)Lorg/apache/http/HttpResponse; \u003e@500",
          "type": "activity",
          "component": "com.cookie.burst.CookieBurst",
          "constraintsFile": "constraints2_2.py",
          "variables": {},
          "stringMap": {
            "7000": "inappad",
            "7001": "rich_media"
          },
          "strings": {}
        }
      ]
    },
    "3": {
      "startMethod": "com.cookie.burst.CookieBurst.onCreate(Landroid/os/Bundle;)V",
      "targetMethod": "java.lang.reflect.Method.invoke(Ljava/lang/Object;[Ljava/lang/Object;)Ljava/lang/Object;",
      "eventChain": [
        {
          "start": "com.cookie.burst.CookieBurst.\u003cinit\u003e()V",
          "target": "PC@45",
          "type": "",
          "constraintsFile": "constraints3_0.py",
          "variables": {},
          "stringMap": {
            "7000": "inappad",
            "7001": "rich_media",
            "7002": ""
          },
          "strings": {
            "IAAv4": ""
          }
        },
        {
          "start": "com.cookie.burst.CookieBurst.onCreate(Landroid/os/Bundle;)V",
          "target": "PC@54",
          "type": "activity",
          "component": "com.cookie.burst.CookieBurst",
          "constraintsFile": "constraints3_1.py",
          "variables": {},
          "stringMap": {},
          "strings": {}
        },
        {
          "start": "com.cookie.burst.CookieBurst.onCreate(Landroid/os/Bundle;)V",
          "target": "invokevirtual \u003c Application, Ljava/lang/reflect/Method, invoke(Ljava/lang/Object;[Ljava/lang/Object;)Ljava/lang/Object; \u003e@132",
          "type": "activity",
          "component": "com.cookie.burst.CookieBurst",
          "constraintsFile": "constraints3_2.py",
          "variables": {},
          "stringMap": {
            "7000": "inappad",
            "7001": "rich_media",
            "7002": ""
          },
          "strings": {
            "IAAv4": ""
          }
        }
      ]
    },
    "4": {
      "startMethod": "com.cookie.burst.CookieBurst.onCreate(Landroid/os/Bundle;)V",
      "targetMethod": "java.lang.reflect.Method.invoke(Ljava/lang/Object;[Ljava/lang/Object;)Ljava/lang/Object;",
      "eventChain": [
        {
          "start": "com.cookie.burst.CookieBurst.onCreate(Landroid/os/Bundle;)V",
          "target": "invokevirtual \u003c Application, Ljava/lang/reflect/Method, invoke(Ljava/lang/Object;[Ljava/lang/Object;)Ljava/lang/Object; \u003e@104",
          "type": "activity",
          "component": "com.cookie.burst.CookieBurst"
        }
      ]
    },
    "5": {
      "startMethod": "com.cookie.burst.CookieBurst.onCreate(Landroid/os/Bundle;)V",
      "targetMethod": "org.apache.http.impl.client.DefaultHttpClient.execute(Lorg/apache/http/client/methods/HttpUriRequest;)Lorg/apache/http/HttpResponse;",
      "eventChain": [
        {
          "start": "com.cookie.burst.CookieBurst.\u003cinit\u003e()V",
          "target": "PC@45",
          "type": "",
          "constraintsFile": "constraints5_0.py",
          "variables": {},
          "stringMap": {
            "7000": "inappad",
            "7001": "rich_media"
          },
          "strings": {
            "IAAv10": ""
          }
        },
        {
          "start": "com.cookie.burst.CookieBurst.onCreate(Landroid/os/Bundle;)V",
          "target": "PC@3",
          "type": "activity",
          "component": "com.cookie.burst.CookieBurst",
          "constraintsFile": "constraints5_1.py",
          "variables": {
            "System.currentTimeMillis()": "IAAv8",
            "\u003cSystemPrevTime\u003e": "IAAv9"
          },
          "stringMap": {
            "7000": "inappad",
            "7001": "rich_media"
          },
          "strings": {
            "IAAv11": ""
          }
        },
        {
          "start": "com.cookie.burst.CookieBurst.onCreate(Landroid/os/Bundle;)V",
          "target": "PC@54",
          "type": "activity",
          "component": "com.cookie.burst.CookieBurst",
          "constraintsFile": "constraints5_2.py",
          "variables": {},
          "stringMap": {},
          "strings": {}
        },
        {
          "start": "com.cookie.burst.CookieBurst.onCreate(Landroid/os/Bundle;)V",
          "target": "invokevirtual \u003c Application, Lorg/apache/http/impl/client/DefaultHttpClient, execute(Lorg/apache/http/client/methods/HttpUriRequest;)Lorg/apache/http/HttpResponse; \u003e@288",
          "type": "activity",
          "component": "com.cookie.burst.CookieBurst",
          "constraintsFile": "constraints5_3.py",
          "variables": {},
          "stringMap": {
            "7000": "inappad",
            "7001": "rich_media"
          },
          "strings": {
            "IAAv10": ""
          }
        }
      ]
    },
    "6": {
      "startMethod": "com.tjnaypq.bkyhlev16556.MraidView$2.onClick(Landroid/content/DialogInterface;I)V",
      "targetMethod": "java.net.URL.openConnection()Ljava/net/URLConnection;",
      "eventChain": [
        {
          "start": "com.tjnaypq.bkyhlev16556.MraidView$2.onClick(Landroid/content/DialogInterface;I)V",
          "target": "invokevirtual \u003c Application, Ljava/net/URL, openConnection()Ljava/net/URLConnection; \u003e@28",
          "type": "ui",
          "activities": [
            "com.cookie.burst.SplashScreen"
          ],
          "listener": "com.tjnaypq.bkyhlev16556.MraidView$2",
          "listenerMethod": "onClick",
          "uiType": "onClick",
          "inDialog": "true"
        }
      ]
    }
  }
}