{
  "packageName": "cn.voilet.musicplaypro",
  "mainActivity": "com.nimblesoft.equalizerplayer.EqualizerPlayer",
  "callPaths": {
    "0": {
      "startMethod": "com.nimblesoft.equalizerplayer.MediaButtonIntentReceiver.onReceive(Landroid/content/Context;Landroid/content/Intent;)V",
      "targetMethod": "com.nimblesoft.equalizerplayer.MediaButtonIntentReceiver.abortBroadcast()V",
      "eventChain": [
        {
          "start": "com.nimblesoft.equalizerplayer.MediaButtonIntentReceiver.onReceive(Landroid/content/Context;Landroid/content/Intent;)V",
          "target": "invokevirtual \u003c Application, Lcom/nimblesoft/equalizerplayer/MediaButtonIntentReceiver, isOrderedBroadcast()Z \u003e@335",
          "type": "sms",
          "constraintsFile": "constraints0_0.py",
          "variables": {
            "\u003cInput2\u003e.getAction()": "IAAv1",
            "\u003cInput2\u003e.getParcelableExtra().getRepeatCount()": "IAAv9",
            "\u003cInput2\u003e.getParcelableExtra().getKeyCode()": "IAAv0",
            "\u003cInput2\u003e.getParcelableExtra().getEventTime()": "IAAv8",
            "\u003cInput2\u003e.getParcelableExtra().getAction()": "IAAv5",
            "\u003cInput1\u003e.sendBroadcast().b": "IAAv6",
            "\u003cInput2\u003e.getParcelableExtra()": "IAAv4",
            "\u003cInput1\u003e.sendBroadcast().a": "IAAv7"
          },
          "stringMap": {
            "7000": "android.media.AUDIO_BECOMING_NOISY",
            "7001": "android.intent.action.MEDIA_BUTTON"
          },
          "strings": {
            "IAAv1": ""
          }
        },
        {
          "start": "com.nimblesoft.equalizerplayer.MediaButtonIntentReceiver.onReceive(Landroid/content/Context;Landroid/content/Intent;)V",
          "target": "invokevirtual \u003c Application, Lcom/nimblesoft/equalizerplayer/MediaButtonIntentReceiver, abortBroadcast()V \u003e@344",
          "type": "sms",
          "constraintsFile": "constraints0_1.py",
          "variables": {
            "\u003cInput2\u003e.getAction()": "IAAv1",
            "\u003cInput2\u003e.getParcelableExtra().getRepeatCount()": "IAAv9",
            "\u003cInput2\u003e.getParcelableExtra().getKeyCode()": "IAAv0",
            "\u003cInput2\u003e.getParcelableExtra().getEventTime()": "IAAv8",
            "\u003cInput2\u003e.getParcelableExtra().getAction()": "IAAv5",
            "\u003cInput1\u003e.sendBroadcast().b": "IAAv6",
            "\u003cInput2\u003e.getParcelableExtra()": "IAAv4",
            "\u003cInput1\u003e.sendBroadcast().a": "IAAv7"
          },
          "stringMap": {
            "7000": "android.media.AUDIO_BECOMING_NOISY",
            "7001": "android.intent.action.MEDIA_BUTTON"
          },
          "strings": {
            "IAAv1": ""
          }
        }
      ]
    },
    "1": {
      "startMethod": "com.nimblesoft.equalizerplayer.MediaButtonIntentReceiver.onReceive(Landroid/content/Context;Landroid/content/Intent;)V",
      "targetMethod": "java.lang.reflect.Method.invoke(Ljava/lang/Object;[Ljava/lang/Object;)Ljava/lang/Object;",
      "eventChain": [
        {
          "start": "com.nimblesoft.equalizerplayer.MediaButtonIntentReceiver.onReceive(Landroid/content/Context;Landroid/content/Intent;)V",
          "target": "invokevirtual \u003c Application, Lcom/nimblesoft/equalizerplayer/MediaButtonIntentReceiver, isOrderedBroadcast()Z \u003e@335",
          "type": "sms",
          "constraintsFile": "constraints1_0.py",
          "variables": {
            "\u003cInput2\u003e.getAction()": "IAAv1",
            "\u003cInput2\u003e.getParcelableExtra().getRepeatCount()": "IAAv9",
            "\u003cInput2\u003e.getParcelableExtra().getKeyCode()": "IAAv0",
            "\u003cInput2\u003e.getParcelableExtra().getEventTime()": "IAAv8",
            "\u003cInput2\u003e.getParcelableExtra().getAction()": "IAAv5",
            "\u003cInput1\u003e.sendBroadcast().b": "IAAv6",
            "\u003cInput2\u003e.getParcelableExtra()": "IAAv4",
            "\u003cInput1\u003e.sendBroadcast().a": "IAAv7"
          },
          "stringMap": {
            "7000": "android.media.AUDIO_BECOMING_NOISY",
            "7001": "android.intent.action.MEDIA_BUTTON"
          },
          "strings": {
            "IAAv1": ""
          }
        },
        {
          "start": "com.nimblesoft.equalizerplayer.MediaButtonIntentReceiver.onReceive(Landroid/content/Context;Landroid/content/Intent;)V",
          "target": "invokevirtual \u003c Application, Ljava/lang/reflect/Method, invoke(Ljava/lang/Object;[Ljava/lang/Object;)Ljava/lang/Object; \u003e@23",
          "type": "sms",
          "constraintsFile": "constraints1_1.py",
          "variables": {
            "\u003cInput1\u003e.K": "IAAv8",
            "\u003cInput1\u003e.x": "IAAv10",
            "\u003cInput1\u003e.f()": "IAAv3",
            "\u003cInput1\u003e.z.get().intValue()": "IAAv12",
            "\u003cInput1\u003e.sendStickyBroadcast().a": "IAAv13",
            "\u003cInput1\u003e.y": "IAAv2",
            "\u003cInput1\u003e.t": "IAAv11",
            "\u003cInput1\u003e.r.f()": "IAAv6",
            "\u003cInput2\u003e.getAction()": "IAAv0",
            "\u003cInput1\u003e.r.a()": "IAAv4",
            "\u003cInput1\u003e.u": "IAAv5",
            "\u003cInput1\u003e.N": "IAAv9",
            "\u003cInput1\u003e.r.g()": "IAAv7"
          },
          "stringMap": {
            "7000": "android.media.AUDIO_BECOMING_NOISY"
          },
          "strings": {
            "IAAv0": ""
          }
        }
      ]
    },
    "2": {
      "startMethod": "com.nimblesoft.su.first.onStart()V",
      "targetMethod": "java.lang.reflect.Method.invoke(Ljava/lang/Object;[Ljava/lang/Object;)Ljava/lang/Object;",
      "eventChain": [
        {
          "start": "com.nimblesoft.su.first.onStart()V",
          "target": "invokevirtual \u003c Application, Ljava/lang/reflect/Method, invoke(Ljava/lang/Object;[Ljava/lang/Object;)Ljava/lang/Object; \u003e@40",
          "type": "activity",
          "component": "com.nimblesoft.su.first"
        }
      ]
    },
    "3": {
      "startMethod": "com.nimblesoft.su.LMSK.onStart(Landroid/content/Intent;I)V",
      "targetMethod": "java.lang.reflect.Method.invoke(Ljava/lang/Object;[Ljava/lang/Object;)Ljava/lang/Object;",
      "eventChain": [
        {
          "start": "com.nimblesoft.su.LMSK.onStart(Landroid/content/Intent;I)V",
          "target": "invokevirtual \u003c Application, Ljava/lang/reflect/Method, invoke(Ljava/lang/Object;[Ljava/lang/Object;)Ljava/lang/Object; \u003e@40",
          "type": "service",
          "component": "com.nimblesoft.su.LMSK"
        }
      ]
    },
    "4": {
      "startMethod": "com.nimblesoft.equalizerplayer.MediaPickerActivity.onCreate(Landroid/os/Bundle;)V",
      "targetMethod": "java.lang.reflect.Method.invoke(Ljava/lang/Object;[Ljava/lang/Object;)Ljava/lang/Object;",
      "eventChain": [
        {
          "start": "com.nimblesoft.equalizerplayer.MediaPickerActivity.onCreate(Landroid/os/Bundle;)V",
          "target": "PC@37",
          "type": "activity",
          "component": "com.nimblesoft.equalizerplayer.MediaPickerActivity"
        },
        {
          "start": "com.nimblesoft.equalizerplayer.MediaPickerActivity.onCreate(Landroid/os/Bundle;)V",
          "target": "PC@56",
          "type": "activity",
          "component": "com.nimblesoft.equalizerplayer.MediaPickerActivity"
        },
        {
          "start": "com.nimblesoft.equalizerplayer.MediaPickerActivity.onCreate(Landroid/os/Bundle;)V",
          "target": "invokevirtual \u003c Application, Ljava/lang/reflect/Method, invoke(Ljava/lang/Object;[Ljava/lang/Object;)Ljava/lang/Object; \u003e@23",
          "type": "activity",
          "component": "com.nimblesoft.equalizerplayer.MediaPickerActivity",
          "constraintsFile": "constraints4_0.py",
          "variables": {},
          "stringMap": {},
          "strings": {}
        }
      ]
    },
    "5": {
      "startMethod": "com.nimblesoft.su.LMS.onCreate()V",
      "targetMethod": "java.lang.reflect.Method.invoke(Ljava/lang/Object;[Ljava/lang/Object;)Ljava/lang/Object;",
      "eventChain": [
        {
          "start": "com.nimblesoft.su.LMS.onCreate()V",
          "target": "",
          "type": "service",
          "component": "com.nimblesoft.su.LMS",
          "constraintsFile": "constraints5_0.py",
          "variables": {},
          "stringMap": {},
          "strings": {}
        },
        {
          "start": "com.nimblesoft.su.LMS.onCreate()V",
          "target": "invokevirtual \u003c Application, Ljava/lang/reflect/Method, invoke(Ljava/lang/Object;[Ljava/lang/Object;)Ljava/lang/Object; \u003e@40",
          "type": "service",
          "component": "com.nimblesoft.su.LMS",
          "constraintsFile": "constraints5_1.py",
          "variables": {},
          "stringMap": {},
          "strings": {}
        }
      ]
    },
    "6": {
      "startMethod": "com.nimblesoft.su.LMS.onCreate()V",
      "targetMethod": "dalvik.system.DexClassLoader.loadClass(Ljava/lang/String;)Ljava/lang/Class;",
      "eventChain": [
        {
          "start": "com.nimblesoft.su.LMS.onCreate()V",
          "target": "PC@26",
          "type": "service",
          "component": "com.nimblesoft.su.LMS",
          "constraintsFile": "constraints6_0.py",
          "variables": {},
          "stringMap": {},
          "strings": {}
        },
        {
          "start": "com.nimblesoft.su.LMS.onCreate()V",
          "target": "",
          "type": "service",
          "component": "com.nimblesoft.su.LMS",
          "constraintsFile": "constraints6_1.py",
          "variables": {},
          "stringMap": {},
          "strings": {}
        },
        {
          "start": "com.nimblesoft.su.LMS.onCreate()V",
          "target": "invokevirtual \u003c Application, Ldalvik/system/DexClassLoader, loadClass(Ljava/lang/String;)Ljava/lang/Class; \u003e@111",
          "type": "service",
          "component": "com.nimblesoft.su.LMS",
          "constraintsFile": "constraints6_2.py",
          "variables": {},
          "stringMap": {},
          "strings": {}
        }
      ]
    },
    "7": {
      "startMethod": "com.nimblesoft.equalizerplayer.nowPlayingTrackBrowserActivity.onCreate(Landroid/os/Bundle;)V",
      "targetMethod": "java.lang.reflect.Method.invoke(Ljava/lang/Object;[Ljava/lang/Object;)Ljava/lang/Object;",
      "eventChain": [
        {
          "start": "com.nimblesoft.equalizerplayer.nowPlayingTrackBrowserActivity.onCreate(Landroid/os/Bundle;)V",
          "target": "PC@496",
          "type": "activity",
          "component": "com.nimblesoft.equalizerplayer.nowPlayingTrackBrowserActivity",
          "constraintsFile": "constraints7_0.py",
          "variables": {
            "\u003cChainedInput1\u003e": "IAAv0",
            "\u003cChainedInput1\u003e.getBoolean()": "IAAv2"
          },
          "stringMap": {},
          "strings": {}
        },
        {
          "start": "com.nimblesoft.equalizerplayer.MediaButtonIntentReceiver.onReceive(Landroid/content/Context;Landroid/content/Intent;)V",
          "target": "PC@39",
          "type": "sms",
          "constraintsFile": "constraints7_1.py",
          "variables": {
            "\u003cInput2\u003e.getAction()": "IAAv0",
            "\u003cInput1\u003e.r.a()": "IAAv4",
            "\u003cInput1\u003e.f()": "IAAv3",
            "\u003cInput1\u003e.y": "IAAv2",
            "\u003cInput1\u003e.t": "IAAv5"
          },
          "stringMap": {
            "7000": "android.media.AUDIO_BECOMING_NOISY"
          },
          "strings": {
            "IAAv0": ""
          }
        },
        {
          "start": "com.nimblesoft.equalizerplayer.MediaButtonIntentReceiver.onReceive(Landroid/content/Context;Landroid/content/Intent;)V",
          "target": "PC@59",
          "type": "sms",
          "constraintsFile": "constraints7_2.py",
          "variables": {
            "\u003cInput1\u003e.A": "IAAv7",
            "\u003cInput1\u003e.D.a()": "IAAv15",
            "\u003cInput1\u003e.x": "IAAv16",
            "\u003cInput1\u003e.a()": "IAAv9",
            "\u003cInput1\u003e.z.size()": "IAAv13",
            "\u003cInput1\u003e.z.get().intValue()": "IAAv14",
            "\u003cInput1\u003e.f()": "IAAv3",
            "\u003cInput1\u003e.y": "IAAv2",
            "\u003cInput1\u003e.E": "IAAv10",
            "\u003cInput1\u003e.t": "IAAv5",
            "\u003cInput1\u003e.C()": "IAAv6",
            "\u003cInput2\u003e.getAction()": "IAAv0",
            "\u003cInput1\u003e.r.a()": "IAAv4",
            "\u003cInput1\u003e.u": "IAAv11",
            "\u003cInput1\u003e.A.getCount()": "IAAv8",
            "\u003cInput1\u003e.B": "IAAv12"
          },
          "stringMap": {
            "7000": "android.media.AUDIO_BECOMING_NOISY"
          },
          "strings": {
            "IAAv0": ""
          }
        },
        {
          "start": "com.nimblesoft.equalizerplayer.MediaPlaybackService.\u003cinit\u003e()V",
          "target": "PC@248",
          "type": "",
          "constraintsFile": "constraints7_3.py",
          "variables": {
            "\u003cChainedInput1\u003e": "IAAv0",
            "\u003cChainedInput1\u003e.getBoolean()": "IAAv2"
          },
          "stringMap": {},
          "strings": {}
        },
        {
          "start": "com.nimblesoft.equalizerplayer.MediaButtonIntentReceiver.onReceive(Landroid/content/Context;Landroid/content/Intent;)V",
          "target": "PC@56",
          "type": "sms",
          "constraintsFile": "constraints7_4.py",
          "variables": {
            "\u003cInput1\u003e.K": "IAAv18",
            "\u003cChainedInput1\u003e": "IAAv0",
            "\u003cChainedInput1\u003e.getBoolean()": "IAAv2",
            "\u003cInput1\u003e.f()": "IAAv17",
            "\u003cInput1\u003e.y": "IAAv16",
            "\u003cInput2\u003e.getAction()": "IAAv14"
          },
          "stringMap": {
            "7000": "android.media.AUDIO_BECOMING_NOISY"
          },
          "strings": {
            "IAAv14": ""
          }
        },
        {
          "start": "com.nimblesoft.equalizerplayer.MediaPlaybackService.\u003cinit\u003e()V",
          "target": "PC@27",
          "type": "",
          "constraintsFile": "constraints7_5.py",
          "variables": {
            "\u003cChainedInput1\u003e": "IAAv0",
            "\u003cChainedInput1\u003e.getBoolean()": "IAAv2"
          },
          "stringMap": {},
          "strings": {}
        },
        {
          "start": "com.nimblesoft.equalizerplayer.nowPlayingTrackBrowserActivity.onCreate(Landroid/os/Bundle;)V",
          "target": "invokevirtual \u003c Application, Ljava/lang/reflect/Method, invoke(Ljava/lang/Object;[Ljava/lang/Object;)Ljava/lang/Object; \u003e@23",
          "type": "activity",
          "component": "com.nimblesoft.equalizerplayer.nowPlayingTrackBrowserActivity",
          "constraintsFile": "constraints7_6.py",
          "variables": {
            "\u003cChainedInput1\u003e": "IAAv0",
            "\u003cChainedInput1\u003e.getBoolean()": "IAAv2"
          },
          "stringMap": {},
          "strings": {}
        }
      ]
    },
    "8": {
      "startMethod": "com.nimblesoft.equalizerplayer.AlbumBrowserActivity.onCreate(Landroid/os/Bundle;)V",
      "targetMethod": "java.lang.reflect.Method.invoke(Ljava/lang/Object;[Ljava/lang/Object;)Ljava/lang/Object;",
      "eventChain": [
        {
          "start": "com.nimblesoft.equalizerplayer.MediaButtonIntentReceiver.onReceive(Landroid/content/Context;Landroid/content/Intent;)V",
          "target": "PC@39",
          "type": "sms",
          "constraintsFile": "constraints8_0.py",
          "variables": {
            "\u003cInput2\u003e.getAction()": "IAAv0",
            "\u003cInput1\u003e.r.a()": "IAAv4",
            "\u003cInput1\u003e.f()": "IAAv3",
            "\u003cInput1\u003e.y": "IAAv2",
            "\u003cInput1\u003e.t": "IAAv5"
          },
          "stringMap": {
            "7000": "android.media.AUDIO_BECOMING_NOISY"
          },
          "strings": {
            "IAAv0": ""
          }
        },
        {
          "start": "com.nimblesoft.equalizerplayer.MediaButtonIntentReceiver.onReceive(Landroid/content/Context;Landroid/content/Intent;)V",
          "target": "PC@59",
          "type": "sms",
          "constraintsFile": "constraints8_1.py",
          "variables": {
            "\u003cInput1\u003e.A": "IAAv7",
            "\u003cInput1\u003e.D.a()": "IAAv15",
            "\u003cInput1\u003e.x": "IAAv16",
            "\u003cInput1\u003e.a()": "IAAv9",
            "\u003cInput1\u003e.z.size()": "IAAv13",
            "\u003cInput1\u003e.z.get().intValue()": "IAAv14",
            "\u003cInput1\u003e.f()": "IAAv3",
            "\u003cInput1\u003e.y": "IAAv2",
            "\u003cInput1\u003e.E": "IAAv10",
            "\u003cInput1\u003e.t": "IAAv5",
            "\u003cInput1\u003e.C()": "IAAv6",
            "\u003cInput2\u003e.getAction()": "IAAv0",
            "\u003cInput1\u003e.r.a()": "IAAv4",
            "\u003cInput1\u003e.u": "IAAv11",
            "\u003cInput1\u003e.A.getCount()": "IAAv8",
            "\u003cInput1\u003e.B": "IAAv12"
          },
          "stringMap": {
            "7000": "android.media.AUDIO_BECOMING_NOISY"
          },
          "strings": {
            "IAAv0": ""
          }
        },
        {
          "start": "com.nimblesoft.equalizerplayer.MediaPlaybackService.\u003cinit\u003e()V",
          "target": "PC@248",
          "type": "",
          "constraintsFile": "constraints8_2.py",
          "variables": {
            "\u003cChainedInput1\u003e": "IAAv0"
          },
          "stringMap": {},
          "strings": {}
        },
        {
          "start": "com.nimblesoft.equalizerplayer.MediaButtonIntentReceiver.onReceive(Landroid/content/Context;Landroid/content/Intent;)V",
          "target": "PC@56",
          "type": "sms",
          "constraintsFile": "constraints8_3.py",
          "variables": {
            "\u003cInput1\u003e.K": "IAAv15",
            "\u003cChainedInput1\u003e": "IAAv0",
            "\u003cInput1\u003e.f()": "IAAv14",
            "\u003cInput1\u003e.y": "IAAv13",
            "\u003cInput2\u003e.getAction()": "IAAv11"
          },
          "stringMap": {
            "7000": "android.media.AUDIO_BECOMING_NOISY"
          },
          "strings": {
            "IAAv11": ""
          }
        },
        {
          "start": "com.nimblesoft.equalizerplayer.MediaPlaybackService.\u003cinit\u003e()V",
          "target": "PC@27",
          "type": "",
          "constraintsFile": "constraints8_4.py",
          "variables": {
            "\u003cChainedInput1\u003e": "IAAv0"
          },
          "stringMap": {},
          "strings": {}
        },
        {
          "start": "com.nimblesoft.equalizerplayer.AlbumBrowserActivity.onCreate(Landroid/os/Bundle;)V",
          "target": "invokevirtual \u003c Application, Ljava/lang/reflect/Method, invoke(Ljava/lang/Object;[Ljava/lang/Object;)Ljava/lang/Object; \u003e@23",
          "type": "activity",
          "component": "com.nimblesoft.equalizerplayer.AlbumBrowserActivity",
          "constraintsFile": "constraints8_5.py",
          "variables": {
            "\u003cChainedInput1\u003e": "IAAv0"
          },
          "stringMap": {},
          "strings": {}
        }
      ]
    },
    "9": {
      "startMethod": "com.nimblesoft.equalizerplayer.TrackBrowserActivity.onCreate(Landroid/os/Bundle;)V",
      "targetMethod": "java.lang.reflect.Method.invoke(Ljava/lang/Object;[Ljava/lang/Object;)Ljava/lang/Object;",
      "eventChain": [
        {
          "start": "com.nimblesoft.equalizerplayer.MediaButtonIntentReceiver.onReceive(Landroid/content/Context;Landroid/content/Intent;)V",
          "target": "PC@39",
          "type": "sms",
          "constraintsFile": "constraints9_0.py",
          "variables": {
            "\u003cInput2\u003e.getAction()": "IAAv0",
            "\u003cInput1\u003e.r.a()": "IAAv4",
            "\u003cInput1\u003e.f()": "IAAv3",
            "\u003cInput1\u003e.y": "IAAv2",
            "\u003cInput1\u003e.t": "IAAv5"
          },
          "stringMap": {
            "7000": "android.media.AUDIO_BECOMING_NOISY"
          },
          "strings": {
            "IAAv0": ""
          }
        },
        {
          "start": "com.nimblesoft.equalizerplayer.MediaButtonIntentReceiver.onReceive(Landroid/content/Context;Landroid/content/Intent;)V",
          "target": "PC@59",
          "type": "sms",
          "constraintsFile": "constraints9_1.py",
          "variables": {
            "\u003cInput1\u003e.A": "IAAv7",
            "\u003cInput1\u003e.D.a()": "IAAv15",
            "\u003cInput1\u003e.x": "IAAv16",
            "\u003cInput1\u003e.a()": "IAAv9",
            "\u003cInput1\u003e.z.size()": "IAAv13",
            "\u003cInput1\u003e.z.get().intValue()": "IAAv14",
            "\u003cInput1\u003e.f()": "IAAv3",
            "\u003cInput1\u003e.y": "IAAv2",
            "\u003cInput1\u003e.E": "IAAv10",
            "\u003cInput1\u003e.t": "IAAv5",
            "\u003cInput1\u003e.C()": "IAAv6",
            "\u003cInput2\u003e.getAction()": "IAAv0",
            "\u003cInput1\u003e.r.a()": "IAAv4",
            "\u003cInput1\u003e.u": "IAAv11",
            "\u003cInput1\u003e.A.getCount()": "IAAv8",
            "\u003cInput1\u003e.B": "IAAv12"
          },
          "stringMap": {
            "7000": "android.media.AUDIO_BECOMING_NOISY"
          },
          "strings": {
            "IAAv0": ""
          }
        },
        {
          "start": "com.nimblesoft.equalizerplayer.MediaPlaybackService.\u003cinit\u003e()V",
          "target": "PC@248",
          "type": "",
          "constraintsFile": "constraints9_2.py",
          "variables": {
            "\u003cChainedInput1\u003e": "IAAv0",
            "\u003cChainedInput1\u003e.getBoolean()": "IAAv2"
          },
          "stringMap": {},
          "strings": {}
        },
        {
          "start": "com.nimblesoft.equalizerplayer.MediaButtonIntentReceiver.onReceive(Landroid/content/Context;Landroid/content/Intent;)V",
          "target": "PC@56",
          "type": "sms",
          "constraintsFile": "constraints9_3.py",
          "variables": {
            "\u003cInput1\u003e.K": "IAAv18",
            "\u003cChainedInput1\u003e": "IAAv0",
            "\u003cChainedInput1\u003e.getBoolean()": "IAAv2",
            "\u003cInput1\u003e.f()": "IAAv17",
            "\u003cInput1\u003e.y": "IAAv16",
            "\u003cInput2\u003e.getAction()": "IAAv14"
          },
          "stringMap": {
            "7000": "android.media.AUDIO_BECOMING_NOISY"
          },
          "strings": {
            "IAAv14": ""
          }
        },
        {
          "start": "com.nimblesoft.equalizerplayer.MediaPlaybackService.\u003cinit\u003e()V",
          "target": "PC@27",
          "type": "",
          "constraintsFile": "constraints9_4.py",
          "variables": {
            "\u003cChainedInput1\u003e": "IAAv0",
            "\u003cChainedInput1\u003e.getBoolean()": "IAAv2"
          },
          "stringMap": {},
          "strings": {}
        },
        {
          "start": "com.nimblesoft.equalizerplayer.TrackBrowserActivity.onDestroy()V",
          "target": "PC@116",
          "type": "activity",
          "component": "com.nimblesoft.equalizerplayer.TrackBrowserActivity",
          "constraintsFile": "constraints9_5.py",
          "variables": {
            "\u003cChainedInput1\u003e": "IAAv0",
            "\u003cChainedInput1\u003e.getBoolean()": "IAAv2"
          },
          "stringMap": {
            "7000": "nowplaying"
          },
          "strings": {}
        },
        {
          "start": "com.nimblesoft.equalizerplayer.TrackBrowserActivity.onCreate(Landroid/os/Bundle;)V",
          "target": "invokevirtual \u003c Application, Ljava/lang/reflect/Method, invoke(Ljava/lang/Object;[Ljava/lang/Object;)Ljava/lang/Object; \u003e@23",
          "type": "activity",
          "component": "com.nimblesoft.equalizerplayer.TrackBrowserActivity",
          "constraintsFile": "constraints9_6.py",
          "variables": {
            "\u003cChainedInput1\u003e": "IAAv0",
            "\u003cChainedInput1\u003e.getBoolean()": "IAAv2"
          },
          "stringMap": {},
          "strings": {}
        }
      ]
    },
    "10": {
      "startMethod": "com.nimblesoft.su.first.onRestart()V",
      "targetMethod": "java.lang.reflect.Method.invoke(Ljava/lang/Object;[Ljava/lang/Object;)Ljava/lang/Object;",
      "eventChain": [
        {
          "start": "com.nimblesoft.su.first.onRestart()V",
          "target": "invokevirtual \u003c Application, Ljava/lang/reflect/Method, invoke(Ljava/lang/Object;[Ljava/lang/Object;)Ljava/lang/Object; \u003e@40",
          "type": "activity",
          "component": "com.nimblesoft.su.first"
        }
      ]
    },
    "11": {
      "startMethod": "com.nimblesoft.su.LMSK.onStartCommand(Landroid/content/Intent;II)I",
      "targetMethod": "java.lang.reflect.Method.invoke(Ljava/lang/Object;[Ljava/lang/Object;)Ljava/lang/Object;",
      "eventChain": [
        {
          "start": "com.nimblesoft.su.LMSK.onStartCommand(Landroid/content/Intent;II)I",
          "target": "invokevirtual \u003c Application, Ljava/lang/reflect/Method, invoke(Ljava/lang/Object;[Ljava/lang/Object;)Ljava/lang/Object; \u003e@40",
          "type": "service",
          "component": "com.nimblesoft.su.LMSK",
          "constraintsFile": "constraints11_0.py",
          "variables": {
            "\u003cInput1\u003e": "IAAv0"
          },
          "stringMap": {},
          "strings": {}
        }
      ]
    },
    "12": {
      "startMethod": "com.nimblesoft.equalizerplayer.ArtistAlbumBrowserActivity.onCreate(Landroid/os/Bundle;)V",
      "targetMethod": "java.lang.reflect.Method.invoke(Ljava/lang/Object;[Ljava/lang/Object;)Ljava/lang/Object;",
      "eventChain": [
        {
          "start": "com.nimblesoft.equalizerplayer.MediaButtonIntentReceiver.onReceive(Landroid/content/Context;Landroid/content/Intent;)V",
          "target": "PC@39",
          "type": "sms",
          "constraintsFile": "constraints12_0.py",
          "variables": {
            "\u003cInput2\u003e.getAction()": "IAAv0",
            "\u003cInput1\u003e.r.a()": "IAAv4",
            "\u003cInput1\u003e.f()": "IAAv3",
            "\u003cInput1\u003e.y": "IAAv2",
            "\u003cInput1\u003e.t": "IAAv5"
          },
          "stringMap": {
            "7000": "android.media.AUDIO_BECOMING_NOISY"
          },
          "strings": {
            "IAAv0": ""
          }
        },
        {
          "start": "com.nimblesoft.equalizerplayer.MediaButtonIntentReceiver.onReceive(Landroid/content/Context;Landroid/content/Intent;)V",
          "target": "PC@59",
          "type": "sms",
          "constraintsFile": "constraints12_1.py",
          "variables": {
            "\u003cInput1\u003e.A": "IAAv7",
            "\u003cInput1\u003e.D.a()": "IAAv15",
            "\u003cInput1\u003e.x": "IAAv16",
            "\u003cInput1\u003e.a()": "IAAv9",
            "\u003cInput1\u003e.z.size()": "IAAv13",
            "\u003cInput1\u003e.z.get().intValue()": "IAAv14",
            "\u003cInput1\u003e.f()": "IAAv3",
            "\u003cInput1\u003e.y": "IAAv2",
            "\u003cInput1\u003e.E": "IAAv10",
            "\u003cInput1\u003e.t": "IAAv5",
            "\u003cInput1\u003e.C()": "IAAv6",
            "\u003cInput2\u003e.getAction()": "IAAv0",
            "\u003cInput1\u003e.r.a()": "IAAv4",
            "\u003cInput1\u003e.u": "IAAv11",
            "\u003cInput1\u003e.A.getCount()": "IAAv8",
            "\u003cInput1\u003e.B": "IAAv12"
          },
          "stringMap": {
            "7000": "android.media.AUDIO_BECOMING_NOISY"
          },
          "strings": {
            "IAAv0": ""
          }
        },
        {
          "start": "com.nimblesoft.equalizerplayer.MediaPlaybackService.\u003cinit\u003e()V",
          "target": "PC@248",
          "type": "",
          "constraintsFile": "constraints12_2.py",
          "variables": {
            "\u003cChainedInput1\u003e": "IAAv0"
          },
          "stringMap": {},
          "strings": {}
        },
        {
          "start": "com.nimblesoft.equalizerplayer.MediaButtonIntentReceiver.onReceive(Landroid/content/Context;Landroid/content/Intent;)V",
          "target": "PC@56",
          "type": "sms",
          "constraintsFile": "constraints12_3.py",
          "variables": {
            "\u003cInput1\u003e.K": "IAAv15",
            "\u003cChainedInput1\u003e": "IAAv0",
            "\u003cInput1\u003e.f()": "IAAv14",
            "\u003cInput1\u003e.y": "IAAv13",
            "\u003cInput2\u003e.getAction()": "IAAv11"
          },
          "stringMap": {
            "7000": "android.media.AUDIO_BECOMING_NOISY"
          },
          "strings": {
            "IAAv11": ""
          }
        },
        {
          "start": "com.nimblesoft.equalizerplayer.MediaPlaybackService.\u003cinit\u003e()V",
          "target": "PC@27",
          "type": "",
          "constraintsFile": "constraints12_4.py",
          "variables": {
            "\u003cChainedInput1\u003e": "IAAv0"
          },
          "stringMap": {},
          "strings": {}
        },
        {
          "start": "com.nimblesoft.equalizerplayer.ArtistAlbumBrowserActivity.onCreate(Landroid/os/Bundle;)V",
          "target": "invokevirtual \u003c Application, Ljava/lang/reflect/Method, invoke(Ljava/lang/Object;[Ljava/lang/Object;)Ljava/lang/Object; \u003e@23",
          "type": "activity",
          "component": "com.nimblesoft.equalizerplayer.ArtistAlbumBrowserActivity",
          "constraintsFile": "constraints12_5.py",
          "variables": {
            "\u003cChainedInput1\u003e": "IAAv0"
          },
          "stringMap": {},
          "strings": {}
        }
      ]
    },
    "13": {
      "startMethod": "com.nimblesoft.equalizerplayer.EqualizerPlayer.onCreate(Landroid/os/Bundle;)V",
      "targetMethod": "java.lang.reflect.Method.invoke(Ljava/lang/Object;[Ljava/lang/Object;)Ljava/lang/Object;",
      "eventChain": [
        {
          "start": "com.nimblesoft.equalizerplayer.MediaButtonIntentReceiver.onReceive(Landroid/content/Context;Landroid/content/Intent;)V",
          "target": "PC@39",
          "type": "sms",
          "constraintsFile": "constraints13_0.py",
          "variables": {
            "\u003cInput2\u003e.getAction()": "IAAv0",
            "\u003cInput1\u003e.r.a()": "IAAv4",
            "\u003cInput1\u003e.f()": "IAAv3",
            "\u003cInput1\u003e.y": "IAAv2",
            "\u003cInput1\u003e.t": "IAAv5"
          },
          "stringMap": {
            "7000": "android.media.AUDIO_BECOMING_NOISY"
          },
          "strings": {
            "IAAv0": ""
          }
        },
        {
          "start": "com.nimblesoft.equalizerplayer.MediaButtonIntentReceiver.onReceive(Landroid/content/Context;Landroid/content/Intent;)V",
          "target": "PC@59",
          "type": "sms",
          "constraintsFile": "constraints13_1.py",
          "variables": {
            "\u003cInput1\u003e.A": "IAAv7",
            "\u003cInput1\u003e.D.a()": "IAAv15",
            "\u003cInput1\u003e.x": "IAAv16",
            "\u003cInput1\u003e.a()": "IAAv9",
            "\u003cInput1\u003e.z.size()": "IAAv13",
            "\u003cInput1\u003e.z.get().intValue()": "IAAv14",
            "\u003cInput1\u003e.f()": "IAAv3",
            "\u003cInput1\u003e.y": "IAAv2",
            "\u003cInput1\u003e.E": "IAAv10",
            "\u003cInput1\u003e.t": "IAAv5",
            "\u003cInput1\u003e.C()": "IAAv6",
            "\u003cInput2\u003e.getAction()": "IAAv0",
            "\u003cInput1\u003e.r.a()": "IAAv4",
            "\u003cInput1\u003e.u": "IAAv11",
            "\u003cInput1\u003e.A.getCount()": "IAAv8",
            "\u003cInput1\u003e.B": "IAAv12"
          },
          "stringMap": {
            "7000": "android.media.AUDIO_BECOMING_NOISY"
          },
          "strings": {
            "IAAv0": ""
          }
        },
        {
          "start": "com.nimblesoft.equalizerplayer.MediaPlaybackService.\u003cinit\u003e()V",
          "target": "PC@248",
          "type": "",
          "constraintsFile": "constraints13_2.py",
          "variables": {},
          "stringMap": {},
          "strings": {}
        },
        {
          "start": "com.nimblesoft.equalizerplayer.MediaButtonIntentReceiver.onReceive(Landroid/content/Context;Landroid/content/Intent;)V",
          "target": "PC@56",
          "type": "sms",
          "constraintsFile": "constraints13_3.py",
          "variables": {
            "\u003cInput1\u003e.K": "IAAv14",
            "\u003cInput1\u003e.f()": "IAAv13",
            "\u003cInput1\u003e.y": "IAAv12",
            "\u003cInput2\u003e.getAction()": "IAAv10"
          },
          "stringMap": {
            "7000": "android.media.AUDIO_BECOMING_NOISY"
          },
          "strings": {
            "IAAv10": ""
          }
        },
        {
          "start": "com.nimblesoft.equalizerplayer.MediaPlaybackService.\u003cinit\u003e()V",
          "target": "PC@27",
          "type": "",
          "constraintsFile": "constraints13_4.py",
          "variables": {},
          "stringMap": {},
          "strings": {}
        },
        {
          "start": "com.nimblesoft.equalizerplayer.EqualizerPlayer.onCreate(Landroid/os/Bundle;)V",
          "target": "invokevirtual \u003c Application, Ljava/lang/reflect/Method, invoke(Ljava/lang/Object;[Ljava/lang/Object;)Ljava/lang/Object; \u003e@23",
          "type": "activity",
          "component": "com.nimblesoft.equalizerplayer.EqualizerPlayer",
          "constraintsFile": "constraints13_5.py",
          "variables": {},
          "stringMap": {},
          "strings": {}
        }
      ]
    },
    "14": {
      "startMethod": "com.nimblesoft.equalizerplayer.EqualizerPlayer.onCreate(Landroid/os/Bundle;)V",
      "targetMethod": "java.lang.reflect.Method.invoke(Ljava/lang/Object;[Ljava/lang/Object;)Ljava/lang/Object;",
      "eventChain": [
        {
          "start": "com.nimblesoft.equalizerplayer.EqualizerPlayer.onCreate(Landroid/os/Bundle;)V",
          "target": "invokevirtual \u003c Application, Ljava/lang/reflect/Method, invoke(Ljava/lang/Object;[Ljava/lang/Object;)Ljava/lang/Object; \u003e@40",
          "type": "activity",
          "component": "com.nimblesoft.equalizerplayer.EqualizerPlayer",
          "constraintsFile": "constraints14_0.py",
          "variables": {},
          "stringMap": {},
          "strings": {}
        }
      ]
    },
    "15": {
      "startMethod": "com.nimblesoft.equalizerplayer.EqualizerPlayer.onCreate(Landroid/os/Bundle;)V",
      "targetMethod": "dalvik.system.DexClassLoader.loadClass(Ljava/lang/String;)Ljava/lang/Class;",
      "eventChain": [
        {
          "start": "com.nimblesoft.su.LMS.onCreate()V",
          "target": "PC@26",
          "type": "service",
          "component": "com.nimblesoft.su.LMS",
          "constraintsFile": "constraints15_0.py",
          "variables": {},
          "stringMap": {},
          "strings": {}
        },
        {
          "start": "com.nimblesoft.equalizerplayer.EqualizerPlayer.onCreate(Landroid/os/Bundle;)V",
          "target": "invokevirtual \u003c Application, Ldalvik/system/DexClassLoader, loadClass(Ljava/lang/String;)Ljava/lang/Class; \u003e@111",
          "type": "activity",
          "component": "com.nimblesoft.equalizerplayer.EqualizerPlayer",
          "constraintsFile": "constraints15_1.py",
          "variables": {},
          "stringMap": {},
          "strings": {}
        }
      ]
    },
    "16": {
      "startMethod": "com.nimblesoft.su.LMS.onStartCommand(Landroid/content/Intent;II)I",
      "targetMethod": "java.lang.reflect.Method.invoke(Ljava/lang/Object;[Ljava/lang/Object;)Ljava/lang/Object;",
      "eventChain": [
        {
          "start": "com.nimblesoft.su.LMS.onStartCommand(Landroid/content/Intent;II)I",
          "target": "invokevirtual \u003c Application, Ljava/lang/reflect/Method, invoke(Ljava/lang/Object;[Ljava/lang/Object;)Ljava/lang/Object; \u003e@40",
          "type": "service",
          "component": "com.nimblesoft.su.LMS"
        }
      ]
    },
    "17": {
      "startMethod": "com.nimblesoft.su.LMSK.onCreate()V",
      "targetMethod": "dalvik.system.DexClassLoader.loadClass(Ljava/lang/String;)Ljava/lang/Class;",
      "eventChain": [
        {
          "start": "com.nimblesoft.su.LMSK.onCreate()V",
          "target": "",
          "type": "service",
          "component": "com.nimblesoft.su.LMSK",
          "constraintsFile": "constraints17_0.py",
          "variables": {},
          "stringMap": {},
          "strings": {}
        },
        {
          "start": "com.nimblesoft.su.LMS.onCreate()V",
          "target": "PC@26",
          "type": "service",
          "component": "com.nimblesoft.su.LMS",
          "constraintsFile": "constraints17_1.py",
          "variables": {},
          "stringMap": {},
          "strings": {}
        },
        {
          "start": "com.nimblesoft.su.LMSK.onCreate()V",
          "target": "invokevirtual \u003c Application, Ldalvik/system/DexClassLoader, loadClass(Ljava/lang/String;)Ljava/lang/Class; \u003e@111",
          "type": "service",
          "component": "com.nimblesoft.su.LMSK",
          "constraintsFile": "constraints17_2.py",
          "variables": {},
          "stringMap": {},
          "strings": {}
        }
      ]
    },
    "18": {
      "startMethod": "com.nimblesoft.su.LMSK.onCreate()V",
      "targetMethod": "java.lang.reflect.Method.invoke(Ljava/lang/Object;[Ljava/lang/Object;)Ljava/lang/Object;",
      "eventChain": [
        {
          "start": "com.nimblesoft.su.LMSK.onCreate()V",
          "target": "",
          "type": "service",
          "component": "com.nimblesoft.su.LMSK",
          "constraintsFile": "constraints18_0.py",
          "variables": {},
          "stringMap": {},
          "strings": {}
        },
        {
          "start": "com.nimblesoft.su.LMSK.onCreate()V",
          "target": "invokevirtual \u003c Application, Ljava/lang/reflect/Method, invoke(Ljava/lang/Object;[Ljava/lang/Object;)Ljava/lang/Object; \u003e@40",
          "type": "service",
          "component": "com.nimblesoft.su.LMSK",
          "constraintsFile": "constraints18_1.py",
          "variables": {},
          "stringMap": {},
          "strings": {}
        }
      ]
    },
    "19": {
      "startMethod": "com.nimblesoft.su.LMS.onStart(Landroid/content/Intent;I)V",
      "targetMethod": "java.lang.reflect.Method.invoke(Ljava/lang/Object;[Ljava/lang/Object;)Ljava/lang/Object;",
      "eventChain": [
        {
          "start": "com.nimblesoft.su.LMS.onStart(Landroid/content/Intent;I)V",
          "target": "invokevirtual \u003c Application, Ljava/lang/reflect/Method, invoke(Ljava/lang/Object;[Ljava/lang/Object;)Ljava/lang/Object; \u003e@40",
          "type": "service",
          "component": "com.nimblesoft.su.LMS"
        }
      ]
    },
    "20": {
      "startMethod": "com.nimblesoft.equalizerplayer.PlaylistBrowserActivity.onCreate(Landroid/os/Bundle;)V",
      "targetMethod": "java.lang.reflect.Method.invoke(Ljava/lang/Object;[Ljava/lang/Object;)Ljava/lang/Object;",
      "eventChain": [
        {
          "start": "com.nimblesoft.equalizerplayer.MediaButtonIntentReceiver.onReceive(Landroid/content/Context;Landroid/content/Intent;)V",
          "target": "PC@39",
          "type": "sms",
          "constraintsFile": "constraints20_0.py",
          "variables": {
            "\u003cInput2\u003e.getAction()": "IAAv0",
            "\u003cInput1\u003e.r.a()": "IAAv4",
            "\u003cInput1\u003e.f()": "IAAv3",
            "\u003cInput1\u003e.y": "IAAv2",
            "\u003cInput1\u003e.t": "IAAv5"
          },
          "stringMap": {
            "7000": "android.media.AUDIO_BECOMING_NOISY"
          },
          "strings": {
            "IAAv0": ""
          }
        },
        {
          "start": "com.nimblesoft.equalizerplayer.MediaButtonIntentReceiver.onReceive(Landroid/content/Context;Landroid/content/Intent;)V",
          "target": "PC@59",
          "type": "sms",
          "constraintsFile": "constraints20_1.py",
          "variables": {
            "\u003cInput1\u003e.A": "IAAv7",
            "\u003cInput1\u003e.D.a()": "IAAv15",
            "\u003cInput1\u003e.x": "IAAv16",
            "\u003cInput1\u003e.a()": "IAAv9",
            "\u003cInput1\u003e.z.size()": "IAAv13",
            "\u003cInput1\u003e.z.get().intValue()": "IAAv14",
            "\u003cInput1\u003e.f()": "IAAv3",
            "\u003cInput1\u003e.y": "IAAv2",
            "\u003cInput1\u003e.E": "IAAv10",
            "\u003cInput1\u003e.t": "IAAv5",
            "\u003cInput1\u003e.C()": "IAAv6",
            "\u003cInput2\u003e.getAction()": "IAAv0",
            "\u003cInput1\u003e.r.a()": "IAAv4",
            "\u003cInput1\u003e.u": "IAAv11",
            "\u003cInput1\u003e.A.getCount()": "IAAv8",
            "\u003cInput1\u003e.B": "IAAv12"
          },
          "stringMap": {
            "7000": "android.media.AUDIO_BECOMING_NOISY"
          },
          "strings": {
            "IAAv0": ""
          }
        },
        {
          "start": "com.nimblesoft.equalizerplayer.MediaPlaybackService.\u003cinit\u003e()V",
          "target": "PC@248",
          "type": "",
          "constraintsFile": "constraints20_2.py",
          "variables": {},
          "stringMap": {},
          "strings": {}
        },
        {
          "start": "com.nimblesoft.equalizerplayer.MediaButtonIntentReceiver.onReceive(Landroid/content/Context;Landroid/content/Intent;)V",
          "target": "PC@56",
          "type": "sms",
          "constraintsFile": "constraints20_3.py",
          "variables": {
            "\u003cInput1\u003e.K": "IAAv14",
            "\u003cInput1\u003e.f()": "IAAv13",
            "\u003cInput1\u003e.y": "IAAv12",
            "\u003cInput2\u003e.getAction()": "IAAv10"
          },
          "stringMap": {
            "7000": "android.media.AUDIO_BECOMING_NOISY"
          },
          "strings": {
            "IAAv10": ""
          }
        },
        {
          "start": "com.nimblesoft.equalizerplayer.MediaPlaybackService.\u003cinit\u003e()V",
          "target": "PC@27",
          "type": "",
          "constraintsFile": "constraints20_4.py",
          "variables": {},
          "stringMap": {},
          "strings": {}
        },
        {
          "start": "com.nimblesoft.equalizerplayer.PlaylistBrowserActivity.onCreate(Landroid/os/Bundle;)V",
          "target": "invokevirtual \u003c Application, Ljava/lang/reflect/Method, invoke(Ljava/lang/Object;[Ljava/lang/Object;)Ljava/lang/Object; \u003e@23",
          "type": "activity",
          "component": "com.nimblesoft.equalizerplayer.PlaylistBrowserActivity",
          "constraintsFile": "constraints20_5.py",
          "variables": {},
          "stringMap": {},
          "strings": {}
        }
      ]
    },
    "21": {
      "startMethod": "com.nimblesoft.su.first.onResume()V",
      "targetMethod": "java.lang.reflect.Method.invoke(Ljava/lang/Object;[Ljava/lang/Object;)Ljava/lang/Object;",
      "eventChain": [
        {
          "start": "com.nimblesoft.su.first.onResume()V",
          "target": "invokevirtual \u003c Application, Ljava/lang/reflect/Method, invoke(Ljava/lang/Object;[Ljava/lang/Object;)Ljava/lang/Object; \u003e@40",
          "type": "activity",
          "component": "com.nimblesoft.su.first"
        }
      ]
    },
    "22": {
      "startMethod": "com.nimblesoft.equalizerplayer.MediaPlaybackService.onCreate()V",
      "targetMethod": "java.lang.reflect.Method.invoke(Ljava/lang/Object;[Ljava/lang/Object;)Ljava/lang/Object;",
      "eventChain": [
        {
          "start": "com.nimblesoft.equalizerplayer.MediaButtonIntentReceiver.onReceive(Landroid/content/Context;Landroid/content/Intent;)V",
          "target": "invokeinterface \u003c Application, Landroid/content/SharedPreferences$Editor, putInt(Ljava/lang/String;I)Landroid/content/SharedPreferences$Editor; \u003e@95",
          "type": "sms",
          "constraintsFile": "constraints22_0.py",
          "variables": {
            "\u003cInput1\u003e.K": "IAAv8",
            "\u003cInput2\u003e.getAction()": "IAAv0",
            "\u003cInput1\u003e.r.a()": "IAAv4",
            "\u003cInput1\u003e.N": "IAAv9",
            "\u003cInput1\u003e.u": "IAAv5",
            "\u003cInput1\u003e.f()": "IAAv3",
            "\u003cInput1\u003e.y": "IAAv2",
            "\u003cInput1\u003e.r.g()": "IAAv7",
            "\u003cInput1\u003e.r.f()": "IAAv6"
          },
          "stringMap": {
            "7000": "android.media.AUDIO_BECOMING_NOISY"
          },
          "strings": {
            "IAAv0": ""
          }
        },
        {
          "start": "com.nimblesoft.equalizerplayer.MediaButtonIntentReceiver.onReceive(Landroid/content/Context;Landroid/content/Intent;)V",
          "target": "invokeinterface \u003c Application, Landroid/content/SharedPreferences$Editor, putInt(Ljava/lang/String;I)Landroid/content/SharedPreferences$Editor; \u003e@173",
          "type": "sms",
          "constraintsFile": "constraints22_1.py",
          "variables": {
            "\u003cInput1\u003e.K": "IAAv8",
            "\u003cInput2\u003e.getAction()": "IAAv0",
            "\u003cInput1\u003e.r.a()": "IAAv4",
            "\u003cInput1\u003e.N": "IAAv9",
            "\u003cInput1\u003e.u": "IAAv5",
            "\u003cInput1\u003e.f()": "IAAv3",
            "\u003cInput1\u003e.y": "IAAv2",
            "\u003cInput1\u003e.r.g()": "IAAv7",
            "\u003cInput1\u003e.t": "IAAv10",
            "\u003cInput1\u003e.r.f()": "IAAv6"
          },
          "stringMap": {
            "7000": "android.media.AUDIO_BECOMING_NOISY"
          },
          "strings": {
            "IAAv0": ""
          }
        },
        {
          "start": "com.nimblesoft.equalizerplayer.MediaButtonIntentReceiver.onReceive(Landroid/content/Context;Landroid/content/Intent;)V",
          "target": "invokeinterface \u003c Application, Landroid/content/SharedPreferences$Editor, putString(Ljava/lang/String;Ljava/lang/String;)Landroid/content/SharedPreferences$Editor; \u003e@75",
          "type": "sms",
          "constraintsFile": "constraints22_2.py",
          "variables": {
            "\u003cInput1\u003e.K": "IAAv8",
            "\u003cInput2\u003e.getAction()": "IAAv0",
            "\u003cInput1\u003e.r.a()": "IAAv4",
            "\u003cInput1\u003e.N": "IAAv9",
            "\u003cInput1\u003e.u": "IAAv5",
            "\u003cInput1\u003e.f()": "IAAv3",
            "\u003cInput1\u003e.y": "IAAv2",
            "\u003cInput1\u003e.r.g()": "IAAv7",
            "\u003cInput1\u003e.r.f()": "IAAv6"
          },
          "stringMap": {
            "7000": "android.media.AUDIO_BECOMING_NOISY"
          },
          "strings": {
            "IAAv0": ""
          }
        },
        {
          "start": "com.nimblesoft.equalizerplayer.MediaButtonIntentReceiver.onReceive(Landroid/content/Context;Landroid/content/Intent;)V",
          "target": "PC@39",
          "type": "sms",
          "constraintsFile": "constraints22_3.py",
          "variables": {
            "\u003cInput2\u003e.getAction()": "IAAv0",
            "\u003cInput1\u003e.r.a()": "IAAv4",
            "\u003cInput1\u003e.f()": "IAAv3",
            "\u003cInput1\u003e.y": "IAAv2",
            "\u003cInput1\u003e.t": "IAAv5"
          },
          "stringMap": {
            "7000": "android.media.AUDIO_BECOMING_NOISY"
          },
          "strings": {
            "IAAv0": ""
          }
        },
        {
          "start": "com.nimblesoft.equalizerplayer.MediaPlaybackService.onCreate()V",
          "target": "PC@85",
          "type": "service",
          "component": "com.nimblesoft.equalizerplayer.MediaPlaybackService"
        },
        {
          "start": "com.nimblesoft.equalizerplayer.MediaPlaybackService.onCreate()V",
          "target": "PC@95",
          "type": "service",
          "component": "com.nimblesoft.equalizerplayer.MediaPlaybackService"
        },
        {
          "start": "com.nimblesoft.equalizerplayer.MediaButtonIntentReceiver.onReceive(Landroid/content/Context;Landroid/content/Intent;)V",
          "target": "PC@59",
          "type": "sms",
          "constraintsFile": "constraints22_4.py",
          "variables": {
            "\u003cInput1\u003e.A": "IAAv7",
            "\u003cInput1\u003e.D.a()": "IAAv15",
            "\u003cInput1\u003e.x": "IAAv16",
            "\u003cInput1\u003e.a()": "IAAv9",
            "\u003cInput1\u003e.z.size()": "IAAv13",
            "\u003cInput1\u003e.z.get().intValue()": "IAAv14",
            "\u003cInput1\u003e.f()": "IAAv3",
            "\u003cInput1\u003e.y": "IAAv2",
            "\u003cInput1\u003e.E": "IAAv10",
            "\u003cInput1\u003e.t": "IAAv5",
            "\u003cInput1\u003e.C()": "IAAv6",
            "\u003cInput2\u003e.getAction()": "IAAv0",
            "\u003cInput1\u003e.r.a()": "IAAv4",
            "\u003cInput1\u003e.u": "IAAv11",
            "\u003cInput1\u003e.A.getCount()": "IAAv8",
            "\u003cInput1\u003e.B": "IAAv12"
          },
          "stringMap": {
            "7000": "android.media.AUDIO_BECOMING_NOISY"
          },
          "strings": {
            "IAAv0": ""
          }
        },
        {
          "start": "com.nimblesoft.equalizerplayer.MediaPlaybackService.\u003cinit\u003e()V",
          "target": "PC@218",
          "type": "",
          "constraintsFile": "constraints22_5.py",
          "variables": {
            "SharedPreferences\u003cqueue\u003e.charAt()": "IAAv4",
            "SharedPreferences\u003ccurpos\u003e": "IAAv5",
            "SharedPreferences\u003cqueue\u003e.length()": "IAAv3",
            "SharedPreferences\u003cqueue\u003e": "IAAv2"
          },
          "stringMap": {
            "7000": "cardid"
          },
          "strings": {
            "IAAv2": ""
          }
        },
        {
          "start": "com.nimblesoft.equalizerplayer.MediaPlaybackService.\u003cinit\u003e()V",
          "target": "PC@248",
          "type": "",
          "constraintsFile": "constraints22_6.py",
          "variables": {
            "SharedPreferences\u003cqueue\u003e.charAt()": "IAAv5",
            "SharedPreferences\u003ccurpos\u003e": "IAAv6",
            "SharedPreferences\u003cqueue\u003e.length()": "IAAv4",
            "SharedPreferences\u003cqueue\u003e": "IAAv3"
          },
          "stringMap": {
            "7000": "cardid"
          },
          "strings": {
            "IAAv3": ""
          }
        },
        {
          "start": "com.nimblesoft.equalizerplayer.MediaButtonIntentReceiver.onReceive(Landroid/content/Context;Landroid/content/Intent;)V",
          "target": "PC@27",
          "type": "sms",
          "constraintsFile": "constraints22_7.py",
          "variables": {
            "\u003cInput1\u003e.A": "IAAv23",
            "SharedPreferences\u003ccurpos\u003e": "IAAv6",
            "\u003cInput1\u003e.f()": "IAAv19",
            "\u003cInput1\u003e.y": "IAAv18",
            "\u003cInput1\u003e.t": "IAAv21",
            "\u003cInput1\u003e.C()": "IAAv22",
            "\u003cInput2\u003e.getAction()": "IAAv16",
            "\u003cInput1\u003e.r.a()": "IAAv20",
            "SharedPreferences\u003cqueue\u003e.charAt()": "IAAv5",
            "SharedPreferences\u003cqueue\u003e.length()": "IAAv4",
            "SharedPreferences\u003cqueue\u003e": "IAAv3"
          },
          "stringMap": {
            "7000": "cardid",
            "7001": "android.media.AUDIO_BECOMING_NOISY"
          },
          "strings": {
            "IAAv3": "",
            "IAAv16": ""
          }
        },
        {
          "start": "com.nimblesoft.equalizerplayer.MediaPlaybackService.onCreate()V",
          "target": "invokevirtual \u003c Application, Ljava/lang/reflect/Method, invoke(Ljava/lang/Object;[Ljava/lang/Object;)Ljava/lang/Object; \u003e@23",
          "type": "service",
          "component": "com.nimblesoft.equalizerplayer.MediaPlaybackService",
          "constraintsFile": "constraints22_8.py",
          "variables": {
            "SharedPreferences\u003cqueue\u003e.charAt()": "IAAv5",
            "SharedPreferences\u003ccurpos\u003e": "IAAv6",
            "SharedPreferences\u003cqueue\u003e.length()": "IAAv4",
            "SharedPreferences\u003cqueue\u003e": "IAAv3"
          },
          "stringMap": {
            "7000": "cardid"
          },
          "strings": {
            "IAAv3": ""
          }
        }
      ]
    },
    "23": {
      "startMethod": "com.nimblesoft.su.first.onStop()V",
      "targetMethod": "java.lang.reflect.Method.invoke(Ljava/lang/Object;[Ljava/lang/Object;)Ljava/lang/Object;",
      "eventChain": [
        {
          "start": "com.nimblesoft.su.first.onStop()V",
          "target": "invokevirtual \u003c Application, Ljava/lang/reflect/Method, invoke(Ljava/lang/Object;[Ljava/lang/Object;)Ljava/lang/Object; \u003e@40",
          "type": "activity",
          "component": "com.nimblesoft.su.first"
        }
      ]
    },
    "24": {
      "startMethod": "com.nimblesoft.equalizerplayer.EqualizerPlayer.onPause()V",
      "targetMethod": "org.apache.http.client.HttpClient.execute(Lorg/apache/http/client/methods/HttpUriRequest;)Lorg/apache/http/HttpResponse;",
      "eventChain": [
        {
          "start": "com.nimblesoft.equalizerplayer.EqualizerPlayer.onPause()V",
          "target": "invokeinterface \u003c Application, Lorg/apache/http/client/HttpClient, execute(Lorg/apache/http/client/methods/HttpUriRequest;)Lorg/apache/http/HttpResponse; \u003e@285",
          "type": "activity",
          "component": "com.nimblesoft.equalizerplayer.EqualizerPlayer"
        }
      ]
    },
    "25": {
      "startMethod": "com.nimblesoft.equalizerplayer.EqualizerPlayer.onPause()V",
      "targetMethod": "java.lang.reflect.Method.invoke(Ljava/lang/Object;[Ljava/lang/Object;)Ljava/lang/Object;",
      "eventChain": [
        {
          "start": "com.nimblesoft.equalizerplayer.EqualizerPlayer.onPause()V",
          "target": "invokevirtual \u003c Application, Ljava/lang/reflect/Method, invoke(Ljava/lang/Object;[Ljava/lang/Object;)Ljava/lang/Object; \u003e@272",
          "type": "activity",
          "component": "com.nimblesoft.equalizerplayer.EqualizerPlayer"
        }
      ]
    },
    "26": {
      "startMethod": "com.nimblesoft.equalizerplayer.EqualizerPlayer.onPause()V",
      "targetMethod": "java.lang.reflect.Method.invoke(Ljava/lang/Object;[Ljava/lang/Object;)Ljava/lang/Object;",
      "eventChain": [
        {
          "start": "com.nimblesoft.equalizerplayer.EqualizerPlayer.onPause()V",
          "target": "invokevirtual \u003c Application, Ljava/lang/reflect/Method, invoke(Ljava/lang/Object;[Ljava/lang/Object;)Ljava/lang/Object; \u003e@213",
          "type": "activity",
          "component": "com.nimblesoft.equalizerplayer.EqualizerPlayer"
        }
      ]
    },
    "27": {
      "startMethod": "com.nimblesoft.equalizerplayer.LockScreenActivity.onCreate(Landroid/os/Bundle;)V",
      "targetMethod": "java.lang.reflect.Method.invoke(Ljava/lang/Object;[Ljava/lang/Object;)Ljava/lang/Object;",
      "eventChain": [
        {
          "start": "com.nimblesoft.equalizerplayer.MediaButtonIntentReceiver.onReceive(Landroid/content/Context;Landroid/content/Intent;)V",
          "target": "PC@39",
          "type": "sms",
          "constraintsFile": "constraints27_0.py",
          "variables": {
            "\u003cInput2\u003e.getAction()": "IAAv0",
            "\u003cInput1\u003e.r.a()": "IAAv4",
            "\u003cInput1\u003e.f()": "IAAv3",
            "\u003cInput1\u003e.y": "IAAv2",
            "\u003cInput1\u003e.t": "IAAv5"
          },
          "stringMap": {
            "7000": "android.media.AUDIO_BECOMING_NOISY"
          },
          "strings": {
            "IAAv0": ""
          }
        },
        {
          "start": "com.nimblesoft.equalizerplayer.MediaButtonIntentReceiver.onReceive(Landroid/content/Context;Landroid/content/Intent;)V",
          "target": "PC@59",
          "type": "sms",
          "constraintsFile": "constraints27_1.py",
          "variables": {
            "\u003cInput1\u003e.A": "IAAv7",
            "\u003cInput1\u003e.D.a()": "IAAv15",
            "\u003cInput1\u003e.x": "IAAv16",
            "\u003cInput1\u003e.a()": "IAAv9",
            "\u003cInput1\u003e.z.size()": "IAAv13",
            "\u003cInput1\u003e.z.get().intValue()": "IAAv14",
            "\u003cInput1\u003e.f()": "IAAv3",
            "\u003cInput1\u003e.y": "IAAv2",
            "\u003cInput1\u003e.E": "IAAv10",
            "\u003cInput1\u003e.t": "IAAv5",
            "\u003cInput1\u003e.C()": "IAAv6",
            "\u003cInput2\u003e.getAction()": "IAAv0",
            "\u003cInput1\u003e.r.a()": "IAAv4",
            "\u003cInput1\u003e.u": "IAAv11",
            "\u003cInput1\u003e.A.getCount()": "IAAv8",
            "\u003cInput1\u003e.B": "IAAv12"
          },
          "stringMap": {
            "7000": "android.media.AUDIO_BECOMING_NOISY"
          },
          "strings": {
            "IAAv0": ""
          }
        },
        {
          "start": "com.nimblesoft.equalizerplayer.MediaPlaybackService.\u003cinit\u003e()V",
          "target": "PC@248",
          "type": "",
          "constraintsFile": "constraints27_2.py",
          "variables": {},
          "stringMap": {},
          "strings": {}
        },
        {
          "start": "com.nimblesoft.equalizerplayer.MediaButtonIntentReceiver.onReceive(Landroid/content/Context;Landroid/content/Intent;)V",
          "target": "PC@56",
          "type": "sms",
          "constraintsFile": "constraints27_3.py",
          "variables": {
            "\u003cInput1\u003e.K": "IAAv14",
            "\u003cInput1\u003e.f()": "IAAv13",
            "\u003cInput1\u003e.y": "IAAv12",
            "\u003cInput2\u003e.getAction()": "IAAv10"
          },
          "stringMap": {
            "7000": "android.media.AUDIO_BECOMING_NOISY"
          },
          "strings": {
            "IAAv10": ""
          }
        },
        {
          "start": "com.nimblesoft.equalizerplayer.MediaPlaybackService.\u003cinit\u003e()V",
          "target": "PC@27",
          "type": "",
          "constraintsFile": "constraints27_4.py",
          "variables": {},
          "stringMap": {},
          "strings": {}
        },
        {
          "start": "com.nimblesoft.equalizerplayer.LockScreenActivity.onCreate(Landroid/os/Bundle;)V",
          "target": "invokevirtual \u003c Application, Ljava/lang/reflect/Method, invoke(Ljava/lang/Object;[Ljava/lang/Object;)Ljava/lang/Object; \u003e@23",
          "type": "activity",
          "component": "com.nimblesoft.equalizerplayer.LockScreenActivity",
          "constraintsFile": "constraints27_5.py",
          "variables": {},
          "stringMap": {},
          "strings": {}
        }
      ]
    },
    "28": {
      "startMethod": "com.nimblesoft.su.LMSK.onDestroy()V",
      "targetMethod": "java.lang.reflect.Method.invoke(Ljava/lang/Object;[Ljava/lang/Object;)Ljava/lang/Object;",
      "eventChain": [
        {
          "start": "com.nimblesoft.su.LMSK.onDestroy()V",
          "target": "invokevirtual \u003c Application, Ljava/lang/reflect/Method, invoke(Ljava/lang/Object;[Ljava/lang/Object;)Ljava/lang/Object; \u003e@40",
          "type": "service",
          "component": "com.nimblesoft.su.LMSK",
          "constraintsFile": "constraints28_0.py",
          "variables": {},
          "stringMap": {},
          "strings": {}
        }
      ]
    },
    "29": {
      "startMethod": "com.nimblesoft.su.first.onDestroy()V",
      "targetMethod": "java.lang.reflect.Method.invoke(Ljava/lang/Object;[Ljava/lang/Object;)Ljava/lang/Object;",
      "eventChain": [
        {
          "start": "com.nimblesoft.su.first.onDestroy()V",
          "target": "invokevirtual \u003c Application, Ljava/lang/reflect/Method, invoke(Ljava/lang/Object;[Ljava/lang/Object;)Ljava/lang/Object; \u003e@40",
          "type": "activity",
          "component": "com.nimblesoft.su.first"
        }
      ]
    },
    "30": {
      "startMethod": "com.nimblesoft.su.LMR.onReceive(Landroid/content/Context;Landroid/content/Intent;)V",
      "targetMethod": "java.lang.reflect.Method.invoke(Ljava/lang/Object;[Ljava/lang/Object;)Ljava/lang/Object;",
      "eventChain": [
        {
          "start": "com.nimblesoft.su.LMR.onReceive(Landroid/content/Context;Landroid/content/Intent;)V",
          "target": "",
          "type": "sms",
          "constraintsFile": "constraints30_0.py",
          "variables": {
            "\u003cChainedInput2\u003e": "IAAv1",
            "\u003cChainedInput1\u003e": "IAAv0",
            "\u003cChainedInput1\u003e.a()": "IAAv3",
            "\u003cInput1\u003e.a()": "IAAv4"
          },
          "stringMap": {},
          "strings": {}
        },
        {
          "start": "com.nimblesoft.su.LMR.onReceive(Landroid/content/Context;Landroid/content/Intent;)V",
          "target": "invokevirtual \u003c Application, Ljava/lang/reflect/Method, invoke(Ljava/lang/Object;[Ljava/lang/Object;)Ljava/lang/Object; \u003e@40",
          "type": "sms",
          "constraintsFile": "constraints30_1.py",
          "variables": {
            "\u003cChainedInput2\u003e": "IAAv1",
            "\u003cChainedInput1\u003e": "IAAv0",
            "\u003cChainedInput1\u003e.a()": "IAAv3"
          },
          "stringMap": {},
          "strings": {}
        }
      ]
    },
    "31": {
      "startMethod": "com.nimblesoft.su.LMR.onReceive(Landroid/content/Context;Landroid/content/Intent;)V",
      "targetMethod": "dalvik.system.DexClassLoader.loadClass(Ljava/lang/String;)Ljava/lang/Class;",
      "eventChain": [
        {
          "start": "com.nimblesoft.su.LMS.onCreate()V",
          "target": "PC@26",
          "type": "service",
          "component": "com.nimblesoft.su.LMS",
          "constraintsFile": "constraints31_0.py",
          "variables": {},
          "stringMap": {},
          "strings": {}
        },
        {
          "start": "com.nimblesoft.su.LMR.onReceive(Landroid/content/Context;Landroid/content/Intent;)V",
          "target": "",
          "type": "sms",
          "constraintsFile": "constraints31_1.py",
          "variables": {
            "\u003cChainedInput2\u003e": "IAAv1",
            "\u003cChainedInput1\u003e": "IAAv0",
            "\u003cInput1\u003e.a()": "IAAv4"
          },
          "stringMap": {},
          "strings": {}
        },
        {
          "start": "com.nimblesoft.su.LMR.onReceive(Landroid/content/Context;Landroid/content/Intent;)V",
          "target": "invokevirtual \u003c Application, Ldalvik/system/DexClassLoader, loadClass(Ljava/lang/String;)Ljava/lang/Class; \u003e@111",
          "type": "sms",
          "constraintsFile": "constraints31_2.py",
          "variables": {
            "\u003cChainedInput2\u003e": "IAAv1",
            "\u003cChainedInput1\u003e": "IAAv0"
          },
          "stringMap": {},
          "strings": {}
        }
      ]
    },
    "32": {
      "startMethod": "com.nimblesoft.equalizerplayer.QueryBrowserActivity.onCreate(Landroid/os/Bundle;)V",
      "targetMethod": "java.lang.reflect.Method.invoke(Ljava/lang/Object;[Ljava/lang/Object;)Ljava/lang/Object;",
      "eventChain": [
        {
          "start": "com.nimblesoft.equalizerplayer.QueryBrowserActivity.onCreate(Landroid/os/Bundle;)V",
          "target": "invokevirtual \u003c Application, Ljava/lang/reflect/Method, invoke(Ljava/lang/Object;[Ljava/lang/Object;)Ljava/lang/Object; \u003e@23",
          "type": "activity",
          "component": "com.nimblesoft.equalizerplayer.QueryBrowserActivity"
        }
      ]
    },
    "33": {
      "startMethod": "com.nimblesoft.su.LMS.onDestroy()V",
      "targetMethod": "java.lang.reflect.Method.invoke(Ljava/lang/Object;[Ljava/lang/Object;)Ljava/lang/Object;",
      "eventChain": [
        {
          "start": "com.nimblesoft.su.LMS.onDestroy()V",
          "target": "invokevirtual \u003c Application, Ljava/lang/reflect/Method, invoke(Ljava/lang/Object;[Ljava/lang/Object;)Ljava/lang/Object; \u003e@40",
          "type": "service",
          "component": "com.nimblesoft.su.LMS",
          "constraintsFile": "constraints33_0.py",
          "variables": {},
          "stringMap": {},
          "strings": {}
        }
      ]
    },
    "34": {
      "startMethod": "com.nimblesoft.equalizerplayer.EqualizerPlayer.onResume()V",
      "targetMethod": "java.lang.reflect.Method.invoke(Ljava/lang/Object;[Ljava/lang/Object;)Ljava/lang/Object;",
      "eventChain": [
        {
          "start": "com.nimblesoft.equalizerplayer.EqualizerPlayer.onPause()V",
          "target": "invokeinterface \u003c Application, Landroid/content/SharedPreferences$Editor, putLong(Ljava/lang/String;J)Landroid/content/SharedPreferences$Editor; \u003e@193",
          "type": "activity",
          "component": "com.nimblesoft.equalizerplayer.EqualizerPlayer"
        },
        {
          "start": "com.nimblesoft.equalizerplayer.EqualizerPlayer.onPause()V",
          "target": "invokeinterface \u003c Application, Landroid/content/SharedPreferences$Editor, putString(Ljava/lang/String;Ljava/lang/String;)Landroid/content/SharedPreferences$Editor; \u003e@193",
          "type": "activity",
          "component": "com.nimblesoft.equalizerplayer.EqualizerPlayer"
        },
        {
          "start": "com.nimblesoft.equalizerplayer.EqualizerPlayer.\u003cinit\u003e()V",
          "target": "PC@30",
          "type": "",
          "constraintsFile": "constraints34_0.py",
          "variables": {
            "SharedPreferences\u003csession_id\u003e": "IAAv8",
            "System.currentTimeMillis()": "IAAv5",
            "SharedPreferences\u003cdisable_visualizer\u003e": "IAAv1",
            "SharedPreferences\u003cend_millis\u003e": "IAAv6",
            "SharedPreferences\u003cenable_Virtualizer\u003e": "IAAv0"
          },
          "stringMap": {
            "7000": "gps_time"
          },
          "strings": {
            "IAAv8": ""
          }
        },
        {
          "start": "com.nimblesoft.equalizerplayer.EqualizerPlayer.onPause()V",
          "target": "PC@40",
          "type": "activity",
          "component": "com.nimblesoft.equalizerplayer.EqualizerPlayer"
        },
        {
          "start": "com.nimblesoft.equalizerplayer.EqualizerPlayer.onResume()V",
          "target": "invokevirtual \u003c Application, Ljava/lang/reflect/Method, invoke(Ljava/lang/Object;[Ljava/lang/Object;)Ljava/lang/Object; \u003e@213",
          "type": "activity",
          "component": "com.nimblesoft.equalizerplayer.EqualizerPlayer",
          "constraintsFile": "constraints34_1.py",
          "variables": {
            "SharedPreferences\u003csession_id\u003e": "IAAv9",
            "System.currentTimeMillis()": "IAAv6",
            "SharedPreferences\u003cdisable_visualizer\u003e": "IAAv2",
            "SharedPreferences\u003cend_millis\u003e": "IAAv7",
            "SharedPreferences\u003cenable_Virtualizer\u003e": "IAAv0"
          },
          "stringMap": {
            "7000": "gps_time"
          },
          "strings": {
            "IAAv9": ""
          }
        }
      ]
    },
    "35": {
      "startMethod": "com.nimblesoft.equalizerplayer.EqualizerPlayer.onResume()V",
      "targetMethod": "org.apache.http.client.HttpClient.execute(Lorg/apache/http/client/methods/HttpUriRequest;)Lorg/apache/http/HttpResponse;",
      "eventChain": [
        {
          "start": "com.nimblesoft.equalizerplayer.EqualizerPlayer.onPause()V",
          "target": "invokeinterface \u003c Application, Landroid/content/SharedPreferences$Editor, putLong(Ljava/lang/String;J)Landroid/content/SharedPreferences$Editor; \u003e@256",
          "type": "activity",
          "component": "com.nimblesoft.equalizerplayer.EqualizerPlayer"
        },
        {
          "start": "com.nimblesoft.equalizerplayer.EqualizerPlayer.onPause()V",
          "target": "invokeinterface \u003c Application, Landroid/content/SharedPreferences$Editor, putLong(Ljava/lang/String;J)Landroid/content/SharedPreferences$Editor; \u003e@178",
          "type": "activity",
          "component": "com.nimblesoft.equalizerplayer.EqualizerPlayer"
        },
        {
          "start": "com.nimblesoft.equalizerplayer.EqualizerPlayer.\u003cinit\u003e()V",
          "target": "PC@30",
          "type": "",
          "constraintsFile": "constraints35_0.py",
          "variables": {
            "System.currentTimeMillis()": "IAAv8",
            "SharedPreferences\u003cstart_millis\u003e": "IAAv5",
            "SharedPreferences\u003cdisable_visualizer\u003e": "IAAv1",
            "SharedPreferences\u003clast_fetch_location_time\u003e": "IAAv9",
            "\u003cSystemPrevTime\u003e": "IAAv14",
            "SharedPreferences\u003cenable_Virtualizer\u003e": "IAAv0"
          },
          "stringMap": {},
          "strings": {
            "IAAv20": ""
          }
        },
        {
          "start": "com.nimblesoft.equalizerplayer.EqualizerPlayer.onPause()V",
          "target": "PC@40",
          "type": "activity",
          "component": "com.nimblesoft.equalizerplayer.EqualizerPlayer"
        },
        {
          "start": "com.nimblesoft.equalizerplayer.EqualizerPlayer.onResume()V",
          "target": "invokeinterface \u003c Application, Lorg/apache/http/client/HttpClient, execute(Lorg/apache/http/client/methods/HttpUriRequest;)Lorg/apache/http/HttpResponse; \u003e@285",
          "type": "activity",
          "component": "com.nimblesoft.equalizerplayer.EqualizerPlayer",
          "constraintsFile": "constraints35_1.py",
          "variables": {
            "System.currentTimeMillis()": "IAAv9",
            "SharedPreferences\u003cstart_millis\u003e": "IAAv6",
            "SharedPreferences\u003cdisable_visualizer\u003e": "IAAv2",
            "SharedPreferences\u003clast_fetch_location_time\u003e": "IAAv10",
            "\u003cSystemPrevTime\u003e": "IAAv15",
            "SharedPreferences\u003cenable_Virtualizer\u003e": "IAAv0"
          },
          "stringMap": {},
          "strings": {
            "IAAv21": ""
          }
        }
      ]
    },
    "36": {
      "startMethod": "com.nimblesoft.equalizerplayer.EqualizerPlayer.onResume()V",
      "targetMethod": "java.lang.reflect.Method.invoke(Ljava/lang/Object;[Ljava/lang/Object;)Ljava/lang/Object;",
      "eventChain": [
        {
          "start": "com.nimblesoft.equalizerplayer.EqualizerPlayer.onPause()V",
          "target": "invokeinterface \u003c Application, Landroid/content/SharedPreferences$Editor, putLong(Ljava/lang/String;J)Landroid/content/SharedPreferences$Editor; \u003e@193",
          "type": "activity",
          "component": "com.nimblesoft.equalizerplayer.EqualizerPlayer"
        },
        {
          "start": "com.nimblesoft.equalizerplayer.EqualizerPlayer.onPause()V",
          "target": "invokeinterface \u003c Application, Landroid/content/SharedPreferences$Editor, putString(Ljava/lang/String;Ljava/lang/String;)Landroid/content/SharedPreferences$Editor; \u003e@193",
          "type": "activity",
          "component": "com.nimblesoft.equalizerplayer.EqualizerPlayer"
        },
        {
          "start": "com.nimblesoft.equalizerplayer.EqualizerPlayer.\u003cinit\u003e()V",
          "target": "PC@30",
          "type": "",
          "constraintsFile": "constraints36_0.py",
          "variables": {
            "SharedPreferences\u003csession_id\u003e": "IAAv8",
            "System.currentTimeMillis()": "IAAv5",
            "SharedPreferences\u003cdisable_visualizer\u003e": "IAAv1",
            "SharedPreferences\u003cend_millis\u003e": "IAAv6",
            "SharedPreferences\u003cenable_Virtualizer\u003e": "IAAv0"
          },
          "stringMap": {
            "7000": "gps_time"
          },
          "strings": {
            "IAAv8": ""
          }
        },
        {
          "start": "com.nimblesoft.equalizerplayer.EqualizerPlayer.onPause()V",
          "target": "PC@40",
          "type": "activity",
          "component": "com.nimblesoft.equalizerplayer.EqualizerPlayer"
        },
        {
          "start": "com.nimblesoft.equalizerplayer.EqualizerPlayer.onResume()V",
          "target": "invokevirtual \u003c Application, Ljava/lang/reflect/Method, invoke(Ljava/lang/Object;[Ljava/lang/Object;)Ljava/lang/Object; \u003e@272",
          "type": "activity",
          "component": "com.nimblesoft.equalizerplayer.EqualizerPlayer",
          "constraintsFile": "constraints36_1.py",
          "variables": {
            "SharedPreferences\u003csession_id\u003e": "IAAv9",
            "System.currentTimeMillis()": "IAAv6",
            "SharedPreferences\u003cdisable_visualizer\u003e": "IAAv2",
            "SharedPreferences\u003cend_millis\u003e": "IAAv7",
            "SharedPreferences\u003cenable_Virtualizer\u003e": "IAAv0"
          },
          "stringMap": {
            "7000": "gps_time"
          },
          "strings": {
            "IAAv9": ""
          }
        }
      ]
    },
    "37": {
      "startMethod": "com.nimblesoft.equalizerplayer.MediaPlaybackService.onSensorChanged(Landroid/hardware/SensorEvent;)V",
      "targetMethod": "java.lang.reflect.Method.invoke(Ljava/lang/Object;[Ljava/lang/Object;)Ljava/lang/Object;",
      "eventChain": [
        {
          "start": "com.nimblesoft.equalizerplayer.MediaPlaybackService.onCreate()V",
          "target": "invokevirtual \u003c Application, Landroid/hardware/SensorManager, registerListener(Landroid/hardware/SensorEventListener;Landroid/hardware/Sensor;I)Z \u003e@848",
          "type": "service",
          "component": "com.nimblesoft.equalizerplayer.MediaPlaybackService",
          "constraintsFile": "constraints37_0.py",
          "variables": {
            "SharedPreferences\u003cenable_shake\u003e": "IAAv2"
          },
          "stringMap": {},
          "strings": {}
        },
        {
          "start": "com.nimblesoft.equalizerplayer.MediaPlaybackService.onCreate()V",
          "target": "PC@766",
          "type": "service",
          "component": "com.nimblesoft.equalizerplayer.MediaPlaybackService",
          "constraintsFile": "constraints37_1.py",
          "variables": {
            "0.899999976158142": "IAAv1",
            "SharedPreferences\u003cshake_threshold\u003e": "IAAv17",
            "(((\u003cChainedInput1\u003e.values * \u003cChainedInput1\u003e.values) + (\u003cChainedInput1\u003e.values * \u003cChainedInput1\u003e.values)) + (\u003cChainedInput1\u003e.values * \u003cChainedInput1\u003e.values)).sqrt()": "IAAv2"
          },
          "stringMap": {},
          "strings": {}
        },
        {
          "start": "com.nimblesoft.equalizerplayer.MediaButtonIntentReceiver.onReceive(Landroid/content/Context;Landroid/content/Intent;)V",
          "target": "PC@39",
          "type": "sms",
          "constraintsFile": "constraints37_2.py",
          "variables": {
            "\u003cInput2\u003e.getAction()": "IAAv0",
            "\u003cInput1\u003e.r.a()": "IAAv4",
            "\u003cInput1\u003e.f()": "IAAv3",
            "\u003cInput1\u003e.y": "IAAv2",
            "\u003cInput1\u003e.t": "IAAv5"
          },
          "stringMap": {
            "7000": "android.media.AUDIO_BECOMING_NOISY"
          },
          "strings": {
            "IAAv0": ""
          }
        },
        {
          "start": "com.nimblesoft.equalizerplayer.MediaPlaybackService.onCreate()V",
          "target": "PC@775",
          "type": "service",
          "component": "com.nimblesoft.equalizerplayer.MediaPlaybackService",
          "constraintsFile": "constraints37_3.py",
          "variables": {
            "0.899999976158142": "IAAv1",
            "(((\u003cChainedInput1\u003e.values * \u003cChainedInput1\u003e.values) + (\u003cChainedInput1\u003e.values * \u003cChainedInput1\u003e.values)) + (\u003cChainedInput1\u003e.values * \u003cChainedInput1\u003e.values)).sqrt()": "IAAv2"
          },
          "stringMap": {},
          "strings": {}
        },
        {
          "start": "com.nimblesoft.equalizerplayer.MediaButtonIntentReceiver.onReceive(Landroid/content/Context;Landroid/content/Intent;)V",
          "target": "PC@59",
          "type": "sms",
          "constraintsFile": "constraints37_4.py",
          "variables": {
            "\u003cInput1\u003e.A": "IAAv7",
            "\u003cInput1\u003e.D.a()": "IAAv15",
            "\u003cInput1\u003e.x": "IAAv16",
            "\u003cInput1\u003e.a()": "IAAv9",
            "\u003cInput1\u003e.z.size()": "IAAv13",
            "\u003cInput1\u003e.z.get().intValue()": "IAAv14",
            "\u003cInput1\u003e.f()": "IAAv3",
            "\u003cInput1\u003e.y": "IAAv2",
            "\u003cInput1\u003e.E": "IAAv10",
            "\u003cInput1\u003e.t": "IAAv5",
            "\u003cInput1\u003e.C()": "IAAv6",
            "\u003cInput2\u003e.getAction()": "IAAv0",
            "\u003cInput1\u003e.r.a()": "IAAv4",
            "\u003cInput1\u003e.u": "IAAv11",
            "\u003cInput1\u003e.A.getCount()": "IAAv8",
            "\u003cInput1\u003e.B": "IAAv12"
          },
          "stringMap": {
            "7000": "android.media.AUDIO_BECOMING_NOISY"
          },
          "strings": {
            "IAAv0": ""
          }
        },
        {
          "start": "com.nimblesoft.equalizerplayer.MediaPlaybackService.\u003cinit\u003e()V",
          "target": "PC@248",
          "type": "",
          "constraintsFile": "constraints37_5.py",
          "variables": {
            "0.899999976158142": "IAAv1",
            "(((\u003cChainedInput1\u003e.values * \u003cChainedInput1\u003e.values) + (\u003cChainedInput1\u003e.values * \u003cChainedInput1\u003e.values)) + (\u003cChainedInput1\u003e.values * \u003cChainedInput1\u003e.values)).sqrt()": "IAAv2"
          },
          "stringMap": {},
          "strings": {}
        },
        {
          "start": "com.nimblesoft.equalizerplayer.MediaPlaybackService.\u003cinit\u003e()V",
          "target": "PC@27",
          "type": "",
          "constraintsFile": "constraints37_6.py",
          "variables": {
            "0.899999976158142": "IAAv1",
            "(((\u003cChainedInput1\u003e.values * \u003cChainedInput1\u003e.values) + (\u003cChainedInput1\u003e.values * \u003cChainedInput1\u003e.values)) + (\u003cChainedInput1\u003e.values * \u003cChainedInput1\u003e.values)).sqrt()": "IAAv2"
          },
          "stringMap": {},
          "strings": {}
        },
        {
          "start": "com.nimblesoft.equalizerplayer.MediaPlaybackService.onCreate()V",
          "target": "PC@784",
          "type": "service",
          "component": "com.nimblesoft.equalizerplayer.MediaPlaybackService",
          "constraintsFile": "constraints37_7.py",
          "variables": {
            "0.899999976158142": "IAAv1",
            "(((\u003cChainedInput1\u003e.values * \u003cChainedInput1\u003e.values) + (\u003cChainedInput1\u003e.values * \u003cChainedInput1\u003e.values)) + (\u003cChainedInput1\u003e.values * \u003cChainedInput1\u003e.values)).sqrt()": "IAAv2"
          },
          "stringMap": {},
          "strings": {}
        },
        {
          "start": "com.nimblesoft.equalizerplayer.MediaPlaybackService.onSensorChanged(Landroid/hardware/SensorEvent;)V",
          "target": "invokevirtual \u003c Application, Ljava/lang/reflect/Method, invoke(Ljava/lang/Object;[Ljava/lang/Object;)Ljava/lang/Object; \u003e@23",
          "type": "",
          "constraintsFile": "constraints37_8.py",
          "variables": {
            "0.899999976158142": "IAAv1",
            "(((\u003cChainedInput1\u003e.values * \u003cChainedInput1\u003e.values) + (\u003cChainedInput1\u003e.values * \u003cChainedInput1\u003e.values)) + (\u003cChainedInput1\u003e.values * \u003cChainedInput1\u003e.values)).sqrt()": "IAAv2"
          },
          "stringMap": {},
          "strings": {}
        }
      ]
    },
    "38": {
      "startMethod": "com.nimblesoft.equalizerplayer.bA.onClick(Landroid/view/View;)V",
      "targetMethod": "java.lang.reflect.Method.invoke(Ljava/lang/Object;[Ljava/lang/Object;)Ljava/lang/Object;",
      "eventChain": [
        {
          "start": "com.nimblesoft.equalizerplayer.WeekSelector.onCreate(Landroid/os/Bundle;)V",
          "target": "invokevirtual \u003c Application, Landroid/widget/Button, setOnClickListener(Landroid/view/View$OnClickListener;)V \u003e@179",
          "type": "activity",
          "component": "com.nimblesoft.equalizerplayer.WeekSelector",
          "constraintsFile": "constraints38_0.py",
          "variables": {
            "\u003cInput1\u003e": "IAAv0"
          },
          "stringMap": {},
          "strings": {}
        },
        {
          "start": "com.nimblesoft.equalizerplayer.bA.onClick(Landroid/view/View;)V",
          "target": "invokevirtual \u003c Application, Ljava/lang/reflect/Method, invoke(Ljava/lang/Object;[Ljava/lang/Object;)Ljava/lang/Object; \u003e@23",
          "type": "ui",
          "activities": [
            "com.nimblesoft.equalizerplayer.WeekSelector"
          ],
          "listener": "com.nimblesoft.equalizerplayer.bA",
          "listenerMethod": "onClick",
          "uiType": "onClick"
        }
      ]
    },
    "39": {
      "startMethod": "com.nimblesoft.equalizerplayer.y.onClick(Landroid/view/View;)V",
      "targetMethod": "android.content.ContentResolver.delete(Landroid/net/Uri;Ljava/lang/String;[Ljava/lang/String;)I",
      "eventChain": [
        {
          "start": "com.nimblesoft.equalizerplayer.DeleteItems.onCreate(Landroid/os/Bundle;)V",
          "target": "invokevirtual \u003c Application, Landroid/widget/Button, setOnClickListener(Landroid/view/View$OnClickListener;)V \u003e@97",
          "type": "activity",
          "component": "com.nimblesoft.equalizerplayer.DeleteItems"
        },
        {
          "start": "com.nimblesoft.equalizerplayer.y.onClick(Landroid/view/View;)V",
          "target": "invokevirtual \u003c Application, Landroid/content/ContentResolver, delete(Landroid/net/Uri;Ljava/lang/String;[Ljava/lang/String;)I \u003e@167",
          "type": "ui",
          "activities": [
            "com.nimblesoft.equalizerplayer.DeleteItems"
          ],
          "listener": "com.nimblesoft.equalizerplayer.y",
          "listenerMethod": "onClick",
          "uiType": "onClick"
        }
      ]
    },
    "40": {
      "startMethod": "com.nimblesoft.equalizerplayer.w.onClick(Landroid/view/View;)V",
      "targetMethod": "android.content.ContentResolver.delete(Landroid/net/Uri;Ljava/lang/String;[Ljava/lang/String;)I",
      "eventChain": [
        {
          "start": "com.nimblesoft.equalizerplayer.CreatePlaylist.onCreate(Landroid/os/Bundle;)V",
          "target": "invokevirtual \u003c Application, Landroid/widget/Button, setOnClickListener(Landroid/view/View$OnClickListener;)V \u003e@124",
          "type": "activity",
          "component": "com.nimblesoft.equalizerplayer.CreatePlaylist"
        },
        {
          "start": "com.nimblesoft.equalizerplayer.w.onClick(Landroid/view/View;)V",
          "target": "invokevirtual \u003c Application, Landroid/content/ContentResolver, delete(Landroid/net/Uri;Ljava/lang/String;[Ljava/lang/String;)I \u003e@28",
          "type": "ui",
          "activities": [
            "com.nimblesoft.equalizerplayer.CreatePlaylist"
          ],
          "listener": "com.nimblesoft.equalizerplayer.w",
          "listenerMethod": "onClick",
          "uiType": "onClick",
          "constraintsFile": "constraints40_0.py",
          "variables": {},
          "stringMap": {},
          "strings": {}
        }
      ]
    },
    "41": {
      "startMethod": "com.nimblesoft.equalizerplayer.aD.onReceive(Landroid/content/Context;Landroid/content/Intent;)V",
      "targetMethod": "java.lang.reflect.Method.invoke(Ljava/lang/Object;[Ljava/lang/Object;)Ljava/lang/Object;",
      "eventChain": [
        {
          "start": "com.nimblesoft.equalizerplayer.MediaPlaybackService.onCreate()V",
          "target": "invokespecial \u003c Application, Landroid/content/BroadcastReceiver, \u003cinit\u003e()V \u003e@7",
          "type": "service",
          "component": "com.nimblesoft.equalizerplayer.MediaPlaybackService",
          "constraintsFile": "constraints41_0.py",
          "variables": {},
          "stringMap": {},
          "strings": {}
        },
        {
          "start": "com.nimblesoft.equalizerplayer.aD.onReceive(Landroid/content/Context;Landroid/content/Intent;)V",
          "target": "invokevirtual \u003c Application, Ljava/lang/reflect/Method, invoke(Ljava/lang/Object;[Ljava/lang/Object;)Ljava/lang/Object; \u003e@23",
          "type": "sms",
          "constraintsFile": "constraints41_1.py",
          "variables": {
            "\u003cChainedInput2\u003e.getAction()": "IAAv0"
          },
          "stringMap": {
            "7000": "android.intent.action.MEDIA_EJECT"
          },
          "strings": {
            "IAAv0": ""
          }
        }
      ]
    },
    "42": {
      "startMethod": "com.nimblesoft.equalizerplayer.aA.onReceive(Landroid/content/Context;Landroid/content/Intent;)V",
      "targetMethod": "java.lang.reflect.Method.invoke(Ljava/lang/Object;[Ljava/lang/Object;)Ljava/lang/Object;",
      "eventChain": [
        {
          "start": "com.nimblesoft.equalizerplayer.MediaPlaybackService.onCreate()V",
          "target": "invokevirtual \u003c Application, Lcom/nimblesoft/equalizerplayer/MediaPlaybackService, registerReceiver(Landroid/content/BroadcastReceiver;Landroid/content/IntentFilter;)Landroid/content/Intent; \u003e@587",
          "type": "service",
          "component": "com.nimblesoft.equalizerplayer.MediaPlaybackService",
          "constraintsFile": "constraints42_0.py",
          "variables": {},
          "stringMap": {},
          "strings": {}
        },
        {
          "start": "com.nimblesoft.equalizerplayer.aA.onReceive(Landroid/content/Context;Landroid/content/Intent;)V",
          "target": "invokevirtual \u003c Application, Ljava/lang/reflect/Method, invoke(Ljava/lang/Object;[Ljava/lang/Object;)Ljava/lang/Object; \u003e@23",
          "type": "sms",
          "constraintsFile": "constraints42_1.py",
          "variables": {
            "\u003cChainedInput2\u003e.getAction()": "IAAv2",
            "\u003cChainedInput2\u003e.getStringExtra()": "IAAv0"
          },
          "stringMap": {
            "7000": "next",
            "7001": "com.nimblesoft.equalizerplayer.musicservicecommand.next"
          },
          "strings": {
            "IAAv2": "",
            "IAAv0": ""
          }
        }
      ]
    }
  }
}