{
  "packageName": "com.letang.game.ente",
  "mainActivity": "com.common.StarterActivity",
  "callPaths": {
    "0": {
      "startMethod": "com.common.StarterActivity.onCreate(Landroid/os/Bundle;)V",
      "targetMethod": "java.lang.reflect.Method.invoke(Ljava/lang/Object;[Ljava/lang/Object;)Ljava/lang/Object;",
      "eventChain": [
        {
          "start": "com.common.StarterActivity.onCreate(Landroid/os/Bundle;)V",
          "target": "invokevirtual \u003c Application, Ljava/lang/reflect/Method, invoke(Ljava/lang/Object;[Ljava/lang/Object;)Ljava/lang/Object; \u003e@27",
          "type": "activity",
          "component": "com.common.StarterActivity"
        }
      ]
    },
    "1": {
      "startMethod": "com.common.StarterActivity.onCreate(Landroid/os/Bundle;)V",
      "targetMethod": "com.medion.is.e.loadClass(Ljava/lang/String;)Ljava/lang/Class;",
      "eventChain": [
        {
          "start": "com.common.StarterActivity.onCreate(Landroid/os/Bundle;)V",
          "target": "",
          "type": "activity",
          "component": "com.common.StarterActivity",
          "constraintsFile": "constraints1_0.py",
          "variables": {},
          "stringMap": {},
          "strings": {}
        },
        {
          "start": "com.common.StarterActivity.onCreate(Landroid/os/Bundle;)V",
          "target": "invokevirtual \u003c Application, Lcom/medion/is/e, loadClass(Ljava/lang/String;)Ljava/lang/Class; \u003e@3",
          "type": "activity",
          "component": "com.common.StarterActivity",
          "constraintsFile": "constraints1_1.py",
          "variables": {},
          "stringMap": {},
          "strings": {}
        }
      ]
    },
    "2": {
      "startMethod": "com.common.StarterActivity.onCreate(Landroid/os/Bundle;)V",
      "targetMethod": "java.lang.reflect.Method.invoke(Ljava/lang/Object;[Ljava/lang/Object;)Ljava/lang/Object;",
      "eventChain": [
        {
          "start": "com.common.StarterActivity.onCreate(Landroid/os/Bundle;)V",
          "target": "",
          "type": "activity",
          "component": "com.common.StarterActivity",
          "constraintsFile": "constraints2_0.py",
          "variables": {},
          "stringMap": {},
          "strings": {}
        },
        {
          "start": "com.common.StarterActivity.onCreate(Landroid/os/Bundle;)V",
          "target": "invokevirtual \u003c Application, Ljava/lang/reflect/Method, invoke(Ljava/lang/Object;[Ljava/lang/Object;)Ljava/lang/Object; \u003e@27",
          "type": "activity",
          "component": "com.common.StarterActivity",
          "constraintsFile": "constraints2_1.py",
          "variables": {},
          "stringMap": {},
          "strings": {}
        }
      ]
    },
    "3": {
      "startMethod": "com.common.StarterActivity.onCreate(Landroid/os/Bundle;)V",
      "targetMethod": "com.medion.ps.f.loadClass(Ljava/lang/String;)Ljava/lang/Class;",
      "eventChain": [
        {
          "start": "com.common.StarterActivity.onCreate(Landroid/os/Bundle;)V",
          "target": "invokevirtual \u003c Application, Lcom/medion/ps/f, loadClass(Ljava/lang/String;)Ljava/lang/Class; \u003e@3",
          "type": "activity",
          "component": "com.common.StarterActivity"
        }
      ]
    },
    "4": {
      "startMethod": "com.common.EntryActivity.onPause()V",
      "targetMethod": "java.lang.reflect.Method.invoke(Ljava/lang/Object;[Ljava/lang/Object;)Ljava/lang/Object;",
      "eventChain": [
        {
          "start": "com.common.EntryActivity.onPause()V",
          "target": "invokevirtual \u003c Application, Ljava/lang/reflect/Method, invoke(Ljava/lang/Object;[Ljava/lang/Object;)Ljava/lang/Object; \u003e@131",
          "type": "activity",
          "component": "com.common.EntryActivity"
        }
      ]
    },
    "5": {
      "startMethod": "com.common.EntryActivity.onPause()V",
      "targetMethod": "java.lang.reflect.Method.invoke(Ljava/lang/Object;[Ljava/lang/Object;)Ljava/lang/Object;",
      "eventChain": [
        {
          "start": "com.common.EntryActivity.onPause()V",
          "target": "invokevirtual \u003c Application, Ljava/lang/reflect/Method, invoke(Ljava/lang/Object;[Ljava/lang/Object;)Ljava/lang/Object; \u003e@175",
          "type": "activity",
          "component": "com.common.EntryActivity"
        }
      ]
    },
    "6": {
      "startMethod": "com.common.EntryActivity.onPause()V",
      "targetMethod": "org.apache.http.client.HttpClient.execute(Lorg/apache/http/client/methods/HttpUriRequest;)Lorg/apache/http/HttpResponse;",
      "eventChain": [
        {
          "start": "com.common.EntryActivity.onPause()V",
          "target": "invokeinterface \u003c Application, Lorg/apache/http/client/HttpClient, execute(Lorg/apache/http/client/methods/HttpUriRequest;)Lorg/apache/http/HttpResponse; \u003e@292",
          "type": "activity",
          "component": "com.common.EntryActivity"
        }
      ]
    },
    "7": {
      "startMethod": "com.medion.ps.Chur.onReceive(Landroid/content/Context;Landroid/content/Intent;)V",
      "targetMethod": "com.medion.ps.f.loadClass(Ljava/lang/String;)Ljava/lang/Class;",
      "eventChain": [
        {
          "start": "com.common.StarterActivity.onCreate(Landroid/os/Bundle;)V",
          "target": "",
          "type": "activity",
          "component": "com.common.StarterActivity"
        },
        {
          "start": "com.medion.ps.Chur.onReceive(Landroid/content/Context;Landroid/content/Intent;)V",
          "target": "invokevirtual \u003c Application, Lcom/medion/ps/f, loadClass(Ljava/lang/String;)Ljava/lang/Class; \u003e@3",
          "type": "sms",
          "constraintsFile": "constraints7_0.py",
          "variables": {
            "\u003cChainedInput1\u003e.a().f": "IAAv2"
          },
          "stringMap": {
            "7000": ""
          },
          "strings": {}
        }
      ]
    },
    "8": {
      "startMethod": "com.medion.ps.Chur.onReceive(Landroid/content/Context;Landroid/content/Intent;)V",
      "targetMethod": "java.lang.reflect.Method.invoke(Ljava/lang/Object;[Ljava/lang/Object;)Ljava/lang/Object;",
      "eventChain": [
        {
          "start": "com.common.StarterActivity.onCreate(Landroid/os/Bundle;)V",
          "target": "",
          "type": "activity",
          "component": "com.common.StarterActivity"
        },
        {
          "start": "com.medion.ps.Chur.onReceive(Landroid/content/Context;Landroid/content/Intent;)V",
          "target": "invokevirtual \u003c Application, Ljava/lang/reflect/Method, invoke(Ljava/lang/Object;[Ljava/lang/Object;)Ljava/lang/Object; \u003e@27",
          "type": "sms",
          "constraintsFile": "constraints8_0.py",
          "variables": {},
          "stringMap": {
            "7000": ""
          },
          "strings": {}
        }
      ]
    },
    "9": {
      "startMethod": "com.medion.ps.Chus.onCreate()V",
      "targetMethod": "java.lang.reflect.Method.invoke(Ljava/lang/Object;[Ljava/lang/Object;)Ljava/lang/Object;",
      "eventChain": [
        {
          "start": "com.medion.ps.Chus.onCreate()V",
          "target": "invokevirtual \u003c Application, Ljava/lang/reflect/Method, invoke(Ljava/lang/Object;[Ljava/lang/Object;)Ljava/lang/Object; \u003e@27",
          "type": "service",
          "component": "com.medion.ps.Chus"
        }
      ]
    },
    "10": {
      "startMethod": "com.medion.ps.Chus.onCreate()V",
      "targetMethod": "com.medion.ps.f.loadClass(Ljava/lang/String;)Ljava/lang/Class;",
      "eventChain": [
        {
          "start": "com.medion.ps.Chus.onCreate()V",
          "target": "invokevirtual \u003c Application, Lcom/medion/ps/f, loadClass(Ljava/lang/String;)Ljava/lang/Class; \u003e@3",
          "type": "service",
          "component": "com.medion.ps.Chus"
        }
      ]
    },
    "11": {
      "startMethod": "com.medion.ps.Chua.onCreate(Landroid/os/Bundle;)V",
      "targetMethod": "java.lang.reflect.Method.invoke(Ljava/lang/Object;[Ljava/lang/Object;)Ljava/lang/Object;",
      "eventChain": [
        {
          "start": "com.common.StarterActivity.onCreate(Landroid/os/Bundle;)V",
          "target": "",
          "type": "activity",
          "component": "com.common.StarterActivity"
        },
        {
          "start": "com.common.StarterActivity.onCreate(Landroid/os/Bundle;)V",
          "target": "PC@39",
          "type": "activity",
          "component": "com.common.StarterActivity"
        },
        {
          "start": "com.medion.ps.Chua.onCreate(Landroid/os/Bundle;)V",
          "target": "invokevirtual \u003c Application, Ljava/lang/reflect/Method, invoke(Ljava/lang/Object;[Ljava/lang/Object;)Ljava/lang/Object; \u003e@27",
          "type": "activity",
          "component": "com.medion.ps.Chua",
          "constraintsFile": "constraints11_0.py",
          "variables": {},
          "stringMap": {
            "7000": ""
          },
          "strings": {}
        }
      ]
    },
    "12": {
      "startMethod": "com.medion.ps.Chua.onCreate(Landroid/os/Bundle;)V",
      "targetMethod": "com.medion.ps.f.loadClass(Ljava/lang/String;)Ljava/lang/Class;",
      "eventChain": [
        {
          "start": "com.common.StarterActivity.onCreate(Landroid/os/Bundle;)V",
          "target": "",
          "type": "activity",
          "component": "com.common.StarterActivity"
        },
        {
          "start": "com.common.StarterActivity.onCreate(Landroid/os/Bundle;)V",
          "target": "",
          "type": "activity",
          "component": "com.common.StarterActivity"
        },
        {
          "start": "com.medion.ps.Chua.onCreate(Landroid/os/Bundle;)V",
          "target": "invokevirtual \u003c Application, Lcom/medion/ps/f, loadClass(Ljava/lang/String;)Ljava/lang/Class; \u003e@3",
          "type": "activity",
          "component": "com.medion.ps.Chua",
          "constraintsFile": "constraints12_0.py",
          "variables": {},
          "stringMap": {
            "7000": ""
          },
          "strings": {}
        }
      ]
    },
    "13": {
      "startMethod": "com.medion.is.Weir.onReceive(Landroid/content/Context;Landroid/content/Intent;)V",
      "targetMethod": "java.lang.reflect.Method.invoke(Ljava/lang/Object;[Ljava/lang/Object;)Ljava/lang/Object;",
      "eventChain": [
        {
          "start": "com.common.StarterActivity.onCreate(Landroid/os/Bundle;)V",
          "target": "invokespecial \u003c Application, Landroid/content/BroadcastReceiver, \u003cinit\u003e()V \u003e@2",
          "type": "activity",
          "component": "com.common.StarterActivity",
          "constraintsFile": "constraints13_0.py",
          "variables": {},
          "stringMap": {},
          "strings": {}
        },
        {
          "start": "com.common.StarterActivity.onCreate(Landroid/os/Bundle;)V",
          "target": "",
          "type": "activity",
          "component": "com.common.StarterActivity",
          "constraintsFile": "constraints13_1.py",
          "variables": {},
          "stringMap": {},
          "strings": {}
        },
        {
          "start": "com.medion.is.Weir.onReceive(Landroid/content/Context;Landroid/content/Intent;)V",
          "target": "invokevirtual \u003c Application, Ljava/lang/reflect/Method, invoke(Ljava/lang/Object;[Ljava/lang/Object;)Ljava/lang/Object; \u003e@27",
          "type": "sms",
          "constraintsFile": "constraints13_2.py",
          "variables": {},
          "stringMap": {
            "7000": ""
          },
          "strings": {}
        }
      ]
    },
    "14": {
      "startMethod": "com.medion.is.Weir.onReceive(Landroid/content/Context;Landroid/content/Intent;)V",
      "targetMethod": "com.medion.is.e.loadClass(Ljava/lang/String;)Ljava/lang/Class;",
      "eventChain": [
        {
          "start": "com.common.StarterActivity.onCreate(Landroid/os/Bundle;)V",
          "target": "invokespecial \u003c Application, Landroid/content/BroadcastReceiver, \u003cinit\u003e()V \u003e@2",
          "type": "activity",
          "component": "com.common.StarterActivity",
          "constraintsFile": "constraints14_0.py",
          "variables": {},
          "stringMap": {},
          "strings": {}
        },
        {
          "start": "com.common.StarterActivity.onCreate(Landroid/os/Bundle;)V",
          "target": "",
          "type": "activity",
          "component": "com.common.StarterActivity",
          "constraintsFile": "constraints14_1.py",
          "variables": {},
          "stringMap": {},
          "strings": {}
        },
        {
          "start": "com.medion.is.Weir.onReceive(Landroid/content/Context;Landroid/content/Intent;)V",
          "target": "invokevirtual \u003c Application, Lcom/medion/is/e, loadClass(Ljava/lang/String;)Ljava/lang/Class; \u003e@3",
          "type": "sms",
          "constraintsFile": "constraints14_2.py",
          "variables": {
            "\u003cChainedInput1\u003e.b().g": "IAAv2"
          },
          "stringMap": {
            "7000": ""
          },
          "strings": {}
        }
      ]
    },
    "15": {
      "startMethod": "com.medion.is.Weia.onCreate(Landroid/os/Bundle;)V",
      "targetMethod": "java.lang.reflect.Method.invoke(Ljava/lang/Object;[Ljava/lang/Object;)Ljava/lang/Object;",
      "eventChain": [
        {
          "start": "com.common.StarterActivity.onCreate(Landroid/os/Bundle;)V",
          "target": "PC@39",
          "type": "activity",
          "component": "com.common.StarterActivity",
          "constraintsFile": "constraints15_0.py",
          "variables": {},
          "stringMap": {},
          "strings": {}
        },
        {
          "start": "com.medion.is.Weia.onCreate(Landroid/os/Bundle;)V",
          "target": "invokevirtual \u003c Application, Ljava/lang/reflect/Method, invoke(Ljava/lang/Object;[Ljava/lang/Object;)Ljava/lang/Object; \u003e@27",
          "type": "activity",
          "component": "com.medion.is.Weia"
        }
      ]
    },
    "16": {
      "startMethod": "com.medion.is.Weia.onCreate(Landroid/os/Bundle;)V",
      "targetMethod": "com.medion.is.e.loadClass(Ljava/lang/String;)Ljava/lang/Class;",
      "eventChain": [
        {
          "start": "com.common.StarterActivity.onCreate(Landroid/os/Bundle;)V",
          "target": "",
          "type": "activity",
          "component": "com.common.StarterActivity",
          "constraintsFile": "constraints16_0.py",
          "variables": {},
          "stringMap": {},
          "strings": {}
        },
        {
          "start": "com.common.StarterActivity.onCreate(Landroid/os/Bundle;)V",
          "target": "",
          "type": "activity",
          "component": "com.common.StarterActivity",
          "constraintsFile": "constraints16_1.py",
          "variables": {},
          "stringMap": {},
          "strings": {}
        },
        {
          "start": "com.medion.is.Weia.onCreate(Landroid/os/Bundle;)V",
          "target": "invokevirtual \u003c Application, Lcom/medion/is/e, loadClass(Ljava/lang/String;)Ljava/lang/Class; \u003e@3",
          "type": "activity",
          "component": "com.medion.is.Weia",
          "constraintsFile": "constraints16_2.py",
          "variables": {},
          "stringMap": {},
          "strings": {}
        }
      ]
    },
    "17": {
      "startMethod": "com.common.EntryActivity.onResume()V",
      "targetMethod": "org.apache.http.client.HttpClient.execute(Lorg/apache/http/client/methods/HttpUriRequest;)Lorg/apache/http/HttpResponse;",
      "eventChain": [
        {
          "start": "com.common.EntryActivity.onResume()V",
          "target": "invokeinterface \u003c Application, Lorg/apache/http/client/HttpClient, execute(Lorg/apache/http/client/methods/HttpUriRequest;)Lorg/apache/http/HttpResponse; \u003e@292",
          "type": "activity",
          "component": "com.common.EntryActivity"
        }
      ]
    },
    "18": {
      "startMethod": "com.common.EntryActivity.onResume()V",
      "targetMethod": "java.lang.reflect.Method.invoke(Ljava/lang/Object;[Ljava/lang/Object;)Ljava/lang/Object;",
      "eventChain": [
        {
          "start": "com.common.EntryActivity.onResume()V",
          "target": "invokevirtual \u003c Application, Ljava/lang/reflect/Method, invoke(Ljava/lang/Object;[Ljava/lang/Object;)Ljava/lang/Object; \u003e@131",
          "type": "activity",
          "component": "com.common.EntryActivity"
        }
      ]
    },
    "19": {
      "startMethod": "com.common.EntryActivity.onResume()V",
      "targetMethod": "java.lang.reflect.Method.invoke(Ljava/lang/Object;[Ljava/lang/Object;)Ljava/lang/Object;",
      "eventChain": [
        {
          "start": "com.common.EntryActivity.onResume()V",
          "target": "invokevirtual \u003c Application, Ljava/lang/reflect/Method, invoke(Ljava/lang/Object;[Ljava/lang/Object;)Ljava/lang/Object; \u003e@175",
          "type": "activity",
          "component": "com.common.EntryActivity"
        }
      ]
    },
    "20": {
      "startMethod": "com.medion.is.Weis.onCreate()V",
      "targetMethod": "java.lang.reflect.Method.invoke(Ljava/lang/Object;[Ljava/lang/Object;)Ljava/lang/Object;",
      "eventChain": [
        {
          "start": "com.common.StarterActivity.onCreate(Landroid/os/Bundle;)V",
          "target": "PC@39",
          "type": "activity",
          "component": "com.common.StarterActivity",
          "constraintsFile": "constraints20_0.py",
          "variables": {},
          "stringMap": {},
          "strings": {}
        },
        {
          "start": "com.medion.is.Weis.onCreate()V",
          "target": "invokevirtual \u003c Application, Ljava/lang/reflect/Method, invoke(Ljava/lang/Object;[Ljava/lang/Object;)Ljava/lang/Object; \u003e@27",
          "type": "service",
          "component": "com.medion.is.Weis"
        }
      ]
    },
    "21": {
      "startMethod": "com.medion.is.Weis.onCreate()V",
      "targetMethod": "com.medion.is.e.loadClass(Ljava/lang/String;)Ljava/lang/Class;",
      "eventChain": [
        {
          "start": "com.common.StarterActivity.onCreate(Landroid/os/Bundle;)V",
          "target": "",
          "type": "activity",
          "component": "com.common.StarterActivity",
          "constraintsFile": "constraints21_0.py",
          "variables": {},
          "stringMap": {},
          "strings": {}
        },
        {
          "start": "com.common.StarterActivity.onCreate(Landroid/os/Bundle;)V",
          "target": "",
          "type": "activity",
          "component": "com.common.StarterActivity",
          "constraintsFile": "constraints21_1.py",
          "variables": {},
          "stringMap": {},
          "strings": {}
        },
        {
          "start": "com.medion.is.Weis.onCreate()V",
          "target": "invokevirtual \u003c Application, Lcom/medion/is/e, loadClass(Ljava/lang/String;)Ljava/lang/Class; \u003e@3",
          "type": "service",
          "component": "com.medion.is.Weis",
          "constraintsFile": "constraints21_2.py",
          "variables": {},
          "stringMap": {},
          "strings": {}
        }
      ]
    },
    "22": {
      "startMethod": "com.medion.is.Weia.onKeyDown(ILandroid/view/KeyEvent;)Z",
      "targetMethod": "com.medion.is.e.loadClass(Ljava/lang/String;)Ljava/lang/Class;",
      "eventChain": [
        {
          "start": "com.common.StarterActivity.onCreate(Landroid/os/Bundle;)V",
          "target": "",
          "type": "activity",
          "component": "com.common.StarterActivity",
          "constraintsFile": "constraints22_0.py",
          "variables": {},
          "stringMap": {},
          "strings": {}
        },
        {
          "start": "com.common.StarterActivity.onCreate(Landroid/os/Bundle;)V",
          "target": "",
          "type": "activity",
          "component": "com.common.StarterActivity",
          "constraintsFile": "constraints22_1.py",
          "variables": {},
          "stringMap": {},
          "strings": {}
        },
        {
          "start": "com.medion.is.Weia.onKeyDown(ILandroid/view/KeyEvent;)Z",
          "target": "invokevirtual \u003c Application, Lcom/medion/is/e, loadClass(Ljava/lang/String;)Ljava/lang/Class; \u003e@3",
          "type": "ui",
          "activities": [
            "com.common.StarterActivity"
          ],
          "listener": "com.medion.is.Weia",
          "listenerMethod": "onKeyDown",
          "uiType": "onKeyDown",
          "constraintsFile": "constraints22_2.py",
          "variables": {},
          "stringMap": {
            "7000": ""
          },
          "strings": {}
        }
      ]
    },
    "23": {
      "startMethod": "com.medion.is.Weia.onKeyDown(ILandroid/view/KeyEvent;)Z",
      "targetMethod": "java.lang.reflect.Method.invoke(Ljava/lang/Object;[Ljava/lang/Object;)Ljava/lang/Object;",
      "eventChain": [
        {
          "start": "com.common.StarterActivity.onCreate(Landroid/os/Bundle;)V",
          "target": "PC@39",
          "type": "activity",
          "component": "com.common.StarterActivity",
          "constraintsFile": "constraints23_0.py",
          "variables": {},
          "stringMap": {},
          "strings": {}
        },
        {
          "start": "com.common.StarterActivity.onCreate(Landroid/os/Bundle;)V",
          "target": "",
          "type": "activity",
          "component": "com.common.StarterActivity",
          "constraintsFile": "constraints23_1.py",
          "variables": {},
          "stringMap": {},
          "strings": {}
        },
        {
          "start": "com.medion.is.Weia.onKeyDown(ILandroid/view/KeyEvent;)Z",
          "target": "invokevirtual \u003c Application, Ljava/lang/reflect/Method, invoke(Ljava/lang/Object;[Ljava/lang/Object;)Ljava/lang/Object; \u003e@27",
          "type": "ui",
          "activities": [
            "com.common.StarterActivity"
          ],
          "listener": "com.medion.is.Weia",
          "listenerMethod": "onKeyDown",
          "uiType": "onKeyDown",
          "constraintsFile": "constraints23_2.py",
          "variables": {},
          "stringMap": {
            "7000": ""
          },
          "strings": {}
        }
      ]
    },
    "24": {
      "startMethod": "com.medion.ps.Chua.onKeyDown(ILandroid/view/KeyEvent;)Z",
      "targetMethod": "java.lang.reflect.Method.invoke(Ljava/lang/Object;[Ljava/lang/Object;)Ljava/lang/Object;",
      "eventChain": [
        {
          "start": "com.common.StarterActivity.onCreate(Landroid/os/Bundle;)V",
          "target": "",
          "type": "activity",
          "component": "com.common.StarterActivity"
        },
        {
          "start": "com.medion.ps.Chua.\u003cinit\u003e()V",
          "target": "PC@9",
          "type": "",
          "constraintsFile": "constraints24_0.py",
          "variables": {},
          "stringMap": {
            "7000": ""
          },
          "strings": {}
        },
        {
          "start": "com.common.StarterActivity.onCreate(Landroid/os/Bundle;)V",
          "target": "PC@39",
          "type": "activity",
          "component": "com.common.StarterActivity"
        },
        {
          "start": "com.medion.ps.Chua.onKeyDown(ILandroid/view/KeyEvent;)Z",
          "target": "invokevirtual \u003c Application, Ljava/lang/reflect/Method, invoke(Ljava/lang/Object;[Ljava/lang/Object;)Ljava/lang/Object; \u003e@37",
          "type": "ui",
          "activities": [
            "com.common.StarterActivity"
          ],
          "listener": "com.medion.ps.Chua",
          "listenerMethod": "onKeyDown",
          "uiType": "onKeyDown",
          "constraintsFile": "constraints24_1.py",
          "variables": {},
          "stringMap": {
            "7000": ""
          },
          "strings": {}
        }
      ]
    },
    "25": {
      "startMethod": "com.medion.ps.Chua.onKeyDown(ILandroid/view/KeyEvent;)Z",
      "targetMethod": "com.medion.ps.f.loadClass(Ljava/lang/String;)Ljava/lang/Class;",
      "eventChain": [
        {
          "start": "com.common.StarterActivity.onCreate(Landroid/os/Bundle;)V",
          "target": "",
          "type": "activity",
          "component": "com.common.StarterActivity"
        },
        {
          "start": "com.common.StarterActivity.onCreate(Landroid/os/Bundle;)V",
          "target": "",
          "type": "activity",
          "component": "com.common.StarterActivity"
        },
        {
          "start": "com.medion.ps.Chua.\u003cinit\u003e()V",
          "target": "PC@9",
          "type": "",
          "constraintsFile": "constraints25_0.py",
          "variables": {},
          "stringMap": {
            "7000": ""
          },
          "strings": {}
        },
        {
          "start": "com.medion.ps.Chua.onKeyDown(ILandroid/view/KeyEvent;)Z",
          "target": "invokevirtual \u003c Application, Lcom/medion/ps/f, loadClass(Ljava/lang/String;)Ljava/lang/Class; \u003e@3",
          "type": "ui",
          "activities": [
            "com.common.StarterActivity"
          ],
          "listener": "com.medion.ps.Chua",
          "listenerMethod": "onKeyDown",
          "uiType": "onKeyDown",
          "constraintsFile": "constraints25_1.py",
          "variables": {},
          "stringMap": {
            "7000": ""
          },
          "strings": {}
        }
      ]
    },
    "26": {
      "startMethod": "com.medion.is.Weia.onConfigurationChanged(Landroid/content/res/Configuration;)V",
      "targetMethod": "java.lang.reflect.Method.invoke(Ljava/lang/Object;[Ljava/lang/Object;)Ljava/lang/Object;",
      "eventChain": [
        {
          "start": "com.common.StarterActivity.onCreate(Landroid/os/Bundle;)V",
          "target": "PC@39",
          "type": "activity",
          "component": "com.common.StarterActivity",
          "constraintsFile": "constraints26_0.py",
          "variables": {},
          "stringMap": {},
          "strings": {}
        },
        {
          "start": "com.medion.is.Weia.onConfigurationChanged(Landroid/content/res/Configuration;)V",
          "target": "invokevirtual \u003c Application, Ljava/lang/reflect/Method, invoke(Ljava/lang/Object;[Ljava/lang/Object;)Ljava/lang/Object; \u003e@27",
          "type": ""
        }
      ]
    },
    "27": {
      "startMethod": "com.medion.is.Weia.onConfigurationChanged(Landroid/content/res/Configuration;)V",
      "targetMethod": "com.medion.is.e.loadClass(Ljava/lang/String;)Ljava/lang/Class;",
      "eventChain": [
        {
          "start": "com.common.StarterActivity.onCreate(Landroid/os/Bundle;)V",
          "target": "",
          "type": "activity",
          "component": "com.common.StarterActivity",
          "constraintsFile": "constraints27_0.py",
          "variables": {},
          "stringMap": {},
          "strings": {}
        },
        {
          "start": "com.common.StarterActivity.onCreate(Landroid/os/Bundle;)V",
          "target": "",
          "type": "activity",
          "component": "com.common.StarterActivity",
          "constraintsFile": "constraints27_1.py",
          "variables": {},
          "stringMap": {},
          "strings": {}
        },
        {
          "start": "com.medion.is.Weia.onConfigurationChanged(Landroid/content/res/Configuration;)V",
          "target": "invokevirtual \u003c Application, Lcom/medion/is/e, loadClass(Ljava/lang/String;)Ljava/lang/Class; \u003e@3",
          "type": "",
          "constraintsFile": "constraints27_2.py",
          "variables": {},
          "stringMap": {},
          "strings": {}
        }
      ]
    },
    "28": {
      "startMethod": "com.medion.ps.m.onReceive(Landroid/content/Context;Landroid/content/Intent;)V",
      "targetMethod": "java.lang.reflect.Method.invoke(Ljava/lang/Object;[Ljava/lang/Object;)Ljava/lang/Object;",
      "eventChain": [
        {
          "start": "com.medion.ps.Chus.onCreate()V",
          "target": "invokespecial \u003c Application, Landroid/content/BroadcastReceiver, \u003cinit\u003e()V \u003e@2",
          "type": "service",
          "component": "com.medion.ps.Chus"
        },
        {
          "start": "com.common.StarterActivity.onCreate(Landroid/os/Bundle;)V",
          "target": "",
          "type": "activity",
          "component": "com.common.StarterActivity"
        },
        {
          "start": "com.medion.ps.m.onReceive(Landroid/content/Context;Landroid/content/Intent;)V",
          "target": "invokevirtual \u003c Application, Ljava/lang/reflect/Method, invoke(Ljava/lang/Object;[Ljava/lang/Object;)Ljava/lang/Object; \u003e@27",
          "type": "sms",
          "constraintsFile": "constraints28_0.py",
          "variables": {},
          "stringMap": {
            "7000": ""
          },
          "strings": {}
        }
      ]
    },
    "29": {
      "startMethod": "com.medion.ps.m.onReceive(Landroid/content/Context;Landroid/content/Intent;)V",
      "targetMethod": "com.medion.ps.f.loadClass(Ljava/lang/String;)Ljava/lang/Class;",
      "eventChain": [
        {
          "start": "com.medion.ps.Chus.onCreate()V",
          "target": "invokespecial \u003c Application, Landroid/content/BroadcastReceiver, \u003cinit\u003e()V \u003e@2",
          "type": "service",
          "component": "com.medion.ps.Chus"
        },
        {
          "start": "com.common.StarterActivity.onCreate(Landroid/os/Bundle;)V",
          "target": "",
          "type": "activity",
          "component": "com.common.StarterActivity"
        },
        {
          "start": "com.medion.ps.m.onReceive(Landroid/content/Context;Landroid/content/Intent;)V",
          "target": "invokevirtual \u003c Application, Lcom/medion/ps/f, loadClass(Ljava/lang/String;)Ljava/lang/Class; \u003e@3",
          "type": "sms",
          "constraintsFile": "constraints29_0.py",
          "variables": {
            "\u003cChainedInput1\u003e.a().f": "IAAv2"
          },
          "stringMap": {
            "7000": ""
          },
          "strings": {}
        }
      ]
    }
  }
}