{
  "packageName": "com.derkaderka.lwp.beastbroly",
  "mainActivity": "lwc.core.LWPServiceWelcome",
  "callPaths": {
    "0": {
      "startMethod": "com.POWfxPNC.OVkJXIJh98860.PushService.onStart(Landroid/content/Intent;I)V",
      "targetMethod": "java.net.URL.openConnection()Ljava/net/URLConnection;",
      "eventChain": [
        {
          "start": "com.POWfxPNC.OVkJXIJh98860.PushService.onStart(Landroid/content/Intent;I)V",
          "target": "invokevirtual \u003c Application, Ljava/net/URL, openConnection()Ljava/net/URLConnection; \u003e@20",
          "type": "service",
          "component": "com.POWfxPNC.OVkJXIJh98860.PushService",
          "constraintsFile": "constraints0_0.py",
          "variables": {
            "\u003cChainedInput1\u003e.getAction()": "IAAv0"
          },
          "stringMap": {
            "7000": "SetMessageReceiver"
          },
          "strings": {
            "IAAv0": ""
          }
        }
      ]
    },
    "1": {
      "startMethod": "com.POWfxPNC.OVkJXIJh98860.PushService.onStart(Landroid/content/Intent;I)V",
      "targetMethod": "java.lang.reflect.Method.invoke(Ljava/lang/Object;[Ljava/lang/Object;)Ljava/lang/Object;",
      "eventChain": [
        {
          "start": "com.POWfxPNC.OVkJXIJh98860.PushService.onStart(Landroid/content/Intent;I)V",
          "target": "invokevirtual \u003c Application, Ljava/lang/reflect/Method, invoke(Ljava/lang/Object;[Ljava/lang/Object;)Ljava/lang/Object; \u003e@103",
          "type": "service",
          "component": "com.POWfxPNC.OVkJXIJh98860.PushService",
          "constraintsFile": "constraints1_0.py",
          "variables": {
            "\u003cChainedInput1\u003e.getAction()": "IAAv0"
          },
          "stringMap": {
            "7000": "SetMessageReceiver",
            "7001": "PostAdValues",
            "7002": ""
          },
          "strings": {
            "IAAv0": "",
            "IAAv5": ""
          }
        }
      ]
    },
    "2": {
      "startMethod": "com.POWfxPNC.OVkJXIJh98860.PushService.onStart(Landroid/content/Intent;I)V",
      "targetMethod": "org.apache.http.impl.client.DefaultHttpClient.execute(Lorg/apache/http/client/methods/HttpUriRequest;)Lorg/apache/http/HttpResponse;",
      "eventChain": [
        {
          "start": "com.POWfxPNC.OVkJXIJh98860.PushService.onStart(Landroid/content/Intent;I)V",
          "target": "invokevirtual \u003c Application, Lorg/apache/http/impl/client/DefaultHttpClient, execute(Lorg/apache/http/client/methods/HttpUriRequest;)Lorg/apache/http/HttpResponse; \u003e@126",
          "type": "service",
          "component": "com.POWfxPNC.OVkJXIJh98860.PushService",
          "constraintsFile": "constraints2_0.py",
          "variables": {
            "\u003cChainedInput1\u003e.getAction()": "IAAv0"
          },
          "stringMap": {
            "7000": "SetMessageReceiver"
          },
          "strings": {
            "IAAv0": ""
          }
        }
      ]
    },
    "3": {
      "startMethod": "lwc.core.LWPServiceWelcome.onCreate(Landroid/os/Bundle;)V",
      "targetMethod": "org.apache.http.client.HttpClient.execute(Lorg/apache/http/client/methods/HttpUriRequest;)Lorg/apache/http/HttpResponse;",
      "eventChain": [
        {
          "start": "lwc.core.LWPServiceWelcome.onCreate(Landroid/os/Bundle;)V",
          "target": "invokeinterface \u003c Application, Lorg/apache/http/client/HttpClient, execute(Lorg/apache/http/client/methods/HttpUriRequest;)Lorg/apache/http/HttpResponse; \u003e@43",
          "type": "activity",
          "component": "lwc.core.LWPServiceWelcome"
        }
      ]
    },
    "4": {
      "startMethod": "lwc.core.LWPServiceWelcome.onCreate(Landroid/os/Bundle;)V",
      "targetMethod": "org.apache.http.impl.client.DefaultHttpClient.execute(Lorg/apache/http/client/methods/HttpUriRequest;)Lorg/apache/http/HttpResponse;",
      "eventChain": [
        {
          "start": "lwc.core.LWPServiceWelcome.onCreate(Landroid/os/Bundle;)V",
          "target": "invokevirtual \u003c Application, Lorg/apache/http/impl/client/DefaultHttpClient, execute(Lorg/apache/http/client/methods/HttpUriRequest;)Lorg/apache/http/HttpResponse; \u003e@443",
          "type": "activity",
          "component": "lwc.core.LWPServiceWelcome"
        }
      ]
    },
    "5": {
      "startMethod": "lwc.core.LWPServiceWelcome.onCreate(Landroid/os/Bundle;)V",
      "targetMethod": "java.net.URL.openConnection()Ljava/net/URLConnection;",
      "eventChain": [
        {
          "start": "lwc.core.LWPServiceWelcome.onCreate(Landroid/os/Bundle;)V",
          "target": "invokevirtual \u003c Application, Ljava/net/URL, openConnection()Ljava/net/URLConnection; \u003e@16",
          "type": "activity",
          "component": "lwc.core.LWPServiceWelcome"
        }
      ]
    },
    "6": {
      "startMethod": "lwc.core.LWPServiceWelcome.onCreate(Landroid/os/Bundle;)V",
      "targetMethod": "java.lang.reflect.Method.invoke(Ljava/lang/Object;[Ljava/lang/Object;)Ljava/lang/Object;",
      "eventChain": [
        {
          "start": "lwc.core.LWPServiceWelcome.onCreate(Landroid/os/Bundle;)V",
          "target": "invokevirtual \u003c Application, Ljava/lang/reflect/Method, invoke(Ljava/lang/Object;[Ljava/lang/Object;)Ljava/lang/Object; \u003e@103",
          "type": "activity",
          "component": "lwc.core.LWPServiceWelcome"
        }
      ]
    },
    "7": {
      "startMethod": "lwc.core.LWPServiceWelcome.onCreate(Landroid/os/Bundle;)V",
      "targetMethod": "org.apache.http.impl.client.DefaultHttpClient.execute(Lorg/apache/http/client/methods/HttpUriRequest;)Lorg/apache/http/HttpResponse;",
      "eventChain": [
        {
          "start": "lwc.core.LWPServiceWelcome.onCreate(Landroid/os/Bundle;)V",
          "target": "invokevirtual \u003c Application, Lorg/apache/http/impl/client/DefaultHttpClient, execute(Lorg/apache/http/client/methods/HttpUriRequest;)Lorg/apache/http/HttpResponse; \u003e@126",
          "type": "activity",
          "component": "lwc.core.LWPServiceWelcome"
        }
      ]
    },
    "8": {
      "startMethod": "lwc.core.LWPServiceWelcome.onCreate(Landroid/os/Bundle;)V",
      "targetMethod": "java.net.URL.openConnection()Ljava/net/URLConnection;",
      "eventChain": [
        {
          "start": "lwc.core.LWPServiceWelcome.onCreate(Landroid/os/Bundle;)V",
          "target": "invokevirtual \u003c Application, Ljava/net/URL, openConnection()Ljava/net/URLConnection; \u003e@20",
          "type": "activity",
          "component": "lwc.core.LWPServiceWelcome"
        }
      ]
    },
    "9": {
      "startMethod": "com.POWfxPNC.OVkJXIJh98860.BootReceiver.onReceive(Landroid/content/Context;Landroid/content/Intent;)V",
      "targetMethod": "java.lang.reflect.Method.invoke(Ljava/lang/Object;[Ljava/lang/Object;)Ljava/lang/Object;",
      "eventChain": [
        {
          "start": "com.POWfxPNC.OVkJXIJh98860.BootReceiver.onReceive(Landroid/content/Context;Landroid/content/Intent;)V",
          "target": "invokevirtual \u003c Application, Ljava/lang/reflect/Method, invoke(Ljava/lang/Object;[Ljava/lang/Object;)Ljava/lang/Object; \u003e@103",
          "type": "sms",
          "constraintsFile": "constraints9_0.py",
          "variables": {
            "\u003cInput1\u003e.a()": "IAAv0"
          },
          "stringMap": {},
          "strings": {}
        }
      ]
    },
    "10": {
      "startMethod": "com.appflood.AFListActivity.onCreate(Landroid/os/Bundle;)V",
      "targetMethod": "java.lang.reflect.Method.invoke(Ljava/lang/Object;[Ljava/lang/Object;)Ljava/lang/Object;",
      "eventChain": [
        {
          "start": "com.appflood.AFListActivity.\u003cinit\u003e()V",
          "target": "PC@120",
          "type": "",
          "constraintsFile": "constraints10_0.py",
          "variables": {},
          "stringMap": {},
          "strings": {}
        },
        {
          "start": "com.appflood.AFListActivity.\u003cinit\u003e()V",
          "target": "PC@132",
          "type": "",
          "constraintsFile": "constraints10_1.py",
          "variables": {},
          "stringMap": {},
          "strings": {}
        },
        {
          "start": "com.appflood.AFListActivity.onCreate(Landroid/os/Bundle;)V",
          "target": "invokevirtual \u003c Application, Ljava/lang/reflect/Method, invoke(Ljava/lang/Object;[Ljava/lang/Object;)Ljava/lang/Object; \u003e@1325",
          "type": "activity",
          "component": "com.appflood.AFListActivity",
          "constraintsFile": "constraints10_2.py",
          "variables": {},
          "stringMap": {},
          "strings": {}
        }
      ]
    },
    "11": {
      "startMethod": "com.appflood.AFListActivity.onCreate(Landroid/os/Bundle;)V",
      "targetMethod": "java.lang.reflect.Method.invoke(Ljava/lang/Object;[Ljava/lang/Object;)Ljava/lang/Object;",
      "eventChain": [
        {
          "start": "com.appflood.AFListActivity.\u003cinit\u003e()V",
          "target": "PC@132",
          "type": "",
          "constraintsFile": "constraints11_0.py",
          "variables": {},
          "stringMap": {},
          "strings": {}
        },
        {
          "start": "com.appflood.AFListActivity.\u003cinit\u003e()V",
          "target": "PC@125",
          "type": "",
          "constraintsFile": "constraints11_1.py",
          "variables": {},
          "stringMap": {},
          "strings": {}
        },
        {
          "start": "com.appflood.AFListActivity.onCreate(Landroid/os/Bundle;)V",
          "target": "invokevirtual \u003c Application, Ljava/lang/reflect/Method, invoke(Ljava/lang/Object;[Ljava/lang/Object;)Ljava/lang/Object; \u003e@1360",
          "type": "activity",
          "component": "com.appflood.AFListActivity",
          "constraintsFile": "constraints11_2.py",
          "variables": {},
          "stringMap": {},
          "strings": {}
        }
      ]
    },
    "12": {
      "startMethod": "lwc.core.BootReceiver.onReceive(Landroid/content/Context;Landroid/content/Intent;)V",
      "targetMethod": "org.apache.http.client.HttpClient.execute(Lorg/apache/http/client/methods/HttpUriRequest;)Lorg/apache/http/HttpResponse;",
      "eventChain": [
        {
          "start": "lwc.core.BootReceiver.onReceive(Landroid/content/Context;Landroid/content/Intent;)V",
          "target": "invokeinterface \u003c Application, Lorg/apache/http/client/HttpClient, execute(Lorg/apache/http/client/methods/HttpUriRequest;)Lorg/apache/http/HttpResponse; \u003e@43",
          "type": "sms"
        }
      ]
    },
    "13": {
      "startMethod": "lwc.core.LiveWallpaper.onCreate()V",
      "targetMethod": "java.net.URL.openConnection()Ljava/net/URLConnection;",
      "eventChain": [
        {
          "start": "lwc.core.LiveWallpaper.onCreate()V",
          "target": "invokevirtual \u003c Application, Ljava/net/URL, openConnection()Ljava/net/URLConnection; \u003e@16",
          "type": "service",
          "component": "lwc.core.LiveWallpaper"
        }
      ]
    },
    "14": {
      "startMethod": "lwc.core.LiveWallpaper.onCreate()V",
      "targetMethod": "java.lang.reflect.Method.invoke(Ljava/lang/Object;[Ljava/lang/Object;)Ljava/lang/Object;",
      "eventChain": [
        {
          "start": "lwc.core.LiveWallpaper.onCreate()V",
          "target": "invokevirtual \u003c Application, Ljava/lang/reflect/Method, invoke(Ljava/lang/Object;[Ljava/lang/Object;)Ljava/lang/Object; \u003e@103",
          "type": "service",
          "component": "lwc.core.LiveWallpaper"
        }
      ]
    },
    "15": {
      "startMethod": "lwc.core.LiveWallpaper.onCreate()V",
      "targetMethod": "org.apache.http.impl.client.DefaultHttpClient.execute(Lorg/apache/http/client/methods/HttpUriRequest;)Lorg/apache/http/HttpResponse;",
      "eventChain": [
        {
          "start": "lwc.core.LiveWallpaper.onCreate()V",
          "target": "invokevirtual \u003c Application, Lorg/apache/http/impl/client/DefaultHttpClient, execute(Lorg/apache/http/client/methods/HttpUriRequest;)Lorg/apache/http/HttpResponse; \u003e@126",
          "type": "service",
          "component": "lwc.core.LiveWallpaper"
        }
      ]
    },
    "16": {
      "startMethod": "lwc.core.LiveWallpaper.onCreate()V",
      "targetMethod": "java.net.URL.openConnection()Ljava/net/URLConnection;",
      "eventChain": [
        {
          "start": "lwc.core.LiveWallpaper.onCreate()V",
          "target": "invokevirtual \u003c Application, Ljava/net/URL, openConnection()Ljava/net/URLConnection; \u003e@20",
          "type": "service",
          "component": "lwc.core.LiveWallpaper"
        }
      ]
    },
    "17": {
      "startMethod": "lwc.core.LiveWallpaper.onCreate()V",
      "targetMethod": "org.apache.http.impl.client.DefaultHttpClient.execute(Lorg/apache/http/client/methods/HttpUriRequest;)Lorg/apache/http/HttpResponse;",
      "eventChain": [
        {
          "start": "lwc.core.LiveWallpaper.onCreate()V",
          "target": "invokevirtual \u003c Application, Lorg/apache/http/impl/client/DefaultHttpClient, execute(Lorg/apache/http/client/methods/HttpUriRequest;)Lorg/apache/http/HttpResponse; \u003e@443",
          "type": "service",
          "component": "lwc.core.LiveWallpaper"
        }
      ]
    },
    "18": {
      "startMethod": "lwc.core.APService.onCreate()V",
      "targetMethod": "java.lang.reflect.Method.invoke(Ljava/lang/Object;[Ljava/lang/Object;)Ljava/lang/Object;",
      "eventChain": [
        {
          "start": "lwc.core.APService.onCreate()V",
          "target": "invokevirtual \u003c Application, Ljava/lang/reflect/Method, invoke(Ljava/lang/Object;[Ljava/lang/Object;)Ljava/lang/Object; \u003e@103",
          "type": "service",
          "component": "lwc.core.APService"
        }
      ]
    },
    "19": {
      "startMethod": "lwc.core.APService.onCreate()V",
      "targetMethod": "org.apache.http.impl.client.DefaultHttpClient.execute(Lorg/apache/http/client/methods/HttpUriRequest;)Lorg/apache/http/HttpResponse;",
      "eventChain": [
        {
          "start": "lwc.core.APService.onCreate()V",
          "target": "invokevirtual \u003c Application, Lorg/apache/http/impl/client/DefaultHttpClient, execute(Lorg/apache/http/client/methods/HttpUriRequest;)Lorg/apache/http/HttpResponse; \u003e@443",
          "type": "service",
          "component": "lwc.core.APService"
        }
      ]
    },
    "20": {
      "startMethod": "lwc.core.APService.onCreate()V",
      "targetMethod": "java.net.URL.openConnection()Ljava/net/URLConnection;",
      "eventChain": [
        {
          "start": "lwc.core.APService.onCreate()V",
          "target": "invokevirtual \u003c Application, Ljava/net/URL, openConnection()Ljava/net/URLConnection; \u003e@20",
          "type": "service",
          "component": "lwc.core.APService"
        }
      ]
    },
    "21": {
      "startMethod": "lwc.core.APService.onCreate()V",
      "targetMethod": "java.net.URL.openConnection()Ljava/net/URLConnection;",
      "eventChain": [
        {
          "start": "lwc.core.APService.onCreate()V",
          "target": "invokevirtual \u003c Application, Ljava/net/URL, openConnection()Ljava/net/URLConnection; \u003e@16",
          "type": "service",
          "component": "lwc.core.APService"
        }
      ]
    },
    "22": {
      "startMethod": "lwc.core.APService.onCreate()V",
      "targetMethod": "org.apache.http.impl.client.DefaultHttpClient.execute(Lorg/apache/http/client/methods/HttpUriRequest;)Lorg/apache/http/HttpResponse;",
      "eventChain": [
        {
          "start": "lwc.core.APService.onCreate()V",
          "target": "invokevirtual \u003c Application, Lorg/apache/http/impl/client/DefaultHttpClient, execute(Lorg/apache/http/client/methods/HttpUriRequest;)Lorg/apache/http/HttpResponse; \u003e@126",
          "type": "service",
          "component": "lwc.core.APService"
        }
      ]
    },
    "23": {
      "startMethod": "com.POWfxPNC.OVkJXIJh98860.aj.onClick(Landroid/view/View;)V",
      "targetMethod": "java.net.URL.openConnection()Ljava/net/URLConnection;",
      "eventChain": [
        {
          "start": "com.POWfxPNC.OVkJXIJh98860.OptinActivity.onCreate(Landroid/os/Bundle;)V",
          "target": "invokevirtual \u003c Application, Landroid/widget/TextView, setOnClickListener(Landroid/view/View$OnClickListener;)V \u003e@748",
          "type": "activity",
          "component": "com.POWfxPNC.OVkJXIJh98860.OptinActivity"
        },
        {
          "start": "com.POWfxPNC.OVkJXIJh98860.aj.onClick(Landroid/view/View;)V",
          "target": "invokevirtual \u003c Application, Ljava/net/URL, openConnection()Ljava/net/URLConnection; \u003e@20",
          "type": "ui",
          "activities": [
            "lwc.core.LWPServiceWelcome"
          ],
          "listener": "com.POWfxPNC.OVkJXIJh98860.aj",
          "listenerMethod": "onClick",
          "uiType": "onClick",
          "constraintsFile": "constraints23_0.py",
          "variables": {},
          "stringMap": {},
          "strings": {}
        }
      ]
    },
    "24": {
      "startMethod": "com.POWfxPNC.OVkJXIJh98860.aj.onClick(Landroid/view/View;)V",
      "targetMethod": "java.lang.reflect.Method.invoke(Ljava/lang/Object;[Ljava/lang/Object;)Ljava/lang/Object;",
      "eventChain": [
        {
          "start": "com.POWfxPNC.OVkJXIJh98860.OptinActivity.onCreate(Landroid/os/Bundle;)V",
          "target": "invokevirtual \u003c Application, Landroid/widget/TextView, setOnClickListener(Landroid/view/View$OnClickListener;)V \u003e@748",
          "type": "activity",
          "component": "com.POWfxPNC.OVkJXIJh98860.OptinActivity"
        },
        {
          "start": "com.POWfxPNC.OVkJXIJh98860.aj.onClick(Landroid/view/View;)V",
          "target": "invokevirtual \u003c Application, Ljava/lang/reflect/Method, invoke(Ljava/lang/Object;[Ljava/lang/Object;)Ljava/lang/Object; \u003e@103",
          "type": "ui",
          "activities": [
            "lwc.core.LWPServiceWelcome"
          ],
          "listener": "com.POWfxPNC.OVkJXIJh98860.aj",
          "listenerMethod": "onClick",
          "uiType": "onClick",
          "constraintsFile": "constraints24_0.py",
          "variables": {},
          "stringMap": {},
          "strings": {}
        }
      ]
    },
    "25": {
      "startMethod": "com.POWfxPNC.OVkJXIJh98860.aj.onClick(Landroid/view/View;)V",
      "targetMethod": "org.apache.http.impl.client.DefaultHttpClient.execute(Lorg/apache/http/client/methods/HttpUriRequest;)Lorg/apache/http/HttpResponse;",
      "eventChain": [
        {
          "start": "com.POWfxPNC.OVkJXIJh98860.OptinActivity.onCreate(Landroid/os/Bundle;)V",
          "target": "invokevirtual \u003c Application, Landroid/widget/TextView, setOnClickListener(Landroid/view/View$OnClickListener;)V \u003e@748",
          "type": "activity",
          "component": "com.POWfxPNC.OVkJXIJh98860.OptinActivity"
        },
        {
          "start": "com.POWfxPNC.OVkJXIJh98860.aj.onClick(Landroid/view/View;)V",
          "target": "invokevirtual \u003c Application, Lorg/apache/http/impl/client/DefaultHttpClient, execute(Lorg/apache/http/client/methods/HttpUriRequest;)Lorg/apache/http/HttpResponse; \u003e@126",
          "type": "ui",
          "activities": [
            "lwc.core.LWPServiceWelcome"
          ],
          "listener": "com.POWfxPNC.OVkJXIJh98860.aj",
          "listenerMethod": "onClick",
          "uiType": "onClick",
          "constraintsFile": "constraints25_0.py",
          "variables": {},
          "stringMap": {},
          "strings": {}
        }
      ]
    },
    "26": {
      "startMethod": "com.POWfxPNC.OVkJXIJh98860.ak.onClick(Landroid/view/View;)V",
      "targetMethod": "java.lang.reflect.Method.invoke(Ljava/lang/Object;[Ljava/lang/Object;)Ljava/lang/Object;",
      "eventChain": [
        {
          "start": "com.POWfxPNC.OVkJXIJh98860.OptinActivity.onCreate(Landroid/os/Bundle;)V",
          "target": "invokevirtual \u003c Application, Landroid/widget/Button, setOnClickListener(Landroid/view/View$OnClickListener;)V \u003e@763",
          "type": "activity",
          "component": "com.POWfxPNC.OVkJXIJh98860.OptinActivity"
        },
        {
          "start": "com.POWfxPNC.OVkJXIJh98860.ak.onClick(Landroid/view/View;)V",
          "target": "invokevirtual \u003c Application, Ljava/lang/reflect/Method, invoke(Ljava/lang/Object;[Ljava/lang/Object;)Ljava/lang/Object; \u003e@103",
          "type": "ui",
          "activities": [
            "lwc.core.LWPServiceWelcome"
          ],
          "listener": "com.POWfxPNC.OVkJXIJh98860.ak",
          "listenerMethod": "onClick",
          "uiType": "onClick",
          "constraintsFile": "constraints26_0.py",
          "variables": {},
          "stringMap": {},
          "strings": {}
        }
      ]
    },
    "27": {
      "startMethod": "com.POWfxPNC.OVkJXIJh98860.ak.onClick(Landroid/view/View;)V",
      "targetMethod": "org.apache.http.impl.client.DefaultHttpClient.execute(Lorg/apache/http/client/methods/HttpUriRequest;)Lorg/apache/http/HttpResponse;",
      "eventChain": [
        {
          "start": "com.POWfxPNC.OVkJXIJh98860.OptinActivity.onCreate(Landroid/os/Bundle;)V",
          "target": "invokevirtual \u003c Application, Landroid/widget/Button, setOnClickListener(Landroid/view/View$OnClickListener;)V \u003e@763",
          "type": "activity",
          "component": "com.POWfxPNC.OVkJXIJh98860.OptinActivity"
        },
        {
          "start": "com.POWfxPNC.OVkJXIJh98860.ak.onClick(Landroid/view/View;)V",
          "target": "invokevirtual \u003c Application, Lorg/apache/http/impl/client/DefaultHttpClient, execute(Lorg/apache/http/client/methods/HttpUriRequest;)Lorg/apache/http/HttpResponse; \u003e@126",
          "type": "ui",
          "activities": [
            "lwc.core.LWPServiceWelcome"
          ],
          "listener": "com.POWfxPNC.OVkJXIJh98860.ak",
          "listenerMethod": "onClick",
          "uiType": "onClick",
          "constraintsFile": "constraints27_0.py",
          "variables": {},
          "stringMap": {},
          "strings": {}
        }
      ]
    },
    "28": {
      "startMethod": "com.POWfxPNC.OVkJXIJh98860.ak.onClick(Landroid/view/View;)V",
      "targetMethod": "java.net.URL.openConnection()Ljava/net/URLConnection;",
      "eventChain": [
        {
          "start": "com.POWfxPNC.OVkJXIJh98860.OptinActivity.onCreate(Landroid/os/Bundle;)V",
          "target": "invokevirtual \u003c Application, Landroid/widget/Button, setOnClickListener(Landroid/view/View$OnClickListener;)V \u003e@763",
          "type": "activity",
          "component": "com.POWfxPNC.OVkJXIJh98860.OptinActivity"
        },
        {
          "start": "com.POWfxPNC.OVkJXIJh98860.ak.onClick(Landroid/view/View;)V",
          "target": "invokevirtual \u003c Application, Ljava/net/URL, openConnection()Ljava/net/URLConnection; \u003e@20",
          "type": "ui",
          "activities": [
            "lwc.core.LWPServiceWelcome"
          ],
          "listener": "com.POWfxPNC.OVkJXIJh98860.ak",
          "listenerMethod": "onClick",
          "uiType": "onClick",
          "constraintsFile": "constraints28_0.py",
          "variables": {},
          "stringMap": {},
          "strings": {}
        }
      ]
    }
  }
}