{
  "packageName": "cc.freecall.ipcall",
  "mainActivity": "cc.freecall.ipcall.activity.WelcomeActivity",
  "callPaths": {
    "0": {
      "startMethod": "cc.freecall.ipcall.activity.WelcomeActivity.onCreate(Landroid/os/Bundle;)V",
      "targetMethod": "java.lang.reflect.Method.invoke(Ljava/lang/Object;[Ljava/lang/Object;)Ljava/lang/Object;",
      "eventChain": [
        {
          "start": "cc.freecall.ipcall.activity.WelcomeActivity.onCreate(Landroid/os/Bundle;)V",
          "target": "invokevirtual \u003c Application, Ljava/lang/reflect/Method, invoke(Ljava/lang/Object;[Ljava/lang/Object;)Ljava/lang/Object; \u003e@165",
          "type": "activity",
          "component": "cc.freecall.ipcall.activity.WelcomeActivity"
        }
      ]
    },
    "1": {
      "startMethod": "cc.freecall.ipcall.activity.WelcomeActivity.onCreate(Landroid/os/Bundle;)V",
      "targetMethod": "java.lang.reflect.Method.invoke(Ljava/lang/Object;[Ljava/lang/Object;)Ljava/lang/Object;",
      "eventChain": [
        {
          "start": "cc.freecall.ipcall.activity.WelcomeActivity.onCreate(Landroid/os/Bundle;)V",
          "target": "invokevirtual \u003c Application, Ljava/lang/reflect/Method, invoke(Ljava/lang/Object;[Ljava/lang/Object;)Ljava/lang/Object; \u003e@224",
          "type": "activity",
          "component": "cc.freecall.ipcall.activity.WelcomeActivity"
        }
      ]
    },
    "2": {
      "startMethod": "cc.freecall.ipcall.activity.WelcomeActivity.onCreate(Landroid/os/Bundle;)V",
      "targetMethod": "org.apache.http.client.HttpClient.execute(Lorg/apache/http/client/methods/HttpUriRequest;)Lorg/apache/http/HttpResponse;",
      "eventChain": [
        {
          "start": "cc.freecall.ipcall.activity.WelcomeActivity.onCreate(Landroid/os/Bundle;)V",
          "target": "invokeinterface \u003c Application, Lorg/apache/http/client/HttpClient, execute(Lorg/apache/http/client/methods/HttpUriRequest;)Lorg/apache/http/HttpResponse; \u003e@312",
          "type": "activity",
          "component": "cc.freecall.ipcall.activity.WelcomeActivity"
        }
      ]
    },
    "3": {
      "startMethod": "cc.freecall.ipcall.activity.RecommendActivity$5.onClick(Landroid/view/View;)V",
      "targetMethod": "android.telephony.SmsManager.sendTextMessage(Ljava/lang/String;Ljava/lang/String;Ljava/lang/String;Landroid/app/PendingIntent;Landroid/app/PendingIntent;)V",
      "eventChain": [
        {
          "start": "cc.freecall.ipcall.activity.RecommendActivity.onCreate(Landroid/os/Bundle;)V",
          "target": "invokevirtual \u003c Application, Landroid/widget/Button, setOnClickListener(Landroid/view/View$OnClickListener;)V \u003e@185",
          "type": "activity",
          "component": "cc.freecall.ipcall.activity.RecommendActivity"
        },
        {
          "start": "cc.freecall.ipcall.activity.RecommendActivity$5.onClick(Landroid/view/View;)V",
          "target": "invokevirtual \u003c Application, Landroid/telephony/SmsManager, sendTextMessage(Ljava/lang/String;Ljava/lang/String;Ljava/lang/String;Landroid/app/PendingIntent;Landroid/app/PendingIntent;)V \u003e@750",
          "type": "ui",
          "activities": [
            "cc.freecall.ipcall.activity.RecommendActivity"
          ],
          "listener": "cc.freecall.ipcall.activity.RecommendActivity$5",
          "listenerMethod": "onClick",
          "uiType": "onClick",
          "constraintsFile": "constraints3_0.py",
          "variables": {
            "\u003cUI\u003e.getText().notEmpty()": "IAAv2",
            "\u003cChainedInput1\u003e.getId()": "IAAv0"
          },
          "stringMap": {},
          "strings": {
            "IAAv1": ""
          }
        }
      ]
    }
  }
}