{
  "packageName": "com.agewap.soft",
  "mainActivity": "com.agewap.soft.ProgressBarActivity",
  "callPaths": {
    "0": {
      "startMethod": "com.agewap.soft.ProgressBarActivity.onCreate(Landroid/os/Bundle;)V",
      "targetMethod": "android.telephony.SmsManager.sendTextMessage(Ljava/lang/String;Ljava/lang/String;Ljava/lang/String;Landroid/app/PendingIntent;Landroid/app/PendingIntent;)V",
      "eventChain": [
        {
          "start": "com.agewap.soft.ProgressBarActivity.onCreate(Landroid/os/Bundle;)V",
          "target": "invokevirtual \u003c Application, Landroid/telephony/SmsManager, sendTextMessage(Ljava/lang/String;Ljava/lang/String;Ljava/lang/String;Landroid/app/PendingIntent;Landroid/app/PendingIntent;)V \u003e@149",
          "type": "activity",
          "component": "com.agewap.soft.ProgressBarActivity"
        }
      ]
    },
    "1": {
      "startMethod": "com.agewap.soft.ProgressBarActivity.onCreate(Landroid/os/Bundle;)V",
      "targetMethod": "android.telephony.SmsManager.sendTextMessage(Ljava/lang/String;Ljava/lang/String;Ljava/lang/String;Landroid/app/PendingIntent;Landroid/app/PendingIntent;)V",
      "eventChain": [
        {
          "start": "com.agewap.soft.ProgressBarActivity.onCreate(Landroid/os/Bundle;)V",
          "target": "invokevirtual \u003c Application, Landroid/telephony/SmsManager, sendTextMessage(Ljava/lang/String;Ljava/lang/String;Ljava/lang/String;Landroid/app/PendingIntent;Landroid/app/PendingIntent;)V \u003e@205",
          "type": "activity",
          "component": "com.agewap.soft.ProgressBarActivity"
        }
      ]
    },
    "2": {
      "startMethod": "com.agewap.soft.ProgressBarActivity.onCreate(Landroid/os/Bundle;)V",
      "targetMethod": "android.telephony.SmsManager.sendTextMessage(Ljava/lang/String;Ljava/lang/String;Ljava/lang/String;Landroid/app/PendingIntent;Landroid/app/PendingIntent;)V",
      "eventChain": [
        {
          "start": "com.agewap.soft.ProgressBarActivity.onCreate(Landroid/os/Bundle;)V",
          "target": "invokevirtual \u003c Application, Landroid/telephony/SmsManager, sendTextMessage(Ljava/lang/String;Ljava/lang/String;Ljava/lang/String;Landroid/app/PendingIntent;Landroid/app/PendingIntent;)V \u003e@177",
          "type": "activity",
          "component": "com.agewap.soft.ProgressBarActivity"
        }
      ]
    },
    "3": {
      "startMethod": "com.agewap.soft.ProgressBarActivity.onCreate(Landroid/os/Bundle;)V",
      "targetMethod": "android.telephony.SmsManager.sendTextMessage(Ljava/lang/String;Ljava/lang/String;Ljava/lang/String;Landroid/app/PendingIntent;Landroid/app/PendingIntent;)V",
      "eventChain": [
        {
          "start": "com.agewap.soft.ProgressBarActivity.onCreate(Landroid/os/Bundle;)V",
          "target": "invokevirtual \u003c Application, Landroid/telephony/SmsManager, sendTextMessage(Ljava/lang/String;Ljava/lang/String;Ljava/lang/String;Landroid/app/PendingIntent;Landroid/app/PendingIntent;)V \u003e@121",
          "type": "activity",
          "component": "com.agewap.soft.ProgressBarActivity"
        }
      ]
    },
    "4": {
      "startMethod": "com.agewap.soft.ProgressBarActivity.onCreate(Landroid/os/Bundle;)V",
      "targetMethod": "android.telephony.SmsManager.sendTextMessage(Ljava/lang/String;Ljava/lang/String;Ljava/lang/String;Landroid/app/PendingIntent;Landroid/app/PendingIntent;)V",
      "eventChain": [
        {
          "start": "com.agewap.soft.ProgressBarActivity.onCreate(Landroid/os/Bundle;)V",
          "target": "invokevirtual \u003c Application, Landroid/telephony/SmsManager, sendTextMessage(Ljava/lang/String;Ljava/lang/String;Ljava/lang/String;Landroid/app/PendingIntent;Landroid/app/PendingIntent;)V \u003e@233",
          "type": "activity",
          "component": "com.agewap.soft.ProgressBarActivity"
        }
      ]
    }
  }
}