{
  "packageName": "cn.zhui.client2065066",
  "mainActivity": "cn.zhui.client2065066.main",
  "callPaths": {
    "0": {
      "startMethod": "com.google.zxing.client.android.CaptureActivity.onPause()V",
      "targetMethod": "java.lang.reflect.Method.invoke(Ljava/lang/Object;[Ljava/lang/Object;)Ljava/lang/Object;",
      "eventChain": [
        {
          "start": "com.google.zxing.client.android.CaptureActivity.onResume()V",
          "target": "PC@16",
          "type": "activity",
          "component": "com.google.zxing.client.android.CaptureActivity",
          "constraintsFile": "constraints0_0.py",
          "variables": {},
          "stringMap": {},
          "strings": {}
        },
        {
          "start": "com.google.zxing.client.android.CaptureActivity.onPause()V",
          "target": "invokevirtual \u003c Application, Ljava/lang/reflect/Method, invoke(Ljava/lang/Object;[Ljava/lang/Object;)Ljava/lang/Object; \u003e@7",
          "type": "activity",
          "component": "com.google.zxing.client.android.CaptureActivity",
          "constraintsFile": "constraints0_1.py",
          "variables": {},
          "stringMap": {},
          "strings": {}
        }
      ]
    }
  }
}