{
  "packageName": "uk.co.opticiancms.wifiprobe",
  "mainActivity": "uk.co.opticiancms.wifiprobe.SplashScreen",
  "callPaths": {
    "0": {
      "startMethod": "uk.co.opticiancms.wifiprobe.NetInfo.onCreate(Landroid/os/Bundle;)V",
      "targetMethod": "org.apache.http.impl.client.DefaultHttpClient.execute(Lorg/apache/http/client/methods/HttpUriRequest;)Lorg/apache/http/HttpResponse;",
      "eventChain": [
        {
          "start": "uk.co.opticiancms.wifiprobe.NetInfo.onCreate(Landroid/os/Bundle;)V",
          "target": "invokevirtual \u003c Application, Lorg/apache/http/impl/client/DefaultHttpClient, execute(Lorg/apache/http/client/methods/HttpUriRequest;)Lorg/apache/http/HttpResponse; \u003e@58",
          "type": "activity",
          "component": "uk.co.opticiancms.wifiprobe.NetInfo",
          "constraintsFile": "constraints0_0.py",
          "variables": {},
          "stringMap": {},
          "strings": {
            "IAAv3": "",
            "IAAv1": ""
          }
        }
      ]
    },
    "1": {
      "startMethod": "uk.co.opticiancms.wifiprobe.HostVulnerabilityScanner.onCreate(Landroid/os/Bundle;)V",
      "targetMethod": "org.apache.http.impl.client.DefaultHttpClient.execute(Lorg/apache/http/client/methods/HttpUriRequest;)Lorg/apache/http/HttpResponse;",
      "eventChain": [
        {
          "start": "uk.co.opticiancms.wifiprobe.HostVulnerabilityScanner.onCreate(Landroid/os/Bundle;)V",
          "target": "invokevirtual \u003c Application, Lorg/apache/http/impl/client/DefaultHttpClient, execute(Lorg/apache/http/client/methods/HttpUriRequest;)Lorg/apache/http/HttpResponse; \u003e@147",
          "type": "activity",
          "component": "uk.co.opticiancms.wifiprobe.HostVulnerabilityScanner",
          "constraintsFile": "constraints1_0.py",
          "variables": {},
          "stringMap": {
            "7000": "",
            "7001": "Could not be identified",
            "7002": "(",
            "7003": ")"
          },
          "strings": {
            "IAAv3": "",
            "IAAv1": "",
            "IAAv17": "",
            "IAAv5": ""
          }
        }
      ]
    }
  }
}