{
  "packageName": "com.bf.appa3e1b2",
  "mainActivity": "com.bf.appa3e1b2.BoonvilleAbundantLife",
  "callPaths": {
    "0": {
      "startMethod": "com.google.android.gcm.GCMBroadcastReceiver.onReceive(Landroid/content/Context;Landroid/content/Intent;)V",
      "targetMethod": "android.os.PowerManager$WakeLock.acquire()V",
      "eventChain": [
        {
          "start": "com.google.android.gcm.GCMBroadcastReceiver.onReceive(Landroid/content/Context;Landroid/content/Intent;)V",
          "target": "invokevirtual \u003c Application, Lcom/google/android/gcm/GCMBroadcastReceiver, setResult(ILjava/lang/String;Landroid/os/Bundle;)V \u003e@194",
          "type": "sms",
          "constraintsFile": "constraints0_0.py",
          "variables": {},
          "stringMap": {},
          "strings": {}
        },
        {
          "start": "com.google.android.gcm.GCMBroadcastReceiver.\u003cclinit\u003e()V",
          "target": "",
          "type": "",
          "constraintsFile": "constraints0_1.py",
          "variables": {
            "\u003cChainedInput1\u003e.getSystemService().newWakeLock()": "IAAv1"
          },
          "stringMap": {},
          "strings": {}
        },
        {
          "start": "com.google.android.gcm.GCMBroadcastReceiver.onReceive(Landroid/content/Context;Landroid/content/Intent;)V",
          "target": "",
          "type": "sms",
          "constraintsFile": "constraints0_2.py",
          "variables": {
            "\u003cChainedInput1\u003e.getSystemService().newWakeLock()": "IAAv2",
            "\u003cInput1\u003e.getSystemService().newWakeLock()": "IAAv3"
          },
          "stringMap": {},
          "strings": {}
        },
        {
          "start": "com.google.android.gcm.GCMBroadcastReceiver.onReceive(Landroid/content/Context;Landroid/content/Intent;)V",
          "target": "invokevirtual \u003c Application, Landroid/os/PowerManager$WakeLock, acquire()V \u003e@84",
          "type": "sms",
          "constraintsFile": "constraints0_3.py",
          "variables": {
            "\u003cChainedInput1\u003e.getSystemService().newWakeLock()": "IAAv2"
          },
          "stringMap": {},
          "strings": {}
        }
      ]
    },
    "1": {
      "startMethod": "org.apache.cordova.networkinformation.NetworkManager$1.onReceive(Landroid/content/Context;Landroid/content/Intent;)V",
      "targetMethod": "android.net.ConnectivityManager.getActiveNetworkInfo()Landroid/net/NetworkInfo;",
      "eventChain": [
        {
          "start": "org.apache.cordova.networkinformation.NetworkManager$1.onReceive(Landroid/content/Context;Landroid/content/Intent;)V",
          "target": "invokevirtual \u003c Application, Landroid/net/ConnectivityManager, getActiveNetworkInfo()Landroid/net/NetworkInfo; \u003e@35",
          "type": "sms",
          "constraintsFile": "constraints1_0.py",
          "variables": {},
          "stringMap": {},
          "strings": {}
        }
      ]
    },
    "2": {
      "startMethod": "org.apache.cordova.filetransfer.FileTransfer$1.run()V",
      "targetMethod": "java.net.URL.openConnection()Ljava/net/URLConnection;",
      "eventChain": [
        {
          "start": "org.apache.cordova.filetransfer.FileTransfer$1.run()V",
          "target": "invokevirtual \u003c Application, Ljava/net/URL, openConnection()Ljava/net/URLConnection; \u003e@20",
          "type": "",
          "constraintsFile": "constraints2_0.py",
          "variables": {},
          "stringMap": {},
          "strings": {}
        }
      ]
    },
    "3": {
      "startMethod": "org.apache.cordova.filetransfer.FileTransfer$1.run()V",
      "targetMethod": "java.net.URLConnection.getInputStream()Ljava/io/InputStream;",
      "eventChain": [
        {
          "start": "org.apache.cordova.filetransfer.FileTransfer$1.\u003cinit\u003e(Lorg/apache/cordova/filetransfer/FileTransfer;Lorg/apache/cordova/filetransfer/FileTransfer$RequestContext;Lorg/apache/cordova/CordovaResourceApi;Landroid/net/Uri;ZZLjava/lang/String;Ljava/lang/String;Lorg/json/JSONObject;Lorg/json/JSONObject;Ljava/lang/String;Ljava/lang/String;Ljava/lang/String;Landroid/net/Uri;ZLjava/lang/String;Ljava/lang/String;)V",
          "target": "PC@25",
          "type": "",
          "constraintsFile": "constraints3_0.py",
          "variables": {
            "\u003cInput5\u003e": "IAAv11"
          },
          "stringMap": {
            "7000": "gzip"
          },
          "strings": {
            "IAAv2": "",
            "IAAv9": ""
          }
        },
        {
          "start": "org.apache.cordova.filetransfer.FileTransfer$1.\u003cinit\u003e(Lorg/apache/cordova/filetransfer/FileTransfer;Lorg/apache/cordova/filetransfer/FileTransfer$RequestContext;Lorg/apache/cordova/CordovaResourceApi;Landroid/net/Uri;ZZLjava/lang/String;Ljava/lang/String;Lorg/json/JSONObject;Lorg/json/JSONObject;Ljava/lang/String;Ljava/lang/String;Ljava/lang/String;Landroid/net/Uri;ZLjava/lang/String;Ljava/lang/String;)V",
          "target": "PC@49",
          "type": "",
          "constraintsFile": "constraints3_1.py",
          "variables": {
            "\u003cInput9\u003e": "IAAv11"
          },
          "stringMap": {
            "7000": "gzip"
          },
          "strings": {
            "IAAv2": "",
            "IAAv9": ""
          }
        },
        {
          "start": "org.apache.cordova.filetransfer.FileTransfer$1.\u003cinit\u003e(Lorg/apache/cordova/filetransfer/FileTransfer;Lorg/apache/cordova/filetransfer/FileTransfer$RequestContext;Lorg/apache/cordova/CordovaResourceApi;Landroid/net/Uri;ZZLjava/lang/String;Ljava/lang/String;Lorg/json/JSONObject;Lorg/json/JSONObject;Ljava/lang/String;Ljava/lang/String;Ljava/lang/String;Landroid/net/Uri;ZLjava/lang/String;Ljava/lang/String;)V",
          "target": "PC@31",
          "type": "",
          "constraintsFile": "constraints3_2.py",
          "variables": {
            "\u003cInput6\u003e": "IAAv11"
          },
          "stringMap": {
            "7000": "gzip"
          },
          "strings": {
            "IAAv2": "",
            "IAAv9": ""
          }
        },
        {
          "start": "org.apache.cordova.filetransfer.FileTransfer$1.\u003cinit\u003e(Lorg/apache/cordova/filetransfer/FileTransfer;Lorg/apache/cordova/filetransfer/FileTransfer$RequestContext;Lorg/apache/cordova/CordovaResourceApi;Landroid/net/Uri;ZZLjava/lang/String;Ljava/lang/String;Lorg/json/JSONObject;Lorg/json/JSONObject;Ljava/lang/String;Ljava/lang/String;Ljava/lang/String;Landroid/net/Uri;ZLjava/lang/String;Ljava/lang/String;)V",
          "target": "PC@89",
          "type": "",
          "constraintsFile": "constraints3_3.py",
          "variables": {
            "\u003cInput15\u003e": "IAAv11"
          },
          "stringMap": {
            "7000": "gzip"
          },
          "strings": {
            "IAAv2": "",
            "IAAv9": ""
          }
        },
        {
          "start": "org.apache.cordova.filetransfer.FileTransfer$1.run()V",
          "target": "invokevirtual \u003c Application, Ljava/net/URLConnection, getInputStream()Ljava/io/InputStream; \u003e@56",
          "type": "",
          "constraintsFile": "constraints3_4.py",
          "variables": {},
          "stringMap": {
            "7000": "gzip"
          },
          "strings": {
            "IAAv2": "",
            "IAAv9": ""
          }
        }
      ]
    },
    "4": {
      "startMethod": "org.apache.cordova.filetransfer.FileTransfer$1.run()V",
      "targetMethod": "java.net.HttpURLConnection.getInputStream()Ljava/io/InputStream;",
      "eventChain": [
        {
          "start": "org.apache.cordova.filetransfer.FileTransfer$1.\u003cinit\u003e(Lorg/apache/cordova/filetransfer/FileTransfer;Lorg/apache/cordova/filetransfer/FileTransfer$RequestContext;Lorg/apache/cordova/CordovaResourceApi;Landroid/net/Uri;ZZLjava/lang/String;Ljava/lang/String;Lorg/json/JSONObject;Lorg/json/JSONObject;Ljava/lang/String;Ljava/lang/String;Ljava/lang/String;Landroid/net/Uri;ZLjava/lang/String;Ljava/lang/String;)V",
          "target": "PC@25",
          "type": "",
          "constraintsFile": "constraints4_0.py",
          "variables": {
            "\u003cInput5\u003e": "IAAv7"
          },
          "stringMap": {},
          "strings": {
            "IAAv3": ""
          }
        },
        {
          "start": "org.apache.cordova.filetransfer.FileTransfer$1.\u003cinit\u003e(Lorg/apache/cordova/filetransfer/FileTransfer;Lorg/apache/cordova/filetransfer/FileTransfer$RequestContext;Lorg/apache/cordova/CordovaResourceApi;Landroid/net/Uri;ZZLjava/lang/String;Ljava/lang/String;Lorg/json/JSONObject;Lorg/json/JSONObject;Ljava/lang/String;Ljava/lang/String;Ljava/lang/String;Landroid/net/Uri;ZLjava/lang/String;Ljava/lang/String;)V",
          "target": "PC@49",
          "type": "",
          "constraintsFile": "constraints4_1.py",
          "variables": {
            "\u003cInput9\u003e": "IAAv7"
          },
          "stringMap": {},
          "strings": {
            "IAAv3": ""
          }
        },
        {
          "start": "org.apache.cordova.filetransfer.FileTransfer$1.\u003cinit\u003e(Lorg/apache/cordova/filetransfer/FileTransfer;Lorg/apache/cordova/filetransfer/FileTransfer$RequestContext;Lorg/apache/cordova/CordovaResourceApi;Landroid/net/Uri;ZZLjava/lang/String;Ljava/lang/String;Lorg/json/JSONObject;Lorg/json/JSONObject;Ljava/lang/String;Ljava/lang/String;Ljava/lang/String;Landroid/net/Uri;ZLjava/lang/String;Ljava/lang/String;)V",
          "target": "PC@31",
          "type": "",
          "constraintsFile": "constraints4_2.py",
          "variables": {
            "\u003cInput6\u003e": "IAAv7"
          },
          "stringMap": {},
          "strings": {
            "IAAv3": ""
          }
        },
        {
          "start": "org.apache.cordova.filetransfer.FileTransfer$1.run()V",
          "target": "invokevirtual \u003c Application, Ljava/net/HttpURLConnection, getInputStream()Ljava/io/InputStream; \u003e@511",
          "type": "",
          "constraintsFile": "constraints4_3.py",
          "variables": {},
          "stringMap": {},
          "strings": {
            "IAAv3": ""
          }
        }
      ]
    },
    "5": {
      "startMethod": "org.apache.cordova.filetransfer.FileTransfer$1.run()V",
      "targetMethod": "java.net.HttpURLConnection.connect()V",
      "eventChain": [
        {
          "start": "org.apache.cordova.filetransfer.FileTransfer$1.\u003cinit\u003e(Lorg/apache/cordova/filetransfer/FileTransfer;Lorg/apache/cordova/filetransfer/FileTransfer$RequestContext;Lorg/apache/cordova/CordovaResourceApi;Landroid/net/Uri;ZZLjava/lang/String;Ljava/lang/String;Lorg/json/JSONObject;Lorg/json/JSONObject;Ljava/lang/String;Ljava/lang/String;Ljava/lang/String;Landroid/net/Uri;ZLjava/lang/String;Ljava/lang/String;)V",
          "target": "PC@25",
          "type": "",
          "constraintsFile": "constraints5_0.py",
          "variables": {
            "\u003cInput5\u003e": "IAAv9"
          },
          "stringMap": {},
          "strings": {
            "IAAv3": ""
          }
        },
        {
          "start": "org.apache.cordova.filetransfer.FileTransfer$1.\u003cinit\u003e(Lorg/apache/cordova/filetransfer/FileTransfer;Lorg/apache/cordova/filetransfer/FileTransfer$RequestContext;Lorg/apache/cordova/CordovaResourceApi;Landroid/net/Uri;ZZLjava/lang/String;Ljava/lang/String;Lorg/json/JSONObject;Lorg/json/JSONObject;Ljava/lang/String;Ljava/lang/String;Ljava/lang/String;Landroid/net/Uri;ZLjava/lang/String;Ljava/lang/String;)V",
          "target": "PC@49",
          "type": "",
          "constraintsFile": "constraints5_1.py",
          "variables": {
            "\u003cInput9\u003e": "IAAv9"
          },
          "stringMap": {},
          "strings": {
            "IAAv3": ""
          }
        },
        {
          "start": "org.apache.cordova.filetransfer.FileTransfer$1.\u003cinit\u003e(Lorg/apache/cordova/filetransfer/FileTransfer;Lorg/apache/cordova/filetransfer/FileTransfer$RequestContext;Lorg/apache/cordova/CordovaResourceApi;Landroid/net/Uri;ZZLjava/lang/String;Ljava/lang/String;Lorg/json/JSONObject;Lorg/json/JSONObject;Ljava/lang/String;Ljava/lang/String;Ljava/lang/String;Landroid/net/Uri;ZLjava/lang/String;Ljava/lang/String;)V",
          "target": "PC@31",
          "type": "",
          "constraintsFile": "constraints5_2.py",
          "variables": {
            "\u003cInput6\u003e": "IAAv9"
          },
          "stringMap": {},
          "strings": {
            "IAAv3": ""
          }
        },
        {
          "start": "org.apache.cordova.filetransfer.FileTransfer$1.\u003cinit\u003e(Lorg/apache/cordova/filetransfer/FileTransfer;Lorg/apache/cordova/filetransfer/FileTransfer$RequestContext;Lorg/apache/cordova/CordovaResourceApi;Landroid/net/Uri;ZZLjava/lang/String;Ljava/lang/String;Lorg/json/JSONObject;Lorg/json/JSONObject;Ljava/lang/String;Ljava/lang/String;Ljava/lang/String;Landroid/net/Uri;ZLjava/lang/String;Ljava/lang/String;)V",
          "target": "PC@89",
          "type": "",
          "constraintsFile": "constraints5_3.py",
          "variables": {
            "\u003cInput15\u003e": "IAAv9"
          },
          "stringMap": {},
          "strings": {
            "IAAv3": ""
          }
        },
        {
          "start": "org.apache.cordova.filetransfer.FileTransfer$1.run()V",
          "target": "invokevirtual \u003c Application, Ljava/net/HttpURLConnection, connect()V \u003e@1141",
          "type": "",
          "constraintsFile": "constraints5_4.py",
          "variables": {},
          "stringMap": {},
          "strings": {
            "IAAv3": ""
          }
        }
      ]
    },
    "6": {
      "startMethod": "org.apache.cordova.filetransfer.FileTransfer$1.run()V",
      "targetMethod": "java.net.URL.openConnection()Ljava/net/URLConnection;",
      "eventChain": [
        {
          "start": "org.apache.cordova.filetransfer.FileTransfer$1.\u003cinit\u003e(Lorg/apache/cordova/filetransfer/FileTransfer;Lorg/apache/cordova/filetransfer/FileTransfer$RequestContext;Lorg/apache/cordova/CordovaResourceApi;Landroid/net/Uri;ZZLjava/lang/String;Ljava/lang/String;Lorg/json/JSONObject;Lorg/json/JSONObject;Ljava/lang/String;Ljava/lang/String;Ljava/lang/String;Landroid/net/Uri;ZLjava/lang/String;Ljava/lang/String;)V",
          "target": "PC@25",
          "type": "",
          "constraintsFile": "constraints6_0.py",
          "variables": {
            "\u003cInput5\u003e": "IAAv7"
          },
          "stringMap": {},
          "strings": {
            "IAAv3": ""
          }
        },
        {
          "start": "org.apache.cordova.filetransfer.FileTransfer$1.\u003cinit\u003e(Lorg/apache/cordova/filetransfer/FileTransfer;Lorg/apache/cordova/filetransfer/FileTransfer$RequestContext;Lorg/apache/cordova/CordovaResourceApi;Landroid/net/Uri;ZZLjava/lang/String;Ljava/lang/String;Lorg/json/JSONObject;Lorg/json/JSONObject;Ljava/lang/String;Ljava/lang/String;Ljava/lang/String;Landroid/net/Uri;ZLjava/lang/String;Ljava/lang/String;)V",
          "target": "PC@49",
          "type": "",
          "constraintsFile": "constraints6_1.py",
          "variables": {
            "\u003cInput9\u003e": "IAAv7"
          },
          "stringMap": {},
          "strings": {
            "IAAv3": ""
          }
        },
        {
          "start": "org.apache.cordova.filetransfer.FileTransfer$1.\u003cinit\u003e(Lorg/apache/cordova/filetransfer/FileTransfer;Lorg/apache/cordova/filetransfer/FileTransfer$RequestContext;Lorg/apache/cordova/CordovaResourceApi;Landroid/net/Uri;ZZLjava/lang/String;Ljava/lang/String;Lorg/json/JSONObject;Lorg/json/JSONObject;Ljava/lang/String;Ljava/lang/String;Ljava/lang/String;Landroid/net/Uri;ZLjava/lang/String;Ljava/lang/String;)V",
          "target": "PC@31",
          "type": "",
          "constraintsFile": "constraints6_2.py",
          "variables": {
            "\u003cInput6\u003e": "IAAv7"
          },
          "stringMap": {},
          "strings": {
            "IAAv3": ""
          }
        },
        {
          "start": "org.apache.cordova.filetransfer.FileTransfer$1.run()V",
          "target": "invokevirtual \u003c Application, Ljava/net/URL, openConnection()Ljava/net/URLConnection; \u003e@434",
          "type": "",
          "constraintsFile": "constraints6_3.py",
          "variables": {},
          "stringMap": {},
          "strings": {
            "IAAv3": ""
          }
        }
      ]
    },
    "7": {
      "startMethod": "org.apache.cordova.filetransfer.FileTransfer$1.run()V",
      "targetMethod": "java.net.URLConnection.getInputStream()Ljava/io/InputStream;",
      "eventChain": [
        {
          "start": "org.apache.cordova.filetransfer.FileTransfer$1.\u003cinit\u003e(Lorg/apache/cordova/filetransfer/FileTransfer;Lorg/apache/cordova/filetransfer/FileTransfer$RequestContext;Lorg/apache/cordova/CordovaResourceApi;Landroid/net/Uri;ZZLjava/lang/String;Ljava/lang/String;Lorg/json/JSONObject;Lorg/json/JSONObject;Ljava/lang/String;Ljava/lang/String;Ljava/lang/String;Landroid/net/Uri;ZLjava/lang/String;Ljava/lang/String;)V",
          "target": "PC@25",
          "type": "",
          "constraintsFile": "constraints7_0.py",
          "variables": {
            "\u003cInput5\u003e": "IAAv11"
          },
          "stringMap": {
            "7000": "gzip"
          },
          "strings": {
            "IAAv2": "",
            "IAAv9": ""
          }
        },
        {
          "start": "org.apache.cordova.filetransfer.FileTransfer$1.\u003cinit\u003e(Lorg/apache/cordova/filetransfer/FileTransfer;Lorg/apache/cordova/filetransfer/FileTransfer$RequestContext;Lorg/apache/cordova/CordovaResourceApi;Landroid/net/Uri;ZZLjava/lang/String;Ljava/lang/String;Lorg/json/JSONObject;Lorg/json/JSONObject;Ljava/lang/String;Ljava/lang/String;Ljava/lang/String;Landroid/net/Uri;ZLjava/lang/String;Ljava/lang/String;)V",
          "target": "PC@49",
          "type": "",
          "constraintsFile": "constraints7_1.py",
          "variables": {
            "\u003cInput9\u003e": "IAAv11"
          },
          "stringMap": {
            "7000": "gzip"
          },
          "strings": {
            "IAAv2": "",
            "IAAv9": ""
          }
        },
        {
          "start": "org.apache.cordova.filetransfer.FileTransfer$1.\u003cinit\u003e(Lorg/apache/cordova/filetransfer/FileTransfer;Lorg/apache/cordova/filetransfer/FileTransfer$RequestContext;Lorg/apache/cordova/CordovaResourceApi;Landroid/net/Uri;ZZLjava/lang/String;Ljava/lang/String;Lorg/json/JSONObject;Lorg/json/JSONObject;Ljava/lang/String;Ljava/lang/String;Ljava/lang/String;Landroid/net/Uri;ZLjava/lang/String;Ljava/lang/String;)V",
          "target": "PC@31",
          "type": "",
          "constraintsFile": "constraints7_2.py",
          "variables": {
            "\u003cInput6\u003e": "IAAv11"
          },
          "stringMap": {
            "7000": "gzip"
          },
          "strings": {
            "IAAv2": "",
            "IAAv9": ""
          }
        },
        {
          "start": "org.apache.cordova.filetransfer.FileTransfer$1.\u003cinit\u003e(Lorg/apache/cordova/filetransfer/FileTransfer;Lorg/apache/cordova/filetransfer/FileTransfer$RequestContext;Lorg/apache/cordova/CordovaResourceApi;Landroid/net/Uri;ZZLjava/lang/String;Ljava/lang/String;Lorg/json/JSONObject;Lorg/json/JSONObject;Ljava/lang/String;Ljava/lang/String;Ljava/lang/String;Landroid/net/Uri;ZLjava/lang/String;Ljava/lang/String;)V",
          "target": "PC@89",
          "type": "",
          "constraintsFile": "constraints7_3.py",
          "variables": {
            "\u003cInput15\u003e": "IAAv11"
          },
          "stringMap": {
            "7000": "gzip"
          },
          "strings": {
            "IAAv2": "",
            "IAAv9": ""
          }
        },
        {
          "start": "org.apache.cordova.filetransfer.FileTransfer$1.run()V",
          "target": "invokevirtual \u003c Application, Ljava/net/URLConnection, getInputStream()Ljava/io/InputStream; \u003e@33",
          "type": "",
          "constraintsFile": "constraints7_4.py",
          "variables": {},
          "stringMap": {
            "7000": "gzip"
          },
          "strings": {
            "IAAv2": "",
            "IAAv9": ""
          }
        }
      ]
    },
    "8": {
      "startMethod": "org.apache.cordova.dialogs.Notification$1.run()V",
      "targetMethod": "android.media.RingtoneManager.getRingtone(Landroid/content/Context;Landroid/net/Uri;)Landroid/media/Ringtone;",
      "eventChain": [
        {
          "start": "org.apache.cordova.dialogs.Notification$1.run()V",
          "target": "invokestatic \u003c Application, Landroid/media/RingtoneManager, getRingtone(Landroid/content/Context;Landroid/net/Uri;)Landroid/media/Ringtone; \u003e@49",
          "type": ""
        }
      ]
    },
    "9": {
      "startMethod": "org.apache.cordova.dialogs.Notification$1.run()V",
      "targetMethod": "android.media.Ringtone.play()V",
      "eventChain": [
        {
          "start": "org.apache.cordova.dialogs.Notification$1.run()V",
          "target": "invokevirtual \u003c Application, Landroid/media/Ringtone, play()V \u003e@79",
          "type": "",
          "constraintsFile": "constraints9_0.py",
          "variables": {},
          "stringMap": {},
          "strings": {}
        }
      ]
    },
    "10": {
      "startMethod": "org.apache.cordova.filetransfer.FileTransfer$4.run()V",
      "targetMethod": "java.net.HttpURLConnection.getInputStream()Ljava/io/InputStream;",
      "eventChain": [
        {
          "start": "org.apache.cordova.filetransfer.FileTransfer$4.\u003cinit\u003e(Lorg/apache/cordova/filetransfer/FileTransfer;Lorg/apache/cordova/filetransfer/FileTransfer$RequestContext;Lorg/apache/cordova/CordovaResourceApi;Landroid/net/Uri;Landroid/net/Uri;ZZZLorg/json/JSONObject;Ljava/lang/String;Ljava/lang/String;Ljava/lang/String;)V",
          "target": "PC@31",
          "type": "",
          "constraintsFile": "constraints10_0.py",
          "variables": {
            "\u003cInput6\u003e": "IAAv3"
          },
          "stringMap": {},
          "strings": {}
        },
        {
          "start": "org.apache.cordova.filetransfer.FileTransfer$4.run()V",
          "target": "invokevirtual \u003c Application, Ljava/net/HttpURLConnection, getInputStream()Ljava/io/InputStream; \u003e@511",
          "type": "",
          "constraintsFile": "constraints10_1.py",
          "variables": {},
          "stringMap": {},
          "strings": {}
        }
      ]
    },
    "11": {
      "startMethod": "org.apache.cordova.filetransfer.FileTransfer$4.run()V",
      "targetMethod": "java.net.URLConnection.getInputStream()Ljava/io/InputStream;",
      "eventChain": [
        {
          "start": "org.apache.cordova.filetransfer.FileTransfer$4.\u003cinit\u003e(Lorg/apache/cordova/filetransfer/FileTransfer;Lorg/apache/cordova/filetransfer/FileTransfer$RequestContext;Lorg/apache/cordova/CordovaResourceApi;Landroid/net/Uri;Landroid/net/Uri;ZZZLorg/json/JSONObject;Ljava/lang/String;Ljava/lang/String;Ljava/lang/String;)V",
          "target": "PC@31",
          "type": "",
          "constraintsFile": "constraints11_0.py",
          "variables": {
            "\u003cInput6\u003e": "IAAv11"
          },
          "stringMap": {
            "7000": "gzip"
          },
          "strings": {
            "IAAv4": "",
            "IAAv7": ""
          }
        },
        {
          "start": "org.apache.cordova.filetransfer.FileTransfer$4.\u003cinit\u003e(Lorg/apache/cordova/filetransfer/FileTransfer;Lorg/apache/cordova/filetransfer/FileTransfer$RequestContext;Lorg/apache/cordova/CordovaResourceApi;Landroid/net/Uri;Landroid/net/Uri;ZZZLorg/json/JSONObject;Ljava/lang/String;Ljava/lang/String;Ljava/lang/String;)V",
          "target": "PC@37",
          "type": "",
          "constraintsFile": "constraints11_1.py",
          "variables": {
            "\u003cInput7\u003e": "IAAv11"
          },
          "stringMap": {
            "7000": "gzip"
          },
          "strings": {
            "IAAv4": "",
            "IAAv7": ""
          }
        },
        {
          "start": "org.apache.cordova.filetransfer.FileTransfer$4.\u003cinit\u003e(Lorg/apache/cordova/filetransfer/FileTransfer;Lorg/apache/cordova/filetransfer/FileTransfer$RequestContext;Lorg/apache/cordova/CordovaResourceApi;Landroid/net/Uri;Landroid/net/Uri;ZZZLorg/json/JSONObject;Ljava/lang/String;Ljava/lang/String;Ljava/lang/String;)V",
          "target": "PC@49",
          "type": "",
          "constraintsFile": "constraints11_2.py",
          "variables": {
            "\u003cInput9\u003e": "IAAv11"
          },
          "stringMap": {
            "7000": "gzip"
          },
          "strings": {
            "IAAv4": "",
            "IAAv7": ""
          }
        },
        {
          "start": "org.apache.cordova.filetransfer.FileTransfer$4.\u003cinit\u003e(Lorg/apache/cordova/filetransfer/FileTransfer;Lorg/apache/cordova/filetransfer/FileTransfer$RequestContext;Lorg/apache/cordova/CordovaResourceApi;Landroid/net/Uri;Landroid/net/Uri;ZZZLorg/json/JSONObject;Ljava/lang/String;Ljava/lang/String;Ljava/lang/String;)V",
          "target": "PC@43",
          "type": "",
          "constraintsFile": "constraints11_3.py",
          "variables": {
            "\u003cInput8\u003e": "IAAv11"
          },
          "stringMap": {
            "7000": "gzip"
          },
          "strings": {
            "IAAv4": "",
            "IAAv7": ""
          }
        },
        {
          "start": "org.apache.cordova.filetransfer.FileTransfer$4.run()V",
          "target": "invokevirtual \u003c Application, Ljava/net/URLConnection, getInputStream()Ljava/io/InputStream; \u003e@56",
          "type": "",
          "constraintsFile": "constraints11_4.py",
          "variables": {},
          "stringMap": {
            "7000": "gzip"
          },
          "strings": {
            "IAAv4": "",
            "IAAv7": ""
          }
        }
      ]
    },
    "12": {
      "startMethod": "org.apache.cordova.filetransfer.FileTransfer$4.run()V",
      "targetMethod": "java.net.URLConnection.getInputStream()Ljava/io/InputStream;",
      "eventChain": [
        {
          "start": "org.apache.cordova.filetransfer.FileTransfer$4.\u003cinit\u003e(Lorg/apache/cordova/filetransfer/FileTransfer;Lorg/apache/cordova/filetransfer/FileTransfer$RequestContext;Lorg/apache/cordova/CordovaResourceApi;Landroid/net/Uri;Landroid/net/Uri;ZZZLorg/json/JSONObject;Ljava/lang/String;Ljava/lang/String;Ljava/lang/String;)V",
          "target": "PC@31",
          "type": "",
          "constraintsFile": "constraints12_0.py",
          "variables": {
            "\u003cInput6\u003e": "IAAv11"
          },
          "stringMap": {
            "7000": "gzip"
          },
          "strings": {
            "IAAv4": "",
            "IAAv7": ""
          }
        },
        {
          "start": "org.apache.cordova.filetransfer.FileTransfer$4.\u003cinit\u003e(Lorg/apache/cordova/filetransfer/FileTransfer;Lorg/apache/cordova/filetransfer/FileTransfer$RequestContext;Lorg/apache/cordova/CordovaResourceApi;Landroid/net/Uri;Landroid/net/Uri;ZZZLorg/json/JSONObject;Ljava/lang/String;Ljava/lang/String;Ljava/lang/String;)V",
          "target": "PC@37",
          "type": "",
          "constraintsFile": "constraints12_1.py",
          "variables": {
            "\u003cInput7\u003e": "IAAv11"
          },
          "stringMap": {
            "7000": "gzip"
          },
          "strings": {
            "IAAv4": "",
            "IAAv7": ""
          }
        },
        {
          "start": "org.apache.cordova.filetransfer.FileTransfer$4.\u003cinit\u003e(Lorg/apache/cordova/filetransfer/FileTransfer;Lorg/apache/cordova/filetransfer/FileTransfer$RequestContext;Lorg/apache/cordova/CordovaResourceApi;Landroid/net/Uri;Landroid/net/Uri;ZZZLorg/json/JSONObject;Ljava/lang/String;Ljava/lang/String;Ljava/lang/String;)V",
          "target": "PC@49",
          "type": "",
          "constraintsFile": "constraints12_2.py",
          "variables": {
            "\u003cInput9\u003e": "IAAv11"
          },
          "stringMap": {
            "7000": "gzip"
          },
          "strings": {
            "IAAv4": "",
            "IAAv7": ""
          }
        },
        {
          "start": "org.apache.cordova.filetransfer.FileTransfer$4.\u003cinit\u003e(Lorg/apache/cordova/filetransfer/FileTransfer;Lorg/apache/cordova/filetransfer/FileTransfer$RequestContext;Lorg/apache/cordova/CordovaResourceApi;Landroid/net/Uri;Landroid/net/Uri;ZZZLorg/json/JSONObject;Ljava/lang/String;Ljava/lang/String;Ljava/lang/String;)V",
          "target": "PC@43",
          "type": "",
          "constraintsFile": "constraints12_3.py",
          "variables": {
            "\u003cInput8\u003e": "IAAv11"
          },
          "stringMap": {
            "7000": "gzip"
          },
          "strings": {
            "IAAv4": "",
            "IAAv7": ""
          }
        },
        {
          "start": "org.apache.cordova.filetransfer.FileTransfer$4.run()V",
          "target": "invokevirtual \u003c Application, Ljava/net/URLConnection, getInputStream()Ljava/io/InputStream; \u003e@33",
          "type": "",
          "constraintsFile": "constraints12_4.py",
          "variables": {},
          "stringMap": {
            "7000": "gzip"
          },
          "strings": {
            "IAAv4": "",
            "IAAv7": ""
          }
        }
      ]
    },
    "13": {
      "startMethod": "org.apache.cordova.filetransfer.FileTransfer$4.run()V",
      "targetMethod": "java.net.URL.openConnection()Ljava/net/URLConnection;",
      "eventChain": [
        {
          "start": "org.apache.cordova.filetransfer.FileTransfer$4.\u003cinit\u003e(Lorg/apache/cordova/filetransfer/FileTransfer;Lorg/apache/cordova/filetransfer/FileTransfer$RequestContext;Lorg/apache/cordova/CordovaResourceApi;Landroid/net/Uri;Landroid/net/Uri;ZZZLorg/json/JSONObject;Ljava/lang/String;Ljava/lang/String;Ljava/lang/String;)V",
          "target": "PC@31",
          "type": "",
          "constraintsFile": "constraints13_0.py",
          "variables": {
            "\u003cInput6\u003e": "IAAv2"
          },
          "stringMap": {},
          "strings": {}
        },
        {
          "start": "org.apache.cordova.filetransfer.FileTransfer$4.run()V",
          "target": "invokevirtual \u003c Application, Ljava/net/URL, openConnection()Ljava/net/URLConnection; \u003e@20",
          "type": "",
          "constraintsFile": "constraints13_1.py",
          "variables": {},
          "stringMap": {},
          "strings": {}
        }
      ]
    },
    "14": {
      "startMethod": "org.apache.cordova.filetransfer.FileTransfer$4.run()V",
      "targetMethod": "java.lang.reflect.Method.invoke(Ljava/lang/Object;[Ljava/lang/Object;)Ljava/lang/Object;",
      "eventChain": [
        {
          "start": "org.apache.cordova.filetransfer.FileTransfer$4.\u003cinit\u003e(Lorg/apache/cordova/filetransfer/FileTransfer;Lorg/apache/cordova/filetransfer/FileTransfer$RequestContext;Lorg/apache/cordova/CordovaResourceApi;Landroid/net/Uri;Landroid/net/Uri;ZZZLorg/json/JSONObject;Ljava/lang/String;Ljava/lang/String;Ljava/lang/String;)V",
          "target": "PC@31",
          "type": "",
          "constraintsFile": "constraints14_0.py",
          "variables": {
            "\u003cInput6\u003e": "IAAv12"
          },
          "stringMap": {
            "7000": "gzip"
          },
          "strings": {
            "IAAv3": "",
            "IAAv6": ""
          }
        },
        {
          "start": "org.apache.cordova.filetransfer.FileTransfer$4.\u003cinit\u003e(Lorg/apache/cordova/filetransfer/FileTransfer;Lorg/apache/cordova/filetransfer/FileTransfer$RequestContext;Lorg/apache/cordova/CordovaResourceApi;Landroid/net/Uri;Landroid/net/Uri;ZZZLorg/json/JSONObject;Ljava/lang/String;Ljava/lang/String;Ljava/lang/String;)V",
          "target": "PC@37",
          "type": "",
          "constraintsFile": "constraints14_1.py",
          "variables": {
            "\u003cInput7\u003e": "IAAv12"
          },
          "stringMap": {
            "7000": "gzip"
          },
          "strings": {
            "IAAv3": "",
            "IAAv6": ""
          }
        },
        {
          "start": "org.apache.cordova.filetransfer.FileTransfer$4.\u003cinit\u003e(Lorg/apache/cordova/filetransfer/FileTransfer;Lorg/apache/cordova/filetransfer/FileTransfer$RequestContext;Lorg/apache/cordova/CordovaResourceApi;Landroid/net/Uri;Landroid/net/Uri;ZZZLorg/json/JSONObject;Ljava/lang/String;Ljava/lang/String;Ljava/lang/String;)V",
          "target": "PC@49",
          "type": "",
          "constraintsFile": "constraints14_2.py",
          "variables": {
            "\u003cInput9\u003e": "IAAv12"
          },
          "stringMap": {
            "7000": "gzip"
          },
          "strings": {
            "IAAv3": "",
            "IAAv6": ""
          }
        },
        {
          "start": "org.apache.cordova.filetransfer.FileTransfer$4.\u003cinit\u003e(Lorg/apache/cordova/filetransfer/FileTransfer;Lorg/apache/cordova/filetransfer/FileTransfer$RequestContext;Lorg/apache/cordova/CordovaResourceApi;Landroid/net/Uri;Landroid/net/Uri;ZZZLorg/json/JSONObject;Ljava/lang/String;Ljava/lang/String;Ljava/lang/String;)V",
          "target": "PC@43",
          "type": "",
          "constraintsFile": "constraints14_3.py",
          "variables": {
            "\u003cInput8\u003e": "IAAv12"
          },
          "stringMap": {
            "7000": "gzip"
          },
          "strings": {
            "IAAv3": "",
            "IAAv6": ""
          }
        },
        {
          "start": "org.apache.cordova.filetransfer.FileTransfer$4.run()V",
          "target": "invokevirtual \u003c Application, Ljava/lang/reflect/Method, invoke(Ljava/lang/Object;[Ljava/lang/Object;)Ljava/lang/Object; \u003e@1992",
          "type": "",
          "constraintsFile": "constraints14_4.py",
          "variables": {},
          "stringMap": {
            "7000": "gzip"
          },
          "strings": {
            "IAAv3": "",
            "IAAv6": ""
          }
        }
      ]
    },
    "15": {
      "startMethod": "org.apache.cordova.filetransfer.FileTransfer$4.run()V",
      "targetMethod": "java.net.HttpURLConnection.connect()V",
      "eventChain": [
        {
          "start": "org.apache.cordova.filetransfer.FileTransfer$4.\u003cinit\u003e(Lorg/apache/cordova/filetransfer/FileTransfer;Lorg/apache/cordova/filetransfer/FileTransfer$RequestContext;Lorg/apache/cordova/CordovaResourceApi;Landroid/net/Uri;Landroid/net/Uri;ZZZLorg/json/JSONObject;Ljava/lang/String;Ljava/lang/String;Ljava/lang/String;)V",
          "target": "PC@31",
          "type": "",
          "constraintsFile": "constraints15_0.py",
          "variables": {
            "\u003cInput6\u003e": "IAAv6"
          },
          "stringMap": {},
          "strings": {
            "IAAv4": ""
          }
        },
        {
          "start": "org.apache.cordova.filetransfer.FileTransfer$4.\u003cinit\u003e(Lorg/apache/cordova/filetransfer/FileTransfer;Lorg/apache/cordova/filetransfer/FileTransfer$RequestContext;Lorg/apache/cordova/CordovaResourceApi;Landroid/net/Uri;Landroid/net/Uri;ZZZLorg/json/JSONObject;Ljava/lang/String;Ljava/lang/String;Ljava/lang/String;)V",
          "target": "PC@37",
          "type": "",
          "constraintsFile": "constraints15_1.py",
          "variables": {
            "\u003cInput7\u003e": "IAAv6"
          },
          "stringMap": {},
          "strings": {
            "IAAv4": ""
          }
        },
        {
          "start": "org.apache.cordova.filetransfer.FileTransfer$4.\u003cinit\u003e(Lorg/apache/cordova/filetransfer/FileTransfer;Lorg/apache/cordova/filetransfer/FileTransfer$RequestContext;Lorg/apache/cordova/CordovaResourceApi;Landroid/net/Uri;Landroid/net/Uri;ZZZLorg/json/JSONObject;Ljava/lang/String;Ljava/lang/String;Ljava/lang/String;)V",
          "target": "PC@49",
          "type": "",
          "constraintsFile": "constraints15_2.py",
          "variables": {
            "\u003cInput9\u003e": "IAAv6"
          },
          "stringMap": {},
          "strings": {
            "IAAv4": ""
          }
        },
        {
          "start": "org.apache.cordova.filetransfer.FileTransfer$4.\u003cinit\u003e(Lorg/apache/cordova/filetransfer/FileTransfer;Lorg/apache/cordova/filetransfer/FileTransfer$RequestContext;Lorg/apache/cordova/CordovaResourceApi;Landroid/net/Uri;Landroid/net/Uri;ZZZLorg/json/JSONObject;Ljava/lang/String;Ljava/lang/String;Ljava/lang/String;)V",
          "target": "PC@43",
          "type": "",
          "constraintsFile": "constraints15_3.py",
          "variables": {
            "\u003cInput8\u003e": "IAAv6"
          },
          "stringMap": {},
          "strings": {
            "IAAv4": ""
          }
        },
        {
          "start": "org.apache.cordova.filetransfer.FileTransfer$4.run()V",
          "target": "invokevirtual \u003c Application, Ljava/net/HttpURLConnection, connect()V \u003e@896",
          "type": "",
          "constraintsFile": "constraints15_4.py",
          "variables": {},
          "stringMap": {},
          "strings": {
            "IAAv4": ""
          }
        }
      ]
    },
    "16": {
      "startMethod": "org.apache.cordova.filetransfer.FileTransfer$4.run()V",
      "targetMethod": "java.net.URL.openConnection()Ljava/net/URLConnection;",
      "eventChain": [
        {
          "start": "org.apache.cordova.filetransfer.FileTransfer$4.\u003cinit\u003e(Lorg/apache/cordova/filetransfer/FileTransfer;Lorg/apache/cordova/filetransfer/FileTransfer$RequestContext;Lorg/apache/cordova/CordovaResourceApi;Landroid/net/Uri;Landroid/net/Uri;ZZZLorg/json/JSONObject;Ljava/lang/String;Ljava/lang/String;Ljava/lang/String;)V",
          "target": "PC@31",
          "type": "",
          "constraintsFile": "constraints16_0.py",
          "variables": {
            "\u003cInput6\u003e": "IAAv3"
          },
          "stringMap": {},
          "strings": {}
        },
        {
          "start": "org.apache.cordova.filetransfer.FileTransfer$4.run()V",
          "target": "invokevirtual \u003c Application, Ljava/net/URL, openConnection()Ljava/net/URLConnection; \u003e@434",
          "type": "",
          "constraintsFile": "constraints16_1.py",
          "variables": {},
          "stringMap": {},
          "strings": {}
        }
      ]
    },
    "17": {
      "startMethod": "org.apache.cordova.inappbrowser.InAppBrowser$5.run()V",
      "targetMethod": "android.webkit.WebView.\u003cinit\u003e(Landroid/content/Context;)V",
      "eventChain": [
        {
          "start": "org.apache.cordova.inappbrowser.InAppBrowser$5.run()V",
          "target": "invokespecial \u003c Application, Landroid/webkit/WebView, \u003cinit\u003e(Landroid/content/Context;)V \u003e@1762",
          "type": "",
          "constraintsFile": "constraints17_0.py",
          "variables": {},
          "stringMap": {},
          "strings": {}
        }
      ]
    },
    "18": {
      "startMethod": "org.apache.cordova.CordovaActivity$2.run()V",
      "targetMethod": "java.net.URL.openConnection()Ljava/net/URLConnection;",
      "eventChain": [
        {
          "start": "org.apache.cordova.CordovaActivity$2.run()V",
          "target": "invokevirtual \u003c Application, Ljava/net/URL, openConnection()Ljava/net/URLConnection; \u003e@117",
          "type": "",
          "constraintsFile": "constraints18_0.py",
          "variables": {},
          "stringMap": {
            "7000": "file"
          },
          "strings": {
            "IAAv2": ""
          }
        }
      ]
    }
  }
}