{
  "packageName": "biz.nononnn.roknlnnnk",
  "mainActivity": "biz.nononnn.roknlnnnk.a92",
  "callPaths": {
    "0": {
      "startMethod": "biz.nononnn.roknlnnnk.ai.onReceive(Landroid/content/Context;Landroid/content/Intent;)V",
      "targetMethod": "java.lang.reflect.Method.invoke(Ljava/lang/Object;[Ljava/lang/Object;)Ljava/lang/Object;",
      "eventChain": [
        {
          "start": "biz.nononnn.roknlnnnk.ai.onReceive(Landroid/content/Context;Landroid/content/Intent;)V",
          "target": "invokevirtual \u003c Application, Ljava/lang/reflect/Method, invoke(Ljava/lang/Object;[Ljava/lang/Object;)Ljava/lang/Object; \u003e@128",
          "type": "sms",
          "constraintsFile": "constraints0_0.py",
          "variables": {
            "\u003cChainedInput2\u003e.getDataString()": "IAAv1"
          },
          "stringMap": {},
          "strings": {
            "IAAv1": "",
            "IAAv0": ""
          }
        }
      ]
    },
    "1": {
      "startMethod": "biz.nononnn.roknlnnnk.ai.onReceive(Landroid/content/Context;Landroid/content/Intent;)V",
      "targetMethod": "java.lang.reflect.Method.invoke(Ljava/lang/Object;[Ljava/lang/Object;)Ljava/lang/Object;",
      "eventChain": [
        {
          "start": "biz.nononnn.roknlnnnk.ai.onCancel(Landroid/content/DialogInterface;)V",
          "target": "",
          "type": "ui",
          "activities": [
            "biz.nononnn.roknlnnnk.a92"
          ],
          "listener": "biz.nononnn.roknlnnnk.ai",
          "listenerMethod": "onCancel",
          "uiType": "onCancel",
          "constraintsFile": "constraints1_0.py",
          "variables": {
            "\u003cChainedInput2\u003e.getDataString()": "IAAv1"
          },
          "stringMap": {
            "7000": ""
          },
          "strings": {
            "IAAv1": "",
            "IAAv0": ""
          }
        },
        {
          "start": "biz.nononnn.roknlnnnk.ai.onReceive(Landroid/content/Context;Landroid/content/Intent;)V",
          "target": "invokevirtual \u003c Application, Ljava/lang/reflect/Method, invoke(Ljava/lang/Object;[Ljava/lang/Object;)Ljava/lang/Object; \u003e@137",
          "type": "sms",
          "constraintsFile": "constraints1_1.py",
          "variables": {
            "\u003cChainedInput2\u003e.getDataString()": "IAAv1"
          },
          "stringMap": {},
          "strings": {
            "IAAv1": "",
            "IAAv0": ""
          }
        }
      ]
    },
    "2": {
      "startMethod": "biz.nononnn.roknlnnnk.ai.onCancel(Landroid/content/DialogInterface;)V",
      "targetMethod": "java.lang.reflect.Method.invoke(Ljava/lang/Object;[Ljava/lang/Object;)Ljava/lang/Object;",
      "eventChain": [
        {
          "start": "biz.nononnn.roknlnnnk.ai.onCancel(Landroid/content/DialogInterface;)V",
          "target": "invokevirtual \u003c Application, Ljava/lang/reflect/Method, invoke(Ljava/lang/Object;[Ljava/lang/Object;)Ljava/lang/Object; \u003e@137",
          "type": "ui",
          "activities": [
            "biz.nononnn.roknlnnnk.a92"
          ],
          "listener": "biz.nononnn.roknlnnnk.ai",
          "listenerMethod": "onCancel",
          "uiType": "onCancel",
          "constraintsFile": "constraints2_0.py",
          "variables": {},
          "stringMap": {},
          "strings": {
            "IAAv7": ""
          }
        }
      ]
    },
    "3": {
      "startMethod": "biz.nononnn.roknlnnnk.ai.onCancel(Landroid/content/DialogInterface;)V",
      "targetMethod": "java.lang.reflect.Method.invoke(Ljava/lang/Object;[Ljava/lang/Object;)Ljava/lang/Object;",
      "eventChain": [
        {
          "start": "biz.nononnn.roknlnnnk.ai.onCancel(Landroid/content/DialogInterface;)V",
          "target": "invokevirtual \u003c Application, Ljava/lang/reflect/Method, invoke(Ljava/lang/Object;[Ljava/lang/Object;)Ljava/lang/Object; \u003e@128",
          "type": "ui",
          "activities": [
            "biz.nononnn.roknlnnnk.a92"
          ],
          "listener": "biz.nononnn.roknlnnnk.ai",
          "listenerMethod": "onCancel",
          "uiType": "onCancel",
          "constraintsFile": "constraints3_0.py",
          "variables": {},
          "stringMap": {},
          "strings": {}
        }
      ]
    },
    "4": {
      "startMethod": "biz.nononnn.roknlnnnk.ai.onClick(Landroid/content/DialogInterface;I)V",
      "targetMethod": "java.lang.reflect.Method.invoke(Ljava/lang/Object;[Ljava/lang/Object;)Ljava/lang/Object;",
      "eventChain": [
        {
          "start": "biz.nononnn.roknlnnnk.ai.onClick(Landroid/content/DialogInterface;I)V",
          "target": "invokevirtual \u003c Application, Ljava/lang/reflect/Method, invoke(Ljava/lang/Object;[Ljava/lang/Object;)Ljava/lang/Object; \u003e@128",
          "type": "ui",
          "activities": [
            "biz.nononnn.roknlnnnk.a92"
          ],
          "listener": "biz.nononnn.roknlnnnk.ai",
          "listenerMethod": "onClick",
          "uiType": "onClick",
          "inDialog": "true",
          "constraintsFile": "constraints4_0.py",
          "variables": {},
          "stringMap": {},
          "strings": {}
        }
      ]
    },
    "5": {
      "startMethod": "biz.nononnn.roknlnnnk.ai.onClick(Landroid/content/DialogInterface;I)V",
      "targetMethod": "java.lang.reflect.Method.invoke(Ljava/lang/Object;[Ljava/lang/Object;)Ljava/lang/Object;",
      "eventChain": [
        {
          "start": "biz.nononnn.roknlnnnk.ai.onClick(Landroid/content/DialogInterface;I)V",
          "target": "invokevirtual \u003c Application, Ljava/lang/reflect/Method, invoke(Ljava/lang/Object;[Ljava/lang/Object;)Ljava/lang/Object; \u003e@137",
          "type": "ui",
          "activities": [
            "biz.nononnn.roknlnnnk.a92"
          ],
          "listener": "biz.nononnn.roknlnnnk.ai",
          "listenerMethod": "onClick",
          "uiType": "onClick",
          "inDialog": "true",
          "constraintsFile": "constraints5_0.py",
          "variables": {},
          "stringMap": {},
          "strings": {
            "IAAv7": ""
          }
        }
      ]
    }
  }
}