{
  "packageName": "com.flashlight_DKS",
  "mainActivity": "com.flashlight_DKS.MainActivity",
  "callPaths": {
    "0": {
      "startMethod": "com.google.android.gms.maps.MapFragment.onAttach(Landroid/app/Activity;)V",
      "targetMethod": "java.lang.ClassLoader.loadClass(Ljava/lang/String;)Ljava/lang/Class;",
      "eventChain": [
        {
          "start": "com.google.android.gms.maps.MapFragment.onDestroy()V",
          "target": "invokespecial \u003c Application, Landroid/app/Fragment, onDestroy()V \u003e@11",
          "type": ""
        },
        {
          "start": "com.google.android.gms.maps.MapFragment.onAttach(Landroid/app/Activity;)V",
          "target": "",
          "type": "",
          "constraintsFile": "constraints0_0.py",
          "variables": {},
          "stringMap": {},
          "strings": {}
        },
        {
          "start": "com.google.android.gms.maps.MapFragment.onAttach(Landroid/app/Activity;)V",
          "target": "invokevirtual \u003c Application, Ljava/lang/ClassLoader, loadClass(Ljava/lang/String;)Ljava/lang/Class; \u003e@13",
          "type": "",
          "constraintsFile": "constraints0_1.py",
          "variables": {},
          "stringMap": {},
          "strings": {}
        }
      ]
    },
    "1": {
      "startMethod": "com.flashlight_DKS.MainActivity.onStart()V",
      "targetMethod": "android.hardware.Camera.open()Landroid/hardware/Camera;",
      "eventChain": [
        {
          "start": "com.flashlight_DKS.MainActivity.onStart()V",
          "target": "invokestatic \u003c Application, Landroid/hardware/Camera, open()Landroid/hardware/Camera; \u003e@10",
          "type": "activity",
          "component": "com.flashlight_DKS.MainActivity"
        }
      ]
    },
    "2": {
      "startMethod": "com.flashlight_DKS.MainActivity.onPause()V",
      "targetMethod": "android.media.MediaPlayer.start()V",
      "eventChain": [
        {
          "start": "com.flashlight_DKS.MainActivity.onPause()V",
          "target": "invokevirtual \u003c Application, Landroid/media/MediaPlayer, start()V \u003e@50",
          "type": "activity",
          "component": "com.flashlight_DKS.MainActivity"
        }
      ]
    },
    "3": {
      "startMethod": "com.flashlight_DKS.MainActivity.onCreate(Landroid/os/Bundle;)V",
      "targetMethod": "android.hardware.Camera.open()Landroid/hardware/Camera;",
      "eventChain": [
        {
          "start": "com.flashlight_DKS.MainActivity.onCreate(Landroid/os/Bundle;)V",
          "target": "PC@492",
          "type": "activity",
          "component": "com.flashlight_DKS.MainActivity"
        },
        {
          "start": "com.flashlight_DKS.MainActivity.onStart()V",
          "target": "PC@16",
          "type": "activity",
          "component": "com.flashlight_DKS.MainActivity"
        },
        {
          "start": "com.flashlight_DKS.MainActivity.onCreate(Landroid/os/Bundle;)V",
          "target": "invokestatic \u003c Application, Landroid/hardware/Camera, open()Landroid/hardware/Camera; \u003e@10",
          "type": "activity",
          "component": "com.flashlight_DKS.MainActivity",
          "constraintsFile": "constraints3_0.py",
          "variables": {},
          "stringMap": {},
          "strings": {}
        }
      ]
    },
    "4": {
      "startMethod": "com.google.android.gms.maps.MapFragment.onCreateView(Landroid/view/LayoutInflater;Landroid/view/ViewGroup;Landroid/os/Bundle;)Landroid/view/View;",
      "targetMethod": "java.lang.ClassLoader.loadClass(Ljava/lang/String;)Ljava/lang/Class;",
      "eventChain": [
        {
          "start": "com.google.android.gms.maps.MapFragment.onDestroy()V",
          "target": "invokespecial \u003c Application, Landroid/app/Fragment, onDestroy()V \u003e@11",
          "type": ""
        },
        {
          "start": "com.google.android.gms.maps.MapFragment.onCreateView(Landroid/view/LayoutInflater;Landroid/view/ViewGroup;Landroid/os/Bundle;)Landroid/view/View;",
          "target": "invokevirtual \u003c Application, Ljava/lang/ClassLoader, loadClass(Ljava/lang/String;)Ljava/lang/Class; \u003e@13",
          "type": "",
          "constraintsFile": "constraints4_0.py",
          "variables": {
            "\u003cChainedInput3\u003e": "IAAv2"
          },
          "stringMap": {},
          "strings": {}
        }
      ]
    },
    "5": {
      "startMethod": "com.google.android.gms.maps.MapFragment.onResume()V",
      "targetMethod": "java.lang.ClassLoader.loadClass(Ljava/lang/String;)Ljava/lang/Class;",
      "eventChain": [
        {
          "start": "com.google.android.gms.maps.MapFragment.onDestroy()V",
          "target": "invokespecial \u003c Application, Landroid/app/Fragment, onDestroy()V \u003e@11",
          "type": ""
        },
        {
          "start": "com.google.android.gms.maps.MapFragment.onResume()V",
          "target": "invokevirtual \u003c Application, Ljava/lang/ClassLoader, loadClass(Ljava/lang/String;)Ljava/lang/Class; \u003e@13",
          "type": "",
          "constraintsFile": "constraints5_0.py",
          "variables": {},
          "stringMap": {},
          "strings": {}
        }
      ]
    },
    "6": {
      "startMethod": "com.flashlight_DKS.MainActivity.onResume()V",
      "targetMethod": "android.media.MediaPlayer.start()V",
      "eventChain": [
        {
          "start": "com.flashlight_DKS.MainActivity.onCreate(Landroid/os/Bundle;)V",
          "target": "PC@492",
          "type": "activity",
          "component": "com.flashlight_DKS.MainActivity"
        },
        {
          "start": "com.flashlight_DKS.MainActivity.onResume()V",
          "target": "invokevirtual \u003c Application, Landroid/media/MediaPlayer, start()V \u003e@50",
          "type": "activity",
          "component": "com.flashlight_DKS.MainActivity",
          "constraintsFile": "constraints6_0.py",
          "variables": {},
          "stringMap": {},
          "strings": {}
        }
      ]
    },
    "7": {
      "startMethod": "com.google.android.gms.maps.MapFragment.onCreate(Landroid/os/Bundle;)V",
      "targetMethod": "java.lang.ClassLoader.loadClass(Ljava/lang/String;)Ljava/lang/Class;",
      "eventChain": [
        {
          "start": "com.google.android.gms.maps.MapFragment.onDestroy()V",
          "target": "invokespecial \u003c Application, Landroid/app/Fragment, onDestroy()V \u003e@11",
          "type": ""
        },
        {
          "start": "com.google.android.gms.maps.MapFragment.onCreate(Landroid/os/Bundle;)V",
          "target": "invokevirtual \u003c Application, Ljava/lang/ClassLoader, loadClass(Ljava/lang/String;)Ljava/lang/Class; \u003e@13",
          "type": "",
          "constraintsFile": "constraints7_0.py",
          "variables": {
            "\u003cChainedInput1\u003e": "IAAv2"
          },
          "stringMap": {},
          "strings": {}
        }
      ]
    },
    "8": {
      "startMethod": "com.flashlight_DKS.MainActivity$5.onCompletion(Landroid/media/MediaPlayer;)V",
      "targetMethod": "android.media.MediaPlayer.release()V",
      "eventChain": [
        {
          "start": "com.flashlight_DKS.MainActivity$5.onCompletion(Landroid/media/MediaPlayer;)V",
          "target": "invokevirtual \u003c Application, Landroid/media/MediaPlayer, release()V \u003e@2",
          "type": ""
        }
      ]
    },
    "9": {
      "startMethod": "com.google.android.gms.maps.MapFragment.onInflate(Landroid/app/Activity;Landroid/util/AttributeSet;Landroid/os/Bundle;)V",
      "targetMethod": "java.lang.ClassLoader.loadClass(Ljava/lang/String;)Ljava/lang/Class;",
      "eventChain": [
        {
          "start": "com.google.android.gms.maps.MapFragment.onDestroy()V",
          "target": "invokespecial \u003c Application, Landroid/app/Fragment, onDestroy()V \u003e@11",
          "type": ""
        },
        {
          "start": "com.google.android.gms.maps.MapFragment.onAttach(Landroid/app/Activity;)V",
          "target": "",
          "type": "",
          "constraintsFile": "constraints9_0.py",
          "variables": {},
          "stringMap": {},
          "strings": {}
        },
        {
          "start": "com.google.android.gms.maps.MapFragment.onInflate(Landroid/app/Activity;Landroid/util/AttributeSet;Landroid/os/Bundle;)V",
          "target": "invokevirtual \u003c Application, Ljava/lang/ClassLoader, loadClass(Ljava/lang/String;)Ljava/lang/Class; \u003e@13",
          "type": "",
          "constraintsFile": "constraints9_1.py",
          "variables": {},
          "stringMap": {},
          "strings": {}
        }
      ]
    },
    "10": {
      "startMethod": "com.flashlight_DKS.MainActivity$4.onClick(Landroid/view/View;)V",
      "targetMethod": "android.media.MediaPlayer.start()V",
      "eventChain": [
        {
          "start": "com.flashlight_DKS.MainActivity$4.onClick(Landroid/view/View;)V",
          "target": "invokevirtual \u003c Application, Landroid/media/MediaPlayer, start()V \u003e@50",
          "type": "ui",
          "activities": [
            "com.flashlight_DKS.MainActivity"
          ],
          "listener": "com.flashlight_DKS.MainActivity$4",
          "listenerMethod": "onClick",
          "uiType": "onClick",
          "constraintsFile": "constraints10_0.py",
          "variables": {},
          "stringMap": {},
          "strings": {}
        }
      ]
    },
    "11": {
      "startMethod": "com.google.android.gms.ads.AdActivity.onCreate(Landroid/os/Bundle;)V",
      "targetMethod": "java.lang.ClassLoader.loadClass(Ljava/lang/String;)Ljava/lang/Class;",
      "eventChain": [
        {
          "start": "com.google.android.gms.ads.AdActivity.onCreate(Landroid/os/Bundle;)V",
          "target": "invokevirtual \u003c Application, Ljava/lang/ClassLoader, loadClass(Ljava/lang/String;)Ljava/lang/Class; \u003e@50",
          "type": "activity",
          "component": "com.google.android.gms.ads.AdActivity"
        }
      ]
    },
    "12": {
      "startMethod": "com.google.android.gms.ads.AdActivity.onCreate(Landroid/os/Bundle;)V",
      "targetMethod": "android.webkit.WebView.\u003cinit\u003e(Landroid/content/Context;)V",
      "eventChain": [
        {
          "start": "com.google.android.gms.ads.AdActivity.onCreate(Landroid/os/Bundle;)V",
          "target": "PC@13",
          "type": "activity",
          "component": "com.google.android.gms.ads.AdActivity"
        },
        {
          "start": "com.google.android.gms.ads.AdActivity.onCreate(Landroid/os/Bundle;)V",
          "target": "invokespecial \u003c Application, Landroid/webkit/WebView, \u003cinit\u003e(Landroid/content/Context;)V \u003e@13",
          "type": "activity",
          "component": "com.google.android.gms.ads.AdActivity",
          "constraintsFile": "constraints12_0.py",
          "variables": {},
          "stringMap": {},
          "strings": {}
        }
      ]
    },
    "13": {
      "startMethod": "com.google.android.gms.ads.AdActivity.onCreate(Landroid/os/Bundle;)V",
      "targetMethod": "android.webkit.WebView.\u003cinit\u003e(Landroid/content/Context;)V",
      "eventChain": [
        {
          "start": "com.google.android.gms.ads.AdActivity.onCreate(Landroid/os/Bundle;)V",
          "target": "PC@13",
          "type": "activity",
          "component": "com.google.android.gms.ads.AdActivity"
        },
        {
          "start": "com.google.android.gms.ads.AdActivity.onCreate(Landroid/os/Bundle;)V",
          "target": "invokespecial \u003c Application, Landroid/webkit/WebView, \u003cinit\u003e(Landroid/content/Context;)V \u003e@7",
          "type": "activity",
          "component": "com.google.android.gms.ads.AdActivity",
          "constraintsFile": "constraints13_0.py",
          "variables": {},
          "stringMap": {},
          "strings": {
            "IAAv3": ""
          }
        }
      ]
    },
    "14": {
      "startMethod": "com.google.android.gms.ads.AdActivity.onPause()V",
      "targetMethod": "android.widget.VideoView.pause()V",
      "eventChain": [
        {
          "start": "com.google.android.gms.ads.AdActivity.onCreate(Landroid/os/Bundle;)V",
          "target": "PC@13",
          "type": "activity",
          "component": "com.google.android.gms.ads.AdActivity"
        },
        {
          "start": "com.google.android.gms.ads.AdActivity.onPause()V",
          "target": "invokevirtual \u003c Application, Landroid/widget/VideoView, pause()V \u003e@7",
          "type": "activity",
          "component": "com.google.android.gms.ads.AdActivity",
          "constraintsFile": "constraints14_0.py",
          "variables": {},
          "stringMap": {},
          "strings": {}
        }
      ]
    },
    "15": {
      "startMethod": "com.google.android.gms.ads.AdActivity.onDestroy()V",
      "targetMethod": "android.widget.VideoView.stopPlayback()V",
      "eventChain": [
        {
          "start": "com.google.android.gms.ads.AdActivity.onCreate(Landroid/os/Bundle;)V",
          "target": "PC@13",
          "type": "activity",
          "component": "com.google.android.gms.ads.AdActivity"
        },
        {
          "start": "com.google.android.gms.ads.AdActivity.onDestroy()V",
          "target": "invokevirtual \u003c Application, Landroid/widget/VideoView, stopPlayback()V \u003e@16",
          "type": "activity",
          "component": "com.google.android.gms.ads.AdActivity",
          "constraintsFile": "constraints15_0.py",
          "variables": {},
          "stringMap": {},
          "strings": {}
        }
      ]
    },
    "16": {
      "startMethod": "com.flashlight_DKS.MainActivity.onStopTrackingTouch(Landroid/widget/SeekBar;)V",
      "targetMethod": "android.media.MediaPlayer.start()V",
      "eventChain": [
        {
          "start": "com.flashlight_DKS.MainActivity.onStopTrackingTouch(Landroid/widget/SeekBar;)V",
          "target": "invokevirtual \u003c Application, Landroid/media/MediaPlayer, start()V \u003e@50",
          "type": "ui",
          "activities": [
            "com.flashlight_DKS.MainActivity"
          ],
          "listener": "com.flashlight_DKS.MainActivity",
          "listenerMethod": "onStopTrackingTouch",
          "uiType": "onStopTrackingTouch",
          "constraintsFile": "constraints16_0.py",
          "variables": {},
          "stringMap": {},
          "strings": {}
        }
      ]
    },
    "17": {
      "startMethod": "com.google.android.gms.internal.cx.shouldOverrideUrlLoading(Landroid/webkit/WebView;Ljava/lang/String;)Z",
      "targetMethod": "android.widget.VideoView.start()V",
      "eventChain": [
        {
          "start": "com.google.android.gms.internal.cx.shouldOverrideUrlLoading(Landroid/webkit/WebView;Ljava/lang/String;)Z",
          "target": "invokespecial \u003c Application, Landroid/webkit/WebViewClient, shouldOverrideUrlLoading(Landroid/webkit/WebView;Ljava/lang/String;)Z \u003e@138",
          "type": "",
          "constraintsFile": "constraints17_0.py",
          "variables": {
            "\u003cChainedInput1\u003e": "IAAv5",
            "\u003cChainedInput2\u003e.parse().getHost()": "IAAv2",
            "\u003cChainedInput2\u003e.parse().getScheme()": "IAAv0",
            "\u003cChainedInput2\u003e.parse().b()": "IAAv7"
          },
          "stringMap": {
            "7000": "gmsg",
            "7001": "mobileads.google.com"
          },
          "strings": {
            "IAAv2": "",
            "IAAv0": ""
          }
        },
        {
          "start": "com.google.android.gms.internal.cx.shouldOverrideUrlLoading(Landroid/webkit/WebView;Ljava/lang/String;)Z",
          "target": "invokevirtual \u003c Application, Landroid/widget/VideoView, start()V \u003e@7",
          "type": "",
          "constraintsFile": "constraints17_1.py",
          "variables": {
            "\u003cChainedInput2\u003e.parse().getHost()": "IAAv2",
            "\u003cChainedInput2\u003e.parse().getScheme()": "IAAv0"
          },
          "stringMap": {
            "7000": "gmsg",
            "7001": "mobileads.google.com"
          },
          "strings": {
            "IAAv2": "",
            "IAAv0": ""
          }
        }
      ]
    },
    "18": {
      "startMethod": "com.google.android.gms.internal.cx.shouldOverrideUrlLoading(Landroid/webkit/WebView;Ljava/lang/String;)Z",
      "targetMethod": "android.widget.VideoView.pause()V",
      "eventChain": [
        {
          "start": "com.google.android.gms.internal.cx.shouldOverrideUrlLoading(Landroid/webkit/WebView;Ljava/lang/String;)Z",
          "target": "invokespecial \u003c Application, Landroid/webkit/WebViewClient, shouldOverrideUrlLoading(Landroid/webkit/WebView;Ljava/lang/String;)Z \u003e@138",
          "type": "",
          "constraintsFile": "constraints18_0.py",
          "variables": {
            "\u003cChainedInput1\u003e": "IAAv5",
            "\u003cChainedInput2\u003e.parse().getHost()": "IAAv2",
            "\u003cChainedInput2\u003e.parse().getScheme()": "IAAv0",
            "\u003cChainedInput2\u003e.parse().b()": "IAAv7"
          },
          "stringMap": {
            "7000": "gmsg",
            "7001": "mobileads.google.com"
          },
          "strings": {
            "IAAv2": "",
            "IAAv0": ""
          }
        },
        {
          "start": "com.google.android.gms.internal.cx.shouldOverrideUrlLoading(Landroid/webkit/WebView;Ljava/lang/String;)Z",
          "target": "invokevirtual \u003c Application, Landroid/widget/VideoView, pause()V \u003e@7",
          "type": "",
          "constraintsFile": "constraints18_1.py",
          "variables": {
            "\u003cChainedInput2\u003e.parse().getHost()": "IAAv2",
            "\u003cChainedInput2\u003e.parse().getScheme()": "IAAv0"
          },
          "stringMap": {
            "7000": "gmsg",
            "7001": "mobileads.google.com"
          },
          "strings": {
            "IAAv2": "",
            "IAAv0": ""
          }
        }
      ]
    },
    "19": {
      "startMethod": "com.google.android.gms.internal.cx.shouldOverrideUrlLoading(Landroid/webkit/WebView;Ljava/lang/String;)Z",
      "targetMethod": "android.widget.VideoView.setVideoPath(Ljava/lang/String;)V",
      "eventChain": [
        {
          "start": "com.google.android.gms.internal.cx.shouldOverrideUrlLoading(Landroid/webkit/WebView;Ljava/lang/String;)Z",
          "target": "invokespecial \u003c Application, Landroid/webkit/WebViewClient, shouldOverrideUrlLoading(Landroid/webkit/WebView;Ljava/lang/String;)Z \u003e@138",
          "type": "",
          "constraintsFile": "constraints19_0.py",
          "variables": {
            "\u003cChainedInput1\u003e": "IAAv5",
            "\u003cChainedInput2\u003e.parse().getHost()": "IAAv2",
            "\u003cChainedInput2\u003e.parse().getScheme()": "IAAv0",
            "\u003cChainedInput2\u003e.parse().b()": "IAAv7"
          },
          "stringMap": {
            "7000": "gmsg",
            "7001": "mobileads.google.com"
          },
          "strings": {
            "IAAv2": "",
            "IAAv0": ""
          }
        },
        {
          "start": "com.google.android.gms.internal.cx.shouldOverrideUrlLoading(Landroid/webkit/WebView;Ljava/lang/String;)Z",
          "target": "invokevirtual \u003c Application, Landroid/widget/VideoView, setVideoPath(Ljava/lang/String;)V \u003e@27",
          "type": "",
          "constraintsFile": "constraints19_1.py",
          "variables": {
            "\u003cChainedInput2\u003e.parse().getHost()": "IAAv2",
            "\u003cChainedInput2\u003e.parse().getScheme()": "IAAv0"
          },
          "stringMap": {
            "7000": "gmsg",
            "7001": "mobileads.google.com"
          },
          "strings": {
            "IAAv2": "",
            "IAAv0": ""
          }
        }
      ]
    },
    "20": {
      "startMethod": "com.google.android.gms.internal.cz.shouldInterceptRequest(Landroid/webkit/WebView;Ljava/lang/String;)Landroid/webkit/WebResourceResponse;",
      "targetMethod": "java.net.URL.openConnection()Ljava/net/URLConnection;",
      "eventChain": [
        {
          "start": "com.google.android.gms.internal.cz.shouldInterceptRequest(Landroid/webkit/WebView;Ljava/lang/String;)Landroid/webkit/WebResourceResponse;",
          "target": "invokespecial \u003c Application, Lcom/google/android/gms/internal/cx, shouldInterceptRequest(Landroid/webkit/WebView;Ljava/lang/String;)Landroid/webkit/WebResourceResponse; \u003e@40",
          "type": ""
        },
        {
          "start": "com.google.android.gms.internal.cz.shouldInterceptRequest(Landroid/webkit/WebView;Ljava/lang/String;)Landroid/webkit/WebResourceResponse;",
          "target": "invokevirtual \u003c Application, Ljava/net/URL, openConnection()Ljava/net/URLConnection; \u003e@11",
          "type": "",
          "constraintsFile": "constraints20_0.py",
          "variables": {
            "\u003cInput1\u003e.y().eG": "IAAv0"
          },
          "stringMap": {},
          "strings": {}
        }
      ]
    },
    "21": {
      "startMethod": "com.google.android.gms.internal.cz.shouldInterceptRequest(Landroid/webkit/WebView;Ljava/lang/String;)Landroid/webkit/WebResourceResponse;",
      "targetMethod": "java.net.HttpURLConnection.getInputStream()Ljava/io/InputStream;",
      "eventChain": [
        {
          "start": "com.google.android.gms.internal.cz.shouldInterceptRequest(Landroid/webkit/WebView;Ljava/lang/String;)Landroid/webkit/WebResourceResponse;",
          "target": "invokespecial \u003c Application, Lcom/google/android/gms/internal/cx, shouldInterceptRequest(Landroid/webkit/WebView;Ljava/lang/String;)Landroid/webkit/WebResourceResponse; \u003e@40",
          "type": ""
        },
        {
          "start": "com.google.android.gms.internal.cz.shouldInterceptRequest(Landroid/webkit/WebView;Ljava/lang/String;)Landroid/webkit/WebResourceResponse;",
          "target": "invokevirtual \u003c Application, Ljava/net/HttpURLConnection, getInputStream()Ljava/io/InputStream; \u003e@41",
          "type": "",
          "constraintsFile": "constraints21_0.py",
          "variables": {
            "\u003cInput1\u003e.y().eG": "IAAv0"
          },
          "stringMap": {},
          "strings": {}
        }
      ]
    },
    "22": {
      "startMethod": "com.google.android.gms.internal.cz.shouldInterceptRequest(Landroid/webkit/WebView;Ljava/lang/String;)Landroid/webkit/WebResourceResponse;",
      "targetMethod": "android.webkit.WebView.\u003cinit\u003e(Landroid/content/Context;)V",
      "eventChain": [
        {
          "start": "com.google.android.gms.internal.cz.shouldInterceptRequest(Landroid/webkit/WebView;Ljava/lang/String;)Landroid/webkit/WebResourceResponse;",
          "target": "invokespecial \u003c Application, Lcom/google/android/gms/internal/cx, shouldInterceptRequest(Landroid/webkit/WebView;Ljava/lang/String;)Landroid/webkit/WebResourceResponse; \u003e@40",
          "type": ""
        },
        {
          "start": "com.google.android.gms.internal.cz.shouldInterceptRequest(Landroid/webkit/WebView;Ljava/lang/String;)Landroid/webkit/WebResourceResponse;",
          "target": "invokespecial \u003c Application, Landroid/webkit/WebView, \u003cinit\u003e(Landroid/content/Context;)V \u003e@7",
          "type": "",
          "constraintsFile": "constraints22_0.py",
          "variables": {
            "\u003cInput1\u003e.aC().Y().SDK_INT": "IAAv2",
            "\u003cInput1\u003e.y().eG": "IAAv0",
            "\u003cInput1\u003e.aC().Y().iE": "IAAv1"
          },
          "stringMap": {},
          "strings": {
            "IAAv1": ""
          }
        }
      ]
    },
    "23": {
      "startMethod": "com.google.android.gms.internal.cz.shouldInterceptRequest(Landroid/webkit/WebView;Ljava/lang/String;)Landroid/webkit/WebResourceResponse;",
      "targetMethod": "java.net.HttpURLConnection.connect()V",
      "eventChain": [
        {
          "start": "com.google.android.gms.internal.cz.shouldInterceptRequest(Landroid/webkit/WebView;Ljava/lang/String;)Landroid/webkit/WebResourceResponse;",
          "target": "invokespecial \u003c Application, Lcom/google/android/gms/internal/cx, shouldInterceptRequest(Landroid/webkit/WebView;Ljava/lang/String;)Landroid/webkit/WebResourceResponse; \u003e@40",
          "type": ""
        },
        {
          "start": "com.google.android.gms.internal.cz.shouldInterceptRequest(Landroid/webkit/WebView;Ljava/lang/String;)Landroid/webkit/WebResourceResponse;",
          "target": "invokevirtual \u003c Application, Ljava/net/HttpURLConnection, connect()V \u003e@32",
          "type": "",
          "constraintsFile": "constraints23_0.py",
          "variables": {
            "\u003cInput1\u003e.y().eG": "IAAv0"
          },
          "stringMap": {},
          "strings": {}
        }
      ]
    },
    "24": {
      "startMethod": "com.google.android.gms.common.images.b.createFromParcel(Landroid/os/Parcel;)Ljava/lang/Object;",
      "targetMethod": "java.lang.ClassLoader.loadClass(Ljava/lang/String;)Ljava/lang/Class;",
      "eventChain": [
        {
          "start": "com.google.android.gms.common.images.b.createFromParcel(Landroid/os/Parcel;)Ljava/lang/Object;",
          "target": "invokevirtual \u003c Application, Ljava/lang/ClassLoader, loadClass(Ljava/lang/String;)Ljava/lang/Class; \u003e@15",
          "type": "",
          "constraintsFile": "constraints24_0.py",
          "variables": {
            "\u003cInput1\u003e.m().M()": "IAAv0",
            "\u003cInput1\u003e.a(\u003cInput1\u003e.m())": "IAAv1"
          },
          "stringMap": {},
          "strings": {}
        }
      ]
    },
    "25": {
      "startMethod": "com.google.android.gms.drive.internal.e.createFromParcel(Landroid/os/Parcel;)Ljava/lang/Object;",
      "targetMethod": "java.lang.ClassLoader.loadClass(Ljava/lang/String;)Ljava/lang/Class;",
      "eventChain": [
        {
          "start": "com.google.android.gms.drive.internal.e.createFromParcel(Landroid/os/Parcel;)Ljava/lang/Object;",
          "target": "invokevirtual \u003c Application, Ljava/lang/ClassLoader, loadClass(Ljava/lang/String;)Ljava/lang/Class; \u003e@15",
          "type": "",
          "constraintsFile": "constraints25_0.py",
          "variables": {
            "\u003cInput1\u003e.m().M()": "IAAv0",
            "\u003cInput1\u003e.a(\u003cInput1\u003e.m())": "IAAv1"
          },
          "stringMap": {},
          "strings": {}
        }
      ]
    },
    "26": {
      "startMethod": "com.google.android.gms.internal.ca.createFromParcel(Landroid/os/Parcel;)Ljava/lang/Object;",
      "targetMethod": "java.lang.ClassLoader.loadClass(Ljava/lang/String;)Ljava/lang/Class;",
      "eventChain": [
        {
          "start": "com.google.android.gms.internal.ca.createFromParcel(Landroid/os/Parcel;)Ljava/lang/Object;",
          "target": "invokevirtual \u003c Application, Ljava/lang/ClassLoader, loadClass(Ljava/lang/String;)Ljava/lang/Class; \u003e@15",
          "type": "",
          "constraintsFile": "constraints26_0.py",
          "variables": {
            "\u003cInput1\u003e.m().M()": "IAAv0",
            "\u003cInput1\u003e.a(\u003cInput1\u003e.m())": "IAAv1"
          },
          "stringMap": {},
          "strings": {}
        }
      ]
    },
    "27": {
      "startMethod": "com.google.android.gms.drive.internal.aa.createFromParcel(Landroid/os/Parcel;)Ljava/lang/Object;",
      "targetMethod": "java.lang.ClassLoader.loadClass(Ljava/lang/String;)Ljava/lang/Class;",
      "eventChain": [
        {
          "start": "com.google.android.gms.drive.internal.aa.createFromParcel(Landroid/os/Parcel;)Ljava/lang/Object;",
          "target": "invokevirtual \u003c Application, Ljava/lang/ClassLoader, loadClass(Ljava/lang/String;)Ljava/lang/Class; \u003e@15",
          "type": "",
          "constraintsFile": "constraints27_0.py",
          "variables": {
            "\u003cInput1\u003e.m().M()": "IAAv0",
            "\u003cInput1\u003e.a(\u003cInput1\u003e.m())": "IAAv1"
          },
          "stringMap": {},
          "strings": {}
        }
      ]
    },
    "28": {
      "startMethod": "com.google.android.gms.maps.model.CircleOptionsCreator.createFromParcel(Landroid/os/Parcel;)Ljava/lang/Object;",
      "targetMethod": "java.lang.ClassLoader.loadClass(Ljava/lang/String;)Ljava/lang/Class;",
      "eventChain": [
        {
          "start": "com.google.android.gms.maps.model.CircleOptionsCreator.createFromParcel(Landroid/os/Parcel;)Ljava/lang/Object;",
          "target": "invokevirtual \u003c Application, Ljava/lang/ClassLoader, loadClass(Ljava/lang/String;)Ljava/lang/Class; \u003e@15",
          "type": "",
          "constraintsFile": "constraints28_0.py",
          "variables": {
            "\u003cInput1\u003e.m().M()": "IAAv0",
            "\u003cInput1\u003e.a(\u003cInput1\u003e.m())": "IAAv1"
          },
          "stringMap": {},
          "strings": {}
        }
      ]
    },
    "29": {
      "startMethod": "com.google.android.gms.drive.internal.u.createFromParcel(Landroid/os/Parcel;)Ljava/lang/Object;",
      "targetMethod": "java.lang.ClassLoader.loadClass(Ljava/lang/String;)Ljava/lang/Class;",
      "eventChain": [
        {
          "start": "com.google.android.gms.drive.internal.u.createFromParcel(Landroid/os/Parcel;)Ljava/lang/Object;",
          "target": "invokevirtual \u003c Application, Ljava/lang/ClassLoader, loadClass(Ljava/lang/String;)Ljava/lang/Class; \u003e@15",
          "type": "",
          "constraintsFile": "constraints29_0.py",
          "variables": {
            "\u003cInput1\u003e.m().M()": "IAAv0",
            "\u003cInput1\u003e.a(\u003cInput1\u003e.m())": "IAAv1"
          },
          "stringMap": {},
          "strings": {}
        }
      ]
    },
    "30": {
      "startMethod": "com.google.android.gms.cast.a.createFromParcel(Landroid/os/Parcel;)Ljava/lang/Object;",
      "targetMethod": "java.lang.ClassLoader.loadClass(Ljava/lang/String;)Ljava/lang/Class;",
      "eventChain": [
        {
          "start": "com.google.android.gms.cast.a.createFromParcel(Landroid/os/Parcel;)Ljava/lang/Object;",
          "target": "invokevirtual \u003c Application, Ljava/lang/ClassLoader, loadClass(Ljava/lang/String;)Ljava/lang/Class; \u003e@15",
          "type": "",
          "constraintsFile": "constraints30_0.py",
          "variables": {
            "\u003cInput1\u003e.m().M()": "IAAv0",
            "\u003cInput1\u003e.a(\u003cInput1\u003e.m())": "IAAv1"
          },
          "stringMap": {},
          "strings": {}
        }
      ]
    },
    "31": {
      "startMethod": "com.google.android.gms.wallet.e.createFromParcel(Landroid/os/Parcel;)Ljava/lang/Object;",
      "targetMethod": "java.lang.ClassLoader.loadClass(Ljava/lang/String;)Ljava/lang/Class;",
      "eventChain": [
        {
          "start": "com.google.android.gms.wallet.e.createFromParcel(Landroid/os/Parcel;)Ljava/lang/Object;",
          "target": "invokevirtual \u003c Application, Ljava/lang/ClassLoader, loadClass(Ljava/lang/String;)Ljava/lang/Class; \u003e@15",
          "type": "",
          "constraintsFile": "constraints31_0.py",
          "variables": {
            "\u003cInput1\u003e.m().M()": "IAAv0",
            "\u003cInput1\u003e.a(\u003cInput1\u003e.m())": "IAAv1"
          },
          "stringMap": {},
          "strings": {}
        }
      ]
    },
    "32": {
      "startMethod": "com.google.android.gms.drive.internal.x.createFromParcel(Landroid/os/Parcel;)Ljava/lang/Object;",
      "targetMethod": "java.lang.ClassLoader.loadClass(Ljava/lang/String;)Ljava/lang/Class;",
      "eventChain": [
        {
          "start": "com.google.android.gms.drive.internal.x.createFromParcel(Landroid/os/Parcel;)Ljava/lang/Object;",
          "target": "invokevirtual \u003c Application, Ljava/lang/ClassLoader, loadClass(Ljava/lang/String;)Ljava/lang/Class; \u003e@15",
          "type": "",
          "constraintsFile": "constraints32_0.py",
          "variables": {
            "\u003cInput1\u003e.m().M()": "IAAv0",
            "\u003cInput1\u003e.a(\u003cInput1\u003e.m())": "IAAv1"
          },
          "stringMap": {},
          "strings": {}
        }
      ]
    },
    "33": {
      "startMethod": "com.google.android.gms.games.multiplayer.c.createFromParcel(Landroid/os/Parcel;)Ljava/lang/Object;",
      "targetMethod": "java.lang.ClassLoader.loadClass(Ljava/lang/String;)Ljava/lang/Class;",
      "eventChain": [
        {
          "start": "com.google.android.gms.games.multiplayer.c.createFromParcel(Landroid/os/Parcel;)Ljava/lang/Object;",
          "target": "invokevirtual \u003c Application, Ljava/lang/ClassLoader, loadClass(Ljava/lang/String;)Ljava/lang/Class; \u003e@15",
          "type": "",
          "constraintsFile": "constraints33_0.py",
          "variables": {
            "\u003cInput1\u003e.m().M()": "IAAv0",
            "\u003cInput1\u003e.a(\u003cInput1\u003e.m())": "IAAv1"
          },
          "stringMap": {},
          "strings": {}
        }
      ]
    },
    "34": {
      "startMethod": "com.google.android.gms.internal.ez.createFromParcel(Landroid/os/Parcel;)Ljava/lang/Object;",
      "targetMethod": "java.lang.ClassLoader.loadClass(Ljava/lang/String;)Ljava/lang/Class;",
      "eventChain": [
        {
          "start": "com.google.android.gms.internal.ez.createFromParcel(Landroid/os/Parcel;)Ljava/lang/Object;",
          "target": "invokevirtual \u003c Application, Ljava/lang/ClassLoader, loadClass(Ljava/lang/String;)Ljava/lang/Class; \u003e@15",
          "type": "",
          "constraintsFile": "constraints34_0.py",
          "variables": {
            "\u003cInput1\u003e.m().M()": "IAAv0",
            "\u003cInput1\u003e.a(\u003cInput1\u003e.m())": "IAAv1"
          },
          "stringMap": {},
          "strings": {}
        }
      ]
    },
    "35": {
      "startMethod": "com.google.android.gms.common.api.StatusCreator.createFromParcel(Landroid/os/Parcel;)Ljava/lang/Object;",
      "targetMethod": "java.lang.ClassLoader.loadClass(Ljava/lang/String;)Ljava/lang/Class;",
      "eventChain": [
        {
          "start": "com.google.android.gms.common.api.StatusCreator.createFromParcel(Landroid/os/Parcel;)Ljava/lang/Object;",
          "target": "invokevirtual \u003c Application, Ljava/lang/ClassLoader, loadClass(Ljava/lang/String;)Ljava/lang/Class; \u003e@15",
          "type": "",
          "constraintsFile": "constraints35_0.py",
          "variables": {
            "\u003cInput1\u003e.m().M()": "IAAv0",
            "\u003cInput1\u003e.a(\u003cInput1\u003e.m())": "IAAv1"
          },
          "stringMap": {},
          "strings": {}
        }
      ]
    },
    "36": {
      "startMethod": "com.google.android.gms.games.c.createFromParcel(Landroid/os/Parcel;)Ljava/lang/Object;",
      "targetMethod": "java.lang.ClassLoader.loadClass(Ljava/lang/String;)Ljava/lang/Class;",
      "eventChain": [
        {
          "start": "com.google.android.gms.games.c.createFromParcel(Landroid/os/Parcel;)Ljava/lang/Object;",
          "target": "invokevirtual \u003c Application, Ljava/lang/ClassLoader, loadClass(Ljava/lang/String;)Ljava/lang/Class; \u003e@15",
          "type": "",
          "constraintsFile": "constraints36_0.py",
          "variables": {
            "\u003cInput1\u003e.m().M()": "IAAv0",
            "\u003cInput1\u003e.a(\u003cInput1\u003e.m())": "IAAv1"
          },
          "stringMap": {},
          "strings": {}
        }
      ]
    },
    "37": {
      "startMethod": "com.google.android.gms.internal.eu.createFromParcel(Landroid/os/Parcel;)Ljava/lang/Object;",
      "targetMethod": "java.lang.ClassLoader.loadClass(Ljava/lang/String;)Ljava/lang/Class;",
      "eventChain": [
        {
          "start": "com.google.android.gms.internal.eu.createFromParcel(Landroid/os/Parcel;)Ljava/lang/Object;",
          "target": "invokevirtual \u003c Application, Ljava/lang/ClassLoader, loadClass(Ljava/lang/String;)Ljava/lang/Class; \u003e@15",
          "type": "",
          "constraintsFile": "constraints37_0.py",
          "variables": {
            "\u003cInput1\u003e.m().M()": "IAAv0",
            "\u003cInput1\u003e.a(\u003cInput1\u003e.m())": "IAAv1"
          },
          "stringMap": {},
          "strings": {}
        }
      ]
    },
    "38": {
      "startMethod": "com.google.android.gms.games.multiplayer.turnbased.TurnBasedMatchEntityCreator.createFromParcel(Landroid/os/Parcel;)Ljava/lang/Object;",
      "targetMethod": "java.lang.ClassLoader.loadClass(Ljava/lang/String;)Ljava/lang/Class;",
      "eventChain": [
        {
          "start": "com.google.android.gms.games.multiplayer.turnbased.TurnBasedMatchEntityCreator.createFromParcel(Landroid/os/Parcel;)Ljava/lang/Object;",
          "target": "invokevirtual \u003c Application, Ljava/lang/ClassLoader, loadClass(Ljava/lang/String;)Ljava/lang/Class; \u003e@15",
          "type": "",
          "constraintsFile": "constraints38_0.py",
          "variables": {
            "\u003cInput1\u003e.m().M()": "IAAv0",
            "\u003cInput1\u003e.a(\u003cInput1\u003e.m())": "IAAv1"
          },
          "stringMap": {},
          "strings": {}
        }
      ]
    },
    "39": {
      "startMethod": "com.google.android.gms.games.multiplayer.realtime.RoomEntity$a.createFromParcel(Landroid/os/Parcel;)Ljava/lang/Object;",
      "targetMethod": "java.lang.ClassLoader.loadClass(Ljava/lang/String;)Ljava/lang/Class;",
      "eventChain": [
        {
          "start": "com.google.android.gms.games.multiplayer.realtime.RoomEntity$a.createFromParcel(Landroid/os/Parcel;)Ljava/lang/Object;",
          "target": "invokevirtual \u003c Application, Ljava/lang/ClassLoader, loadClass(Ljava/lang/String;)Ljava/lang/Class; \u003e@15",
          "type": "",
          "constraintsFile": "constraints39_0.py",
          "variables": {
            "\u003cInput1\u003e.readString()": "IAAv0",
            "\u003cInput1\u003e.m().M()": "IAAv2",
            "\u003cInput1\u003e.readInt()": "IAAv1",
            "\u003cInput1\u003e.a(\u003cInput1\u003e.m())": "IAAv3"
          },
          "stringMap": {},
          "strings": {
            "IAAv0": ""
          }
        }
      ]
    },
    "40": {
      "startMethod": "com.google.android.gms.drive.internal.f.createFromParcel(Landroid/os/Parcel;)Ljava/lang/Object;",
      "targetMethod": "java.lang.ClassLoader.loadClass(Ljava/lang/String;)Ljava/lang/Class;",
      "eventChain": [
        {
          "start": "com.google.android.gms.drive.internal.f.createFromParcel(Landroid/os/Parcel;)Ljava/lang/Object;",
          "target": "invokevirtual \u003c Application, Ljava/lang/ClassLoader, loadClass(Ljava/lang/String;)Ljava/lang/Class; \u003e@15",
          "type": "",
          "constraintsFile": "constraints40_0.py",
          "variables": {
            "\u003cInput1\u003e.m().M()": "IAAv0",
            "\u003cInput1\u003e.a(\u003cInput1\u003e.m())": "IAAv1"
          },
          "stringMap": {},
          "strings": {}
        }
      ]
    },
    "41": {
      "startMethod": "com.google.android.gms.wallet.h.createFromParcel(Landroid/os/Parcel;)Ljava/lang/Object;",
      "targetMethod": "java.lang.ClassLoader.loadClass(Ljava/lang/String;)Ljava/lang/Class;",
      "eventChain": [
        {
          "start": "com.google.android.gms.wallet.h.createFromParcel(Landroid/os/Parcel;)Ljava/lang/Object;",
          "target": "invokevirtual \u003c Application, Ljava/lang/ClassLoader, loadClass(Ljava/lang/String;)Ljava/lang/Class; \u003e@15",
          "type": "",
          "constraintsFile": "constraints41_0.py",
          "variables": {
            "\u003cInput1\u003e.m().M()": "IAAv0",
            "\u003cInput1\u003e.a(\u003cInput1\u003e.m())": "IAAv1"
          },
          "stringMap": {},
          "strings": {}
        }
      ]
    },
    "42": {
      "startMethod": "com.google.android.gms.maps.model.MarkerOptionsCreator.createFromParcel(Landroid/os/Parcel;)Ljava/lang/Object;",
      "targetMethod": "java.lang.ClassLoader.loadClass(Ljava/lang/String;)Ljava/lang/Class;",
      "eventChain": [
        {
          "start": "com.google.android.gms.maps.model.MarkerOptionsCreator.createFromParcel(Landroid/os/Parcel;)Ljava/lang/Object;",
          "target": "invokevirtual \u003c Application, Ljava/lang/ClassLoader, loadClass(Ljava/lang/String;)Ljava/lang/Class; \u003e@15",
          "type": "",
          "constraintsFile": "constraints42_0.py",
          "variables": {
            "\u003cInput1\u003e.m().M()": "IAAv0",
            "\u003cInput1\u003e.a(\u003cInput1\u003e.m())": "IAAv1"
          },
          "stringMap": {},
          "strings": {}
        }
      ]
    },
    "43": {
      "startMethod": "com.google.android.gms.internal.bl.createFromParcel(Landroid/os/Parcel;)Ljava/lang/Object;",
      "targetMethod": "java.lang.ClassLoader.loadClass(Ljava/lang/String;)Ljava/lang/Class;",
      "eventChain": [
        {
          "start": "com.google.android.gms.internal.bl.createFromParcel(Landroid/os/Parcel;)Ljava/lang/Object;",
          "target": "invokevirtual \u003c Application, Ljava/lang/ClassLoader, loadClass(Ljava/lang/String;)Ljava/lang/Class; \u003e@15",
          "type": "",
          "constraintsFile": "constraints43_0.py",
          "variables": {
            "\u003cInput1\u003e.m().M()": "IAAv0",
            "\u003cInput1\u003e.a(\u003cInput1\u003e.m())": "IAAv1"
          },
          "stringMap": {},
          "strings": {}
        }
      ]
    },
    "44": {
      "startMethod": "com.google.android.gms.drive.internal.n.createFromParcel(Landroid/os/Parcel;)Ljava/lang/Object;",
      "targetMethod": "java.lang.ClassLoader.loadClass(Ljava/lang/String;)Ljava/lang/Class;",
      "eventChain": [
        {
          "start": "com.google.android.gms.drive.internal.n.createFromParcel(Landroid/os/Parcel;)Ljava/lang/Object;",
          "target": "invokevirtual \u003c Application, Ljava/lang/ClassLoader, loadClass(Ljava/lang/String;)Ljava/lang/Class; \u003e@15",
          "type": "",
          "constraintsFile": "constraints44_0.py",
          "variables": {
            "\u003cInput1\u003e.m().M()": "IAAv0",
            "\u003cInput1\u003e.a(\u003cInput1\u003e.m())": "IAAv1"
          },
          "stringMap": {},
          "strings": {}
        }
      ]
    },
    "45": {
      "startMethod": "com.google.android.gms.drive.internal.v.createFromParcel(Landroid/os/Parcel;)Ljava/lang/Object;",
      "targetMethod": "java.lang.ClassLoader.loadClass(Ljava/lang/String;)Ljava/lang/Class;",
      "eventChain": [
        {
          "start": "com.google.android.gms.drive.internal.v.createFromParcel(Landroid/os/Parcel;)Ljava/lang/Object;",
          "target": "invokevirtual \u003c Application, Ljava/lang/ClassLoader, loadClass(Ljava/lang/String;)Ljava/lang/Class; \u003e@15",
          "type": "",
          "constraintsFile": "constraints45_0.py",
          "variables": {
            "\u003cInput1\u003e.m().M()": "IAAv0",
            "\u003cInput1\u003e.a(\u003cInput1\u003e.m())": "IAAv1"
          },
          "stringMap": {},
          "strings": {}
        }
      ]
    },
    "46": {
      "startMethod": "com.google.android.gms.games.multiplayer.a.createFromParcel(Landroid/os/Parcel;)Ljava/lang/Object;",
      "targetMethod": "java.lang.ClassLoader.loadClass(Ljava/lang/String;)Ljava/lang/Class;",
      "eventChain": [
        {
          "start": "com.google.android.gms.games.multiplayer.a.createFromParcel(Landroid/os/Parcel;)Ljava/lang/Object;",
          "target": "invokevirtual \u003c Application, Ljava/lang/ClassLoader, loadClass(Ljava/lang/String;)Ljava/lang/Class; \u003e@15",
          "type": "",
          "constraintsFile": "constraints46_0.py",
          "variables": {
            "\u003cInput1\u003e.m().M()": "IAAv0",
            "\u003cInput1\u003e.a(\u003cInput1\u003e.m())": "IAAv1"
          },
          "stringMap": {},
          "strings": {}
        }
      ]
    },
    "47": {
      "startMethod": "com.google.android.gms.location.g.createFromParcel(Landroid/os/Parcel;)Ljava/lang/Object;",
      "targetMethod": "java.lang.ClassLoader.loadClass(Ljava/lang/String;)Ljava/lang/Class;",
      "eventChain": [
        {
          "start": "com.google.android.gms.location.g.createFromParcel(Landroid/os/Parcel;)Ljava/lang/Object;",
          "target": "invokevirtual \u003c Application, Ljava/lang/ClassLoader, loadClass(Ljava/lang/String;)Ljava/lang/Class; \u003e@15",
          "type": "",
          "constraintsFile": "constraints47_0.py",
          "variables": {
            "\u003cInput1\u003e.m().M()": "IAAv0",
            "\u003cInput1\u003e.a(\u003cInput1\u003e.m())": "IAAv1"
          },
          "stringMap": {},
          "strings": {}
        }
      ]
    },
    "48": {
      "startMethod": "com.google.android.gms.games.a.createFromParcel(Landroid/os/Parcel;)Ljava/lang/Object;",
      "targetMethod": "java.lang.ClassLoader.loadClass(Ljava/lang/String;)Ljava/lang/Class;",
      "eventChain": [
        {
          "start": "com.google.android.gms.games.a.createFromParcel(Landroid/os/Parcel;)Ljava/lang/Object;",
          "target": "invokevirtual \u003c Application, Ljava/lang/ClassLoader, loadClass(Ljava/lang/String;)Ljava/lang/Class; \u003e@15",
          "type": "",
          "constraintsFile": "constraints48_0.py",
          "variables": {
            "\u003cInput1\u003e.m().M()": "IAAv0",
            "\u003cInput1\u003e.a(\u003cInput1\u003e.m())": "IAAv1"
          },
          "stringMap": {},
          "strings": {}
        }
      ]
    },
    "49": {
      "startMethod": "com.google.android.gms.internal.ie.createFromParcel(Landroid/os/Parcel;)Ljava/lang/Object;",
      "targetMethod": "java.lang.ClassLoader.loadClass(Ljava/lang/String;)Ljava/lang/Class;",
      "eventChain": [
        {
          "start": "com.google.android.gms.internal.ie.createFromParcel(Landroid/os/Parcel;)Ljava/lang/Object;",
          "target": "invokevirtual \u003c Application, Ljava/lang/ClassLoader, loadClass(Ljava/lang/String;)Ljava/lang/Class; \u003e@15",
          "type": "",
          "constraintsFile": "constraints49_0.py",
          "variables": {
            "\u003cInput1\u003e.m().M()": "IAAv0",
            "\u003cInput1\u003e.a(\u003cInput1\u003e.m())": "IAAv1"
          },
          "stringMap": {},
          "strings": {}
        }
      ]
    },
    "50": {
      "startMethod": "com.google.android.gms.drive.internal.d.createFromParcel(Landroid/os/Parcel;)Ljava/lang/Object;",
      "targetMethod": "java.lang.ClassLoader.loadClass(Ljava/lang/String;)Ljava/lang/Class;",
      "eventChain": [
        {
          "start": "com.google.android.gms.drive.internal.d.createFromParcel(Landroid/os/Parcel;)Ljava/lang/Object;",
          "target": "invokevirtual \u003c Application, Ljava/lang/ClassLoader, loadClass(Ljava/lang/String;)Ljava/lang/Class; \u003e@15",
          "type": "",
          "constraintsFile": "constraints50_0.py",
          "variables": {
            "\u003cInput1\u003e.m().M()": "IAAv0",
            "\u003cInput1\u003e.a(\u003cInput1\u003e.m())": "IAAv1"
          },
          "stringMap": {},
          "strings": {}
        }
      ]
    },
    "51": {
      "startMethod": "com.google.android.gms.drive.internal.y.createFromParcel(Landroid/os/Parcel;)Ljava/lang/Object;",
      "targetMethod": "java.lang.ClassLoader.loadClass(Ljava/lang/String;)Ljava/lang/Class;",
      "eventChain": [
        {
          "start": "com.google.android.gms.drive.internal.y.createFromParcel(Landroid/os/Parcel;)Ljava/lang/Object;",
          "target": "invokevirtual \u003c Application, Ljava/lang/ClassLoader, loadClass(Ljava/lang/String;)Ljava/lang/Class; \u003e@15",
          "type": "",
          "constraintsFile": "constraints51_0.py",
          "variables": {
            "\u003cInput1\u003e.m().M()": "IAAv0",
            "\u003cInput1\u003e.a(\u003cInput1\u003e.m())": "IAAv1"
          },
          "stringMap": {},
          "strings": {}
        }
      ]
    },
    "52": {
      "startMethod": "com.google.android.gms.location.b.createFromParcel(Landroid/os/Parcel;)Ljava/lang/Object;",
      "targetMethod": "java.lang.ClassLoader.loadClass(Ljava/lang/String;)Ljava/lang/Class;",
      "eventChain": [
        {
          "start": "com.google.android.gms.location.b.createFromParcel(Landroid/os/Parcel;)Ljava/lang/Object;",
          "target": "invokevirtual \u003c Application, Ljava/lang/ClassLoader, loadClass(Ljava/lang/String;)Ljava/lang/Class; \u003e@15",
          "type": "",
          "constraintsFile": "constraints52_0.py",
          "variables": {
            "\u003cInput1\u003e.m().M()": "IAAv0",
            "\u003cInput1\u003e.a(\u003cInput1\u003e.m())": "IAAv1"
          },
          "stringMap": {},
          "strings": {}
        }
      ]
    },
    "53": {
      "startMethod": "com.google.android.gms.drive.internal.t.createFromParcel(Landroid/os/Parcel;)Ljava/lang/Object;",
      "targetMethod": "java.lang.ClassLoader.loadClass(Ljava/lang/String;)Ljava/lang/Class;",
      "eventChain": [
        {
          "start": "com.google.android.gms.drive.internal.t.createFromParcel(Landroid/os/Parcel;)Ljava/lang/Object;",
          "target": "invokevirtual \u003c Application, Ljava/lang/ClassLoader, loadClass(Ljava/lang/String;)Ljava/lang/Class; \u003e@15",
          "type": "",
          "constraintsFile": "constraints53_0.py",
          "variables": {
            "\u003cInput1\u003e.m().M()": "IAAv0",
            "\u003cInput1\u003e.a(\u003cInput1\u003e.m())": "IAAv1"
          },
          "stringMap": {},
          "strings": {}
        }
      ]
    },
    "54": {
      "startMethod": "com.google.android.gms.internal.ih.createFromParcel(Landroid/os/Parcel;)Ljava/lang/Object;",
      "targetMethod": "java.lang.ClassLoader.loadClass(Ljava/lang/String;)Ljava/lang/Class;",
      "eventChain": [
        {
          "start": "com.google.android.gms.internal.ih.createFromParcel(Landroid/os/Parcel;)Ljava/lang/Object;",
          "target": "invokevirtual \u003c Application, Ljava/lang/ClassLoader, loadClass(Ljava/lang/String;)Ljava/lang/Class; \u003e@15",
          "type": "",
          "constraintsFile": "constraints54_0.py",
          "variables": {
            "\u003cInput1\u003e.m().M()": "IAAv0",
            "\u003cInput1\u003e.a(\u003cInput1\u003e.m())": "IAAv1"
          },
          "stringMap": {},
          "strings": {}
        }
      ]
    },
    "55": {
      "startMethod": "com.google.android.gms.wallet.i.createFromParcel(Landroid/os/Parcel;)Ljava/lang/Object;",
      "targetMethod": "java.lang.ClassLoader.loadClass(Ljava/lang/String;)Ljava/lang/Class;",
      "eventChain": [
        {
          "start": "com.google.android.gms.wallet.i.createFromParcel(Landroid/os/Parcel;)Ljava/lang/Object;",
          "target": "invokevirtual \u003c Application, Ljava/lang/ClassLoader, loadClass(Ljava/lang/String;)Ljava/lang/Class; \u003e@15",
          "type": "",
          "constraintsFile": "constraints55_0.py",
          "variables": {
            "\u003cInput1\u003e.m().M()": "IAAv0",
            "\u003cInput1\u003e.a(\u003cInput1\u003e.m())": "IAAv1"
          },
          "stringMap": {},
          "strings": {}
        }
      ]
    },
    "56": {
      "startMethod": "com.google.android.gms.internal.he.createFromParcel(Landroid/os/Parcel;)Ljava/lang/Object;",
      "targetMethod": "java.lang.ClassLoader.loadClass(Ljava/lang/String;)Ljava/lang/Class;",
      "eventChain": [
        {
          "start": "com.google.android.gms.internal.he.createFromParcel(Landroid/os/Parcel;)Ljava/lang/Object;",
          "target": "invokevirtual \u003c Application, Ljava/lang/ClassLoader, loadClass(Ljava/lang/String;)Ljava/lang/Class; \u003e@15",
          "type": "",
          "constraintsFile": "constraints56_0.py",
          "variables": {
            "\u003cInput1\u003e.m().M()": "IAAv0",
            "\u003cInput1\u003e.a(\u003cInput1\u003e.m())": "IAAv1"
          },
          "stringMap": {},
          "strings": {}
        }
      ]
    },
    "57": {
      "startMethod": "com.google.android.gms.games.multiplayer.InvitationEntity$a.createFromParcel(Landroid/os/Parcel;)Ljava/lang/Object;",
      "targetMethod": "java.lang.ClassLoader.loadClass(Ljava/lang/String;)Ljava/lang/Class;",
      "eventChain": [
        {
          "start": "com.google.android.gms.games.multiplayer.InvitationEntity$a.createFromParcel(Landroid/os/Parcel;)Ljava/lang/Object;",
          "target": "invokevirtual \u003c Application, Ljava/lang/ClassLoader, loadClass(Ljava/lang/String;)Ljava/lang/Class; \u003e@15",
          "type": "",
          "constraintsFile": "constraints57_0.py",
          "variables": {
            "\u003cInput1\u003e.m().M()": "IAAv0",
            "\u003cInput1\u003e.a(\u003cInput1\u003e.m())": "IAAv1"
          },
          "stringMap": {},
          "strings": {}
        }
      ]
    },
    "58": {
      "startMethod": "com.google.android.gms.internal.gw.createFromParcel(Landroid/os/Parcel;)Ljava/lang/Object;",
      "targetMethod": "java.lang.ClassLoader.loadClass(Ljava/lang/String;)Ljava/lang/Class;",
      "eventChain": [
        {
          "start": "com.google.android.gms.internal.gw.createFromParcel(Landroid/os/Parcel;)Ljava/lang/Object;",
          "target": "invokevirtual \u003c Application, Ljava/lang/ClassLoader, loadClass(Ljava/lang/String;)Ljava/lang/Class; \u003e@15",
          "type": "",
          "constraintsFile": "constraints58_0.py",
          "variables": {
            "\u003cInput1\u003e.m().M()": "IAAv0",
            "\u003cInput1\u003e.a(\u003cInput1\u003e.m())": "IAAv1"
          },
          "stringMap": {},
          "strings": {}
        }
      ]
    },
    "59": {
      "startMethod": "com.google.android.gms.maps.model.VisibleRegionCreator.createFromParcel(Landroid/os/Parcel;)Ljava/lang/Object;",
      "targetMethod": "java.lang.ClassLoader.loadClass(Ljava/lang/String;)Ljava/lang/Class;",
      "eventChain": [
        {
          "start": "com.google.android.gms.maps.model.VisibleRegionCreator.createFromParcel(Landroid/os/Parcel;)Ljava/lang/Object;",
          "target": "invokevirtual \u003c Application, Ljava/lang/ClassLoader, loadClass(Ljava/lang/String;)Ljava/lang/Class; \u003e@15",
          "type": "",
          "constraintsFile": "constraints59_0.py",
          "variables": {
            "\u003cInput1\u003e.m().M()": "IAAv0",
            "\u003cInput1\u003e.a(\u003cInput1\u003e.m())": "IAAv1"
          },
          "stringMap": {},
          "strings": {}
        }
      ]
    },
    "60": {
      "startMethod": "com.google.android.gms.drive.internal.b.createFromParcel(Landroid/os/Parcel;)Ljava/lang/Object;",
      "targetMethod": "java.lang.ClassLoader.loadClass(Ljava/lang/String;)Ljava/lang/Class;",
      "eventChain": [
        {
          "start": "com.google.android.gms.drive.internal.b.createFromParcel(Landroid/os/Parcel;)Ljava/lang/Object;",
          "target": "invokevirtual \u003c Application, Ljava/lang/ClassLoader, loadClass(Ljava/lang/String;)Ljava/lang/Class; \u003e@15",
          "type": "",
          "constraintsFile": "constraints60_0.py",
          "variables": {
            "\u003cInput1\u003e.m().M()": "IAAv0",
            "\u003cInput1\u003e.a(\u003cInput1\u003e.m())": "IAAv1"
          },
          "stringMap": {},
          "strings": {}
        }
      ]
    },
    "61": {
      "startMethod": "com.google.android.gms.wallet.d.createFromParcel(Landroid/os/Parcel;)Ljava/lang/Object;",
      "targetMethod": "java.lang.ClassLoader.loadClass(Ljava/lang/String;)Ljava/lang/Class;",
      "eventChain": [
        {
          "start": "com.google.android.gms.wallet.d.createFromParcel(Landroid/os/Parcel;)Ljava/lang/Object;",
          "target": "invokevirtual \u003c Application, Ljava/lang/ClassLoader, loadClass(Ljava/lang/String;)Ljava/lang/Class; \u003e@15",
          "type": "",
          "constraintsFile": "constraints61_0.py",
          "variables": {
            "\u003cInput1\u003e.m().M()": "IAAv0",
            "\u003cInput1\u003e.a(\u003cInput1\u003e.m())": "IAAv1"
          },
          "stringMap": {},
          "strings": {}
        }
      ]
    },
    "62": {
      "startMethod": "com.google.android.gms.drive.internal.w.createFromParcel(Landroid/os/Parcel;)Ljava/lang/Object;",
      "targetMethod": "java.lang.ClassLoader.loadClass(Ljava/lang/String;)Ljava/lang/Class;",
      "eventChain": [
        {
          "start": "com.google.android.gms.drive.internal.w.createFromParcel(Landroid/os/Parcel;)Ljava/lang/Object;",
          "target": "invokevirtual \u003c Application, Ljava/lang/ClassLoader, loadClass(Ljava/lang/String;)Ljava/lang/Class; \u003e@15",
          "type": "",
          "constraintsFile": "constraints62_0.py",
          "variables": {
            "\u003cInput1\u003e.m().M()": "IAAv0",
            "\u003cInput1\u003e.a(\u003cInput1\u003e.m())": "IAAv1"
          },
          "stringMap": {},
          "strings": {}
        }
      ]
    },
    "63": {
      "startMethod": "com.google.android.gms.maps.GoogleMapOptionsCreator.createFromParcel(Landroid/os/Parcel;)Ljava/lang/Object;",
      "targetMethod": "java.lang.ClassLoader.loadClass(Ljava/lang/String;)Ljava/lang/Class;",
      "eventChain": [
        {
          "start": "com.google.android.gms.maps.GoogleMapOptionsCreator.createFromParcel(Landroid/os/Parcel;)Ljava/lang/Object;",
          "target": "invokevirtual \u003c Application, Ljava/lang/ClassLoader, loadClass(Ljava/lang/String;)Ljava/lang/Class; \u003e@15",
          "type": "",
          "constraintsFile": "constraints63_0.py",
          "variables": {
            "\u003cInput1\u003e.m().M()": "IAAv0",
            "\u003cInput1\u003e.a(\u003cInput1\u003e.m())": "IAAv1"
          },
          "stringMap": {},
          "strings": {}
        }
      ]
    },
    "64": {
      "startMethod": "com.google.android.gms.maps.model.GroundOverlayOptionsCreator.createFromParcel(Landroid/os/Parcel;)Ljava/lang/Object;",
      "targetMethod": "java.lang.ClassLoader.loadClass(Ljava/lang/String;)Ljava/lang/Class;",
      "eventChain": [
        {
          "start": "com.google.android.gms.maps.model.GroundOverlayOptionsCreator.createFromParcel(Landroid/os/Parcel;)Ljava/lang/Object;",
          "target": "invokevirtual \u003c Application, Ljava/lang/ClassLoader, loadClass(Ljava/lang/String;)Ljava/lang/Class; \u003e@15",
          "type": "",
          "constraintsFile": "constraints64_0.py",
          "variables": {
            "\u003cInput1\u003e.m().M()": "IAAv0",
            "\u003cInput1\u003e.a(\u003cInput1\u003e.m())": "IAAv1"
          },
          "stringMap": {},
          "strings": {}
        }
      ]
    },
    "65": {
      "startMethod": "com.google.android.gms.drive.internal.r.createFromParcel(Landroid/os/Parcel;)Ljava/lang/Object;",
      "targetMethod": "java.lang.ClassLoader.loadClass(Ljava/lang/String;)Ljava/lang/Class;",
      "eventChain": [
        {
          "start": "com.google.android.gms.drive.internal.r.createFromParcel(Landroid/os/Parcel;)Ljava/lang/Object;",
          "target": "invokevirtual \u003c Application, Ljava/lang/ClassLoader, loadClass(Ljava/lang/String;)Ljava/lang/Class; \u003e@15",
          "type": "",
          "constraintsFile": "constraints65_0.py",
          "variables": {
            "\u003cInput1\u003e.m().M()": "IAAv0",
            "\u003cInput1\u003e.a(\u003cInput1\u003e.m())": "IAAv1"
          },
          "stringMap": {},
          "strings": {}
        }
      ]
    },
    "66": {
      "startMethod": "com.google.android.gms.internal.s$1.run()V",
      "targetMethod": "android.webkit.WebView.\u003cinit\u003e(Landroid/content/Context;)V",
      "eventChain": [
        {
          "start": "com.google.android.gms.internal.s$1.run()V",
          "target": "invokespecial \u003c Application, Landroid/webkit/WebView, \u003cinit\u003e(Landroid/content/Context;)V \u003e@7",
          "type": "",
          "constraintsFile": "constraints66_0.py",
          "variables": {},
          "stringMap": {},
          "strings": {
            "IAAv6": ""
          }
        }
      ]
    },
    "67": {
      "startMethod": "com.google.android.gms.internal.s$1.run()V",
      "targetMethod": "android.webkit.WebView.\u003cinit\u003e(Landroid/content/Context;)V",
      "eventChain": [
        {
          "start": "com.google.android.gms.internal.s$1.run()V",
          "target": "invokespecial \u003c Application, Landroid/webkit/WebView, \u003cinit\u003e(Landroid/content/Context;)V \u003e@13",
          "type": "",
          "constraintsFile": "constraints67_0.py",
          "variables": {},
          "stringMap": {},
          "strings": {}
        }
      ]
    },
    "68": {
      "startMethod": "com.google.android.gms.internal.cm$1.run()V",
      "targetMethod": "android.webkit.WebView.\u003cinit\u003e(Landroid/content/Context;)V",
      "eventChain": [
        {
          "start": "com.google.android.gms.internal.cm$1.run()V",
          "target": "PC@260",
          "type": "",
          "constraintsFile": "constraints68_0.py",
          "variables": {},
          "stringMap": {},
          "strings": {}
        },
        {
          "start": "com.google.android.gms.internal.cm$1.run()V",
          "target": "invokespecial \u003c Application, Landroid/webkit/WebView, \u003cinit\u003e(Landroid/content/Context;)V \u003e@13",
          "type": "",
          "constraintsFile": "constraints68_1.py",
          "variables": {},
          "stringMap": {},
          "strings": {}
        }
      ]
    },
    "69": {
      "startMethod": "com.google.android.gms.internal.cm$1.run()V",
      "targetMethod": "java.net.URL.openConnection()Ljava/net/URLConnection;",
      "eventChain": [
        {
          "start": "com.google.android.gms.internal.cm$1.run()V",
          "target": "invokevirtual \u003c Application, Ljava/net/URL, openConnection()Ljava/net/URLConnection; \u003e@53",
          "type": ""
        }
      ]
    },
    "70": {
      "startMethod": "com.google.android.gms.internal.cm$1.run()V",
      "targetMethod": "java.net.HttpURLConnection.getInputStream()Ljava/io/InputStream;",
      "eventChain": [
        {
          "start": "com.google.android.gms.internal.cm$1.run()V",
          "target": "PC@260",
          "type": "",
          "constraintsFile": "constraints70_0.py",
          "variables": {},
          "stringMap": {},
          "strings": {}
        },
        {
          "start": "com.google.android.gms.internal.cm$1.run()V",
          "target": "invokevirtual \u003c Application, Ljava/net/HttpURLConnection, getInputStream()Ljava/io/InputStream; \u003e@102",
          "type": "",
          "constraintsFile": "constraints70_1.py",
          "variables": {},
          "stringMap": {},
          "strings": {}
        }
      ]
    },
    "71": {
      "startMethod": "com.google.android.gms.internal.cm$1.run()V",
      "targetMethod": "android.webkit.WebView.\u003cinit\u003e(Landroid/content/Context;)V",
      "eventChain": [
        {
          "start": "com.google.android.gms.internal.cm$1.run()V",
          "target": "invokespecial \u003c Application, Landroid/webkit/WebView, \u003cinit\u003e(Landroid/content/Context;)V \u003e@7",
          "type": "",
          "constraintsFile": "constraints71_0.py",
          "variables": {},
          "stringMap": {},
          "strings": {
            "IAAv0": ""
          }
        }
      ]
    },
    "72": {
      "startMethod": "com.google.android.gms.internal.cm$1.run()V",
      "targetMethod": "android.net.ConnectivityManager.getActiveNetworkInfo()Landroid/net/NetworkInfo;",
      "eventChain": [
        {
          "start": "com.google.android.gms.internal.cm$1.run()V",
          "target": "invokevirtual \u003c Application, Landroid/net/ConnectivityManager, getActiveNetworkInfo()Landroid/net/NetworkInfo; \u003e@30",
          "type": "",
          "constraintsFile": "constraints72_0.py",
          "variables": {},
          "stringMap": {},
          "strings": {}
        }
      ]
    },
    "73": {
      "startMethod": "com.google.android.gms.internal.cm$1.run()V",
      "targetMethod": "java.net.URL.openConnection()Ljava/net/URLConnection;",
      "eventChain": [
        {
          "start": "com.google.android.gms.internal.cm$1.run()V",
          "target": "PC@260",
          "type": "",
          "constraintsFile": "constraints73_0.py",
          "variables": {},
          "stringMap": {},
          "strings": {}
        },
        {
          "start": "com.google.android.gms.internal.cm$1.run()V",
          "target": "invokevirtual \u003c Application, Ljava/net/URL, openConnection()Ljava/net/URLConnection; \u003e@38",
          "type": "",
          "constraintsFile": "constraints73_1.py",
          "variables": {},
          "stringMap": {},
          "strings": {}
        }
      ]
    },
    "74": {
      "startMethod": "com.google.android.gms.internal.cy.onCreateWindow(Landroid/webkit/WebView;ZZLandroid/os/Message;)Z",
      "targetMethod": "android.webkit.WebView.\u003cinit\u003e(Landroid/content/Context;)V",
      "eventChain": [
        {
          "start": "com.google.android.gms.internal.cy.onConsoleMessage(Landroid/webkit/ConsoleMessage;)Z",
          "target": "invokespecial \u003c Application, Landroid/webkit/WebChromeClient, onConsoleMessage(Landroid/webkit/ConsoleMessage;)Z \u003e@146",
          "type": "",
          "constraintsFile": "constraints74_0.py",
          "variables": {},
          "stringMap": {},
          "strings": {}
        },
        {
          "start": "com.google.android.gms.internal.cy.onCreateWindow(Landroid/webkit/WebView;ZZLandroid/os/Message;)Z",
          "target": "invokespecial \u003c Application, Landroid/webkit/WebView, \u003cinit\u003e(Landroid/content/Context;)V \u003e@30",
          "type": ""
        }
      ]
    }
  }
}