{
  "packageName": "com.mmci.mathmagixscanbrain",
  "mainActivity": "com.mmci.mathmagixscanbrain.MathMagix",
  "callPaths": {
    "0": {
      "startMethod": "com.mmci.mathmagixscanbrain.MathMagix.onCreate(Landroid/os/Bundle;)V",
      "targetMethod": "java.lang.reflect.Method.invoke(Ljava/lang/Object;[Ljava/lang/Object;)Ljava/lang/Object;",
      "eventChain": [
        {
          "start": "com.mmci.mathmagixscanbrain.MathMagix.\u003cinit\u003e()V",
          "target": "PC@35",
          "type": ""
        },
        {
          "start": "com.mmci.mathmagixscanbrain.MathMagix.\u003cinit\u003e()V",
          "target": "PC@44",
          "type": ""
        },
        {
          "start": "com.mmci.mathmagixscanbrain.MathMagix.onCreate(Landroid/os/Bundle;)V",
          "target": "PC@139",
          "type": "activity",
          "component": "com.mmci.mathmagixscanbrain.MathMagix",
          "constraintsFile": "constraints0_0.py",
          "variables": {},
          "stringMap": {},
          "strings": {}
        },
        {
          "start": "com.mmci.mathmagixscanbrain.MathMagix.onCreate(Landroid/os/Bundle;)V",
          "target": "PC@81",
          "type": "activity",
          "component": "com.mmci.mathmagixscanbrain.MathMagix",
          "constraintsFile": "constraints0_1.py",
          "variables": {
            "\u003cInput1\u003e": "IAAv0"
          },
          "stringMap": {},
          "strings": {}
        },
        {
          "start": "com.mmci.mathmagixscanbrain.MathMagix.onCreate(Landroid/os/Bundle;)V",
          "target": "PC@21",
          "type": "activity",
          "component": "com.mmci.mathmagixscanbrain.MathMagix",
          "constraintsFile": "constraints0_2.py",
          "variables": {
            "\u003cInput1\u003e": "IAAv0"
          },
          "stringMap": {},
          "strings": {}
        },
        {
          "start": "com.mmci.mathmagixscanbrain.MathMagix.onCreate(Landroid/os/Bundle;)V",
          "target": "invokevirtual \u003c Application, Ljava/lang/reflect/Method, invoke(Ljava/lang/Object;[Ljava/lang/Object;)Ljava/lang/Object; \u003e@239",
          "type": "activity",
          "component": "com.mmci.mathmagixscanbrain.MathMagix",
          "constraintsFile": "constraints0_3.py",
          "variables": {},
          "stringMap": {
            "7000": "about:blank",
            "7001": "javascript:",
            "7002": "HTC"
          },
          "strings": {
            "IAAv12": ""
          }
        }
      ]
    },
    "1": {
      "startMethod": "com.mmci.mathmagixscanbrain.MathMagix.onCreate(Landroid/os/Bundle;)V",
      "targetMethod": "java.lang.reflect.Method.invoke(Ljava/lang/Object;[Ljava/lang/Object;)Ljava/lang/Object;",
      "eventChain": [
        {
          "start": "com.mmci.mathmagixscanbrain.MathMagix.\u003cinit\u003e()V",
          "target": "PC@35",
          "type": ""
        },
        {
          "start": "com.mmci.mathmagixscanbrain.MathMagix.\u003cinit\u003e()V",
          "target": "PC@44",
          "type": ""
        },
        {
          "start": "org.apache.cordova.CordovaWebView.onKeyDown(ILandroid/view/KeyEvent;)Z",
          "target": "PC@127",
          "type": "ui",
          "activities": [
            "com.mmci.mathmagixscanbrain.MathMagix"
          ],
          "listener": "org.apache.cordova.CordovaWebView",
          "listenerMethod": "onKeyDown",
          "uiType": "onKeyDown",
          "constraintsFile": "constraints1_0.py",
          "variables": {
            "\u003cChainedInput1\u003e": "IAAv1"
          },
          "stringMap": {},
          "strings": {}
        },
        {
          "start": "com.mmci.mathmagixscanbrain.MathMagix.onCreate(Landroid/os/Bundle;)V",
          "target": "PC@139",
          "type": "activity",
          "component": "com.mmci.mathmagixscanbrain.MathMagix",
          "constraintsFile": "constraints1_1.py",
          "variables": {},
          "stringMap": {},
          "strings": {}
        },
        {
          "start": "com.mmci.mathmagixscanbrain.MathMagix.onCreate(Landroid/os/Bundle;)V",
          "target": "PC@81",
          "type": "activity",
          "component": "com.mmci.mathmagixscanbrain.MathMagix",
          "constraintsFile": "constraints1_2.py",
          "variables": {
            "\u003cInput1\u003e": "IAAv0"
          },
          "stringMap": {},
          "strings": {}
        },
        {
          "start": "org.apache.cordova.CordovaWebView.onKeyDown(ILandroid/view/KeyEvent;)Z",
          "target": "PC@40",
          "type": "ui",
          "activities": [
            "com.mmci.mathmagixscanbrain.MathMagix"
          ],
          "listener": "org.apache.cordova.CordovaWebView",
          "listenerMethod": "onKeyDown",
          "uiType": "onKeyDown",
          "constraintsFile": "constraints1_3.py",
          "variables": {
            "\u003cChainedInput1\u003e": "IAAv1"
          },
          "stringMap": {},
          "strings": {}
        },
        {
          "start": "com.mmci.mathmagixscanbrain.MathMagix.onCreate(Landroid/os/Bundle;)V",
          "target": "PC@21",
          "type": "activity",
          "component": "com.mmci.mathmagixscanbrain.MathMagix",
          "constraintsFile": "constraints1_4.py",
          "variables": {
            "\u003cInput1\u003e": "IAAv0"
          },
          "stringMap": {},
          "strings": {}
        },
        {
          "start": "com.mmci.mathmagixscanbrain.MathMagix.onCreate(Landroid/os/Bundle;)V",
          "target": "invokevirtual \u003c Application, Ljava/lang/reflect/Method, invoke(Ljava/lang/Object;[Ljava/lang/Object;)Ljava/lang/Object; \u003e@104",
          "type": "activity",
          "component": "com.mmci.mathmagixscanbrain.MathMagix",
          "constraintsFile": "constraints1_5.py",
          "variables": {},
          "stringMap": {
            "7000": "about:blank",
            "7001": "javascript:"
          },
          "strings": {}
        }
      ]
    },
    "2": {
      "startMethod": "org.apache.cordova.CordovaWebView.onKeyDown(ILandroid/view/KeyEvent;)Z",
      "targetMethod": "java.lang.reflect.Method.invoke(Ljava/lang/Object;[Ljava/lang/Object;)Ljava/lang/Object;",
      "eventChain": [
        {
          "start": "com.mmci.mathmagixscanbrain.MathMagix.onCreate(Landroid/os/Bundle;)V",
          "target": "PC@17",
          "type": "activity",
          "component": "com.mmci.mathmagixscanbrain.MathMagix",
          "constraintsFile": "constraints2_0.py",
          "variables": {},
          "stringMap": {},
          "strings": {}
        },
        {
          "start": "org.apache.cordova.CordovaWebView.onKeyDown(ILandroid/view/KeyEvent;)Z",
          "target": "invokevirtual \u003c Application, Ljava/lang/reflect/Method, invoke(Ljava/lang/Object;[Ljava/lang/Object;)Ljava/lang/Object; \u003e@239",
          "type": "ui",
          "activities": [
            "com.mmci.mathmagixscanbrain.MathMagix"
          ],
          "listener": "org.apache.cordova.CordovaWebView",
          "listenerMethod": "onKeyDown",
          "uiType": "onKeyDown",
          "constraintsFile": "constraints2_1.py",
          "variables": {
            "\u003cChainedInput1\u003e": "IAAv1"
          },
          "stringMap": {},
          "strings": {}
        }
      ]
    },
    "3": {
      "startMethod": "org.apache.cordova.CordovaWebView.onKeyDown(ILandroid/view/KeyEvent;)Z",
      "targetMethod": "java.lang.reflect.Method.invoke(Ljava/lang/Object;[Ljava/lang/Object;)Ljava/lang/Object;",
      "eventChain": [
        {
          "start": "com.mmci.mathmagixscanbrain.MathMagix.onCreate(Landroid/os/Bundle;)V",
          "target": "PC@17",
          "type": "activity",
          "component": "com.mmci.mathmagixscanbrain.MathMagix",
          "constraintsFile": "constraints3_0.py",
          "variables": {},
          "stringMap": {},
          "strings": {}
        },
        {
          "start": "org.apache.cordova.CordovaWebView.onKeyDown(ILandroid/view/KeyEvent;)Z",
          "target": "invokevirtual \u003c Application, Ljava/lang/reflect/Method, invoke(Ljava/lang/Object;[Ljava/lang/Object;)Ljava/lang/Object; \u003e@104",
          "type": "ui",
          "activities": [
            "com.mmci.mathmagixscanbrain.MathMagix"
          ],
          "listener": "org.apache.cordova.CordovaWebView",
          "listenerMethod": "onKeyDown",
          "uiType": "onKeyDown",
          "constraintsFile": "constraints3_1.py",
          "variables": {
            "\u003cChainedInput1\u003e": "IAAv1"
          },
          "stringMap": {},
          "strings": {}
        }
      ]
    },
    "4": {
      "startMethod": "org.apache.cordova.CordovaWebView.onKeyUp(ILandroid/view/KeyEvent;)Z",
      "targetMethod": "java.lang.reflect.Method.invoke(Ljava/lang/Object;[Ljava/lang/Object;)Ljava/lang/Object;",
      "eventChain": [
        {
          "start": "org.apache.cordova.CordovaWebView.onKeyUp(ILandroid/view/KeyEvent;)Z",
          "target": "PC@62",
          "type": "ui",
          "activities": [
            "com.mmci.mathmagixscanbrain.MathMagix"
          ],
          "listener": "org.apache.cordova.CordovaWebView",
          "listenerMethod": "onKeyUp",
          "uiType": "onKeyUp",
          "constraintsFile": "constraints4_0.py",
          "variables": {
            "\u003cChainedInput1\u003e": "IAAv0"
          },
          "stringMap": {},
          "strings": {}
        },
        {
          "start": "org.apache.cordova.CordovaWebView.onKeyUp(ILandroid/view/KeyEvent;)Z",
          "target": "invokevirtual \u003c Application, Ljava/lang/reflect/Method, invoke(Ljava/lang/Object;[Ljava/lang/Object;)Ljava/lang/Object; \u003e@239",
          "type": "ui",
          "activities": [
            "com.mmci.mathmagixscanbrain.MathMagix"
          ],
          "listener": "org.apache.cordova.CordovaWebView",
          "listenerMethod": "onKeyUp",
          "uiType": "onKeyUp",
          "constraintsFile": "constraints4_1.py",
          "variables": {
            "\u003cChainedInput1\u003e": "IAAv0"
          },
          "stringMap": {},
          "strings": {}
        }
      ]
    },
    "5": {
      "startMethod": "org.apache.cordova.CordovaWebView.onKeyUp(ILandroid/view/KeyEvent;)Z",
      "targetMethod": "java.lang.reflect.Method.invoke(Ljava/lang/Object;[Ljava/lang/Object;)Ljava/lang/Object;",
      "eventChain": [
        {
          "start": "org.apache.cordova.CordovaWebView.onKeyUp(ILandroid/view/KeyEvent;)Z",
          "target": "PC@62",
          "type": "ui",
          "activities": [
            "com.mmci.mathmagixscanbrain.MathMagix"
          ],
          "listener": "org.apache.cordova.CordovaWebView",
          "listenerMethod": "onKeyUp",
          "uiType": "onKeyUp",
          "constraintsFile": "constraints5_0.py",
          "variables": {
            "\u003cChainedInput1\u003e": "IAAv0"
          },
          "stringMap": {},
          "strings": {}
        },
        {
          "start": "org.apache.cordova.CordovaWebView.onKeyUp(ILandroid/view/KeyEvent;)Z",
          "target": "invokevirtual \u003c Application, Ljava/lang/reflect/Method, invoke(Ljava/lang/Object;[Ljava/lang/Object;)Ljava/lang/Object; \u003e@104",
          "type": "ui",
          "activities": [
            "com.mmci.mathmagixscanbrain.MathMagix"
          ],
          "listener": "org.apache.cordova.CordovaWebView",
          "listenerMethod": "onKeyUp",
          "uiType": "onKeyUp",
          "constraintsFile": "constraints5_1.py",
          "variables": {
            "\u003cChainedInput1\u003e": "IAAv0"
          },
          "stringMap": {},
          "strings": {}
        }
      ]
    }
  }
}