{
  "packageName": "com.makemedroid.key49b8d291",
  "mainActivity": "com.makemedroid.key49b8d291.MyeAppMainActivity",
  "callPaths": {
    "0": {
      "startMethod": "com.makemedroid.key49b8d291.activities.UpdateAvailableActivity.onCreate(Landroid/os/Bundle;)V",
      "targetMethod": "java.lang.reflect.Method.invoke(Ljava/lang/Object;[Ljava/lang/Object;)Ljava/lang/Object;",
      "eventChain": [
        {
          "start": "com.makemedroid.key49b8d291.activities.UpdateAvailableActivity.onCreate(Landroid/os/Bundle;)V",
          "target": "invokevirtual \u003c Application, Ljava/lang/reflect/Method, invoke(Ljava/lang/Object;[Ljava/lang/Object;)Ljava/lang/Object; \u003e@59",
          "type": "activity",
          "component": "com.makemedroid.key49b8d291.activities.UpdateAvailableActivity"
        }
      ]
    },
    "1": {
      "startMethod": "com.facebook.LoginActivity.onResume()V",
      "targetMethod": "java.lang.reflect.Method.invoke(Ljava/lang/Object;[Ljava/lang/Object;)Ljava/lang/Object;",
      "eventChain": [
        {
          "start": "com.facebook.LoginActivity.onCreate(Landroid/os/Bundle;)V",
          "target": "PC@30",
          "type": "activity",
          "component": "com.facebook.LoginActivity",
          "constraintsFile": "constraints1_0.py",
          "variables": {
            "\u003cInput1\u003e": "IAAv14"
          },
          "stringMap": {},
          "strings": {}
        },
        {
          "start": "com.facebook.LoginActivity.onResume()V",
          "target": "PC@7",
          "type": "activity",
          "component": "com.facebook.LoginActivity",
          "constraintsFile": "constraints1_1.py",
          "variables": {},
          "stringMap": {},
          "strings": {}
        },
        {
          "start": "com.facebook.LoginActivity.onResume()V",
          "target": "invokevirtual \u003c Application, Ljava/lang/reflect/Method, invoke(Ljava/lang/Object;[Ljava/lang/Object;)Ljava/lang/Object; \u003e@48",
          "type": "activity",
          "component": "com.facebook.LoginActivity",
          "constraintsFile": "constraints1_2.py",
          "variables": {},
          "stringMap": {},
          "strings": {}
        }
      ]
    },
    "2": {
      "startMethod": "com.makemedroid.key49b8d291.activities.ShowHTMLActivity.onCreate(Landroid/os/Bundle;)V",
      "targetMethod": "java.lang.ClassLoader.loadClass(Ljava/lang/String;)Ljava/lang/Class;",
      "eventChain": [
        {
          "start": "com.makemedroid.key49b8d291.activities.ShowHTMLActivity.\u003cinit\u003e()V",
          "target": "PC@14",
          "type": "",
          "constraintsFile": "constraints2_0.py",
          "variables": {
            "\u003cChainedInput1\u003e": "IAAv12"
          },
          "stringMap": {
            "7000": "",
            "7001": "http://"
          },
          "strings": {
            "IAAv20": "",
            "IAAv4": "",
            "IAAv2": "",
            "IAAv10": "",
            "IAAv14": "",
            "IAAv8": "",
            "IAAv6": ""
          }
        },
        {
          "start": "com.makemedroid.key49b8d291.activities.ShowHTMLActivity.onCreate(Landroid/os/Bundle;)V",
          "target": "invokevirtual \u003c Application, Ljava/lang/ClassLoader, loadClass(Ljava/lang/String;)Ljava/lang/Class; \u003e@50",
          "type": "activity",
          "component": "com.makemedroid.key49b8d291.activities.ShowHTMLActivity",
          "constraintsFile": "constraints2_1.py",
          "variables": {
            "\u003cChainedInput1\u003e": "IAAv14"
          },
          "stringMap": {
            "7000": "",
            "7001": "http://"
          },
          "strings": {
            "IAAv4": "",
            "IAAv10": "",
            "IAAv21": "",
            "IAAv12": "",
            "IAAv15": "",
            "IAAv8": "",
            "IAAv6": ""
          }
        }
      ]
    },
    "3": {
      "startMethod": "com.makemedroid.key49b8d291.activities.ShowHTMLActivity.onCreate(Landroid/os/Bundle;)V",
      "targetMethod": "dalvik.system.DexClassLoader.loadClass(Ljava/lang/String;)Ljava/lang/Class;",
      "eventChain": [
        {
          "start": "com.makemedroid.key49b8d291.activities.ShowHTMLActivity.\u003cinit\u003e()V",
          "target": "PC@14",
          "type": "",
          "constraintsFile": "constraints3_0.py",
          "variables": {
            "\u003cChainedInput1\u003e": "IAAv12"
          },
          "stringMap": {
            "7000": "",
            "7001": "http://"
          },
          "strings": {
            "IAAv20": "",
            "IAAv4": "",
            "IAAv2": "",
            "IAAv10": "",
            "IAAv14": "",
            "IAAv8": "",
            "IAAv6": ""
          }
        },
        {
          "start": "com.makemedroid.key49b8d291.activities.ShowHTMLActivity.onCreate(Landroid/os/Bundle;)V",
          "target": "PC@27",
          "type": "activity",
          "component": "com.makemedroid.key49b8d291.activities.ShowHTMLActivity",
          "constraintsFile": "constraints3_1.py",
          "variables": {
            "\u003cChainedInput1\u003e": "IAAv14"
          },
          "stringMap": {
            "7000": "",
            "7001": "http://"
          },
          "strings": {
            "IAAv4": "",
            "IAAv10": "",
            "IAAv21": "",
            "IAAv12": "",
            "IAAv15": "",
            "IAAv8": "",
            "IAAv6": ""
          }
        },
        {
          "start": "com.makemedroid.key49b8d291.activities.ShowHTMLActivity.onCreate(Landroid/os/Bundle;)V",
          "target": "",
          "type": "activity",
          "component": "com.makemedroid.key49b8d291.activities.ShowHTMLActivity",
          "constraintsFile": "constraints3_2.py",
          "variables": {
            "\u003cChainedInput1\u003e": "IAAv14"
          },
          "stringMap": {
            "7000": "",
            "7001": "http://"
          },
          "strings": {
            "IAAv4": "",
            "IAAv10": "",
            "IAAv21": "",
            "IAAv12": "",
            "IAAv15": "",
            "IAAv8": "",
            "IAAv6": ""
          }
        },
        {
          "start": "com.makemedroid.key49b8d291.activities.ShowHTMLActivity.onCreate(Landroid/os/Bundle;)V",
          "target": "invokevirtual \u003c Application, Ldalvik/system/DexClassLoader, loadClass(Ljava/lang/String;)Ljava/lang/Class; \u003e@227",
          "type": "activity",
          "component": "com.makemedroid.key49b8d291.activities.ShowHTMLActivity",
          "constraintsFile": "constraints3_3.py",
          "variables": {
            "\u003cChainedInput1\u003e": "IAAv14"
          },
          "stringMap": {
            "7000": "",
            "7001": "http://"
          },
          "strings": {
            "IAAv4": "",
            "IAAv10": "",
            "IAAv21": "",
            "IAAv12": "",
            "IAAv15": "",
            "IAAv8": "",
            "IAAv6": ""
          }
        }
      ]
    },
    "4": {
      "startMethod": "com.makemedroid.key49b8d291.activities.ShowHTMLActivity.onCreate(Landroid/os/Bundle;)V",
      "targetMethod": "dalvik.system.DexClassLoader.loadClass(Ljava/lang/String;)Ljava/lang/Class;",
      "eventChain": [
        {
          "start": "com.makemedroid.key49b8d291.activities.ShowHTMLActivity.\u003cinit\u003e()V",
          "target": "PC@14",
          "type": "",
          "constraintsFile": "constraints4_0.py",
          "variables": {
            "\u003cChainedInput1\u003e": "IAAv12"
          },
          "stringMap": {
            "7000": "",
            "7001": "http://"
          },
          "strings": {
            "IAAv20": "",
            "IAAv4": "",
            "IAAv2": "",
            "IAAv10": "",
            "IAAv14": "",
            "IAAv8": "",
            "IAAv6": ""
          }
        },
        {
          "start": "com.makemedroid.key49b8d291.activities.ShowHTMLActivity.onCreate(Landroid/os/Bundle;)V",
          "target": "PC@27",
          "type": "activity",
          "component": "com.makemedroid.key49b8d291.activities.ShowHTMLActivity",
          "constraintsFile": "constraints4_1.py",
          "variables": {
            "\u003cChainedInput1\u003e": "IAAv14"
          },
          "stringMap": {
            "7000": "",
            "7001": "http://"
          },
          "strings": {
            "IAAv4": "",
            "IAAv10": "",
            "IAAv21": "",
            "IAAv12": "",
            "IAAv15": "",
            "IAAv8": "",
            "IAAv6": ""
          }
        },
        {
          "start": "com.makemedroid.key49b8d291.activities.ShowHTMLActivity.onCreate(Landroid/os/Bundle;)V",
          "target": "",
          "type": "activity",
          "component": "com.makemedroid.key49b8d291.activities.ShowHTMLActivity",
          "constraintsFile": "constraints4_2.py",
          "variables": {
            "\u003cChainedInput1\u003e": "IAAv14"
          },
          "stringMap": {
            "7000": "",
            "7001": "http://"
          },
          "strings": {
            "IAAv4": "",
            "IAAv10": "",
            "IAAv21": "",
            "IAAv12": "",
            "IAAv15": "",
            "IAAv8": "",
            "IAAv6": ""
          }
        },
        {
          "start": "com.makemedroid.key49b8d291.activities.ShowHTMLActivity.onCreate(Landroid/os/Bundle;)V",
          "target": "invokevirtual \u003c Application, Ldalvik/system/DexClassLoader, loadClass(Ljava/lang/String;)Ljava/lang/Class; \u003e@185",
          "type": "activity",
          "component": "com.makemedroid.key49b8d291.activities.ShowHTMLActivity",
          "constraintsFile": "constraints4_3.py",
          "variables": {
            "\u003cChainedInput1\u003e": "IAAv14"
          },
          "stringMap": {
            "7000": "",
            "7001": "http://"
          },
          "strings": {
            "IAAv4": "",
            "IAAv10": "",
            "IAAv21": "",
            "IAAv12": "",
            "IAAv15": "",
            "IAAv8": "",
            "IAAv6": ""
          }
        }
      ]
    },
    "5": {
      "startMethod": "com.makemedroid.key49b8d291.activities.ShowHTMLActivity.onCreate(Landroid/os/Bundle;)V",
      "targetMethod": "java.lang.reflect.Method.invoke(Ljava/lang/Object;[Ljava/lang/Object;)Ljava/lang/Object;",
      "eventChain": [
        {
          "start": "com.makemedroid.key49b8d291.activities.ShowHTMLActivity.\u003cinit\u003e()V",
          "target": "PC@14",
          "type": "",
          "constraintsFile": "constraints5_0.py",
          "variables": {
            "\u003cChainedInput1\u003e": "IAAv12"
          },
          "stringMap": {
            "7000": "",
            "7001": "http://"
          },
          "strings": {
            "IAAv4": "",
            "IAAv2": "",
            "IAAv10": "",
            "IAAv14": "",
            "IAAv8": "",
            "IAAv6": ""
          }
        },
        {
          "start": "com.makemedroid.key49b8d291.activities.ShowHTMLActivity.onCreate(Landroid/os/Bundle;)V",
          "target": "invokevirtual \u003c Application, Ljava/lang/reflect/Method, invoke(Ljava/lang/Object;[Ljava/lang/Object;)Ljava/lang/Object; \u003e@59",
          "type": "activity",
          "component": "com.makemedroid.key49b8d291.activities.ShowHTMLActivity",
          "constraintsFile": "constraints5_1.py",
          "variables": {
            "\u003cChainedInput1\u003e": "IAAv14"
          },
          "stringMap": {
            "7000": "",
            "7001": "http://"
          },
          "strings": {
            "IAAv4": "",
            "IAAv10": "",
            "IAAv12": "",
            "IAAv15": "",
            "IAAv8": "",
            "IAAv6": ""
          }
        }
      ]
    },
    "6": {
      "startMethod": "com.makemedroid.key49b8d291.activities.ShowHTMLActivity.onCreate(Landroid/os/Bundle;)V",
      "targetMethod": "dalvik.system.DexClassLoader.loadClass(Ljava/lang/String;)Ljava/lang/Class;",
      "eventChain": [
        {
          "start": "com.makemedroid.key49b8d291.activities.ShowHTMLActivity.\u003cinit\u003e()V",
          "target": "PC@14",
          "type": "",
          "constraintsFile": "constraints6_0.py",
          "variables": {
            "\u003cChainedInput1\u003e": "IAAv12"
          },
          "stringMap": {
            "7000": "",
            "7001": "http://"
          },
          "strings": {
            "IAAv20": "",
            "IAAv4": "",
            "IAAv2": "",
            "IAAv10": "",
            "IAAv14": "",
            "IAAv8": "",
            "IAAv6": ""
          }
        },
        {
          "start": "com.makemedroid.key49b8d291.activities.ShowHTMLActivity.onCreate(Landroid/os/Bundle;)V",
          "target": "PC@27",
          "type": "activity",
          "component": "com.makemedroid.key49b8d291.activities.ShowHTMLActivity",
          "constraintsFile": "constraints6_1.py",
          "variables": {
            "\u003cChainedInput1\u003e": "IAAv14"
          },
          "stringMap": {
            "7000": "",
            "7001": "http://"
          },
          "strings": {
            "IAAv4": "",
            "IAAv10": "",
            "IAAv21": "",
            "IAAv12": "",
            "IAAv15": "",
            "IAAv8": "",
            "IAAv6": ""
          }
        },
        {
          "start": "com.makemedroid.key49b8d291.activities.ShowHTMLActivity.onCreate(Landroid/os/Bundle;)V",
          "target": "",
          "type": "activity",
          "component": "com.makemedroid.key49b8d291.activities.ShowHTMLActivity",
          "constraintsFile": "constraints6_2.py",
          "variables": {
            "\u003cChainedInput1\u003e": "IAAv14"
          },
          "stringMap": {
            "7000": "",
            "7001": "http://"
          },
          "strings": {
            "IAAv4": "",
            "IAAv10": "",
            "IAAv21": "",
            "IAAv12": "",
            "IAAv15": "",
            "IAAv8": "",
            "IAAv6": ""
          }
        },
        {
          "start": "com.makemedroid.key49b8d291.activities.ShowHTMLActivity.onCreate(Landroid/os/Bundle;)V",
          "target": "invokevirtual \u003c Application, Ldalvik/system/DexClassLoader, loadClass(Ljava/lang/String;)Ljava/lang/Class; \u003e@248",
          "type": "activity",
          "component": "com.makemedroid.key49b8d291.activities.ShowHTMLActivity",
          "constraintsFile": "constraints6_3.py",
          "variables": {
            "\u003cChainedInput1\u003e": "IAAv14"
          },
          "stringMap": {
            "7000": "",
            "7001": "http://"
          },
          "strings": {
            "IAAv4": "",
            "IAAv10": "",
            "IAAv21": "",
            "IAAv12": "",
            "IAAv15": "",
            "IAAv8": "",
            "IAAv6": ""
          }
        }
      ]
    },
    "7": {
      "startMethod": "com.makemedroid.key49b8d291.activities.ShowHTMLActivity.onCreate(Landroid/os/Bundle;)V",
      "targetMethod": "dalvik.system.DexClassLoader.loadClass(Ljava/lang/String;)Ljava/lang/Class;",
      "eventChain": [
        {
          "start": "com.makemedroid.key49b8d291.activities.ShowHTMLActivity.\u003cinit\u003e()V",
          "target": "PC@14",
          "type": "",
          "constraintsFile": "constraints7_0.py",
          "variables": {
            "\u003cChainedInput1\u003e": "IAAv12"
          },
          "stringMap": {
            "7000": "",
            "7001": "http://"
          },
          "strings": {
            "IAAv20": "",
            "IAAv4": "",
            "IAAv2": "",
            "IAAv10": "",
            "IAAv14": "",
            "IAAv8": "",
            "IAAv6": ""
          }
        },
        {
          "start": "com.makemedroid.key49b8d291.activities.ShowHTMLActivity.onCreate(Landroid/os/Bundle;)V",
          "target": "PC@27",
          "type": "activity",
          "component": "com.makemedroid.key49b8d291.activities.ShowHTMLActivity",
          "constraintsFile": "constraints7_1.py",
          "variables": {
            "\u003cChainedInput1\u003e": "IAAv14"
          },
          "stringMap": {
            "7000": "",
            "7001": "http://"
          },
          "strings": {
            "IAAv4": "",
            "IAAv10": "",
            "IAAv21": "",
            "IAAv12": "",
            "IAAv15": "",
            "IAAv8": "",
            "IAAv6": ""
          }
        },
        {
          "start": "com.makemedroid.key49b8d291.activities.ShowHTMLActivity.onCreate(Landroid/os/Bundle;)V",
          "target": "",
          "type": "activity",
          "component": "com.makemedroid.key49b8d291.activities.ShowHTMLActivity",
          "constraintsFile": "constraints7_2.py",
          "variables": {
            "\u003cChainedInput1\u003e": "IAAv14"
          },
          "stringMap": {
            "7000": "",
            "7001": "http://"
          },
          "strings": {
            "IAAv4": "",
            "IAAv10": "",
            "IAAv21": "",
            "IAAv12": "",
            "IAAv15": "",
            "IAAv8": "",
            "IAAv6": ""
          }
        },
        {
          "start": "com.makemedroid.key49b8d291.activities.ShowHTMLActivity.onCreate(Landroid/os/Bundle;)V",
          "target": "invokevirtual \u003c Application, Ldalvik/system/DexClassLoader, loadClass(Ljava/lang/String;)Ljava/lang/Class; \u003e@269",
          "type": "activity",
          "component": "com.makemedroid.key49b8d291.activities.ShowHTMLActivity",
          "constraintsFile": "constraints7_3.py",
          "variables": {
            "\u003cChainedInput1\u003e": "IAAv14"
          },
          "stringMap": {
            "7000": "",
            "7001": "http://"
          },
          "strings": {
            "IAAv4": "",
            "IAAv10": "",
            "IAAv21": "",
            "IAAv12": "",
            "IAAv15": "",
            "IAAv8": "",
            "IAAv6": ""
          }
        }
      ]
    },
    "8": {
      "startMethod": "com.makemedroid.key49b8d291.activities.ShowHTMLActivity.onCreate(Landroid/os/Bundle;)V",
      "targetMethod": "dalvik.system.DexClassLoader.loadClass(Ljava/lang/String;)Ljava/lang/Class;",
      "eventChain": [
        {
          "start": "com.makemedroid.key49b8d291.activities.ShowHTMLActivity.\u003cinit\u003e()V",
          "target": "PC@14",
          "type": "",
          "constraintsFile": "constraints8_0.py",
          "variables": {
            "\u003cChainedInput1\u003e": "IAAv12"
          },
          "stringMap": {
            "7000": "",
            "7001": "http://"
          },
          "strings": {
            "IAAv20": "",
            "IAAv4": "",
            "IAAv2": "",
            "IAAv10": "",
            "IAAv14": "",
            "IAAv8": "",
            "IAAv6": ""
          }
        },
        {
          "start": "com.makemedroid.key49b8d291.activities.ShowHTMLActivity.onCreate(Landroid/os/Bundle;)V",
          "target": "PC@27",
          "type": "activity",
          "component": "com.makemedroid.key49b8d291.activities.ShowHTMLActivity",
          "constraintsFile": "constraints8_1.py",
          "variables": {
            "\u003cChainedInput1\u003e": "IAAv14"
          },
          "stringMap": {
            "7000": "",
            "7001": "http://"
          },
          "strings": {
            "IAAv4": "",
            "IAAv10": "",
            "IAAv21": "",
            "IAAv12": "",
            "IAAv15": "",
            "IAAv8": "",
            "IAAv6": ""
          }
        },
        {
          "start": "com.makemedroid.key49b8d291.activities.ShowHTMLActivity.onCreate(Landroid/os/Bundle;)V",
          "target": "",
          "type": "activity",
          "component": "com.makemedroid.key49b8d291.activities.ShowHTMLActivity",
          "constraintsFile": "constraints8_2.py",
          "variables": {
            "\u003cChainedInput1\u003e": "IAAv14"
          },
          "stringMap": {
            "7000": "",
            "7001": "http://"
          },
          "strings": {
            "IAAv4": "",
            "IAAv10": "",
            "IAAv21": "",
            "IAAv12": "",
            "IAAv15": "",
            "IAAv8": "",
            "IAAv6": ""
          }
        },
        {
          "start": "com.makemedroid.key49b8d291.activities.ShowHTMLActivity.onCreate(Landroid/os/Bundle;)V",
          "target": "invokevirtual \u003c Application, Ldalvik/system/DexClassLoader, loadClass(Ljava/lang/String;)Ljava/lang/Class; \u003e@206",
          "type": "activity",
          "component": "com.makemedroid.key49b8d291.activities.ShowHTMLActivity",
          "constraintsFile": "constraints8_3.py",
          "variables": {
            "\u003cChainedInput1\u003e": "IAAv14"
          },
          "stringMap": {
            "7000": "",
            "7001": "http://"
          },
          "strings": {
            "IAAv4": "",
            "IAAv10": "",
            "IAAv21": "",
            "IAAv12": "",
            "IAAv15": "",
            "IAAv8": "",
            "IAAv6": ""
          }
        }
      ]
    },
    "9": {
      "startMethod": "com.makemedroid.key49b8d291.activities.ShowHTMLActivity.onCreate(Landroid/os/Bundle;)V",
      "targetMethod": "java.lang.reflect.Method.invoke(Ljava/lang/Object;[Ljava/lang/Object;)Ljava/lang/Object;",
      "eventChain": [
        {
          "start": "com.makemedroid.key49b8d291.activities.ShowHTMLActivity.\u003cinit\u003e()V",
          "target": "PC@14",
          "type": "",
          "constraintsFile": "constraints9_0.py",
          "variables": {
            "\u003cChainedInput1\u003e": "IAAv12"
          },
          "stringMap": {
            "7000": "",
            "7001": "http://"
          },
          "strings": {
            "IAAv20": "",
            "IAAv4": "",
            "IAAv2": "",
            "IAAv10": "",
            "IAAv14": "",
            "IAAv8": "",
            "IAAv6": ""
          }
        },
        {
          "start": "com.makemedroid.key49b8d291.activities.ShowHTMLActivity.onCreate(Landroid/os/Bundle;)V",
          "target": "PC@27",
          "type": "activity",
          "component": "com.makemedroid.key49b8d291.activities.ShowHTMLActivity",
          "constraintsFile": "constraints9_1.py",
          "variables": {
            "\u003cChainedInput1\u003e": "IAAv14"
          },
          "stringMap": {
            "7000": "",
            "7001": "http://"
          },
          "strings": {
            "IAAv4": "",
            "IAAv10": "",
            "IAAv21": "",
            "IAAv12": "",
            "IAAv15": "",
            "IAAv8": "",
            "IAAv6": ""
          }
        },
        {
          "start": "com.makemedroid.key49b8d291.activities.ShowHTMLActivity.onCreate(Landroid/os/Bundle;)V",
          "target": "",
          "type": "activity",
          "component": "com.makemedroid.key49b8d291.activities.ShowHTMLActivity",
          "constraintsFile": "constraints9_2.py",
          "variables": {
            "\u003cChainedInput1\u003e": "IAAv14"
          },
          "stringMap": {
            "7000": "",
            "7001": "http://"
          },
          "strings": {
            "IAAv4": "",
            "IAAv10": "",
            "IAAv21": "",
            "IAAv12": "",
            "IAAv15": "",
            "IAAv8": "",
            "IAAv6": ""
          }
        },
        {
          "start": "com.makemedroid.key49b8d291.activities.ShowHTMLActivity.onCreate(Landroid/os/Bundle;)V",
          "target": "invokevirtual \u003c Application, Ljava/lang/reflect/Method, invoke(Ljava/lang/Object;[Ljava/lang/Object;)Ljava/lang/Object; \u003e@35",
          "type": "activity",
          "component": "com.makemedroid.key49b8d291.activities.ShowHTMLActivity",
          "constraintsFile": "constraints9_3.py",
          "variables": {
            "\u003cChainedInput1\u003e": "IAAv14"
          },
          "stringMap": {
            "7000": "",
            "7001": "http://"
          },
          "strings": {
            "IAAv4": "",
            "IAAv10": "",
            "IAAv21": "",
            "IAAv12": "",
            "IAAv15": "",
            "IAAv8": "",
            "IAAv6": ""
          }
        }
      ]
    },
    "10": {
      "startMethod": "com.makemedroid.key49b8d291.activities.ShowHTMLActivity.onCreate(Landroid/os/Bundle;)V",
      "targetMethod": "dalvik.system.DexClassLoader.loadClass(Ljava/lang/String;)Ljava/lang/Class;",
      "eventChain": [
        {
          "start": "com.makemedroid.key49b8d291.activities.ShowHTMLActivity.\u003cinit\u003e()V",
          "target": "PC@14",
          "type": "",
          "constraintsFile": "constraints10_0.py",
          "variables": {
            "\u003cChainedInput1\u003e": "IAAv12"
          },
          "stringMap": {
            "7000": "",
            "7001": "http://"
          },
          "strings": {
            "IAAv20": "",
            "IAAv4": "",
            "IAAv2": "",
            "IAAv10": "",
            "IAAv14": "",
            "IAAv8": "",
            "IAAv6": ""
          }
        },
        {
          "start": "com.makemedroid.key49b8d291.activities.ShowHTMLActivity.onCreate(Landroid/os/Bundle;)V",
          "target": "PC@27",
          "type": "activity",
          "component": "com.makemedroid.key49b8d291.activities.ShowHTMLActivity",
          "constraintsFile": "constraints10_1.py",
          "variables": {
            "\u003cChainedInput1\u003e": "IAAv14"
          },
          "stringMap": {
            "7000": "",
            "7001": "http://"
          },
          "strings": {
            "IAAv4": "",
            "IAAv10": "",
            "IAAv21": "",
            "IAAv12": "",
            "IAAv15": "",
            "IAAv8": "",
            "IAAv6": ""
          }
        },
        {
          "start": "com.makemedroid.key49b8d291.activities.ShowHTMLActivity.onCreate(Landroid/os/Bundle;)V",
          "target": "",
          "type": "activity",
          "component": "com.makemedroid.key49b8d291.activities.ShowHTMLActivity",
          "constraintsFile": "constraints10_2.py",
          "variables": {
            "\u003cChainedInput1\u003e": "IAAv14"
          },
          "stringMap": {
            "7000": "",
            "7001": "http://"
          },
          "strings": {
            "IAAv4": "",
            "IAAv10": "",
            "IAAv21": "",
            "IAAv12": "",
            "IAAv15": "",
            "IAAv8": "",
            "IAAv6": ""
          }
        },
        {
          "start": "com.makemedroid.key49b8d291.activities.ShowHTMLActivity.onCreate(Landroid/os/Bundle;)V",
          "target": "invokevirtual \u003c Application, Ldalvik/system/DexClassLoader, loadClass(Ljava/lang/String;)Ljava/lang/Class; \u003e@290",
          "type": "activity",
          "component": "com.makemedroid.key49b8d291.activities.ShowHTMLActivity",
          "constraintsFile": "constraints10_3.py",
          "variables": {
            "\u003cChainedInput1\u003e": "IAAv14"
          },
          "stringMap": {
            "7000": "",
            "7001": "http://"
          },
          "strings": {
            "IAAv4": "",
            "IAAv10": "",
            "IAAv21": "",
            "IAAv12": "",
            "IAAv15": "",
            "IAAv8": "",
            "IAAv6": ""
          }
        }
      ]
    },
    "11": {
      "startMethod": "com.makemedroid.key49b8d291.activities.PhonebookDetailActivity.onCreate(Landroid/os/Bundle;)V",
      "targetMethod": "java.lang.reflect.Method.invoke(Ljava/lang/Object;[Ljava/lang/Object;)Ljava/lang/Object;",
      "eventChain": [
        {
          "start": "com.makemedroid.key49b8d291.activities.PhonebookDetailActivity.onCreate(Landroid/os/Bundle;)V",
          "target": "invokevirtual \u003c Application, Ljava/lang/reflect/Method, invoke(Ljava/lang/Object;[Ljava/lang/Object;)Ljava/lang/Object; \u003e@59",
          "type": "activity",
          "component": "com.makemedroid.key49b8d291.activities.PhonebookDetailActivity",
          "constraintsFile": "constraints11_0.py",
          "variables": {
            "\u003cChainedInput1\u003e": "IAAv0"
          },
          "stringMap": {
            "7000": ""
          },
          "strings": {
            "IAAv3": "",
            "IAAv11": "",
            "IAAv9": "",
            "IAAv7": "",
            "IAAv5": ""
          }
        }
      ]
    },
    "12": {
      "startMethod": "com.makemedroid.key49b8d291.activities.PhonebookActivity.onCreate(Landroid/os/Bundle;)V",
      "targetMethod": "java.lang.reflect.Method.invoke(Ljava/lang/Object;[Ljava/lang/Object;)Ljava/lang/Object;",
      "eventChain": [
        {
          "start": "com.makemedroid.key49b8d291.activities.PhonebookActivity.onCreate(Landroid/os/Bundle;)V",
          "target": "invokevirtual \u003c Application, Ljava/lang/reflect/Method, invoke(Ljava/lang/Object;[Ljava/lang/Object;)Ljava/lang/Object; \u003e@59",
          "type": "activity",
          "component": "com.makemedroid.key49b8d291.activities.PhonebookActivity",
          "constraintsFile": "constraints12_0.py",
          "variables": {},
          "stringMap": {
            "7000": ""
          },
          "strings": {
            "IAAv4": "",
            "IAAv2": "",
            "IAAv10": "",
            "IAAv8": "",
            "IAAv6": ""
          }
        }
      ]
    },
    "13": {
      "startMethod": "com.google.android.gms.ads.AdActivity.onCreate(Landroid/os/Bundle;)V",
      "targetMethod": "java.lang.ClassLoader.loadClass(Ljava/lang/String;)Ljava/lang/Class;",
      "eventChain": [
        {
          "start": "com.google.android.gms.ads.AdActivity.onCreate(Landroid/os/Bundle;)V",
          "target": "invokevirtual \u003c Application, Ljava/lang/ClassLoader, loadClass(Ljava/lang/String;)Ljava/lang/Class; \u003e@50",
          "type": "activity",
          "component": "com.google.android.gms.ads.AdActivity"
        }
      ]
    },
    "14": {
      "startMethod": "com.makemedroid.key49b8d291.activities.UpdateAvailableIncompatibleActivity.onCreate(Landroid/os/Bundle;)V",
      "targetMethod": "java.lang.reflect.Method.invoke(Ljava/lang/Object;[Ljava/lang/Object;)Ljava/lang/Object;",
      "eventChain": [
        {
          "start": "com.makemedroid.key49b8d291.activities.UpdateAvailableIncompatibleActivity.onCreate(Landroid/os/Bundle;)V",
          "target": "invokevirtual \u003c Application, Ljava/lang/reflect/Method, invoke(Ljava/lang/Object;[Ljava/lang/Object;)Ljava/lang/Object; \u003e@59",
          "type": "activity",
          "component": "com.makemedroid.key49b8d291.activities.UpdateAvailableIncompatibleActivity",
          "constraintsFile": "constraints14_0.py",
          "variables": {
            "\u003cUI\u003e.setOnClickListener().f": "IAAv0"
          },
          "stringMap": {},
          "strings": {}
        }
      ]
    },
    "15": {
      "startMethod": "com.makemedroid.key49b8d291.activities.FreeLayoutActivity.onCreate(Landroid/os/Bundle;)V",
      "targetMethod": "java.lang.reflect.Method.invoke(Ljava/lang/Object;[Ljava/lang/Object;)Ljava/lang/Object;",
      "eventChain": [
        {
          "start": "com.makemedroid.key49b8d291.activities.FreeLayoutActivity.onCreate(Landroid/os/Bundle;)V",
          "target": "invokevirtual \u003c Application, Ljava/lang/reflect/Method, invoke(Ljava/lang/Object;[Ljava/lang/Object;)Ljava/lang/Object; \u003e@59",
          "type": "activity",
          "component": "com.makemedroid.key49b8d291.activities.FreeLayoutActivity",
          "constraintsFile": "constraints15_0.py",
          "variables": {
            "\u003cChainedInput1\u003e": "IAAv1"
          },
          "stringMap": {},
          "strings": {}
        }
      ]
    },
    "16": {
      "startMethod": "com.makemedroid.key49b8d291.activities.ContactUserConfigActivity.onCreate(Landroid/os/Bundle;)V",
      "targetMethod": "java.lang.reflect.Method.invoke(Ljava/lang/Object;[Ljava/lang/Object;)Ljava/lang/Object;",
      "eventChain": [
        {
          "start": "com.makemedroid.key49b8d291.activities.y.onClick(Landroid/view/View;)V",
          "target": "invokeinterface \u003c Application, Landroid/content/SharedPreferences$Editor, putInt(Ljava/lang/String;I)Landroid/content/SharedPreferences$Editor; \u003e@101",
          "type": "ui",
          "activities": [
            "com.makemedroid.key49b8d291.activities.ContactUserConfigActivity"
          ],
          "listener": "com.makemedroid.key49b8d291.activities.y",
          "listenerMethod": "onClick",
          "uiType": "onClick"
        },
        {
          "start": "com.makemedroid.key49b8d291.activities.ContactUserConfigActivity.onCreate(Landroid/os/Bundle;)V",
          "target": "invokevirtual \u003c Application, Ljava/lang/reflect/Method, invoke(Ljava/lang/Object;[Ljava/lang/Object;)Ljava/lang/Object; \u003e@59",
          "type": "activity",
          "component": "com.makemedroid.key49b8d291.activities.ContactUserConfigActivity",
          "constraintsFile": "constraints16_0.py",
          "variables": {
            "SharedPreferences\u003cmessagingAvatar\u003e": "IAAv1"
          },
          "stringMap": {
            "7000": ""
          },
          "strings": {
            "IAAv2": "",
            "IAAv11": "",
            "IAAv9": "",
            "IAAv7": "",
            "IAAv5": ""
          }
        }
      ]
    },
    "17": {
      "startMethod": "com.makemedroid.key49b8d291.social.facebook.FacebookActivity.onCreate(Landroid/os/Bundle;)V",
      "targetMethod": "java.lang.reflect.Method.invoke(Ljava/lang/Object;[Ljava/lang/Object;)Ljava/lang/Object;",
      "eventChain": [
        {
          "start": "com.makemedroid.key49b8d291.social.facebook.FacebookActivity.onCreate(Landroid/os/Bundle;)V",
          "target": "invokevirtual \u003c Application, Ljava/lang/reflect/Method, invoke(Ljava/lang/Object;[Ljava/lang/Object;)Ljava/lang/Object; \u003e@48",
          "type": "activity",
          "component": "com.makemedroid.key49b8d291.social.facebook.FacebookActivity",
          "constraintsFile": "constraints17_0.py",
          "variables": {},
          "stringMap": {},
          "strings": {}
        }
      ]
    },
    "18": {
      "startMethod": "com.makemedroid.key49b8d291.social.facebook.FacebookActivity.onCreate(Landroid/os/Bundle;)V",
      "targetMethod": "java.net.URL.openConnection()Ljava/net/URLConnection;",
      "eventChain": [
        {
          "start": "com.makemedroid.key49b8d291.social.facebook.FacebookActivity.onCreate(Landroid/os/Bundle;)V",
          "target": "invokevirtual \u003c Application, Ljava/net/URL, openConnection()Ljava/net/URLConnection; \u003e@2",
          "type": "activity",
          "component": "com.makemedroid.key49b8d291.social.facebook.FacebookActivity",
          "constraintsFile": "constraints18_0.py",
          "variables": {},
          "stringMap": {},
          "strings": {}
        }
      ]
    },
    "19": {
      "startMethod": "com.makemedroid.key49b8d291.activities.InterstitialActivity.onCreate(Landroid/os/Bundle;)V",
      "targetMethod": "java.lang.reflect.Method.invoke(Ljava/lang/Object;[Ljava/lang/Object;)Ljava/lang/Object;",
      "eventChain": [
        {
          "start": "com.makemedroid.key49b8d291.activities.InterstitialActivity.onCreate(Landroid/os/Bundle;)V",
          "target": "invokevirtual \u003c Application, Ljava/lang/reflect/Method, invoke(Ljava/lang/Object;[Ljava/lang/Object;)Ljava/lang/Object; \u003e@59",
          "type": "activity",
          "component": "com.makemedroid.key49b8d291.activities.InterstitialActivity",
          "constraintsFile": "constraints19_0.py",
          "variables": {
            "\u003cChainedInput1\u003e": "IAAv1"
          },
          "stringMap": {},
          "strings": {}
        }
      ]
    },
    "20": {
      "startMethod": "com.makemedroid.key49b8d291.activities.PromoteAboutActivity.onCreate(Landroid/os/Bundle;)V",
      "targetMethod": "org.apache.http.impl.client.DefaultHttpClient.execute(Lorg/apache/http/client/methods/HttpUriRequest;)Lorg/apache/http/HttpResponse;",
      "eventChain": [
        {
          "start": "com.makemedroid.key49b8d291.activities.PromoteAboutActivity.onCreate(Landroid/os/Bundle;)V",
          "target": "invokevirtual \u003c Application, Lorg/apache/http/impl/client/DefaultHttpClient, execute(Lorg/apache/http/client/methods/HttpUriRequest;)Lorg/apache/http/HttpResponse; \u003e@32",
          "type": "activity",
          "component": "com.makemedroid.key49b8d291.activities.PromoteAboutActivity",
          "constraintsFile": "constraints20_0.py",
          "variables": {
            "\u003cUI\u003e.getContext().d()": "IAAv3"
          },
          "stringMap": {
            "7000": "\u003cUI\u003e"
          },
          "strings": {}
        }
      ]
    },
    "21": {
      "startMethod": "com.makemedroid.key49b8d291.social.twitter.TwitterActivity.onCreate(Landroid/os/Bundle;)V",
      "targetMethod": "org.apache.http.client.HttpClient.execute(Lorg/apache/http/client/methods/HttpUriRequest;)Lorg/apache/http/HttpResponse;",
      "eventChain": [
        {
          "start": "com.makemedroid.key49b8d291.social.twitter.TwitterActivity.onCreate(Landroid/os/Bundle;)V",
          "target": "invokeinterface \u003c Application, Lorg/apache/http/client/HttpClient, execute(Lorg/apache/http/client/methods/HttpUriRequest;)Lorg/apache/http/HttpResponse; \u003e@20",
          "type": "activity",
          "component": "com.makemedroid.key49b8d291.social.twitter.TwitterActivity"
        }
      ]
    },
    "22": {
      "startMethod": "com.makemedroid.key49b8d291.activities.DisplayTextActivity.onCreate(Landroid/os/Bundle;)V",
      "targetMethod": "java.lang.reflect.Method.invoke(Ljava/lang/Object;[Ljava/lang/Object;)Ljava/lang/Object;",
      "eventChain": [
        {
          "start": "com.makemedroid.key49b8d291.activities.DisplayTextActivity.onCreate(Landroid/os/Bundle;)V",
          "target": "invokevirtual \u003c Application, Ljava/lang/reflect/Method, invoke(Ljava/lang/Object;[Ljava/lang/Object;)Ljava/lang/Object; \u003e@59",
          "type": "activity",
          "component": "com.makemedroid.key49b8d291.activities.DisplayTextActivity",
          "constraintsFile": "constraints22_0.py",
          "variables": {},
          "stringMap": {},
          "strings": {}
        }
      ]
    },
    "23": {
      "startMethod": "com.makemedroid.key49b8d291.activities.RSSStreamActivity.onCreate(Landroid/os/Bundle;)V",
      "targetMethod": "java.lang.reflect.Method.invoke(Ljava/lang/Object;[Ljava/lang/Object;)Ljava/lang/Object;",
      "eventChain": [
        {
          "start": "com.makemedroid.key49b8d291.activities.RSSStreamActivity.onCreate(Landroid/os/Bundle;)V",
          "target": "invokevirtual \u003c Application, Ljava/lang/reflect/Method, invoke(Ljava/lang/Object;[Ljava/lang/Object;)Ljava/lang/Object; \u003e@59",
          "type": "activity",
          "component": "com.makemedroid.key49b8d291.activities.RSSStreamActivity",
          "constraintsFile": "constraints23_0.py",
          "variables": {},
          "stringMap": {
            "7000": ""
          },
          "strings": {
            "IAAv4": "",
            "IAAv2": "",
            "IAAv10": "",
            "IAAv8": "",
            "IAAv6": ""
          }
        }
      ]
    },
    "24": {
      "startMethod": "com.makegeodeals.smartad.activities.WallActivity.onCreate(Landroid/os/Bundle;)V",
      "targetMethod": "java.lang.reflect.Method.invoke(Ljava/lang/Object;[Ljava/lang/Object;)Ljava/lang/Object;",
      "eventChain": [
        {
          "start": "com.makegeodeals.smartad.activities.WallActivity.onCreate(Landroid/os/Bundle;)V",
          "target": "invokevirtual \u003c Application, Ljava/lang/reflect/Method, invoke(Ljava/lang/Object;[Ljava/lang/Object;)Ljava/lang/Object; \u003e@59",
          "type": "activity",
          "component": "com.makegeodeals.smartad.activities.WallActivity",
          "constraintsFile": "constraints24_0.py",
          "variables": {},
          "stringMap": {},
          "strings": {}
        }
      ]
    },
    "25": {
      "startMethod": "com.makemedroid.key49b8d291.activities.DynamicListActivity.onCreate(Landroid/os/Bundle;)V",
      "targetMethod": "java.lang.reflect.Method.invoke(Ljava/lang/Object;[Ljava/lang/Object;)Ljava/lang/Object;",
      "eventChain": [
        {
          "start": "com.makemedroid.key49b8d291.activities.DynamicListActivity.onCreate(Landroid/os/Bundle;)V",
          "target": "invokevirtual \u003c Application, Ljava/lang/reflect/Method, invoke(Ljava/lang/Object;[Ljava/lang/Object;)Ljava/lang/Object; \u003e@59",
          "type": "activity",
          "component": "com.makemedroid.key49b8d291.activities.DynamicListActivity",
          "constraintsFile": "constraints25_0.py",
          "variables": {
            "\u003cChainedInput1\u003e": "IAAv1"
          },
          "stringMap": {},
          "strings": {}
        }
      ]
    },
    "26": {
      "startMethod": "com.makemedroid.key49b8d291.activities.RSSStreamPageActivity.onCreate(Landroid/os/Bundle;)V",
      "targetMethod": "dalvik.system.DexClassLoader.loadClass(Ljava/lang/String;)Ljava/lang/Class;",
      "eventChain": [
        {
          "start": "com.makemedroid.key49b8d291.activities.ShowHTMLActivity.onCreate(Landroid/os/Bundle;)V",
          "target": "PC@27",
          "type": "activity",
          "component": "com.makemedroid.key49b8d291.activities.ShowHTMLActivity",
          "constraintsFile": "constraints26_0.py",
          "variables": {
            "\u003cChainedInput1\u003e": "IAAv16"
          },
          "stringMap": {
            "7000": "",
            "7001": "http://"
          },
          "strings": {
            "IAAv36": "",
            "IAAv38": "",
            "IAAv14": "",
            "IAAv28": "",
            "IAAv4": "",
            "IAAv20": "",
            "IAAv2": "",
            "IAAv10": "",
            "IAAv12": "",
            "IAAv32": "",
            "IAAv34": "",
            "IAAv8": "",
            "IAAv6": "",
            "IAAv30": ""
          }
        },
        {
          "start": "com.makemedroid.key49b8d291.activities.ShowHTMLActivity.onCreate(Landroid/os/Bundle;)V",
          "target": "",
          "type": "activity",
          "component": "com.makemedroid.key49b8d291.activities.ShowHTMLActivity",
          "constraintsFile": "constraints26_1.py",
          "variables": {
            "\u003cChainedInput1\u003e": "IAAv16"
          },
          "stringMap": {
            "7000": "",
            "7001": "http://"
          },
          "strings": {
            "IAAv37": "",
            "IAAv39": "",
            "IAAv14": "",
            "IAAv29": "",
            "IAAv4": "",
            "IAAv20": "",
            "IAAv2": "",
            "IAAv10": "",
            "IAAv12": "",
            "IAAv45": "",
            "IAAv33": "",
            "IAAv35": "",
            "IAAv8": "",
            "IAAv6": "",
            "IAAv31": ""
          }
        },
        {
          "start": "com.makemedroid.key49b8d291.activities.RSSStreamPageActivity.onCreate(Landroid/os/Bundle;)V",
          "target": "invokevirtual \u003c Application, Ldalvik/system/DexClassLoader, loadClass(Ljava/lang/String;)Ljava/lang/Class; \u003e@269",
          "type": "activity",
          "component": "com.makemedroid.key49b8d291.activities.RSSStreamPageActivity",
          "constraintsFile": "constraints26_2.py",
          "variables": {
            "\u003cChainedInput1\u003e": "IAAv16"
          },
          "stringMap": {
            "7000": ""
          },
          "strings": {
            "IAAv20": "",
            "IAAv4": "",
            "IAAv2": "",
            "IAAv10": "",
            "IAAv12": "",
            "IAAv14": "",
            "IAAv8": "",
            "IAAv6": ""
          }
        }
      ]
    },
    "27": {
      "startMethod": "com.makemedroid.key49b8d291.activities.RSSStreamPageActivity.onCreate(Landroid/os/Bundle;)V",
      "targetMethod": "dalvik.system.DexClassLoader.loadClass(Ljava/lang/String;)Ljava/lang/Class;",
      "eventChain": [
        {
          "start": "com.makemedroid.key49b8d291.activities.ShowHTMLActivity.onCreate(Landroid/os/Bundle;)V",
          "target": "PC@27",
          "type": "activity",
          "component": "com.makemedroid.key49b8d291.activities.ShowHTMLActivity",
          "constraintsFile": "constraints27_0.py",
          "variables": {
            "\u003cChainedInput1\u003e": "IAAv16"
          },
          "stringMap": {
            "7000": "",
            "7001": "http://"
          },
          "strings": {
            "IAAv36": "",
            "IAAv38": "",
            "IAAv14": "",
            "IAAv28": "",
            "IAAv4": "",
            "IAAv20": "",
            "IAAv2": "",
            "IAAv10": "",
            "IAAv12": "",
            "IAAv32": "",
            "IAAv34": "",
            "IAAv8": "",
            "IAAv6": "",
            "IAAv30": ""
          }
        },
        {
          "start": "com.makemedroid.key49b8d291.activities.ShowHTMLActivity.onCreate(Landroid/os/Bundle;)V",
          "target": "",
          "type": "activity",
          "component": "com.makemedroid.key49b8d291.activities.ShowHTMLActivity",
          "constraintsFile": "constraints27_1.py",
          "variables": {
            "\u003cChainedInput1\u003e": "IAAv16"
          },
          "stringMap": {
            "7000": "",
            "7001": "http://"
          },
          "strings": {
            "IAAv37": "",
            "IAAv39": "",
            "IAAv14": "",
            "IAAv29": "",
            "IAAv4": "",
            "IAAv20": "",
            "IAAv2": "",
            "IAAv10": "",
            "IAAv12": "",
            "IAAv45": "",
            "IAAv33": "",
            "IAAv35": "",
            "IAAv8": "",
            "IAAv6": "",
            "IAAv31": ""
          }
        },
        {
          "start": "com.makemedroid.key49b8d291.activities.RSSStreamPageActivity.onCreate(Landroid/os/Bundle;)V",
          "target": "invokevirtual \u003c Application, Ldalvik/system/DexClassLoader, loadClass(Ljava/lang/String;)Ljava/lang/Class; \u003e@206",
          "type": "activity",
          "component": "com.makemedroid.key49b8d291.activities.RSSStreamPageActivity",
          "constraintsFile": "constraints27_2.py",
          "variables": {
            "\u003cChainedInput1\u003e": "IAAv16"
          },
          "stringMap": {
            "7000": ""
          },
          "strings": {
            "IAAv20": "",
            "IAAv4": "",
            "IAAv2": "",
            "IAAv10": "",
            "IAAv12": "",
            "IAAv14": "",
            "IAAv8": "",
            "IAAv6": ""
          }
        }
      ]
    },
    "28": {
      "startMethod": "com.makemedroid.key49b8d291.activities.RSSStreamPageActivity.onCreate(Landroid/os/Bundle;)V",
      "targetMethod": "java.lang.reflect.Method.invoke(Ljava/lang/Object;[Ljava/lang/Object;)Ljava/lang/Object;",
      "eventChain": [
        {
          "start": "com.makemedroid.key49b8d291.activities.RSSStreamPageActivity.onCreate(Landroid/os/Bundle;)V",
          "target": "invokevirtual \u003c Application, Ljava/lang/reflect/Method, invoke(Ljava/lang/Object;[Ljava/lang/Object;)Ljava/lang/Object; \u003e@59",
          "type": "activity",
          "component": "com.makemedroid.key49b8d291.activities.RSSStreamPageActivity",
          "constraintsFile": "constraints28_0.py",
          "variables": {
            "\u003cChainedInput1\u003e": "IAAv16"
          },
          "stringMap": {
            "7000": ""
          },
          "strings": {
            "IAAv4": "",
            "IAAv2": "",
            "IAAv10": "",
            "IAAv12": "",
            "IAAv14": "",
            "IAAv8": "",
            "IAAv6": ""
          }
        }
      ]
    },
    "29": {
      "startMethod": "com.makemedroid.key49b8d291.activities.RSSStreamPageActivity.onCreate(Landroid/os/Bundle;)V",
      "targetMethod": "java.lang.reflect.Method.invoke(Ljava/lang/Object;[Ljava/lang/Object;)Ljava/lang/Object;",
      "eventChain": [
        {
          "start": "com.makemedroid.key49b8d291.activities.ShowHTMLActivity.onCreate(Landroid/os/Bundle;)V",
          "target": "PC@27",
          "type": "activity",
          "component": "com.makemedroid.key49b8d291.activities.ShowHTMLActivity",
          "constraintsFile": "constraints29_0.py",
          "variables": {
            "\u003cChainedInput1\u003e": "IAAv16"
          },
          "stringMap": {
            "7000": "",
            "7001": "http://"
          },
          "strings": {
            "IAAv36": "",
            "IAAv38": "",
            "IAAv14": "",
            "IAAv28": "",
            "IAAv4": "",
            "IAAv20": "",
            "IAAv2": "",
            "IAAv10": "",
            "IAAv12": "",
            "IAAv32": "",
            "IAAv34": "",
            "IAAv8": "",
            "IAAv6": "",
            "IAAv30": ""
          }
        },
        {
          "start": "com.makemedroid.key49b8d291.activities.ShowHTMLActivity.onCreate(Landroid/os/Bundle;)V",
          "target": "",
          "type": "activity",
          "component": "com.makemedroid.key49b8d291.activities.ShowHTMLActivity",
          "constraintsFile": "constraints29_1.py",
          "variables": {
            "\u003cChainedInput1\u003e": "IAAv16"
          },
          "stringMap": {
            "7000": "",
            "7001": "http://"
          },
          "strings": {
            "IAAv37": "",
            "IAAv39": "",
            "IAAv14": "",
            "IAAv29": "",
            "IAAv4": "",
            "IAAv20": "",
            "IAAv2": "",
            "IAAv10": "",
            "IAAv12": "",
            "IAAv45": "",
            "IAAv33": "",
            "IAAv35": "",
            "IAAv8": "",
            "IAAv6": "",
            "IAAv31": ""
          }
        },
        {
          "start": "com.makemedroid.key49b8d291.activities.RSSStreamPageActivity.onCreate(Landroid/os/Bundle;)V",
          "target": "invokevirtual \u003c Application, Ljava/lang/reflect/Method, invoke(Ljava/lang/Object;[Ljava/lang/Object;)Ljava/lang/Object; \u003e@35",
          "type": "activity",
          "component": "com.makemedroid.key49b8d291.activities.RSSStreamPageActivity",
          "constraintsFile": "constraints29_2.py",
          "variables": {
            "\u003cChainedInput1\u003e": "IAAv16"
          },
          "stringMap": {
            "7000": ""
          },
          "strings": {
            "IAAv20": "",
            "IAAv4": "",
            "IAAv2": "",
            "IAAv10": "",
            "IAAv12": "",
            "IAAv14": "",
            "IAAv8": "",
            "IAAv6": ""
          }
        }
      ]
    },
    "30": {
      "startMethod": "com.makemedroid.key49b8d291.activities.RSSStreamPageActivity.onCreate(Landroid/os/Bundle;)V",
      "targetMethod": "dalvik.system.DexClassLoader.loadClass(Ljava/lang/String;)Ljava/lang/Class;",
      "eventChain": [
        {
          "start": "com.makemedroid.key49b8d291.activities.ShowHTMLActivity.onCreate(Landroid/os/Bundle;)V",
          "target": "PC@27",
          "type": "activity",
          "component": "com.makemedroid.key49b8d291.activities.ShowHTMLActivity",
          "constraintsFile": "constraints30_0.py",
          "variables": {
            "\u003cChainedInput1\u003e": "IAAv16"
          },
          "stringMap": {
            "7000": "",
            "7001": "http://"
          },
          "strings": {
            "IAAv36": "",
            "IAAv38": "",
            "IAAv14": "",
            "IAAv28": "",
            "IAAv4": "",
            "IAAv20": "",
            "IAAv2": "",
            "IAAv10": "",
            "IAAv12": "",
            "IAAv32": "",
            "IAAv34": "",
            "IAAv8": "",
            "IAAv6": "",
            "IAAv30": ""
          }
        },
        {
          "start": "com.makemedroid.key49b8d291.activities.ShowHTMLActivity.onCreate(Landroid/os/Bundle;)V",
          "target": "",
          "type": "activity",
          "component": "com.makemedroid.key49b8d291.activities.ShowHTMLActivity",
          "constraintsFile": "constraints30_1.py",
          "variables": {
            "\u003cChainedInput1\u003e": "IAAv16"
          },
          "stringMap": {
            "7000": "",
            "7001": "http://"
          },
          "strings": {
            "IAAv37": "",
            "IAAv39": "",
            "IAAv14": "",
            "IAAv29": "",
            "IAAv4": "",
            "IAAv20": "",
            "IAAv2": "",
            "IAAv10": "",
            "IAAv12": "",
            "IAAv45": "",
            "IAAv33": "",
            "IAAv35": "",
            "IAAv8": "",
            "IAAv6": "",
            "IAAv31": ""
          }
        },
        {
          "start": "com.makemedroid.key49b8d291.activities.RSSStreamPageActivity.onCreate(Landroid/os/Bundle;)V",
          "target": "invokevirtual \u003c Application, Ldalvik/system/DexClassLoader, loadClass(Ljava/lang/String;)Ljava/lang/Class; \u003e@227",
          "type": "activity",
          "component": "com.makemedroid.key49b8d291.activities.RSSStreamPageActivity",
          "constraintsFile": "constraints30_2.py",
          "variables": {
            "\u003cChainedInput1\u003e": "IAAv16"
          },
          "stringMap": {
            "7000": ""
          },
          "strings": {
            "IAAv20": "",
            "IAAv4": "",
            "IAAv2": "",
            "IAAv10": "",
            "IAAv12": "",
            "IAAv14": "",
            "IAAv8": "",
            "IAAv6": ""
          }
        }
      ]
    },
    "31": {
      "startMethod": "com.makemedroid.key49b8d291.activities.RSSStreamPageActivity.onCreate(Landroid/os/Bundle;)V",
      "targetMethod": "dalvik.system.DexClassLoader.loadClass(Ljava/lang/String;)Ljava/lang/Class;",
      "eventChain": [
        {
          "start": "com.makemedroid.key49b8d291.activities.ShowHTMLActivity.onCreate(Landroid/os/Bundle;)V",
          "target": "PC@27",
          "type": "activity",
          "component": "com.makemedroid.key49b8d291.activities.ShowHTMLActivity",
          "constraintsFile": "constraints31_0.py",
          "variables": {
            "\u003cChainedInput1\u003e": "IAAv16"
          },
          "stringMap": {
            "7000": "",
            "7001": "http://"
          },
          "strings": {
            "IAAv36": "",
            "IAAv38": "",
            "IAAv14": "",
            "IAAv28": "",
            "IAAv4": "",
            "IAAv20": "",
            "IAAv2": "",
            "IAAv10": "",
            "IAAv12": "",
            "IAAv32": "",
            "IAAv34": "",
            "IAAv8": "",
            "IAAv6": "",
            "IAAv30": ""
          }
        },
        {
          "start": "com.makemedroid.key49b8d291.activities.ShowHTMLActivity.onCreate(Landroid/os/Bundle;)V",
          "target": "",
          "type": "activity",
          "component": "com.makemedroid.key49b8d291.activities.ShowHTMLActivity",
          "constraintsFile": "constraints31_1.py",
          "variables": {
            "\u003cChainedInput1\u003e": "IAAv16"
          },
          "stringMap": {
            "7000": "",
            "7001": "http://"
          },
          "strings": {
            "IAAv37": "",
            "IAAv39": "",
            "IAAv14": "",
            "IAAv29": "",
            "IAAv4": "",
            "IAAv20": "",
            "IAAv2": "",
            "IAAv10": "",
            "IAAv12": "",
            "IAAv45": "",
            "IAAv33": "",
            "IAAv35": "",
            "IAAv8": "",
            "IAAv6": "",
            "IAAv31": ""
          }
        },
        {
          "start": "com.makemedroid.key49b8d291.activities.RSSStreamPageActivity.onCreate(Landroid/os/Bundle;)V",
          "target": "invokevirtual \u003c Application, Ldalvik/system/DexClassLoader, loadClass(Ljava/lang/String;)Ljava/lang/Class; \u003e@290",
          "type": "activity",
          "component": "com.makemedroid.key49b8d291.activities.RSSStreamPageActivity",
          "constraintsFile": "constraints31_2.py",
          "variables": {
            "\u003cChainedInput1\u003e": "IAAv16"
          },
          "stringMap": {
            "7000": ""
          },
          "strings": {
            "IAAv20": "",
            "IAAv4": "",
            "IAAv2": "",
            "IAAv10": "",
            "IAAv12": "",
            "IAAv14": "",
            "IAAv8": "",
            "IAAv6": ""
          }
        }
      ]
    },
    "32": {
      "startMethod": "com.makemedroid.key49b8d291.activities.RSSStreamPageActivity.onCreate(Landroid/os/Bundle;)V",
      "targetMethod": "dalvik.system.DexClassLoader.loadClass(Ljava/lang/String;)Ljava/lang/Class;",
      "eventChain": [
        {
          "start": "com.makemedroid.key49b8d291.activities.ShowHTMLActivity.onCreate(Landroid/os/Bundle;)V",
          "target": "PC@27",
          "type": "activity",
          "component": "com.makemedroid.key49b8d291.activities.ShowHTMLActivity",
          "constraintsFile": "constraints32_0.py",
          "variables": {
            "\u003cChainedInput1\u003e": "IAAv16"
          },
          "stringMap": {
            "7000": "",
            "7001": "http://"
          },
          "strings": {
            "IAAv36": "",
            "IAAv38": "",
            "IAAv14": "",
            "IAAv28": "",
            "IAAv4": "",
            "IAAv20": "",
            "IAAv2": "",
            "IAAv10": "",
            "IAAv12": "",
            "IAAv32": "",
            "IAAv34": "",
            "IAAv8": "",
            "IAAv6": "",
            "IAAv30": ""
          }
        },
        {
          "start": "com.makemedroid.key49b8d291.activities.ShowHTMLActivity.onCreate(Landroid/os/Bundle;)V",
          "target": "",
          "type": "activity",
          "component": "com.makemedroid.key49b8d291.activities.ShowHTMLActivity",
          "constraintsFile": "constraints32_1.py",
          "variables": {
            "\u003cChainedInput1\u003e": "IAAv16"
          },
          "stringMap": {
            "7000": "",
            "7001": "http://"
          },
          "strings": {
            "IAAv37": "",
            "IAAv39": "",
            "IAAv14": "",
            "IAAv29": "",
            "IAAv4": "",
            "IAAv20": "",
            "IAAv2": "",
            "IAAv10": "",
            "IAAv12": "",
            "IAAv45": "",
            "IAAv33": "",
            "IAAv35": "",
            "IAAv8": "",
            "IAAv6": "",
            "IAAv31": ""
          }
        },
        {
          "start": "com.makemedroid.key49b8d291.activities.RSSStreamPageActivity.onCreate(Landroid/os/Bundle;)V",
          "target": "invokevirtual \u003c Application, Ldalvik/system/DexClassLoader, loadClass(Ljava/lang/String;)Ljava/lang/Class; \u003e@248",
          "type": "activity",
          "component": "com.makemedroid.key49b8d291.activities.RSSStreamPageActivity",
          "constraintsFile": "constraints32_2.py",
          "variables": {
            "\u003cChainedInput1\u003e": "IAAv16"
          },
          "stringMap": {
            "7000": ""
          },
          "strings": {
            "IAAv20": "",
            "IAAv4": "",
            "IAAv2": "",
            "IAAv10": "",
            "IAAv12": "",
            "IAAv14": "",
            "IAAv8": "",
            "IAAv6": ""
          }
        }
      ]
    },
    "33": {
      "startMethod": "com.makemedroid.key49b8d291.activities.RSSStreamPageActivity.onCreate(Landroid/os/Bundle;)V",
      "targetMethod": "dalvik.system.DexClassLoader.loadClass(Ljava/lang/String;)Ljava/lang/Class;",
      "eventChain": [
        {
          "start": "com.makemedroid.key49b8d291.activities.ShowHTMLActivity.onCreate(Landroid/os/Bundle;)V",
          "target": "PC@27",
          "type": "activity",
          "component": "com.makemedroid.key49b8d291.activities.ShowHTMLActivity",
          "constraintsFile": "constraints33_0.py",
          "variables": {
            "\u003cChainedInput1\u003e": "IAAv16"
          },
          "stringMap": {
            "7000": "",
            "7001": "http://"
          },
          "strings": {
            "IAAv36": "",
            "IAAv38": "",
            "IAAv14": "",
            "IAAv28": "",
            "IAAv4": "",
            "IAAv20": "",
            "IAAv2": "",
            "IAAv10": "",
            "IAAv12": "",
            "IAAv32": "",
            "IAAv34": "",
            "IAAv8": "",
            "IAAv6": "",
            "IAAv30": ""
          }
        },
        {
          "start": "com.makemedroid.key49b8d291.activities.ShowHTMLActivity.onCreate(Landroid/os/Bundle;)V",
          "target": "",
          "type": "activity",
          "component": "com.makemedroid.key49b8d291.activities.ShowHTMLActivity",
          "constraintsFile": "constraints33_1.py",
          "variables": {
            "\u003cChainedInput1\u003e": "IAAv16"
          },
          "stringMap": {
            "7000": "",
            "7001": "http://"
          },
          "strings": {
            "IAAv37": "",
            "IAAv39": "",
            "IAAv14": "",
            "IAAv29": "",
            "IAAv4": "",
            "IAAv20": "",
            "IAAv2": "",
            "IAAv10": "",
            "IAAv12": "",
            "IAAv45": "",
            "IAAv33": "",
            "IAAv35": "",
            "IAAv8": "",
            "IAAv6": "",
            "IAAv31": ""
          }
        },
        {
          "start": "com.makemedroid.key49b8d291.activities.RSSStreamPageActivity.onCreate(Landroid/os/Bundle;)V",
          "target": "invokevirtual \u003c Application, Ldalvik/system/DexClassLoader, loadClass(Ljava/lang/String;)Ljava/lang/Class; \u003e@185",
          "type": "activity",
          "component": "com.makemedroid.key49b8d291.activities.RSSStreamPageActivity",
          "constraintsFile": "constraints33_2.py",
          "variables": {
            "\u003cChainedInput1\u003e": "IAAv16"
          },
          "stringMap": {
            "7000": ""
          },
          "strings": {
            "IAAv20": "",
            "IAAv4": "",
            "IAAv2": "",
            "IAAv10": "",
            "IAAv12": "",
            "IAAv14": "",
            "IAAv8": "",
            "IAAv6": ""
          }
        }
      ]
    },
    "34": {
      "startMethod": "com.makemedroid.key49b8d291.activities.RSSStreamPageActivity.onCreate(Landroid/os/Bundle;)V",
      "targetMethod": "java.lang.ClassLoader.loadClass(Ljava/lang/String;)Ljava/lang/Class;",
      "eventChain": [
        {
          "start": "com.makemedroid.key49b8d291.activities.RSSStreamPageActivity.onCreate(Landroid/os/Bundle;)V",
          "target": "invokevirtual \u003c Application, Ljava/lang/ClassLoader, loadClass(Ljava/lang/String;)Ljava/lang/Class; \u003e@50",
          "type": "activity",
          "component": "com.makemedroid.key49b8d291.activities.RSSStreamPageActivity",
          "constraintsFile": "constraints34_0.py",
          "variables": {
            "\u003cChainedInput1\u003e": "IAAv16"
          },
          "stringMap": {
            "7000": ""
          },
          "strings": {
            "IAAv20": "",
            "IAAv4": "",
            "IAAv2": "",
            "IAAv10": "",
            "IAAv12": "",
            "IAAv14": "",
            "IAAv8": "",
            "IAAv6": ""
          }
        }
      ]
    },
    "35": {
      "startMethod": "com.makemedroid.key49b8d291.activities.SelectItemActivity.onCreate(Landroid/os/Bundle;)V",
      "targetMethod": "dalvik.system.DexClassLoader.loadClass(Ljava/lang/String;)Ljava/lang/Class;",
      "eventChain": [
        {
          "start": "com.makemedroid.key49b8d291.activities.ShowHTMLActivity.onCreate(Landroid/os/Bundle;)V",
          "target": "PC@27",
          "type": "activity",
          "component": "com.makemedroid.key49b8d291.activities.ShowHTMLActivity",
          "constraintsFile": "constraints35_0.py",
          "variables": {
            "\u003cChainedInput1\u003e": "IAAv33"
          },
          "stringMap": {
            "7000": "",
            "7001": "http://"
          },
          "strings": {
            "IAAv4": "",
            "IAAv2": "",
            "IAAv23": "",
            "IAAv10": "",
            "IAAv27": "",
            "IAAv15": "",
            "IAAv34": "",
            "IAAv25": "",
            "IAAv8": "",
            "IAAv29": "",
            "IAAv6": "",
            "IAAv31": ""
          }
        },
        {
          "start": "com.makemedroid.key49b8d291.activities.ShowHTMLActivity.onCreate(Landroid/os/Bundle;)V",
          "target": "",
          "type": "activity",
          "component": "com.makemedroid.key49b8d291.activities.ShowHTMLActivity",
          "constraintsFile": "constraints35_1.py",
          "variables": {
            "\u003cChainedInput1\u003e": "IAAv34"
          },
          "stringMap": {
            "7000": "",
            "7001": "http://"
          },
          "strings": {
            "IAAv15": "",
            "IAAv28": "",
            "IAAv26": "",
            "IAAv4": "",
            "IAAv2": "",
            "IAAv24": "",
            "IAAv10": "",
            "IAAv32": "",
            "IAAv35": "",
            "IAAv8": "",
            "IAAv41": "",
            "IAAv6": "",
            "IAAv30": ""
          }
        },
        {
          "start": "com.makemedroid.key49b8d291.activities.SelectItemActivity.onCreate(Landroid/os/Bundle;)V",
          "target": "invokevirtual \u003c Application, Ldalvik/system/DexClassLoader, loadClass(Ljava/lang/String;)Ljava/lang/Class; \u003e@269",
          "type": "activity",
          "component": "com.makemedroid.key49b8d291.activities.SelectItemActivity",
          "constraintsFile": "constraints35_2.py",
          "variables": {},
          "stringMap": {
            "7000": ""
          },
          "strings": {
            "IAAv4": "",
            "IAAv2": "",
            "IAAv10": "",
            "IAAv15": "",
            "IAAv8": "",
            "IAAv6": ""
          }
        }
      ]
    },
    "36": {
      "startMethod": "com.makemedroid.key49b8d291.activities.SelectItemActivity.onCreate(Landroid/os/Bundle;)V",
      "targetMethod": "java.lang.reflect.Method.invoke(Ljava/lang/Object;[Ljava/lang/Object;)Ljava/lang/Object;",
      "eventChain": [
        {
          "start": "com.makemedroid.key49b8d291.activities.ShowHTMLActivity.onCreate(Landroid/os/Bundle;)V",
          "target": "PC@27",
          "type": "activity",
          "component": "com.makemedroid.key49b8d291.activities.ShowHTMLActivity",
          "constraintsFile": "constraints36_0.py",
          "variables": {
            "\u003cChainedInput1\u003e": "IAAv33"
          },
          "stringMap": {
            "7000": "",
            "7001": "http://"
          },
          "strings": {
            "IAAv4": "",
            "IAAv2": "",
            "IAAv23": "",
            "IAAv10": "",
            "IAAv27": "",
            "IAAv15": "",
            "IAAv34": "",
            "IAAv25": "",
            "IAAv8": "",
            "IAAv29": "",
            "IAAv6": "",
            "IAAv31": ""
          }
        },
        {
          "start": "com.makemedroid.key49b8d291.activities.ShowHTMLActivity.onCreate(Landroid/os/Bundle;)V",
          "target": "",
          "type": "activity",
          "component": "com.makemedroid.key49b8d291.activities.ShowHTMLActivity",
          "constraintsFile": "constraints36_1.py",
          "variables": {
            "\u003cChainedInput1\u003e": "IAAv34"
          },
          "stringMap": {
            "7000": "",
            "7001": "http://"
          },
          "strings": {
            "IAAv15": "",
            "IAAv28": "",
            "IAAv26": "",
            "IAAv4": "",
            "IAAv2": "",
            "IAAv24": "",
            "IAAv10": "",
            "IAAv32": "",
            "IAAv35": "",
            "IAAv8": "",
            "IAAv41": "",
            "IAAv6": "",
            "IAAv30": ""
          }
        },
        {
          "start": "com.makemedroid.key49b8d291.activities.SelectItemActivity.onCreate(Landroid/os/Bundle;)V",
          "target": "invokevirtual \u003c Application, Ljava/lang/reflect/Method, invoke(Ljava/lang/Object;[Ljava/lang/Object;)Ljava/lang/Object; \u003e@35",
          "type": "activity",
          "component": "com.makemedroid.key49b8d291.activities.SelectItemActivity",
          "constraintsFile": "constraints36_2.py",
          "variables": {},
          "stringMap": {
            "7000": ""
          },
          "strings": {
            "IAAv4": "",
            "IAAv2": "",
            "IAAv10": "",
            "IAAv15": "",
            "IAAv8": "",
            "IAAv6": ""
          }
        }
      ]
    },
    "37": {
      "startMethod": "com.makemedroid.key49b8d291.activities.SelectItemActivity.onCreate(Landroid/os/Bundle;)V",
      "targetMethod": "java.lang.ClassLoader.loadClass(Ljava/lang/String;)Ljava/lang/Class;",
      "eventChain": [
        {
          "start": "com.makemedroid.key49b8d291.activities.SelectItemActivity.onCreate(Landroid/os/Bundle;)V",
          "target": "invokevirtual \u003c Application, Ljava/lang/ClassLoader, loadClass(Ljava/lang/String;)Ljava/lang/Class; \u003e@50",
          "type": "activity",
          "component": "com.makemedroid.key49b8d291.activities.SelectItemActivity",
          "constraintsFile": "constraints37_0.py",
          "variables": {},
          "stringMap": {
            "7000": ""
          },
          "strings": {
            "IAAv4": "",
            "IAAv2": "",
            "IAAv10": "",
            "IAAv15": "",
            "IAAv8": "",
            "IAAv6": ""
          }
        }
      ]
    },
    "38": {
      "startMethod": "com.makemedroid.key49b8d291.activities.SelectItemActivity.onCreate(Landroid/os/Bundle;)V",
      "targetMethod": "dalvik.system.DexClassLoader.loadClass(Ljava/lang/String;)Ljava/lang/Class;",
      "eventChain": [
        {
          "start": "com.makemedroid.key49b8d291.activities.ShowHTMLActivity.onCreate(Landroid/os/Bundle;)V",
          "target": "PC@27",
          "type": "activity",
          "component": "com.makemedroid.key49b8d291.activities.ShowHTMLActivity",
          "constraintsFile": "constraints38_0.py",
          "variables": {
            "\u003cChainedInput1\u003e": "IAAv33"
          },
          "stringMap": {
            "7000": "",
            "7001": "http://"
          },
          "strings": {
            "IAAv4": "",
            "IAAv2": "",
            "IAAv23": "",
            "IAAv10": "",
            "IAAv27": "",
            "IAAv15": "",
            "IAAv34": "",
            "IAAv25": "",
            "IAAv8": "",
            "IAAv29": "",
            "IAAv6": "",
            "IAAv31": ""
          }
        },
        {
          "start": "com.makemedroid.key49b8d291.activities.ShowHTMLActivity.onCreate(Landroid/os/Bundle;)V",
          "target": "",
          "type": "activity",
          "component": "com.makemedroid.key49b8d291.activities.ShowHTMLActivity",
          "constraintsFile": "constraints38_1.py",
          "variables": {
            "\u003cChainedInput1\u003e": "IAAv34"
          },
          "stringMap": {
            "7000": "",
            "7001": "http://"
          },
          "strings": {
            "IAAv15": "",
            "IAAv28": "",
            "IAAv26": "",
            "IAAv4": "",
            "IAAv2": "",
            "IAAv24": "",
            "IAAv10": "",
            "IAAv32": "",
            "IAAv35": "",
            "IAAv8": "",
            "IAAv41": "",
            "IAAv6": "",
            "IAAv30": ""
          }
        },
        {
          "start": "com.makemedroid.key49b8d291.activities.SelectItemActivity.onCreate(Landroid/os/Bundle;)V",
          "target": "invokevirtual \u003c Application, Ldalvik/system/DexClassLoader, loadClass(Ljava/lang/String;)Ljava/lang/Class; \u003e@290",
          "type": "activity",
          "component": "com.makemedroid.key49b8d291.activities.SelectItemActivity",
          "constraintsFile": "constraints38_2.py",
          "variables": {},
          "stringMap": {
            "7000": ""
          },
          "strings": {
            "IAAv4": "",
            "IAAv2": "",
            "IAAv10": "",
            "IAAv15": "",
            "IAAv8": "",
            "IAAv6": ""
          }
        }
      ]
    },
    "39": {
      "startMethod": "com.makemedroid.key49b8d291.activities.SelectItemActivity.onCreate(Landroid/os/Bundle;)V",
      "targetMethod": "dalvik.system.DexClassLoader.loadClass(Ljava/lang/String;)Ljava/lang/Class;",
      "eventChain": [
        {
          "start": "com.makemedroid.key49b8d291.activities.ShowHTMLActivity.onCreate(Landroid/os/Bundle;)V",
          "target": "PC@27",
          "type": "activity",
          "component": "com.makemedroid.key49b8d291.activities.ShowHTMLActivity",
          "constraintsFile": "constraints39_0.py",
          "variables": {
            "\u003cChainedInput1\u003e": "IAAv33"
          },
          "stringMap": {
            "7000": "",
            "7001": "http://"
          },
          "strings": {
            "IAAv4": "",
            "IAAv2": "",
            "IAAv23": "",
            "IAAv10": "",
            "IAAv27": "",
            "IAAv15": "",
            "IAAv34": "",
            "IAAv25": "",
            "IAAv8": "",
            "IAAv29": "",
            "IAAv6": "",
            "IAAv31": ""
          }
        },
        {
          "start": "com.makemedroid.key49b8d291.activities.ShowHTMLActivity.onCreate(Landroid/os/Bundle;)V",
          "target": "",
          "type": "activity",
          "component": "com.makemedroid.key49b8d291.activities.ShowHTMLActivity",
          "constraintsFile": "constraints39_1.py",
          "variables": {
            "\u003cChainedInput1\u003e": "IAAv34"
          },
          "stringMap": {
            "7000": "",
            "7001": "http://"
          },
          "strings": {
            "IAAv15": "",
            "IAAv28": "",
            "IAAv26": "",
            "IAAv4": "",
            "IAAv2": "",
            "IAAv24": "",
            "IAAv10": "",
            "IAAv32": "",
            "IAAv35": "",
            "IAAv8": "",
            "IAAv41": "",
            "IAAv6": "",
            "IAAv30": ""
          }
        },
        {
          "start": "com.makemedroid.key49b8d291.activities.SelectItemActivity.onCreate(Landroid/os/Bundle;)V",
          "target": "invokevirtual \u003c Application, Ldalvik/system/DexClassLoader, loadClass(Ljava/lang/String;)Ljava/lang/Class; \u003e@206",
          "type": "activity",
          "component": "com.makemedroid.key49b8d291.activities.SelectItemActivity",
          "constraintsFile": "constraints39_2.py",
          "variables": {},
          "stringMap": {
            "7000": ""
          },
          "strings": {
            "IAAv4": "",
            "IAAv2": "",
            "IAAv10": "",
            "IAAv15": "",
            "IAAv8": "",
            "IAAv6": ""
          }
        }
      ]
    },
    "40": {
      "startMethod": "com.makemedroid.key49b8d291.activities.SelectItemActivity.onCreate(Landroid/os/Bundle;)V",
      "targetMethod": "dalvik.system.DexClassLoader.loadClass(Ljava/lang/String;)Ljava/lang/Class;",
      "eventChain": [
        {
          "start": "com.makemedroid.key49b8d291.activities.ShowHTMLActivity.onCreate(Landroid/os/Bundle;)V",
          "target": "PC@27",
          "type": "activity",
          "component": "com.makemedroid.key49b8d291.activities.ShowHTMLActivity",
          "constraintsFile": "constraints40_0.py",
          "variables": {
            "\u003cChainedInput1\u003e": "IAAv33"
          },
          "stringMap": {
            "7000": "",
            "7001": "http://"
          },
          "strings": {
            "IAAv4": "",
            "IAAv2": "",
            "IAAv23": "",
            "IAAv10": "",
            "IAAv27": "",
            "IAAv15": "",
            "IAAv34": "",
            "IAAv25": "",
            "IAAv8": "",
            "IAAv29": "",
            "IAAv6": "",
            "IAAv31": ""
          }
        },
        {
          "start": "com.makemedroid.key49b8d291.activities.ShowHTMLActivity.onCreate(Landroid/os/Bundle;)V",
          "target": "",
          "type": "activity",
          "component": "com.makemedroid.key49b8d291.activities.ShowHTMLActivity",
          "constraintsFile": "constraints40_1.py",
          "variables": {
            "\u003cChainedInput1\u003e": "IAAv34"
          },
          "stringMap": {
            "7000": "",
            "7001": "http://"
          },
          "strings": {
            "IAAv15": "",
            "IAAv28": "",
            "IAAv26": "",
            "IAAv4": "",
            "IAAv2": "",
            "IAAv24": "",
            "IAAv10": "",
            "IAAv32": "",
            "IAAv35": "",
            "IAAv8": "",
            "IAAv41": "",
            "IAAv6": "",
            "IAAv30": ""
          }
        },
        {
          "start": "com.makemedroid.key49b8d291.activities.SelectItemActivity.onCreate(Landroid/os/Bundle;)V",
          "target": "invokevirtual \u003c Application, Ldalvik/system/DexClassLoader, loadClass(Ljava/lang/String;)Ljava/lang/Class; \u003e@227",
          "type": "activity",
          "component": "com.makemedroid.key49b8d291.activities.SelectItemActivity",
          "constraintsFile": "constraints40_2.py",
          "variables": {},
          "stringMap": {
            "7000": ""
          },
          "strings": {
            "IAAv4": "",
            "IAAv2": "",
            "IAAv10": "",
            "IAAv15": "",
            "IAAv8": "",
            "IAAv6": ""
          }
        }
      ]
    },
    "41": {
      "startMethod": "com.makemedroid.key49b8d291.activities.SelectItemActivity.onCreate(Landroid/os/Bundle;)V",
      "targetMethod": "dalvik.system.DexClassLoader.loadClass(Ljava/lang/String;)Ljava/lang/Class;",
      "eventChain": [
        {
          "start": "com.makemedroid.key49b8d291.activities.ShowHTMLActivity.onCreate(Landroid/os/Bundle;)V",
          "target": "PC@27",
          "type": "activity",
          "component": "com.makemedroid.key49b8d291.activities.ShowHTMLActivity",
          "constraintsFile": "constraints41_0.py",
          "variables": {
            "\u003cChainedInput1\u003e": "IAAv33"
          },
          "stringMap": {
            "7000": "",
            "7001": "http://"
          },
          "strings": {
            "IAAv4": "",
            "IAAv2": "",
            "IAAv23": "",
            "IAAv10": "",
            "IAAv27": "",
            "IAAv15": "",
            "IAAv34": "",
            "IAAv25": "",
            "IAAv8": "",
            "IAAv29": "",
            "IAAv6": "",
            "IAAv31": ""
          }
        },
        {
          "start": "com.makemedroid.key49b8d291.activities.ShowHTMLActivity.onCreate(Landroid/os/Bundle;)V",
          "target": "",
          "type": "activity",
          "component": "com.makemedroid.key49b8d291.activities.ShowHTMLActivity",
          "constraintsFile": "constraints41_1.py",
          "variables": {
            "\u003cChainedInput1\u003e": "IAAv34"
          },
          "stringMap": {
            "7000": "",
            "7001": "http://"
          },
          "strings": {
            "IAAv15": "",
            "IAAv28": "",
            "IAAv26": "",
            "IAAv4": "",
            "IAAv2": "",
            "IAAv24": "",
            "IAAv10": "",
            "IAAv32": "",
            "IAAv35": "",
            "IAAv8": "",
            "IAAv41": "",
            "IAAv6": "",
            "IAAv30": ""
          }
        },
        {
          "start": "com.makemedroid.key49b8d291.activities.SelectItemActivity.onCreate(Landroid/os/Bundle;)V",
          "target": "invokevirtual \u003c Application, Ldalvik/system/DexClassLoader, loadClass(Ljava/lang/String;)Ljava/lang/Class; \u003e@185",
          "type": "activity",
          "component": "com.makemedroid.key49b8d291.activities.SelectItemActivity",
          "constraintsFile": "constraints41_2.py",
          "variables": {},
          "stringMap": {
            "7000": ""
          },
          "strings": {
            "IAAv4": "",
            "IAAv2": "",
            "IAAv10": "",
            "IAAv15": "",
            "IAAv8": "",
            "IAAv6": ""
          }
        }
      ]
    },
    "42": {
      "startMethod": "com.makemedroid.key49b8d291.activities.SelectItemActivity.onCreate(Landroid/os/Bundle;)V",
      "targetMethod": "dalvik.system.DexClassLoader.loadClass(Ljava/lang/String;)Ljava/lang/Class;",
      "eventChain": [
        {
          "start": "com.makemedroid.key49b8d291.activities.ShowHTMLActivity.onCreate(Landroid/os/Bundle;)V",
          "target": "PC@27",
          "type": "activity",
          "component": "com.makemedroid.key49b8d291.activities.ShowHTMLActivity",
          "constraintsFile": "constraints42_0.py",
          "variables": {
            "\u003cChainedInput1\u003e": "IAAv33"
          },
          "stringMap": {
            "7000": "",
            "7001": "http://"
          },
          "strings": {
            "IAAv4": "",
            "IAAv2": "",
            "IAAv23": "",
            "IAAv10": "",
            "IAAv27": "",
            "IAAv15": "",
            "IAAv34": "",
            "IAAv25": "",
            "IAAv8": "",
            "IAAv29": "",
            "IAAv6": "",
            "IAAv31": ""
          }
        },
        {
          "start": "com.makemedroid.key49b8d291.activities.ShowHTMLActivity.onCreate(Landroid/os/Bundle;)V",
          "target": "",
          "type": "activity",
          "component": "com.makemedroid.key49b8d291.activities.ShowHTMLActivity",
          "constraintsFile": "constraints42_1.py",
          "variables": {
            "\u003cChainedInput1\u003e": "IAAv34"
          },
          "stringMap": {
            "7000": "",
            "7001": "http://"
          },
          "strings": {
            "IAAv15": "",
            "IAAv28": "",
            "IAAv26": "",
            "IAAv4": "",
            "IAAv2": "",
            "IAAv24": "",
            "IAAv10": "",
            "IAAv32": "",
            "IAAv35": "",
            "IAAv8": "",
            "IAAv41": "",
            "IAAv6": "",
            "IAAv30": ""
          }
        },
        {
          "start": "com.makemedroid.key49b8d291.activities.SelectItemActivity.onCreate(Landroid/os/Bundle;)V",
          "target": "invokevirtual \u003c Application, Ldalvik/system/DexClassLoader, loadClass(Ljava/lang/String;)Ljava/lang/Class; \u003e@248",
          "type": "activity",
          "component": "com.makemedroid.key49b8d291.activities.SelectItemActivity",
          "constraintsFile": "constraints42_2.py",
          "variables": {},
          "stringMap": {
            "7000": ""
          },
          "strings": {
            "IAAv4": "",
            "IAAv2": "",
            "IAAv10": "",
            "IAAv15": "",
            "IAAv8": "",
            "IAAv6": ""
          }
        }
      ]
    },
    "43": {
      "startMethod": "com.makemedroid.key49b8d291.activities.SelectItemActivity.onCreate(Landroid/os/Bundle;)V",
      "targetMethod": "java.lang.reflect.Method.invoke(Ljava/lang/Object;[Ljava/lang/Object;)Ljava/lang/Object;",
      "eventChain": [
        {
          "start": "com.makemedroid.key49b8d291.activities.SelectItemActivity.onCreate(Landroid/os/Bundle;)V",
          "target": "invokevirtual \u003c Application, Ljava/lang/reflect/Method, invoke(Ljava/lang/Object;[Ljava/lang/Object;)Ljava/lang/Object; \u003e@59",
          "type": "activity",
          "component": "com.makemedroid.key49b8d291.activities.SelectItemActivity",
          "constraintsFile": "constraints43_0.py",
          "variables": {},
          "stringMap": {
            "7000": ""
          },
          "strings": {
            "IAAv4": "",
            "IAAv2": "",
            "IAAv10": "",
            "IAAv8": "",
            "IAAv6": ""
          }
        }
      ]
    },
    "44": {
      "startMethod": "com.makemedroid.key49b8d291.activities.PushNewsActivity.onCreate(Landroid/os/Bundle;)V",
      "targetMethod": "java.lang.reflect.Method.invoke(Ljava/lang/Object;[Ljava/lang/Object;)Ljava/lang/Object;",
      "eventChain": [
        {
          "start": "com.makemedroid.key49b8d291.activities.PushNewsActivity.onCreate(Landroid/os/Bundle;)V",
          "target": "invokevirtual \u003c Application, Ljava/lang/reflect/Method, invoke(Ljava/lang/Object;[Ljava/lang/Object;)Ljava/lang/Object; \u003e@59",
          "type": "activity",
          "component": "com.makemedroid.key49b8d291.activities.PushNewsActivity",
          "constraintsFile": "constraints44_0.py",
          "variables": {
            "\u003cChainedInput1\u003e": "IAAv1"
          },
          "stringMap": {},
          "strings": {}
        }
      ]
    },
    "45": {
      "startMethod": "com.makemedroid.key49b8d291.activities.ContactTabNewMsgActivity.onCreate(Landroid/os/Bundle;)V",
      "targetMethod": "java.lang.reflect.Method.invoke(Ljava/lang/Object;[Ljava/lang/Object;)Ljava/lang/Object;",
      "eventChain": [
        {
          "start": "com.makemedroid.key49b8d291.activities.ContactTabNewMsgActivity.onCreate(Landroid/os/Bundle;)V",
          "target": "invokevirtual \u003c Application, Ljava/lang/reflect/Method, invoke(Ljava/lang/Object;[Ljava/lang/Object;)Ljava/lang/Object; \u003e@59",
          "type": "activity",
          "component": "com.makemedroid.key49b8d291.activities.ContactTabNewMsgActivity",
          "constraintsFile": "constraints45_0.py",
          "variables": {},
          "stringMap": {
            "7000": "public"
          },
          "strings": {
            "IAAv0": ""
          }
        }
      ]
    },
    "46": {
      "startMethod": "com.paypal.android.MEP.PayPalActivity.onCreate(Landroid/os/Bundle;)V",
      "targetMethod": "org.apache.http.impl.client.DefaultHttpClient.execute(Lorg/apache/http/client/methods/HttpUriRequest;)Lorg/apache/http/HttpResponse;",
      "eventChain": [
        {
          "start": "com.paypal.android.MEP.PayPalActivity.onCreate(Landroid/os/Bundle;)V",
          "target": "",
          "type": "activity",
          "component": "com.paypal.android.MEP.PayPalActivity",
          "constraintsFile": "constraints46_0.py",
          "variables": {},
          "stringMap": {},
          "strings": {}
        },
        {
          "start": "com.paypal.android.MEP.PayPalActivity.onCreate(Landroid/os/Bundle;)V",
          "target": "",
          "type": "activity",
          "component": "com.paypal.android.MEP.PayPalActivity"
        },
        {
          "start": "com.paypal.android.MEP.PayPalActivity.onCreate(Landroid/os/Bundle;)V",
          "target": "invokevirtual \u003c Application, Lorg/apache/http/impl/client/DefaultHttpClient, execute(Lorg/apache/http/client/methods/HttpUriRequest;)Lorg/apache/http/HttpResponse; \u003e@409",
          "type": "activity",
          "component": "com.paypal.android.MEP.PayPalActivity",
          "constraintsFile": "constraints46_1.py",
          "variables": {},
          "stringMap": {},
          "strings": {}
        }
      ]
    },
    "47": {
      "startMethod": "com.paypal.android.MEP.PayPalActivity.onCreate(Landroid/os/Bundle;)V",
      "targetMethod": "org.apache.http.impl.client.DefaultHttpClient.execute(Lorg/apache/http/client/methods/HttpUriRequest;)Lorg/apache/http/HttpResponse;",
      "eventChain": [
        {
          "start": "com.paypal.android.MEP.PayPalActivity.onCreate(Landroid/os/Bundle;)V",
          "target": "",
          "type": "activity",
          "component": "com.paypal.android.MEP.PayPalActivity",
          "constraintsFile": "constraints47_0.py",
          "variables": {},
          "stringMap": {},
          "strings": {}
        },
        {
          "start": "com.paypal.android.MEP.PayPalActivity.onCreate(Landroid/os/Bundle;)V",
          "target": "invokevirtual \u003c Application, Lorg/apache/http/impl/client/DefaultHttpClient, execute(Lorg/apache/http/client/methods/HttpUriRequest;)Lorg/apache/http/HttpResponse; \u003e@53",
          "type": "activity",
          "component": "com.paypal.android.MEP.PayPalActivity",
          "constraintsFile": "constraints47_1.py",
          "variables": {},
          "stringMap": {},
          "strings": {}
        }
      ]
    },
    "48": {
      "startMethod": "com.makemedroid.key49b8d291.activities.TableEntriesActivity.onCreate(Landroid/os/Bundle;)V",
      "targetMethod": "java.lang.reflect.Method.invoke(Ljava/lang/Object;[Ljava/lang/Object;)Ljava/lang/Object;",
      "eventChain": [
        {
          "start": "com.makemedroid.key49b8d291.activities.TableEntriesActivity.onCreate(Landroid/os/Bundle;)V",
          "target": "invokevirtual \u003c Application, Ljava/lang/reflect/Method, invoke(Ljava/lang/Object;[Ljava/lang/Object;)Ljava/lang/Object; \u003e@59",
          "type": "activity",
          "component": "com.makemedroid.key49b8d291.activities.TableEntriesActivity",
          "constraintsFile": "constraints48_0.py",
          "variables": {},
          "stringMap": {
            "7000": "",
            "7001": "\u003cUI\u003e"
          },
          "strings": {
            "IAAv0": ""
          }
        }
      ]
    },
    "49": {
      "startMethod": "com.makemedroid.key49b8d291.activities.MediaStreamActivity.onCreate(Landroid/os/Bundle;)V",
      "targetMethod": "java.lang.reflect.Method.invoke(Ljava/lang/Object;[Ljava/lang/Object;)Ljava/lang/Object;",
      "eventChain": [
        {
          "start": "com.makemedroid.key49b8d291.activities.MediaStreamActivity.onCreate(Landroid/os/Bundle;)V",
          "target": "invokevirtual \u003c Application, Ljava/lang/reflect/Method, invoke(Ljava/lang/Object;[Ljava/lang/Object;)Ljava/lang/Object; \u003e@59",
          "type": "activity",
          "component": "com.makemedroid.key49b8d291.activities.MediaStreamActivity",
          "constraintsFile": "constraints49_0.py",
          "variables": {},
          "stringMap": {},
          "strings": {}
        }
      ]
    },
    "50": {
      "startMethod": "com.makemedroid.key49b8d291.activities.MediaStreamActivity.onCreate(Landroid/os/Bundle;)V",
      "targetMethod": "java.net.URL.openConnection()Ljava/net/URLConnection;",
      "eventChain": [
        {
          "start": "com.makemedroid.key49b8d291.activities.MediaStreamActivity.onCreate(Landroid/os/Bundle;)V",
          "target": "invokevirtual \u003c Application, Ljava/net/URL, openConnection()Ljava/net/URLConnection; \u003e@11",
          "type": "activity",
          "component": "com.makemedroid.key49b8d291.activities.MediaStreamActivity"
        }
      ]
    },
    "51": {
      "startMethod": "com.makemedroid.key49b8d291.activities.FullscreenPictureViewActivity.onCreate(Landroid/os/Bundle;)V",
      "targetMethod": "java.lang.reflect.Method.invoke(Ljava/lang/Object;[Ljava/lang/Object;)Ljava/lang/Object;",
      "eventChain": [
        {
          "start": "com.makemedroid.key49b8d291.activities.FullscreenPictureViewActivity.onCreate(Landroid/os/Bundle;)V",
          "target": "invokevirtual \u003c Application, Ljava/lang/reflect/Method, invoke(Ljava/lang/Object;[Ljava/lang/Object;)Ljava/lang/Object; \u003e@59",
          "type": "activity",
          "component": "com.makemedroid.key49b8d291.activities.FullscreenPictureViewActivity",
          "constraintsFile": "constraints51_0.py",
          "variables": {},
          "stringMap": {},
          "strings": {}
        }
      ]
    },
    "52": {
      "startMethod": "com.makemedroid.key49b8d291.activities.ContactActivity.onCreate(Landroid/os/Bundle;)V",
      "targetMethod": "java.lang.reflect.Method.invoke(Ljava/lang/Object;[Ljava/lang/Object;)Ljava/lang/Object;",
      "eventChain": [
        {
          "start": "com.makemedroid.key49b8d291.activities.ContactActivity.onCreate(Landroid/os/Bundle;)V",
          "target": "invokevirtual \u003c Application, Ljava/lang/reflect/Method, invoke(Ljava/lang/Object;[Ljava/lang/Object;)Ljava/lang/Object; \u003e@59",
          "type": "activity",
          "component": "com.makemedroid.key49b8d291.activities.ContactActivity",
          "constraintsFile": "constraints52_0.py",
          "variables": {},
          "stringMap": {},
          "strings": {}
        }
      ]
    },
    "53": {
      "startMethod": "com.makemedroid.key49b8d291.model.gf.onClick(Landroid/content/DialogInterface;I)V",
      "targetMethod": "java.net.URL.openConnection()Ljava/net/URLConnection;",
      "eventChain": [
        {
          "start": "com.makemedroid.key49b8d291.model.gf.onClick(Landroid/content/DialogInterface;I)V",
          "target": "invokevirtual \u003c Application, Ljava/net/URL, openConnection()Ljava/net/URLConnection; \u003e@130",
          "type": "ui",
          "activities": [
            "com.makemedroid.key49b8d291.MyeAppMainActivity"
          ],
          "listener": "com.makemedroid.key49b8d291.model.gf",
          "listenerMethod": "onClick",
          "uiType": "onClick",
          "inDialog": "true",
          "constraintsFile": "constraints53_0.py",
          "variables": {
            "\u003cChainedInput2\u003e": "IAAv0"
          },
          "stringMap": {},
          "strings": {}
        }
      ]
    },
    "54": {
      "startMethod": "com.makemedroid.key49b8d291.model.gg.onClick(Landroid/content/DialogInterface;I)V",
      "targetMethod": "android.telephony.gsm.SmsManager.sendTextMessage(Ljava/lang/String;Ljava/lang/String;Ljava/lang/String;Landroid/app/PendingIntent;Landroid/app/PendingIntent;)V",
      "eventChain": [
        {
          "start": "com.makemedroid.key49b8d291.model.gg.onClick(Landroid/content/DialogInterface;I)V",
          "target": "invokevirtual \u003c Application, Landroid/telephony/gsm/SmsManager, sendTextMessage(Ljava/lang/String;Ljava/lang/String;Ljava/lang/String;Landroid/app/PendingIntent;Landroid/app/PendingIntent;)V \u003e@175",
          "type": "ui",
          "activities": [
            "com.makemedroid.key49b8d291.MyeAppMainActivity"
          ],
          "listener": "com.makemedroid.key49b8d291.model.gg",
          "listenerMethod": "onClick",
          "uiType": "onClick",
          "inDialog": "true"
        }
      ]
    },
    "55": {
      "startMethod": "com.makemedroid.key49b8d291.controls.a.an.onClick(Landroid/view/View;)V",
      "targetMethod": "org.apache.http.impl.client.DefaultHttpClient.execute(Lorg/apache/http/client/methods/HttpUriRequest;)Lorg/apache/http/HttpResponse;",
      "eventChain": [
        {
          "start": "com.makemedroid.key49b8d291.controls.a.an.onClick(Landroid/view/View;)V",
          "target": "invokevirtual \u003c Application, Lorg/apache/http/impl/client/DefaultHttpClient, execute(Lorg/apache/http/client/methods/HttpUriRequest;)Lorg/apache/http/HttpResponse; \u003e@32",
          "type": "ui",
          "activities": [
            "com.makemedroid.key49b8d291.MyeAppMainActivity"
          ],
          "listener": "com.makemedroid.key49b8d291.controls.a.an",
          "listenerMethod": "onClick",
          "uiType": "onClick",
          "constraintsFile": "constraints55_0.py",
          "variables": {
            "\u003cUI\u003e.getContext().d()": "IAAv4"
          },
          "stringMap": {
            "7000": "?",
            "7001": "\u003cUI\u003e"
          },
          "strings": {}
        }
      ]
    },
    "56": {
      "startMethod": "com.facebook.widget.q.onClick(Landroid/view/View;)V",
      "targetMethod": "java.lang.reflect.Method.invoke(Ljava/lang/Object;[Ljava/lang/Object;)Ljava/lang/Object;",
      "eventChain": [
        {
          "start": "com.facebook.LoginActivity.onResume()V",
          "target": "PC@7",
          "type": "activity",
          "component": "com.facebook.LoginActivity",
          "constraintsFile": "constraints56_0.py",
          "variables": {},
          "stringMap": {},
          "strings": {}
        },
        {
          "start": "com.facebook.widget.q.onClick(Landroid/view/View;)V",
          "target": "invokevirtual \u003c Application, Ljava/lang/reflect/Method, invoke(Ljava/lang/Object;[Ljava/lang/Object;)Ljava/lang/Object; \u003e@48",
          "type": "ui",
          "activities": [
            "com.makemedroid.key49b8d291.MyeAppMainActivity"
          ],
          "listener": "com.facebook.widget.q",
          "listenerMethod": "onClick",
          "uiType": "onClick",
          "constraintsFile": "constraints56_1.py",
          "variables": {},
          "stringMap": {},
          "strings": {}
        }
      ]
    },
    "57": {
      "startMethod": "com.facebook.widget.q.onClick(Landroid/view/View;)V",
      "targetMethod": "java.net.URL.openConnection()Ljava/net/URLConnection;",
      "eventChain": [
        {
          "start": "com.makemedroid.key49b8d291.social.facebook.FacebookActivity.onCreate(Landroid/os/Bundle;)V",
          "target": "PC@12",
          "type": "activity",
          "component": "com.makemedroid.key49b8d291.social.facebook.FacebookActivity",
          "constraintsFile": "constraints57_0.py",
          "variables": {},
          "stringMap": {},
          "strings": {}
        },
        {
          "start": "com.facebook.widget.q.onClick(Landroid/view/View;)V",
          "target": "invokevirtual \u003c Application, Ljava/net/URL, openConnection()Ljava/net/URLConnection; \u003e@2",
          "type": "ui",
          "activities": [
            "com.makemedroid.key49b8d291.MyeAppMainActivity"
          ],
          "listener": "com.facebook.widget.q",
          "listenerMethod": "onClick",
          "uiType": "onClick",
          "constraintsFile": "constraints57_1.py",
          "variables": {},
          "stringMap": {},
          "strings": {
            "IAAv14": "",
            "IAAv17": ""
          }
        }
      ]
    }
  }
}