{
  "packageName": "com.boi.uvcod",
  "mainActivity": "com.boi.uvcod.Logo",
  "callPaths": {
    "0": {
      "startMethod": "com.boi.uvcod.App$1.onClick(Landroid/view/View;)V",
      "targetMethod": "java.net.URL.openConnection()Ljava/net/URLConnection;",
      "eventChain": [
        {
          "start": "com.boi.uvcod.App.onCreate(Landroid/os/Bundle;)V",
          "target": "invokevirtual \u003c Application, Landroid/widget/LinearLayout, setOnClickListener(Landroid/view/View$OnClickListener;)V \u003e@203",
          "type": "activity",
          "component": "com.boi.uvcod.App"
        },
        {
          "start": "com.boi.uvcod.App$1.onClick(Landroid/view/View;)V",
          "target": "invokevirtual \u003c Application, Ljava/net/URL, openConnection()Ljava/net/URLConnection; \u003e@51",
          "type": "ui",
          "activities": [
            "com.boi.uvcod.App"
          ],
          "listener": "com.boi.uvcod.App$1",
          "listenerMethod": "onClick",
          "uiType": "onClick",
          "constraintsFile": "constraints0_0.py",
          "variables": {
            "\u003cInput1\u003e.getId()": "IAAv0"
          },
          "stringMap": {},
          "strings": {}
        }
      ]
    }
  }
}