{
  "packageName": "com.depositmobi",
  "mainActivity": "com.depositmobi.Main",
  "callPaths": {
    "0": {
      "startMethod": "com.depositmobi.Main.onClick(Landroid/view/View;)V",
      "targetMethod": "android.telephony.SmsManager.sendTextMessage(Ljava/lang/String;Ljava/lang/String;Ljava/lang/String;Landroid/app/PendingIntent;Landroid/app/PendingIntent;)V",
      "eventChain": [
        {
          "start": "com.depositmobi.Main.onCreate(Landroid/os/Bundle;)V",
          "target": "invokevirtual \u003c Application, Landroid/widget/Button, setOnClickListener(Landroid/view/View$OnClickListener;)V \u003e@390",
          "type": "activity",
          "component": "com.depositmobi.Main",
          "constraintsFile": "constraints0_0.py",
          "variables": {
            "SharedPreferences\u003cappIsActivated\u003e": "IAAv0"
          },
          "stringMap": {
            "7000": "02",
            "7001": "250",
            "7002": "255",
            "7003": "401"
          },
          "strings": {
            "IAAv0": ""
          }
        },
        {
          "start": "com.depositmobi.Main.onClick(Landroid/view/View;)V",
          "target": "invokevirtual \u003c Application, Landroid/telephony/SmsManager, sendTextMessage(Ljava/lang/String;Ljava/lang/String;Ljava/lang/String;Landroid/app/PendingIntent;Landroid/app/PendingIntent;)V \u003e@285",
          "type": "ui",
          "activities": [
            "com.depositmobi.Main"
          ],
          "listener": "com.depositmobi.Main",
          "listenerMethod": "onClick",
          "uiType": "onClick",
          "constraintsFile": "constraints0_1.py",
          "variables": {
            "\u003cInput1\u003e.getId()": "IAAv0"
          },
          "stringMap": {},
          "strings": {}
        }
      ]
    }
  }
}