{
  "packageName": "com.readnovel.book_117905",
  "mainActivity": "com.readnovel.book.base.FirstActivity",
  "callPaths": {
    "0": {
      "startMethod": "com.readnovel.book.base.PayInprogressService.onStart(Landroid/content/Intent;I)V",
      "targetMethod": "org.apache.http.impl.client.AbstractHttpClient.execute(Lorg/apache/http/client/methods/HttpUriRequest;)Lorg/apache/http/HttpResponse;",
      "eventChain": [
        {
          "start": "com.readnovel.book.base.PayInprogressService.onStart(Landroid/content/Intent;I)V",
          "target": "invokevirtual \u003c Application, Lorg/apache/http/impl/client/AbstractHttpClient, execute(Lorg/apache/http/client/methods/HttpUriRequest;)Lorg/apache/http/HttpResponse; \u003e@7",
          "type": "service",
          "component": "com.readnovel.book.base.PayInprogressService",
          "constraintsFile": "constraints0_0.py",
          "variables": {
            "\u003cInput1\u003e": "IAAv0"
          },
          "stringMap": {},
          "strings": {}
        }
      ]
    },
    "1": {
      "startMethod": "com.readnovel.book.base.PageFlipActivity.onResume()V",
      "targetMethod": "org.apache.http.client.HttpClient.execute(Lorg/apache/http/client/methods/HttpUriRequest;)Lorg/apache/http/HttpResponse;",
      "eventChain": [
        {
          "start": "com.readnovel.book.base.PageFlipActivity.onResume()V",
          "target": "invokeinterface \u003c Application, Lorg/apache/http/client/HttpClient, execute(Lorg/apache/http/client/methods/HttpUriRequest;)Lorg/apache/http/HttpResponse; \u003e@309",
          "type": "activity",
          "component": "com.readnovel.book.base.PageFlipActivity"
        }
      ]
    },
    "2": {
      "startMethod": "com.readnovel.book.base.PageFlipActivity.onResume()V",
      "targetMethod": "java.lang.reflect.Method.invoke(Ljava/lang/Object;[Ljava/lang/Object;)Ljava/lang/Object;",
      "eventChain": [
        {
          "start": "com.readnovel.book.base.PageFlipActivity.onResume()V",
          "target": "invokevirtual \u003c Application, Ljava/lang/reflect/Method, invoke(Ljava/lang/Object;[Ljava/lang/Object;)Ljava/lang/Object; \u003e@166",
          "type": "activity",
          "component": "com.readnovel.book.base.PageFlipActivity"
        }
      ]
    },
    "3": {
      "startMethod": "com.readnovel.book.base.PageFlipActivity.onResume()V",
      "targetMethod": "java.lang.reflect.Method.invoke(Ljava/lang/Object;[Ljava/lang/Object;)Ljava/lang/Object;",
      "eventChain": [
        {
          "start": "com.readnovel.book.base.PageFlipActivity.onResume()V",
          "target": "invokevirtual \u003c Application, Ljava/lang/reflect/Method, invoke(Ljava/lang/Object;[Ljava/lang/Object;)Ljava/lang/Object; \u003e@225",
          "type": "activity",
          "component": "com.readnovel.book.base.PageFlipActivity"
        }
      ]
    },
    "4": {
      "startMethod": "com.readnovel.book.base.FirstActivity.onCreate(Landroid/os/Bundle;)V",
      "targetMethod": "java.lang.reflect.Method.invoke(Ljava/lang/Object;[Ljava/lang/Object;)Ljava/lang/Object;",
      "eventChain": [
        {
          "start": "com.readnovel.book.base.PageFlipActivity.onResume()V",
          "target": "invokeinterface \u003c Application, Landroid/content/SharedPreferences$Editor, putString(Ljava/lang/String;Ljava/lang/String;)Landroid/content/SharedPreferences$Editor; \u003e@352",
          "type": "activity",
          "component": "com.readnovel.book.base.PageFlipActivity"
        },
        {
          "start": "com.readnovel.book.base.PageFlipActivity.onResume()V",
          "target": "invokeinterface \u003c Application, Landroid/content/SharedPreferences$Editor, putString(Ljava/lang/String;Ljava/lang/String;)Landroid/content/SharedPreferences$Editor; \u003e@57",
          "type": "activity",
          "component": "com.readnovel.book.base.PageFlipActivity"
        },
        {
          "start": "com.readnovel.book.base.PageFlipActivity.onResume()V",
          "target": "invokeinterface \u003c Application, Landroid/content/SharedPreferences$Editor, putLong(Ljava/lang/String;J)Landroid/content/SharedPreferences$Editor; \u003e@405",
          "type": "activity",
          "component": "com.readnovel.book.base.PageFlipActivity"
        },
        {
          "start": "com.readnovel.book.base.PageFlipActivity.onResume()V",
          "target": "PC@13",
          "type": "activity",
          "component": "com.readnovel.book.base.PageFlipActivity"
        },
        {
          "start": "com.readnovel.book.base.FirstActivity.onCreate(Landroid/os/Bundle;)V",
          "target": "invokevirtual \u003c Application, Ljava/lang/reflect/Method, invoke(Ljava/lang/Object;[Ljava/lang/Object;)Ljava/lang/Object; \u003e@166",
          "type": "activity",
          "component": "com.readnovel.book.base.FirstActivity",
          "constraintsFile": "constraints4_0.py",
          "variables": {
            "SharedPreferences\u003csession_id\u003e": "IAAv3",
            "SharedPreferences\u003cactivities\u003e": "IAAv6",
            "SharedPreferences\u003cduration\u003e.valueOf().longValue()": "IAAv4"
          },
          "stringMap": {
            "7000": ""
          },
          "strings": {
            "IAAv3": "",
            "IAAv6": ""
          }
        }
      ]
    },
    "5": {
      "startMethod": "com.readnovel.book.base.FirstActivity.onCreate(Landroid/os/Bundle;)V",
      "targetMethod": "org.apache.http.client.HttpClient.execute(Lorg/apache/http/client/methods/HttpUriRequest;)Lorg/apache/http/HttpResponse;",
      "eventChain": [
        {
          "start": "com.readnovel.book.base.PageFlipActivity.onResume()V",
          "target": "invokeinterface \u003c Application, Landroid/content/SharedPreferences$Editor, putString(Ljava/lang/String;Ljava/lang/String;)Landroid/content/SharedPreferences$Editor; \u003e@352",
          "type": "activity",
          "component": "com.readnovel.book.base.PageFlipActivity"
        },
        {
          "start": "com.readnovel.book.base.PageFlipActivity.onResume()V",
          "target": "invokeinterface \u003c Application, Landroid/content/SharedPreferences$Editor, putString(Ljava/lang/String;Ljava/lang/String;)Landroid/content/SharedPreferences$Editor; \u003e@57",
          "type": "activity",
          "component": "com.readnovel.book.base.PageFlipActivity"
        },
        {
          "start": "com.readnovel.book.base.PageFlipActivity.onResume()V",
          "target": "invokeinterface \u003c Application, Landroid/content/SharedPreferences$Editor, putLong(Ljava/lang/String;J)Landroid/content/SharedPreferences$Editor; \u003e@405",
          "type": "activity",
          "component": "com.readnovel.book.base.PageFlipActivity"
        },
        {
          "start": "com.readnovel.book.base.PageFlipActivity.onResume()V",
          "target": "PC@23",
          "type": "activity",
          "component": "com.readnovel.book.base.PageFlipActivity"
        },
        {
          "start": "com.readnovel.book.base.PageFlipActivity.onResume()V",
          "target": "PC@13",
          "type": "activity",
          "component": "com.readnovel.book.base.PageFlipActivity"
        },
        {
          "start": "com.readnovel.book.base.FirstActivity.onCreate(Landroid/os/Bundle;)V",
          "target": "invokeinterface \u003c Application, Lorg/apache/http/client/HttpClient, execute(Lorg/apache/http/client/methods/HttpUriRequest;)Lorg/apache/http/HttpResponse; \u003e@309",
          "type": "activity",
          "component": "com.readnovel.book.base.FirstActivity",
          "constraintsFile": "constraints5_0.py",
          "variables": {
            "SharedPreferences\u003csession_id\u003e": "IAAv3",
            "SharedPreferences\u003cduration\u003e.valueOf().longValue()": "IAAv4",
            "SharedPreferences\u003cactivities\u003e": "IAAv6"
          },
          "stringMap": {
            "7000": "",
            "7001": "update"
          },
          "strings": {
            "IAAv3": "",
            "IAAv11": "",
            "IAAv6": ""
          }
        }
      ]
    },
    "6": {
      "startMethod": "com.readnovel.book.base.FirstActivity.onCreate(Landroid/os/Bundle;)V",
      "targetMethod": "java.lang.reflect.Method.invoke(Ljava/lang/Object;[Ljava/lang/Object;)Ljava/lang/Object;",
      "eventChain": [
        {
          "start": "com.readnovel.book.base.PageFlipActivity.onResume()V",
          "target": "invokeinterface \u003c Application, Landroid/content/SharedPreferences$Editor, putString(Ljava/lang/String;Ljava/lang/String;)Landroid/content/SharedPreferences$Editor; \u003e@352",
          "type": "activity",
          "component": "com.readnovel.book.base.PageFlipActivity"
        },
        {
          "start": "com.readnovel.book.base.PageFlipActivity.onResume()V",
          "target": "invokeinterface \u003c Application, Landroid/content/SharedPreferences$Editor, putString(Ljava/lang/String;Ljava/lang/String;)Landroid/content/SharedPreferences$Editor; \u003e@57",
          "type": "activity",
          "component": "com.readnovel.book.base.PageFlipActivity"
        },
        {
          "start": "com.readnovel.book.base.PageFlipActivity.onResume()V",
          "target": "invokeinterface \u003c Application, Landroid/content/SharedPreferences$Editor, putLong(Ljava/lang/String;J)Landroid/content/SharedPreferences$Editor; \u003e@405",
          "type": "activity",
          "component": "com.readnovel.book.base.PageFlipActivity"
        },
        {
          "start": "com.readnovel.book.base.PageFlipActivity.onResume()V",
          "target": "PC@13",
          "type": "activity",
          "component": "com.readnovel.book.base.PageFlipActivity"
        },
        {
          "start": "com.readnovel.book.base.FirstActivity.onCreate(Landroid/os/Bundle;)V",
          "target": "invokevirtual \u003c Application, Ljava/lang/reflect/Method, invoke(Ljava/lang/Object;[Ljava/lang/Object;)Ljava/lang/Object; \u003e@225",
          "type": "activity",
          "component": "com.readnovel.book.base.FirstActivity",
          "constraintsFile": "constraints6_0.py",
          "variables": {
            "SharedPreferences\u003csession_id\u003e": "IAAv3",
            "SharedPreferences\u003cactivities\u003e": "IAAv6",
            "SharedPreferences\u003cduration\u003e.valueOf().longValue()": "IAAv4"
          },
          "stringMap": {
            "7000": ""
          },
          "strings": {
            "IAAv3": "",
            "IAAv6": ""
          }
        }
      ]
    },
    "7": {
      "startMethod": "com.readnovel.book.base.FirstActivity.onResume()V",
      "targetMethod": "org.apache.http.impl.client.AbstractHttpClient.execute(Lorg/apache/http/client/methods/HttpUriRequest;)Lorg/apache/http/HttpResponse;",
      "eventChain": [
        {
          "start": "com.readnovel.book.base.FirstActivity.onResume()V",
          "target": "invokevirtual \u003c Application, Lorg/apache/http/impl/client/AbstractHttpClient, execute(Lorg/apache/http/client/methods/HttpUriRequest;)Lorg/apache/http/HttpResponse; \u003e@7",
          "type": "activity",
          "component": "com.readnovel.book.base.FirstActivity"
        }
      ]
    },
    "8": {
      "startMethod": "com.readnovel.book.base.FirstActivity.onResume()V",
      "targetMethod": "java.lang.reflect.Method.invoke(Ljava/lang/Object;[Ljava/lang/Object;)Ljava/lang/Object;",
      "eventChain": [
        {
          "start": "com.readnovel.book.base.FirstActivity.onResume()V",
          "target": "invokevirtual \u003c Application, Ljava/lang/reflect/Method, invoke(Ljava/lang/Object;[Ljava/lang/Object;)Ljava/lang/Object; \u003e@166",
          "type": "activity",
          "component": "com.readnovel.book.base.FirstActivity"
        }
      ]
    },
    "9": {
      "startMethod": "com.readnovel.book.base.FirstActivity.onResume()V",
      "targetMethod": "org.apache.http.client.HttpClient.execute(Lorg/apache/http/client/methods/HttpUriRequest;)Lorg/apache/http/HttpResponse;",
      "eventChain": [
        {
          "start": "com.readnovel.book.base.FirstActivity.onResume()V",
          "target": "invokeinterface \u003c Application, Lorg/apache/http/client/HttpClient, execute(Lorg/apache/http/client/methods/HttpUriRequest;)Lorg/apache/http/HttpResponse; \u003e@309",
          "type": "activity",
          "component": "com.readnovel.book.base.FirstActivity"
        }
      ]
    },
    "10": {
      "startMethod": "com.readnovel.book.base.FirstActivity.onResume()V",
      "targetMethod": "java.lang.reflect.Method.invoke(Ljava/lang/Object;[Ljava/lang/Object;)Ljava/lang/Object;",
      "eventChain": [
        {
          "start": "com.readnovel.book.base.FirstActivity.onResume()V",
          "target": "invokevirtual \u003c Application, Ljava/lang/reflect/Method, invoke(Ljava/lang/Object;[Ljava/lang/Object;)Ljava/lang/Object; \u003e@225",
          "type": "activity",
          "component": "com.readnovel.book.base.FirstActivity"
        }
      ]
    },
    "11": {
      "startMethod": "com.qihoopay.insdk.activity.ContainerActivity.onCreate(Landroid/os/Bundle;)V",
      "targetMethod": "dalvik.system.DexClassLoader.loadClass(Ljava/lang/String;)Ljava/lang/Class;",
      "eventChain": [
        {
          "start": "com.qihoopay.insdk.activity.ContainerActivity.onCreate(Landroid/os/Bundle;)V",
          "target": "invokevirtual \u003c Application, Ldalvik/system/DexClassLoader, loadClass(Ljava/lang/String;)Ljava/lang/Class; \u003e@77",
          "type": "activity",
          "component": "com.qihoopay.insdk.activity.ContainerActivity"
        }
      ]
    },
    "12": {
      "startMethod": "com.qihoopay.insdk.activity.ContainerActivity.onCreate(Landroid/os/Bundle;)V",
      "targetMethod": "java.lang.reflect.Method.invoke(Ljava/lang/Object;[Ljava/lang/Object;)Ljava/lang/Object;",
      "eventChain": [
        {
          "start": "com.qihoopay.insdk.activity.ContainerActivity.onCreate(Landroid/os/Bundle;)V",
          "target": "invokevirtual \u003c Application, Ljava/lang/reflect/Method, invoke(Ljava/lang/Object;[Ljava/lang/Object;)Ljava/lang/Object; \u003e@229",
          "type": "activity",
          "component": "com.qihoopay.insdk.activity.ContainerActivity"
        }
      ]
    },
    "13": {
      "startMethod": "com.qihoopay.insdk.activity.ContainerActivity.onDestroy()V",
      "targetMethod": "org.apache.http.client.HttpClient.execute(Lorg/apache/http/client/methods/HttpUriRequest;)Lorg/apache/http/HttpResponse;",
      "eventChain": [
        {
          "start": "com.qihoopay.insdk.activity.ContainerActivity.onDestroy()V",
          "target": "invokeinterface \u003c Application, Lorg/apache/http/client/HttpClient, execute(Lorg/apache/http/client/methods/HttpUriRequest;)Lorg/apache/http/HttpResponse; \u003e@121",
          "type": "activity",
          "component": "com.qihoopay.insdk.activity.ContainerActivity"
        }
      ]
    },
    "14": {
      "startMethod": "com.readnovel.book.base.ChapterListActivity.onCreate(Landroid/os/Bundle;)V",
      "targetMethod": "org.apache.http.impl.client.AbstractHttpClient.execute(Lorg/apache/http/client/methods/HttpUriRequest;)Lorg/apache/http/HttpResponse;",
      "eventChain": [
        {
          "start": "com.readnovel.book.base.ChapterListActivity.onCreate(Landroid/os/Bundle;)V",
          "target": "PC@339",
          "type": "activity",
          "component": "com.readnovel.book.base.ChapterListActivity"
        },
        {
          "start": "com.readnovel.book.base.ChapterListActivity.onCreate(Landroid/os/Bundle;)V",
          "target": "invokevirtual \u003c Application, Lorg/apache/http/impl/client/AbstractHttpClient, execute(Lorg/apache/http/client/methods/HttpUriRequest;)Lorg/apache/http/HttpResponse; \u003e@7",
          "type": "activity",
          "component": "com.readnovel.book.base.ChapterListActivity",
          "constraintsFile": "constraints14_0.py",
          "variables": {},
          "stringMap": {},
          "strings": {}
        }
      ]
    },
    "15": {
      "startMethod": "com.readnovel.book.base.MoreActivity.onCreate(Landroid/os/Bundle;)V",
      "targetMethod": "org.apache.http.impl.client.AbstractHttpClient.execute(Lorg/apache/http/client/methods/HttpUriRequest;)Lorg/apache/http/HttpResponse;",
      "eventChain": [
        {
          "start": "com.readnovel.book.base.MoreActivity.onCreate(Landroid/os/Bundle;)V",
          "target": "invokevirtual \u003c Application, Lorg/apache/http/impl/client/AbstractHttpClient, execute(Lorg/apache/http/client/methods/HttpUriRequest;)Lorg/apache/http/HttpResponse; \u003e@7",
          "type": "activity",
          "component": "com.readnovel.book.base.MoreActivity"
        }
      ]
    },
    "16": {
      "startMethod": "com.readnovel.book.base.PayMsgActivity.sendMsg(Landroid/view/View;)V",
      "targetMethod": "org.apache.http.client.HttpClient.execute(Lorg/apache/http/client/methods/HttpUriRequest;)Lorg/apache/http/HttpResponse;",
      "eventChain": [
        {
          "start": "com.readnovel.book.base.PayMsgActivity.sendMsg(Landroid/view/View;)V",
          "target": "invokeinterface \u003c Application, Lorg/apache/http/client/HttpClient, execute(Lorg/apache/http/client/methods/HttpUriRequest;)Lorg/apache/http/HttpResponse; \u003e@309",
          "type": "ui",
          "activities": [
            "com.readnovel.book.base.FirstActivity"
          ],
          "listener": "android.view.View$1",
          "listenerMethod": "sendMsg",
          "uiType": "onClick"
        }
      ]
    },
    "17": {
      "startMethod": "com.readnovel.book.service.TimeYanzhengService.onStart(Landroid/content/Intent;I)V",
      "targetMethod": "org.apache.http.impl.client.AbstractHttpClient.execute(Lorg/apache/http/client/methods/HttpUriRequest;)Lorg/apache/http/HttpResponse;",
      "eventChain": [
        {
          "start": "com.readnovel.book.service.TimeYanzhengService.onStart(Landroid/content/Intent;I)V",
          "target": "invokevirtual \u003c Application, Lorg/apache/http/impl/client/AbstractHttpClient, execute(Lorg/apache/http/client/methods/HttpUriRequest;)Lorg/apache/http/HttpResponse; \u003e@7",
          "type": "service",
          "component": "com.readnovel.book.service.TimeYanzhengService",
          "constraintsFile": "constraints17_0.py",
          "variables": {
            "\u003cInput1\u003e": "IAAv0"
          },
          "stringMap": {},
          "strings": {}
        }
      ]
    },
    "18": {
      "startMethod": "com.readnovel.book.base.PayRecordActivity.onResume()V",
      "targetMethod": "java.lang.reflect.Method.invoke(Ljava/lang/Object;[Ljava/lang/Object;)Ljava/lang/Object;",
      "eventChain": [
        {
          "start": "com.readnovel.book.base.PayRecordActivity.onResume()V",
          "target": "invokevirtual \u003c Application, Ljava/lang/reflect/Method, invoke(Ljava/lang/Object;[Ljava/lang/Object;)Ljava/lang/Object; \u003e@166",
          "type": "activity",
          "component": "com.readnovel.book.base.PayRecordActivity"
        }
      ]
    },
    "19": {
      "startMethod": "com.readnovel.book.base.PayRecordActivity.onResume()V",
      "targetMethod": "java.lang.reflect.Method.invoke(Ljava/lang/Object;[Ljava/lang/Object;)Ljava/lang/Object;",
      "eventChain": [
        {
          "start": "com.readnovel.book.base.PayRecordActivity.onResume()V",
          "target": "invokevirtual \u003c Application, Ljava/lang/reflect/Method, invoke(Ljava/lang/Object;[Ljava/lang/Object;)Ljava/lang/Object; \u003e@225",
          "type": "activity",
          "component": "com.readnovel.book.base.PayRecordActivity"
        }
      ]
    },
    "20": {
      "startMethod": "com.readnovel.book.base.PayRecordActivity.onResume()V",
      "targetMethod": "org.apache.http.client.HttpClient.execute(Lorg/apache/http/client/methods/HttpUriRequest;)Lorg/apache/http/HttpResponse;",
      "eventChain": [
        {
          "start": "com.readnovel.book.base.PayRecordActivity.onResume()V",
          "target": "invokeinterface \u003c Application, Lorg/apache/http/client/HttpClient, execute(Lorg/apache/http/client/methods/HttpUriRequest;)Lorg/apache/http/HttpResponse; \u003e@309",
          "type": "activity",
          "component": "com.readnovel.book.base.PayRecordActivity"
        }
      ]
    },
    "21": {
      "startMethod": "com.readnovel.book.base.PayMsgActivity.zhifubaopay(Landroid/view/View;)V",
      "targetMethod": "java.lang.reflect.Method.invoke(Ljava/lang/Object;[Ljava/lang/Object;)Ljava/lang/Object;",
      "eventChain": [
        {
          "start": "com.readnovel.book.base.PayMsgActivity.zhifubaopay(Landroid/view/View;)V",
          "target": "invokevirtual \u003c Application, Ljava/lang/reflect/Method, invoke(Ljava/lang/Object;[Ljava/lang/Object;)Ljava/lang/Object; \u003e@267",
          "type": "ui",
          "activities": [
            "com.readnovel.book.base.FirstActivity"
          ],
          "listener": "android.view.View$1",
          "listenerMethod": "zhifubaopay",
          "uiType": "onClick"
        }
      ]
    },
    "22": {
      "startMethod": "com.readnovel.book.base.PayMsgActivity.zhifubaopay(Landroid/view/View;)V",
      "targetMethod": "java.lang.reflect.Method.invoke(Ljava/lang/Object;[Ljava/lang/Object;)Ljava/lang/Object;",
      "eventChain": [
        {
          "start": "com.readnovel.book.base.PayMsgActivity.zhifubaopay(Landroid/view/View;)V",
          "target": "invokevirtual \u003c Application, Ljava/lang/reflect/Method, invoke(Ljava/lang/Object;[Ljava/lang/Object;)Ljava/lang/Object; \u003e@45",
          "type": "ui",
          "activities": [
            "com.readnovel.book.base.FirstActivity"
          ],
          "listener": "android.view.View$1",
          "listenerMethod": "zhifubaopay",
          "uiType": "onClick"
        }
      ]
    },
    "23": {
      "startMethod": "com.readnovel.book.base.PayMsgActivity.zhifubaopay(Landroid/view/View;)V",
      "targetMethod": "java.lang.reflect.Method.invoke(Ljava/lang/Object;[Ljava/lang/Object;)Ljava/lang/Object;",
      "eventChain": [
        {
          "start": "com.readnovel.book.base.PayMsgActivity.zhifubaopay(Landroid/view/View;)V",
          "target": "invokevirtual \u003c Application, Ljava/lang/reflect/Method, invoke(Ljava/lang/Object;[Ljava/lang/Object;)Ljava/lang/Object; \u003e@54",
          "type": "ui",
          "activities": [
            "com.readnovel.book.base.FirstActivity"
          ],
          "listener": "android.view.View$1",
          "listenerMethod": "zhifubaopay",
          "uiType": "onClick"
        }
      ]
    },
    "24": {
      "startMethod": "com.readnovel.book.base.PayMsgActivity.zhifubaopay(Landroid/view/View;)V",
      "targetMethod": "org.apache.http.client.HttpClient.execute(Lorg/apache/http/client/methods/HttpUriRequest;)Lorg/apache/http/HttpResponse;",
      "eventChain": [
        {
          "start": "com.readnovel.book.base.PayMsgActivity.zhifubaopay(Landroid/view/View;)V",
          "target": "invokeinterface \u003c Application, Lorg/apache/http/client/HttpClient, execute(Lorg/apache/http/client/methods/HttpUriRequest;)Lorg/apache/http/HttpResponse; \u003e@309",
          "type": "ui",
          "activities": [
            "com.readnovel.book.base.FirstActivity"
          ],
          "listener": "android.view.View$1",
          "listenerMethod": "zhifubaopay",
          "uiType": "onClick"
        }
      ]
    },
    "25": {
      "startMethod": "com.readnovel.book.base.PayMsgActivity.zhifubaopay(Landroid/view/View;)V",
      "targetMethod": "org.apache.http.impl.client.AbstractHttpClient.execute(Lorg/apache/http/client/methods/HttpUriRequest;)Lorg/apache/http/HttpResponse;",
      "eventChain": [
        {
          "start": "com.readnovel.book.base.PayMsgActivity.zhifubaopay(Landroid/view/View;)V",
          "target": "invokevirtual \u003c Application, Lorg/apache/http/impl/client/AbstractHttpClient, execute(Lorg/apache/http/client/methods/HttpUriRequest;)Lorg/apache/http/HttpResponse; \u003e@7",
          "type": "ui",
          "activities": [
            "com.readnovel.book.base.FirstActivity"
          ],
          "listener": "android.view.View$1",
          "listenerMethod": "zhifubaopay",
          "uiType": "onClick"
        }
      ]
    },
    "26": {
      "startMethod": "com.readnovel.book.base.PayMsgActivity.zhifubaopay(Landroid/view/View;)V",
      "targetMethod": "java.lang.reflect.Method.invoke(Ljava/lang/Object;[Ljava/lang/Object;)Ljava/lang/Object;",
      "eventChain": [
        {
          "start": "com.readnovel.book.base.PayMsgActivity.zhifubaopay(Landroid/view/View;)V",
          "target": "invokevirtual \u003c Application, Ljava/lang/reflect/Method, invoke(Ljava/lang/Object;[Ljava/lang/Object;)Ljava/lang/Object; \u003e@34",
          "type": "ui",
          "activities": [
            "com.readnovel.book.base.FirstActivity"
          ],
          "listener": "android.view.View$1",
          "listenerMethod": "zhifubaopay",
          "uiType": "onClick"
        }
      ]
    },
    "27": {
      "startMethod": "com.test.sdk.activity.SdkWelcomeActivity.onCreate(Landroid/os/Bundle;)V",
      "targetMethod": "org.apache.http.client.HttpClient.execute(Lorg/apache/http/client/methods/HttpUriRequest;)Lorg/apache/http/HttpResponse;",
      "eventChain": [
        {
          "start": "com.test.sdk.activity.SdkWelcomeActivity.onCreate(Landroid/os/Bundle;)V",
          "target": "PC@33",
          "type": "activity",
          "component": "com.test.sdk.activity.SdkWelcomeActivity"
        },
        {
          "start": "com.test.sdk.activity.SdkWelcomeActivity.onCreate(Landroid/os/Bundle;)V",
          "target": "invokeinterface \u003c Application, Lorg/apache/http/client/HttpClient, execute(Lorg/apache/http/client/methods/HttpUriRequest;)Lorg/apache/http/HttpResponse; \u003e@169",
          "type": "activity",
          "component": "com.test.sdk.activity.SdkWelcomeActivity",
          "constraintsFile": "constraints27_0.py",
          "variables": {
            "\u003cChainedInput1\u003e": "IAAv1"
          },
          "stringMap": {},
          "strings": {}
        }
      ]
    },
    "28": {
      "startMethod": "com.test.sdk.activity.SdkWelcomeActivity.onCreate(Landroid/os/Bundle;)V",
      "targetMethod": "dalvik.system.DexClassLoader.loadClass(Ljava/lang/String;)Ljava/lang/Class;",
      "eventChain": [
        {
          "start": "com.test.sdk.activity.SdkWelcomeActivity.onCreate(Landroid/os/Bundle;)V",
          "target": "PC@33",
          "type": "activity",
          "component": "com.test.sdk.activity.SdkWelcomeActivity"
        },
        {
          "start": "com.test.sdk.activity.SdkWelcomeActivity.onCreate(Landroid/os/Bundle;)V",
          "target": "invokevirtual \u003c Application, Ldalvik/system/DexClassLoader, loadClass(Ljava/lang/String;)Ljava/lang/Class; \u003e@77",
          "type": "activity",
          "component": "com.test.sdk.activity.SdkWelcomeActivity",
          "constraintsFile": "constraints28_0.py",
          "variables": {
            "\u003cChainedInput1\u003e": "IAAv1"
          },
          "stringMap": {},
          "strings": {}
        }
      ]
    },
    "29": {
      "startMethod": "com.readnovel.book.base.BookTagActivity.onResume()V",
      "targetMethod": "java.lang.reflect.Method.invoke(Ljava/lang/Object;[Ljava/lang/Object;)Ljava/lang/Object;",
      "eventChain": [
        {
          "start": "com.readnovel.book.base.BookTagActivity.onResume()V",
          "target": "invokevirtual \u003c Application, Ljava/lang/reflect/Method, invoke(Ljava/lang/Object;[Ljava/lang/Object;)Ljava/lang/Object; \u003e@225",
          "type": "activity",
          "component": "com.readnovel.book.base.BookTagActivity"
        }
      ]
    },
    "30": {
      "startMethod": "com.readnovel.book.base.BookTagActivity.onResume()V",
      "targetMethod": "java.lang.reflect.Method.invoke(Ljava/lang/Object;[Ljava/lang/Object;)Ljava/lang/Object;",
      "eventChain": [
        {
          "start": "com.readnovel.book.base.BookTagActivity.onResume()V",
          "target": "invokevirtual \u003c Application, Ljava/lang/reflect/Method, invoke(Ljava/lang/Object;[Ljava/lang/Object;)Ljava/lang/Object; \u003e@166",
          "type": "activity",
          "component": "com.readnovel.book.base.BookTagActivity"
        }
      ]
    },
    "31": {
      "startMethod": "com.readnovel.book.base.BookTagActivity.onResume()V",
      "targetMethod": "org.apache.http.client.HttpClient.execute(Lorg/apache/http/client/methods/HttpUriRequest;)Lorg/apache/http/HttpResponse;",
      "eventChain": [
        {
          "start": "com.readnovel.book.base.BookTagActivity.onResume()V",
          "target": "invokeinterface \u003c Application, Lorg/apache/http/client/HttpClient, execute(Lorg/apache/http/client/methods/HttpUriRequest;)Lorg/apache/http/HttpResponse; \u003e@309",
          "type": "activity",
          "component": "com.readnovel.book.base.BookTagActivity"
        }
      ]
    },
    "32": {
      "startMethod": "com.test.sdk.activity.SdkShowAllActivity.onCreate(Landroid/os/Bundle;)V",
      "targetMethod": "dalvik.system.DexClassLoader.loadClass(Ljava/lang/String;)Ljava/lang/Class;",
      "eventChain": [
        {
          "start": "com.test.sdk.activity.SdkShowAllActivity.onCreate(Landroid/os/Bundle;)V",
          "target": "PC@33",
          "type": "activity",
          "component": "com.test.sdk.activity.SdkShowAllActivity"
        },
        {
          "start": "com.test.sdk.activity.SdkShowAllActivity.onCreate(Landroid/os/Bundle;)V",
          "target": "invokevirtual \u003c Application, Ldalvik/system/DexClassLoader, loadClass(Ljava/lang/String;)Ljava/lang/Class; \u003e@77",
          "type": "activity",
          "component": "com.test.sdk.activity.SdkShowAllActivity",
          "constraintsFile": "constraints32_0.py",
          "variables": {
            "\u003cChainedInput1\u003e": "IAAv1"
          },
          "stringMap": {},
          "strings": {}
        }
      ]
    },
    "33": {
      "startMethod": "com.test.sdk.activity.SdkShowAllActivity.onCreate(Landroid/os/Bundle;)V",
      "targetMethod": "org.apache.http.client.HttpClient.execute(Lorg/apache/http/client/methods/HttpUriRequest;)Lorg/apache/http/HttpResponse;",
      "eventChain": [
        {
          "start": "com.test.sdk.activity.SdkShowAllActivity.onCreate(Landroid/os/Bundle;)V",
          "target": "PC@33",
          "type": "activity",
          "component": "com.test.sdk.activity.SdkShowAllActivity"
        },
        {
          "start": "com.test.sdk.activity.SdkShowAllActivity.onCreate(Landroid/os/Bundle;)V",
          "target": "invokeinterface \u003c Application, Lorg/apache/http/client/HttpClient, execute(Lorg/apache/http/client/methods/HttpUriRequest;)Lorg/apache/http/HttpResponse; \u003e@169",
          "type": "activity",
          "component": "com.test.sdk.activity.SdkShowAllActivity",
          "constraintsFile": "constraints33_0.py",
          "variables": {
            "\u003cChainedInput1\u003e": "IAAv1"
          },
          "stringMap": {},
          "strings": {}
        }
      ]
    },
    "34": {
      "startMethod": "com.mobclick.android.j.onClick(Landroid/content/DialogInterface;I)V",
      "targetMethod": "org.apache.http.client.HttpClient.execute(Lorg/apache/http/client/methods/HttpUriRequest;)Lorg/apache/http/HttpResponse;",
      "eventChain": [
        {
          "start": "com.readnovel.book.base.PageFlipActivity.onResume()V",
          "target": "invokevirtual \u003c Application, Landroid/app/AlertDialog$Builder, setPositiveButton(Ljava/lang/CharSequence;Landroid/content/DialogInterface$OnClickListener;)Landroid/app/AlertDialog$Builder; \u003e@368",
          "type": "activity",
          "component": "com.readnovel.book.base.PageFlipActivity"
        },
        {
          "start": "com.mobclick.android.j.onClick(Landroid/content/DialogInterface;I)V",
          "target": "invokeinterface \u003c Application, Lorg/apache/http/client/HttpClient, execute(Lorg/apache/http/client/methods/HttpUriRequest;)Lorg/apache/http/HttpResponse; \u003e@8",
          "type": "ui",
          "activities": [
            "com.readnovel.book.base.FirstActivity"
          ],
          "listener": "com.mobclick.android.j",
          "listenerMethod": "onClick",
          "uiType": "onClick",
          "inDialog": "true"
        }
      ]
    },
    "35": {
      "startMethod": "com.test.sdk.activity.SdkWelcomeActivity.onClick(Landroid/view/View;)V",
      "targetMethod": "dalvik.system.DexClassLoader.loadClass(Ljava/lang/String;)Ljava/lang/Class;",
      "eventChain": [
        {
          "start": "com.test.sdk.activity.SdkWelcomeActivity.onCreate(Landroid/os/Bundle;)V",
          "target": "invokevirtual \u003c Application, Landroid/view/View, setOnClickListener(Landroid/view/View$OnClickListener;)V \u003e@127",
          "type": "activity",
          "component": "com.test.sdk.activity.SdkWelcomeActivity",
          "constraintsFile": "constraints35_0.py",
          "variables": {
            "\u003cChainedInput1\u003e": "IAAv1"
          },
          "stringMap": {},
          "strings": {}
        },
        {
          "start": "com.test.sdk.activity.SdkWelcomeActivity.onClick(Landroid/view/View;)V",
          "target": "invokevirtual \u003c Application, Ldalvik/system/DexClassLoader, loadClass(Ljava/lang/String;)Ljava/lang/Class; \u003e@77",
          "type": "ui",
          "activities": [
            "com.test.sdk.activity.SdkWelcomeActivity"
          ],
          "listener": "com.test.sdk.activity.SdkWelcomeActivity",
          "listenerMethod": "onClick",
          "uiType": "onClick",
          "constraintsFile": "constraints35_1.py",
          "variables": {
            "\u003cInput1\u003e.getId()": "IAAv0"
          },
          "stringMap": {},
          "strings": {}
        }
      ]
    },
    "36": {
      "startMethod": "com.test.sdk.activity.SdkWelcomeActivity.onClick(Landroid/view/View;)V",
      "targetMethod": "java.lang.reflect.Method.invoke(Ljava/lang/Object;[Ljava/lang/Object;)Ljava/lang/Object;",
      "eventChain": [
        {
          "start": "com.test.sdk.activity.SdkWelcomeActivity.onCreate(Landroid/os/Bundle;)V",
          "target": "invokevirtual \u003c Application, Landroid/view/View, setOnClickListener(Landroid/view/View$OnClickListener;)V \u003e@127",
          "type": "activity",
          "component": "com.test.sdk.activity.SdkWelcomeActivity",
          "constraintsFile": "constraints36_0.py",
          "variables": {
            "\u003cChainedInput1\u003e": "IAAv1"
          },
          "stringMap": {},
          "strings": {}
        },
        {
          "start": "com.test.sdk.activity.SdkWelcomeActivity.onClick(Landroid/view/View;)V",
          "target": "invokevirtual \u003c Application, Ljava/lang/reflect/Method, invoke(Ljava/lang/Object;[Ljava/lang/Object;)Ljava/lang/Object; \u003e@229",
          "type": "ui",
          "activities": [
            "com.test.sdk.activity.SdkWelcomeActivity"
          ],
          "listener": "com.test.sdk.activity.SdkWelcomeActivity",
          "listenerMethod": "onClick",
          "uiType": "onClick",
          "constraintsFile": "constraints36_1.py",
          "variables": {
            "\u003cInput1\u003e.getId()": "IAAv0"
          },
          "stringMap": {},
          "strings": {}
        }
      ]
    },
    "37": {
      "startMethod": "com.readnovel.book.base.ToolsActivity.onClick(Landroid/view/View;)V",
      "targetMethod": "org.apache.http.client.HttpClient.execute(Lorg/apache/http/client/methods/HttpUriRequest;)Lorg/apache/http/HttpResponse;",
      "eventChain": [
        {
          "start": "com.readnovel.book.base.ToolsActivity.onClick(Landroid/view/View;)V",
          "target": "invokeinterface \u003c Application, Lorg/apache/http/client/HttpClient, execute(Lorg/apache/http/client/methods/HttpUriRequest;)Lorg/apache/http/HttpResponse; \u003e@309",
          "type": "ui",
          "activities": [
            "com.readnovel.book.base.FirstActivity"
          ],
          "listener": "com.readnovel.book.base.ToolsActivity",
          "listenerMethod": "onClick",
          "uiType": "onClick",
          "constraintsFile": "constraints37_0.py",
          "variables": {
            "\u003cInput1\u003e.getId()": "IAAv0"
          },
          "stringMap": {},
          "strings": {}
        }
      ]
    },
    "38": {
      "startMethod": "com.readnovel.book.base.ToolsActivity.onClick(Landroid/view/View;)V",
      "targetMethod": "java.lang.reflect.Method.invoke(Ljava/lang/Object;[Ljava/lang/Object;)Ljava/lang/Object;",
      "eventChain": [
        {
          "start": "com.readnovel.book.base.ToolsActivity.onClick(Landroid/view/View;)V",
          "target": "invokevirtual \u003c Application, Ljava/lang/reflect/Method, invoke(Ljava/lang/Object;[Ljava/lang/Object;)Ljava/lang/Object; \u003e@166",
          "type": "ui",
          "activities": [
            "com.readnovel.book.base.FirstActivity"
          ],
          "listener": "com.readnovel.book.base.ToolsActivity",
          "listenerMethod": "onClick",
          "uiType": "onClick",
          "constraintsFile": "constraints38_0.py",
          "variables": {
            "\u003cInput1\u003e.getId()": "IAAv0"
          },
          "stringMap": {},
          "strings": {}
        }
      ]
    },
    "39": {
      "startMethod": "com.readnovel.book.base.ToolsActivity.onClick(Landroid/view/View;)V",
      "targetMethod": "java.lang.reflect.Method.invoke(Ljava/lang/Object;[Ljava/lang/Object;)Ljava/lang/Object;",
      "eventChain": [
        {
          "start": "com.readnovel.book.base.ToolsActivity.onClick(Landroid/view/View;)V",
          "target": "invokevirtual \u003c Application, Ljava/lang/reflect/Method, invoke(Ljava/lang/Object;[Ljava/lang/Object;)Ljava/lang/Object; \u003e@225",
          "type": "ui",
          "activities": [
            "com.readnovel.book.base.FirstActivity"
          ],
          "listener": "com.readnovel.book.base.ToolsActivity",
          "listenerMethod": "onClick",
          "uiType": "onClick",
          "constraintsFile": "constraints39_0.py",
          "variables": {
            "\u003cInput1\u003e.getId()": "IAAv0"
          },
          "stringMap": {},
          "strings": {}
        }
      ]
    },
    "40": {
      "startMethod": "com.test.sdk.activity.SdkGuestActivity.onClick(Landroid/view/View;)V",
      "targetMethod": "java.lang.reflect.Method.invoke(Ljava/lang/Object;[Ljava/lang/Object;)Ljava/lang/Object;",
      "eventChain": [
        {
          "start": "com.test.sdk.activity.SdkGuestActivity.onCreate(Landroid/os/Bundle;)V",
          "target": "invokevirtual \u003c Application, Landroid/view/View, setOnClickListener(Landroid/view/View$OnClickListener;)V \u003e@127",
          "type": "activity",
          "component": "com.test.sdk.activity.SdkGuestActivity",
          "constraintsFile": "constraints40_0.py",
          "variables": {},
          "stringMap": {},
          "strings": {}
        },
        {
          "start": "com.test.sdk.activity.SdkGuestActivity.onClick(Landroid/view/View;)V",
          "target": "invokevirtual \u003c Application, Ljava/lang/reflect/Method, invoke(Ljava/lang/Object;[Ljava/lang/Object;)Ljava/lang/Object; \u003e@229",
          "type": "ui",
          "activities": [
            "com.test.sdk.activity.SdkGuestActivity"
          ],
          "listener": "com.test.sdk.activity.SdkGuestActivity",
          "listenerMethod": "onClick",
          "uiType": "onClick",
          "constraintsFile": "constraints40_1.py",
          "variables": {
            "\u003cInput1\u003e.getId()": "IAAv0"
          },
          "stringMap": {},
          "strings": {}
        }
      ]
    },
    "41": {
      "startMethod": "com.test.sdk.activity.SdkGuestActivity.onClick(Landroid/view/View;)V",
      "targetMethod": "dalvik.system.DexClassLoader.loadClass(Ljava/lang/String;)Ljava/lang/Class;",
      "eventChain": [
        {
          "start": "com.test.sdk.activity.SdkGuestActivity.onCreate(Landroid/os/Bundle;)V",
          "target": "invokevirtual \u003c Application, Landroid/view/View, setOnClickListener(Landroid/view/View$OnClickListener;)V \u003e@127",
          "type": "activity",
          "component": "com.test.sdk.activity.SdkGuestActivity",
          "constraintsFile": "constraints41_0.py",
          "variables": {},
          "stringMap": {},
          "strings": {}
        },
        {
          "start": "com.test.sdk.activity.SdkGuestActivity.onClick(Landroid/view/View;)V",
          "target": "invokevirtual \u003c Application, Ldalvik/system/DexClassLoader, loadClass(Ljava/lang/String;)Ljava/lang/Class; \u003e@77",
          "type": "ui",
          "activities": [
            "com.test.sdk.activity.SdkGuestActivity"
          ],
          "listener": "com.test.sdk.activity.SdkGuestActivity",
          "listenerMethod": "onClick",
          "uiType": "onClick",
          "constraintsFile": "constraints41_1.py",
          "variables": {
            "\u003cInput1\u003e.getId()": "IAAv0"
          },
          "stringMap": {},
          "strings": {}
        }
      ]
    },
    "42": {
      "startMethod": "com.test.sdk.activity.SdkShowAllActivity.onClick(Landroid/view/View;)V",
      "targetMethod": "dalvik.system.DexClassLoader.loadClass(Ljava/lang/String;)Ljava/lang/Class;",
      "eventChain": [
        {
          "start": "com.test.sdk.activity.SdkShowAllActivity.onCreate(Landroid/os/Bundle;)V",
          "target": "invokevirtual \u003c Application, Landroid/view/View, setOnClickListener(Landroid/view/View$OnClickListener;)V \u003e@127",
          "type": "activity",
          "component": "com.test.sdk.activity.SdkShowAllActivity",
          "constraintsFile": "constraints42_0.py",
          "variables": {
            "\u003cChainedInput1\u003e": "IAAv1"
          },
          "stringMap": {},
          "strings": {}
        },
        {
          "start": "com.test.sdk.activity.SdkShowAllActivity.onClick(Landroid/view/View;)V",
          "target": "invokevirtual \u003c Application, Ldalvik/system/DexClassLoader, loadClass(Ljava/lang/String;)Ljava/lang/Class; \u003e@77",
          "type": "ui",
          "activities": [
            "com.test.sdk.activity.SdkShowAllActivity"
          ],
          "listener": "com.test.sdk.activity.SdkShowAllActivity",
          "listenerMethod": "onClick",
          "uiType": "onClick",
          "constraintsFile": "constraints42_1.py",
          "variables": {
            "\u003cInput1\u003e.getId()": "IAAv0"
          },
          "stringMap": {},
          "strings": {}
        }
      ]
    },
    "43": {
      "startMethod": "com.test.sdk.activity.SdkShowAllActivity.onClick(Landroid/view/View;)V",
      "targetMethod": "java.lang.reflect.Method.invoke(Ljava/lang/Object;[Ljava/lang/Object;)Ljava/lang/Object;",
      "eventChain": [
        {
          "start": "com.test.sdk.activity.SdkShowAllActivity.onCreate(Landroid/os/Bundle;)V",
          "target": "invokevirtual \u003c Application, Landroid/view/View, setOnClickListener(Landroid/view/View$OnClickListener;)V \u003e@127",
          "type": "activity",
          "component": "com.test.sdk.activity.SdkShowAllActivity",
          "constraintsFile": "constraints43_0.py",
          "variables": {
            "\u003cChainedInput1\u003e": "IAAv1"
          },
          "stringMap": {},
          "strings": {}
        },
        {
          "start": "com.test.sdk.activity.SdkShowAllActivity.onClick(Landroid/view/View;)V",
          "target": "invokevirtual \u003c Application, Ljava/lang/reflect/Method, invoke(Ljava/lang/Object;[Ljava/lang/Object;)Ljava/lang/Object; \u003e@229",
          "type": "ui",
          "activities": [
            "com.test.sdk.activity.SdkShowAllActivity"
          ],
          "listener": "com.test.sdk.activity.SdkShowAllActivity",
          "listenerMethod": "onClick",
          "uiType": "onClick",
          "constraintsFile": "constraints43_1.py",
          "variables": {
            "\u003cInput1\u003e.getId()": "IAAv0"
          },
          "stringMap": {},
          "strings": {}
        }
      ]
    },
    "44": {
      "startMethod": "com.test.sdk.activity.SdkUserActivity.onClick(Landroid/view/View;)V",
      "targetMethod": "java.lang.reflect.Method.invoke(Ljava/lang/Object;[Ljava/lang/Object;)Ljava/lang/Object;",
      "eventChain": [
        {
          "start": "com.test.sdk.activity.SdkUserActivity.onCreate(Landroid/os/Bundle;)V",
          "target": "invokevirtual \u003c Application, Landroid/view/View, setOnClickListener(Landroid/view/View$OnClickListener;)V \u003e@127",
          "type": "activity",
          "component": "com.test.sdk.activity.SdkUserActivity",
          "constraintsFile": "constraints44_0.py",
          "variables": {},
          "stringMap": {},
          "strings": {}
        },
        {
          "start": "com.test.sdk.activity.SdkUserActivity.onClick(Landroid/view/View;)V",
          "target": "invokevirtual \u003c Application, Ljava/lang/reflect/Method, invoke(Ljava/lang/Object;[Ljava/lang/Object;)Ljava/lang/Object; \u003e@229",
          "type": "ui",
          "activities": [
            "com.test.sdk.activity.SdkUserActivity"
          ],
          "listener": "com.test.sdk.activity.SdkUserActivity",
          "listenerMethod": "onClick",
          "uiType": "onClick",
          "constraintsFile": "constraints44_1.py",
          "variables": {
            "\u003cInput1\u003e.getId()": "IAAv0"
          },
          "stringMap": {},
          "strings": {}
        }
      ]
    },
    "45": {
      "startMethod": "com.test.sdk.activity.SdkUserActivity.onClick(Landroid/view/View;)V",
      "targetMethod": "dalvik.system.DexClassLoader.loadClass(Ljava/lang/String;)Ljava/lang/Class;",
      "eventChain": [
        {
          "start": "com.test.sdk.activity.SdkUserActivity.onCreate(Landroid/os/Bundle;)V",
          "target": "invokevirtual \u003c Application, Landroid/view/View, setOnClickListener(Landroid/view/View$OnClickListener;)V \u003e@127",
          "type": "activity",
          "component": "com.test.sdk.activity.SdkUserActivity",
          "constraintsFile": "constraints45_0.py",
          "variables": {},
          "stringMap": {},
          "strings": {}
        },
        {
          "start": "com.test.sdk.activity.SdkUserActivity.onClick(Landroid/view/View;)V",
          "target": "invokevirtual \u003c Application, Ldalvik/system/DexClassLoader, loadClass(Ljava/lang/String;)Ljava/lang/Class; \u003e@77",
          "type": "ui",
          "activities": [
            "com.test.sdk.activity.SdkUserActivity"
          ],
          "listener": "com.test.sdk.activity.SdkUserActivity",
          "listenerMethod": "onClick",
          "uiType": "onClick",
          "constraintsFile": "constraints45_1.py",
          "variables": {
            "\u003cInput1\u003e.getId()": "IAAv0"
          },
          "stringMap": {},
          "strings": {}
        }
      ]
    },
    "46": {
      "startMethod": "com.readnovel.book.base.MoreActivity$4.onScrollStateChanged(Landroid/widget/AbsListView;I)V",
      "targetMethod": "org.apache.http.impl.client.AbstractHttpClient.execute(Lorg/apache/http/client/methods/HttpUriRequest;)Lorg/apache/http/HttpResponse;",
      "eventChain": [
        {
          "start": "com.readnovel.book.base.MoreActivity.onCreate(Landroid/os/Bundle;)V",
          "target": "invokevirtual \u003c Application, Landroid/widget/ListView, setOnScrollListener(Landroid/widget/AbsListView$OnScrollListener;)V \u003e@12",
          "type": "activity",
          "component": "com.readnovel.book.base.MoreActivity"
        },
        {
          "start": "com.readnovel.book.base.MoreActivity$4.onScrollStateChanged(Landroid/widget/AbsListView;I)V",
          "target": "invokevirtual \u003c Application, Lorg/apache/http/impl/client/AbstractHttpClient, execute(Lorg/apache/http/client/methods/HttpUriRequest;)Lorg/apache/http/HttpResponse; \u003e@7",
          "type": "ui",
          "activities": [
            "com.readnovel.book.base.FirstActivity"
          ],
          "listener": "com.readnovel.book.base.MoreActivity$4",
          "listenerMethod": "onScrollStateChanged",
          "uiType": "onScrollStateChanged",
          "constraintsFile": "constraints46_0.py",
          "variables": {
            "\u003cChainedInput2\u003e": "IAAv0",
            "\u003cChainedInput1\u003e.getLastVisiblePosition()": "IAAv1",
            "\u003cChainedInput1\u003e.getCount()": "IAAv2"
          },
          "stringMap": {},
          "strings": {}
        }
      ]
    },
    "47": {
      "startMethod": "com.readnovel.book.base.MoreActivity$5.onScrollStateChanged(Landroid/widget/AbsListView;I)V",
      "targetMethod": "org.apache.http.impl.client.AbstractHttpClient.execute(Lorg/apache/http/client/methods/HttpUriRequest;)Lorg/apache/http/HttpResponse;",
      "eventChain": [
        {
          "start": "com.readnovel.book.base.MoreActivity.onCreate(Landroid/os/Bundle;)V",
          "target": "invokevirtual \u003c Application, Landroid/widget/ListView, setOnScrollListener(Landroid/widget/AbsListView$OnScrollListener;)V \u003e@12",
          "type": "activity",
          "component": "com.readnovel.book.base.MoreActivity"
        },
        {
          "start": "com.readnovel.book.base.MoreActivity$5.onScrollStateChanged(Landroid/widget/AbsListView;I)V",
          "target": "invokevirtual \u003c Application, Lorg/apache/http/impl/client/AbstractHttpClient, execute(Lorg/apache/http/client/methods/HttpUriRequest;)Lorg/apache/http/HttpResponse; \u003e@7",
          "type": "ui",
          "activities": [
            "com.readnovel.book.base.FirstActivity"
          ],
          "listener": "com.readnovel.book.base.MoreActivity$5",
          "listenerMethod": "onScrollStateChanged",
          "uiType": "onScrollStateChanged",
          "constraintsFile": "constraints47_0.py",
          "variables": {
            "\u003cChainedInput2\u003e": "IAAv0",
            "\u003cChainedInput1\u003e.getLastVisiblePosition()": "IAAv1",
            "\u003cChainedInput1\u003e.getCount()": "IAAv2"
          },
          "stringMap": {},
          "strings": {}
        }
      ]
    }
  }
}