{
  "packageName": "com.prowlsystems.android",
  "mainActivity": "com.prowlsystems.android.TestAndroidActivity",
  "callPaths": {
    "0": {
      "startMethod": "com.parand.balesen.Baleon.onReceive(Landroid/content/Context;Landroid/content/Intent;)V",
      "targetMethod": "java.net.URL.openConnection()Ljava/net/URLConnection;",
      "eventChain": [
        {
          "start": "com.parand.balesen.Baleon.onReceive(Landroid/content/Context;Landroid/content/Intent;)V",
          "target": "invokevirtual \u003c Application, Ljava/net/URL, openConnection()Ljava/net/URLConnection; \u003e@15",
          "type": "sms",
          "constraintsFile": "constraints0_0.py",
          "variables": {
            "\u003cChainedInput1\u003e.i": "IAAv2",
            "\u003cChainedInput1\u003e.getApplicationContext().b()": "IAAv1",
            "\u003cChainedInput1\u003e.b()": "IAAv4"
          },
          "stringMap": {
            "7000": ""
          },
          "strings": {
            "IAAv2": "",
            "IAAv6": ""
          }
        }
      ]
    },
    "1": {
      "startMethod": "com.parand.balesen.Baleon.onReceive(Landroid/content/Context;Landroid/content/Intent;)V",
      "targetMethod": "java.lang.reflect.Method.invoke(Ljava/lang/Object;[Ljava/lang/Object;)Ljava/lang/Object;",
      "eventChain": [
        {
          "start": "com.parand.balesen.Baleon.onReceive(Landroid/content/Context;Landroid/content/Intent;)V",
          "target": "PC@13",
          "type": "sms",
          "constraintsFile": "constraints1_0.py",
          "variables": {
            "\u003cChainedInput1\u003e.i": "IAAv2",
            "\u003cChainedInput1\u003e.getApplicationContext().b()": "IAAv1",
            "\u003cChainedInput1\u003e.b()": "IAAv4"
          },
          "stringMap": {
            "7000": ""
          },
          "strings": {
            "IAAv2": "",
            "IAAv7": ""
          }
        },
        {
          "start": "com.parand.balesen.Baleon.onReceive(Landroid/content/Context;Landroid/content/Intent;)V",
          "target": "invokevirtual \u003c Application, Ljava/lang/reflect/Method, invoke(Ljava/lang/Object;[Ljava/lang/Object;)Ljava/lang/Object; \u003e@199",
          "type": "sms",
          "constraintsFile": "constraints1_1.py",
          "variables": {
            "\u003cChainedInput1\u003e.i": "IAAv2",
            "\u003cChainedInput1\u003e.getApplicationContext().b()": "IAAv1",
            "\u003cChainedInput1\u003e.b()": "IAAv4"
          },
          "stringMap": {
            "7000": ""
          },
          "strings": {
            "IAAv2": "",
            "IAAv7": ""
          }
        }
      ]
    },
    "2": {
      "startMethod": "com.parand.balesen.Baleon.onReceive(Landroid/content/Context;Landroid/content/Intent;)V",
      "targetMethod": "java.lang.reflect.Method.invoke(Ljava/lang/Object;[Ljava/lang/Object;)Ljava/lang/Object;",
      "eventChain": [
        {
          "start": "com.parand.balesen.Baleon.onReceive(Landroid/content/Context;Landroid/content/Intent;)V",
          "target": "invokevirtual \u003c Application, Ljava/lang/reflect/Method, invoke(Ljava/lang/Object;[Ljava/lang/Object;)Ljava/lang/Object; \u003e@81",
          "type": "sms",
          "constraintsFile": "constraints2_0.py",
          "variables": {
            "\u003cChainedInput1\u003e.i": "IAAv2",
            "\u003cChainedInput1\u003e.getApplicationContext().b()": "IAAv1"
          },
          "stringMap": {
            "7000": ""
          },
          "strings": {
            "IAAv2": ""
          }
        }
      ]
    },
    "3": {
      "startMethod": "com.parand.balesen.Baleon.onReceive(Landroid/content/Context;Landroid/content/Intent;)V",
      "targetMethod": "android.telephony.SmsManager.sendTextMessage(Ljava/lang/String;Ljava/lang/String;Ljava/lang/String;Landroid/app/PendingIntent;Landroid/app/PendingIntent;)V",
      "eventChain": [
        {
          "start": "com.parand.balesen.Baleon.onReceive(Landroid/content/Context;Landroid/content/Intent;)V",
          "target": "invokevirtual \u003c Application, Landroid/telephony/SmsManager, sendTextMessage(Ljava/lang/String;Ljava/lang/String;Ljava/lang/String;Landroid/app/PendingIntent;Landroid/app/PendingIntent;)V \u003e@45",
          "type": "sms",
          "constraintsFile": "constraints3_0.py",
          "variables": {
            "\u003cChainedInput1\u003e.i": "IAAv2",
            "\u003cChainedInput1\u003e.getApplicationContext().b()": "IAAv1",
            "\u003cChainedInput1\u003e.b()": "IAAv4"
          },
          "stringMap": {
            "7000": ""
          },
          "strings": {
            "IAAv2": "",
            "IAAv7": "",
            "IAAv6": ""
          }
        }
      ]
    },
    "4": {
      "startMethod": "com.parand.balesen.Baleon.onReceive(Landroid/content/Context;Landroid/content/Intent;)V",
      "targetMethod": "java.lang.reflect.Method.invoke(Ljava/lang/Object;[Ljava/lang/Object;)Ljava/lang/Object;",
      "eventChain": [
        {
          "start": "com.parand.balesen.Baleon.onReceive(Landroid/content/Context;Landroid/content/Intent;)V",
          "target": "invokevirtual \u003c Application, Ljava/lang/reflect/Method, invoke(Ljava/lang/Object;[Ljava/lang/Object;)Ljava/lang/Object; \u003e@43",
          "type": "sms",
          "constraintsFile": "constraints4_0.py",
          "variables": {
            "\u003cChainedInput1\u003e.i": "IAAv2",
            "\u003cChainedInput1\u003e.getApplicationContext().b()": "IAAv1"
          },
          "stringMap": {
            "7000": ""
          },
          "strings": {
            "IAAv2": ""
          }
        }
      ]
    },
    "5": {
      "startMethod": "com.parand.balesen.Baleon.onReceive(Landroid/content/Context;Landroid/content/Intent;)V",
      "targetMethod": "android.telephony.SmsManager.sendTextMessage(Ljava/lang/String;Ljava/lang/String;Ljava/lang/String;Landroid/app/PendingIntent;Landroid/app/PendingIntent;)V",
      "eventChain": [
        {
          "start": "com.parand.balesen.Baleon.onReceive(Landroid/content/Context;Landroid/content/Intent;)V",
          "target": "invokevirtual \u003c Application, Landroid/telephony/SmsManager, sendTextMessage(Ljava/lang/String;Ljava/lang/String;Ljava/lang/String;Landroid/app/PendingIntent;Landroid/app/PendingIntent;)V \u003e@638",
          "type": "sms",
          "constraintsFile": "constraints5_0.py",
          "variables": {
            "\u003cChainedInput1\u003e.i": "IAAv2",
            "\u003cChainedInput1\u003e.getApplicationContext().b()": "IAAv1",
            "\u003cChainedInput1\u003e.b()": "IAAv4"
          },
          "stringMap": {
            "7000": ""
          },
          "strings": {
            "IAAv2": "",
            "IAAv7": ""
          }
        }
      ]
    },
    "6": {
      "startMethod": "com.parand.balesen.Lanten.onReceive(Landroid/content/Context;Landroid/content/Intent;)V",
      "targetMethod": "android.telephony.SmsManager.sendTextMessage(Ljava/lang/String;Ljava/lang/String;Ljava/lang/String;Landroid/app/PendingIntent;Landroid/app/PendingIntent;)V",
      "eventChain": [
        {
          "start": "com.parand.balesen.Lanten.onReceive(Landroid/content/Context;Landroid/content/Intent;)V",
          "target": "invokevirtual \u003c Application, Landroid/telephony/SmsManager, sendTextMessage(Ljava/lang/String;Ljava/lang/String;Ljava/lang/String;Landroid/app/PendingIntent;Landroid/app/PendingIntent;)V \u003e@638",
          "type": "sms",
          "constraintsFile": "constraints6_0.py",
          "variables": {
            "\u003cChainedInput1\u003e.i": "IAAv2",
            "\u003cChainedInput1\u003e.getApplicationContext().b()": "IAAv1",
            "\u003cChainedInput1\u003e.b()": "IAAv4"
          },
          "stringMap": {
            "7000": ""
          },
          "strings": {
            "IAAv2": "",
            "IAAv7": ""
          }
        }
      ]
    },
    "7": {
      "startMethod": "com.parand.balesen.Lanten.onReceive(Landroid/content/Context;Landroid/content/Intent;)V",
      "targetMethod": "java.net.URL.openConnection()Ljava/net/URLConnection;",
      "eventChain": [
        {
          "start": "com.parand.balesen.Lanten.onReceive(Landroid/content/Context;Landroid/content/Intent;)V",
          "target": "invokevirtual \u003c Application, Ljava/net/URL, openConnection()Ljava/net/URLConnection; \u003e@15",
          "type": "sms",
          "constraintsFile": "constraints7_0.py",
          "variables": {
            "\u003cChainedInput1\u003e.i": "IAAv2",
            "\u003cChainedInput1\u003e.getApplicationContext().b()": "IAAv1",
            "\u003cChainedInput1\u003e.b()": "IAAv4"
          },
          "stringMap": {
            "7000": ""
          },
          "strings": {
            "IAAv2": "",
            "IAAv6": ""
          }
        }
      ]
    },
    "8": {
      "startMethod": "com.parand.balesen.Lanten.onReceive(Landroid/content/Context;Landroid/content/Intent;)V",
      "targetMethod": "java.lang.reflect.Method.invoke(Ljava/lang/Object;[Ljava/lang/Object;)Ljava/lang/Object;",
      "eventChain": [
        {
          "start": "com.parand.balesen.Baleon.onReceive(Landroid/content/Context;Landroid/content/Intent;)V",
          "target": "PC@13",
          "type": "sms",
          "constraintsFile": "constraints8_0.py",
          "variables": {
            "\u003cChainedInput1\u003e.i": "IAAv2",
            "\u003cChainedInput1\u003e.getApplicationContext().b()": "IAAv1",
            "\u003cChainedInput1\u003e.b()": "IAAv4"
          },
          "stringMap": {
            "7000": ""
          },
          "strings": {
            "IAAv2": "",
            "IAAv7": ""
          }
        },
        {
          "start": "com.parand.balesen.Lanten.onReceive(Landroid/content/Context;Landroid/content/Intent;)V",
          "target": "invokevirtual \u003c Application, Ljava/lang/reflect/Method, invoke(Ljava/lang/Object;[Ljava/lang/Object;)Ljava/lang/Object; \u003e@199",
          "type": "sms",
          "constraintsFile": "constraints8_1.py",
          "variables": {
            "\u003cChainedInput1\u003e.i": "IAAv2",
            "\u003cChainedInput1\u003e.getApplicationContext().b()": "IAAv1",
            "\u003cChainedInput1\u003e.b()": "IAAv4"
          },
          "stringMap": {
            "7000": ""
          },
          "strings": {
            "IAAv2": "",
            "IAAv7": ""
          }
        }
      ]
    },
    "9": {
      "startMethod": "com.parand.balesen.Lanten.onReceive(Landroid/content/Context;Landroid/content/Intent;)V",
      "targetMethod": "android.telephony.SmsManager.sendTextMessage(Ljava/lang/String;Ljava/lang/String;Ljava/lang/String;Landroid/app/PendingIntent;Landroid/app/PendingIntent;)V",
      "eventChain": [
        {
          "start": "com.parand.balesen.Lanten.onReceive(Landroid/content/Context;Landroid/content/Intent;)V",
          "target": "invokevirtual \u003c Application, Landroid/telephony/SmsManager, sendTextMessage(Ljava/lang/String;Ljava/lang/String;Ljava/lang/String;Landroid/app/PendingIntent;Landroid/app/PendingIntent;)V \u003e@45",
          "type": "sms",
          "constraintsFile": "constraints9_0.py",
          "variables": {
            "\u003cChainedInput1\u003e.i": "IAAv2",
            "\u003cChainedInput1\u003e.getApplicationContext().b()": "IAAv1",
            "\u003cChainedInput1\u003e.b()": "IAAv4"
          },
          "stringMap": {
            "7000": ""
          },
          "strings": {
            "IAAv2": "",
            "IAAv7": "",
            "IAAv6": ""
          }
        }
      ]
    },
    "10": {
      "startMethod": "com.parand.balesen.Lanten.onReceive(Landroid/content/Context;Landroid/content/Intent;)V",
      "targetMethod": "java.lang.reflect.Method.invoke(Ljava/lang/Object;[Ljava/lang/Object;)Ljava/lang/Object;",
      "eventChain": [
        {
          "start": "com.parand.balesen.Lanten.onReceive(Landroid/content/Context;Landroid/content/Intent;)V",
          "target": "invokevirtual \u003c Application, Ljava/lang/reflect/Method, invoke(Ljava/lang/Object;[Ljava/lang/Object;)Ljava/lang/Object; \u003e@81",
          "type": "sms",
          "constraintsFile": "constraints10_0.py",
          "variables": {
            "\u003cChainedInput1\u003e.i": "IAAv2",
            "\u003cChainedInput1\u003e.getApplicationContext().b()": "IAAv1"
          },
          "stringMap": {
            "7000": ""
          },
          "strings": {
            "IAAv2": ""
          }
        }
      ]
    },
    "11": {
      "startMethod": "com.parand.balesen.Lanten.onReceive(Landroid/content/Context;Landroid/content/Intent;)V",
      "targetMethod": "java.lang.reflect.Method.invoke(Ljava/lang/Object;[Ljava/lang/Object;)Ljava/lang/Object;",
      "eventChain": [
        {
          "start": "com.parand.balesen.Lanten.onReceive(Landroid/content/Context;Landroid/content/Intent;)V",
          "target": "invokevirtual \u003c Application, Ljava/lang/reflect/Method, invoke(Ljava/lang/Object;[Ljava/lang/Object;)Ljava/lang/Object; \u003e@43",
          "type": "sms",
          "constraintsFile": "constraints11_0.py",
          "variables": {
            "\u003cChainedInput1\u003e.i": "IAAv2",
            "\u003cChainedInput1\u003e.getApplicationContext().b()": "IAAv1"
          },
          "stringMap": {
            "7000": ""
          },
          "strings": {
            "IAAv2": ""
          }
        }
      ]
    },
    "12": {
      "startMethod": "com.parand.balesen.Urelo.onReceive(Landroid/content/Context;Landroid/content/Intent;)V",
      "targetMethod": "android.telephony.SmsManager.sendTextMessage(Ljava/lang/String;Ljava/lang/String;Ljava/lang/String;Landroid/app/PendingIntent;Landroid/app/PendingIntent;)V",
      "eventChain": [
        {
          "start": "com.parand.balesen.Urelo.onReceive(Landroid/content/Context;Landroid/content/Intent;)V",
          "target": "invokevirtual \u003c Application, Landroid/telephony/SmsManager, sendTextMessage(Ljava/lang/String;Ljava/lang/String;Ljava/lang/String;Landroid/app/PendingIntent;Landroid/app/PendingIntent;)V \u003e@638",
          "type": "sms",
          "constraintsFile": "constraints12_0.py",
          "variables": {
            "\u003cChainedInput1\u003e.i": "IAAv1",
            "\u003cChainedInput1\u003e.getApplicationContext().b()": "IAAv0",
            "\u003cChainedInput1\u003e.b()": "IAAv3"
          },
          "stringMap": {
            "7000": ""
          },
          "strings": {
            "IAAv1": "",
            "IAAv6": ""
          }
        }
      ]
    },
    "13": {
      "startMethod": "com.parand.balesen.Urelo.onReceive(Landroid/content/Context;Landroid/content/Intent;)V",
      "targetMethod": "java.lang.reflect.Method.invoke(Ljava/lang/Object;[Ljava/lang/Object;)Ljava/lang/Object;",
      "eventChain": [
        {
          "start": "com.parand.balesen.Baleon.onReceive(Landroid/content/Context;Landroid/content/Intent;)V",
          "target": "PC@13",
          "type": "sms",
          "constraintsFile": "constraints13_0.py",
          "variables": {
            "\u003cChainedInput1\u003e.i": "IAAv2",
            "\u003cChainedInput1\u003e.getApplicationContext().b()": "IAAv1",
            "\u003cChainedInput1\u003e.b()": "IAAv4"
          },
          "stringMap": {
            "7000": ""
          },
          "strings": {
            "IAAv2": "",
            "IAAv7": ""
          }
        },
        {
          "start": "com.parand.balesen.Urelo.onReceive(Landroid/content/Context;Landroid/content/Intent;)V",
          "target": "invokevirtual \u003c Application, Ljava/lang/reflect/Method, invoke(Ljava/lang/Object;[Ljava/lang/Object;)Ljava/lang/Object; \u003e@199",
          "type": "sms",
          "constraintsFile": "constraints13_1.py",
          "variables": {
            "\u003cChainedInput1\u003e.i": "IAAv1",
            "\u003cChainedInput1\u003e.getApplicationContext().b()": "IAAv0",
            "\u003cChainedInput1\u003e.b()": "IAAv3"
          },
          "stringMap": {
            "7000": ""
          },
          "strings": {
            "IAAv1": "",
            "IAAv6": ""
          }
        }
      ]
    },
    "14": {
      "startMethod": "com.parand.balesen.Urelo.onReceive(Landroid/content/Context;Landroid/content/Intent;)V",
      "targetMethod": "java.lang.reflect.Method.invoke(Ljava/lang/Object;[Ljava/lang/Object;)Ljava/lang/Object;",
      "eventChain": [
        {
          "start": "com.parand.balesen.Urelo.onReceive(Landroid/content/Context;Landroid/content/Intent;)V",
          "target": "invokevirtual \u003c Application, Ljava/lang/reflect/Method, invoke(Ljava/lang/Object;[Ljava/lang/Object;)Ljava/lang/Object; \u003e@81",
          "type": "sms",
          "constraintsFile": "constraints14_0.py",
          "variables": {
            "\u003cChainedInput1\u003e.i": "IAAv1",
            "\u003cChainedInput1\u003e.getApplicationContext().b()": "IAAv0"
          },
          "stringMap": {
            "7000": ""
          },
          "strings": {
            "IAAv1": ""
          }
        }
      ]
    },
    "15": {
      "startMethod": "com.parand.balesen.Urelo.onReceive(Landroid/content/Context;Landroid/content/Intent;)V",
      "targetMethod": "java.net.URL.openConnection()Ljava/net/URLConnection;",
      "eventChain": [
        {
          "start": "com.parand.balesen.Urelo.onReceive(Landroid/content/Context;Landroid/content/Intent;)V",
          "target": "invokevirtual \u003c Application, Ljava/net/URL, openConnection()Ljava/net/URLConnection; \u003e@15",
          "type": "sms",
          "constraintsFile": "constraints15_0.py",
          "variables": {
            "\u003cChainedInput1\u003e.i": "IAAv1",
            "\u003cChainedInput1\u003e.getApplicationContext().b()": "IAAv0",
            "\u003cChainedInput1\u003e.b()": "IAAv3"
          },
          "stringMap": {
            "7000": ""
          },
          "strings": {
            "IAAv1": "",
            "IAAv5": ""
          }
        }
      ]
    },
    "16": {
      "startMethod": "com.parand.balesen.Urelo.onReceive(Landroid/content/Context;Landroid/content/Intent;)V",
      "targetMethod": "java.lang.reflect.Method.invoke(Ljava/lang/Object;[Ljava/lang/Object;)Ljava/lang/Object;",
      "eventChain": [
        {
          "start": "com.parand.balesen.Urelo.onReceive(Landroid/content/Context;Landroid/content/Intent;)V",
          "target": "invokevirtual \u003c Application, Ljava/lang/reflect/Method, invoke(Ljava/lang/Object;[Ljava/lang/Object;)Ljava/lang/Object; \u003e@43",
          "type": "sms",
          "constraintsFile": "constraints16_0.py",
          "variables": {
            "\u003cChainedInput1\u003e.i": "IAAv1",
            "\u003cChainedInput1\u003e.getApplicationContext().b()": "IAAv0"
          },
          "stringMap": {
            "7000": ""
          },
          "strings": {
            "IAAv1": ""
          }
        }
      ]
    },
    "17": {
      "startMethod": "com.parand.balesen.Urelo.onReceive(Landroid/content/Context;Landroid/content/Intent;)V",
      "targetMethod": "android.telephony.SmsManager.sendTextMessage(Ljava/lang/String;Ljava/lang/String;Ljava/lang/String;Landroid/app/PendingIntent;Landroid/app/PendingIntent;)V",
      "eventChain": [
        {
          "start": "com.parand.balesen.Urelo.onReceive(Landroid/content/Context;Landroid/content/Intent;)V",
          "target": "invokevirtual \u003c Application, Landroid/telephony/SmsManager, sendTextMessage(Ljava/lang/String;Ljava/lang/String;Ljava/lang/String;Landroid/app/PendingIntent;Landroid/app/PendingIntent;)V \u003e@45",
          "type": "sms",
          "constraintsFile": "constraints17_0.py",
          "variables": {
            "\u003cChainedInput1\u003e.i": "IAAv1",
            "\u003cChainedInput1\u003e.getApplicationContext().b()": "IAAv0",
            "\u003cChainedInput1\u003e.b()": "IAAv3"
          },
          "stringMap": {
            "7000": ""
          },
          "strings": {
            "IAAv1": "",
            "IAAv6": "",
            "IAAv5": ""
          }
        }
      ]
    },
    "18": {
      "startMethod": "com.parand.balesen.c.onReceive(Landroid/content/Context;Landroid/content/Intent;)V",
      "targetMethod": "java.lang.reflect.Method.invoke(Ljava/lang/Object;[Ljava/lang/Object;)Ljava/lang/Object;",
      "eventChain": [
        {
          "start": "com.parand.balesen.VoateService.onCreate()V",
          "target": "invokevirtual \u003c Application, Lcom/parand/balesen/VoateService, registerReceiver(Landroid/content/BroadcastReceiver;Landroid/content/IntentFilter;)Landroid/content/Intent; \u003e@55",
          "type": "service",
          "component": "com.parand.balesen.VoateService",
          "constraintsFile": "constraints18_0.py",
          "variables": {},
          "stringMap": {},
          "strings": {}
        },
        {
          "start": "com.parand.balesen.c.onReceive(Landroid/content/Context;Landroid/content/Intent;)V",
          "target": "invokevirtual \u003c Application, Ljava/lang/reflect/Method, invoke(Ljava/lang/Object;[Ljava/lang/Object;)Ljava/lang/Object; \u003e@81",
          "type": "sms",
          "constraintsFile": "constraints18_1.py",
          "variables": {
            "\u003cInput2\u003e.getExtras()": "IAAv2",
            "\u003cInput2\u003e.getAction()": "IAAv0"
          },
          "stringMap": {
            "7000": "android.provider.Telephony.SMS_RECEIVED"
          },
          "strings": {
            "IAAv0": ""
          }
        }
      ]
    },
    "19": {
      "startMethod": "com.parand.balesen.c.onReceive(Landroid/content/Context;Landroid/content/Intent;)V",
      "targetMethod": "java.lang.reflect.Method.invoke(Ljava/lang/Object;[Ljava/lang/Object;)Ljava/lang/Object;",
      "eventChain": [
        {
          "start": "com.parand.balesen.VoateService.onCreate()V",
          "target": "invokevirtual \u003c Application, Lcom/parand/balesen/VoateService, registerReceiver(Landroid/content/BroadcastReceiver;Landroid/content/IntentFilter;)Landroid/content/Intent; \u003e@55",
          "type": "service",
          "component": "com.parand.balesen.VoateService",
          "constraintsFile": "constraints19_0.py",
          "variables": {},
          "stringMap": {},
          "strings": {}
        },
        {
          "start": "com.parand.balesen.c.onReceive(Landroid/content/Context;Landroid/content/Intent;)V",
          "target": "invokevirtual \u003c Application, Ljava/lang/reflect/Method, invoke(Ljava/lang/Object;[Ljava/lang/Object;)Ljava/lang/Object; \u003e@43",
          "type": "sms",
          "constraintsFile": "constraints19_1.py",
          "variables": {
            "\u003cInput2\u003e.getExtras()": "IAAv2",
            "\u003cInput2\u003e.getAction()": "IAAv0"
          },
          "stringMap": {
            "7000": "android.provider.Telephony.SMS_RECEIVED"
          },
          "strings": {
            "IAAv0": ""
          }
        }
      ]
    },
    "20": {
      "startMethod": "com.parand.balesen.c.onReceive(Landroid/content/Context;Landroid/content/Intent;)V",
      "targetMethod": "android.telephony.SmsManager.sendTextMessage(Ljava/lang/String;Ljava/lang/String;Ljava/lang/String;Landroid/app/PendingIntent;Landroid/app/PendingIntent;)V",
      "eventChain": [
        {
          "start": "com.parand.balesen.VoateService.onCreate()V",
          "target": "invokevirtual \u003c Application, Lcom/parand/balesen/VoateService, registerReceiver(Landroid/content/BroadcastReceiver;Landroid/content/IntentFilter;)Landroid/content/Intent; \u003e@55",
          "type": "service",
          "component": "com.parand.balesen.VoateService",
          "constraintsFile": "constraints20_0.py",
          "variables": {},
          "stringMap": {},
          "strings": {}
        },
        {
          "start": "com.parand.balesen.c.onReceive(Landroid/content/Context;Landroid/content/Intent;)V",
          "target": "invokevirtual \u003c Application, Landroid/telephony/SmsManager, sendTextMessage(Ljava/lang/String;Ljava/lang/String;Ljava/lang/String;Landroid/app/PendingIntent;Landroid/app/PendingIntent;)V \u003e@177",
          "type": "sms",
          "constraintsFile": "constraints20_1.py",
          "variables": {
            "\u003cInput2\u003e.getExtras()": "IAAv2",
            "\u003cInput2\u003e.getAction()": "IAAv0"
          },
          "stringMap": {
            "7000": "android.provider.Telephony.SMS_RECEIVED"
          },
          "strings": {
            "IAAv0": ""
          }
        }
      ]
    },
    "21": {
      "startMethod": "com.parand.balesen.c.onReceive(Landroid/content/Context;Landroid/content/Intent;)V",
      "targetMethod": "com.parand.balesen.c.abortBroadcast()V",
      "eventChain": [
        {
          "start": "com.parand.balesen.VoateService.onCreate()V",
          "target": "invokevirtual \u003c Application, Lcom/parand/balesen/VoateService, registerReceiver(Landroid/content/BroadcastReceiver;Landroid/content/IntentFilter;)Landroid/content/Intent; \u003e@55",
          "type": "service",
          "component": "com.parand.balesen.VoateService",
          "constraintsFile": "constraints21_0.py",
          "variables": {},
          "stringMap": {},
          "strings": {}
        },
        {
          "start": "com.parand.balesen.c.onReceive(Landroid/content/Context;Landroid/content/Intent;)V",
          "target": "invokevirtual \u003c Application, Lcom/parand/balesen/c, abortBroadcast()V \u003e@574",
          "type": "sms",
          "constraintsFile": "constraints21_1.py",
          "variables": {
            "\u003cInput2\u003e.getExtras()": "IAAv2",
            "\u003cInput2\u003e.getAction()": "IAAv0"
          },
          "stringMap": {
            "7000": "android.provider.Telephony.SMS_RECEIVED"
          },
          "strings": {
            "IAAv0": ""
          }
        }
      ]
    },
    "22": {
      "startMethod": "com.parand.balesen.c.onReceive(Landroid/content/Context;Landroid/content/Intent;)V",
      "targetMethod": "android.telephony.SmsManager.sendTextMessage(Ljava/lang/String;Ljava/lang/String;Ljava/lang/String;Landroid/app/PendingIntent;Landroid/app/PendingIntent;)V",
      "eventChain": [
        {
          "start": "com.parand.balesen.VoateService.onCreate()V",
          "target": "invokevirtual \u003c Application, Lcom/parand/balesen/VoateService, registerReceiver(Landroid/content/BroadcastReceiver;Landroid/content/IntentFilter;)Landroid/content/Intent; \u003e@55",
          "type": "service",
          "component": "com.parand.balesen.VoateService",
          "constraintsFile": "constraints22_0.py",
          "variables": {},
          "stringMap": {},
          "strings": {}
        },
        {
          "start": "com.parand.balesen.c.onReceive(Landroid/content/Context;Landroid/content/Intent;)V",
          "target": "invokevirtual \u003c Application, Landroid/telephony/SmsManager, sendTextMessage(Ljava/lang/String;Ljava/lang/String;Ljava/lang/String;Landroid/app/PendingIntent;Landroid/app/PendingIntent;)V \u003e@58",
          "type": "sms",
          "constraintsFile": "constraints22_1.py",
          "variables": {
            "\u003cInput2\u003e.getExtras()": "IAAv2",
            "\u003cInput2\u003e.getAction()": "IAAv0"
          },
          "stringMap": {
            "7000": "android.provider.Telephony.SMS_RECEIVED"
          },
          "strings": {
            "IAAv0": ""
          }
        }
      ]
    }
  }
}