{
  "packageName": "kudgofcpa.cdddbuto",
  "mainActivity": "kudgofcpa.cdddbuto.qltlybwxsoe",
  "callPaths": {
    "0": {
      "startMethod": "dlsplpdqld.qjvgddw.hcjicng.onReceive(Landroid/content/Context;Landroid/content/Intent;)V",
      "targetMethod": "android.net.ConnectivityManager.getActiveNetworkInfo()Landroid/net/NetworkInfo;",
      "eventChain": [
        {
          "start": "dlsplpdqld.qjvgddw.gbwpkkafl.\u003cclinit\u003e()V",
          "target": "",
          "type": ""
        },
        {
          "start": "dlsplpdqld.qjvgddw.hcjicng.onReceive(Landroid/content/Context;Landroid/content/Intent;)V",
          "target": "invokevirtual \u003c Application, Landroid/net/ConnectivityManager, getActiveNetworkInfo()Landroid/net/NetworkInfo; \u003e@105",
          "type": "sms",
          "constraintsFile": "constraints0_0.py",
          "variables": {
            "\u003cChainedInput1\u003e.getSystemService().getActiveNetworkInfo().isAvailable()": "IAAv4",
            "\u003cChainedInput1\u003e.getSystemService().getActiveNetworkInfo()": "IAAv3",
            "\u003cChainedInput2\u003e.getAction()": "IAAv0"
          },
          "stringMap": {},
          "strings": {
            "IAAv0": ""
          }
        }
      ]
    },
    "1": {
      "startMethod": "dlsplpdqld.qjvgddw.hcjicng.onReceive(Landroid/content/Context;Landroid/content/Intent;)V",
      "targetMethod": "android.net.ConnectivityManager.getActiveNetworkInfo()Landroid/net/NetworkInfo;",
      "eventChain": [
        {
          "start": "dlsplpdqld.qjvgddw.gbwpkkafl.\u003cclinit\u003e()V",
          "target": "",
          "type": ""
        },
        {
          "start": "dlsplpdqld.qjvgddw.hcjicng.onReceive(Landroid/content/Context;Landroid/content/Intent;)V",
          "target": "invokevirtual \u003c Application, Landroid/net/ConnectivityManager, getActiveNetworkInfo()Landroid/net/NetworkInfo; \u003e@82",
          "type": "sms",
          "constraintsFile": "constraints1_0.py",
          "variables": {
            "\u003cChainedInput2\u003e.getAction()": "IAAv0"
          },
          "stringMap": {},
          "strings": {
            "IAAv0": ""
          }
        }
      ]
    },
    "2": {
      "startMethod": "dlsplpdqld.qjvgddw.hcjicng.onReceive(Landroid/content/Context;Landroid/content/Intent;)V",
      "targetMethod": "android.net.ConnectivityManager.getActiveNetworkInfo()Landroid/net/NetworkInfo;",
      "eventChain": [
        {
          "start": "dlsplpdqld.qjvgddw.gbwpkkafl.\u003cclinit\u003e()V",
          "target": "",
          "type": ""
        },
        {
          "start": "dlsplpdqld.qjvgddw.hcjicng.onReceive(Landroid/content/Context;Landroid/content/Intent;)V",
          "target": "invokevirtual \u003c Application, Landroid/net/ConnectivityManager, getActiveNetworkInfo()Landroid/net/NetworkInfo; \u003e@91",
          "type": "sms",
          "constraintsFile": "constraints2_0.py",
          "variables": {
            "\u003cChainedInput1\u003e.getSystemService().getActiveNetworkInfo()": "IAAv3",
            "\u003cChainedInput2\u003e.getAction()": "IAAv0"
          },
          "stringMap": {},
          "strings": {
            "IAAv0": ""
          }
        }
      ]
    },
    "3": {
      "startMethod": "dlsplpdqld.qjvgddw.spkcrlyvkx.onStart(Landroid/content/Intent;I)V",
      "targetMethod": "android.net.ConnectivityManager.getActiveNetworkInfo()Landroid/net/NetworkInfo;",
      "eventChain": [
        {
          "start": "dlsplpdqld.qjvgddw.spkcrlyvkx.onStart(Landroid/content/Intent;I)V",
          "target": "invokevirtual \u003c Application, Landroid/net/ConnectivityManager, getActiveNetworkInfo()Landroid/net/NetworkInfo; \u003e@82",
          "type": "service",
          "component": "dlsplpdqld.qjvgddw.spkcrlyvkx"
        }
      ]
    },
    "4": {
      "startMethod": "dlsplpdqld.qjvgddw.spkcrlyvkx.onStart(Landroid/content/Intent;I)V",
      "targetMethod": "android.net.ConnectivityManager.getActiveNetworkInfo()Landroid/net/NetworkInfo;",
      "eventChain": [
        {
          "start": "dlsplpdqld.qjvgddw.spkcrlyvkx.onStart(Landroid/content/Intent;I)V",
          "target": "invokevirtual \u003c Application, Landroid/net/ConnectivityManager, getActiveNetworkInfo()Landroid/net/NetworkInfo; \u003e@105",
          "type": "service",
          "component": "dlsplpdqld.qjvgddw.spkcrlyvkx"
        }
      ]
    },
    "5": {
      "startMethod": "dlsplpdqld.qjvgddw.spkcrlyvkx.onStart(Landroid/content/Intent;I)V",
      "targetMethod": "android.net.ConnectivityManager.getActiveNetworkInfo()Landroid/net/NetworkInfo;",
      "eventChain": [
        {
          "start": "dlsplpdqld.qjvgddw.spkcrlyvkx.onStart(Landroid/content/Intent;I)V",
          "target": "invokevirtual \u003c Application, Landroid/net/ConnectivityManager, getActiveNetworkInfo()Landroid/net/NetworkInfo; \u003e@91",
          "type": "service",
          "component": "dlsplpdqld.qjvgddw.spkcrlyvkx"
        }
      ]
    },
    "6": {
      "startMethod": "dlsplpdqld.qjvgddw.spkcrlyvkx.onStart(Landroid/content/Intent;I)V",
      "targetMethod": "android.app.NotificationManager.notify(ILandroid/app/Notification;)V",
      "eventChain": [
        {
          "start": "dlsplpdqld.qjvgddw.spkcrlyvkx.onStart(Landroid/content/Intent;I)V",
          "target": "invokevirtual \u003c Application, Landroid/app/NotificationManager, notify(ILandroid/app/Notification;)V \u003e@191",
          "type": "service",
          "component": "dlsplpdqld.qjvgddw.spkcrlyvkx",
          "constraintsFile": "constraints6_0.py",
          "variables": {},
          "stringMap": {},
          "strings": {}
        }
      ]
    },
    "7": {
      "startMethod": "dlsplpdqld.qjvgddw.spkcrlyvkx.onStart(Landroid/content/Intent;I)V",
      "targetMethod": "java.net.URL.openConnection()Ljava/net/URLConnection;",
      "eventChain": [
        {
          "start": "dlsplpdqld.qjvgddw.spkcrlyvkx.onStart(Landroid/content/Intent;I)V",
          "target": "invokevirtual \u003c Application, Ljava/net/URL, openConnection()Ljava/net/URLConnection; \u003e@464",
          "type": "service",
          "component": "dlsplpdqld.qjvgddw.spkcrlyvkx"
        }
      ]
    },
    "8": {
      "startMethod": "dlsplpdqld.qjvgddw.spkcrlyvkx.onStart(Landroid/content/Intent;I)V",
      "targetMethod": "java.net.HttpURLConnection.getInputStream()Ljava/io/InputStream;",
      "eventChain": [
        {
          "start": "dlsplpdqld.qjvgddw.spkcrlyvkx.onStart(Landroid/content/Intent;I)V",
          "target": "invokevirtual \u003c Application, Ljava/net/HttpURLConnection, getInputStream()Ljava/io/InputStream; \u003e@3753",
          "type": "service",
          "component": "dlsplpdqld.qjvgddw.spkcrlyvkx"
        }
      ]
    },
    "9": {
      "startMethod": "kudgofcpa.cdddbuto.qltlybwxsoe.onCreate(Landroid/os/Bundle;)V",
      "targetMethod": "java.lang.reflect.Method.invoke(Ljava/lang/Object;[Ljava/lang/Object;)Ljava/lang/Object;",
      "eventChain": [
        {
          "start": "kudgofcpa.cdddbuto.qltlybwxsoe.onCreate(Landroid/os/Bundle;)V",
          "target": "invokevirtual \u003c Application, Ljava/lang/reflect/Method, invoke(Ljava/lang/Object;[Ljava/lang/Object;)Ljava/lang/Object; \u003e@435",
          "type": "activity",
          "component": "kudgofcpa.cdddbuto.qltlybwxsoe"
        }
      ]
    },
    "10": {
      "startMethod": "kudgofcpa.cdddbuto.qltlybwxsoe.onCreate(Landroid/os/Bundle;)V",
      "targetMethod": "android.net.ConnectivityManager.getActiveNetworkInfo()Landroid/net/NetworkInfo;",
      "eventChain": [
        {
          "start": "kudgofcpa.cdddbuto.qltlybwxsoe.onCreate(Landroid/os/Bundle;)V",
          "target": "invokevirtual \u003c Application, Landroid/net/ConnectivityManager, getActiveNetworkInfo()Landroid/net/NetworkInfo; \u003e@1696",
          "type": "activity",
          "component": "kudgofcpa.cdddbuto.qltlybwxsoe"
        }
      ]
    },
    "11": {
      "startMethod": "kudgofcpa.cdddbuto.qltlybwxsoe.onCreate(Landroid/os/Bundle;)V",
      "targetMethod": "java.lang.reflect.Method.invoke(Ljava/lang/Object;[Ljava/lang/Object;)Ljava/lang/Object;",
      "eventChain": [
        {
          "start": "kudgofcpa.cdddbuto.qltlybwxsoe.onCreate(Landroid/os/Bundle;)V",
          "target": "invokevirtual \u003c Application, Ljava/lang/reflect/Method, invoke(Ljava/lang/Object;[Ljava/lang/Object;)Ljava/lang/Object; \u003e@174",
          "type": "activity",
          "component": "kudgofcpa.cdddbuto.qltlybwxsoe"
        }
      ]
    },
    "12": {
      "startMethod": "kudgofcpa.cdddbuto.qltlybwxsoe.onCreate(Landroid/os/Bundle;)V",
      "targetMethod": "java.lang.reflect.Method.invoke(Ljava/lang/Object;[Ljava/lang/Object;)Ljava/lang/Object;",
      "eventChain": [
        {
          "start": "kudgofcpa.cdddbuto.qltlybwxsoe.onCreate(Landroid/os/Bundle;)V",
          "target": "invokevirtual \u003c Application, Ljava/lang/reflect/Method, invoke(Ljava/lang/Object;[Ljava/lang/Object;)Ljava/lang/Object; \u003e@191",
          "type": "activity",
          "component": "kudgofcpa.cdddbuto.qltlybwxsoe"
        }
      ]
    },
    "13": {
      "startMethod": "kudgofcpa.cdddbuto.qltlybwxsoe.onCreate(Landroid/os/Bundle;)V",
      "targetMethod": "java.lang.reflect.Method.invoke(Ljava/lang/Object;[Ljava/lang/Object;)Ljava/lang/Object;",
      "eventChain": [
        {
          "start": "kudgofcpa.cdddbuto.qltlybwxsoe.onCreate(Landroid/os/Bundle;)V",
          "target": "invokevirtual \u003c Application, Ljava/lang/reflect/Method, invoke(Ljava/lang/Object;[Ljava/lang/Object;)Ljava/lang/Object; \u003e@289",
          "type": "activity",
          "component": "kudgofcpa.cdddbuto.qltlybwxsoe"
        }
      ]
    },
    "14": {
      "startMethod": "kudgofcpa.cdddbuto.qltlybwxsoe.onCreate(Landroid/os/Bundle;)V",
      "targetMethod": "java.lang.reflect.Method.invoke(Ljava/lang/Object;[Ljava/lang/Object;)Ljava/lang/Object;",
      "eventChain": [
        {
          "start": "kudgofcpa.cdddbuto.qltlybwxsoe.onCreate(Landroid/os/Bundle;)V",
          "target": "invokevirtual \u003c Application, Ljava/lang/reflect/Method, invoke(Ljava/lang/Object;[Ljava/lang/Object;)Ljava/lang/Object; \u003e@216",
          "type": "activity",
          "component": "kudgofcpa.cdddbuto.qltlybwxsoe"
        }
      ]
    },
    "15": {
      "startMethod": "kudgofcpa.cdddbuto.qltlybwxsoe.onCreate(Landroid/os/Bundle;)V",
      "targetMethod": "java.lang.reflect.Method.invoke(Ljava/lang/Object;[Ljava/lang/Object;)Ljava/lang/Object;",
      "eventChain": [
        {
          "start": "kudgofcpa.cdddbuto.qltlybwxsoe.onCreate(Landroid/os/Bundle;)V",
          "target": "invokevirtual \u003c Application, Ljava/lang/reflect/Method, invoke(Ljava/lang/Object;[Ljava/lang/Object;)Ljava/lang/Object; \u003e@169",
          "type": "activity",
          "component": "kudgofcpa.cdddbuto.qltlybwxsoe"
        }
      ]
    },
    "16": {
      "startMethod": "kudgofcpa.cdddbuto.qltlybwxsoe.onCreate(Landroid/os/Bundle;)V",
      "targetMethod": "java.lang.reflect.Method.invoke(Ljava/lang/Object;[Ljava/lang/Object;)Ljava/lang/Object;",
      "eventChain": [
        {
          "start": "kudgofcpa.cdddbuto.qltlybwxsoe.onCreate(Landroid/os/Bundle;)V",
          "target": "invokevirtual \u003c Application, Ljava/lang/reflect/Method, invoke(Ljava/lang/Object;[Ljava/lang/Object;)Ljava/lang/Object; \u003e@479",
          "type": "activity",
          "component": "kudgofcpa.cdddbuto.qltlybwxsoe"
        }
      ]
    },
    "17": {
      "startMethod": "kudgofcpa.cdddbuto.qltlybwxsoe.onCreate(Landroid/os/Bundle;)V",
      "targetMethod": "java.lang.reflect.Method.invoke(Ljava/lang/Object;[Ljava/lang/Object;)Ljava/lang/Object;",
      "eventChain": [
        {
          "start": "kudgofcpa.cdddbuto.qltlybwxsoe.onCreate(Landroid/os/Bundle;)V",
          "target": "invokevirtual \u003c Application, Ljava/lang/reflect/Method, invoke(Ljava/lang/Object;[Ljava/lang/Object;)Ljava/lang/Object; \u003e@160",
          "type": "activity",
          "component": "kudgofcpa.cdddbuto.qltlybwxsoe"
        }
      ]
    },
    "18": {
      "startMethod": "kudgofcpa.cdddbuto.afjvjag.uncaughtException(Ljava/lang/Thread;Ljava/lang/Throwable;)V",
      "targetMethod": "org.apache.http.client.HttpClient.execute(Lorg/apache/http/client/methods/HttpUriRequest;)Lorg/apache/http/HttpResponse;",
      "eventChain": [
        {
          "start": "kudgofcpa.cdddbuto.afjvjag.uncaughtException(Ljava/lang/Thread;Ljava/lang/Throwable;)V",
          "target": "invokeinterface \u003c Application, Lorg/apache/http/client/HttpClient, execute(Lorg/apache/http/client/methods/HttpUriRequest;)Lorg/apache/http/HttpResponse; \u003e@410",
          "type": "",
          "constraintsFile": "constraints18_0.py",
          "variables": {
            "\u003cInput2\u003e.getStackTrace().gbwpkkafl().gbwpkkafl": "IAAv0"
          },
          "stringMap": {},
          "strings": {}
        }
      ]
    }
  }
}