{
  "packageName": "anzhuo.theme.kkyyy01",
  "mainActivity": "net.free.soft.setting.MainSettingActivity",
  "callPaths": {
    "0": {
      "startMethod": "net.free.soft.setting.MainSettingActivity.onResume()V",
      "targetMethod": "java.lang.reflect.Method.invoke(Ljava/lang/Object;[Ljava/lang/Object;)Ljava/lang/Object;",
      "eventChain": [
        {
          "start": "net.free.soft.setting.MainSettingActivity.onResume()V",
          "target": "invokevirtual \u003c Application, Ljava/lang/reflect/Method, invoke(Ljava/lang/Object;[Ljava/lang/Object;)Ljava/lang/Object; \u003e@131",
          "type": "activity",
          "component": "net.free.soft.setting.MainSettingActivity"
        }
      ]
    },
    "1": {
      "startMethod": "net.free.soft.setting.MainSettingActivity.onResume()V",
      "targetMethod": "dalvik.system.DexClassLoader.loadClass(Ljava/lang/String;)Ljava/lang/Class;",
      "eventChain": [
        {
          "start": "net.free.soft.setting.MainSettingActivity.onResume()V",
          "target": "invokevirtual \u003c Application, Ldalvik/system/DexClassLoader, loadClass(Ljava/lang/String;)Ljava/lang/Class; \u003e@70",
          "type": "activity",
          "component": "net.free.soft.setting.MainSettingActivity"
        }
      ]
    },
    "2": {
      "startMethod": "net.free.soft.setting.MainSettingActivity.onResume()V",
      "targetMethod": "java.lang.reflect.Method.invoke(Ljava/lang/Object;[Ljava/lang/Object;)Ljava/lang/Object;",
      "eventChain": [
        {
          "start": "net.free.soft.setting.MainSettingActivity.onResume()V",
          "target": "invokevirtual \u003c Application, Ljava/lang/reflect/Method, invoke(Ljava/lang/Object;[Ljava/lang/Object;)Ljava/lang/Object; \u003e@175",
          "type": "activity",
          "component": "net.free.soft.setting.MainSettingActivity"
        }
      ]
    },
    "3": {
      "startMethod": "net.free.soft.setting.MainSettingActivity.onResume()V",
      "targetMethod": "java.lang.reflect.Method.invoke(Ljava/lang/Object;[Ljava/lang/Object;)Ljava/lang/Object;",
      "eventChain": [
        {
          "start": "net.free.soft.setting.MainSettingActivity.onResume()V",
          "target": "invokevirtual \u003c Application, Ljava/lang/reflect/Method, invoke(Ljava/lang/Object;[Ljava/lang/Object;)Ljava/lang/Object; \u003e@70",
          "type": "activity",
          "component": "net.free.soft.setting.MainSettingActivity"
        }
      ]
    },
    "4": {
      "startMethod": "net.free.soft.setting.MainSettingActivity.onResume()V",
      "targetMethod": "org.apache.http.client.HttpClient.execute(Lorg/apache/http/client/methods/HttpUriRequest;)Lorg/apache/http/HttpResponse;",
      "eventChain": [
        {
          "start": "net.free.soft.setting.MainSettingActivity.onResume()V",
          "target": "invokeinterface \u003c Application, Lorg/apache/http/client/HttpClient, execute(Lorg/apache/http/client/methods/HttpUriRequest;)Lorg/apache/http/HttpResponse; \u003e@292",
          "type": "activity",
          "component": "net.free.soft.setting.MainSettingActivity"
        }
      ]
    },
    "5": {
      "startMethod": "net.free.soft.setting.MainSettingActivity.onResume()V",
      "targetMethod": "java.lang.reflect.Method.invoke(Ljava/lang/Object;[Ljava/lang/Object;)Ljava/lang/Object;",
      "eventChain": [
        {
          "start": "net.free.soft.setting.MainSettingActivity.onResume()V",
          "target": "invokevirtual \u003c Application, Ljava/lang/reflect/Method, invoke(Ljava/lang/Object;[Ljava/lang/Object;)Ljava/lang/Object; \u003e@54",
          "type": "activity",
          "component": "net.free.soft.setting.MainSettingActivity"
        }
      ]
    },
    "6": {
      "startMethod": "net.free.soft.setting.MainSettingActivity.onResume()V",
      "targetMethod": "java.lang.reflect.Method.invoke(Ljava/lang/Object;[Ljava/lang/Object;)Ljava/lang/Object;",
      "eventChain": [
        {
          "start": "net.free.soft.setting.MainSettingActivity.onResume()V",
          "target": "invokevirtual \u003c Application, Ljava/lang/reflect/Method, invoke(Ljava/lang/Object;[Ljava/lang/Object;)Ljava/lang/Object; \u003e@77",
          "type": "activity",
          "component": "net.free.soft.setting.MainSettingActivity"
        }
      ]
    },
    "7": {
      "startMethod": "anzhuo.theme.kkyyy01.MainActivity.onResume()V",
      "targetMethod": "java.lang.reflect.Method.invoke(Ljava/lang/Object;[Ljava/lang/Object;)Ljava/lang/Object;",
      "eventChain": [
        {
          "start": "net.free.soft.setting.MainSettingActivity.onResume()V",
          "target": "invokeinterface \u003c Application, Landroid/content/SharedPreferences$Editor, putString(Ljava/lang/String;Ljava/lang/String;)Landroid/content/SharedPreferences$Editor; \u003e@77",
          "type": "activity",
          "component": "net.free.soft.setting.MainSettingActivity"
        },
        {
          "start": "net.free.soft.setting.MainSettingActivity.onResume()V",
          "target": "PC@40",
          "type": "activity",
          "component": "net.free.soft.setting.MainSettingActivity"
        },
        {
          "start": "anzhuo.theme.kkyyy01.MainActivity.onResume()V",
          "target": "invokevirtual \u003c Application, Ljava/lang/reflect/Method, invoke(Ljava/lang/Object;[Ljava/lang/Object;)Ljava/lang/Object; \u003e@131",
          "type": "activity",
          "component": "anzhuo.theme.kkyyy01.MainActivity",
          "constraintsFile": "constraints7_0.py",
          "variables": {
            "SharedPreferences\u003csession_id\u003e": "IAAv3"
          },
          "stringMap": {},
          "strings": {
            "IAAv3": ""
          }
        }
      ]
    },
    "8": {
      "startMethod": "anzhuo.theme.kkyyy01.MainActivity.onResume()V",
      "targetMethod": "java.lang.reflect.Method.invoke(Ljava/lang/Object;[Ljava/lang/Object;)Ljava/lang/Object;",
      "eventChain": [
        {
          "start": "net.free.soft.setting.MainSettingActivity.onResume()V",
          "target": "invokeinterface \u003c Application, Landroid/content/SharedPreferences$Editor, putString(Ljava/lang/String;Ljava/lang/String;)Landroid/content/SharedPreferences$Editor; \u003e@77",
          "type": "activity",
          "component": "net.free.soft.setting.MainSettingActivity"
        },
        {
          "start": "net.free.soft.setting.MainSettingActivity.onResume()V",
          "target": "PC@40",
          "type": "activity",
          "component": "net.free.soft.setting.MainSettingActivity"
        },
        {
          "start": "anzhuo.theme.kkyyy01.MainActivity.onResume()V",
          "target": "invokevirtual \u003c Application, Ljava/lang/reflect/Method, invoke(Ljava/lang/Object;[Ljava/lang/Object;)Ljava/lang/Object; \u003e@175",
          "type": "activity",
          "component": "anzhuo.theme.kkyyy01.MainActivity",
          "constraintsFile": "constraints8_0.py",
          "variables": {
            "SharedPreferences\u003csession_id\u003e": "IAAv3"
          },
          "stringMap": {},
          "strings": {
            "IAAv3": ""
          }
        }
      ]
    },
    "9": {
      "startMethod": "anzhuo.theme.kkyyy01.MainActivity.onResume()V",
      "targetMethod": "org.apache.http.client.HttpClient.execute(Lorg/apache/http/client/methods/HttpUriRequest;)Lorg/apache/http/HttpResponse;",
      "eventChain": [
        {
          "start": "net.free.soft.setting.MainSettingActivity.onResume()V",
          "target": "invokeinterface \u003c Application, Landroid/content/SharedPreferences$Editor, putLong(Ljava/lang/String;J)Landroid/content/SharedPreferences$Editor; \u003e@121",
          "type": "activity",
          "component": "net.free.soft.setting.MainSettingActivity"
        },
        {
          "start": "net.free.soft.setting.MainSettingActivity.onResume()V",
          "target": "PC@40",
          "type": "activity",
          "component": "net.free.soft.setting.MainSettingActivity"
        },
        {
          "start": "anzhuo.theme.kkyyy01.MainActivity.onResume()V",
          "target": "invokeinterface \u003c Application, Lorg/apache/http/client/HttpClient, execute(Lorg/apache/http/client/methods/HttpUriRequest;)Lorg/apache/http/HttpResponse; \u003e@292",
          "type": "activity",
          "component": "anzhuo.theme.kkyyy01.MainActivity",
          "constraintsFile": "constraints9_0.py",
          "variables": {
            "SharedPreferences\u003cstart_millis\u003e": "IAAv2"
          },
          "stringMap": {},
          "strings": {
            "IAAv6": ""
          }
        }
      ]
    },
    "10": {
      "startMethod": "net.free.soft.setting.MainSettingActivity.onCreate(Landroid/os/Bundle;)V",
      "targetMethod": "dalvik.system.DexClassLoader.loadClass(Ljava/lang/String;)Ljava/lang/Class;",
      "eventChain": [
        {
          "start": "net.free.soft.setting.MainSettingActivity.onCreate(Landroid/os/Bundle;)V",
          "target": "invokevirtual \u003c Application, Ldalvik/system/DexClassLoader, loadClass(Ljava/lang/String;)Ljava/lang/Class; \u003e@70",
          "type": "activity",
          "component": "net.free.soft.setting.MainSettingActivity"
        }
      ]
    },
    "11": {
      "startMethod": "net.free.soft.setting.MainSettingActivity.onCreate(Landroid/os/Bundle;)V",
      "targetMethod": "java.lang.reflect.Method.invoke(Ljava/lang/Object;[Ljava/lang/Object;)Ljava/lang/Object;",
      "eventChain": [
        {
          "start": "net.free.soft.setting.MainSettingActivity.onCreate(Landroid/os/Bundle;)V",
          "target": "invokevirtual \u003c Application, Ljava/lang/reflect/Method, invoke(Ljava/lang/Object;[Ljava/lang/Object;)Ljava/lang/Object; \u003e@70",
          "type": "activity",
          "component": "net.free.soft.setting.MainSettingActivity"
        }
      ]
    },
    "12": {
      "startMethod": "net.free.soft.setting.MainSettingActivity.onCreate(Landroid/os/Bundle;)V",
      "targetMethod": "java.lang.reflect.Method.invoke(Ljava/lang/Object;[Ljava/lang/Object;)Ljava/lang/Object;",
      "eventChain": [
        {
          "start": "net.free.soft.setting.MainSettingActivity.onCreate(Landroid/os/Bundle;)V",
          "target": "invokevirtual \u003c Application, Ljava/lang/reflect/Method, invoke(Ljava/lang/Object;[Ljava/lang/Object;)Ljava/lang/Object; \u003e@77",
          "type": "activity",
          "component": "net.free.soft.setting.MainSettingActivity"
        }
      ]
    },
    "13": {
      "startMethod": "net.free.soft.setting.MainSettingActivity.onCreate(Landroid/os/Bundle;)V",
      "targetMethod": "java.lang.reflect.Method.invoke(Ljava/lang/Object;[Ljava/lang/Object;)Ljava/lang/Object;",
      "eventChain": [
        {
          "start": "net.free.soft.setting.MainSettingActivity.onCreate(Landroid/os/Bundle;)V",
          "target": "invokevirtual \u003c Application, Ljava/lang/reflect/Method, invoke(Ljava/lang/Object;[Ljava/lang/Object;)Ljava/lang/Object; \u003e@54",
          "type": "activity",
          "component": "net.free.soft.setting.MainSettingActivity"
        }
      ]
    },
    "14": {
      "startMethod": "net.free.soft.setting.PictureScannerActivity.onResume()V",
      "targetMethod": "java.lang.reflect.Method.invoke(Ljava/lang/Object;[Ljava/lang/Object;)Ljava/lang/Object;",
      "eventChain": [
        {
          "start": "net.free.soft.setting.PictureScannerActivity.onResume()V",
          "target": "invokevirtual \u003c Application, Ljava/lang/reflect/Method, invoke(Ljava/lang/Object;[Ljava/lang/Object;)Ljava/lang/Object; \u003e@131",
          "type": "activity",
          "component": "net.free.soft.setting.PictureScannerActivity"
        }
      ]
    },
    "15": {
      "startMethod": "net.free.soft.setting.PictureScannerActivity.onResume()V",
      "targetMethod": "java.lang.reflect.Method.invoke(Ljava/lang/Object;[Ljava/lang/Object;)Ljava/lang/Object;",
      "eventChain": [
        {
          "start": "net.free.soft.setting.PictureScannerActivity.onResume()V",
          "target": "invokevirtual \u003c Application, Ljava/lang/reflect/Method, invoke(Ljava/lang/Object;[Ljava/lang/Object;)Ljava/lang/Object; \u003e@175",
          "type": "activity",
          "component": "net.free.soft.setting.PictureScannerActivity"
        }
      ]
    },
    "16": {
      "startMethod": "net.free.soft.setting.PictureScannerActivity.onResume()V",
      "targetMethod": "org.apache.http.client.HttpClient.execute(Lorg/apache/http/client/methods/HttpUriRequest;)Lorg/apache/http/HttpResponse;",
      "eventChain": [
        {
          "start": "net.free.soft.setting.PictureScannerActivity.onResume()V",
          "target": "invokeinterface \u003c Application, Lorg/apache/http/client/HttpClient, execute(Lorg/apache/http/client/methods/HttpUriRequest;)Lorg/apache/http/HttpResponse; \u003e@292",
          "type": "activity",
          "component": "net.free.soft.setting.PictureScannerActivity"
        }
      ]
    },
    "17": {
      "startMethod": "net.free.soft.setting.MainSettingActivity.onPause()V",
      "targetMethod": "org.apache.http.client.HttpClient.execute(Lorg/apache/http/client/methods/HttpUriRequest;)Lorg/apache/http/HttpResponse;",
      "eventChain": [
        {
          "start": "net.free.soft.setting.MainSettingActivity.onPause()V",
          "target": "invokeinterface \u003c Application, Lorg/apache/http/client/HttpClient, execute(Lorg/apache/http/client/methods/HttpUriRequest;)Lorg/apache/http/HttpResponse; \u003e@292",
          "type": "activity",
          "component": "net.free.soft.setting.MainSettingActivity"
        }
      ]
    },
    "18": {
      "startMethod": "net.free.soft.setting.MainSettingActivity.onPause()V",
      "targetMethod": "java.lang.reflect.Method.invoke(Ljava/lang/Object;[Ljava/lang/Object;)Ljava/lang/Object;",
      "eventChain": [
        {
          "start": "net.free.soft.setting.MainSettingActivity.onPause()V",
          "target": "invokevirtual \u003c Application, Ljava/lang/reflect/Method, invoke(Ljava/lang/Object;[Ljava/lang/Object;)Ljava/lang/Object; \u003e@175",
          "type": "activity",
          "component": "net.free.soft.setting.MainSettingActivity"
        }
      ]
    },
    "19": {
      "startMethod": "net.free.soft.setting.MainSettingActivity.onPause()V",
      "targetMethod": "java.lang.reflect.Method.invoke(Ljava/lang/Object;[Ljava/lang/Object;)Ljava/lang/Object;",
      "eventChain": [
        {
          "start": "net.free.soft.setting.MainSettingActivity.onPause()V",
          "target": "invokevirtual \u003c Application, Ljava/lang/reflect/Method, invoke(Ljava/lang/Object;[Ljava/lang/Object;)Ljava/lang/Object; \u003e@131",
          "type": "activity",
          "component": "net.free.soft.setting.MainSettingActivity"
        }
      ]
    },
    "20": {
      "startMethod": "net.free.soft.setting.SettingPatternActivity.onPause()V",
      "targetMethod": "org.apache.http.client.HttpClient.execute(Lorg/apache/http/client/methods/HttpUriRequest;)Lorg/apache/http/HttpResponse;",
      "eventChain": [
        {
          "start": "net.free.soft.setting.SettingPatternActivity.onPause()V",
          "target": "invokeinterface \u003c Application, Lorg/apache/http/client/HttpClient, execute(Lorg/apache/http/client/methods/HttpUriRequest;)Lorg/apache/http/HttpResponse; \u003e@292",
          "type": "activity",
          "component": "net.free.soft.setting.SettingPatternActivity"
        }
      ]
    },
    "21": {
      "startMethod": "net.free.soft.setting.SettingPatternActivity.onPause()V",
      "targetMethod": "java.lang.reflect.Method.invoke(Ljava/lang/Object;[Ljava/lang/Object;)Ljava/lang/Object;",
      "eventChain": [
        {
          "start": "net.free.soft.setting.SettingPatternActivity.onPause()V",
          "target": "invokevirtual \u003c Application, Ljava/lang/reflect/Method, invoke(Ljava/lang/Object;[Ljava/lang/Object;)Ljava/lang/Object; \u003e@175",
          "type": "activity",
          "component": "net.free.soft.setting.SettingPatternActivity"
        }
      ]
    },
    "22": {
      "startMethod": "net.free.soft.setting.SettingPatternActivity.onPause()V",
      "targetMethod": "java.lang.reflect.Method.invoke(Ljava/lang/Object;[Ljava/lang/Object;)Ljava/lang/Object;",
      "eventChain": [
        {
          "start": "net.free.soft.setting.SettingPatternActivity.onPause()V",
          "target": "invokevirtual \u003c Application, Ljava/lang/reflect/Method, invoke(Ljava/lang/Object;[Ljava/lang/Object;)Ljava/lang/Object; \u003e@131",
          "type": "activity",
          "component": "net.free.soft.setting.SettingPatternActivity"
        }
      ]
    },
    "23": {
      "startMethod": "net.free.soft.setting.MultiTouchActivity.onResume()V",
      "targetMethod": "org.apache.http.client.HttpClient.execute(Lorg/apache/http/client/methods/HttpUriRequest;)Lorg/apache/http/HttpResponse;",
      "eventChain": [
        {
          "start": "net.free.soft.setting.MultiTouchActivity.onResume()V",
          "target": "invokeinterface \u003c Application, Lorg/apache/http/client/HttpClient, execute(Lorg/apache/http/client/methods/HttpUriRequest;)Lorg/apache/http/HttpResponse; \u003e@292",
          "type": "activity",
          "component": "net.free.soft.setting.MultiTouchActivity"
        }
      ]
    },
    "24": {
      "startMethod": "net.free.soft.setting.MultiTouchActivity.onResume()V",
      "targetMethod": "java.lang.reflect.Method.invoke(Ljava/lang/Object;[Ljava/lang/Object;)Ljava/lang/Object;",
      "eventChain": [
        {
          "start": "net.free.soft.setting.MultiTouchActivity.onResume()V",
          "target": "invokevirtual \u003c Application, Ljava/lang/reflect/Method, invoke(Ljava/lang/Object;[Ljava/lang/Object;)Ljava/lang/Object; \u003e@175",
          "type": "activity",
          "component": "net.free.soft.setting.MultiTouchActivity"
        }
      ]
    },
    "25": {
      "startMethod": "net.free.soft.setting.MultiTouchActivity.onResume()V",
      "targetMethod": "java.lang.reflect.Method.invoke(Ljava/lang/Object;[Ljava/lang/Object;)Ljava/lang/Object;",
      "eventChain": [
        {
          "start": "net.free.soft.setting.MultiTouchActivity.onResume()V",
          "target": "invokevirtual \u003c Application, Ljava/lang/reflect/Method, invoke(Ljava/lang/Object;[Ljava/lang/Object;)Ljava/lang/Object; \u003e@131",
          "type": "activity",
          "component": "net.free.soft.setting.MultiTouchActivity"
        }
      ]
    },
    "26": {
      "startMethod": "net.free.soft.setting.PictureScannerActivity.onPause()V",
      "targetMethod": "java.lang.reflect.Method.invoke(Ljava/lang/Object;[Ljava/lang/Object;)Ljava/lang/Object;",
      "eventChain": [
        {
          "start": "net.free.soft.setting.PictureScannerActivity.onPause()V",
          "target": "invokevirtual \u003c Application, Ljava/lang/reflect/Method, invoke(Ljava/lang/Object;[Ljava/lang/Object;)Ljava/lang/Object; \u003e@131",
          "type": "activity",
          "component": "net.free.soft.setting.PictureScannerActivity"
        }
      ]
    },
    "27": {
      "startMethod": "net.free.soft.setting.PictureScannerActivity.onPause()V",
      "targetMethod": "org.apache.http.client.HttpClient.execute(Lorg/apache/http/client/methods/HttpUriRequest;)Lorg/apache/http/HttpResponse;",
      "eventChain": [
        {
          "start": "net.free.soft.setting.PictureScannerActivity.onPause()V",
          "target": "invokeinterface \u003c Application, Lorg/apache/http/client/HttpClient, execute(Lorg/apache/http/client/methods/HttpUriRequest;)Lorg/apache/http/HttpResponse; \u003e@292",
          "type": "activity",
          "component": "net.free.soft.setting.PictureScannerActivity"
        }
      ]
    },
    "28": {
      "startMethod": "net.free.soft.setting.PictureScannerActivity.onPause()V",
      "targetMethod": "java.lang.reflect.Method.invoke(Ljava/lang/Object;[Ljava/lang/Object;)Ljava/lang/Object;",
      "eventChain": [
        {
          "start": "net.free.soft.setting.PictureScannerActivity.onPause()V",
          "target": "invokevirtual \u003c Application, Ljava/lang/reflect/Method, invoke(Ljava/lang/Object;[Ljava/lang/Object;)Ljava/lang/Object; \u003e@175",
          "type": "activity",
          "component": "net.free.soft.setting.PictureScannerActivity"
        }
      ]
    },
    "29": {
      "startMethod": "net.free.soft.setting.SettingPatternActivity.onResume()V",
      "targetMethod": "org.apache.http.client.HttpClient.execute(Lorg/apache/http/client/methods/HttpUriRequest;)Lorg/apache/http/HttpResponse;",
      "eventChain": [
        {
          "start": "net.free.soft.setting.SettingPatternActivity.onResume()V",
          "target": "invokeinterface \u003c Application, Lorg/apache/http/client/HttpClient, execute(Lorg/apache/http/client/methods/HttpUriRequest;)Lorg/apache/http/HttpResponse; \u003e@292",
          "type": "activity",
          "component": "net.free.soft.setting.SettingPatternActivity"
        }
      ]
    },
    "30": {
      "startMethod": "net.free.soft.setting.SettingPatternActivity.onResume()V",
      "targetMethod": "java.lang.reflect.Method.invoke(Ljava/lang/Object;[Ljava/lang/Object;)Ljava/lang/Object;",
      "eventChain": [
        {
          "start": "net.free.soft.setting.SettingPatternActivity.onResume()V",
          "target": "invokevirtual \u003c Application, Ljava/lang/reflect/Method, invoke(Ljava/lang/Object;[Ljava/lang/Object;)Ljava/lang/Object; \u003e@131",
          "type": "activity",
          "component": "net.free.soft.setting.SettingPatternActivity"
        }
      ]
    },
    "31": {
      "startMethod": "net.free.soft.setting.SettingPatternActivity.onResume()V",
      "targetMethod": "java.lang.reflect.Method.invoke(Ljava/lang/Object;[Ljava/lang/Object;)Ljava/lang/Object;",
      "eventChain": [
        {
          "start": "net.free.soft.setting.SettingPatternActivity.onResume()V",
          "target": "invokevirtual \u003c Application, Ljava/lang/reflect/Method, invoke(Ljava/lang/Object;[Ljava/lang/Object;)Ljava/lang/Object; \u003e@175",
          "type": "activity",
          "component": "net.free.soft.setting.SettingPatternActivity"
        }
      ]
    },
    "32": {
      "startMethod": "net.free.soft.setting.MultiTouchActivity.onPause()V",
      "targetMethod": "org.apache.http.client.HttpClient.execute(Lorg/apache/http/client/methods/HttpUriRequest;)Lorg/apache/http/HttpResponse;",
      "eventChain": [
        {
          "start": "net.free.soft.setting.MultiTouchActivity.onPause()V",
          "target": "invokeinterface \u003c Application, Lorg/apache/http/client/HttpClient, execute(Lorg/apache/http/client/methods/HttpUriRequest;)Lorg/apache/http/HttpResponse; \u003e@292",
          "type": "activity",
          "component": "net.free.soft.setting.MultiTouchActivity"
        }
      ]
    },
    "33": {
      "startMethod": "net.free.soft.setting.MultiTouchActivity.onPause()V",
      "targetMethod": "java.lang.reflect.Method.invoke(Ljava/lang/Object;[Ljava/lang/Object;)Ljava/lang/Object;",
      "eventChain": [
        {
          "start": "net.free.soft.setting.MultiTouchActivity.onPause()V",
          "target": "invokevirtual \u003c Application, Ljava/lang/reflect/Method, invoke(Ljava/lang/Object;[Ljava/lang/Object;)Ljava/lang/Object; \u003e@175",
          "type": "activity",
          "component": "net.free.soft.setting.MultiTouchActivity"
        }
      ]
    },
    "34": {
      "startMethod": "net.free.soft.setting.MultiTouchActivity.onPause()V",
      "targetMethod": "java.lang.reflect.Method.invoke(Ljava/lang/Object;[Ljava/lang/Object;)Ljava/lang/Object;",
      "eventChain": [
        {
          "start": "net.free.soft.setting.MultiTouchActivity.onPause()V",
          "target": "invokevirtual \u003c Application, Ljava/lang/reflect/Method, invoke(Ljava/lang/Object;[Ljava/lang/Object;)Ljava/lang/Object; \u003e@131",
          "type": "activity",
          "component": "net.free.soft.setting.MultiTouchActivity"
        }
      ]
    },
    "35": {
      "startMethod": "anzhuo.theme.kkyyy01.MainActivity.onPause()V",
      "targetMethod": "java.lang.reflect.Method.invoke(Ljava/lang/Object;[Ljava/lang/Object;)Ljava/lang/Object;",
      "eventChain": [
        {
          "start": "net.free.soft.setting.MainSettingActivity.onResume()V",
          "target": "invokeinterface \u003c Application, Landroid/content/SharedPreferences$Editor, putString(Ljava/lang/String;Ljava/lang/String;)Landroid/content/SharedPreferences$Editor; \u003e@77",
          "type": "activity",
          "component": "net.free.soft.setting.MainSettingActivity"
        },
        {
          "start": "net.free.soft.setting.MainSettingActivity.onResume()V",
          "target": "PC@40",
          "type": "activity",
          "component": "net.free.soft.setting.MainSettingActivity"
        },
        {
          "start": "anzhuo.theme.kkyyy01.MainActivity.onPause()V",
          "target": "invokevirtual \u003c Application, Ljava/lang/reflect/Method, invoke(Ljava/lang/Object;[Ljava/lang/Object;)Ljava/lang/Object; \u003e@175",
          "type": "activity",
          "component": "anzhuo.theme.kkyyy01.MainActivity",
          "constraintsFile": "constraints35_0.py",
          "variables": {
            "SharedPreferences\u003csession_id\u003e": "IAAv3"
          },
          "stringMap": {},
          "strings": {
            "IAAv3": ""
          }
        }
      ]
    },
    "36": {
      "startMethod": "anzhuo.theme.kkyyy01.MainActivity.onPause()V",
      "targetMethod": "java.lang.reflect.Method.invoke(Ljava/lang/Object;[Ljava/lang/Object;)Ljava/lang/Object;",
      "eventChain": [
        {
          "start": "net.free.soft.setting.MainSettingActivity.onResume()V",
          "target": "invokeinterface \u003c Application, Landroid/content/SharedPreferences$Editor, putString(Ljava/lang/String;Ljava/lang/String;)Landroid/content/SharedPreferences$Editor; \u003e@77",
          "type": "activity",
          "component": "net.free.soft.setting.MainSettingActivity"
        },
        {
          "start": "net.free.soft.setting.MainSettingActivity.onResume()V",
          "target": "PC@40",
          "type": "activity",
          "component": "net.free.soft.setting.MainSettingActivity"
        },
        {
          "start": "anzhuo.theme.kkyyy01.MainActivity.onPause()V",
          "target": "invokevirtual \u003c Application, Ljava/lang/reflect/Method, invoke(Ljava/lang/Object;[Ljava/lang/Object;)Ljava/lang/Object; \u003e@131",
          "type": "activity",
          "component": "anzhuo.theme.kkyyy01.MainActivity",
          "constraintsFile": "constraints36_0.py",
          "variables": {
            "SharedPreferences\u003csession_id\u003e": "IAAv3"
          },
          "stringMap": {},
          "strings": {
            "IAAv3": ""
          }
        }
      ]
    },
    "37": {
      "startMethod": "anzhuo.theme.kkyyy01.MainActivity.onPause()V",
      "targetMethod": "org.apache.http.client.HttpClient.execute(Lorg/apache/http/client/methods/HttpUriRequest;)Lorg/apache/http/HttpResponse;",
      "eventChain": [
        {
          "start": "net.free.soft.setting.MainSettingActivity.onResume()V",
          "target": "invokeinterface \u003c Application, Landroid/content/SharedPreferences$Editor, putLong(Ljava/lang/String;J)Landroid/content/SharedPreferences$Editor; \u003e@121",
          "type": "activity",
          "component": "net.free.soft.setting.MainSettingActivity"
        },
        {
          "start": "net.free.soft.setting.MainSettingActivity.onResume()V",
          "target": "PC@40",
          "type": "activity",
          "component": "net.free.soft.setting.MainSettingActivity"
        },
        {
          "start": "anzhuo.theme.kkyyy01.MainActivity.onPause()V",
          "target": "invokeinterface \u003c Application, Lorg/apache/http/client/HttpClient, execute(Lorg/apache/http/client/methods/HttpUriRequest;)Lorg/apache/http/HttpResponse; \u003e@292",
          "type": "activity",
          "component": "anzhuo.theme.kkyyy01.MainActivity",
          "constraintsFile": "constraints37_0.py",
          "variables": {
            "SharedPreferences\u003cstart_millis\u003e": "IAAv2"
          },
          "stringMap": {},
          "strings": {
            "IAAv6": ""
          }
        }
      ]
    },
    "38": {
      "startMethod": "net.mscr.wll.all.AWActivity.onKeyDown(ILandroid/view/KeyEvent;)Z",
      "targetMethod": "java.lang.reflect.Method.invoke(Ljava/lang/Object;[Ljava/lang/Object;)Ljava/lang/Object;",
      "eventChain": [
        {
          "start": "net.mscr.wll.all.AWActivity.onKeyDown(ILandroid/view/KeyEvent;)Z",
          "target": "invokevirtual \u003c Application, Ljava/lang/reflect/Method, invoke(Ljava/lang/Object;[Ljava/lang/Object;)Ljava/lang/Object; \u003e@70",
          "type": "ui",
          "activities": [
            "net.free.soft.setting.MainSettingActivity"
          ],
          "listener": "net.mscr.wll.all.AWActivity",
          "listenerMethod": "onKeyDown",
          "uiType": "onKeyDown",
          "constraintsFile": "constraints38_0.py",
          "variables": {},
          "stringMap": {},
          "strings": {}
        }
      ]
    },
    "39": {
      "startMethod": "net.free.soft.setting.MainSettingActivity.onClick(Landroid/view/View;)V",
      "targetMethod": "dalvik.system.DexClassLoader.loadClass(Ljava/lang/String;)Ljava/lang/Class;",
      "eventChain": [
        {
          "start": "net.free.soft.setting.MainSettingActivity.onCreate(Landroid/os/Bundle;)V",
          "target": "invokevirtual \u003c Application, Landroid/widget/LinearLayout, setOnClickListener(Landroid/view/View$OnClickListener;)V \u003e@297",
          "type": "activity",
          "component": "net.free.soft.setting.MainSettingActivity"
        },
        {
          "start": "net.free.soft.setting.MainSettingActivity.onClick(Landroid/view/View;)V",
          "target": "invokevirtual \u003c Application, Ldalvik/system/DexClassLoader, loadClass(Ljava/lang/String;)Ljava/lang/Class; \u003e@70",
          "type": "ui",
          "activities": [
            "net.free.soft.setting.MainSettingActivity"
          ],
          "listener": "net.free.soft.setting.MainSettingActivity",
          "listenerMethod": "onClick",
          "uiType": "onClick",
          "constraintsFile": "constraints39_0.py",
          "variables": {
            "\u003cInput1\u003e.getId()": "IAAv0"
          },
          "stringMap": {},
          "strings": {}
        }
      ]
    },
    "40": {
      "startMethod": "net.free.soft.setting.MainSettingActivity.onClick(Landroid/view/View;)V",
      "targetMethod": "java.lang.reflect.Method.invoke(Ljava/lang/Object;[Ljava/lang/Object;)Ljava/lang/Object;",
      "eventChain": [
        {
          "start": "net.free.soft.setting.MainSettingActivity.onCreate(Landroid/os/Bundle;)V",
          "target": "invokevirtual \u003c Application, Landroid/widget/LinearLayout, setOnClickListener(Landroid/view/View$OnClickListener;)V \u003e@297",
          "type": "activity",
          "component": "net.free.soft.setting.MainSettingActivity"
        },
        {
          "start": "net.free.soft.setting.MainSettingActivity.onClick(Landroid/view/View;)V",
          "target": "invokevirtual \u003c Application, Ljava/lang/reflect/Method, invoke(Ljava/lang/Object;[Ljava/lang/Object;)Ljava/lang/Object; \u003e@54",
          "type": "ui",
          "activities": [
            "net.free.soft.setting.MainSettingActivity"
          ],
          "listener": "net.free.soft.setting.MainSettingActivity",
          "listenerMethod": "onClick",
          "uiType": "onClick",
          "constraintsFile": "constraints40_0.py",
          "variables": {
            "\u003cInput1\u003e.getId()": "IAAv0"
          },
          "stringMap": {},
          "strings": {}
        }
      ]
    },
    "41": {
      "startMethod": "net.free.soft.setting.MainSettingActivity.onClick(Landroid/view/View;)V",
      "targetMethod": "java.lang.reflect.Method.invoke(Ljava/lang/Object;[Ljava/lang/Object;)Ljava/lang/Object;",
      "eventChain": [
        {
          "start": "net.free.soft.setting.MainSettingActivity.onCreate(Landroid/os/Bundle;)V",
          "target": "invokevirtual \u003c Application, Landroid/widget/LinearLayout, setOnClickListener(Landroid/view/View$OnClickListener;)V \u003e@297",
          "type": "activity",
          "component": "net.free.soft.setting.MainSettingActivity"
        },
        {
          "start": "net.free.soft.setting.MainSettingActivity.onClick(Landroid/view/View;)V",
          "target": "invokevirtual \u003c Application, Ljava/lang/reflect/Method, invoke(Ljava/lang/Object;[Ljava/lang/Object;)Ljava/lang/Object; \u003e@70",
          "type": "ui",
          "activities": [
            "net.free.soft.setting.MainSettingActivity"
          ],
          "listener": "net.free.soft.setting.MainSettingActivity",
          "listenerMethod": "onClick",
          "uiType": "onClick",
          "constraintsFile": "constraints41_0.py",
          "variables": {
            "\u003cInput1\u003e.getId()": "IAAv0"
          },
          "stringMap": {},
          "strings": {}
        }
      ]
    },
    "42": {
      "startMethod": "net.free.soft.setting.MainSettingActivity$6.onClick(Landroid/content/DialogInterface;I)V",
      "targetMethod": "dalvik.system.DexClassLoader.loadClass(Ljava/lang/String;)Ljava/lang/Class;",
      "eventChain": [
        {
          "start": "net.free.soft.setting.MainSettingActivity$6.onClick(Landroid/content/DialogInterface;I)V",
          "target": "invokevirtual \u003c Application, Ldalvik/system/DexClassLoader, loadClass(Ljava/lang/String;)Ljava/lang/Class; \u003e@70",
          "type": "ui",
          "activities": [
            "net.free.soft.setting.MainSettingActivity"
          ],
          "listener": "net.free.soft.setting.MainSettingActivity$6",
          "listenerMethod": "onClick",
          "uiType": "onClick",
          "inDialog": "true"
        }
      ]
    },
    "43": {
      "startMethod": "net.free.soft.setting.MainSettingActivity$6.onClick(Landroid/content/DialogInterface;I)V",
      "targetMethod": "java.lang.reflect.Method.invoke(Ljava/lang/Object;[Ljava/lang/Object;)Ljava/lang/Object;",
      "eventChain": [
        {
          "start": "net.free.soft.setting.MainSettingActivity$6.onClick(Landroid/content/DialogInterface;I)V",
          "target": "invokevirtual \u003c Application, Ljava/lang/reflect/Method, invoke(Ljava/lang/Object;[Ljava/lang/Object;)Ljava/lang/Object; \u003e@77",
          "type": "ui",
          "activities": [
            "net.free.soft.setting.MainSettingActivity"
          ],
          "listener": "net.free.soft.setting.MainSettingActivity$6",
          "listenerMethod": "onClick",
          "uiType": "onClick",
          "inDialog": "true"
        }
      ]
    },
    "44": {
      "startMethod": "net.free.soft.setting.MainSettingActivity$6.onClick(Landroid/content/DialogInterface;I)V",
      "targetMethod": "java.lang.reflect.Method.invoke(Ljava/lang/Object;[Ljava/lang/Object;)Ljava/lang/Object;",
      "eventChain": [
        {
          "start": "net.free.soft.setting.MainSettingActivity$6.onClick(Landroid/content/DialogInterface;I)V",
          "target": "invokevirtual \u003c Application, Ljava/lang/reflect/Method, invoke(Ljava/lang/Object;[Ljava/lang/Object;)Ljava/lang/Object; \u003e@54",
          "type": "ui",
          "activities": [
            "net.free.soft.setting.MainSettingActivity"
          ],
          "listener": "net.free.soft.setting.MainSettingActivity$6",
          "listenerMethod": "onClick",
          "uiType": "onClick",
          "inDialog": "true"
        }
      ]
    },
    "45": {
      "startMethod": "net.free.soft.setting.MainSettingActivity$6.onClick(Landroid/content/DialogInterface;I)V",
      "targetMethod": "java.lang.reflect.Method.invoke(Ljava/lang/Object;[Ljava/lang/Object;)Ljava/lang/Object;",
      "eventChain": [
        {
          "start": "net.free.soft.setting.MainSettingActivity$6.onClick(Landroid/content/DialogInterface;I)V",
          "target": "invokevirtual \u003c Application, Ljava/lang/reflect/Method, invoke(Ljava/lang/Object;[Ljava/lang/Object;)Ljava/lang/Object; \u003e@70",
          "type": "ui",
          "activities": [
            "net.free.soft.setting.MainSettingActivity"
          ],
          "listener": "net.free.soft.setting.MainSettingActivity$6",
          "listenerMethod": "onClick",
          "uiType": "onClick",
          "inDialog": "true"
        }
      ]
    },
    "46": {
      "startMethod": "net.free.soft.setting.MainSettingActivity$4.onClick(Landroid/content/DialogInterface;I)V",
      "targetMethod": "java.lang.reflect.Method.invoke(Ljava/lang/Object;[Ljava/lang/Object;)Ljava/lang/Object;",
      "eventChain": [
        {
          "start": "net.free.soft.setting.MainSettingActivity.onClick(Landroid/view/View;)V",
          "target": "invokevirtual \u003c Application, Landroid/app/AlertDialog$Builder, setNegativeButton(Ljava/lang/CharSequence;Landroid/content/DialogInterface$OnClickListener;)Landroid/app/AlertDialog$Builder; \u003e@143",
          "type": "ui",
          "activities": [
            "net.free.soft.setting.MainSettingActivity"
          ],
          "listener": "net.free.soft.setting.MainSettingActivity",
          "listenerMethod": "onClick",
          "uiType": "onClick",
          "constraintsFile": "constraints46_0.py",
          "variables": {
            "\u003cChainedInput1\u003e.getId()": "IAAv0"
          },
          "stringMap": {},
          "strings": {}
        },
        {
          "start": "net.free.soft.setting.MainSettingActivity$4.onClick(Landroid/content/DialogInterface;I)V",
          "target": "invokevirtual \u003c Application, Ljava/lang/reflect/Method, invoke(Ljava/lang/Object;[Ljava/lang/Object;)Ljava/lang/Object; \u003e@70",
          "type": "ui",
          "activities": [
            "net.free.soft.setting.MainSettingActivity"
          ],
          "listener": "net.free.soft.setting.MainSettingActivity$4",
          "listenerMethod": "onClick",
          "uiType": "onClick",
          "inDialog": "true"
        }
      ]
    },
    "47": {
      "startMethod": "net.free.soft.setting.MainSettingActivity$4.onClick(Landroid/content/DialogInterface;I)V",
      "targetMethod": "java.lang.reflect.Method.invoke(Ljava/lang/Object;[Ljava/lang/Object;)Ljava/lang/Object;",
      "eventChain": [
        {
          "start": "net.free.soft.setting.MainSettingActivity.onClick(Landroid/view/View;)V",
          "target": "invokevirtual \u003c Application, Landroid/app/AlertDialog$Builder, setNegativeButton(Ljava/lang/CharSequence;Landroid/content/DialogInterface$OnClickListener;)Landroid/app/AlertDialog$Builder; \u003e@143",
          "type": "ui",
          "activities": [
            "net.free.soft.setting.MainSettingActivity"
          ],
          "listener": "net.free.soft.setting.MainSettingActivity",
          "listenerMethod": "onClick",
          "uiType": "onClick",
          "constraintsFile": "constraints47_0.py",
          "variables": {
            "\u003cChainedInput1\u003e.getId()": "IAAv0"
          },
          "stringMap": {},
          "strings": {}
        },
        {
          "start": "net.free.soft.setting.MainSettingActivity$4.onClick(Landroid/content/DialogInterface;I)V",
          "target": "invokevirtual \u003c Application, Ljava/lang/reflect/Method, invoke(Ljava/lang/Object;[Ljava/lang/Object;)Ljava/lang/Object; \u003e@77",
          "type": "ui",
          "activities": [
            "net.free.soft.setting.MainSettingActivity"
          ],
          "listener": "net.free.soft.setting.MainSettingActivity$4",
          "listenerMethod": "onClick",
          "uiType": "onClick",
          "inDialog": "true"
        }
      ]
    },
    "48": {
      "startMethod": "net.free.soft.setting.MainSettingActivity$4.onClick(Landroid/content/DialogInterface;I)V",
      "targetMethod": "java.lang.reflect.Method.invoke(Ljava/lang/Object;[Ljava/lang/Object;)Ljava/lang/Object;",
      "eventChain": [
        {
          "start": "net.free.soft.setting.MainSettingActivity.onClick(Landroid/view/View;)V",
          "target": "invokevirtual \u003c Application, Landroid/app/AlertDialog$Builder, setNegativeButton(Ljava/lang/CharSequence;Landroid/content/DialogInterface$OnClickListener;)Landroid/app/AlertDialog$Builder; \u003e@143",
          "type": "ui",
          "activities": [
            "net.free.soft.setting.MainSettingActivity"
          ],
          "listener": "net.free.soft.setting.MainSettingActivity",
          "listenerMethod": "onClick",
          "uiType": "onClick",
          "constraintsFile": "constraints48_0.py",
          "variables": {
            "\u003cChainedInput1\u003e.getId()": "IAAv0"
          },
          "stringMap": {},
          "strings": {}
        },
        {
          "start": "net.free.soft.setting.MainSettingActivity$4.onClick(Landroid/content/DialogInterface;I)V",
          "target": "invokevirtual \u003c Application, Ljava/lang/reflect/Method, invoke(Ljava/lang/Object;[Ljava/lang/Object;)Ljava/lang/Object; \u003e@54",
          "type": "ui",
          "activities": [
            "net.free.soft.setting.MainSettingActivity"
          ],
          "listener": "net.free.soft.setting.MainSettingActivity$4",
          "listenerMethod": "onClick",
          "uiType": "onClick",
          "inDialog": "true"
        }
      ]
    },
    "49": {
      "startMethod": "net.free.soft.setting.MainSettingActivity$4.onClick(Landroid/content/DialogInterface;I)V",
      "targetMethod": "dalvik.system.DexClassLoader.loadClass(Ljava/lang/String;)Ljava/lang/Class;",
      "eventChain": [
        {
          "start": "net.free.soft.setting.MainSettingActivity.onClick(Landroid/view/View;)V",
          "target": "invokevirtual \u003c Application, Landroid/app/AlertDialog$Builder, setNegativeButton(Ljava/lang/CharSequence;Landroid/content/DialogInterface$OnClickListener;)Landroid/app/AlertDialog$Builder; \u003e@143",
          "type": "ui",
          "activities": [
            "net.free.soft.setting.MainSettingActivity"
          ],
          "listener": "net.free.soft.setting.MainSettingActivity",
          "listenerMethod": "onClick",
          "uiType": "onClick",
          "constraintsFile": "constraints49_0.py",
          "variables": {
            "\u003cChainedInput1\u003e.getId()": "IAAv0"
          },
          "stringMap": {},
          "strings": {}
        },
        {
          "start": "net.free.soft.setting.MainSettingActivity$4.onClick(Landroid/content/DialogInterface;I)V",
          "target": "invokevirtual \u003c Application, Ldalvik/system/DexClassLoader, loadClass(Ljava/lang/String;)Ljava/lang/Class; \u003e@70",
          "type": "ui",
          "activities": [
            "net.free.soft.setting.MainSettingActivity"
          ],
          "listener": "net.free.soft.setting.MainSettingActivity$4",
          "listenerMethod": "onClick",
          "uiType": "onClick",
          "inDialog": "true"
        }
      ]
    },
    "50": {
      "startMethod": "net.free.soft.setting.MainSettingActivity$2.onClick(Landroid/content/DialogInterface;I)V",
      "targetMethod": "java.lang.reflect.Method.invoke(Ljava/lang/Object;[Ljava/lang/Object;)Ljava/lang/Object;",
      "eventChain": [
        {
          "start": "net.free.soft.setting.MainSettingActivity.onClick(Landroid/view/View;)V",
          "target": "invokevirtual \u003c Application, Landroid/app/AlertDialog$Builder, setNegativeButton(Ljava/lang/CharSequence;Landroid/content/DialogInterface$OnClickListener;)Landroid/app/AlertDialog$Builder; \u003e@856",
          "type": "ui",
          "activities": [
            "net.free.soft.setting.MainSettingActivity"
          ],
          "listener": "net.free.soft.setting.MainSettingActivity",
          "listenerMethod": "onClick",
          "uiType": "onClick",
          "constraintsFile": "constraints50_0.py",
          "variables": {
            "\u003cChainedInput1\u003e.getId()": "IAAv0"
          },
          "stringMap": {},
          "strings": {}
        },
        {
          "start": "net.free.soft.setting.MainSettingActivity$2.onClick(Landroid/content/DialogInterface;I)V",
          "target": "invokevirtual \u003c Application, Ljava/lang/reflect/Method, invoke(Ljava/lang/Object;[Ljava/lang/Object;)Ljava/lang/Object; \u003e@70",
          "type": "ui",
          "activities": [
            "net.free.soft.setting.MainSettingActivity"
          ],
          "listener": "net.free.soft.setting.MainSettingActivity$2",
          "listenerMethod": "onClick",
          "uiType": "onClick",
          "inDialog": "true"
        }
      ]
    },
    "51": {
      "startMethod": "net.free.soft.setting.MainSettingActivity$2.onClick(Landroid/content/DialogInterface;I)V",
      "targetMethod": "java.lang.reflect.Method.invoke(Ljava/lang/Object;[Ljava/lang/Object;)Ljava/lang/Object;",
      "eventChain": [
        {
          "start": "net.free.soft.setting.MainSettingActivity.onClick(Landroid/view/View;)V",
          "target": "invokevirtual \u003c Application, Landroid/app/AlertDialog$Builder, setNegativeButton(Ljava/lang/CharSequence;Landroid/content/DialogInterface$OnClickListener;)Landroid/app/AlertDialog$Builder; \u003e@856",
          "type": "ui",
          "activities": [
            "net.free.soft.setting.MainSettingActivity"
          ],
          "listener": "net.free.soft.setting.MainSettingActivity",
          "listenerMethod": "onClick",
          "uiType": "onClick",
          "constraintsFile": "constraints51_0.py",
          "variables": {
            "\u003cChainedInput1\u003e.getId()": "IAAv0"
          },
          "stringMap": {},
          "strings": {}
        },
        {
          "start": "net.free.soft.setting.MainSettingActivity$2.onClick(Landroid/content/DialogInterface;I)V",
          "target": "invokevirtual \u003c Application, Ljava/lang/reflect/Method, invoke(Ljava/lang/Object;[Ljava/lang/Object;)Ljava/lang/Object; \u003e@54",
          "type": "ui",
          "activities": [
            "net.free.soft.setting.MainSettingActivity"
          ],
          "listener": "net.free.soft.setting.MainSettingActivity$2",
          "listenerMethod": "onClick",
          "uiType": "onClick",
          "inDialog": "true"
        }
      ]
    },
    "52": {
      "startMethod": "net.free.soft.setting.MainSettingActivity$2.onClick(Landroid/content/DialogInterface;I)V",
      "targetMethod": "dalvik.system.DexClassLoader.loadClass(Ljava/lang/String;)Ljava/lang/Class;",
      "eventChain": [
        {
          "start": "net.free.soft.setting.MainSettingActivity.onClick(Landroid/view/View;)V",
          "target": "invokevirtual \u003c Application, Landroid/app/AlertDialog$Builder, setNegativeButton(Ljava/lang/CharSequence;Landroid/content/DialogInterface$OnClickListener;)Landroid/app/AlertDialog$Builder; \u003e@856",
          "type": "ui",
          "activities": [
            "net.free.soft.setting.MainSettingActivity"
          ],
          "listener": "net.free.soft.setting.MainSettingActivity",
          "listenerMethod": "onClick",
          "uiType": "onClick",
          "constraintsFile": "constraints52_0.py",
          "variables": {
            "\u003cChainedInput1\u003e.getId()": "IAAv0"
          },
          "stringMap": {},
          "strings": {}
        },
        {
          "start": "net.free.soft.setting.MainSettingActivity$2.onClick(Landroid/content/DialogInterface;I)V",
          "target": "invokevirtual \u003c Application, Ldalvik/system/DexClassLoader, loadClass(Ljava/lang/String;)Ljava/lang/Class; \u003e@70",
          "type": "ui",
          "activities": [
            "net.free.soft.setting.MainSettingActivity"
          ],
          "listener": "net.free.soft.setting.MainSettingActivity$2",
          "listenerMethod": "onClick",
          "uiType": "onClick",
          "inDialog": "true"
        }
      ]
    },
    "53": {
      "startMethod": "net.free.soft.setting.MainSettingActivity$2.onClick(Landroid/content/DialogInterface;I)V",
      "targetMethod": "java.lang.reflect.Method.invoke(Ljava/lang/Object;[Ljava/lang/Object;)Ljava/lang/Object;",
      "eventChain": [
        {
          "start": "net.free.soft.setting.MainSettingActivity.onClick(Landroid/view/View;)V",
          "target": "invokevirtual \u003c Application, Landroid/app/AlertDialog$Builder, setNegativeButton(Ljava/lang/CharSequence;Landroid/content/DialogInterface$OnClickListener;)Landroid/app/AlertDialog$Builder; \u003e@856",
          "type": "ui",
          "activities": [
            "net.free.soft.setting.MainSettingActivity"
          ],
          "listener": "net.free.soft.setting.MainSettingActivity",
          "listenerMethod": "onClick",
          "uiType": "onClick",
          "constraintsFile": "constraints53_0.py",
          "variables": {
            "\u003cChainedInput1\u003e.getId()": "IAAv0"
          },
          "stringMap": {},
          "strings": {}
        },
        {
          "start": "net.free.soft.setting.MainSettingActivity$2.onClick(Landroid/content/DialogInterface;I)V",
          "target": "invokevirtual \u003c Application, Ljava/lang/reflect/Method, invoke(Ljava/lang/Object;[Ljava/lang/Object;)Ljava/lang/Object; \u003e@77",
          "type": "ui",
          "activities": [
            "net.free.soft.setting.MainSettingActivity"
          ],
          "listener": "net.free.soft.setting.MainSettingActivity$2",
          "listenerMethod": "onClick",
          "uiType": "onClick",
          "inDialog": "true"
        }
      ]
    }
  }
}