{
  "packageName": "com.shenqijisuanqi.calculator",
  "mainActivity": "com.shenqijisuanqi.calculator.Calculator",
  "callPaths": {
    "0": {
      "startMethod": "com.cdfg.ad.poster.ReceiverAlarm.onReceive(Landroid/content/Context;Landroid/content/Intent;)V",
      "targetMethod": "java.net.URL.openConnection()Ljava/net/URLConnection;",
      "eventChain": [
        {
          "start": "com.cdfg.ad.poster.ReceiverAlarm.onReceive(Landroid/content/Context;Landroid/content/Intent;)V",
          "target": "invokevirtual \u003c Application, Ljava/net/URL, openConnection()Ljava/net/URLConnection; \u003e@151",
          "type": "sms"
        }
      ]
    },
    "1": {
      "startMethod": "com.cdfg.ad.poster.ReceiverAlarm.onReceive(Landroid/content/Context;Landroid/content/Intent;)V",
      "targetMethod": "org.apache.http.impl.client.DefaultHttpClient.execute(Lorg/apache/http/client/methods/HttpUriRequest;)Lorg/apache/http/HttpResponse;",
      "eventChain": [
        {
          "start": "com.cdfg.ad.poster.ReceiverAlarm.onReceive(Landroid/content/Context;Landroid/content/Intent;)V",
          "target": "invokevirtual \u003c Application, Lorg/apache/http/impl/client/DefaultHttpClient, execute(Lorg/apache/http/client/methods/HttpUriRequest;)Lorg/apache/http/HttpResponse; \u003e@59",
          "type": "sms"
        }
      ]
    },
    "2": {
      "startMethod": "com.cdfg.ad.poster.PosterInfoActivity.onCreate(Landroid/os/Bundle;)V",
      "targetMethod": "java.net.URL.openConnection()Ljava/net/URLConnection;",
      "eventChain": [
        {
          "start": "com.cdfg.ad.poster.PosterInfoActivity.onCreate(Landroid/os/Bundle;)V",
          "target": "invokevirtual \u003c Application, Ljava/net/URL, openConnection()Ljava/net/URLConnection; \u003e@76",
          "type": "activity",
          "component": "com.cdfg.ad.poster.PosterInfoActivity",
          "constraintsFile": "constraints2_0.py",
          "variables": {},
          "stringMap": {},
          "strings": {}
        }
      ]
    },
    "3": {
      "startMethod": "com.cdfg.ad.poster.PosterInfoActivity.onCreate(Landroid/os/Bundle;)V",
      "targetMethod": "java.net.URL.openConnection()Ljava/net/URLConnection;",
      "eventChain": [
        {
          "start": "com.cdfg.ad.poster.PosterInfoActivity.onCreate(Landroid/os/Bundle;)V",
          "target": "invokevirtual \u003c Application, Ljava/net/URL, openConnection()Ljava/net/URLConnection; \u003e@151",
          "type": "activity",
          "component": "com.cdfg.ad.poster.PosterInfoActivity",
          "constraintsFile": "constraints3_0.py",
          "variables": {},
          "stringMap": {},
          "strings": {}
        }
      ]
    },
    "4": {
      "startMethod": "com.cdfg.ad.poster.PosterInfoActivity.onCreate(Landroid/os/Bundle;)V",
      "targetMethod": "org.apache.http.impl.client.DefaultHttpClient.execute(Lorg/apache/http/client/methods/HttpUriRequest;)Lorg/apache/http/HttpResponse;",
      "eventChain": [
        {
          "start": "com.cdfg.ad.poster.PosterInfoActivity.onCreate(Landroid/os/Bundle;)V",
          "target": "invokevirtual \u003c Application, Lorg/apache/http/impl/client/DefaultHttpClient, execute(Lorg/apache/http/client/methods/HttpUriRequest;)Lorg/apache/http/HttpResponse; \u003e@59",
          "type": "activity",
          "component": "com.cdfg.ad.poster.PosterInfoActivity",
          "constraintsFile": "constraints4_0.py",
          "variables": {},
          "stringMap": {},
          "strings": {}
        }
      ]
    },
    "5": {
      "startMethod": "com.shenqijisuanqi.calculator.Calculator.onCreate(Landroid/os/Bundle;)V",
      "targetMethod": "org.apache.http.impl.client.DefaultHttpClient.execute(Lorg/apache/http/client/methods/HttpUriRequest;)Lorg/apache/http/HttpResponse;",
      "eventChain": [
        {
          "start": "com.shenqijisuanqi.calculator.Calculator.onCreate(Landroid/os/Bundle;)V",
          "target": "invokevirtual \u003c Application, Lorg/apache/http/impl/client/DefaultHttpClient, execute(Lorg/apache/http/client/methods/HttpUriRequest;)Lorg/apache/http/HttpResponse; \u003e@59",
          "type": "activity",
          "component": "com.shenqijisuanqi.calculator.Calculator"
        }
      ]
    },
    "6": {
      "startMethod": "com.shenqijisuanqi.calculator.Calculator.onCreate(Landroid/os/Bundle;)V",
      "targetMethod": "java.net.URL.openConnection()Ljava/net/URLConnection;",
      "eventChain": [
        {
          "start": "com.shenqijisuanqi.calculator.Calculator.onCreate(Landroid/os/Bundle;)V",
          "target": "invokevirtual \u003c Application, Ljava/net/URL, openConnection()Ljava/net/URLConnection; \u003e@151",
          "type": "activity",
          "component": "com.shenqijisuanqi.calculator.Calculator"
        }
      ]
    },
    "7": {
      "startMethod": "com.cdfg.ad.testact.a.onClick(Landroid/view/View;)V",
      "targetMethod": "java.net.URL.openConnection()Ljava/net/URLConnection;",
      "eventChain": [
        {
          "start": "com.cdfg.ad.testact.a.onClick(Landroid/view/View;)V",
          "target": "invokevirtual \u003c Application, Ljava/net/URL, openConnection()Ljava/net/URLConnection; \u003e@151",
          "type": "ui",
          "activities": [
            "com.shenqijisuanqi.calculator.Calculator"
          ],
          "listener": "com.cdfg.ad.testact.a",
          "listenerMethod": "onClick",
          "uiType": "onClick"
        }
      ]
    },
    "8": {
      "startMethod": "com.cdfg.ad.testact.a.onClick(Landroid/view/View;)V",
      "targetMethod": "org.apache.http.impl.client.DefaultHttpClient.execute(Lorg/apache/http/client/methods/HttpUriRequest;)Lorg/apache/http/HttpResponse;",
      "eventChain": [
        {
          "start": "com.cdfg.ad.testact.a.onClick(Landroid/view/View;)V",
          "target": "invokevirtual \u003c Application, Lorg/apache/http/impl/client/DefaultHttpClient, execute(Lorg/apache/http/client/methods/HttpUriRequest;)Lorg/apache/http/HttpResponse; \u003e@59",
          "type": "ui",
          "activities": [
            "com.shenqijisuanqi.calculator.Calculator"
          ],
          "listener": "com.cdfg.ad.testact.a",
          "listenerMethod": "onClick",
          "uiType": "onClick"
        }
      ]
    },
    "9": {
      "startMethod": "com.cdfg.ad.poster.PosterInfoActivity$PackageReceiver.onReceive(Landroid/content/Context;Landroid/content/Intent;)V",
      "targetMethod": "java.net.URL.openConnection()Ljava/net/URLConnection;",
      "eventChain": [
        {
          "start": "com.cdfg.ad.poster.PosterInfoActivity.onCreate(Landroid/os/Bundle;)V",
          "target": "invokespecial \u003c Application, Landroid/content/BroadcastReceiver, \u003cinit\u003e()V \u003e@7",
          "type": "activity",
          "component": "com.cdfg.ad.poster.PosterInfoActivity",
          "constraintsFile": "constraints9_0.py",
          "variables": {},
          "stringMap": {},
          "strings": {}
        },
        {
          "start": "com.cdfg.ad.poster.PosterInfoActivity$PackageReceiver.onReceive(Landroid/content/Context;Landroid/content/Intent;)V",
          "target": "invokevirtual \u003c Application, Ljava/net/URL, openConnection()Ljava/net/URLConnection; \u003e@151",
          "type": "sms",
          "constraintsFile": "constraints9_1.py",
          "variables": {
            "\u003cInput2\u003e.getAction()": "IAAv0",
            "\u003cInput2\u003e.getDataString()": "IAAv2",
            "\u003cInput1\u003e.getPackageManager().getLaunchIntentForPackage()": "IAAv4"
          },
          "stringMap": {
            "7000": "android.intent.action.PACKAGE_ADDED"
          },
          "strings": {
            "IAAv2": "",
            "IAAv0": ""
          }
        }
      ]
    },
    "10": {
      "startMethod": "com.cdfg.ad.poster.PosterInfoActivity$PackageReceiver.onReceive(Landroid/content/Context;Landroid/content/Intent;)V",
      "targetMethod": "org.apache.http.impl.client.DefaultHttpClient.execute(Lorg/apache/http/client/methods/HttpUriRequest;)Lorg/apache/http/HttpResponse;",
      "eventChain": [
        {
          "start": "com.cdfg.ad.poster.PosterInfoActivity.onCreate(Landroid/os/Bundle;)V",
          "target": "invokespecial \u003c Application, Landroid/content/BroadcastReceiver, \u003cinit\u003e()V \u003e@7",
          "type": "activity",
          "component": "com.cdfg.ad.poster.PosterInfoActivity",
          "constraintsFile": "constraints10_0.py",
          "variables": {},
          "stringMap": {},
          "strings": {}
        },
        {
          "start": "com.cdfg.ad.poster.PosterInfoActivity$PackageReceiver.onReceive(Landroid/content/Context;Landroid/content/Intent;)V",
          "target": "invokevirtual \u003c Application, Lorg/apache/http/impl/client/DefaultHttpClient, execute(Lorg/apache/http/client/methods/HttpUriRequest;)Lorg/apache/http/HttpResponse; \u003e@59",
          "type": "sms",
          "constraintsFile": "constraints10_1.py",
          "variables": {
            "\u003cInput2\u003e.getAction()": "IAAv0",
            "\u003cInput2\u003e.getDataString()": "IAAv2",
            "\u003cInput1\u003e.getPackageManager().getLaunchIntentForPackage()": "IAAv4"
          },
          "stringMap": {
            "7000": "android.intent.action.PACKAGE_ADDED"
          },
          "strings": {
            "IAAv2": "",
            "IAAv0": ""
          }
        }
      ]
    },
    "11": {
      "startMethod": "com.cdfg.ad.poster.g.onClick(Landroid/content/DialogInterface;I)V",
      "targetMethod": "java.net.URL.openConnection()Ljava/net/URLConnection;",
      "eventChain": [
        {
          "start": "com.cdfg.ad.poster.g.onClick(Landroid/content/DialogInterface;I)V",
          "target": "invokevirtual \u003c Application, Ljava/net/URL, openConnection()Ljava/net/URLConnection; \u003e@151",
          "type": "ui",
          "activities": [
            "com.shenqijisuanqi.calculator.Calculator"
          ],
          "listener": "com.cdfg.ad.poster.g",
          "listenerMethod": "onClick",
          "uiType": "onClick",
          "inDialog": "true"
        }
      ]
    },
    "12": {
      "startMethod": "com.cdfg.ad.poster.g.onClick(Landroid/content/DialogInterface;I)V",
      "targetMethod": "org.apache.http.impl.client.DefaultHttpClient.execute(Lorg/apache/http/client/methods/HttpUriRequest;)Lorg/apache/http/HttpResponse;",
      "eventChain": [
        {
          "start": "com.cdfg.ad.poster.g.onClick(Landroid/content/DialogInterface;I)V",
          "target": "invokevirtual \u003c Application, Lorg/apache/http/impl/client/DefaultHttpClient, execute(Lorg/apache/http/client/methods/HttpUriRequest;)Lorg/apache/http/HttpResponse; \u003e@59",
          "type": "ui",
          "activities": [
            "com.shenqijisuanqi.calculator.Calculator"
          ],
          "listener": "com.cdfg.ad.poster.g",
          "listenerMethod": "onClick",
          "uiType": "onClick",
          "inDialog": "true"
        }
      ]
    }
  }
}