{
  "packageName": "com.gscssoftware.notificame",
  "mainActivity": "com.gscssoftware.notificame.main",
  "callPaths": {
    "0": {
      "startMethod": "com.gscssoftware.notificame.VideoPlay.onCreate(Landroid/os/Bundle;)V",
      "targetMethod": "org.apache.http.impl.client.DefaultHttpClient.execute(Lorg/apache/http/client/methods/HttpUriRequest;)Lorg/apache/http/HttpResponse;",
      "eventChain": [
        {
          "start": "com.gscssoftware.notificame.VideoPlay.onCreate(Landroid/os/Bundle;)V",
          "target": "PC@59",
          "type": "activity",
          "component": "com.gscssoftware.notificame.VideoPlay"
        },
        {
          "start": "com.gscssoftware.notificame.VideoPlay.onCreate(Landroid/os/Bundle;)V",
          "target": "invokevirtual \u003c Application, Lorg/apache/http/impl/client/DefaultHttpClient, execute(Lorg/apache/http/client/methods/HttpUriRequest;)Lorg/apache/http/HttpResponse; \u003e@166",
          "type": "activity",
          "component": "com.gscssoftware.notificame.VideoPlay",
          "constraintsFile": "constraints0_0.py",
          "variables": {},
          "stringMap": {},
          "strings": {}
        }
      ]
    },
    "1": {
      "startMethod": "com.gscssoftware.notificame.VideoPlay.onResume()V",
      "targetMethod": "org.apache.http.impl.client.DefaultHttpClient.execute(Lorg/apache/http/client/methods/HttpUriRequest;)Lorg/apache/http/HttpResponse;",
      "eventChain": [
        {
          "start": "com.gscssoftware.notificame.VideoPlay.onCreate(Landroid/os/Bundle;)V",
          "target": "PC@334",
          "type": "activity",
          "component": "com.gscssoftware.notificame.VideoPlay",
          "constraintsFile": "constraints1_0.py",
          "variables": {},
          "stringMap": {},
          "strings": {}
        },
        {
          "start": "com.gscssoftware.notificame.VideoPlay.onResume()V",
          "target": "invokevirtual \u003c Application, Lorg/apache/http/impl/client/DefaultHttpClient, execute(Lorg/apache/http/client/methods/HttpUriRequest;)Lorg/apache/http/HttpResponse; \u003e@166",
          "type": "activity",
          "component": "com.gscssoftware.notificame.VideoPlay",
          "constraintsFile": "constraints1_1.py",
          "variables": {},
          "stringMap": {},
          "strings": {}
        }
      ]
    },
    "2": {
      "startMethod": "android.support.v7.internal.view.SupportMenuInflater$InflatedOnMenuItemClickListener.onMenuItemClick(Landroid/view/MenuItem;)Z",
      "targetMethod": "java.lang.reflect.Method.invoke(Ljava/lang/Object;[Ljava/lang/Object;)Ljava/lang/Object;",
      "eventChain": [
        {
          "start": "android.support.v7.internal.view.SupportMenuInflater$InflatedOnMenuItemClickListener.onMenuItemClick(Landroid/view/MenuItem;)Z",
          "target": "invokevirtual \u003c Application, Ljava/lang/reflect/Method, invoke(Ljava/lang/Object;[Ljava/lang/Object;)Ljava/lang/Object; \u003e@63",
          "type": "ui",
          "activities": [
            "com.gscssoftware.notificame.main"
          ],
          "listener": "android.support.v7.internal.view.SupportMenuInflater$InflatedOnMenuItemClickListener",
          "listenerMethod": "onMenuItemClick",
          "uiType": "onMenuItemClick",
          "constraintsFile": "constraints2_0.py",
          "variables": {},
          "stringMap": {},
          "strings": {}
        }
      ]
    },
    "3": {
      "startMethod": "android.support.v7.internal.view.SupportMenuInflater$InflatedOnMenuItemClickListener.onMenuItemClick(Landroid/view/MenuItem;)Z",
      "targetMethod": "java.lang.reflect.Method.invoke(Ljava/lang/Object;[Ljava/lang/Object;)Ljava/lang/Object;",
      "eventChain": [
        {
          "start": "android.support.v7.internal.view.SupportMenuInflater$InflatedOnMenuItemClickListener.onMenuItemClick(Landroid/view/MenuItem;)Z",
          "target": "invokevirtual \u003c Application, Ljava/lang/reflect/Method, invoke(Ljava/lang/Object;[Ljava/lang/Object;)Ljava/lang/Object; \u003e@116",
          "type": "ui",
          "activities": [
            "com.gscssoftware.notificame.main"
          ],
          "listener": "android.support.v7.internal.view.SupportMenuInflater$InflatedOnMenuItemClickListener",
          "listenerMethod": "onMenuItemClick",
          "uiType": "onMenuItemClick",
          "constraintsFile": "constraints3_0.py",
          "variables": {},
          "stringMap": {},
          "strings": {}
        }
      ]
    }
  }
}