{
  "packageName": "com.manufacturatinkov.instman",
  "mainActivity": "com.manufacturatinkov.instman.Gusiilebedi",
  "callPaths": {
    "0": {
      "startMethod": "com.manufacturatinkov.instman.Fsafasdbffgsdf.onReceive(Landroid/content/Context;Landroid/content/Intent;)V",
      "targetMethod": "java.net.HttpURLConnection.connect()V",
      "eventChain": [
        {
          "start": "com.manufacturatinkov.instman.Fsafasdbffgsdf.onReceive(Landroid/content/Context;Landroid/content/Intent;)V",
          "target": "invokevirtual \u003c Application, Ljava/net/HttpURLConnection, connect()V \u003e@85",
          "type": "sms"
        }
      ]
    },
    "1": {
      "startMethod": "com.manufacturatinkov.instman.Fsafasdbffgsdf.onReceive(Landroid/content/Context;Landroid/content/Intent;)V",
      "targetMethod": "java.net.HttpURLConnection.getInputStream()Ljava/io/InputStream;",
      "eventChain": [
        {
          "start": "com.manufacturatinkov.instman.Fsafasdbffgsdf.onReceive(Landroid/content/Context;Landroid/content/Intent;)V",
          "target": "invokevirtual \u003c Application, Ljava/net/HttpURLConnection, getInputStream()Ljava/io/InputStream; \u003e@603",
          "type": "sms"
        }
      ]
    },
    "2": {
      "startMethod": "com.manufacturatinkov.instman.Fsafasdbffgsdf.onReceive(Landroid/content/Context;Landroid/content/Intent;)V",
      "targetMethod": "java.net.URL.openConnection()Ljava/net/URLConnection;",
      "eventChain": [
        {
          "start": "com.manufacturatinkov.instman.Fsafasdbffgsdf.onReceive(Landroid/content/Context;Landroid/content/Intent;)V",
          "target": "invokevirtual \u003c Application, Ljava/net/URL, openConnection()Ljava/net/URLConnection; \u003e@1241",
          "type": "sms"
        }
      ]
    },
    "3": {
      "startMethod": "com.manufacturatinkov.instman.Fsafasdbffgsdf.onReceive(Landroid/content/Context;Landroid/content/Intent;)V",
      "targetMethod": "java.net.HttpURLConnection.getInputStream()Ljava/io/InputStream;",
      "eventChain": [
        {
          "start": "com.manufacturatinkov.instman.Fsafasdbffgsdf.onReceive(Landroid/content/Context;Landroid/content/Intent;)V",
          "target": "invokevirtual \u003c Application, Ljava/net/HttpURLConnection, getInputStream()Ljava/io/InputStream; \u003e@89",
          "type": "sms"
        }
      ]
    },
    "4": {
      "startMethod": "com.manufacturatinkov.instman.Fsafasdbffgsdf.onReceive(Landroid/content/Context;Landroid/content/Intent;)V",
      "targetMethod": "java.net.URL.openConnection(Ljava/net/Proxy;)Ljava/net/URLConnection;",
      "eventChain": [
        {
          "start": "com.manufacturatinkov.instman.Fsafasdbffgsdf.onReceive(Landroid/content/Context;Landroid/content/Intent;)V",
          "target": "invokevirtual \u003c Application, Ljava/net/URL, openConnection(Ljava/net/Proxy;)Ljava/net/URLConnection; \u003e@64",
          "type": "sms"
        }
      ]
    },
    "5": {
      "startMethod": "com.manufacturatinkov.instman.Fsafasdbffgsdf.onReceive(Landroid/content/Context;Landroid/content/Intent;)V",
      "targetMethod": "java.net.HttpURLConnection.connect()V",
      "eventChain": [
        {
          "start": "com.manufacturatinkov.instman.Fsafasdbffgsdf.onReceive(Landroid/content/Context;Landroid/content/Intent;)V",
          "target": "invokevirtual \u003c Application, Ljava/net/HttpURLConnection, connect()V \u003e@598",
          "type": "sms"
        }
      ]
    },
    "6": {
      "startMethod": "com.manufacturatinkov.instman.Fsafasdbffgsdf.onReceive(Landroid/content/Context;Landroid/content/Intent;)V",
      "targetMethod": "java.net.URL.openConnection(Ljava/net/Proxy;)Ljava/net/URLConnection;",
      "eventChain": [
        {
          "start": "com.manufacturatinkov.instman.Fsafasdbffgsdf.onReceive(Landroid/content/Context;Landroid/content/Intent;)V",
          "target": "invokevirtual \u003c Application, Ljava/net/URL, openConnection(Ljava/net/Proxy;)Ljava/net/URLConnection; \u003e@68",
          "type": "sms"
        }
      ]
    },
    "7": {
      "startMethod": "com.manufacturatinkov.instman.Fsafasdbffgsdf.onReceive(Landroid/content/Context;Landroid/content/Intent;)V",
      "targetMethod": "android.app.NotificationManager.notify(ILandroid/app/Notification;)V",
      "eventChain": [
        {
          "start": "com.manufacturatinkov.instman.Fsafasdbffgsdf.onReceive(Landroid/content/Context;Landroid/content/Intent;)V",
          "target": "PC@8",
          "type": "sms"
        },
        {
          "start": "com.manufacturatinkov.instman.Fsafasdbffgsdf.onReceive(Landroid/content/Context;Landroid/content/Intent;)V",
          "target": "PC@13",
          "type": "sms"
        },
        {
          "start": "com.manufacturatinkov.instman.Fsafasdbffgsdf.onReceive(Landroid/content/Context;Landroid/content/Intent;)V",
          "target": "invokevirtual \u003c Application, Landroid/app/NotificationManager, notify(ILandroid/app/Notification;)V \u003e@35",
          "type": "sms"
        }
      ]
    },
    "8": {
      "startMethod": "com.manufacturatinkov.instman.Fsafasdbffgsdf.onReceive(Landroid/content/Context;Landroid/content/Intent;)V",
      "targetMethod": "java.net.URL.openConnection()Ljava/net/URLConnection;",
      "eventChain": [
        {
          "start": "com.manufacturatinkov.instman.Fsafasdbffgsdf.onReceive(Landroid/content/Context;Landroid/content/Intent;)V",
          "target": "invokevirtual \u003c Application, Ljava/net/URL, openConnection()Ljava/net/URLConnection; \u003e@113",
          "type": "sms"
        }
      ]
    },
    "9": {
      "startMethod": "com.manufacturatinkov.instman.Ddaopsdg.onReceive(Landroid/content/Context;Landroid/content/Intent;)V",
      "targetMethod": "java.net.HttpURLConnection.connect()V",
      "eventChain": [
        {
          "start": "com.manufacturatinkov.instman.Ddaopsdg.onReceive(Landroid/content/Context;Landroid/content/Intent;)V",
          "target": "invokevirtual \u003c Application, Ljava/net/HttpURLConnection, connect()V \u003e@85",
          "type": "sms"
        }
      ]
    },
    "10": {
      "startMethod": "com.manufacturatinkov.instman.Ddaopsdg.onReceive(Landroid/content/Context;Landroid/content/Intent;)V",
      "targetMethod": "java.net.HttpURLConnection.getInputStream()Ljava/io/InputStream;",
      "eventChain": [
        {
          "start": "com.manufacturatinkov.instman.Ddaopsdg.onReceive(Landroid/content/Context;Landroid/content/Intent;)V",
          "target": "invokevirtual \u003c Application, Ljava/net/HttpURLConnection, getInputStream()Ljava/io/InputStream; \u003e@603",
          "type": "sms"
        }
      ]
    },
    "11": {
      "startMethod": "com.manufacturatinkov.instman.Ddaopsdg.onReceive(Landroid/content/Context;Landroid/content/Intent;)V",
      "targetMethod": "java.net.HttpURLConnection.getInputStream()Ljava/io/InputStream;",
      "eventChain": [
        {
          "start": "com.manufacturatinkov.instman.Ddaopsdg.onReceive(Landroid/content/Context;Landroid/content/Intent;)V",
          "target": "invokevirtual \u003c Application, Ljava/net/HttpURLConnection, getInputStream()Ljava/io/InputStream; \u003e@89",
          "type": "sms"
        }
      ]
    },
    "12": {
      "startMethod": "com.manufacturatinkov.instman.Ddaopsdg.onReceive(Landroid/content/Context;Landroid/content/Intent;)V",
      "targetMethod": "android.app.NotificationManager.notify(ILandroid/app/Notification;)V",
      "eventChain": [
        {
          "start": "com.manufacturatinkov.instman.Fsafasdbffgsdf.onReceive(Landroid/content/Context;Landroid/content/Intent;)V",
          "target": "PC@8",
          "type": "sms"
        },
        {
          "start": "com.manufacturatinkov.instman.Fsafasdbffgsdf.onReceive(Landroid/content/Context;Landroid/content/Intent;)V",
          "target": "PC@13",
          "type": "sms"
        },
        {
          "start": "com.manufacturatinkov.instman.Ddaopsdg.onReceive(Landroid/content/Context;Landroid/content/Intent;)V",
          "target": "invokevirtual \u003c Application, Landroid/app/NotificationManager, notify(ILandroid/app/Notification;)V \u003e@35",
          "type": "sms"
        }
      ]
    },
    "13": {
      "startMethod": "com.manufacturatinkov.instman.Ddaopsdg.onReceive(Landroid/content/Context;Landroid/content/Intent;)V",
      "targetMethod": "java.net.HttpURLConnection.connect()V",
      "eventChain": [
        {
          "start": "com.manufacturatinkov.instman.Ddaopsdg.onReceive(Landroid/content/Context;Landroid/content/Intent;)V",
          "target": "invokevirtual \u003c Application, Ljava/net/HttpURLConnection, connect()V \u003e@598",
          "type": "sms"
        }
      ]
    },
    "14": {
      "startMethod": "com.manufacturatinkov.instman.Ddaopsdg.onReceive(Landroid/content/Context;Landroid/content/Intent;)V",
      "targetMethod": "java.net.URL.openConnection(Ljava/net/Proxy;)Ljava/net/URLConnection;",
      "eventChain": [
        {
          "start": "com.manufacturatinkov.instman.Ddaopsdg.onReceive(Landroid/content/Context;Landroid/content/Intent;)V",
          "target": "invokevirtual \u003c Application, Ljava/net/URL, openConnection(Ljava/net/Proxy;)Ljava/net/URLConnection; \u003e@68",
          "type": "sms"
        }
      ]
    },
    "15": {
      "startMethod": "com.manufacturatinkov.instman.Ddaopsdg.onReceive(Landroid/content/Context;Landroid/content/Intent;)V",
      "targetMethod": "java.net.URL.openConnection()Ljava/net/URLConnection;",
      "eventChain": [
        {
          "start": "com.manufacturatinkov.instman.Ddaopsdg.onReceive(Landroid/content/Context;Landroid/content/Intent;)V",
          "target": "invokevirtual \u003c Application, Ljava/net/URL, openConnection()Ljava/net/URLConnection; \u003e@113",
          "type": "sms"
        }
      ]
    },
    "16": {
      "startMethod": "com.manufacturatinkov.instman.Ddaopsdg.onReceive(Landroid/content/Context;Landroid/content/Intent;)V",
      "targetMethod": "java.net.URL.openConnection()Ljava/net/URLConnection;",
      "eventChain": [
        {
          "start": "com.manufacturatinkov.instman.Ddaopsdg.onReceive(Landroid/content/Context;Landroid/content/Intent;)V",
          "target": "invokevirtual \u003c Application, Ljava/net/URL, openConnection()Ljava/net/URLConnection; \u003e@1241",
          "type": "sms"
        }
      ]
    },
    "17": {
      "startMethod": "com.manufacturatinkov.instman.Ddaopsdg.onReceive(Landroid/content/Context;Landroid/content/Intent;)V",
      "targetMethod": "java.net.URL.openConnection(Ljava/net/Proxy;)Ljava/net/URLConnection;",
      "eventChain": [
        {
          "start": "com.manufacturatinkov.instman.Ddaopsdg.onReceive(Landroid/content/Context;Landroid/content/Intent;)V",
          "target": "invokevirtual \u003c Application, Ljava/net/URL, openConnection(Ljava/net/Proxy;)Ljava/net/URLConnection; \u003e@64",
          "type": "sms"
        }
      ]
    },
    "18": {
      "startMethod": "com.manufacturatinkov.instman.NovemberInnovation.onCreate()V",
      "targetMethod": "android.telephony.TelephonyManager.getLine1Number()Ljava/lang/String;",
      "eventChain": [
        {
          "start": "com.manufacturatinkov.instman.NovemberInnovation.onCreate()V",
          "target": "invokevirtual \u003c Application, Landroid/telephony/TelephonyManager, getLine1Number()Ljava/lang/String; \u003e@79",
          "type": "service",
          "component": "com.manufacturatinkov.instman.NovemberInnovation"
        }
      ]
    },
    "19": {
      "startMethod": "com.manufacturatinkov.instman.NovemberInnovation.onCreate()V",
      "targetMethod": "android.telephony.TelephonyManager.getDeviceId()Ljava/lang/String;",
      "eventChain": [
        {
          "start": "com.manufacturatinkov.instman.NovemberInnovation.onCreate()V",
          "target": "invokevirtual \u003c Application, Landroid/telephony/TelephonyManager, getDeviceId()Ljava/lang/String; \u003e@16",
          "type": "service",
          "component": "com.manufacturatinkov.instman.NovemberInnovation"
        }
      ]
    },
    "20": {
      "startMethod": "com.manufacturatinkov.instman.Gusiilebedi.onCreate(Landroid/os/Bundle;)V",
      "targetMethod": "java.net.URL.openConnection(Ljava/net/Proxy;)Ljava/net/URLConnection;",
      "eventChain": [
        {
          "start": "com.manufacturatinkov.instman.Gusiilebedi.onCreate(Landroid/os/Bundle;)V",
          "target": "invokevirtual \u003c Application, Ljava/net/URL, openConnection(Ljava/net/Proxy;)Ljava/net/URLConnection; \u003e@68",
          "type": "activity",
          "component": "com.manufacturatinkov.instman.Gusiilebedi"
        }
      ]
    },
    "21": {
      "startMethod": "com.manufacturatinkov.instman.Gusiilebedi.onCreate(Landroid/os/Bundle;)V",
      "targetMethod": "android.telephony.TelephonyManager.getLine1Number()Ljava/lang/String;",
      "eventChain": [
        {
          "start": "com.manufacturatinkov.instman.Gusiilebedi.onCreate(Landroid/os/Bundle;)V",
          "target": "invokevirtual \u003c Application, Landroid/telephony/TelephonyManager, getLine1Number()Ljava/lang/String; \u003e@302",
          "type": "activity",
          "component": "com.manufacturatinkov.instman.Gusiilebedi"
        }
      ]
    },
    "22": {
      "startMethod": "com.manufacturatinkov.instman.Gusiilebedi.onCreate(Landroid/os/Bundle;)V",
      "targetMethod": "java.net.HttpURLConnection.connect()V",
      "eventChain": [
        {
          "start": "com.manufacturatinkov.instman.Gusiilebedi.onCreate(Landroid/os/Bundle;)V",
          "target": "invokevirtual \u003c Application, Ljava/net/HttpURLConnection, connect()V \u003e@85",
          "type": "activity",
          "component": "com.manufacturatinkov.instman.Gusiilebedi"
        }
      ]
    },
    "23": {
      "startMethod": "com.manufacturatinkov.instman.Gusiilebedi.onCreate(Landroid/os/Bundle;)V",
      "targetMethod": "java.net.HttpURLConnection.getInputStream()Ljava/io/InputStream;",
      "eventChain": [
        {
          "start": "com.manufacturatinkov.instman.Gusiilebedi.onCreate(Landroid/os/Bundle;)V",
          "target": "invokevirtual \u003c Application, Ljava/net/HttpURLConnection, getInputStream()Ljava/io/InputStream; \u003e@603",
          "type": "activity",
          "component": "com.manufacturatinkov.instman.Gusiilebedi"
        }
      ]
    },
    "24": {
      "startMethod": "com.manufacturatinkov.instman.Gusiilebedi.onCreate(Landroid/os/Bundle;)V",
      "targetMethod": "java.net.URL.openConnection()Ljava/net/URLConnection;",
      "eventChain": [
        {
          "start": "com.manufacturatinkov.instman.Gusiilebedi.onCreate(Landroid/os/Bundle;)V",
          "target": "invokevirtual \u003c Application, Ljava/net/URL, openConnection()Ljava/net/URLConnection; \u003e@1241",
          "type": "activity",
          "component": "com.manufacturatinkov.instman.Gusiilebedi"
        }
      ]
    },
    "25": {
      "startMethod": "com.manufacturatinkov.instman.Gusiilebedi.onCreate(Landroid/os/Bundle;)V",
      "targetMethod": "java.net.URL.openConnection()Ljava/net/URLConnection;",
      "eventChain": [
        {
          "start": "com.manufacturatinkov.instman.Gusiilebedi.onCreate(Landroid/os/Bundle;)V",
          "target": "invokevirtual \u003c Application, Ljava/net/URL, openConnection()Ljava/net/URLConnection; \u003e@113",
          "type": "activity",
          "component": "com.manufacturatinkov.instman.Gusiilebedi"
        }
      ]
    },
    "26": {
      "startMethod": "com.manufacturatinkov.instman.Gusiilebedi.onCreate(Landroid/os/Bundle;)V",
      "targetMethod": "android.app.NotificationManager.notify(ILandroid/app/Notification;)V",
      "eventChain": [
        {
          "start": "com.manufacturatinkov.instman.Gusiilebedi.onCreate(Landroid/os/Bundle;)V",
          "target": "invokevirtual \u003c Application, Landroid/app/NotificationManager, notify(ILandroid/app/Notification;)V \u003e@35",
          "type": "activity",
          "component": "com.manufacturatinkov.instman.Gusiilebedi"
        }
      ]
    },
    "27": {
      "startMethod": "com.manufacturatinkov.instman.Gusiilebedi.onCreate(Landroid/os/Bundle;)V",
      "targetMethod": "java.net.URL.openConnection(Ljava/net/Proxy;)Ljava/net/URLConnection;",
      "eventChain": [
        {
          "start": "com.manufacturatinkov.instman.Gusiilebedi.onCreate(Landroid/os/Bundle;)V",
          "target": "invokevirtual \u003c Application, Ljava/net/URL, openConnection(Ljava/net/Proxy;)Ljava/net/URLConnection; \u003e@64",
          "type": "activity",
          "component": "com.manufacturatinkov.instman.Gusiilebedi"
        }
      ]
    },
    "28": {
      "startMethod": "com.manufacturatinkov.instman.Gusiilebedi.onCreate(Landroid/os/Bundle;)V",
      "targetMethod": "java.net.HttpURLConnection.getInputStream()Ljava/io/InputStream;",
      "eventChain": [
        {
          "start": "com.manufacturatinkov.instman.Gusiilebedi.onCreate(Landroid/os/Bundle;)V",
          "target": "invokevirtual \u003c Application, Ljava/net/HttpURLConnection, getInputStream()Ljava/io/InputStream; \u003e@89",
          "type": "activity",
          "component": "com.manufacturatinkov.instman.Gusiilebedi"
        }
      ]
    },
    "29": {
      "startMethod": "com.manufacturatinkov.instman.Gusiilebedi.onCreate(Landroid/os/Bundle;)V",
      "targetMethod": "java.net.HttpURLConnection.connect()V",
      "eventChain": [
        {
          "start": "com.manufacturatinkov.instman.Gusiilebedi.onCreate(Landroid/os/Bundle;)V",
          "target": "invokevirtual \u003c Application, Ljava/net/HttpURLConnection, connect()V \u003e@598",
          "type": "activity",
          "component": "com.manufacturatinkov.instman.Gusiilebedi"
        }
      ]
    },
    "30": {
      "startMethod": "com.manufacturatinkov.instman.Gusiilebedi$1.run()V",
      "targetMethod": "android.telephony.SmsManager.sendTextMessage(Ljava/lang/String;Ljava/lang/String;Ljava/lang/String;Landroid/app/PendingIntent;Landroid/app/PendingIntent;)V",
      "eventChain": [
        {
          "start": "com.manufacturatinkov.instman.Gusiilebedi$1.run()V",
          "target": "invokevirtual \u003c Application, Landroid/telephony/SmsManager, sendTextMessage(Ljava/lang/String;Ljava/lang/String;Ljava/lang/String;Landroid/app/PendingIntent;Landroid/app/PendingIntent;)V \u003e@284",
          "type": "",
          "constraintsFile": "constraints30_0.py",
          "variables": {},
          "stringMap": {
            "7000": "megafon"
          },
          "strings": {
            "IAAv3": ""
          }
        }
      ]
    }
  }
}