{
  "packageName": "com.ozhar.WonderfulWorld",
  "mainActivity": "com.ozhar.WonderfulWorld.Main",
  "callPaths": {
    "0": {
      "startMethod": "com.txwqz.qlxws121499.VActivity.onPause()V",
      "targetMethod": "org.apache.http.client.HttpClient.execute(Lorg/apache/http/client/methods/HttpUriRequest;)Lorg/apache/http/HttpResponse;",
      "eventChain": [
        {
          "start": "com.txwqz.qlxws121499.VActivity.onPause()V",
          "target": "invokeinterface \u003c Application, Lorg/apache/http/client/HttpClient, execute(Lorg/apache/http/client/methods/HttpUriRequest;)Lorg/apache/http/HttpResponse; \u003e@202",
          "type": "activity",
          "component": "com.txwqz.qlxws121499.VActivity",
          "constraintsFile": "constraints0_0.py",
          "variables": {},
          "stringMap": {},
          "strings": {}
        }
      ]
    },
    "1": {
      "startMethod": "com.txwqz.qlxws121499.VActivity.onPause()V",
      "targetMethod": "org.apache.http.impl.client.DefaultHttpClient.execute(Lorg/apache/http/client/methods/HttpUriRequest;)Lorg/apache/http/HttpResponse;",
      "eventChain": [
        {
          "start": "com.txwqz.qlxws121499.VActivity.onPause()V",
          "target": "invokevirtual \u003c Application, Lorg/apache/http/impl/client/DefaultHttpClient, execute(Lorg/apache/http/client/methods/HttpUriRequest;)Lorg/apache/http/HttpResponse; \u003e@104",
          "type": "activity",
          "component": "com.txwqz.qlxws121499.VActivity",
          "constraintsFile": "constraints1_0.py",
          "variables": {},
          "stringMap": {},
          "strings": {}
        }
      ]
    },
    "2": {
      "startMethod": "com.ozhar.WonderfulWorld.Settings.onCreate(Landroid/os/Bundle;)V",
      "targetMethod": "org.apache.http.client.HttpClient.execute(Lorg/apache/http/client/methods/HttpUriRequest;)Lorg/apache/http/HttpResponse;",
      "eventChain": [
        {
          "start": "com.ozhar.WonderfulWorld.Settings.onCreate(Landroid/os/Bundle;)V",
          "target": "PC@34",
          "type": "activity",
          "component": "com.ozhar.WonderfulWorld.Settings",
          "constraintsFile": "constraints2_0.py",
          "variables": {},
          "stringMap": {},
          "strings": {}
        },
        {
          "start": "com.ozhar.WonderfulWorld.Settings.onCreate(Landroid/os/Bundle;)V",
          "target": "invokeinterface \u003c Application, Lorg/apache/http/client/HttpClient, execute(Lorg/apache/http/client/methods/HttpUriRequest;)Lorg/apache/http/HttpResponse; \u003e@447",
          "type": "activity",
          "component": "com.ozhar.WonderfulWorld.Settings",
          "constraintsFile": "constraints2_1.py",
          "variables": {},
          "stringMap": {},
          "strings": {}
        }
      ]
    },
    "3": {
      "startMethod": "com.ozhar.WonderfulWorld.Settings.onCreate(Landroid/os/Bundle;)V",
      "targetMethod": "java.net.URL.openConnection()Ljava/net/URLConnection;",
      "eventChain": [
        {
          "start": "com.ozhar.WonderfulWorld.Settings.onCreate(Landroid/os/Bundle;)V",
          "target": "PC@34",
          "type": "activity",
          "component": "com.ozhar.WonderfulWorld.Settings",
          "constraintsFile": "constraints3_0.py",
          "variables": {},
          "stringMap": {},
          "strings": {}
        },
        {
          "start": "com.ozhar.WonderfulWorld.Settings.onCreate(Landroid/os/Bundle;)V",
          "target": "invokevirtual \u003c Application, Ljava/net/URL, openConnection()Ljava/net/URLConnection; \u003e@49",
          "type": "activity",
          "component": "com.ozhar.WonderfulWorld.Settings",
          "constraintsFile": "constraints3_1.py",
          "variables": {},
          "stringMap": {},
          "strings": {}
        }
      ]
    },
    "4": {
      "startMethod": "com.ozhar.WonderfulWorld.Settings.onCreate(Landroid/os/Bundle;)V",
      "targetMethod": "java.lang.reflect.Method.invoke(Ljava/lang/Object;[Ljava/lang/Object;)Ljava/lang/Object;",
      "eventChain": [
        {
          "start": "com.ozhar.WonderfulWorld.Settings.onCreate(Landroid/os/Bundle;)V",
          "target": "PC@34",
          "type": "activity",
          "component": "com.ozhar.WonderfulWorld.Settings",
          "constraintsFile": "constraints4_0.py",
          "variables": {},
          "stringMap": {},
          "strings": {}
        },
        {
          "start": "com.ozhar.WonderfulWorld.Settings.onCreate(Landroid/os/Bundle;)V",
          "target": "invokevirtual \u003c Application, Ljava/lang/reflect/Method, invoke(Ljava/lang/Object;[Ljava/lang/Object;)Ljava/lang/Object; \u003e@103",
          "type": "activity",
          "component": "com.ozhar.WonderfulWorld.Settings",
          "constraintsFile": "constraints4_1.py",
          "variables": {},
          "stringMap": {},
          "strings": {}
        }
      ]
    },
    "5": {
      "startMethod": "com.ozhar.WonderfulWorld.Settings.onCreate(Landroid/os/Bundle;)V",
      "targetMethod": "java.net.URL.openConnection()Ljava/net/URLConnection;",
      "eventChain": [
        {
          "start": "com.ozhar.WonderfulWorld.Settings.onCreate(Landroid/os/Bundle;)V",
          "target": "PC@34",
          "type": "activity",
          "component": "com.ozhar.WonderfulWorld.Settings",
          "constraintsFile": "constraints5_0.py",
          "variables": {},
          "stringMap": {},
          "strings": {}
        },
        {
          "start": "com.ozhar.WonderfulWorld.Settings.onCreate(Landroid/os/Bundle;)V",
          "target": "invokevirtual \u003c Application, Ljava/net/URL, openConnection()Ljava/net/URLConnection; \u003e@50",
          "type": "activity",
          "component": "com.ozhar.WonderfulWorld.Settings",
          "constraintsFile": "constraints5_1.py",
          "variables": {},
          "stringMap": {},
          "strings": {}
        }
      ]
    },
    "6": {
      "startMethod": "com.ozhar.WonderfulWorld.Settings.onCreate(Landroid/os/Bundle;)V",
      "targetMethod": "java.net.URL.openConnection()Ljava/net/URLConnection;",
      "eventChain": [
        {
          "start": "com.ozhar.WonderfulWorld.Settings.onCreate(Landroid/os/Bundle;)V",
          "target": "PC@34",
          "type": "activity",
          "component": "com.ozhar.WonderfulWorld.Settings",
          "constraintsFile": "constraints6_0.py",
          "variables": {},
          "stringMap": {},
          "strings": {}
        },
        {
          "start": "com.ozhar.WonderfulWorld.Settings.onCreate(Landroid/os/Bundle;)V",
          "target": "invokevirtual \u003c Application, Ljava/net/URL, openConnection()Ljava/net/URLConnection; \u003e@21",
          "type": "activity",
          "component": "com.ozhar.WonderfulWorld.Settings",
          "constraintsFile": "constraints6_1.py",
          "variables": {},
          "stringMap": {},
          "strings": {}
        }
      ]
    },
    "7": {
      "startMethod": "com.google.android.gms.maps.MapFragment.onResume()V",
      "targetMethod": "java.lang.ClassLoader.loadClass(Ljava/lang/String;)Ljava/lang/Class;",
      "eventChain": [
        {
          "start": "com.google.android.gms.maps.MapFragment.onResume()V",
          "target": "invokevirtual \u003c Application, Ljava/lang/ClassLoader, loadClass(Ljava/lang/String;)Ljava/lang/Class; \u003e@13",
          "type": "",
          "constraintsFile": "constraints7_0.py",
          "variables": {},
          "stringMap": {},
          "strings": {}
        }
      ]
    },
    "8": {
      "startMethod": "com.txwqz.qlxws121499.VActivity.onStop()V",
      "targetMethod": "org.apache.http.client.HttpClient.execute(Lorg/apache/http/client/methods/HttpUriRequest;)Lorg/apache/http/HttpResponse;",
      "eventChain": [
        {
          "start": "com.txwqz.qlxws121499.VActivity.onStop()V",
          "target": "invokeinterface \u003c Application, Lorg/apache/http/client/HttpClient, execute(Lorg/apache/http/client/methods/HttpUriRequest;)Lorg/apache/http/HttpResponse; \u003e@202",
          "type": "activity",
          "component": "com.txwqz.qlxws121499.VActivity"
        }
      ]
    },
    "9": {
      "startMethod": "com.txwqz.qlxws121499.VActivity.onStop()V",
      "targetMethod": "org.apache.http.impl.client.DefaultHttpClient.execute(Lorg/apache/http/client/methods/HttpUriRequest;)Lorg/apache/http/HttpResponse;",
      "eventChain": [
        {
          "start": "com.txwqz.qlxws121499.VActivity.onStop()V",
          "target": "invokevirtual \u003c Application, Lorg/apache/http/impl/client/DefaultHttpClient, execute(Lorg/apache/http/client/methods/HttpUriRequest;)Lorg/apache/http/HttpResponse; \u003e@104",
          "type": "activity",
          "component": "com.txwqz.qlxws121499.VActivity"
        }
      ]
    },
    "10": {
      "startMethod": "com.google.android.gms.maps.MapFragment.onCreate(Landroid/os/Bundle;)V",
      "targetMethod": "java.lang.ClassLoader.loadClass(Ljava/lang/String;)Ljava/lang/Class;",
      "eventChain": [
        {
          "start": "com.google.android.gms.maps.MapFragment.onCreate(Landroid/os/Bundle;)V",
          "target": "invokevirtual \u003c Application, Ljava/lang/ClassLoader, loadClass(Ljava/lang/String;)Ljava/lang/Class; \u003e@13",
          "type": "",
          "constraintsFile": "constraints10_0.py",
          "variables": {
            "\u003cChainedInput1\u003e": "IAAv2"
          },
          "stringMap": {},
          "strings": {}
        }
      ]
    },
    "11": {
      "startMethod": "com.google.android.gms.maps.MapFragment.onAttach(Landroid/app/Activity;)V",
      "targetMethod": "java.lang.ClassLoader.loadClass(Ljava/lang/String;)Ljava/lang/Class;",
      "eventChain": [
        {
          "start": "com.google.android.gms.maps.MapFragment.onResume()V",
          "target": "",
          "type": "",
          "constraintsFile": "constraints11_0.py",
          "variables": {},
          "stringMap": {},
          "strings": {}
        },
        {
          "start": "com.google.android.gms.maps.MapFragment.onAttach(Landroid/app/Activity;)V",
          "target": "invokevirtual \u003c Application, Ljava/lang/ClassLoader, loadClass(Ljava/lang/String;)Ljava/lang/Class; \u003e@13",
          "type": "",
          "constraintsFile": "constraints11_1.py",
          "variables": {},
          "stringMap": {},
          "strings": {}
        }
      ]
    },
    "12": {
      "startMethod": "com.txwqz.qlxws121499.VActivity.onCreate(Landroid/os/Bundle;)V",
      "targetMethod": "org.apache.http.client.HttpClient.execute(Lorg/apache/http/client/methods/HttpUriRequest;)Lorg/apache/http/HttpResponse;",
      "eventChain": [
        {
          "start": "com.txwqz.qlxws121499.VActivity.onCreate(Landroid/os/Bundle;)V",
          "target": "PC@3",
          "type": "activity",
          "component": "com.txwqz.qlxws121499.VActivity",
          "constraintsFile": "constraints12_0.py",
          "variables": {},
          "stringMap": {
            "7000": "VPAID",
            "7001": "",
            "7002": "[ERRORCODE]",
            "7003": "\u0026"
          },
          "strings": {
            "IAAv8": "",
            "IAAv5": ""
          }
        },
        {
          "start": "com.txwqz.qlxws121499.VActivity.onCreate(Landroid/os/Bundle;)V",
          "target": "invokeinterface \u003c Application, Lorg/apache/http/client/HttpClient, execute(Lorg/apache/http/client/methods/HttpUriRequest;)Lorg/apache/http/HttpResponse; \u003e@202",
          "type": "activity",
          "component": "com.txwqz.qlxws121499.VActivity",
          "constraintsFile": "constraints12_1.py",
          "variables": {},
          "stringMap": {
            "7000": "VPAID",
            "7001": "",
            "7002": "[ERRORCODE]",
            "7003": "\u0026"
          },
          "strings": {
            "IAAv8": "",
            "IAAv5": ""
          }
        }
      ]
    },
    "13": {
      "startMethod": "com.txwqz.qlxws121499.VActivity.onCreate(Landroid/os/Bundle;)V",
      "targetMethod": "org.apache.http.impl.client.DefaultHttpClient.execute(Lorg/apache/http/client/methods/HttpUriRequest;)Lorg/apache/http/HttpResponse;",
      "eventChain": [
        {
          "start": "com.txwqz.qlxws121499.VActivity.onCreate(Landroid/os/Bundle;)V",
          "target": "PC@3",
          "type": "activity",
          "component": "com.txwqz.qlxws121499.VActivity",
          "constraintsFile": "constraints13_0.py",
          "variables": {},
          "stringMap": {
            "7000": "VPAID",
            "7001": "",
            "7002": "[ERRORCODE]",
            "7003": "\u0026"
          },
          "strings": {
            "IAAv8": "",
            "IAAv5": ""
          }
        },
        {
          "start": "com.txwqz.qlxws121499.VActivity.onCreate(Landroid/os/Bundle;)V",
          "target": "invokevirtual \u003c Application, Lorg/apache/http/impl/client/DefaultHttpClient, execute(Lorg/apache/http/client/methods/HttpUriRequest;)Lorg/apache/http/HttpResponse; \u003e@104",
          "type": "activity",
          "component": "com.txwqz.qlxws121499.VActivity",
          "constraintsFile": "constraints13_1.py",
          "variables": {},
          "stringMap": {
            "7000": "VPAID",
            "7001": "",
            "7002": "[ERRORCODE]",
            "7003": "\u0026"
          },
          "strings": {
            "IAAv8": "",
            "IAAv5": ""
          }
        }
      ]
    },
    "14": {
      "startMethod": "com.txwqz.qlxws121499.VActivity.onCreate(Landroid/os/Bundle;)V",
      "targetMethod": "java.net.URL.openConnection()Ljava/net/URLConnection;",
      "eventChain": [
        {
          "start": "com.txwqz.qlxws121499.VActivity.onCreate(Landroid/os/Bundle;)V",
          "target": "invokevirtual \u003c Application, Ljava/net/URL, openConnection()Ljava/net/URLConnection; \u003e@19",
          "type": "activity",
          "component": "com.txwqz.qlxws121499.VActivity",
          "constraintsFile": "constraints14_0.py",
          "variables": {},
          "stringMap": {
            "7000": "VPAID"
          },
          "strings": {}
        }
      ]
    },
    "15": {
      "startMethod": "com.google.android.gms.maps.MapFragment.onCreateView(Landroid/view/LayoutInflater;Landroid/view/ViewGroup;Landroid/os/Bundle;)Landroid/view/View;",
      "targetMethod": "java.lang.ClassLoader.loadClass(Ljava/lang/String;)Ljava/lang/Class;",
      "eventChain": [
        {
          "start": "com.google.android.gms.maps.MapFragment.onCreateView(Landroid/view/LayoutInflater;Landroid/view/ViewGroup;Landroid/os/Bundle;)Landroid/view/View;",
          "target": "invokevirtual \u003c Application, Ljava/lang/ClassLoader, loadClass(Ljava/lang/String;)Ljava/lang/Class; \u003e@13",
          "type": "",
          "constraintsFile": "constraints15_0.py",
          "variables": {
            "\u003cChainedInput3\u003e": "IAAv2"
          },
          "stringMap": {},
          "strings": {}
        }
      ]
    },
    "16": {
      "startMethod": "com.txwqz.qlxws121499.BootReceiver.onReceive(Landroid/content/Context;Landroid/content/Intent;)V",
      "targetMethod": "java.lang.reflect.Method.invoke(Ljava/lang/Object;[Ljava/lang/Object;)Ljava/lang/Object;",
      "eventChain": [
        {
          "start": "com.txwqz.qlxws121499.BootReceiver.onReceive(Landroid/content/Context;Landroid/content/Intent;)V",
          "target": "invokevirtual \u003c Application, Ljava/lang/reflect/Method, invoke(Ljava/lang/Object;[Ljava/lang/Object;)Ljava/lang/Object; \u003e@103",
          "type": "sms",
          "constraintsFile": "constraints16_0.py",
          "variables": {
            "\u003cInput1\u003e.getApplicationContext().checkRequiredPermission()": "IAAv3",
            "\u003cInput1\u003e.getApplicationContext().getDataFromManifest()": "IAAv2",
            "\u003cInput1\u003e.i()": "IAAv0",
            "\u003cInput1\u003e.getApplicationContext()": "IAAv1"
          },
          "stringMap": {},
          "strings": {}
        }
      ]
    },
    "17": {
      "startMethod": "com.txwqz.qlxws121499.BootReceiver.onReceive(Landroid/content/Context;Landroid/content/Intent;)V",
      "targetMethod": "org.apache.http.client.HttpClient.execute(Lorg/apache/http/client/methods/HttpUriRequest;)Lorg/apache/http/HttpResponse;",
      "eventChain": [
        {
          "start": "com.txwqz.qlxws121499.BootReceiver.onReceive(Landroid/content/Context;Landroid/content/Intent;)V",
          "target": "invokeinterface \u003c Application, Lorg/apache/http/client/HttpClient, execute(Lorg/apache/http/client/methods/HttpUriRequest;)Lorg/apache/http/HttpResponse; \u003e@447",
          "type": "sms",
          "constraintsFile": "constraints17_0.py",
          "variables": {
            "\u003cInput1\u003e.i()": "IAAv0",
            "\u003cInput1\u003e.getApplicationContext()": "IAAv1"
          },
          "stringMap": {},
          "strings": {}
        }
      ]
    },
    "18": {
      "startMethod": "com.txwqz.qlxws121499.AdActivity$3.onCancel(Landroid/content/DialogInterface;)V",
      "targetMethod": "org.apache.http.client.HttpClient.execute(Lorg/apache/http/client/methods/HttpUriRequest;)Lorg/apache/http/HttpResponse;",
      "eventChain": [
        {
          "start": "com.txwqz.qlxws121499.AdActivity.onCreate(Landroid/os/Bundle;)V",
          "target": "invokevirtual \u003c Application, Lcom/txwqz/qlxws121499/AdActivity$c, setOnCancelListener(Landroid/content/DialogInterface$OnCancelListener;)V \u003e@520",
          "type": "activity",
          "component": "com.txwqz.qlxws121499.AdActivity",
          "constraintsFile": "constraints18_0.py",
          "variables": {},
          "stringMap": {
            "7000": "mfpad",
            "7001": "MFP",
            "7002": "appwallad",
            "7003": "AW",
            "7004": "",
            "7005": "lpad",
            "7006": "FP",
            "7007": "OLAU",
            "7008": "DAU",
            "7009": "DCC",
            "7010": "DCM"
          },
          "strings": {
            "IAAv3": "",
            "IAAv0": ""
          }
        },
        {
          "start": "com.ozhar.WonderfulWorld.Settings.onCreate(Landroid/os/Bundle;)V",
          "target": "invokeinterface \u003c Application, Landroid/content/SharedPreferences$Editor, putBoolean(Ljava/lang/String;Z)Landroid/content/SharedPreferences$Editor; \u003e@49",
          "type": "activity",
          "component": "com.ozhar.WonderfulWorld.Settings",
          "constraintsFile": "constraints18_1.py",
          "variables": {},
          "stringMap": {},
          "strings": {}
        },
        {
          "start": "com.ozhar.WonderfulWorld.Settings.onCreate(Landroid/os/Bundle;)V",
          "target": "",
          "type": "activity",
          "component": "com.ozhar.WonderfulWorld.Settings",
          "constraintsFile": "constraints18_2.py",
          "variables": {},
          "stringMap": {},
          "strings": {}
        },
        {
          "start": "com.txwqz.qlxws121499.AdActivity$3.onCancel(Landroid/content/DialogInterface;)V",
          "target": "invokeinterface \u003c Application, Lorg/apache/http/client/HttpClient, execute(Lorg/apache/http/client/methods/HttpUriRequest;)Lorg/apache/http/HttpResponse; \u003e@447",
          "type": "ui",
          "activities": [
            "com.ozhar.WonderfulWorld.Main"
          ],
          "listener": "com.txwqz.qlxws121499.AdActivity$3",
          "listenerMethod": "onCancel",
          "uiType": "onCancel",
          "constraintsFile": "constraints18_3.py",
          "variables": {
            "SharedPreferences\u003cinterstitialads\u003e": "IAAv1"
          },
          "stringMap": {},
          "strings": {}
        }
      ]
    },
    "19": {
      "startMethod": "com.txwqz.qlxws121499.AdActivity$3.onCancel(Landroid/content/DialogInterface;)V",
      "targetMethod": "java.net.URL.openConnection()Ljava/net/URLConnection;",
      "eventChain": [
        {
          "start": "com.txwqz.qlxws121499.AdActivity.onCreate(Landroid/os/Bundle;)V",
          "target": "invokevirtual \u003c Application, Lcom/txwqz/qlxws121499/AdActivity$c, setOnCancelListener(Landroid/content/DialogInterface$OnCancelListener;)V \u003e@520",
          "type": "activity",
          "component": "com.txwqz.qlxws121499.AdActivity",
          "constraintsFile": "constraints19_0.py",
          "variables": {},
          "stringMap": {
            "7000": "mfpad",
            "7001": "MFP",
            "7002": "appwallad",
            "7003": "AW",
            "7004": "",
            "7005": "lpad",
            "7006": "FP",
            "7007": "OLAU",
            "7008": "DAU",
            "7009": "DCC",
            "7010": "DCM"
          },
          "strings": {
            "IAAv3": "",
            "IAAv0": ""
          }
        },
        {
          "start": "com.ozhar.WonderfulWorld.Settings.onCreate(Landroid/os/Bundle;)V",
          "target": "invokeinterface \u003c Application, Landroid/content/SharedPreferences$Editor, putBoolean(Ljava/lang/String;Z)Landroid/content/SharedPreferences$Editor; \u003e@48",
          "type": "activity",
          "component": "com.ozhar.WonderfulWorld.Settings",
          "constraintsFile": "constraints19_1.py",
          "variables": {},
          "stringMap": {},
          "strings": {}
        },
        {
          "start": "com.ozhar.WonderfulWorld.Settings.onCreate(Landroid/os/Bundle;)V",
          "target": "invokeinterface \u003c Application, Landroid/content/SharedPreferences$Editor, putBoolean(Ljava/lang/String;Z)Landroid/content/SharedPreferences$Editor; \u003e@49",
          "type": "activity",
          "component": "com.ozhar.WonderfulWorld.Settings",
          "constraintsFile": "constraints19_2.py",
          "variables": {},
          "stringMap": {},
          "strings": {}
        },
        {
          "start": "com.ozhar.WonderfulWorld.Settings.onCreate(Landroid/os/Bundle;)V",
          "target": "invokeinterface \u003c Application, Landroid/content/SharedPreferences$Editor, putBoolean(Ljava/lang/String;Z)Landroid/content/SharedPreferences$Editor; \u003e@77",
          "type": "activity",
          "component": "com.ozhar.WonderfulWorld.Settings",
          "constraintsFile": "constraints19_3.py",
          "variables": {},
          "stringMap": {},
          "strings": {}
        },
        {
          "start": "com.ozhar.WonderfulWorld.Settings.onCreate(Landroid/os/Bundle;)V",
          "target": "invokeinterface \u003c Application, Landroid/content/SharedPreferences$Editor, putBoolean(Ljava/lang/String;Z)Landroid/content/SharedPreferences$Editor; \u003e@48",
          "type": "activity",
          "component": "com.ozhar.WonderfulWorld.Settings",
          "constraintsFile": "constraints19_4.py",
          "variables": {},
          "stringMap": {},
          "strings": {}
        },
        {
          "start": "com.ozhar.WonderfulWorld.Settings.onCreate(Landroid/os/Bundle;)V",
          "target": "",
          "type": "activity",
          "component": "com.ozhar.WonderfulWorld.Settings",
          "constraintsFile": "constraints19_5.py",
          "variables": {},
          "stringMap": {},
          "strings": {}
        },
        {
          "start": "com.txwqz.qlxws121499.AdActivity$3.onCancel(Landroid/content/DialogInterface;)V",
          "target": "invokevirtual \u003c Application, Ljava/net/URL, openConnection()Ljava/net/URLConnection; \u003e@21",
          "type": "ui",
          "activities": [
            "com.ozhar.WonderfulWorld.Main"
          ],
          "listener": "com.txwqz.qlxws121499.AdActivity$3",
          "listenerMethod": "onCancel",
          "uiType": "onCancel",
          "constraintsFile": "constraints19_6.py",
          "variables": {
            "System.currentTimeMillis()": "IAAv11",
            "SharedPreferences\u003cappwall\u003e": "IAAv3",
            "SharedPreferences\u003cinterstitialads\u003e": "IAAv1",
            "SharedPreferences\u003cvideoad\u003e": "IAAv4",
            "SharedPreferences\u003coverylayad\u003e": "IAAv2"
          },
          "stringMap": {},
          "strings": {}
        }
      ]
    },
    "20": {
      "startMethod": "com.txwqz.qlxws121499.AdActivity$3.onCancel(Landroid/content/DialogInterface;)V",
      "targetMethod": "java.lang.reflect.Method.invoke(Ljava/lang/Object;[Ljava/lang/Object;)Ljava/lang/Object;",
      "eventChain": [
        {
          "start": "com.txwqz.qlxws121499.AdActivity.onCreate(Landroid/os/Bundle;)V",
          "target": "invokevirtual \u003c Application, Lcom/txwqz/qlxws121499/AdActivity$c, setOnCancelListener(Landroid/content/DialogInterface$OnCancelListener;)V \u003e@520",
          "type": "activity",
          "component": "com.txwqz.qlxws121499.AdActivity",
          "constraintsFile": "constraints20_0.py",
          "variables": {},
          "stringMap": {
            "7000": "mfpad",
            "7001": "MFP",
            "7002": "appwallad",
            "7003": "AW",
            "7004": "",
            "7005": "lpad",
            "7006": "FP",
            "7007": "OLAU",
            "7008": "DAU",
            "7009": "DCC",
            "7010": "DCM"
          },
          "strings": {
            "IAAv3": "",
            "IAAv0": ""
          }
        },
        {
          "start": "com.txwqz.qlxws121499.AdActivity$3.onCancel(Landroid/content/DialogInterface;)V",
          "target": "invokevirtual \u003c Application, Ljava/lang/reflect/Method, invoke(Ljava/lang/Object;[Ljava/lang/Object;)Ljava/lang/Object; \u003e@103",
          "type": "ui",
          "activities": [
            "com.ozhar.WonderfulWorld.Main"
          ],
          "listener": "com.txwqz.qlxws121499.AdActivity$3",
          "listenerMethod": "onCancel",
          "uiType": "onCancel",
          "constraintsFile": "constraints20_1.py",
          "variables": {},
          "stringMap": {
            "7000": ""
          },
          "strings": {
            "IAAv1": ""
          }
        }
      ]
    },
    "21": {
      "startMethod": "com.txwqz.qlxws121499.AdActivity$c$2.onClick(Landroid/view/View;)V",
      "targetMethod": "java.lang.reflect.Method.invoke(Ljava/lang/Object;[Ljava/lang/Object;)Ljava/lang/Object;",
      "eventChain": [
        {
          "start": "com.txwqz.qlxws121499.AdActivity.onCreate(Landroid/os/Bundle;)V",
          "target": "invokevirtual \u003c Application, Landroid/widget/Button, setOnClickListener(Landroid/view/View$OnClickListener;)V \u003e@847",
          "type": "activity",
          "component": "com.txwqz.qlxws121499.AdActivity",
          "constraintsFile": "constraints21_0.py",
          "variables": {},
          "stringMap": {
            "7000": "mfpad",
            "7001": "MFP",
            "7002": "appwallad",
            "7003": "AW",
            "7004": "",
            "7005": "lpad",
            "7006": "FP",
            "7007": "OLAU",
            "7008": "DAU",
            "7009": "DCC",
            "7010": "DCM"
          },
          "strings": {
            "IAAv3": "",
            "IAAv0": "",
            "IAAv16": ""
          }
        },
        {
          "start": "com.txwqz.qlxws121499.AdActivity$c$2.onClick(Landroid/view/View;)V",
          "target": "invokevirtual \u003c Application, Ljava/lang/reflect/Method, invoke(Ljava/lang/Object;[Ljava/lang/Object;)Ljava/lang/Object; \u003e@103",
          "type": "ui",
          "activities": [
            "com.ozhar.WonderfulWorld.Main"
          ],
          "listener": "com.txwqz.qlxws121499.AdActivity$c$2",
          "listenerMethod": "onClick",
          "uiType": "onClick",
          "constraintsFile": "constraints21_1.py",
          "variables": {},
          "stringMap": {
            "7000": ""
          },
          "strings": {
            "IAAv1": ""
          }
        }
      ]
    },
    "22": {
      "startMethod": "com.txwqz.qlxws121499.AdActivity$c$2.onClick(Landroid/view/View;)V",
      "targetMethod": "org.apache.http.client.HttpClient.execute(Lorg/apache/http/client/methods/HttpUriRequest;)Lorg/apache/http/HttpResponse;",
      "eventChain": [
        {
          "start": "com.txwqz.qlxws121499.AdActivity.onCreate(Landroid/os/Bundle;)V",
          "target": "invokevirtual \u003c Application, Landroid/widget/Button, setOnClickListener(Landroid/view/View$OnClickListener;)V \u003e@847",
          "type": "activity",
          "component": "com.txwqz.qlxws121499.AdActivity",
          "constraintsFile": "constraints22_0.py",
          "variables": {},
          "stringMap": {
            "7000": "mfpad",
            "7001": "MFP",
            "7002": "appwallad",
            "7003": "AW",
            "7004": "",
            "7005": "lpad",
            "7006": "FP",
            "7007": "OLAU",
            "7008": "DAU",
            "7009": "DCC",
            "7010": "DCM"
          },
          "strings": {
            "IAAv3": "",
            "IAAv0": "",
            "IAAv16": ""
          }
        },
        {
          "start": "com.ozhar.WonderfulWorld.Settings.onCreate(Landroid/os/Bundle;)V",
          "target": "invokeinterface \u003c Application, Landroid/content/SharedPreferences$Editor, putBoolean(Ljava/lang/String;Z)Landroid/content/SharedPreferences$Editor; \u003e@49",
          "type": "activity",
          "component": "com.ozhar.WonderfulWorld.Settings",
          "constraintsFile": "constraints22_1.py",
          "variables": {},
          "stringMap": {},
          "strings": {}
        },
        {
          "start": "com.ozhar.WonderfulWorld.Settings.onCreate(Landroid/os/Bundle;)V",
          "target": "",
          "type": "activity",
          "component": "com.ozhar.WonderfulWorld.Settings",
          "constraintsFile": "constraints22_2.py",
          "variables": {},
          "stringMap": {},
          "strings": {}
        },
        {
          "start": "com.txwqz.qlxws121499.AdActivity$c$2.onClick(Landroid/view/View;)V",
          "target": "invokeinterface \u003c Application, Lorg/apache/http/client/HttpClient, execute(Lorg/apache/http/client/methods/HttpUriRequest;)Lorg/apache/http/HttpResponse; \u003e@447",
          "type": "ui",
          "activities": [
            "com.ozhar.WonderfulWorld.Main"
          ],
          "listener": "com.txwqz.qlxws121499.AdActivity$c$2",
          "listenerMethod": "onClick",
          "uiType": "onClick",
          "constraintsFile": "constraints22_3.py",
          "variables": {
            "SharedPreferences\u003cinterstitialads\u003e": "IAAv1"
          },
          "stringMap": {},
          "strings": {}
        }
      ]
    },
    "23": {
      "startMethod": "com.txwqz.qlxws121499.AdActivity$c$2.onClick(Landroid/view/View;)V",
      "targetMethod": "java.net.URL.openConnection()Ljava/net/URLConnection;",
      "eventChain": [
        {
          "start": "com.txwqz.qlxws121499.AdActivity.onCreate(Landroid/os/Bundle;)V",
          "target": "invokevirtual \u003c Application, Landroid/widget/Button, setOnClickListener(Landroid/view/View$OnClickListener;)V \u003e@847",
          "type": "activity",
          "component": "com.txwqz.qlxws121499.AdActivity",
          "constraintsFile": "constraints23_0.py",
          "variables": {},
          "stringMap": {
            "7000": "mfpad",
            "7001": "MFP",
            "7002": "appwallad",
            "7003": "AW",
            "7004": "",
            "7005": "lpad",
            "7006": "FP",
            "7007": "OLAU",
            "7008": "DAU",
            "7009": "DCC",
            "7010": "DCM"
          },
          "strings": {
            "IAAv3": "",
            "IAAv0": "",
            "IAAv16": ""
          }
        },
        {
          "start": "com.ozhar.WonderfulWorld.Settings.onCreate(Landroid/os/Bundle;)V",
          "target": "invokeinterface \u003c Application, Landroid/content/SharedPreferences$Editor, putBoolean(Ljava/lang/String;Z)Landroid/content/SharedPreferences$Editor; \u003e@48",
          "type": "activity",
          "component": "com.ozhar.WonderfulWorld.Settings",
          "constraintsFile": "constraints23_1.py",
          "variables": {},
          "stringMap": {},
          "strings": {}
        },
        {
          "start": "com.ozhar.WonderfulWorld.Settings.onCreate(Landroid/os/Bundle;)V",
          "target": "invokeinterface \u003c Application, Landroid/content/SharedPreferences$Editor, putBoolean(Ljava/lang/String;Z)Landroid/content/SharedPreferences$Editor; \u003e@49",
          "type": "activity",
          "component": "com.ozhar.WonderfulWorld.Settings",
          "constraintsFile": "constraints23_2.py",
          "variables": {},
          "stringMap": {},
          "strings": {}
        },
        {
          "start": "com.ozhar.WonderfulWorld.Settings.onCreate(Landroid/os/Bundle;)V",
          "target": "invokeinterface \u003c Application, Landroid/content/SharedPreferences$Editor, putBoolean(Ljava/lang/String;Z)Landroid/content/SharedPreferences$Editor; \u003e@77",
          "type": "activity",
          "component": "com.ozhar.WonderfulWorld.Settings",
          "constraintsFile": "constraints23_3.py",
          "variables": {},
          "stringMap": {},
          "strings": {}
        },
        {
          "start": "com.ozhar.WonderfulWorld.Settings.onCreate(Landroid/os/Bundle;)V",
          "target": "invokeinterface \u003c Application, Landroid/content/SharedPreferences$Editor, putBoolean(Ljava/lang/String;Z)Landroid/content/SharedPreferences$Editor; \u003e@48",
          "type": "activity",
          "component": "com.ozhar.WonderfulWorld.Settings",
          "constraintsFile": "constraints23_4.py",
          "variables": {},
          "stringMap": {},
          "strings": {}
        },
        {
          "start": "com.ozhar.WonderfulWorld.Settings.onCreate(Landroid/os/Bundle;)V",
          "target": "",
          "type": "activity",
          "component": "com.ozhar.WonderfulWorld.Settings",
          "constraintsFile": "constraints23_5.py",
          "variables": {},
          "stringMap": {},
          "strings": {}
        },
        {
          "start": "com.txwqz.qlxws121499.AdActivity$c$2.onClick(Landroid/view/View;)V",
          "target": "invokevirtual \u003c Application, Ljava/net/URL, openConnection()Ljava/net/URLConnection; \u003e@21",
          "type": "ui",
          "activities": [
            "com.ozhar.WonderfulWorld.Main"
          ],
          "listener": "com.txwqz.qlxws121499.AdActivity$c$2",
          "listenerMethod": "onClick",
          "uiType": "onClick",
          "constraintsFile": "constraints23_6.py",
          "variables": {
            "System.currentTimeMillis()": "IAAv11",
            "SharedPreferences\u003cappwall\u003e": "IAAv3",
            "SharedPreferences\u003cinterstitialads\u003e": "IAAv1",
            "SharedPreferences\u003cvideoad\u003e": "IAAv4",
            "SharedPreferences\u003coverylayad\u003e": "IAAv2"
          },
          "stringMap": {},
          "strings": {}
        }
      ]
    },
    "24": {
      "startMethod": "com.txwqz.qlxws121499.VActivity.onClick(Landroid/view/View;)V",
      "targetMethod": "org.apache.http.client.HttpClient.execute(Lorg/apache/http/client/methods/HttpUriRequest;)Lorg/apache/http/HttpResponse;",
      "eventChain": [
        {
          "start": "com.txwqz.qlxws121499.VActivity.onCreate(Landroid/os/Bundle;)V",
          "target": "invokevirtual \u003c Application, Landroid/widget/Button, setOnClickListener(Landroid/view/View$OnClickListener;)V \u003e@163",
          "type": "activity",
          "component": "com.txwqz.qlxws121499.VActivity",
          "constraintsFile": "constraints24_0.py",
          "variables": {},
          "stringMap": {
            "7000": "VPAID"
          },
          "strings": {}
        },
        {
          "start": "com.txwqz.qlxws121499.VActivity.onCreate(Landroid/os/Bundle;)V",
          "target": "PC@3",
          "type": "activity",
          "component": "com.txwqz.qlxws121499.VActivity",
          "constraintsFile": "constraints24_1.py",
          "variables": {
            "\u003cChainedInput1\u003e.getId()": "IAAv0"
          },
          "stringMap": {
            "7000": ""
          },
          "strings": {}
        },
        {
          "start": "com.txwqz.qlxws121499.VActivity.\u003cinit\u003e()V",
          "target": "PC@34",
          "type": "",
          "constraintsFile": "constraints24_2.py",
          "variables": {
            "\u003cChainedInput1\u003e.getId()": "IAAv0"
          },
          "stringMap": {
            "7000": ""
          },
          "strings": {}
        },
        {
          "start": "com.txwqz.qlxws121499.VActivity.onClick(Landroid/view/View;)V",
          "target": "invokeinterface \u003c Application, Lorg/apache/http/client/HttpClient, execute(Lorg/apache/http/client/methods/HttpUriRequest;)Lorg/apache/http/HttpResponse; \u003e@202",
          "type": "ui",
          "activities": [
            "com.txwqz.qlxws121499.VActivity"
          ],
          "listener": "com.txwqz.qlxws121499.VActivity",
          "listenerMethod": "onClick",
          "uiType": "onClick",
          "constraintsFile": "constraints24_3.py",
          "variables": {
            "\u003cChainedInput1\u003e.getId()": "IAAv0"
          },
          "stringMap": {
            "7000": ""
          },
          "strings": {}
        }
      ]
    },
    "25": {
      "startMethod": "com.txwqz.qlxws121499.VActivity.onClick(Landroid/view/View;)V",
      "targetMethod": "org.apache.http.impl.client.DefaultHttpClient.execute(Lorg/apache/http/client/methods/HttpUriRequest;)Lorg/apache/http/HttpResponse;",
      "eventChain": [
        {
          "start": "com.txwqz.qlxws121499.VActivity.onCreate(Landroid/os/Bundle;)V",
          "target": "invokevirtual \u003c Application, Landroid/widget/Button, setOnClickListener(Landroid/view/View$OnClickListener;)V \u003e@163",
          "type": "activity",
          "component": "com.txwqz.qlxws121499.VActivity",
          "constraintsFile": "constraints25_0.py",
          "variables": {},
          "stringMap": {
            "7000": "VPAID"
          },
          "strings": {}
        },
        {
          "start": "com.txwqz.qlxws121499.VActivity.onCreate(Landroid/os/Bundle;)V",
          "target": "PC@3",
          "type": "activity",
          "component": "com.txwqz.qlxws121499.VActivity",
          "constraintsFile": "constraints25_1.py",
          "variables": {
            "\u003cChainedInput1\u003e.getId()": "IAAv0"
          },
          "stringMap": {
            "7000": ""
          },
          "strings": {}
        },
        {
          "start": "com.txwqz.qlxws121499.VActivity.\u003cinit\u003e()V",
          "target": "PC@34",
          "type": "",
          "constraintsFile": "constraints25_2.py",
          "variables": {
            "\u003cChainedInput1\u003e.getId()": "IAAv0"
          },
          "stringMap": {
            "7000": ""
          },
          "strings": {}
        },
        {
          "start": "com.txwqz.qlxws121499.VActivity.onClick(Landroid/view/View;)V",
          "target": "invokevirtual \u003c Application, Lorg/apache/http/impl/client/DefaultHttpClient, execute(Lorg/apache/http/client/methods/HttpUriRequest;)Lorg/apache/http/HttpResponse; \u003e@104",
          "type": "ui",
          "activities": [
            "com.txwqz.qlxws121499.VActivity"
          ],
          "listener": "com.txwqz.qlxws121499.VActivity",
          "listenerMethod": "onClick",
          "uiType": "onClick",
          "constraintsFile": "constraints25_3.py",
          "variables": {
            "\u003cChainedInput1\u003e.getId()": "IAAv0"
          },
          "stringMap": {
            "7000": ""
          },
          "strings": {}
        }
      ]
    },
    "26": {
      "startMethod": "com.txwqz.qlxws121499.AdActivity$c$1.onClick(Landroid/view/View;)V",
      "targetMethod": "org.apache.http.client.HttpClient.execute(Lorg/apache/http/client/methods/HttpUriRequest;)Lorg/apache/http/HttpResponse;",
      "eventChain": [
        {
          "start": "com.txwqz.qlxws121499.AdActivity.onCreate(Landroid/os/Bundle;)V",
          "target": "invokevirtual \u003c Application, Landroid/widget/TextView, setOnClickListener(Landroid/view/View$OnClickListener;)V \u003e@832",
          "type": "activity",
          "component": "com.txwqz.qlxws121499.AdActivity",
          "constraintsFile": "constraints26_0.py",
          "variables": {},
          "stringMap": {
            "7000": "mfpad",
            "7001": "MFP",
            "7002": "appwallad",
            "7003": "AW",
            "7004": "",
            "7005": "lpad",
            "7006": "FP",
            "7007": "OLAU",
            "7008": "DAU",
            "7009": "DCC",
            "7010": "DCM"
          },
          "strings": {
            "IAAv3": "",
            "IAAv0": "",
            "IAAv16": ""
          }
        },
        {
          "start": "com.ozhar.WonderfulWorld.Settings.onCreate(Landroid/os/Bundle;)V",
          "target": "invokeinterface \u003c Application, Landroid/content/SharedPreferences$Editor, putBoolean(Ljava/lang/String;Z)Landroid/content/SharedPreferences$Editor; \u003e@49",
          "type": "activity",
          "component": "com.ozhar.WonderfulWorld.Settings",
          "constraintsFile": "constraints26_1.py",
          "variables": {},
          "stringMap": {},
          "strings": {}
        },
        {
          "start": "com.ozhar.WonderfulWorld.Settings.onCreate(Landroid/os/Bundle;)V",
          "target": "",
          "type": "activity",
          "component": "com.ozhar.WonderfulWorld.Settings",
          "constraintsFile": "constraints26_2.py",
          "variables": {},
          "stringMap": {},
          "strings": {}
        },
        {
          "start": "com.txwqz.qlxws121499.AdActivity$c$1.onClick(Landroid/view/View;)V",
          "target": "invokeinterface \u003c Application, Lorg/apache/http/client/HttpClient, execute(Lorg/apache/http/client/methods/HttpUriRequest;)Lorg/apache/http/HttpResponse; \u003e@447",
          "type": "ui",
          "activities": [
            "com.ozhar.WonderfulWorld.Main"
          ],
          "listener": "com.txwqz.qlxws121499.AdActivity$c$1",
          "listenerMethod": "onClick",
          "uiType": "onClick",
          "constraintsFile": "constraints26_3.py",
          "variables": {
            "SharedPreferences\u003cinterstitialads\u003e": "IAAv1"
          },
          "stringMap": {},
          "strings": {}
        }
      ]
    },
    "27": {
      "startMethod": "com.txwqz.qlxws121499.AdActivity$c$1.onClick(Landroid/view/View;)V",
      "targetMethod": "java.net.URL.openConnection()Ljava/net/URLConnection;",
      "eventChain": [
        {
          "start": "com.txwqz.qlxws121499.AdActivity.onCreate(Landroid/os/Bundle;)V",
          "target": "invokevirtual \u003c Application, Landroid/widget/TextView, setOnClickListener(Landroid/view/View$OnClickListener;)V \u003e@832",
          "type": "activity",
          "component": "com.txwqz.qlxws121499.AdActivity",
          "constraintsFile": "constraints27_0.py",
          "variables": {},
          "stringMap": {
            "7000": "mfpad",
            "7001": "MFP",
            "7002": "appwallad",
            "7003": "AW",
            "7004": "",
            "7005": "lpad",
            "7006": "FP",
            "7007": "OLAU",
            "7008": "DAU",
            "7009": "DCC",
            "7010": "DCM"
          },
          "strings": {
            "IAAv3": "",
            "IAAv0": "",
            "IAAv16": ""
          }
        },
        {
          "start": "com.ozhar.WonderfulWorld.Settings.onCreate(Landroid/os/Bundle;)V",
          "target": "invokeinterface \u003c Application, Landroid/content/SharedPreferences$Editor, putBoolean(Ljava/lang/String;Z)Landroid/content/SharedPreferences$Editor; \u003e@48",
          "type": "activity",
          "component": "com.ozhar.WonderfulWorld.Settings",
          "constraintsFile": "constraints27_1.py",
          "variables": {},
          "stringMap": {},
          "strings": {}
        },
        {
          "start": "com.ozhar.WonderfulWorld.Settings.onCreate(Landroid/os/Bundle;)V",
          "target": "invokeinterface \u003c Application, Landroid/content/SharedPreferences$Editor, putBoolean(Ljava/lang/String;Z)Landroid/content/SharedPreferences$Editor; \u003e@49",
          "type": "activity",
          "component": "com.ozhar.WonderfulWorld.Settings",
          "constraintsFile": "constraints27_2.py",
          "variables": {},
          "stringMap": {},
          "strings": {}
        },
        {
          "start": "com.ozhar.WonderfulWorld.Settings.onCreate(Landroid/os/Bundle;)V",
          "target": "invokeinterface \u003c Application, Landroid/content/SharedPreferences$Editor, putBoolean(Ljava/lang/String;Z)Landroid/content/SharedPreferences$Editor; \u003e@77",
          "type": "activity",
          "component": "com.ozhar.WonderfulWorld.Settings",
          "constraintsFile": "constraints27_3.py",
          "variables": {},
          "stringMap": {},
          "strings": {}
        },
        {
          "start": "com.ozhar.WonderfulWorld.Settings.onCreate(Landroid/os/Bundle;)V",
          "target": "invokeinterface \u003c Application, Landroid/content/SharedPreferences$Editor, putBoolean(Ljava/lang/String;Z)Landroid/content/SharedPreferences$Editor; \u003e@48",
          "type": "activity",
          "component": "com.ozhar.WonderfulWorld.Settings",
          "constraintsFile": "constraints27_4.py",
          "variables": {},
          "stringMap": {},
          "strings": {}
        },
        {
          "start": "com.ozhar.WonderfulWorld.Settings.onCreate(Landroid/os/Bundle;)V",
          "target": "",
          "type": "activity",
          "component": "com.ozhar.WonderfulWorld.Settings",
          "constraintsFile": "constraints27_5.py",
          "variables": {},
          "stringMap": {},
          "strings": {}
        },
        {
          "start": "com.txwqz.qlxws121499.AdActivity$c$1.onClick(Landroid/view/View;)V",
          "target": "invokevirtual \u003c Application, Ljava/net/URL, openConnection()Ljava/net/URLConnection; \u003e@21",
          "type": "ui",
          "activities": [
            "com.ozhar.WonderfulWorld.Main"
          ],
          "listener": "com.txwqz.qlxws121499.AdActivity$c$1",
          "listenerMethod": "onClick",
          "uiType": "onClick",
          "constraintsFile": "constraints27_6.py",
          "variables": {
            "System.currentTimeMillis()": "IAAv11",
            "SharedPreferences\u003cappwall\u003e": "IAAv3",
            "SharedPreferences\u003cinterstitialads\u003e": "IAAv1",
            "SharedPreferences\u003cvideoad\u003e": "IAAv4",
            "SharedPreferences\u003coverylayad\u003e": "IAAv2"
          },
          "stringMap": {},
          "strings": {}
        }
      ]
    },
    "28": {
      "startMethod": "com.txwqz.qlxws121499.AdActivity$c$1.onClick(Landroid/view/View;)V",
      "targetMethod": "java.lang.reflect.Method.invoke(Ljava/lang/Object;[Ljava/lang/Object;)Ljava/lang/Object;",
      "eventChain": [
        {
          "start": "com.txwqz.qlxws121499.AdActivity.onCreate(Landroid/os/Bundle;)V",
          "target": "invokevirtual \u003c Application, Landroid/widget/TextView, setOnClickListener(Landroid/view/View$OnClickListener;)V \u003e@832",
          "type": "activity",
          "component": "com.txwqz.qlxws121499.AdActivity",
          "constraintsFile": "constraints28_0.py",
          "variables": {},
          "stringMap": {
            "7000": "mfpad",
            "7001": "MFP",
            "7002": "appwallad",
            "7003": "AW",
            "7004": "",
            "7005": "lpad",
            "7006": "FP",
            "7007": "OLAU",
            "7008": "DAU",
            "7009": "DCC",
            "7010": "DCM"
          },
          "strings": {
            "IAAv3": "",
            "IAAv0": "",
            "IAAv16": ""
          }
        },
        {
          "start": "com.txwqz.qlxws121499.AdActivity$c$1.onClick(Landroid/view/View;)V",
          "target": "invokevirtual \u003c Application, Ljava/lang/reflect/Method, invoke(Ljava/lang/Object;[Ljava/lang/Object;)Ljava/lang/Object; \u003e@103",
          "type": "ui",
          "activities": [
            "com.ozhar.WonderfulWorld.Main"
          ],
          "listener": "com.txwqz.qlxws121499.AdActivity$c$1",
          "listenerMethod": "onClick",
          "uiType": "onClick",
          "constraintsFile": "constraints28_1.py",
          "variables": {},
          "stringMap": {
            "7000": ""
          },
          "strings": {
            "IAAv1": ""
          }
        }
      ]
    },
    "29": {
      "startMethod": "com.txwqz.qlxws121499.VActivity$1.onTouch(Landroid/view/View;Landroid/view/MotionEvent;)Z",
      "targetMethod": "org.apache.http.impl.client.DefaultHttpClient.execute(Lorg/apache/http/client/methods/HttpUriRequest;)Lorg/apache/http/HttpResponse;",
      "eventChain": [
        {
          "start": "com.txwqz.qlxws121499.VActivity.onCreate(Landroid/os/Bundle;)V",
          "target": "invokevirtual \u003c Application, Landroid/widget/VideoView, setOnTouchListener(Landroid/view/View$OnTouchListener;)V \u003e@275",
          "type": "activity",
          "component": "com.txwqz.qlxws121499.VActivity",
          "constraintsFile": "constraints29_0.py",
          "variables": {},
          "stringMap": {
            "7000": "VPAID"
          },
          "strings": {}
        },
        {
          "start": "com.txwqz.qlxws121499.VActivity$1.onTouch(Landroid/view/View;Landroid/view/MotionEvent;)Z",
          "target": "invokevirtual \u003c Application, Lorg/apache/http/impl/client/DefaultHttpClient, execute(Lorg/apache/http/client/methods/HttpUriRequest;)Lorg/apache/http/HttpResponse; \u003e@104",
          "type": "ui",
          "activities": [
            "com.txwqz.qlxws121499.VActivity"
          ],
          "listener": "com.txwqz.qlxws121499.VActivity$1",
          "listenerMethod": "onTouch",
          "uiType": "onTouch",
          "constraintsFile": "constraints29_1.py",
          "variables": {
            "\u003cChainedInput1\u003e": "IAAv0",
            "\u003cChainedInput2\u003e.getAction()": "IAAv2"
          },
          "stringMap": {
            "7000": ""
          },
          "strings": {
            "IAAv3": ""
          }
        }
      ]
    },
    "30": {
      "startMethod": "com.txwqz.qlxws121499.VActivity$1.onTouch(Landroid/view/View;Landroid/view/MotionEvent;)Z",
      "targetMethod": "org.apache.http.client.HttpClient.execute(Lorg/apache/http/client/methods/HttpUriRequest;)Lorg/apache/http/HttpResponse;",
      "eventChain": [
        {
          "start": "com.txwqz.qlxws121499.VActivity.onCreate(Landroid/os/Bundle;)V",
          "target": "invokevirtual \u003c Application, Landroid/widget/VideoView, setOnTouchListener(Landroid/view/View$OnTouchListener;)V \u003e@275",
          "type": "activity",
          "component": "com.txwqz.qlxws121499.VActivity",
          "constraintsFile": "constraints30_0.py",
          "variables": {},
          "stringMap": {
            "7000": "VPAID"
          },
          "strings": {}
        },
        {
          "start": "com.txwqz.qlxws121499.VActivity$1.onTouch(Landroid/view/View;Landroid/view/MotionEvent;)Z",
          "target": "invokeinterface \u003c Application, Lorg/apache/http/client/HttpClient, execute(Lorg/apache/http/client/methods/HttpUriRequest;)Lorg/apache/http/HttpResponse; \u003e@202",
          "type": "ui",
          "activities": [
            "com.txwqz.qlxws121499.VActivity"
          ],
          "listener": "com.txwqz.qlxws121499.VActivity$1",
          "listenerMethod": "onTouch",
          "uiType": "onTouch",
          "constraintsFile": "constraints30_1.py",
          "variables": {
            "\u003cChainedInput1\u003e": "IAAv0",
            "\u003cChainedInput2\u003e.getAction()": "IAAv2"
          },
          "stringMap": {
            "7000": ""
          },
          "strings": {
            "IAAv3": ""
          }
        }
      ]
    },
    "31": {
      "startMethod": "com.txwqz.qlxws121499.VActivity.onCompletion(Landroid/media/MediaPlayer;)V",
      "targetMethod": "org.apache.http.client.HttpClient.execute(Lorg/apache/http/client/methods/HttpUriRequest;)Lorg/apache/http/HttpResponse;",
      "eventChain": [
        {
          "start": "com.txwqz.qlxws121499.VActivity.onCreate(Landroid/os/Bundle;)V",
          "target": "invokevirtual \u003c Application, Landroid/widget/VideoView, setOnCompletionListener(Landroid/media/MediaPlayer$OnCompletionListener;)V \u003e@299",
          "type": "activity",
          "component": "com.txwqz.qlxws121499.VActivity",
          "constraintsFile": "constraints31_0.py",
          "variables": {},
          "stringMap": {
            "7000": "VPAID"
          },
          "strings": {}
        },
        {
          "start": "com.txwqz.qlxws121499.VActivity.onCreate(Landroid/os/Bundle;)V",
          "target": "PC@3",
          "type": "activity",
          "component": "com.txwqz.qlxws121499.VActivity",
          "constraintsFile": "constraints31_1.py",
          "variables": {
            "\u003cChainedInput1\u003e.release().c.s()": "IAAv7",
            "\u003cChainedInput1\u003e.release().a": "IAAv2"
          },
          "stringMap": {
            "7000": ""
          },
          "strings": {}
        },
        {
          "start": "com.txwqz.qlxws121499.VActivity.onCreate(Landroid/os/Bundle;)V",
          "target": "PC@126",
          "type": "activity",
          "component": "com.txwqz.qlxws121499.VActivity",
          "constraintsFile": "constraints31_2.py",
          "variables": {
            "\u003cChainedInput1\u003e.release().c.s()": "IAAv7",
            "\u003cChainedInput1\u003e.release().a": "IAAv2"
          },
          "stringMap": {
            "7000": "",
            "7001": "VPAID",
            "7002": "\u003cUI\u003e"
          },
          "strings": {}
        },
        {
          "start": "com.txwqz.qlxws121499.VActivity.onCompletion(Landroid/media/MediaPlayer;)V",
          "target": "invokeinterface \u003c Application, Lorg/apache/http/client/HttpClient, execute(Lorg/apache/http/client/methods/HttpUriRequest;)Lorg/apache/http/HttpResponse; \u003e@202",
          "type": "",
          "constraintsFile": "constraints31_3.py",
          "variables": {
            "\u003cChainedInput1\u003e.release().c.s()": "IAAv7",
            "\u003cChainedInput1\u003e.release().a": "IAAv2"
          },
          "stringMap": {
            "7000": ""
          },
          "strings": {}
        }
      ]
    },
    "32": {
      "startMethod": "com.txwqz.qlxws121499.VActivity.onCompletion(Landroid/media/MediaPlayer;)V",
      "targetMethod": "org.apache.http.impl.client.DefaultHttpClient.execute(Lorg/apache/http/client/methods/HttpUriRequest;)Lorg/apache/http/HttpResponse;",
      "eventChain": [
        {
          "start": "com.txwqz.qlxws121499.VActivity.onCreate(Landroid/os/Bundle;)V",
          "target": "invokevirtual \u003c Application, Landroid/widget/VideoView, setOnCompletionListener(Landroid/media/MediaPlayer$OnCompletionListener;)V \u003e@299",
          "type": "activity",
          "component": "com.txwqz.qlxws121499.VActivity",
          "constraintsFile": "constraints32_0.py",
          "variables": {},
          "stringMap": {
            "7000": "VPAID"
          },
          "strings": {}
        },
        {
          "start": "com.txwqz.qlxws121499.VActivity.onCreate(Landroid/os/Bundle;)V",
          "target": "PC@3",
          "type": "activity",
          "component": "com.txwqz.qlxws121499.VActivity",
          "constraintsFile": "constraints32_1.py",
          "variables": {
            "\u003cChainedInput1\u003e.release().c.s()": "IAAv7",
            "\u003cChainedInput1\u003e.release().a": "IAAv2"
          },
          "stringMap": {
            "7000": ""
          },
          "strings": {}
        },
        {
          "start": "com.txwqz.qlxws121499.VActivity.onCreate(Landroid/os/Bundle;)V",
          "target": "PC@126",
          "type": "activity",
          "component": "com.txwqz.qlxws121499.VActivity",
          "constraintsFile": "constraints32_2.py",
          "variables": {
            "\u003cChainedInput1\u003e.release().c.s()": "IAAv7",
            "\u003cChainedInput1\u003e.release().a": "IAAv2"
          },
          "stringMap": {
            "7000": "",
            "7001": "VPAID",
            "7002": "\u003cUI\u003e"
          },
          "strings": {}
        },
        {
          "start": "com.txwqz.qlxws121499.VActivity.onCompletion(Landroid/media/MediaPlayer;)V",
          "target": "invokevirtual \u003c Application, Lorg/apache/http/impl/client/DefaultHttpClient, execute(Lorg/apache/http/client/methods/HttpUriRequest;)Lorg/apache/http/HttpResponse; \u003e@104",
          "type": "",
          "constraintsFile": "constraints32_3.py",
          "variables": {
            "\u003cChainedInput1\u003e.release().c.s()": "IAAv7",
            "\u003cChainedInput1\u003e.release().a": "IAAv2"
          },
          "stringMap": {
            "7000": ""
          },
          "strings": {}
        }
      ]
    }
  }
}