{
  "packageName": "com.alicecallsbob.assist.sample",
  "mainActivity": "com.alicecallsbob.assist.sample.MainActivity",
  "callPaths": {
    "0": {
      "startMethod": "com.alicecallsbob.assist.sample.MainActivity.onCreate(Landroid/os/Bundle;)V",
      "targetMethod": "android.media.AudioManager.setSpeakerphoneOn(Z)V",
      "eventChain": [
        {
          "start": "com.alicecallsbob.assist.sample.MainActivity.onCreate(Landroid/os/Bundle;)V",
          "target": "invokevirtual \u003c Application, Landroid/media/AudioManager, setSpeakerphoneOn(Z)V \u003e@36",
          "type": "activity",
          "component": "com.alicecallsbob.assist.sample.MainActivity",
          "constraintsFile": "constraints0_0.py",
          "variables": {
            "\u003cInput1\u003e": "IAAv0"
          },
          "stringMap": {},
          "strings": {}
        }
      ]
    },
    "1": {
      "startMethod": "com.alicecallsbob.assist.sample.MainActivity$1.onSharedPreferenceChanged(Landroid/content/SharedPreferences;Ljava/lang/String;)V",
      "targetMethod": "android.media.AudioManager.setSpeakerphoneOn(Z)V",
      "eventChain": [
        {
          "start": "com.alicecallsbob.assist.sample.MainActivity.onCreate(Landroid/os/Bundle;)V",
          "target": "invokeinterface \u003c Application, Landroid/content/SharedPreferences, registerOnSharedPreferenceChangeListener(Landroid/content/SharedPreferences$OnSharedPreferenceChangeListener;)V \u003e@17",
          "type": "activity",
          "component": "com.alicecallsbob.assist.sample.MainActivity",
          "constraintsFile": "constraints1_0.py",
          "variables": {
            "\u003cInput1\u003e": "IAAv0"
          },
          "stringMap": {},
          "strings": {}
        },
        {
          "start": "com.alicecallsbob.assist.sample.MainActivity$1.onSharedPreferenceChanged(Landroid/content/SharedPreferences;Ljava/lang/String;)V",
          "target": "invokevirtual \u003c Application, Landroid/media/AudioManager, setSpeakerphoneOn(Z)V \u003e@81",
          "type": "",
          "constraintsFile": "constraints1_1.py",
          "variables": {
            "\u003cInput2\u003e": "IAAv0"
          },
          "stringMap": {
            "7000": "assist-audio-output"
          },
          "strings": {
            "IAAv0": ""
          }
        }
      ]
    },
    "2": {
      "startMethod": "com.alicecallsbob.assist.sample.MainActivity$2.onClick(Landroid/view/View;)V",
      "targetMethod": "android.media.AudioManager.setSpeakerphoneOn(Z)V",
      "eventChain": [
        {
          "start": "com.alicecallsbob.assist.sample.MainActivity$2.onClick(Landroid/view/View;)V",
          "target": "invokevirtual \u003c Application, Landroid/media/AudioManager, setSpeakerphoneOn(Z)V \u003e@131",
          "type": "ui",
          "activities": [
            "com.alicecallsbob.assist.sample.MainActivity"
          ],
          "listener": "com.alicecallsbob.assist.sample.MainActivity$2",
          "listenerMethod": "onClick",
          "uiType": "onClick",
          "constraintsFile": "constraints2_0.py",
          "variables": {
            "SharedPreferences\u003cassist-local-video\u003e": "IAAv1",
            "SharedPreferences\u003cassist-audio-only\u003e": "IAAv0"
          },
          "stringMap": {},
          "strings": {}
        }
      ]
    },
    "3": {
      "startMethod": "com.alicecallsbob.assist.sdk.core.AssistCoreImpl$3.run()V",
      "targetMethod": "java.net.HttpURLConnection.getInputStream()Ljava/io/InputStream;",
      "eventChain": [
        {
          "start": "com.alicecallsbob.assist.sdk.core.AssistCoreImpl$3.run()V",
          "target": "PC@28",
          "type": "",
          "constraintsFile": "constraints3_0.py",
          "variables": {},
          "stringMap": {},
          "strings": {
            "IAAv0": ""
          }
        },
        {
          "start": "com.alicecallsbob.assist.sdk.core.AssistCoreImpl$3.run()V",
          "target": "invokevirtual \u003c Application, Ljava/net/HttpURLConnection, getInputStream()Ljava/io/InputStream; \u003e@114",
          "type": "",
          "constraintsFile": "constraints3_1.py",
          "variables": {},
          "stringMap": {},
          "strings": {
            "IAAv0": ""
          }
        }
      ]
    },
    "4": {
      "startMethod": "com.alicecallsbob.assist.sdk.core.AssistCoreImpl$3.run()V",
      "targetMethod": "java.net.HttpURLConnection.connect()V",
      "eventChain": [
        {
          "start": "com.alicecallsbob.assist.sdk.core.AssistCoreImpl$3.run()V",
          "target": "invokevirtual \u003c Application, Ljava/net/HttpURLConnection, connect()V \u003e@159",
          "type": "",
          "constraintsFile": "constraints4_0.py",
          "variables": {},
          "stringMap": {},
          "strings": {
            "IAAv0": ""
          }
        }
      ]
    },
    "5": {
      "startMethod": "com.alicecallsbob.assist.sdk.core.AssistCoreImpl$3.run()V",
      "targetMethod": "java.net.URL.openConnection()Ljava/net/URLConnection;",
      "eventChain": [
        {
          "start": "com.alicecallsbob.assist.sdk.core.AssistCoreImpl$3.run()V",
          "target": "invokevirtual \u003c Application, Ljava/net/URL, openConnection()Ljava/net/URLConnection; \u003e@31",
          "type": "",
          "constraintsFile": "constraints5_0.py",
          "variables": {},
          "stringMap": {},
          "strings": {
            "IAAv0": ""
          }
        }
      ]
    },
    "6": {
      "startMethod": "com.alicecallsbob.assist.sdk.core.AssistCoreImpl$3.run()V",
      "targetMethod": "java.net.URL.openConnection()Ljava/net/URLConnection;",
      "eventChain": [
        {
          "start": "com.alicecallsbob.assist.sdk.core.AssistCoreImpl$3.run()V",
          "target": "invokevirtual \u003c Application, Ljava/net/URL, openConnection()Ljava/net/URLConnection; \u003e@149",
          "type": "",
          "constraintsFile": "constraints6_0.py",
          "variables": {},
          "stringMap": {},
          "strings": {
            "IAAv0": ""
          }
        }
      ]
    },
    "7": {
      "startMethod": "com.alicecallsbob.assist.sample.TestAreaActivity$3.onTouch(Landroid/view/View;Landroid/view/MotionEvent;)Z",
      "targetMethod": "android.view.View.startDrag(Landroid/content/ClipData;Landroid/view/View$DragShadowBuilder;Ljava/lang/Object;I)Z",
      "eventChain": [
        {
          "start": "com.alicecallsbob.assist.sample.TestAreaActivity$3.onTouch(Landroid/view/View;Landroid/view/MotionEvent;)Z",
          "target": "invokevirtual \u003c Application, Landroid/view/View, startDrag(Landroid/content/ClipData;Landroid/view/View$DragShadowBuilder;Ljava/lang/Object;I)Z \u003e@34",
          "type": "ui",
          "activities": [
            "com.alicecallsbob.assist.sample.MainActivity"
          ],
          "listener": "com.alicecallsbob.assist.sample.TestAreaActivity$3",
          "listenerMethod": "onTouch",
          "uiType": "onTouch",
          "constraintsFile": "constraints7_0.py",
          "variables": {
            "\u003cInput2\u003e.getAction()": "IAAv0"
          },
          "stringMap": {},
          "strings": {}
        }
      ]
    },
    "8": {
      "startMethod": "com.alicecallsbob.assist.sdk.core.AssistLoginManager$1.run()V",
      "targetMethod": "java.net.HttpURLConnection.connect()V",
      "eventChain": [
        {
          "start": "com.alicecallsbob.assist.sdk.core.AssistLoginManager$1.run()V",
          "target": "invokevirtual \u003c Application, Ljava/net/HttpURLConnection, connect()V \u003e@36",
          "type": ""
        }
      ]
    },
    "9": {
      "startMethod": "com.alicecallsbob.assist.sdk.core.AssistLoginManager$1.run()V",
      "targetMethod": "java.net.URL.openConnection()Ljava/net/URLConnection;",
      "eventChain": [
        {
          "start": "com.alicecallsbob.assist.sdk.core.AssistLoginManager$1.run()V",
          "target": "invokevirtual \u003c Application, Ljava/net/URL, openConnection()Ljava/net/URLConnection; \u003e@18",
          "type": ""
        }
      ]
    }
  }
}