{
  "packageName": "com.htcheng.jtest",
  "mainActivity": "com.htcheng.jtest.MainActivity",
  "callPaths": {
    "0": {
      "startMethod": "cn.domob.android.ads.g$4.onClick(Landroid/content/DialogInterface;I)V",
      "targetMethod": "java.net.URL.openConnection(Ljava/net/Proxy;)Ljava/net/URLConnection;",
      "eventChain": [
        {
          "start": "cn.domob.android.ads.g$4.onClick(Landroid/content/DialogInterface;I)V",
          "target": "PC@483",
          "type": "ui",
          "activities": [
            "com.htcheng.jtest.MainActivity"
          ],
          "listener": "cn.domob.android.ads.g$4",
          "listenerMethod": "onClick",
          "uiType": "onClick",
          "inDialog": "true",
          "constraintsFile": "constraints0_0.py",
          "variables": {},
          "stringMap": {
            "7000": "",
            "7001": "ctwap"
          },
          "strings": {}
        },
        {
          "start": "cn.domob.android.ads.g$4.onClick(Landroid/content/DialogInterface;I)V",
          "target": "PC@133",
          "type": "ui",
          "activities": [
            "com.htcheng.jtest.MainActivity"
          ],
          "listener": "cn.domob.android.ads.g$4",
          "listenerMethod": "onClick",
          "uiType": "onClick",
          "inDialog": "true"
        },
        {
          "start": "cn.domob.android.ads.g$4.onClick(Landroid/content/DialogInterface;I)V",
          "target": "invokevirtual \u003c Application, Ljava/net/URL, openConnection(Ljava/net/Proxy;)Ljava/net/URLConnection; \u003e@73",
          "type": "ui",
          "activities": [
            "com.htcheng.jtest.MainActivity"
          ],
          "listener": "cn.domob.android.ads.g$4",
          "listenerMethod": "onClick",
          "uiType": "onClick",
          "inDialog": "true",
          "constraintsFile": "constraints0_1.py",
          "variables": {},
          "stringMap": {},
          "strings": {}
        }
      ]
    },
    "1": {
      "startMethod": "cn.domob.android.ads.g$4.onClick(Landroid/content/DialogInterface;I)V",
      "targetMethod": "java.net.URL.openConnection()Ljava/net/URLConnection;",
      "eventChain": [
        {
          "start": "cn.domob.android.ads.g$4.onClick(Landroid/content/DialogInterface;I)V",
          "target": "PC@64",
          "type": "ui",
          "activities": [
            "com.htcheng.jtest.MainActivity"
          ],
          "listener": "cn.domob.android.ads.g$4",
          "listenerMethod": "onClick",
          "uiType": "onClick",
          "inDialog": "true",
          "constraintsFile": "constraints1_0.py",
          "variables": {},
          "stringMap": {},
          "strings": {
            "IAAv1": ""
          }
        },
        {
          "start": "cn.domob.android.ads.g$4.onClick(Landroid/content/DialogInterface;I)V",
          "target": "PC@133",
          "type": "ui",
          "activities": [
            "com.htcheng.jtest.MainActivity"
          ],
          "listener": "cn.domob.android.ads.g$4",
          "listenerMethod": "onClick",
          "uiType": "onClick",
          "inDialog": "true"
        },
        {
          "start": "cn.domob.android.ads.g$4.onClick(Landroid/content/DialogInterface;I)V",
          "target": "invokevirtual \u003c Application, Ljava/net/URL, openConnection()Ljava/net/URLConnection; \u003e@285",
          "type": "ui",
          "activities": [
            "com.htcheng.jtest.MainActivity"
          ],
          "listener": "cn.domob.android.ads.g$4",
          "listenerMethod": "onClick",
          "uiType": "onClick",
          "inDialog": "true",
          "constraintsFile": "constraints1_1.py",
          "variables": {},
          "stringMap": {},
          "strings": {}
        }
      ]
    },
    "2": {
      "startMethod": "cn.appmedia.ad.d.b.onAnimationStart(Landroid/view/animation/Animation;)V",
      "targetMethod": "org.apache.http.client.HttpClient.execute(Lorg/apache/http/client/methods/HttpUriRequest;)Lorg/apache/http/HttpResponse;",
      "eventChain": [
        {
          "start": "cn.appmedia.ad.d.b.onAnimationStart(Landroid/view/animation/Animation;)V",
          "target": "invokevirtual \u003c Application, Landroid/view/animation/Animation, setAnimationListener(Landroid/view/animation/Animation$AnimationListener;)V \u003e@294",
          "type": "ui",
          "activities": [
            "com.htcheng.jtest.MainActivity"
          ],
          "listener": "cn.appmedia.ad.d.b",
          "listenerMethod": "onAnimationStart",
          "uiType": "onAnimationStart",
          "constraintsFile": "constraints2_0.py",
          "variables": {},
          "stringMap": {
            "7000": "http://",
            "7001": "browser",
            "7002": "current"
          },
          "strings": {}
        },
        {
          "start": "cn.appmedia.ad.d.b.onAnimationStart(Landroid/view/animation/Animation;)V",
          "target": "invokeinterface \u003c Application, Lorg/apache/http/client/HttpClient, execute(Lorg/apache/http/client/methods/HttpUriRequest;)Lorg/apache/http/HttpResponse; \u003e@135",
          "type": "ui",
          "activities": [
            "com.htcheng.jtest.MainActivity"
          ],
          "listener": "cn.appmedia.ad.d.b",
          "listenerMethod": "onAnimationStart",
          "uiType": "onAnimationStart",
          "constraintsFile": "constraints2_1.py",
          "variables": {},
          "stringMap": {
            "7000": ""
          },
          "strings": {
            "IAAv7": ""
          }
        }
      ]
    },
    "3": {
      "startMethod": "cn.appmedia.ad.d.n.onAnimationStart(Landroid/view/animation/Animation;)V",
      "targetMethod": "org.apache.http.client.HttpClient.execute(Lorg/apache/http/client/methods/HttpUriRequest;)Lorg/apache/http/HttpResponse;",
      "eventChain": [
        {
          "start": "cn.appmedia.ad.d.b.onAnimationStart(Landroid/view/animation/Animation;)V",
          "target": "invokevirtual \u003c Application, Landroid/view/animation/Animation, setAnimationListener(Landroid/view/animation/Animation$AnimationListener;)V \u003e@367",
          "type": "ui",
          "activities": [
            "com.htcheng.jtest.MainActivity"
          ],
          "listener": "cn.appmedia.ad.d.b",
          "listenerMethod": "onAnimationStart",
          "uiType": "onAnimationStart",
          "constraintsFile": "constraints3_0.py",
          "variables": {},
          "stringMap": {
            "7000": "http://",
            "7001": "browser",
            "7002": "current"
          },
          "strings": {}
        },
        {
          "start": "cn.appmedia.ad.d.n.onAnimationStart(Landroid/view/animation/Animation;)V",
          "target": "invokeinterface \u003c Application, Lorg/apache/http/client/HttpClient, execute(Lorg/apache/http/client/methods/HttpUriRequest;)Lorg/apache/http/HttpResponse; \u003e@135",
          "type": "ui",
          "activities": [
            "com.htcheng.jtest.MainActivity"
          ],
          "listener": "cn.appmedia.ad.d.n",
          "listenerMethod": "onAnimationStart",
          "uiType": "onAnimationStart"
        }
      ]
    }
  }
}