{
  "packageName": "ru.com.pozdravleniya.kratkiekrasivye",
  "mainActivity": "ru.com.pozdravleniya.kratkiekrasivye.MainActivity",
  "callPaths": {
    "0": {
      "startMethod": "ru.com.pozdravleniya.kratkiekrasivye.AlarmManagerBroadcastReceiver.onReceive(Landroid/content/Context;Landroid/content/Intent;)V",
      "targetMethod": "android.os.PowerManager$WakeLock.acquire()V",
      "eventChain": [
        {
          "start": "ru.com.pozdravleniya.kratkiekrasivye.MainActivity.onCreate(Landroid/os/Bundle;)V",
          "target": "invokespecial \u003c Application, Landroid/content/BroadcastReceiver, \u003cinit\u003e()V \u003e@2",
          "type": "activity",
          "component": "ru.com.pozdravleniya.kratkiekrasivye.MainActivity"
        },
        {
          "start": "ru.com.pozdravleniya.kratkiekrasivye.AlarmManagerBroadcastReceiver.onReceive(Landroid/content/Context;Landroid/content/Intent;)V",
          "target": "invokevirtual \u003c Application, Landroid/os/PowerManager$WakeLock, acquire()V \u003e@40",
          "type": "sms"
        }
      ]
    },
    "1": {
      "startMethod": "ru.com.pozdravleniya.kratkiekrasivye.AlarmManagerBroadcastReceiver.onReceive(Landroid/content/Context;Landroid/content/Intent;)V",
      "targetMethod": "android.os.PowerManager$WakeLock.release()V",
      "eventChain": [
        {
          "start": "ru.com.pozdravleniya.kratkiekrasivye.MainActivity.onCreate(Landroid/os/Bundle;)V",
          "target": "invokespecial \u003c Application, Landroid/content/BroadcastReceiver, \u003cinit\u003e()V \u003e@2",
          "type": "activity",
          "component": "ru.com.pozdravleniya.kratkiekrasivye.MainActivity"
        },
        {
          "start": "ru.com.pozdravleniya.kratkiekrasivye.AlarmManagerBroadcastReceiver.onReceive(Landroid/content/Context;Landroid/content/Intent;)V",
          "target": "invokevirtual \u003c Application, Landroid/os/PowerManager$WakeLock, release()V \u003e@216",
          "type": "sms"
        }
      ]
    },
    "2": {
      "startMethod": "ru.com.pozdravleniya.kratkiekrasivye.AlarmManagerBroadcastReceiver.onReceive(Landroid/content/Context;Landroid/content/Intent;)V",
      "targetMethod": "android.net.ConnectivityManager.getActiveNetworkInfo()Landroid/net/NetworkInfo;",
      "eventChain": [
        {
          "start": "ru.com.pozdravleniya.kratkiekrasivye.MainActivity.onCreate(Landroid/os/Bundle;)V",
          "target": "invokespecial \u003c Application, Landroid/content/BroadcastReceiver, \u003cinit\u003e()V \u003e@2",
          "type": "activity",
          "component": "ru.com.pozdravleniya.kratkiekrasivye.MainActivity"
        },
        {
          "start": "ru.com.pozdravleniya.kratkiekrasivye.AlarmManagerBroadcastReceiver.onReceive(Landroid/content/Context;Landroid/content/Intent;)V",
          "target": "invokevirtual \u003c Application, Landroid/net/ConnectivityManager, getActiveNetworkInfo()Landroid/net/NetworkInfo; \u003e@20",
          "type": "sms"
        }
      ]
    },
    "3": {
      "startMethod": "ru.com.pozdravleniya.kratkiekrasivye.MainActivity.onCreate(Landroid/os/Bundle;)V",
      "targetMethod": "android.net.ConnectivityManager.getActiveNetworkInfo()Landroid/net/NetworkInfo;",
      "eventChain": [
        {
          "start": "ru.com.pozdravleniya.kratkiekrasivye.MainActivity.onCreate(Landroid/os/Bundle;)V",
          "target": "invokevirtual \u003c Application, Landroid/net/ConnectivityManager, getActiveNetworkInfo()Landroid/net/NetworkInfo; \u003e@214",
          "type": "activity",
          "component": "ru.com.pozdravleniya.kratkiekrasivye.MainActivity"
        }
      ]
    }
  }
}