{
  "packageName": "biz.nlnqntn.tntoknlnqnm",
  "mainActivity": "biz.nlnqntn.tntoknlnqnm.c99",
  "callPaths": {
    "0": {
      "startMethod": "biz.nlnqntn.tntoknlnqnm.c99.onResume()V",
      "targetMethod": "java.lang.reflect.Method.invoke(Ljava/lang/Object;[Ljava/lang/Object;)Ljava/lang/Object;",
      "eventChain": [
        {
          "start": "biz.nlnqntn.tntoknlnqnm.c99.onResume()V",
          "target": "invokevirtual \u003c Application, Ljava/lang/reflect/Method, invoke(Ljava/lang/Object;[Ljava/lang/Object;)Ljava/lang/Object; \u003e@128",
          "type": "activity",
          "component": "biz.nlnqntn.tntoknlnqnm.c99"
        }
      ]
    },
    "1": {
      "startMethod": "biz.nlnqntn.tntoknlnqnm.c99.onResume()V",
      "targetMethod": "java.lang.reflect.Method.invoke(Ljava/lang/Object;[Ljava/lang/Object;)Ljava/lang/Object;",
      "eventChain": [
        {
          "start": "biz.nlnqntn.tntoknlnqnm.c99.onResume()V",
          "target": "invokevirtual \u003c Application, Ljava/lang/reflect/Method, invoke(Ljava/lang/Object;[Ljava/lang/Object;)Ljava/lang/Object; \u003e@27",
          "type": "activity",
          "component": "biz.nlnqntn.tntoknlnqnm.c99"
        }
      ]
    },
    "2": {
      "startMethod": "biz.nlnqntn.tntoknlnqnm.c99.onResume()V",
      "targetMethod": "java.lang.reflect.Method.invoke(Ljava/lang/Object;[Ljava/lang/Object;)Ljava/lang/Object;",
      "eventChain": [
        {
          "start": "biz.nlnqntn.tntoknlnqnm.c99.onResume()V",
          "target": "invokevirtual \u003c Application, Ljava/lang/reflect/Method, invoke(Ljava/lang/Object;[Ljava/lang/Object;)Ljava/lang/Object; \u003e@136",
          "type": "activity",
          "component": "biz.nlnqntn.tntoknlnqnm.c99"
        }
      ]
    },
    "3": {
      "startMethod": "biz.nlnqntn.tntoknlnqnm.c99.onPause()V",
      "targetMethod": "java.lang.reflect.Method.invoke(Ljava/lang/Object;[Ljava/lang/Object;)Ljava/lang/Object;",
      "eventChain": [
        {
          "start": "biz.nlnqntn.tntoknlnqnm.c99.onPause()V",
          "target": "invokevirtual \u003c Application, Ljava/lang/reflect/Method, invoke(Ljava/lang/Object;[Ljava/lang/Object;)Ljava/lang/Object; \u003e@27",
          "type": "activity",
          "component": "biz.nlnqntn.tntoknlnqnm.c99"
        }
      ]
    },
    "4": {
      "startMethod": "biz.nlnqntn.tntoknlnqnm.ak.onCancel(Landroid/content/DialogInterface;)V",
      "targetMethod": "java.lang.reflect.Method.invoke(Ljava/lang/Object;[Ljava/lang/Object;)Ljava/lang/Object;",
      "eventChain": [
        {
          "start": "biz.nlnqntn.tntoknlnqnm.ak.onCancel(Landroid/content/DialogInterface;)V",
          "target": "invokevirtual \u003c Application, Ljava/lang/reflect/Method, invoke(Ljava/lang/Object;[Ljava/lang/Object;)Ljava/lang/Object; \u003e@136",
          "type": "ui",
          "activities": [
            "biz.nlnqntn.tntoknlnqnm.c99"
          ],
          "listener": "biz.nlnqntn.tntoknlnqnm.ak",
          "listenerMethod": "onCancel",
          "uiType": "onCancel",
          "constraintsFile": "constraints4_0.py",
          "variables": {},
          "stringMap": {},
          "strings": {
            "IAAv7": ""
          }
        }
      ]
    },
    "5": {
      "startMethod": "biz.nlnqntn.tntoknlnqnm.ak.onCancel(Landroid/content/DialogInterface;)V",
      "targetMethod": "java.lang.reflect.Method.invoke(Ljava/lang/Object;[Ljava/lang/Object;)Ljava/lang/Object;",
      "eventChain": [
        {
          "start": "biz.nlnqntn.tntoknlnqnm.ak.onCancel(Landroid/content/DialogInterface;)V",
          "target": "invokevirtual \u003c Application, Ljava/lang/reflect/Method, invoke(Ljava/lang/Object;[Ljava/lang/Object;)Ljava/lang/Object; \u003e@128",
          "type": "ui",
          "activities": [
            "biz.nlnqntn.tntoknlnqnm.c99"
          ],
          "listener": "biz.nlnqntn.tntoknlnqnm.ak",
          "listenerMethod": "onCancel",
          "uiType": "onCancel",
          "constraintsFile": "constraints5_0.py",
          "variables": {},
          "stringMap": {},
          "strings": {}
        }
      ]
    },
    "6": {
      "startMethod": "biz.nlnqntn.tntoknlnqnm.ak.onClick(Landroid/content/DialogInterface;I)V",
      "targetMethod": "java.lang.reflect.Method.invoke(Ljava/lang/Object;[Ljava/lang/Object;)Ljava/lang/Object;",
      "eventChain": [
        {
          "start": "biz.nlnqntn.tntoknlnqnm.ak.onClick(Landroid/content/DialogInterface;I)V",
          "target": "invokevirtual \u003c Application, Ljava/lang/reflect/Method, invoke(Ljava/lang/Object;[Ljava/lang/Object;)Ljava/lang/Object; \u003e@136",
          "type": "ui",
          "activities": [
            "biz.nlnqntn.tntoknlnqnm.c99"
          ],
          "listener": "biz.nlnqntn.tntoknlnqnm.ak",
          "listenerMethod": "onClick",
          "uiType": "onClick",
          "inDialog": "true",
          "constraintsFile": "constraints6_0.py",
          "variables": {},
          "stringMap": {},
          "strings": {
            "IAAv7": ""
          }
        }
      ]
    },
    "7": {
      "startMethod": "biz.nlnqntn.tntoknlnqnm.ak.onClick(Landroid/content/DialogInterface;I)V",
      "targetMethod": "java.lang.reflect.Method.invoke(Ljava/lang/Object;[Ljava/lang/Object;)Ljava/lang/Object;",
      "eventChain": [
        {
          "start": "biz.nlnqntn.tntoknlnqnm.ak.onClick(Landroid/content/DialogInterface;I)V",
          "target": "invokevirtual \u003c Application, Ljava/lang/reflect/Method, invoke(Ljava/lang/Object;[Ljava/lang/Object;)Ljava/lang/Object; \u003e@128",
          "type": "ui",
          "activities": [
            "biz.nlnqntn.tntoknlnqnm.c99"
          ],
          "listener": "biz.nlnqntn.tntoknlnqnm.ak",
          "listenerMethod": "onClick",
          "uiType": "onClick",
          "inDialog": "true",
          "constraintsFile": "constraints7_0.py",
          "variables": {},
          "stringMap": {},
          "strings": {}
        }
      ]
    },
    "8": {
      "startMethod": "com.waps.ah.onClick(Landroid/view/View;)V",
      "targetMethod": "org.apache.http.impl.client.DefaultHttpClient.execute(Lorg/apache/http/client/methods/HttpUriRequest;)Lorg/apache/http/HttpResponse;",
      "eventChain": [
        {
          "start": "com.waps.ah.onClick(Landroid/view/View;)V",
          "target": "invokeinterface \u003c Application, Landroid/content/SharedPreferences$Editor, putString(Ljava/lang/String;Ljava/lang/String;)Landroid/content/SharedPreferences$Editor; \u003e@699",
          "type": "ui",
          "activities": [
            "biz.nlnqntn.tntoknlnqnm.c99"
          ],
          "listener": "com.waps.ah",
          "listenerMethod": "onClick",
          "uiType": "onClick",
          "constraintsFile": "constraints8_0.py",
          "variables": {
            "SharedPreferences\u003cdownload_filename\u003e": "IAAv8"
          },
          "stringMap": {
            "7000": ""
          },
          "strings": {
            "IAAv3": "",
            "IAAv8": ""
          }
        },
        {
          "start": "com.waps.ah.onClick(Landroid/view/View;)V",
          "target": "PC@16",
          "type": "ui",
          "activities": [
            "biz.nlnqntn.tntoknlnqnm.c99"
          ],
          "listener": "com.waps.ah",
          "listenerMethod": "onClick",
          "uiType": "onClick",
          "constraintsFile": "constraints8_1.py",
          "variables": {
            "SharedPreferences\u003cdownload_filename\u003e": "IAAv8"
          },
          "stringMap": {
            "7000": ""
          },
          "strings": {
            "IAAv3": "",
            "IAAv8": ""
          }
        },
        {
          "start": "com.waps.ah.onClick(Landroid/view/View;)V",
          "target": "invokevirtual \u003c Application, Lorg/apache/http/impl/client/DefaultHttpClient, execute(Lorg/apache/http/client/methods/HttpUriRequest;)Lorg/apache/http/HttpResponse; \u003e@166",
          "type": "ui",
          "activities": [
            "biz.nlnqntn.tntoknlnqnm.c99"
          ],
          "listener": "com.waps.ah",
          "listenerMethod": "onClick",
          "uiType": "onClick",
          "constraintsFile": "constraints8_2.py",
          "variables": {
            "SharedPreferences\u003cdownload_filename\u003e": "IAAv8"
          },
          "stringMap": {
            "7000": ""
          },
          "strings": {
            "IAAv3": "",
            "IAAv8": ""
          }
        }
      ]
    },
    "9": {
      "startMethod": "com.waps.ah.onClick(Landroid/view/View;)V",
      "targetMethod": "org.apache.http.client.HttpClient.execute(Lorg/apache/http/client/methods/HttpUriRequest;)Lorg/apache/http/HttpResponse;",
      "eventChain": [
        {
          "start": "com.waps.ah.onClick(Landroid/view/View;)V",
          "target": "invokeinterface \u003c Application, Lorg/apache/http/client/HttpClient, execute(Lorg/apache/http/client/methods/HttpUriRequest;)Lorg/apache/http/HttpResponse; \u003e@285",
          "type": "ui",
          "activities": [
            "biz.nlnqntn.tntoknlnqnm.c99"
          ],
          "listener": "com.waps.ah",
          "listenerMethod": "onClick",
          "uiType": "onClick",
          "constraintsFile": "constraints9_0.py",
          "variables": {},
          "stringMap": {
            "7000": "",
            "7001": "ctwap"
          },
          "strings": {
            "IAAv3": "",
            "IAAv10": "",
            "IAAv6": ""
          }
        }
      ]
    },
    "10": {
      "startMethod": "biz.nlnqntn.tntoknlnqnm.bi.onClick(Landroid/view/View;)V",
      "targetMethod": "java.lang.reflect.Method.invoke(Ljava/lang/Object;[Ljava/lang/Object;)Ljava/lang/Object;",
      "eventChain": [
        {
          "start": "biz.nlnqntn.tntoknlnqnm.bi.onClick(Landroid/view/View;)V",
          "target": "PC@70",
          "type": "ui",
          "activities": [
            "biz.nlnqntn.tntoknlnqnm.c99"
          ],
          "listener": "biz.nlnqntn.tntoknlnqnm.bi",
          "listenerMethod": "onClick",
          "uiType": "onClick",
          "constraintsFile": "constraints10_0.py",
          "variables": {
            "\u003cChainedInput1\u003e.getId()": "IAAv0"
          },
          "stringMap": {},
          "strings": {}
        },
        {
          "start": "biz.nlnqntn.tntoknlnqnm.bi.onClick(Landroid/view/View;)V",
          "target": "invokevirtual \u003c Application, Ljava/lang/reflect/Method, invoke(Ljava/lang/Object;[Ljava/lang/Object;)Ljava/lang/Object; \u003e@128",
          "type": "ui",
          "activities": [
            "biz.nlnqntn.tntoknlnqnm.c99"
          ],
          "listener": "biz.nlnqntn.tntoknlnqnm.bi",
          "listenerMethod": "onClick",
          "uiType": "onClick",
          "constraintsFile": "constraints10_1.py",
          "variables": {
            "\u003cChainedInput1\u003e.getId()": "IAAv0"
          },
          "stringMap": {},
          "strings": {}
        }
      ]
    },
    "11": {
      "startMethod": "biz.nlnqntn.tntoknlnqnm.bi.onClick(Landroid/view/View;)V",
      "targetMethod": "java.lang.reflect.Method.invoke(Ljava/lang/Object;[Ljava/lang/Object;)Ljava/lang/Object;",
      "eventChain": [
        {
          "start": "biz.nlnqntn.tntoknlnqnm.bi.onClick(Landroid/view/View;)V",
          "target": "PC@70",
          "type": "ui",
          "activities": [
            "biz.nlnqntn.tntoknlnqnm.c99"
          ],
          "listener": "biz.nlnqntn.tntoknlnqnm.bi",
          "listenerMethod": "onClick",
          "uiType": "onClick",
          "constraintsFile": "constraints11_0.py",
          "variables": {
            "\u003cChainedInput1\u003e.getId()": "IAAv0"
          },
          "stringMap": {},
          "strings": {
            "IAAv2": ""
          }
        },
        {
          "start": "biz.nlnqntn.tntoknlnqnm.bi.onClick(Landroid/view/View;)V",
          "target": "invokevirtual \u003c Application, Ljava/lang/reflect/Method, invoke(Ljava/lang/Object;[Ljava/lang/Object;)Ljava/lang/Object; \u003e@136",
          "type": "ui",
          "activities": [
            "biz.nlnqntn.tntoknlnqnm.c99"
          ],
          "listener": "biz.nlnqntn.tntoknlnqnm.bi",
          "listenerMethod": "onClick",
          "uiType": "onClick",
          "constraintsFile": "constraints11_1.py",
          "variables": {
            "\u003cChainedInput1\u003e.getId()": "IAAv0"
          },
          "stringMap": {},
          "strings": {
            "IAAv2": ""
          }
        }
      ]
    },
    "12": {
      "startMethod": "com.waps.t.onReceive(Landroid/content/Context;Landroid/content/Intent;)V",
      "targetMethod": "org.apache.http.client.HttpClient.execute(Lorg/apache/http/client/methods/HttpUriRequest;)Lorg/apache/http/HttpResponse;",
      "eventChain": [
        {
          "start": "com.waps.ah.onClick(Landroid/view/View;)V",
          "target": "invokespecial \u003c Application, Landroid/content/BroadcastReceiver, \u003cinit\u003e()V \u003e@2",
          "type": "ui",
          "activities": [
            "biz.nlnqntn.tntoknlnqnm.c99"
          ],
          "listener": "com.waps.ah",
          "listenerMethod": "onClick",
          "uiType": "onClick",
          "constraintsFile": "constraints12_0.py",
          "variables": {},
          "stringMap": {
            "7000": ""
          },
          "strings": {
            "IAAv3": ""
          }
        },
        {
          "start": "com.waps.ah.onClick(Landroid/view/View;)V",
          "target": "PC@48",
          "type": "ui",
          "activities": [
            "biz.nlnqntn.tntoknlnqnm.c99"
          ],
          "listener": "com.waps.ah",
          "listenerMethod": "onClick",
          "uiType": "onClick",
          "constraintsFile": "constraints12_1.py",
          "variables": {
            "\u003cChainedInput2\u003e.getAction()": "IAAv0",
            "SharedPreferences\u003cdownload_filename\u003e": "IAAv23"
          },
          "stringMap": {
            "7000": "android.net.conn.CONNECTIVITY_CHANGE",
            "7001": "",
            "7002": "ctwap"
          },
          "strings": {
            "IAAv0": "",
            "IAAv23": "",
            "IAAv10": "",
            "IAAv14": "",
            "IAAv19": "",
            "IAAv7": ""
          }
        },
        {
          "start": "com.waps.ah.onClick(Landroid/view/View;)V",
          "target": "",
          "type": "ui",
          "activities": [
            "biz.nlnqntn.tntoknlnqnm.c99"
          ],
          "listener": "com.waps.ah",
          "listenerMethod": "onClick",
          "uiType": "onClick",
          "constraintsFile": "constraints12_2.py",
          "variables": {},
          "stringMap": {},
          "strings": {}
        },
        {
          "start": "com.waps.ah.onClick(Landroid/view/View;)V",
          "target": "",
          "type": "ui",
          "activities": [
            "biz.nlnqntn.tntoknlnqnm.c99"
          ],
          "listener": "com.waps.ah",
          "listenerMethod": "onClick",
          "uiType": "onClick",
          "constraintsFile": "constraints12_3.py",
          "variables": {
            "\u003cChainedInput2\u003e.getAction()": "IAAv0",
            "SharedPreferences\u003cdownload_filename\u003e": "IAAv23"
          },
          "stringMap": {
            "7000": "android.net.conn.CONNECTIVITY_CHANGE",
            "7001": "",
            "7002": "ctwap"
          },
          "strings": {
            "IAAv0": "",
            "IAAv23": "",
            "IAAv10": "",
            "IAAv14": "",
            "IAAv19": "",
            "IAAv7": ""
          }
        },
        {
          "start": "com.waps.t.onReceive(Landroid/content/Context;Landroid/content/Intent;)V",
          "target": "invokeinterface \u003c Application, Lorg/apache/http/client/HttpClient, execute(Lorg/apache/http/client/methods/HttpUriRequest;)Lorg/apache/http/HttpResponse; \u003e@285",
          "type": "sms",
          "constraintsFile": "constraints12_4.py",
          "variables": {
            "\u003cChainedInput2\u003e.getAction()": "IAAv0"
          },
          "stringMap": {
            "7000": "android.net.conn.CONNECTIVITY_CHANGE",
            "7001": "",
            "7002": "ctwap"
          },
          "strings": {
            "IAAv0": "",
            "IAAv10": "",
            "IAAv14": "",
            "IAAv7": ""
          }
        }
      ]
    },
    "13": {
      "startMethod": "com.waps.t.onReceive(Landroid/content/Context;Landroid/content/Intent;)V",
      "targetMethod": "org.apache.http.impl.client.DefaultHttpClient.execute(Lorg/apache/http/client/methods/HttpUriRequest;)Lorg/apache/http/HttpResponse;",
      "eventChain": [
        {
          "start": "com.waps.ah.onClick(Landroid/view/View;)V",
          "target": "invokespecial \u003c Application, Landroid/content/BroadcastReceiver, \u003cinit\u003e()V \u003e@2",
          "type": "ui",
          "activities": [
            "biz.nlnqntn.tntoknlnqnm.c99"
          ],
          "listener": "com.waps.ah",
          "listenerMethod": "onClick",
          "uiType": "onClick",
          "constraintsFile": "constraints13_0.py",
          "variables": {},
          "stringMap": {
            "7000": ""
          },
          "strings": {
            "IAAv3": ""
          }
        },
        {
          "start": "com.waps.ah.onClick(Landroid/view/View;)V",
          "target": "invokeinterface \u003c Application, Landroid/content/SharedPreferences$Editor, putString(Ljava/lang/String;Ljava/lang/String;)Landroid/content/SharedPreferences$Editor; \u003e@699",
          "type": "ui",
          "activities": [
            "biz.nlnqntn.tntoknlnqnm.c99"
          ],
          "listener": "com.waps.ah",
          "listenerMethod": "onClick",
          "uiType": "onClick",
          "constraintsFile": "constraints13_1.py",
          "variables": {
            "SharedPreferences\u003cdownload_filename\u003e": "IAAv8"
          },
          "stringMap": {
            "7000": ""
          },
          "strings": {
            "IAAv3": "",
            "IAAv8": ""
          }
        },
        {
          "start": "com.waps.ah.onClick(Landroid/view/View;)V",
          "target": "PC@48",
          "type": "ui",
          "activities": [
            "biz.nlnqntn.tntoknlnqnm.c99"
          ],
          "listener": "com.waps.ah",
          "listenerMethod": "onClick",
          "uiType": "onClick",
          "constraintsFile": "constraints13_2.py",
          "variables": {
            "\u003cChainedInput2\u003e.getAction()": "IAAv0",
            "SharedPreferences\u003cdownload_filename\u003e": "IAAv12"
          },
          "stringMap": {
            "7000": "android.net.conn.CONNECTIVITY_CHANGE",
            "7001": ""
          },
          "strings": {
            "IAAv24": "",
            "IAAv0": "",
            "IAAv12": "",
            "IAAv7": ""
          }
        },
        {
          "start": "com.waps.ah.onClick(Landroid/view/View;)V",
          "target": "PC@16",
          "type": "ui",
          "activities": [
            "biz.nlnqntn.tntoknlnqnm.c99"
          ],
          "listener": "com.waps.ah",
          "listenerMethod": "onClick",
          "uiType": "onClick",
          "constraintsFile": "constraints13_3.py",
          "variables": {
            "\u003cChainedInput2\u003e.getAction()": "IAAv0",
            "SharedPreferences\u003cdownload_filename\u003e": "IAAv12"
          },
          "stringMap": {
            "7000": "android.net.conn.CONNECTIVITY_CHANGE",
            "7001": ""
          },
          "strings": {
            "IAAv24": "",
            "IAAv0": "",
            "IAAv12": "",
            "IAAv7": ""
          }
        },
        {
          "start": "com.waps.ah.onClick(Landroid/view/View;)V",
          "target": "",
          "type": "ui",
          "activities": [
            "biz.nlnqntn.tntoknlnqnm.c99"
          ],
          "listener": "com.waps.ah",
          "listenerMethod": "onClick",
          "uiType": "onClick",
          "constraintsFile": "constraints13_4.py",
          "variables": {},
          "stringMap": {},
          "strings": {}
        },
        {
          "start": "com.waps.ah.onClick(Landroid/view/View;)V",
          "target": "",
          "type": "ui",
          "activities": [
            "biz.nlnqntn.tntoknlnqnm.c99"
          ],
          "listener": "com.waps.ah",
          "listenerMethod": "onClick",
          "uiType": "onClick",
          "constraintsFile": "constraints13_5.py",
          "variables": {
            "\u003cChainedInput2\u003e.getAction()": "IAAv0",
            "SharedPreferences\u003cdownload_filename\u003e": "IAAv12"
          },
          "stringMap": {
            "7000": "android.net.conn.CONNECTIVITY_CHANGE",
            "7001": ""
          },
          "strings": {
            "IAAv24": "",
            "IAAv0": "",
            "IAAv12": "",
            "IAAv7": ""
          }
        },
        {
          "start": "com.waps.t.onReceive(Landroid/content/Context;Landroid/content/Intent;)V",
          "target": "invokevirtual \u003c Application, Lorg/apache/http/impl/client/DefaultHttpClient, execute(Lorg/apache/http/client/methods/HttpUriRequest;)Lorg/apache/http/HttpResponse; \u003e@166",
          "type": "sms",
          "constraintsFile": "constraints13_6.py",
          "variables": {
            "\u003cChainedInput2\u003e.getAction()": "IAAv0",
            "SharedPreferences\u003cdownload_filename\u003e": "IAAv12"
          },
          "stringMap": {
            "7000": "android.net.conn.CONNECTIVITY_CHANGE",
            "7001": ""
          },
          "strings": {
            "IAAv0": "",
            "IAAv12": "",
            "IAAv7": ""
          }
        }
      ]
    },
    "14": {
      "startMethod": "com.waps.w.onReceive(Landroid/content/Context;Landroid/content/Intent;)V",
      "targetMethod": "org.apache.http.impl.client.DefaultHttpClient.execute(Lorg/apache/http/client/methods/HttpUriRequest;)Lorg/apache/http/HttpResponse;",
      "eventChain": [
        {
          "start": "com.waps.ah.onClick(Landroid/view/View;)V",
          "target": "invokespecial \u003c Application, Landroid/content/BroadcastReceiver, \u003cinit\u003e()V \u003e@2",
          "type": "ui",
          "activities": [
            "biz.nlnqntn.tntoknlnqnm.c99"
          ],
          "listener": "com.waps.ah",
          "listenerMethod": "onClick",
          "uiType": "onClick",
          "constraintsFile": "constraints14_0.py",
          "variables": {
            "SharedPreferences\u003cdownload_filename\u003e": "IAAv8"
          },
          "stringMap": {
            "7000": "",
            "7001": "PackageInstallerActivity",
            "7002": "InstallAppProgress",
            "7003": ".apk"
          },
          "strings": {
            "IAAv3": "",
            "IAAv22": "",
            "IAAv8": ""
          }
        },
        {
          "start": "com.waps.ah.onClick(Landroid/view/View;)V",
          "target": "invokeinterface \u003c Application, Landroid/content/SharedPreferences$Editor, putString(Ljava/lang/String;Ljava/lang/String;)Landroid/content/SharedPreferences$Editor; \u003e@699",
          "type": "ui",
          "activities": [
            "biz.nlnqntn.tntoknlnqnm.c99"
          ],
          "listener": "com.waps.ah",
          "listenerMethod": "onClick",
          "uiType": "onClick",
          "constraintsFile": "constraints14_1.py",
          "variables": {
            "SharedPreferences\u003cdownload_filename\u003e": "IAAv8"
          },
          "stringMap": {
            "7000": ""
          },
          "strings": {
            "IAAv3": "",
            "IAAv8": ""
          }
        },
        {
          "start": "com.waps.ah.onClick(Landroid/view/View;)V",
          "target": "PC@16",
          "type": "ui",
          "activities": [
            "biz.nlnqntn.tntoknlnqnm.c99"
          ],
          "listener": "com.waps.ah",
          "listenerMethod": "onClick",
          "uiType": "onClick",
          "constraintsFile": "constraints14_2.py",
          "variables": {
            "\u003cChainedInput2\u003e.getDataString()": "IAAv2",
            "\u003cChainedInput2\u003e.getAction()": "IAAv0",
            "\u003cChainedInput1\u003e.a().o": "IAAv10",
            "\u003cChainedInput1\u003e.a().f": "IAAv15",
            "\u003cChainedInput1\u003e.d().a()": "IAAv8",
            "SharedPreferences\u003cdownload_filename\u003e": "IAAv11"
          },
          "stringMap": {
            "7000": "android.intent.action.PACKAGE_ADDED",
            "7001": ""
          },
          "strings": {
            "IAAv2": "",
            "IAAv11": "",
            "IAAv0": "",
            "IAAv23": "",
            "IAAv6": ""
          }
        },
        {
          "start": "com.waps.ah.onClick(Landroid/view/View;)V",
          "target": "",
          "type": "ui",
          "activities": [
            "biz.nlnqntn.tntoknlnqnm.c99"
          ],
          "listener": "com.waps.ah",
          "listenerMethod": "onClick",
          "uiType": "onClick",
          "constraintsFile": "constraints14_3.py",
          "variables": {},
          "stringMap": {},
          "strings": {}
        },
        {
          "start": "com.waps.w.onReceive(Landroid/content/Context;Landroid/content/Intent;)V",
          "target": "invokevirtual \u003c Application, Lorg/apache/http/impl/client/DefaultHttpClient, execute(Lorg/apache/http/client/methods/HttpUriRequest;)Lorg/apache/http/HttpResponse; \u003e@166",
          "type": "sms",
          "constraintsFile": "constraints14_4.py",
          "variables": {
            "\u003cChainedInput1\u003e.a().o": "IAAv10",
            "\u003cChainedInput2\u003e.getDataString()": "IAAv2",
            "\u003cChainedInput1\u003e.a().f": "IAAv15",
            "\u003cChainedInput2\u003e.getAction()": "IAAv0",
            "\u003cChainedInput1\u003e.d().a()": "IAAv8",
            "SharedPreferences\u003cdownload_filename\u003e": "IAAv11"
          },
          "stringMap": {
            "7000": "android.intent.action.PACKAGE_ADDED",
            "7001": ""
          },
          "strings": {
            "IAAv2": "",
            "IAAv11": "",
            "IAAv0": "",
            "IAAv6": ""
          }
        }
      ]
    },
    "15": {
      "startMethod": "com.waps.w.onReceive(Landroid/content/Context;Landroid/content/Intent;)V",
      "targetMethod": "org.apache.http.client.HttpClient.execute(Lorg/apache/http/client/methods/HttpUriRequest;)Lorg/apache/http/HttpResponse;",
      "eventChain": [
        {
          "start": "com.waps.ah.onClick(Landroid/view/View;)V",
          "target": "invokespecial \u003c Application, Landroid/content/BroadcastReceiver, \u003cinit\u003e()V \u003e@2",
          "type": "ui",
          "activities": [
            "biz.nlnqntn.tntoknlnqnm.c99"
          ],
          "listener": "com.waps.ah",
          "listenerMethod": "onClick",
          "uiType": "onClick",
          "constraintsFile": "constraints15_0.py",
          "variables": {
            "SharedPreferences\u003cdownload_filename\u003e": "IAAv8"
          },
          "stringMap": {
            "7000": "",
            "7001": "PackageInstallerActivity",
            "7002": "InstallAppProgress",
            "7003": ".apk"
          },
          "strings": {
            "IAAv3": "",
            "IAAv22": "",
            "IAAv8": ""
          }
        },
        {
          "start": "com.waps.ah.onClick(Landroid/view/View;)V",
          "target": "",
          "type": "ui",
          "activities": [
            "biz.nlnqntn.tntoknlnqnm.c99"
          ],
          "listener": "com.waps.ah",
          "listenerMethod": "onClick",
          "uiType": "onClick",
          "constraintsFile": "constraints15_1.py",
          "variables": {},
          "stringMap": {},
          "strings": {}
        },
        {
          "start": "com.waps.w.onReceive(Landroid/content/Context;Landroid/content/Intent;)V",
          "target": "invokeinterface \u003c Application, Lorg/apache/http/client/HttpClient, execute(Lorg/apache/http/client/methods/HttpUriRequest;)Lorg/apache/http/HttpResponse; \u003e@285",
          "type": "sms",
          "constraintsFile": "constraints15_2.py",
          "variables": {
            "\u003cChainedInput2\u003e.getDataString()": "IAAv2",
            "\u003cChainedInput2\u003e.getAction()": "IAAv0",
            "\u003cChainedInput1\u003e.d().a()": "IAAv8"
          },
          "stringMap": {
            "7000": "android.intent.action.PACKAGE_ADDED",
            "7001": "",
            "7002": "ctwap",
            "7003": "http://app",
            "7004": "http://ads",
            "7005": "http://push"
          },
          "strings": {
            "IAAv2": "",
            "IAAv0": "",
            "IAAv13": "",
            "IAAv15": "",
            "IAAv9": "",
            "IAAv6": ""
          }
        }
      ]
    },
    "16": {
      "startMethod": "biz.nlnqntn.tntoknlnqnm.ak.onReceive(Landroid/content/Context;Landroid/content/Intent;)V",
      "targetMethod": "java.lang.reflect.Method.invoke(Ljava/lang/Object;[Ljava/lang/Object;)Ljava/lang/Object;",
      "eventChain": [
        {
          "start": "biz.nlnqntn.tntoknlnqnm.ak.onReceive(Landroid/content/Context;Landroid/content/Intent;)V",
          "target": "invokevirtual \u003c Application, Ljava/lang/reflect/Method, invoke(Ljava/lang/Object;[Ljava/lang/Object;)Ljava/lang/Object; \u003e@128",
          "type": "sms",
          "constraintsFile": "constraints16_0.py",
          "variables": {
            "\u003cChainedInput2\u003e.getDataString()": "IAAv1"
          },
          "stringMap": {},
          "strings": {
            "IAAv1": "",
            "IAAv0": ""
          }
        }
      ]
    },
    "17": {
      "startMethod": "biz.nlnqntn.tntoknlnqnm.ak.onReceive(Landroid/content/Context;Landroid/content/Intent;)V",
      "targetMethod": "java.lang.reflect.Method.invoke(Ljava/lang/Object;[Ljava/lang/Object;)Ljava/lang/Object;",
      "eventChain": [
        {
          "start": "biz.nlnqntn.tntoknlnqnm.ak.onClick(Landroid/content/DialogInterface;I)V",
          "target": "",
          "type": "ui",
          "activities": [
            "biz.nlnqntn.tntoknlnqnm.c99"
          ],
          "listener": "biz.nlnqntn.tntoknlnqnm.ak",
          "listenerMethod": "onClick",
          "uiType": "onClick",
          "inDialog": "true",
          "constraintsFile": "constraints17_0.py",
          "variables": {
            "\u003cChainedInput2\u003e.getDataString()": "IAAv1"
          },
          "stringMap": {
            "7000": ""
          },
          "strings": {
            "IAAv1": "",
            "IAAv0": ""
          }
        },
        {
          "start": "biz.nlnqntn.tntoknlnqnm.ak.onReceive(Landroid/content/Context;Landroid/content/Intent;)V",
          "target": "invokevirtual \u003c Application, Ljava/lang/reflect/Method, invoke(Ljava/lang/Object;[Ljava/lang/Object;)Ljava/lang/Object; \u003e@136",
          "type": "sms",
          "constraintsFile": "constraints17_1.py",
          "variables": {
            "\u003cChainedInput2\u003e.getDataString()": "IAAv1"
          },
          "stringMap": {},
          "strings": {
            "IAAv1": "",
            "IAAv0": ""
          }
        }
      ]
    }
  }
}