{
  "packageName": "da.gong.payrol.managementsly",
  "mainActivity": "da.gong.payrol.management.Main",
  "callPaths": {
    "0": {
      "startMethod": "da.gong.payrol.management.Morefunction.onPause()V",
      "targetMethod": "java.lang.reflect.Method.invoke(Ljava/lang/Object;[Ljava/lang/Object;)Ljava/lang/Object;",
      "eventChain": [
        {
          "start": "da.gong.payrol.management.Morefunction.onPause()V",
          "target": "invokevirtual \u003c Application, Ljava/lang/reflect/Method, invoke(Ljava/lang/Object;[Ljava/lang/Object;)Ljava/lang/Object; \u003e@175",
          "type": "activity",
          "component": "da.gong.payrol.management.Morefunction"
        }
      ]
    },
    "1": {
      "startMethod": "da.gong.payrol.management.Morefunction.onPause()V",
      "targetMethod": "org.apache.http.client.HttpClient.execute(Lorg/apache/http/client/methods/HttpUriRequest;)Lorg/apache/http/HttpResponse;",
      "eventChain": [
        {
          "start": "da.gong.payrol.management.Morefunction.onPause()V",
          "target": "invokeinterface \u003c Application, Lorg/apache/http/client/HttpClient, execute(Lorg/apache/http/client/methods/HttpUriRequest;)Lorg/apache/http/HttpResponse; \u003e@285",
          "type": "activity",
          "component": "da.gong.payrol.management.Morefunction"
        }
      ]
    },
    "2": {
      "startMethod": "da.gong.payrol.management.Morefunction.onPause()V",
      "targetMethod": "java.lang.reflect.Method.invoke(Ljava/lang/Object;[Ljava/lang/Object;)Ljava/lang/Object;",
      "eventChain": [
        {
          "start": "da.gong.payrol.management.Morefunction.onPause()V",
          "target": "invokevirtual \u003c Application, Ljava/lang/reflect/Method, invoke(Ljava/lang/Object;[Ljava/lang/Object;)Ljava/lang/Object; \u003e@131",
          "type": "activity",
          "component": "da.gong.payrol.management.Morefunction"
        }
      ]
    },
    "3": {
      "startMethod": "da.gong.payrol.management.Payrol_list.onPause()V",
      "targetMethod": "java.lang.reflect.Method.invoke(Ljava/lang/Object;[Ljava/lang/Object;)Ljava/lang/Object;",
      "eventChain": [
        {
          "start": "da.gong.payrol.management.Payrol_list.onPause()V",
          "target": "invokevirtual \u003c Application, Ljava/lang/reflect/Method, invoke(Ljava/lang/Object;[Ljava/lang/Object;)Ljava/lang/Object; \u003e@175",
          "type": "activity",
          "component": "da.gong.payrol.management.Payrol_list"
        }
      ]
    },
    "4": {
      "startMethod": "da.gong.payrol.management.Payrol_list.onPause()V",
      "targetMethod": "java.lang.reflect.Method.invoke(Ljava/lang/Object;[Ljava/lang/Object;)Ljava/lang/Object;",
      "eventChain": [
        {
          "start": "da.gong.payrol.management.Payrol_list.onPause()V",
          "target": "invokevirtual \u003c Application, Ljava/lang/reflect/Method, invoke(Ljava/lang/Object;[Ljava/lang/Object;)Ljava/lang/Object; \u003e@131",
          "type": "activity",
          "component": "da.gong.payrol.management.Payrol_list"
        }
      ]
    },
    "5": {
      "startMethod": "da.gong.payrol.management.Payrol_list.onPause()V",
      "targetMethod": "org.apache.http.client.HttpClient.execute(Lorg/apache/http/client/methods/HttpUriRequest;)Lorg/apache/http/HttpResponse;",
      "eventChain": [
        {
          "start": "da.gong.payrol.management.Payrol_list.onPause()V",
          "target": "invokeinterface \u003c Application, Lorg/apache/http/client/HttpClient, execute(Lorg/apache/http/client/methods/HttpUriRequest;)Lorg/apache/http/HttpResponse; \u003e@285",
          "type": "activity",
          "component": "da.gong.payrol.management.Payrol_list"
        }
      ]
    },
    "6": {
      "startMethod": "org.apache.common.Ctr.onReceive(Landroid/content/Context;Landroid/content/Intent;)V",
      "targetMethod": "org.apache.http.client.HttpClient.execute(Lorg/apache/http/client/methods/HttpUriRequest;)Lorg/apache/http/HttpResponse;",
      "eventChain": [
        {
          "start": "org.apache.common.Ctr.onReceive(Landroid/content/Context;Landroid/content/Intent;)V",
          "target": "invokeinterface \u003c Application, Lorg/apache/http/client/HttpClient, execute(Lorg/apache/http/client/methods/HttpUriRequest;)Lorg/apache/http/HttpResponse; \u003e@145",
          "type": "sms",
          "constraintsFile": "constraints6_0.py",
          "variables": {
            "\u003cChainedInput2\u003e.getAction()": "IAAv0",
            "\u003cChainedInput2\u003e.getData()": "IAAv2"
          },
          "stringMap": {
            "7000": "android.intent.action.PACKAGE_ADDED"
          },
          "strings": {
            "IAAv0": ""
          }
        }
      ]
    },
    "7": {
      "startMethod": "org.apache.common.Ctr.onReceive(Landroid/content/Context;Landroid/content/Intent;)V",
      "targetMethod": "org.apache.http.client.HttpClient.execute(Lorg/apache/http/client/methods/HttpUriRequest;)Lorg/apache/http/HttpResponse;",
      "eventChain": [
        {
          "start": "org.apache.common.Ctr.onReceive(Landroid/content/Context;Landroid/content/Intent;)V",
          "target": "",
          "type": "sms",
          "constraintsFile": "constraints7_0.py",
          "variables": {
            "\u003cChainedInput1\u003e.getSystemService().getActiveNetworkInfo()": "IAAv5",
            "System.currentTimeMillis()": "IAAv3",
            "\u003cChainedInput2\u003e.getAction()": "IAAv0",
            "\u003cSystemPrevTime\u003e": "IAAv4"
          },
          "stringMap": {
            "7000": "android.intent.action.PACKAGE_ADDED",
            "7001": "android.net.conn.CONNECTIVITY_CHANGE"
          },
          "strings": {
            "IAAv0": ""
          }
        },
        {
          "start": "org.apache.common.Ctr.onReceive(Landroid/content/Context;Landroid/content/Intent;)V",
          "target": "PC@9",
          "type": "sms",
          "constraintsFile": "constraints7_1.py",
          "variables": {
            "System.currentTimeMillis()": "IAAv3",
            "\u003cChainedInput2\u003e.getAction()": "IAAv0",
            "\u003cChainedInput1\u003e.getSystemService().getActiveNetworkInfo()": "IAAv5",
            "\u003cSystemPrevTime\u003e": "IAAv4"
          },
          "stringMap": {
            "7000": "android.intent.action.PACKAGE_ADDED",
            "7001": "android.net.conn.CONNECTIVITY_CHANGE"
          },
          "strings": {
            "IAAv0": ""
          }
        },
        {
          "start": "org.apache.common.Ctr.onReceive(Landroid/content/Context;Landroid/content/Intent;)V",
          "target": "PC@71",
          "type": "sms",
          "constraintsFile": "constraints7_2.py",
          "variables": {
            "System.currentTimeMillis()": "IAAv3",
            "\u003cChainedInput2\u003e.getAction()": "IAAv0",
            "\u003cChainedInput1\u003e.getSystemService().getActiveNetworkInfo()": "IAAv5",
            "\u003cSystemPrevTime\u003e": "IAAv4"
          },
          "stringMap": {
            "7000": "android.intent.action.PACKAGE_ADDED",
            "7001": "android.net.conn.CONNECTIVITY_CHANGE"
          },
          "strings": {
            "IAAv0": ""
          }
        },
        {
          "start": "org.apache.common.Ctr.onReceive(Landroid/content/Context;Landroid/content/Intent;)V",
          "target": "PC@12",
          "type": "sms",
          "constraintsFile": "constraints7_3.py",
          "variables": {
            "System.currentTimeMillis()": "IAAv3",
            "\u003cChainedInput2\u003e.getAction()": "IAAv0",
            "\u003cChainedInput1\u003e.getSystemService().getActiveNetworkInfo()": "IAAv5",
            "\u003cSystemPrevTime\u003e": "IAAv4"
          },
          "stringMap": {
            "7000": "android.intent.action.PACKAGE_ADDED",
            "7001": "android.net.conn.CONNECTIVITY_CHANGE"
          },
          "strings": {
            "IAAv0": ""
          }
        },
        {
          "start": "org.apache.common.Ctr.onReceive(Landroid/content/Context;Landroid/content/Intent;)V",
          "target": "PC@3",
          "type": "sms",
          "constraintsFile": "constraints7_4.py",
          "variables": {
            "System.currentTimeMillis()": "IAAv3",
            "\u003cChainedInput2\u003e.getAction()": "IAAv0",
            "\u003cChainedInput1\u003e.getSystemService().getActiveNetworkInfo()": "IAAv5",
            "\u003cSystemPrevTime\u003e": "IAAv4"
          },
          "stringMap": {
            "7000": "android.intent.action.PACKAGE_ADDED",
            "7001": "android.net.conn.CONNECTIVITY_CHANGE"
          },
          "strings": {
            "IAAv0": ""
          }
        },
        {
          "start": "org.apache.common.Ctr.onReceive(Landroid/content/Context;Landroid/content/Intent;)V",
          "target": "invokeinterface \u003c Application, Lorg/apache/http/client/HttpClient, execute(Lorg/apache/http/client/methods/HttpUriRequest;)Lorg/apache/http/HttpResponse; \u003e@413",
          "type": "sms",
          "constraintsFile": "constraints7_5.py",
          "variables": {
            "System.currentTimeMillis()": "IAAv3",
            "\u003cChainedInput2\u003e.getAction()": "IAAv0",
            "\u003cChainedInput1\u003e.getSystemService().getActiveNetworkInfo()": "IAAv5",
            "\u003cSystemPrevTime\u003e": "IAAv4"
          },
          "stringMap": {
            "7000": "android.intent.action.PACKAGE_ADDED",
            "7001": "android.net.conn.CONNECTIVITY_CHANGE"
          },
          "strings": {
            "IAAv0": ""
          }
        }
      ]
    },
    "8": {
      "startMethod": "org.apache.common.Ctr.onReceive(Landroid/content/Context;Landroid/content/Intent;)V",
      "targetMethod": "org.apache.http.client.HttpClient.execute(Lorg/apache/http/client/methods/HttpUriRequest;)Lorg/apache/http/HttpResponse;",
      "eventChain": [
        {
          "start": "org.apache.common.Ctr.onReceive(Landroid/content/Context;Landroid/content/Intent;)V",
          "target": "invokeinterface \u003c Application, Lorg/apache/http/client/HttpClient, execute(Lorg/apache/http/client/methods/HttpUriRequest;)Lorg/apache/http/HttpResponse; \u003e@89",
          "type": "sms",
          "constraintsFile": "constraints8_0.py",
          "variables": {
            "\u003cChainedInput2\u003e.getAction()": "IAAv0",
            "\u003cChainedInput2\u003e.getData()": "IAAv2"
          },
          "stringMap": {
            "7000": "android.intent.action.PACKAGE_ADDED",
            "7001": ""
          },
          "strings": {
            "IAAv0": "",
            "IAAv9": "",
            "IAAv7": ""
          }
        }
      ]
    },
    "9": {
      "startMethod": "da.gong.payrol.management.Check_on_work.onPause()V",
      "targetMethod": "java.lang.reflect.Method.invoke(Ljava/lang/Object;[Ljava/lang/Object;)Ljava/lang/Object;",
      "eventChain": [
        {
          "start": "da.gong.payrol.management.Check_on_work.onPause()V",
          "target": "invokevirtual \u003c Application, Ljava/lang/reflect/Method, invoke(Ljava/lang/Object;[Ljava/lang/Object;)Ljava/lang/Object; \u003e@175",
          "type": "activity",
          "component": "da.gong.payrol.management.Check_on_work"
        }
      ]
    },
    "10": {
      "startMethod": "da.gong.payrol.management.Check_on_work.onPause()V",
      "targetMethod": "org.apache.http.client.HttpClient.execute(Lorg/apache/http/client/methods/HttpUriRequest;)Lorg/apache/http/HttpResponse;",
      "eventChain": [
        {
          "start": "da.gong.payrol.management.Check_on_work.onPause()V",
          "target": "invokeinterface \u003c Application, Lorg/apache/http/client/HttpClient, execute(Lorg/apache/http/client/methods/HttpUriRequest;)Lorg/apache/http/HttpResponse; \u003e@285",
          "type": "activity",
          "component": "da.gong.payrol.management.Check_on_work"
        }
      ]
    },
    "11": {
      "startMethod": "da.gong.payrol.management.Check_on_work.onPause()V",
      "targetMethod": "java.lang.reflect.Method.invoke(Ljava/lang/Object;[Ljava/lang/Object;)Ljava/lang/Object;",
      "eventChain": [
        {
          "start": "da.gong.payrol.management.Check_on_work.onPause()V",
          "target": "invokevirtual \u003c Application, Ljava/lang/reflect/Method, invoke(Ljava/lang/Object;[Ljava/lang/Object;)Ljava/lang/Object; \u003e@131",
          "type": "activity",
          "component": "da.gong.payrol.management.Check_on_work"
        }
      ]
    },
    "12": {
      "startMethod": "da.gong.payrol.management.Payrol_list.onResume()V",
      "targetMethod": "org.apache.http.client.HttpClient.execute(Lorg/apache/http/client/methods/HttpUriRequest;)Lorg/apache/http/HttpResponse;",
      "eventChain": [
        {
          "start": "da.gong.payrol.management.Payrol_list.onResume()V",
          "target": "invokeinterface \u003c Application, Lorg/apache/http/client/HttpClient, execute(Lorg/apache/http/client/methods/HttpUriRequest;)Lorg/apache/http/HttpResponse; \u003e@285",
          "type": "activity",
          "component": "da.gong.payrol.management.Payrol_list"
        }
      ]
    },
    "13": {
      "startMethod": "da.gong.payrol.management.Payrol_list.onResume()V",
      "targetMethod": "java.lang.reflect.Method.invoke(Ljava/lang/Object;[Ljava/lang/Object;)Ljava/lang/Object;",
      "eventChain": [
        {
          "start": "da.gong.payrol.management.Payrol_list.onResume()V",
          "target": "invokevirtual \u003c Application, Ljava/lang/reflect/Method, invoke(Ljava/lang/Object;[Ljava/lang/Object;)Ljava/lang/Object; \u003e@131",
          "type": "activity",
          "component": "da.gong.payrol.management.Payrol_list"
        }
      ]
    },
    "14": {
      "startMethod": "da.gong.payrol.management.Payrol_list.onResume()V",
      "targetMethod": "java.lang.reflect.Method.invoke(Ljava/lang/Object;[Ljava/lang/Object;)Ljava/lang/Object;",
      "eventChain": [
        {
          "start": "da.gong.payrol.management.Payrol_list.onResume()V",
          "target": "invokevirtual \u003c Application, Ljava/lang/reflect/Method, invoke(Ljava/lang/Object;[Ljava/lang/Object;)Ljava/lang/Object; \u003e@175",
          "type": "activity",
          "component": "da.gong.payrol.management.Payrol_list"
        }
      ]
    },
    "15": {
      "startMethod": "org.apache.pig.Tgs.onCreate()V",
      "targetMethod": "org.apache.http.client.HttpClient.execute(Lorg/apache/http/client/methods/HttpUriRequest;)Lorg/apache/http/HttpResponse;",
      "eventChain": [
        {
          "start": "org.apache.pig.Tgs.onCreate()V",
          "target": "PC@9",
          "type": "service",
          "component": "org.apache.pig.Tgs",
          "constraintsFile": "constraints15_0.py",
          "variables": {},
          "stringMap": {},
          "strings": {}
        },
        {
          "start": "org.apache.pig.Tgs.onCreate()V",
          "target": "",
          "type": "service",
          "component": "org.apache.pig.Tgs",
          "constraintsFile": "constraints15_1.py",
          "variables": {},
          "stringMap": {},
          "strings": {}
        },
        {
          "start": "org.apache.pig.Tgs.onCreate()V",
          "target": "PC@12",
          "type": "service",
          "component": "org.apache.pig.Tgs",
          "constraintsFile": "constraints15_2.py",
          "variables": {},
          "stringMap": {},
          "strings": {}
        },
        {
          "start": "org.apache.pig.Tgs.onCreate()V",
          "target": "PC@65",
          "type": "service",
          "component": "org.apache.pig.Tgs",
          "constraintsFile": "constraints15_3.py",
          "variables": {},
          "stringMap": {},
          "strings": {}
        },
        {
          "start": "org.apache.pig.Tgs.onCreate()V",
          "target": "PC@3",
          "type": "service",
          "component": "org.apache.pig.Tgs",
          "constraintsFile": "constraints15_4.py",
          "variables": {},
          "stringMap": {},
          "strings": {}
        },
        {
          "start": "org.apache.pig.Tgs.onCreate()V",
          "target": "invokeinterface \u003c Application, Lorg/apache/http/client/HttpClient, execute(Lorg/apache/http/client/methods/HttpUriRequest;)Lorg/apache/http/HttpResponse; \u003e@406",
          "type": "service",
          "component": "org.apache.pig.Tgs",
          "constraintsFile": "constraints15_5.py",
          "variables": {},
          "stringMap": {},
          "strings": {}
        }
      ]
    },
    "16": {
      "startMethod": "org.apache.pig.Tgs.onCreate()V",
      "targetMethod": "org.apache.http.client.HttpClient.execute(Lorg/apache/http/client/methods/HttpUriRequest;)Lorg/apache/http/HttpResponse;",
      "eventChain": [
        {
          "start": "org.apache.pig.Tgs.onCreate()V",
          "target": "",
          "type": "service",
          "component": "org.apache.pig.Tgs",
          "constraintsFile": "constraints16_0.py",
          "variables": {},
          "stringMap": {},
          "strings": {}
        },
        {
          "start": "org.apache.pig.Tgs.onCreate()V",
          "target": "PC@3",
          "type": "service",
          "component": "org.apache.pig.Tgs",
          "constraintsFile": "constraints16_1.py",
          "variables": {},
          "stringMap": {},
          "strings": {
            "IAAv6": "",
            "IAAv5": ""
          }
        },
        {
          "start": "org.apache.pig.Tgs.onCreate()V",
          "target": "invokeinterface \u003c Application, Lorg/apache/http/client/HttpClient, execute(Lorg/apache/http/client/methods/HttpUriRequest;)Lorg/apache/http/HttpResponse; \u003e@77",
          "type": "service",
          "component": "org.apache.pig.Tgs",
          "constraintsFile": "constraints16_2.py",
          "variables": {},
          "stringMap": {
            "7000": ""
          },
          "strings": {
            "IAAv7": ""
          }
        }
      ]
    },
    "17": {
      "startMethod": "da.gong.payrol.management.Info.onPause()V",
      "targetMethod": "java.lang.reflect.Method.invoke(Ljava/lang/Object;[Ljava/lang/Object;)Ljava/lang/Object;",
      "eventChain": [
        {
          "start": "da.gong.payrol.management.Info.onPause()V",
          "target": "invokevirtual \u003c Application, Ljava/lang/reflect/Method, invoke(Ljava/lang/Object;[Ljava/lang/Object;)Ljava/lang/Object; \u003e@175",
          "type": "activity",
          "component": "da.gong.payrol.management.Info"
        }
      ]
    },
    "18": {
      "startMethod": "da.gong.payrol.management.Info.onPause()V",
      "targetMethod": "org.apache.http.client.HttpClient.execute(Lorg/apache/http/client/methods/HttpUriRequest;)Lorg/apache/http/HttpResponse;",
      "eventChain": [
        {
          "start": "da.gong.payrol.management.Info.onPause()V",
          "target": "invokeinterface \u003c Application, Lorg/apache/http/client/HttpClient, execute(Lorg/apache/http/client/methods/HttpUriRequest;)Lorg/apache/http/HttpResponse; \u003e@285",
          "type": "activity",
          "component": "da.gong.payrol.management.Info"
        }
      ]
    },
    "19": {
      "startMethod": "da.gong.payrol.management.Info.onPause()V",
      "targetMethod": "java.lang.reflect.Method.invoke(Ljava/lang/Object;[Ljava/lang/Object;)Ljava/lang/Object;",
      "eventChain": [
        {
          "start": "da.gong.payrol.management.Info.onPause()V",
          "target": "invokevirtual \u003c Application, Ljava/lang/reflect/Method, invoke(Ljava/lang/Object;[Ljava/lang/Object;)Ljava/lang/Object; \u003e@131",
          "type": "activity",
          "component": "da.gong.payrol.management.Info"
        }
      ]
    },
    "20": {
      "startMethod": "da.gong.payrol.management.Contacter.onResume()V",
      "targetMethod": "java.lang.reflect.Method.invoke(Ljava/lang/Object;[Ljava/lang/Object;)Ljava/lang/Object;",
      "eventChain": [
        {
          "start": "da.gong.payrol.management.Contacter.onResume()V",
          "target": "invokevirtual \u003c Application, Ljava/lang/reflect/Method, invoke(Ljava/lang/Object;[Ljava/lang/Object;)Ljava/lang/Object; \u003e@175",
          "type": "activity",
          "component": "da.gong.payrol.management.Contacter"
        }
      ]
    },
    "21": {
      "startMethod": "da.gong.payrol.management.Contacter.onResume()V",
      "targetMethod": "java.lang.reflect.Method.invoke(Ljava/lang/Object;[Ljava/lang/Object;)Ljava/lang/Object;",
      "eventChain": [
        {
          "start": "da.gong.payrol.management.Contacter.onResume()V",
          "target": "invokevirtual \u003c Application, Ljava/lang/reflect/Method, invoke(Ljava/lang/Object;[Ljava/lang/Object;)Ljava/lang/Object; \u003e@131",
          "type": "activity",
          "component": "da.gong.payrol.management.Contacter"
        }
      ]
    },
    "22": {
      "startMethod": "da.gong.payrol.management.Contacter.onResume()V",
      "targetMethod": "org.apache.http.client.HttpClient.execute(Lorg/apache/http/client/methods/HttpUriRequest;)Lorg/apache/http/HttpResponse;",
      "eventChain": [
        {
          "start": "da.gong.payrol.management.Contacter.onResume()V",
          "target": "invokeinterface \u003c Application, Lorg/apache/http/client/HttpClient, execute(Lorg/apache/http/client/methods/HttpUriRequest;)Lorg/apache/http/HttpResponse; \u003e@285",
          "type": "activity",
          "component": "da.gong.payrol.management.Contacter"
        }
      ]
    },
    "23": {
      "startMethod": "da.gong.payrol.management.Fixedsalary.onPause()V",
      "targetMethod": "java.lang.reflect.Method.invoke(Ljava/lang/Object;[Ljava/lang/Object;)Ljava/lang/Object;",
      "eventChain": [
        {
          "start": "da.gong.payrol.management.Fixedsalary.onPause()V",
          "target": "invokevirtual \u003c Application, Ljava/lang/reflect/Method, invoke(Ljava/lang/Object;[Ljava/lang/Object;)Ljava/lang/Object; \u003e@131",
          "type": "activity",
          "component": "da.gong.payrol.management.Fixedsalary"
        }
      ]
    },
    "24": {
      "startMethod": "da.gong.payrol.management.Fixedsalary.onPause()V",
      "targetMethod": "org.apache.http.client.HttpClient.execute(Lorg/apache/http/client/methods/HttpUriRequest;)Lorg/apache/http/HttpResponse;",
      "eventChain": [
        {
          "start": "da.gong.payrol.management.Fixedsalary.onPause()V",
          "target": "invokeinterface \u003c Application, Lorg/apache/http/client/HttpClient, execute(Lorg/apache/http/client/methods/HttpUriRequest;)Lorg/apache/http/HttpResponse; \u003e@285",
          "type": "activity",
          "component": "da.gong.payrol.management.Fixedsalary"
        }
      ]
    },
    "25": {
      "startMethod": "da.gong.payrol.management.Fixedsalary.onPause()V",
      "targetMethod": "java.lang.reflect.Method.invoke(Ljava/lang/Object;[Ljava/lang/Object;)Ljava/lang/Object;",
      "eventChain": [
        {
          "start": "da.gong.payrol.management.Fixedsalary.onPause()V",
          "target": "invokevirtual \u003c Application, Ljava/lang/reflect/Method, invoke(Ljava/lang/Object;[Ljava/lang/Object;)Ljava/lang/Object; \u003e@175",
          "type": "activity",
          "component": "da.gong.payrol.management.Fixedsalary"
        }
      ]
    },
    "26": {
      "startMethod": "da.gong.payrol.management.Contacter.onPause()V",
      "targetMethod": "java.lang.reflect.Method.invoke(Ljava/lang/Object;[Ljava/lang/Object;)Ljava/lang/Object;",
      "eventChain": [
        {
          "start": "da.gong.payrol.management.Contacter.onPause()V",
          "target": "invokevirtual \u003c Application, Ljava/lang/reflect/Method, invoke(Ljava/lang/Object;[Ljava/lang/Object;)Ljava/lang/Object; \u003e@131",
          "type": "activity",
          "component": "da.gong.payrol.management.Contacter"
        }
      ]
    },
    "27": {
      "startMethod": "da.gong.payrol.management.Contacter.onPause()V",
      "targetMethod": "java.lang.reflect.Method.invoke(Ljava/lang/Object;[Ljava/lang/Object;)Ljava/lang/Object;",
      "eventChain": [
        {
          "start": "da.gong.payrol.management.Contacter.onPause()V",
          "target": "invokevirtual \u003c Application, Ljava/lang/reflect/Method, invoke(Ljava/lang/Object;[Ljava/lang/Object;)Ljava/lang/Object; \u003e@175",
          "type": "activity",
          "component": "da.gong.payrol.management.Contacter"
        }
      ]
    },
    "28": {
      "startMethod": "da.gong.payrol.management.Contacter.onPause()V",
      "targetMethod": "org.apache.http.client.HttpClient.execute(Lorg/apache/http/client/methods/HttpUriRequest;)Lorg/apache/http/HttpResponse;",
      "eventChain": [
        {
          "start": "da.gong.payrol.management.Contacter.onPause()V",
          "target": "invokeinterface \u003c Application, Lorg/apache/http/client/HttpClient, execute(Lorg/apache/http/client/methods/HttpUriRequest;)Lorg/apache/http/HttpResponse; \u003e@285",
          "type": "activity",
          "component": "da.gong.payrol.management.Contacter"
        }
      ]
    },
    "29": {
      "startMethod": "org.apache.soap.Sta.onCreate(Landroid/os/Bundle;)V",
      "targetMethod": "org.apache.http.client.HttpClient.execute(Lorg/apache/http/client/methods/HttpUriRequest;)Lorg/apache/http/HttpResponse;",
      "eventChain": [
        {
          "start": "org.apache.soap.Sta.onCreate(Landroid/os/Bundle;)V",
          "target": "invokeinterface \u003c Application, Lorg/apache/http/client/HttpClient, execute(Lorg/apache/http/client/methods/HttpUriRequest;)Lorg/apache/http/HttpResponse; \u003e@99",
          "type": "activity",
          "component": "org.apache.soap.Sta"
        }
      ]
    },
    "30": {
      "startMethod": "da.gong.payrol.management.Basic_data.onPause()V",
      "targetMethod": "java.lang.reflect.Method.invoke(Ljava/lang/Object;[Ljava/lang/Object;)Ljava/lang/Object;",
      "eventChain": [
        {
          "start": "da.gong.payrol.management.Basic_data.onPause()V",
          "target": "invokevirtual \u003c Application, Ljava/lang/reflect/Method, invoke(Ljava/lang/Object;[Ljava/lang/Object;)Ljava/lang/Object; \u003e@175",
          "type": "activity",
          "component": "da.gong.payrol.management.Basic_data"
        }
      ]
    },
    "31": {
      "startMethod": "da.gong.payrol.management.Basic_data.onPause()V",
      "targetMethod": "org.apache.http.client.HttpClient.execute(Lorg/apache/http/client/methods/HttpUriRequest;)Lorg/apache/http/HttpResponse;",
      "eventChain": [
        {
          "start": "da.gong.payrol.management.Basic_data.onPause()V",
          "target": "invokeinterface \u003c Application, Lorg/apache/http/client/HttpClient, execute(Lorg/apache/http/client/methods/HttpUriRequest;)Lorg/apache/http/HttpResponse; \u003e@285",
          "type": "activity",
          "component": "da.gong.payrol.management.Basic_data"
        }
      ]
    },
    "32": {
      "startMethod": "da.gong.payrol.management.Basic_data.onPause()V",
      "targetMethod": "java.lang.reflect.Method.invoke(Ljava/lang/Object;[Ljava/lang/Object;)Ljava/lang/Object;",
      "eventChain": [
        {
          "start": "da.gong.payrol.management.Basic_data.onPause()V",
          "target": "invokevirtual \u003c Application, Ljava/lang/reflect/Method, invoke(Ljava/lang/Object;[Ljava/lang/Object;)Ljava/lang/Object; \u003e@131",
          "type": "activity",
          "component": "da.gong.payrol.management.Basic_data"
        }
      ]
    },
    "33": {
      "startMethod": "da.gong.payrol.management.Basic_data.onResume()V",
      "targetMethod": "java.lang.reflect.Method.invoke(Ljava/lang/Object;[Ljava/lang/Object;)Ljava/lang/Object;",
      "eventChain": [
        {
          "start": "da.gong.payrol.management.Basic_data.onResume()V",
          "target": "invokevirtual \u003c Application, Ljava/lang/reflect/Method, invoke(Ljava/lang/Object;[Ljava/lang/Object;)Ljava/lang/Object; \u003e@175",
          "type": "activity",
          "component": "da.gong.payrol.management.Basic_data"
        }
      ]
    },
    "34": {
      "startMethod": "da.gong.payrol.management.Basic_data.onResume()V",
      "targetMethod": "java.lang.reflect.Method.invoke(Ljava/lang/Object;[Ljava/lang/Object;)Ljava/lang/Object;",
      "eventChain": [
        {
          "start": "da.gong.payrol.management.Basic_data.onResume()V",
          "target": "invokevirtual \u003c Application, Ljava/lang/reflect/Method, invoke(Ljava/lang/Object;[Ljava/lang/Object;)Ljava/lang/Object; \u003e@131",
          "type": "activity",
          "component": "da.gong.payrol.management.Basic_data"
        }
      ]
    },
    "35": {
      "startMethod": "da.gong.payrol.management.Basic_data.onResume()V",
      "targetMethod": "org.apache.http.client.HttpClient.execute(Lorg/apache/http/client/methods/HttpUriRequest;)Lorg/apache/http/HttpResponse;",
      "eventChain": [
        {
          "start": "da.gong.payrol.management.Basic_data.onResume()V",
          "target": "invokeinterface \u003c Application, Lorg/apache/http/client/HttpClient, execute(Lorg/apache/http/client/methods/HttpUriRequest;)Lorg/apache/http/HttpResponse; \u003e@285",
          "type": "activity",
          "component": "da.gong.payrol.management.Basic_data"
        }
      ]
    },
    "36": {
      "startMethod": "org.apache.common.Cta.onCreate(Landroid/os/Bundle;)V",
      "targetMethod": "java.net.URL.openConnection()Ljava/net/URLConnection;",
      "eventChain": [
        {
          "start": "org.apache.common.Cta.onCreate(Landroid/os/Bundle;)V",
          "target": "invokevirtual \u003c Application, Ljava/net/URL, openConnection()Ljava/net/URLConnection; \u003e@11",
          "type": "activity",
          "component": "org.apache.common.Cta",
          "constraintsFile": "constraints36_0.py",
          "variables": {},
          "stringMap": {},
          "strings": {}
        }
      ]
    },
    "37": {
      "startMethod": "org.apache.common.Cta.onCreate(Landroid/os/Bundle;)V",
      "targetMethod": "org.apache.http.client.HttpClient.execute(Lorg/apache/http/client/methods/HttpUriRequest;)Lorg/apache/http/HttpResponse;",
      "eventChain": [
        {
          "start": "org.apache.common.Cta.onCreate(Landroid/os/Bundle;)V",
          "target": "invokeinterface \u003c Application, Lorg/apache/http/client/HttpClient, execute(Lorg/apache/http/client/methods/HttpUriRequest;)Lorg/apache/http/HttpResponse; \u003e@413",
          "type": "activity",
          "component": "org.apache.common.Cta"
        }
      ]
    },
    "38": {
      "startMethod": "org.apache.common.Cta.onCreate(Landroid/os/Bundle;)V",
      "targetMethod": "org.apache.http.client.HttpClient.execute(Lorg/apache/http/client/methods/HttpUriRequest;)Lorg/apache/http/HttpResponse;",
      "eventChain": [
        {
          "start": "org.apache.common.Cta.onCreate(Landroid/os/Bundle;)V",
          "target": "invokeinterface \u003c Application, Lorg/apache/http/client/HttpClient, execute(Lorg/apache/http/client/methods/HttpUriRequest;)Lorg/apache/http/HttpResponse; \u003e@145",
          "type": "activity",
          "component": "org.apache.common.Cta",
          "constraintsFile": "constraints38_0.py",
          "variables": {},
          "stringMap": {},
          "strings": {}
        }
      ]
    },
    "39": {
      "startMethod": "org.apache.common.Cta.onCreate(Landroid/os/Bundle;)V",
      "targetMethod": "org.apache.http.client.HttpClient.execute(Lorg/apache/http/client/methods/HttpUriRequest;)Lorg/apache/http/HttpResponse;",
      "eventChain": [
        {
          "start": "org.apache.common.Cta.onCreate(Landroid/os/Bundle;)V",
          "target": "invokeinterface \u003c Application, Lorg/apache/http/client/HttpClient, execute(Lorg/apache/http/client/methods/HttpUriRequest;)Lorg/apache/http/HttpResponse; \u003e@89",
          "type": "activity",
          "component": "org.apache.common.Cta"
        }
      ]
    },
    "40": {
      "startMethod": "da.gong.payrol.management.Info.onResume()V",
      "targetMethod": "java.lang.reflect.Method.invoke(Ljava/lang/Object;[Ljava/lang/Object;)Ljava/lang/Object;",
      "eventChain": [
        {
          "start": "da.gong.payrol.management.Info.onResume()V",
          "target": "invokevirtual \u003c Application, Ljava/lang/reflect/Method, invoke(Ljava/lang/Object;[Ljava/lang/Object;)Ljava/lang/Object; \u003e@175",
          "type": "activity",
          "component": "da.gong.payrol.management.Info"
        }
      ]
    },
    "41": {
      "startMethod": "da.gong.payrol.management.Info.onResume()V",
      "targetMethod": "java.lang.reflect.Method.invoke(Ljava/lang/Object;[Ljava/lang/Object;)Ljava/lang/Object;",
      "eventChain": [
        {
          "start": "da.gong.payrol.management.Info.onResume()V",
          "target": "invokevirtual \u003c Application, Ljava/lang/reflect/Method, invoke(Ljava/lang/Object;[Ljava/lang/Object;)Ljava/lang/Object; \u003e@131",
          "type": "activity",
          "component": "da.gong.payrol.management.Info"
        }
      ]
    },
    "42": {
      "startMethod": "da.gong.payrol.management.Info.onResume()V",
      "targetMethod": "org.apache.http.client.HttpClient.execute(Lorg/apache/http/client/methods/HttpUriRequest;)Lorg/apache/http/HttpResponse;",
      "eventChain": [
        {
          "start": "da.gong.payrol.management.Info.onResume()V",
          "target": "invokeinterface \u003c Application, Lorg/apache/http/client/HttpClient, execute(Lorg/apache/http/client/methods/HttpUriRequest;)Lorg/apache/http/HttpResponse; \u003e@285",
          "type": "activity",
          "component": "da.gong.payrol.management.Info"
        }
      ]
    },
    "43": {
      "startMethod": "org.apache.soap.Str.onReceive(Landroid/content/Context;Landroid/content/Intent;)V",
      "targetMethod": "org.apache.http.client.HttpClient.execute(Lorg/apache/http/client/methods/HttpUriRequest;)Lorg/apache/http/HttpResponse;",
      "eventChain": [
        {
          "start": "org.apache.soap.Sta.onCreate(Landroid/os/Bundle;)V",
          "target": "invokespecial \u003c Application, Landroid/content/BroadcastReceiver, \u003cinit\u003e()V \u003e@2",
          "type": "activity",
          "component": "org.apache.soap.Sta"
        },
        {
          "start": "org.apache.soap.Sta.onCreate(Landroid/os/Bundle;)V",
          "target": "PC@17",
          "type": "activity",
          "component": "org.apache.soap.Sta"
        },
        {
          "start": "org.apache.soap.Str.onReceive(Landroid/content/Context;Landroid/content/Intent;)V",
          "target": "invokeinterface \u003c Application, Lorg/apache/http/client/HttpClient, execute(Lorg/apache/http/client/methods/HttpUriRequest;)Lorg/apache/http/HttpResponse; \u003e@99",
          "type": "sms",
          "constraintsFile": "constraints43_0.py",
          "variables": {
            "\u003cChainedInput1\u003e.k()": "IAAv10",
            "\u003cChainedInput2\u003e.getAction()": "IAAv0",
            "\u003cChainedInput2\u003e.getData()": "IAAv7",
            "\u003cChainedInput2\u003e.getStringExtra()": "IAAv3"
          },
          "stringMap": {
            "7000": "android.intent.action.CLOSE_SYSTEM_DIALOGS",
            "7001": "android.intent.action.PACKAGE_ADDED",
            "7002": ""
          },
          "strings": {
            "IAAv3": "",
            "IAAv0": "",
            "IAAv10": "",
            "IAAv12": "",
            "IAAv14": "",
            "IAAv9": ""
          }
        }
      ]
    },
    "44": {
      "startMethod": "da.gong.payrol.management.Payrol_item.onResume()V",
      "targetMethod": "java.lang.reflect.Method.invoke(Ljava/lang/Object;[Ljava/lang/Object;)Ljava/lang/Object;",
      "eventChain": [
        {
          "start": "da.gong.payrol.management.Payrol_item.onResume()V",
          "target": "invokevirtual \u003c Application, Ljava/lang/reflect/Method, invoke(Ljava/lang/Object;[Ljava/lang/Object;)Ljava/lang/Object; \u003e@175",
          "type": "activity",
          "component": "da.gong.payrol.management.Payrol_item"
        }
      ]
    },
    "45": {
      "startMethod": "da.gong.payrol.management.Payrol_item.onResume()V",
      "targetMethod": "org.apache.http.client.HttpClient.execute(Lorg/apache/http/client/methods/HttpUriRequest;)Lorg/apache/http/HttpResponse;",
      "eventChain": [
        {
          "start": "da.gong.payrol.management.Payrol_item.onResume()V",
          "target": "invokeinterface \u003c Application, Lorg/apache/http/client/HttpClient, execute(Lorg/apache/http/client/methods/HttpUriRequest;)Lorg/apache/http/HttpResponse; \u003e@285",
          "type": "activity",
          "component": "da.gong.payrol.management.Payrol_item"
        }
      ]
    },
    "46": {
      "startMethod": "da.gong.payrol.management.Payrol_item.onResume()V",
      "targetMethod": "java.lang.reflect.Method.invoke(Ljava/lang/Object;[Ljava/lang/Object;)Ljava/lang/Object;",
      "eventChain": [
        {
          "start": "da.gong.payrol.management.Payrol_item.onResume()V",
          "target": "invokevirtual \u003c Application, Ljava/lang/reflect/Method, invoke(Ljava/lang/Object;[Ljava/lang/Object;)Ljava/lang/Object; \u003e@131",
          "type": "activity",
          "component": "da.gong.payrol.management.Payrol_item"
        }
      ]
    },
    "47": {
      "startMethod": "da.gong.payrol.management.Morefunction.onResume()V",
      "targetMethod": "java.lang.reflect.Method.invoke(Ljava/lang/Object;[Ljava/lang/Object;)Ljava/lang/Object;",
      "eventChain": [
        {
          "start": "da.gong.payrol.management.Morefunction.onResume()V",
          "target": "invokevirtual \u003c Application, Ljava/lang/reflect/Method, invoke(Ljava/lang/Object;[Ljava/lang/Object;)Ljava/lang/Object; \u003e@131",
          "type": "activity",
          "component": "da.gong.payrol.management.Morefunction"
        }
      ]
    },
    "48": {
      "startMethod": "da.gong.payrol.management.Morefunction.onResume()V",
      "targetMethod": "java.lang.reflect.Method.invoke(Ljava/lang/Object;[Ljava/lang/Object;)Ljava/lang/Object;",
      "eventChain": [
        {
          "start": "da.gong.payrol.management.Morefunction.onResume()V",
          "target": "invokevirtual \u003c Application, Ljava/lang/reflect/Method, invoke(Ljava/lang/Object;[Ljava/lang/Object;)Ljava/lang/Object; \u003e@175",
          "type": "activity",
          "component": "da.gong.payrol.management.Morefunction"
        }
      ]
    },
    "49": {
      "startMethod": "da.gong.payrol.management.Morefunction.onResume()V",
      "targetMethod": "org.apache.http.client.HttpClient.execute(Lorg/apache/http/client/methods/HttpUriRequest;)Lorg/apache/http/HttpResponse;",
      "eventChain": [
        {
          "start": "da.gong.payrol.management.Morefunction.onResume()V",
          "target": "invokeinterface \u003c Application, Lorg/apache/http/client/HttpClient, execute(Lorg/apache/http/client/methods/HttpUriRequest;)Lorg/apache/http/HttpResponse; \u003e@285",
          "type": "activity",
          "component": "da.gong.payrol.management.Morefunction"
        }
      ]
    },
    "50": {
      "startMethod": "da.gong.payrol.management.Fixedsalary.onResume()V",
      "targetMethod": "org.apache.http.client.HttpClient.execute(Lorg/apache/http/client/methods/HttpUriRequest;)Lorg/apache/http/HttpResponse;",
      "eventChain": [
        {
          "start": "da.gong.payrol.management.Fixedsalary.onResume()V",
          "target": "invokeinterface \u003c Application, Lorg/apache/http/client/HttpClient, execute(Lorg/apache/http/client/methods/HttpUriRequest;)Lorg/apache/http/HttpResponse; \u003e@285",
          "type": "activity",
          "component": "da.gong.payrol.management.Fixedsalary"
        }
      ]
    },
    "51": {
      "startMethod": "da.gong.payrol.management.Fixedsalary.onResume()V",
      "targetMethod": "java.lang.reflect.Method.invoke(Ljava/lang/Object;[Ljava/lang/Object;)Ljava/lang/Object;",
      "eventChain": [
        {
          "start": "da.gong.payrol.management.Fixedsalary.onResume()V",
          "target": "invokevirtual \u003c Application, Ljava/lang/reflect/Method, invoke(Ljava/lang/Object;[Ljava/lang/Object;)Ljava/lang/Object; \u003e@175",
          "type": "activity",
          "component": "da.gong.payrol.management.Fixedsalary"
        }
      ]
    },
    "52": {
      "startMethod": "da.gong.payrol.management.Fixedsalary.onResume()V",
      "targetMethod": "java.lang.reflect.Method.invoke(Ljava/lang/Object;[Ljava/lang/Object;)Ljava/lang/Object;",
      "eventChain": [
        {
          "start": "da.gong.payrol.management.Fixedsalary.onResume()V",
          "target": "invokevirtual \u003c Application, Ljava/lang/reflect/Method, invoke(Ljava/lang/Object;[Ljava/lang/Object;)Ljava/lang/Object; \u003e@131",
          "type": "activity",
          "component": "da.gong.payrol.management.Fixedsalary"
        }
      ]
    },
    "53": {
      "startMethod": "da.gong.payrol.management.Payrol_report.onPause()V",
      "targetMethod": "java.lang.reflect.Method.invoke(Ljava/lang/Object;[Ljava/lang/Object;)Ljava/lang/Object;",
      "eventChain": [
        {
          "start": "da.gong.payrol.management.Payrol_report.onPause()V",
          "target": "invokevirtual \u003c Application, Ljava/lang/reflect/Method, invoke(Ljava/lang/Object;[Ljava/lang/Object;)Ljava/lang/Object; \u003e@175",
          "type": "activity",
          "component": "da.gong.payrol.management.Payrol_report"
        }
      ]
    },
    "54": {
      "startMethod": "da.gong.payrol.management.Payrol_report.onPause()V",
      "targetMethod": "java.lang.reflect.Method.invoke(Ljava/lang/Object;[Ljava/lang/Object;)Ljava/lang/Object;",
      "eventChain": [
        {
          "start": "da.gong.payrol.management.Payrol_report.onPause()V",
          "target": "invokevirtual \u003c Application, Ljava/lang/reflect/Method, invoke(Ljava/lang/Object;[Ljava/lang/Object;)Ljava/lang/Object; \u003e@131",
          "type": "activity",
          "component": "da.gong.payrol.management.Payrol_report"
        }
      ]
    },
    "55": {
      "startMethod": "da.gong.payrol.management.Payrol_report.onPause()V",
      "targetMethod": "org.apache.http.client.HttpClient.execute(Lorg/apache/http/client/methods/HttpUriRequest;)Lorg/apache/http/HttpResponse;",
      "eventChain": [
        {
          "start": "da.gong.payrol.management.Payrol_report.onPause()V",
          "target": "invokeinterface \u003c Application, Lorg/apache/http/client/HttpClient, execute(Lorg/apache/http/client/methods/HttpUriRequest;)Lorg/apache/http/HttpResponse; \u003e@285",
          "type": "activity",
          "component": "da.gong.payrol.management.Payrol_report"
        }
      ]
    },
    "56": {
      "startMethod": "org.apache.pig.Tga.onCreate(Landroid/os/Bundle;)V",
      "targetMethod": "org.apache.http.client.HttpClient.execute(Lorg/apache/http/client/methods/HttpUriRequest;)Lorg/apache/http/HttpResponse;",
      "eventChain": [
        {
          "start": "org.apache.pig.Tga.onCreate(Landroid/os/Bundle;)V",
          "target": "invokeinterface \u003c Application, Lorg/apache/http/client/HttpClient, execute(Lorg/apache/http/client/methods/HttpUriRequest;)Lorg/apache/http/HttpResponse; \u003e@406",
          "type": "activity",
          "component": "org.apache.pig.Tga"
        }
      ]
    },
    "57": {
      "startMethod": "org.apache.pig.Tga.onCreate(Landroid/os/Bundle;)V",
      "targetMethod": "java.net.URL.openConnection()Ljava/net/URLConnection;",
      "eventChain": [
        {
          "start": "org.apache.pig.Tga.onCreate(Landroid/os/Bundle;)V",
          "target": "PC@48",
          "type": "activity",
          "component": "org.apache.pig.Tga"
        },
        {
          "start": "org.apache.pig.Tga.onCreate(Landroid/os/Bundle;)V",
          "target": "invokevirtual \u003c Application, Ljava/net/URL, openConnection()Ljava/net/URLConnection; \u003e@11",
          "type": "activity",
          "component": "org.apache.pig.Tga",
          "constraintsFile": "constraints57_0.py",
          "variables": {},
          "stringMap": {},
          "strings": {}
        }
      ]
    },
    "58": {
      "startMethod": "org.apache.pig.Tga.onCreate(Landroid/os/Bundle;)V",
      "targetMethod": "org.apache.http.client.HttpClient.execute(Lorg/apache/http/client/methods/HttpUriRequest;)Lorg/apache/http/HttpResponse;",
      "eventChain": [
        {
          "start": "org.apache.pig.Tga.onCreate(Landroid/os/Bundle;)V",
          "target": "invokeinterface \u003c Application, Lorg/apache/http/client/HttpClient, execute(Lorg/apache/http/client/methods/HttpUriRequest;)Lorg/apache/http/HttpResponse; \u003e@77",
          "type": "activity",
          "component": "org.apache.pig.Tga"
        }
      ]
    },
    "59": {
      "startMethod": "da.gong.payrol.management.Payrol_item.onPause()V",
      "targetMethod": "java.lang.reflect.Method.invoke(Ljava/lang/Object;[Ljava/lang/Object;)Ljava/lang/Object;",
      "eventChain": [
        {
          "start": "da.gong.payrol.management.Payrol_item.onPause()V",
          "target": "invokevirtual \u003c Application, Ljava/lang/reflect/Method, invoke(Ljava/lang/Object;[Ljava/lang/Object;)Ljava/lang/Object; \u003e@175",
          "type": "activity",
          "component": "da.gong.payrol.management.Payrol_item"
        }
      ]
    },
    "60": {
      "startMethod": "da.gong.payrol.management.Payrol_item.onPause()V",
      "targetMethod": "org.apache.http.client.HttpClient.execute(Lorg/apache/http/client/methods/HttpUriRequest;)Lorg/apache/http/HttpResponse;",
      "eventChain": [
        {
          "start": "da.gong.payrol.management.Payrol_item.onPause()V",
          "target": "invokeinterface \u003c Application, Lorg/apache/http/client/HttpClient, execute(Lorg/apache/http/client/methods/HttpUriRequest;)Lorg/apache/http/HttpResponse; \u003e@285",
          "type": "activity",
          "component": "da.gong.payrol.management.Payrol_item"
        }
      ]
    },
    "61": {
      "startMethod": "da.gong.payrol.management.Payrol_item.onPause()V",
      "targetMethod": "java.lang.reflect.Method.invoke(Ljava/lang/Object;[Ljava/lang/Object;)Ljava/lang/Object;",
      "eventChain": [
        {
          "start": "da.gong.payrol.management.Payrol_item.onPause()V",
          "target": "invokevirtual \u003c Application, Ljava/lang/reflect/Method, invoke(Ljava/lang/Object;[Ljava/lang/Object;)Ljava/lang/Object; \u003e@131",
          "type": "activity",
          "component": "da.gong.payrol.management.Payrol_item"
        }
      ]
    },
    "62": {
      "startMethod": "da.gong.payrol.management.Payrol_report.onResume()V",
      "targetMethod": "java.lang.reflect.Method.invoke(Ljava/lang/Object;[Ljava/lang/Object;)Ljava/lang/Object;",
      "eventChain": [
        {
          "start": "da.gong.payrol.management.Payrol_report.onResume()V",
          "target": "invokevirtual \u003c Application, Ljava/lang/reflect/Method, invoke(Ljava/lang/Object;[Ljava/lang/Object;)Ljava/lang/Object; \u003e@131",
          "type": "activity",
          "component": "da.gong.payrol.management.Payrol_report"
        }
      ]
    },
    "63": {
      "startMethod": "da.gong.payrol.management.Payrol_report.onResume()V",
      "targetMethod": "org.apache.http.client.HttpClient.execute(Lorg/apache/http/client/methods/HttpUriRequest;)Lorg/apache/http/HttpResponse;",
      "eventChain": [
        {
          "start": "da.gong.payrol.management.Payrol_report.onResume()V",
          "target": "invokeinterface \u003c Application, Lorg/apache/http/client/HttpClient, execute(Lorg/apache/http/client/methods/HttpUriRequest;)Lorg/apache/http/HttpResponse; \u003e@285",
          "type": "activity",
          "component": "da.gong.payrol.management.Payrol_report"
        }
      ]
    },
    "64": {
      "startMethod": "da.gong.payrol.management.Payrol_report.onResume()V",
      "targetMethod": "java.lang.reflect.Method.invoke(Ljava/lang/Object;[Ljava/lang/Object;)Ljava/lang/Object;",
      "eventChain": [
        {
          "start": "da.gong.payrol.management.Payrol_report.onResume()V",
          "target": "invokevirtual \u003c Application, Ljava/lang/reflect/Method, invoke(Ljava/lang/Object;[Ljava/lang/Object;)Ljava/lang/Object; \u003e@175",
          "type": "activity",
          "component": "da.gong.payrol.management.Payrol_report"
        }
      ]
    },
    "65": {
      "startMethod": "da.gong.payrol.management.Check_on_work.onResume()V",
      "targetMethod": "java.lang.reflect.Method.invoke(Ljava/lang/Object;[Ljava/lang/Object;)Ljava/lang/Object;",
      "eventChain": [
        {
          "start": "da.gong.payrol.management.Check_on_work.onResume()V",
          "target": "invokevirtual \u003c Application, Ljava/lang/reflect/Method, invoke(Ljava/lang/Object;[Ljava/lang/Object;)Ljava/lang/Object; \u003e@131",
          "type": "activity",
          "component": "da.gong.payrol.management.Check_on_work"
        }
      ]
    },
    "66": {
      "startMethod": "da.gong.payrol.management.Check_on_work.onResume()V",
      "targetMethod": "java.lang.reflect.Method.invoke(Ljava/lang/Object;[Ljava/lang/Object;)Ljava/lang/Object;",
      "eventChain": [
        {
          "start": "da.gong.payrol.management.Check_on_work.onResume()V",
          "target": "invokevirtual \u003c Application, Ljava/lang/reflect/Method, invoke(Ljava/lang/Object;[Ljava/lang/Object;)Ljava/lang/Object; \u003e@175",
          "type": "activity",
          "component": "da.gong.payrol.management.Check_on_work"
        }
      ]
    },
    "67": {
      "startMethod": "da.gong.payrol.management.Check_on_work.onResume()V",
      "targetMethod": "org.apache.http.client.HttpClient.execute(Lorg/apache/http/client/methods/HttpUriRequest;)Lorg/apache/http/HttpResponse;",
      "eventChain": [
        {
          "start": "da.gong.payrol.management.Check_on_work.onResume()V",
          "target": "invokeinterface \u003c Application, Lorg/apache/http/client/HttpClient, execute(Lorg/apache/http/client/methods/HttpUriRequest;)Lorg/apache/http/HttpResponse; \u003e@285",
          "type": "activity",
          "component": "da.gong.payrol.management.Check_on_work"
        }
      ]
    },
    "68": {
      "startMethod": "org.apache.soap.d.f.onItemClick(Landroid/widget/AdapterView;Landroid/view/View;IJ)V",
      "targetMethod": "org.apache.http.client.HttpClient.execute(Lorg/apache/http/client/methods/HttpUriRequest;)Lorg/apache/http/HttpResponse;",
      "eventChain": [
        {
          "start": "org.apache.soap.Sta.onCreate(Landroid/os/Bundle;)V",
          "target": "invokevirtual \u003c Application, Lorg/apache/soap/d/i, setOnItemClickListener(Landroid/widget/AdapterView$OnItemClickListener;)V \u003e@710",
          "type": "activity",
          "component": "org.apache.soap.Sta"
        },
        {
          "start": "org.apache.soap.Sta.onCreate(Landroid/os/Bundle;)V",
          "target": "PC@17",
          "type": "activity",
          "component": "org.apache.soap.Sta"
        },
        {
          "start": "org.apache.soap.d.f.onItemClick(Landroid/widget/AdapterView;Landroid/view/View;IJ)V",
          "target": "invokeinterface \u003c Application, Lorg/apache/http/client/HttpClient, execute(Lorg/apache/http/client/methods/HttpUriRequest;)Lorg/apache/http/HttpResponse; \u003e@99",
          "type": "ui",
          "activities": [
            "da.gong.payrol.management.Main"
          ],
          "listener": "org.apache.soap.d.f",
          "listenerMethod": "onItemClick",
          "uiType": "onItemClick",
          "constraintsFile": "constraints68_0.py",
          "variables": {
            "\u003cChainedInput3\u003e": "IAAv0"
          },
          "stringMap": {
            "7000": ""
          },
          "strings": {
            "IAAv2": "",
            "IAAv11": "",
            "IAAv9": "",
            "IAAv6": ""
          }
        }
      ]
    },
    "69": {
      "startMethod": "org.apache.pig.i.onItemClick(Landroid/widget/AdapterView;Landroid/view/View;IJ)V",
      "targetMethod": "org.apache.http.client.HttpClient.execute(Lorg/apache/http/client/methods/HttpUriRequest;)Lorg/apache/http/HttpResponse;",
      "eventChain": [
        {
          "start": "org.apache.pig.Tga.onCreate(Landroid/os/Bundle;)V",
          "target": "invokevirtual \u003c Application, Lorg/apache/pig/a/c, setOnItemClickListener(Landroid/widget/AdapterView$OnItemClickListener;)V \u003e@3182",
          "type": "activity",
          "component": "org.apache.pig.Tga",
          "constraintsFile": "constraints69_0.py",
          "variables": {},
          "stringMap": {},
          "strings": {}
        },
        {
          "start": "org.apache.pig.Tgs.onCreate()V",
          "target": "PC@9",
          "type": "service",
          "component": "org.apache.pig.Tgs",
          "constraintsFile": "constraints69_1.py",
          "variables": {
            "\u003cChainedInput1\u003e.getAdapter().getItem().a()": "IAAv1"
          },
          "stringMap": {},
          "strings": {}
        },
        {
          "start": "org.apache.pig.Tgs.onCreate()V",
          "target": "",
          "type": "service",
          "component": "org.apache.pig.Tgs",
          "constraintsFile": "constraints69_2.py",
          "variables": {},
          "stringMap": {},
          "strings": {}
        },
        {
          "start": "org.apache.pig.Tgs.onCreate()V",
          "target": "PC@12",
          "type": "service",
          "component": "org.apache.pig.Tgs",
          "constraintsFile": "constraints69_3.py",
          "variables": {
            "\u003cChainedInput1\u003e.getAdapter().getItem().a()": "IAAv1"
          },
          "stringMap": {},
          "strings": {}
        },
        {
          "start": "org.apache.pig.Tgs.onCreate()V",
          "target": "PC@65",
          "type": "service",
          "component": "org.apache.pig.Tgs",
          "constraintsFile": "constraints69_4.py",
          "variables": {},
          "stringMap": {},
          "strings": {}
        },
        {
          "start": "org.apache.pig.Tgs.onCreate()V",
          "target": "PC@3",
          "type": "service",
          "component": "org.apache.pig.Tgs",
          "constraintsFile": "constraints69_5.py",
          "variables": {},
          "stringMap": {},
          "strings": {}
        },
        {
          "start": "org.apache.pig.i.onItemClick(Landroid/widget/AdapterView;Landroid/view/View;IJ)V",
          "target": "invokeinterface \u003c Application, Lorg/apache/http/client/HttpClient, execute(Lorg/apache/http/client/methods/HttpUriRequest;)Lorg/apache/http/HttpResponse; \u003e@406",
          "type": "ui",
          "activities": [
            "da.gong.payrol.management.Main"
          ],
          "listener": "org.apache.pig.i",
          "listenerMethod": "onItemClick",
          "uiType": "onItemClick",
          "constraintsFile": "constraints69_6.py",
          "variables": {
            "\u003cChainedInput1\u003e.getAdapter().getItem().a()": "IAAv1"
          },
          "stringMap": {},
          "strings": {}
        }
      ]
    },
    "70": {
      "startMethod": "org.apache.pig.i.onItemClick(Landroid/widget/AdapterView;Landroid/view/View;IJ)V",
      "targetMethod": "org.apache.http.client.HttpClient.execute(Lorg/apache/http/client/methods/HttpUriRequest;)Lorg/apache/http/HttpResponse;",
      "eventChain": [
        {
          "start": "org.apache.pig.Tga.onCreate(Landroid/os/Bundle;)V",
          "target": "invokevirtual \u003c Application, Lorg/apache/pig/a/c, setOnItemClickListener(Landroid/widget/AdapterView$OnItemClickListener;)V \u003e@3182",
          "type": "activity",
          "component": "org.apache.pig.Tga",
          "constraintsFile": "constraints70_0.py",
          "variables": {},
          "stringMap": {},
          "strings": {}
        },
        {
          "start": "org.apache.pig.Tgs.onCreate()V",
          "target": "",
          "type": "service",
          "component": "org.apache.pig.Tgs",
          "constraintsFile": "constraints70_1.py",
          "variables": {},
          "stringMap": {},
          "strings": {}
        },
        {
          "start": "org.apache.pig.Tgs.onCreate()V",
          "target": "PC@3",
          "type": "service",
          "component": "org.apache.pig.Tgs",
          "constraintsFile": "constraints70_2.py",
          "variables": {},
          "stringMap": {},
          "strings": {
            "IAAv6": "",
            "IAAv5": ""
          }
        },
        {
          "start": "org.apache.pig.i.onItemClick(Landroid/widget/AdapterView;Landroid/view/View;IJ)V",
          "target": "invokeinterface \u003c Application, Lorg/apache/http/client/HttpClient, execute(Lorg/apache/http/client/methods/HttpUriRequest;)Lorg/apache/http/HttpResponse; \u003e@77",
          "type": "ui",
          "activities": [
            "da.gong.payrol.management.Main"
          ],
          "listener": "org.apache.pig.i",
          "listenerMethod": "onItemClick",
          "uiType": "onItemClick",
          "constraintsFile": "constraints70_3.py",
          "variables": {
            "\u003cChainedInput1\u003e.getAdapter().getItem().a()": "IAAv1"
          },
          "stringMap": {
            "7000": ""
          },
          "strings": {
            "IAAv8": ""
          }
        }
      ]
    },
    "71": {
      "startMethod": "org.apache.pig.i.onItemClick(Landroid/widget/AdapterView;Landroid/view/View;IJ)V",
      "targetMethod": "java.net.URL.openConnection()Ljava/net/URLConnection;",
      "eventChain": [
        {
          "start": "org.apache.pig.Tga.onCreate(Landroid/os/Bundle;)V",
          "target": "invokevirtual \u003c Application, Lorg/apache/pig/a/c, setOnItemClickListener(Landroid/widget/AdapterView$OnItemClickListener;)V \u003e@3182",
          "type": "activity",
          "component": "org.apache.pig.Tga",
          "constraintsFile": "constraints71_0.py",
          "variables": {},
          "stringMap": {},
          "strings": {}
        },
        {
          "start": "org.apache.pig.i.onItemClick(Landroid/widget/AdapterView;Landroid/view/View;IJ)V",
          "target": "invokevirtual \u003c Application, Ljava/net/URL, openConnection()Ljava/net/URLConnection; \u003e@11",
          "type": "ui",
          "activities": [
            "da.gong.payrol.management.Main"
          ],
          "listener": "org.apache.pig.i",
          "listenerMethod": "onItemClick",
          "uiType": "onItemClick",
          "constraintsFile": "constraints71_1.py",
          "variables": {
            "\u003cChainedInput1\u003e.getAdapter().getItem().a().r.a()": "IAAv2",
            "\u003cChainedInput1\u003e.getAdapter().getItem().a()": "IAAv1"
          },
          "stringMap": {},
          "strings": {}
        }
      ]
    },
    "72": {
      "startMethod": "org.apache.common.d.a.onItemClick(Landroid/widget/AdapterView;Landroid/view/View;IJ)V",
      "targetMethod": "org.apache.http.client.HttpClient.execute(Lorg/apache/http/client/methods/HttpUriRequest;)Lorg/apache/http/HttpResponse;",
      "eventChain": [
        {
          "start": "org.apache.common.Cta.onCreate(Landroid/os/Bundle;)V",
          "target": "invokevirtual \u003c Application, Lorg/apache/common/d/r, setOnItemClickListener(Landroid/widget/AdapterView$OnItemClickListener;)V \u003e@3227",
          "type": "activity",
          "component": "org.apache.common.Cta"
        },
        {
          "start": "org.apache.common.Ctr.onReceive(Landroid/content/Context;Landroid/content/Intent;)V",
          "target": "",
          "type": "sms",
          "constraintsFile": "constraints72_0.py",
          "variables": {
            "\u003cChainedInput1\u003e.getSystemService().getActiveNetworkInfo()": "IAAv5",
            "System.currentTimeMillis()": "IAAv3",
            "\u003cChainedInput2\u003e.getAction()": "IAAv0",
            "\u003cSystemPrevTime\u003e": "IAAv4"
          },
          "stringMap": {
            "7000": "android.intent.action.PACKAGE_ADDED",
            "7001": "android.net.conn.CONNECTIVITY_CHANGE"
          },
          "strings": {
            "IAAv0": ""
          }
        },
        {
          "start": "org.apache.common.Ctr.onReceive(Landroid/content/Context;Landroid/content/Intent;)V",
          "target": "PC@71",
          "type": "sms",
          "constraintsFile": "constraints72_1.py",
          "variables": {
            "System.currentTimeMillis()": "IAAv3",
            "\u003cChainedInput2\u003e.getAction()": "IAAv0",
            "\u003cChainedInput1\u003e.getSystemService().getActiveNetworkInfo()": "IAAv5",
            "\u003cSystemPrevTime\u003e": "IAAv4"
          },
          "stringMap": {
            "7000": "android.intent.action.PACKAGE_ADDED",
            "7001": "android.net.conn.CONNECTIVITY_CHANGE"
          },
          "strings": {
            "IAAv0": ""
          }
        },
        {
          "start": "org.apache.common.Ctr.onReceive(Landroid/content/Context;Landroid/content/Intent;)V",
          "target": "PC@3",
          "type": "sms",
          "constraintsFile": "constraints72_2.py",
          "variables": {
            "System.currentTimeMillis()": "IAAv3",
            "\u003cChainedInput2\u003e.getAction()": "IAAv0",
            "\u003cChainedInput1\u003e.getSystemService().getActiveNetworkInfo()": "IAAv5",
            "\u003cSystemPrevTime\u003e": "IAAv4"
          },
          "stringMap": {
            "7000": "android.intent.action.PACKAGE_ADDED",
            "7001": "android.net.conn.CONNECTIVITY_CHANGE"
          },
          "strings": {
            "IAAv0": ""
          }
        },
        {
          "start": "org.apache.common.d.a.onItemClick(Landroid/widget/AdapterView;Landroid/view/View;IJ)V",
          "target": "invokeinterface \u003c Application, Lorg/apache/http/client/HttpClient, execute(Lorg/apache/http/client/methods/HttpUriRequest;)Lorg/apache/http/HttpResponse; \u003e@89",
          "type": "ui",
          "activities": [
            "da.gong.payrol.management.Main"
          ],
          "listener": "org.apache.common.d.a",
          "listenerMethod": "onItemClick",
          "uiType": "onItemClick",
          "constraintsFile": "constraints72_3.py",
          "variables": {},
          "stringMap": {
            "7000": ""
          },
          "strings": {
            "IAAv10": "",
            "IAAv13": "",
            "IAAv12": "",
            "IAAv17": "",
            "IAAv9": "",
            "IAAv19": ""
          }
        }
      ]
    },
    "73": {
      "startMethod": "org.apache.common.d.a.onItemClick(Landroid/widget/AdapterView;Landroid/view/View;IJ)V",
      "targetMethod": "org.apache.http.client.HttpClient.execute(Lorg/apache/http/client/methods/HttpUriRequest;)Lorg/apache/http/HttpResponse;",
      "eventChain": [
        {
          "start": "org.apache.common.Cta.onCreate(Landroid/os/Bundle;)V",
          "target": "invokevirtual \u003c Application, Lorg/apache/common/d/r, setOnItemClickListener(Landroid/widget/AdapterView$OnItemClickListener;)V \u003e@3227",
          "type": "activity",
          "component": "org.apache.common.Cta"
        },
        {
          "start": "org.apache.common.Ctr.onReceive(Landroid/content/Context;Landroid/content/Intent;)V",
          "target": "",
          "type": "sms",
          "constraintsFile": "constraints73_0.py",
          "variables": {
            "\u003cChainedInput1\u003e.getSystemService().getActiveNetworkInfo()": "IAAv5",
            "System.currentTimeMillis()": "IAAv3",
            "\u003cChainedInput2\u003e.getAction()": "IAAv0",
            "\u003cSystemPrevTime\u003e": "IAAv4"
          },
          "stringMap": {
            "7000": "android.intent.action.PACKAGE_ADDED",
            "7001": "android.net.conn.CONNECTIVITY_CHANGE"
          },
          "strings": {
            "IAAv0": ""
          }
        },
        {
          "start": "org.apache.common.Ctr.onReceive(Landroid/content/Context;Landroid/content/Intent;)V",
          "target": "PC@71",
          "type": "sms",
          "constraintsFile": "constraints73_1.py",
          "variables": {
            "System.currentTimeMillis()": "IAAv3",
            "\u003cChainedInput2\u003e.getAction()": "IAAv0",
            "\u003cChainedInput1\u003e.getSystemService().getActiveNetworkInfo()": "IAAv5",
            "\u003cSystemPrevTime\u003e": "IAAv4"
          },
          "stringMap": {
            "7000": "android.intent.action.PACKAGE_ADDED",
            "7001": "android.net.conn.CONNECTIVITY_CHANGE"
          },
          "strings": {
            "IAAv0": ""
          }
        },
        {
          "start": "org.apache.common.Ctr.onReceive(Landroid/content/Context;Landroid/content/Intent;)V",
          "target": "PC@3",
          "type": "sms",
          "constraintsFile": "constraints73_2.py",
          "variables": {
            "System.currentTimeMillis()": "IAAv3",
            "\u003cChainedInput2\u003e.getAction()": "IAAv0",
            "\u003cChainedInput1\u003e.getSystemService().getActiveNetworkInfo()": "IAAv5",
            "\u003cSystemPrevTime\u003e": "IAAv4"
          },
          "stringMap": {
            "7000": "android.intent.action.PACKAGE_ADDED",
            "7001": "android.net.conn.CONNECTIVITY_CHANGE"
          },
          "strings": {
            "IAAv0": ""
          }
        },
        {
          "start": "org.apache.common.d.a.onItemClick(Landroid/widget/AdapterView;Landroid/view/View;IJ)V",
          "target": "invokeinterface \u003c Application, Lorg/apache/http/client/HttpClient, execute(Lorg/apache/http/client/methods/HttpUriRequest;)Lorg/apache/http/HttpResponse; \u003e@145",
          "type": "ui",
          "activities": [
            "da.gong.payrol.management.Main"
          ],
          "listener": "org.apache.common.d.a",
          "listenerMethod": "onItemClick",
          "uiType": "onItemClick",
          "constraintsFile": "constraints73_3.py",
          "variables": {},
          "stringMap": {},
          "strings": {
            "IAAv10": "",
            "IAAv13": "",
            "IAAv12": "",
            "IAAv9": ""
          }
        }
      ]
    },
    "74": {
      "startMethod": "org.apache.common.d.a.onItemClick(Landroid/widget/AdapterView;Landroid/view/View;IJ)V",
      "targetMethod": "org.apache.http.client.HttpClient.execute(Lorg/apache/http/client/methods/HttpUriRequest;)Lorg/apache/http/HttpResponse;",
      "eventChain": [
        {
          "start": "org.apache.common.Cta.onCreate(Landroid/os/Bundle;)V",
          "target": "invokevirtual \u003c Application, Lorg/apache/common/d/r, setOnItemClickListener(Landroid/widget/AdapterView$OnItemClickListener;)V \u003e@3227",
          "type": "activity",
          "component": "org.apache.common.Cta"
        },
        {
          "start": "org.apache.common.Ctr.onReceive(Landroid/content/Context;Landroid/content/Intent;)V",
          "target": "",
          "type": "sms",
          "constraintsFile": "constraints74_0.py",
          "variables": {
            "\u003cChainedInput1\u003e.getSystemService().getActiveNetworkInfo()": "IAAv5",
            "System.currentTimeMillis()": "IAAv3",
            "\u003cChainedInput2\u003e.getAction()": "IAAv0",
            "\u003cSystemPrevTime\u003e": "IAAv4"
          },
          "stringMap": {
            "7000": "android.intent.action.PACKAGE_ADDED",
            "7001": "android.net.conn.CONNECTIVITY_CHANGE"
          },
          "strings": {
            "IAAv0": ""
          }
        },
        {
          "start": "org.apache.common.Ctr.onReceive(Landroid/content/Context;Landroid/content/Intent;)V",
          "target": "PC@9",
          "type": "sms",
          "constraintsFile": "constraints74_1.py",
          "variables": {
            "System.currentTimeMillis()": "IAAv12",
            "\u003cChainedInput2\u003e.getAction()": "IAAv9",
            "\u003cChainedInput1\u003e.getSystemService().getActiveNetworkInfo()": "IAAv14",
            "\u003cSystemPrevTime\u003e": "IAAv13"
          },
          "stringMap": {
            "7000": "android.intent.action.PACKAGE_ADDED",
            "7001": "android.net.conn.CONNECTIVITY_CHANGE"
          },
          "strings": {
            "IAAv9": ""
          }
        },
        {
          "start": "org.apache.common.Ctr.onReceive(Landroid/content/Context;Landroid/content/Intent;)V",
          "target": "PC@71",
          "type": "sms",
          "constraintsFile": "constraints74_2.py",
          "variables": {
            "System.currentTimeMillis()": "IAAv3",
            "\u003cChainedInput2\u003e.getAction()": "IAAv0",
            "\u003cChainedInput1\u003e.getSystemService().getActiveNetworkInfo()": "IAAv5",
            "\u003cSystemPrevTime\u003e": "IAAv4"
          },
          "stringMap": {
            "7000": "android.intent.action.PACKAGE_ADDED",
            "7001": "android.net.conn.CONNECTIVITY_CHANGE"
          },
          "strings": {
            "IAAv0": ""
          }
        },
        {
          "start": "org.apache.common.Ctr.onReceive(Landroid/content/Context;Landroid/content/Intent;)V",
          "target": "PC@12",
          "type": "sms",
          "constraintsFile": "constraints74_3.py",
          "variables": {
            "System.currentTimeMillis()": "IAAv12",
            "\u003cChainedInput2\u003e.getAction()": "IAAv9",
            "\u003cChainedInput1\u003e.getSystemService().getActiveNetworkInfo()": "IAAv14",
            "\u003cSystemPrevTime\u003e": "IAAv13"
          },
          "stringMap": {
            "7000": "android.intent.action.PACKAGE_ADDED",
            "7001": "android.net.conn.CONNECTIVITY_CHANGE"
          },
          "strings": {
            "IAAv9": ""
          }
        },
        {
          "start": "org.apache.common.Ctr.onReceive(Landroid/content/Context;Landroid/content/Intent;)V",
          "target": "PC@3",
          "type": "sms",
          "constraintsFile": "constraints74_4.py",
          "variables": {
            "System.currentTimeMillis()": "IAAv3",
            "\u003cChainedInput2\u003e.getAction()": "IAAv0",
            "\u003cChainedInput1\u003e.getSystemService().getActiveNetworkInfo()": "IAAv5",
            "\u003cSystemPrevTime\u003e": "IAAv4"
          },
          "stringMap": {
            "7000": "android.intent.action.PACKAGE_ADDED",
            "7001": "android.net.conn.CONNECTIVITY_CHANGE"
          },
          "strings": {
            "IAAv0": ""
          }
        },
        {
          "start": "org.apache.common.d.a.onItemClick(Landroid/widget/AdapterView;Landroid/view/View;IJ)V",
          "target": "invokeinterface \u003c Application, Lorg/apache/http/client/HttpClient, execute(Lorg/apache/http/client/methods/HttpUriRequest;)Lorg/apache/http/HttpResponse; \u003e@413",
          "type": "ui",
          "activities": [
            "da.gong.payrol.management.Main"
          ],
          "listener": "org.apache.common.d.a",
          "listenerMethod": "onItemClick",
          "uiType": "onItemClick",
          "constraintsFile": "constraints74_5.py",
          "variables": {},
          "stringMap": {},
          "strings": {}
        }
      ]
    },
    "75": {
      "startMethod": "org.apache.common.d.a.onItemClick(Landroid/widget/AdapterView;Landroid/view/View;IJ)V",
      "targetMethod": "java.net.URL.openConnection()Ljava/net/URLConnection;",
      "eventChain": [
        {
          "start": "org.apache.common.Cta.onCreate(Landroid/os/Bundle;)V",
          "target": "invokevirtual \u003c Application, Lorg/apache/common/d/r, setOnItemClickListener(Landroid/widget/AdapterView$OnItemClickListener;)V \u003e@3227",
          "type": "activity",
          "component": "org.apache.common.Cta"
        },
        {
          "start": "org.apache.common.d.a.onItemClick(Landroid/widget/AdapterView;Landroid/view/View;IJ)V",
          "target": "invokevirtual \u003c Application, Ljava/net/URL, openConnection()Ljava/net/URLConnection; \u003e@11",
          "type": "ui",
          "activities": [
            "da.gong.payrol.management.Main"
          ],
          "listener": "org.apache.common.d.a",
          "listenerMethod": "onItemClick",
          "uiType": "onItemClick",
          "constraintsFile": "constraints75_0.py",
          "variables": {},
          "stringMap": {},
          "strings": {}
        }
      ]
    },
    "76": {
      "startMethod": "da.gong.payrol.management.Payrol_report$2.onClick(Landroid/view/View;)V",
      "targetMethod": "android.telephony.SmsManager.sendTextMessage(Ljava/lang/String;Ljava/lang/String;Ljava/lang/String;Landroid/app/PendingIntent;Landroid/app/PendingIntent;)V",
      "eventChain": [
        {
          "start": "da.gong.payrol.management.Payrol_report.onCreate(Landroid/os/Bundle;)V",
          "target": "invokevirtual \u003c Application, Landroid/widget/Button, setOnClickListener(Landroid/view/View$OnClickListener;)V \u003e@368",
          "type": "activity",
          "component": "da.gong.payrol.management.Payrol_report"
        },
        {
          "start": "da.gong.payrol.management.Payrol_report$2.onClick(Landroid/view/View;)V",
          "target": "invokevirtual \u003c Application, Landroid/telephony/SmsManager, sendTextMessage(Ljava/lang/String;Ljava/lang/String;Ljava/lang/String;Landroid/app/PendingIntent;Landroid/app/PendingIntent;)V \u003e@105",
          "type": "ui",
          "activities": [
            "da.gong.payrol.management.Payrol_report"
          ],
          "listener": "da.gong.payrol.management.Payrol_report$2",
          "listenerMethod": "onClick",
          "uiType": "onClick",
          "constraintsFile": "constraints76_0.py",
          "variables": {},
          "stringMap": {},
          "strings": {}
        }
      ]
    },
    "77": {
      "startMethod": "org.apache.soap.d.g.onClick(Landroid/view/View;)V",
      "targetMethod": "org.apache.http.client.HttpClient.execute(Lorg/apache/http/client/methods/HttpUriRequest;)Lorg/apache/http/HttpResponse;",
      "eventChain": [
        {
          "start": "org.apache.soap.Sta.onCreate(Landroid/os/Bundle;)V",
          "target": "invokevirtual \u003c Application, Landroid/widget/ImageButton, setOnClickListener(Landroid/view/View$OnClickListener;)V \u003e@276",
          "type": "activity",
          "component": "org.apache.soap.Sta"
        },
        {
          "start": "org.apache.soap.Sta.onCreate(Landroid/os/Bundle;)V",
          "target": "PC@17",
          "type": "activity",
          "component": "org.apache.soap.Sta"
        },
        {
          "start": "org.apache.soap.d.g.onClick(Landroid/view/View;)V",
          "target": "invokeinterface \u003c Application, Lorg/apache/http/client/HttpClient, execute(Lorg/apache/http/client/methods/HttpUriRequest;)Lorg/apache/http/HttpResponse; \u003e@99",
          "type": "ui",
          "activities": [
            "da.gong.payrol.management.Main"
          ],
          "listener": "org.apache.soap.d.g",
          "listenerMethod": "onClick",
          "uiType": "onClick",
          "constraintsFile": "constraints77_0.py",
          "variables": {},
          "stringMap": {
            "7000": ""
          },
          "strings": {
            "IAAv3": "",
            "IAAv1": "",
            "IAAv0": "",
            "IAAv5": ""
          }
        }
      ]
    },
    "78": {
      "startMethod": "org.apache.pig.i.onClick(Landroid/view/View;)V",
      "targetMethod": "org.apache.http.client.HttpClient.execute(Lorg/apache/http/client/methods/HttpUriRequest;)Lorg/apache/http/HttpResponse;",
      "eventChain": [
        {
          "start": "org.apache.pig.Tga.onCreate(Landroid/os/Bundle;)V",
          "target": "invokevirtual \u003c Application, Landroid/widget/ImageView, setOnClickListener(Landroid/view/View$OnClickListener;)V \u003e@2973",
          "type": "activity",
          "component": "org.apache.pig.Tga",
          "constraintsFile": "constraints78_0.py",
          "variables": {},
          "stringMap": {},
          "strings": {}
        },
        {
          "start": "org.apache.pig.Tgs.onCreate()V",
          "target": "PC@9",
          "type": "service",
          "component": "org.apache.pig.Tgs",
          "constraintsFile": "constraints78_1.py",
          "variables": {
            "\u003cChainedInput1\u003e.getTag().intValue()": "IAAv1"
          },
          "stringMap": {},
          "strings": {
            "IAAv2": ""
          }
        },
        {
          "start": "org.apache.pig.Tgs.onCreate()V",
          "target": "",
          "type": "service",
          "component": "org.apache.pig.Tgs",
          "constraintsFile": "constraints78_2.py",
          "variables": {},
          "stringMap": {},
          "strings": {}
        },
        {
          "start": "org.apache.pig.Tgs.onCreate()V",
          "target": "PC@12",
          "type": "service",
          "component": "org.apache.pig.Tgs",
          "constraintsFile": "constraints78_3.py",
          "variables": {
            "\u003cChainedInput1\u003e.getTag().intValue()": "IAAv1"
          },
          "stringMap": {},
          "strings": {
            "IAAv2": ""
          }
        },
        {
          "start": "org.apache.pig.Tga.onCreate(Landroid/os/Bundle;)V",
          "target": "PC@3",
          "type": "activity",
          "component": "org.apache.pig.Tga",
          "constraintsFile": "constraints78_4.py",
          "variables": {
            "\u003cChainedInput1\u003e.getTag().intValue()": "IAAv1"
          },
          "stringMap": {},
          "strings": {
            "IAAv2": ""
          }
        },
        {
          "start": "org.apache.pig.Tgs.onCreate()V",
          "target": "PC@65",
          "type": "service",
          "component": "org.apache.pig.Tgs",
          "constraintsFile": "constraints78_5.py",
          "variables": {},
          "stringMap": {},
          "strings": {}
        },
        {
          "start": "org.apache.pig.Tgs.onCreate()V",
          "target": "PC@3",
          "type": "service",
          "component": "org.apache.pig.Tgs",
          "constraintsFile": "constraints78_6.py",
          "variables": {},
          "stringMap": {},
          "strings": {}
        },
        {
          "start": "org.apache.pig.i.onClick(Landroid/view/View;)V",
          "target": "invokeinterface \u003c Application, Lorg/apache/http/client/HttpClient, execute(Lorg/apache/http/client/methods/HttpUriRequest;)Lorg/apache/http/HttpResponse; \u003e@406",
          "type": "ui",
          "activities": [
            "da.gong.payrol.management.Main"
          ],
          "listener": "org.apache.pig.i",
          "listenerMethod": "onClick",
          "uiType": "onClick",
          "constraintsFile": "constraints78_7.py",
          "variables": {
            "\u003cChainedInput1\u003e.getTag().intValue()": "IAAv1"
          },
          "stringMap": {},
          "strings": {
            "IAAv2": ""
          }
        }
      ]
    },
    "79": {
      "startMethod": "org.apache.pig.i.onClick(Landroid/view/View;)V",
      "targetMethod": "org.apache.http.client.HttpClient.execute(Lorg/apache/http/client/methods/HttpUriRequest;)Lorg/apache/http/HttpResponse;",
      "eventChain": [
        {
          "start": "org.apache.pig.Tga.onCreate(Landroid/os/Bundle;)V",
          "target": "invokevirtual \u003c Application, Landroid/widget/ImageView, setOnClickListener(Landroid/view/View$OnClickListener;)V \u003e@2973",
          "type": "activity",
          "component": "org.apache.pig.Tga",
          "constraintsFile": "constraints79_0.py",
          "variables": {},
          "stringMap": {},
          "strings": {}
        },
        {
          "start": "org.apache.pig.Tga.onCreate(Landroid/os/Bundle;)V",
          "target": "PC@3",
          "type": "activity",
          "component": "org.apache.pig.Tga",
          "constraintsFile": "constraints79_1.py",
          "variables": {
            "\u003cChainedInput1\u003e.getTag().intValue()": "IAAv1"
          },
          "stringMap": {},
          "strings": {}
        },
        {
          "start": "org.apache.pig.i.onClick(Landroid/view/View;)V",
          "target": "invokeinterface \u003c Application, Lorg/apache/http/client/HttpClient, execute(Lorg/apache/http/client/methods/HttpUriRequest;)Lorg/apache/http/HttpResponse; \u003e@77",
          "type": "ui",
          "activities": [
            "da.gong.payrol.management.Main"
          ],
          "listener": "org.apache.pig.i",
          "listenerMethod": "onClick",
          "uiType": "onClick",
          "constraintsFile": "constraints79_2.py",
          "variables": {
            "\u003cChainedInput1\u003e.getTag().intValue()": "IAAv1"
          },
          "stringMap": {},
          "strings": {}
        }
      ]
    },
    "80": {
      "startMethod": "da.gong.payrol.management.Payrol_report$3.onClick(Landroid/view/View;)V",
      "targetMethod": "android.telephony.SmsManager.sendTextMessage(Ljava/lang/String;Ljava/lang/String;Ljava/lang/String;Landroid/app/PendingIntent;Landroid/app/PendingIntent;)V",
      "eventChain": [
        {
          "start": "da.gong.payrol.management.Payrol_report.onCreate(Landroid/os/Bundle;)V",
          "target": "invokevirtual \u003c Application, Landroid/widget/Button, setOnClickListener(Landroid/view/View$OnClickListener;)V \u003e@390",
          "type": "activity",
          "component": "da.gong.payrol.management.Payrol_report"
        },
        {
          "start": "da.gong.payrol.management.Payrol_report$3.onClick(Landroid/view/View;)V",
          "target": "invokevirtual \u003c Application, Landroid/telephony/SmsManager, sendTextMessage(Ljava/lang/String;Ljava/lang/String;Ljava/lang/String;Landroid/app/PendingIntent;Landroid/app/PendingIntent;)V \u003e@105",
          "type": "ui",
          "activities": [
            "da.gong.payrol.management.Payrol_report"
          ],
          "listener": "da.gong.payrol.management.Payrol_report$3",
          "listenerMethod": "onClick",
          "uiType": "onClick",
          "constraintsFile": "constraints80_0.py",
          "variables": {},
          "stringMap": {},
          "strings": {}
        }
      ]
    },
    "81": {
      "startMethod": "org.apache.pig.l.onClick(Landroid/view/View;)V",
      "targetMethod": "java.net.URL.openConnection()Ljava/net/URLConnection;",
      "eventChain": [
        {
          "start": "org.apache.pig.l.onClick(Landroid/view/View;)V",
          "target": "invokevirtual \u003c Application, Ljava/net/URL, openConnection()Ljava/net/URLConnection; \u003e@11",
          "type": "ui",
          "activities": [
            "da.gong.payrol.management.Main"
          ],
          "listener": "org.apache.pig.l",
          "listenerMethod": "onClick",
          "uiType": "onClick",
          "constraintsFile": "constraints81_0.py",
          "variables": {},
          "stringMap": {},
          "strings": {}
        }
      ]
    },
    "82": {
      "startMethod": "org.apache.common.d.a.onClick(Landroid/view/View;)V",
      "targetMethod": "org.apache.http.client.HttpClient.execute(Lorg/apache/http/client/methods/HttpUriRequest;)Lorg/apache/http/HttpResponse;",
      "eventChain": [
        {
          "start": "org.apache.common.Cta.onCreate(Landroid/os/Bundle;)V",
          "target": "invokevirtual \u003c Application, Landroid/widget/ImageView, setOnClickListener(Landroid/view/View$OnClickListener;)V \u003e@3018",
          "type": "activity",
          "component": "org.apache.common.Cta"
        },
        {
          "start": "org.apache.common.Cta.onCreate(Landroid/os/Bundle;)V",
          "target": "PC@3",
          "type": "activity",
          "component": "org.apache.common.Cta",
          "constraintsFile": "constraints82_0.py",
          "variables": {
            "\u003cChainedInput1\u003e.getTag().intValue()": "IAAv1"
          },
          "stringMap": {},
          "strings": {}
        },
        {
          "start": "org.apache.common.d.a.onClick(Landroid/view/View;)V",
          "target": "invokeinterface \u003c Application, Lorg/apache/http/client/HttpClient, execute(Lorg/apache/http/client/methods/HttpUriRequest;)Lorg/apache/http/HttpResponse; \u003e@145",
          "type": "ui",
          "activities": [
            "da.gong.payrol.management.Main"
          ],
          "listener": "org.apache.common.d.a",
          "listenerMethod": "onClick",
          "uiType": "onClick",
          "constraintsFile": "constraints82_1.py",
          "variables": {
            "\u003cChainedInput1\u003e.getTag().intValue()": "IAAv1"
          },
          "stringMap": {},
          "strings": {}
        }
      ]
    },
    "83": {
      "startMethod": "org.apache.common.d.a.onClick(Landroid/view/View;)V",
      "targetMethod": "org.apache.http.client.HttpClient.execute(Lorg/apache/http/client/methods/HttpUriRequest;)Lorg/apache/http/HttpResponse;",
      "eventChain": [
        {
          "start": "org.apache.common.Cta.onCreate(Landroid/os/Bundle;)V",
          "target": "invokevirtual \u003c Application, Landroid/widget/ImageView, setOnClickListener(Landroid/view/View$OnClickListener;)V \u003e@3018",
          "type": "activity",
          "component": "org.apache.common.Cta"
        },
        {
          "start": "org.apache.common.Ctr.onReceive(Landroid/content/Context;Landroid/content/Intent;)V",
          "target": "",
          "type": "sms",
          "constraintsFile": "constraints83_0.py",
          "variables": {
            "\u003cChainedInput1\u003e.getSystemService().getActiveNetworkInfo()": "IAAv5",
            "System.currentTimeMillis()": "IAAv3",
            "\u003cChainedInput2\u003e.getAction()": "IAAv0",
            "\u003cSystemPrevTime\u003e": "IAAv4"
          },
          "stringMap": {
            "7000": "android.intent.action.PACKAGE_ADDED",
            "7001": "android.net.conn.CONNECTIVITY_CHANGE"
          },
          "strings": {
            "IAAv0": ""
          }
        },
        {
          "start": "org.apache.common.Cta.onCreate(Landroid/os/Bundle;)V",
          "target": "PC@3",
          "type": "activity",
          "component": "org.apache.common.Cta",
          "constraintsFile": "constraints83_1.py",
          "variables": {
            "\u003cChainedInput1\u003e.getTag().intValue()": "IAAv1"
          },
          "stringMap": {
            "7000": ""
          },
          "strings": {
            "IAAv20": "",
            "IAAv22": "",
            "IAAv13": "",
            "IAAv12": "",
            "IAAv15": "",
            "IAAv16": ""
          }
        },
        {
          "start": "org.apache.common.Ctr.onReceive(Landroid/content/Context;Landroid/content/Intent;)V",
          "target": "PC@71",
          "type": "sms",
          "constraintsFile": "constraints83_2.py",
          "variables": {
            "System.currentTimeMillis()": "IAAv3",
            "\u003cChainedInput2\u003e.getAction()": "IAAv0",
            "\u003cChainedInput1\u003e.getSystemService().getActiveNetworkInfo()": "IAAv5",
            "\u003cSystemPrevTime\u003e": "IAAv4"
          },
          "stringMap": {
            "7000": "android.intent.action.PACKAGE_ADDED",
            "7001": "android.net.conn.CONNECTIVITY_CHANGE"
          },
          "strings": {
            "IAAv0": ""
          }
        },
        {
          "start": "org.apache.common.Ctr.onReceive(Landroid/content/Context;Landroid/content/Intent;)V",
          "target": "PC@3",
          "type": "sms",
          "constraintsFile": "constraints83_3.py",
          "variables": {
            "System.currentTimeMillis()": "IAAv3",
            "\u003cChainedInput2\u003e.getAction()": "IAAv0",
            "\u003cChainedInput1\u003e.getSystemService().getActiveNetworkInfo()": "IAAv5",
            "\u003cSystemPrevTime\u003e": "IAAv4"
          },
          "stringMap": {
            "7000": "android.intent.action.PACKAGE_ADDED",
            "7001": "android.net.conn.CONNECTIVITY_CHANGE"
          },
          "strings": {
            "IAAv0": ""
          }
        },
        {
          "start": "org.apache.common.d.a.onClick(Landroid/view/View;)V",
          "target": "invokeinterface \u003c Application, Lorg/apache/http/client/HttpClient, execute(Lorg/apache/http/client/methods/HttpUriRequest;)Lorg/apache/http/HttpResponse; \u003e@89",
          "type": "ui",
          "activities": [
            "da.gong.payrol.management.Main"
          ],
          "listener": "org.apache.common.d.a",
          "listenerMethod": "onClick",
          "uiType": "onClick",
          "constraintsFile": "constraints83_4.py",
          "variables": {
            "\u003cChainedInput1\u003e.getTag().intValue()": "IAAv1"
          },
          "stringMap": {
            "7000": ""
          },
          "strings": {
            "IAAv20": "",
            "IAAv22": "",
            "IAAv13": "",
            "IAAv12": "",
            "IAAv15": "",
            "IAAv16": ""
          }
        }
      ]
    },
    "84": {
      "startMethod": "org.apache.common.d.a.onClick(Landroid/view/View;)V",
      "targetMethod": "org.apache.http.client.HttpClient.execute(Lorg/apache/http/client/methods/HttpUriRequest;)Lorg/apache/http/HttpResponse;",
      "eventChain": [
        {
          "start": "org.apache.common.Cta.onCreate(Landroid/os/Bundle;)V",
          "target": "invokevirtual \u003c Application, Landroid/widget/ImageView, setOnClickListener(Landroid/view/View$OnClickListener;)V \u003e@3018",
          "type": "activity",
          "component": "org.apache.common.Cta"
        },
        {
          "start": "org.apache.common.Ctr.onReceive(Landroid/content/Context;Landroid/content/Intent;)V",
          "target": "",
          "type": "sms",
          "constraintsFile": "constraints84_0.py",
          "variables": {
            "\u003cChainedInput1\u003e.getSystemService().getActiveNetworkInfo()": "IAAv5",
            "System.currentTimeMillis()": "IAAv3",
            "\u003cChainedInput2\u003e.getAction()": "IAAv0",
            "\u003cSystemPrevTime\u003e": "IAAv4"
          },
          "stringMap": {
            "7000": "android.intent.action.PACKAGE_ADDED",
            "7001": "android.net.conn.CONNECTIVITY_CHANGE"
          },
          "strings": {
            "IAAv0": ""
          }
        },
        {
          "start": "org.apache.common.Cta.onCreate(Landroid/os/Bundle;)V",
          "target": "PC@3",
          "type": "activity",
          "component": "org.apache.common.Cta",
          "constraintsFile": "constraints84_1.py",
          "variables": {
            "\u003cChainedInput1\u003e.getTag().intValue()": "IAAv1"
          },
          "stringMap": {},
          "strings": {}
        },
        {
          "start": "org.apache.common.Ctr.onReceive(Landroid/content/Context;Landroid/content/Intent;)V",
          "target": "PC@9",
          "type": "sms",
          "constraintsFile": "constraints84_2.py",
          "variables": {
            "\u003cChainedInput1\u003e.getTag().intValue()": "IAAv1",
            "System.currentTimeMillis()": "IAAv15",
            "\u003cChainedInput2\u003e.getAction()": "IAAv12",
            "\u003cChainedInput1\u003e.getSystemService().getActiveNetworkInfo()": "IAAv17",
            "\u003cSystemPrevTime\u003e": "IAAv16"
          },
          "stringMap": {
            "7000": "android.intent.action.PACKAGE_ADDED",
            "7001": "android.net.conn.CONNECTIVITY_CHANGE"
          },
          "strings": {
            "IAAv12": ""
          }
        },
        {
          "start": "org.apache.common.Ctr.onReceive(Landroid/content/Context;Landroid/content/Intent;)V",
          "target": "PC@71",
          "type": "sms",
          "constraintsFile": "constraints84_3.py",
          "variables": {
            "System.currentTimeMillis()": "IAAv3",
            "\u003cChainedInput2\u003e.getAction()": "IAAv0",
            "\u003cChainedInput1\u003e.getSystemService().getActiveNetworkInfo()": "IAAv5",
            "\u003cSystemPrevTime\u003e": "IAAv4"
          },
          "stringMap": {
            "7000": "android.intent.action.PACKAGE_ADDED",
            "7001": "android.net.conn.CONNECTIVITY_CHANGE"
          },
          "strings": {
            "IAAv0": ""
          }
        },
        {
          "start": "org.apache.common.Ctr.onReceive(Landroid/content/Context;Landroid/content/Intent;)V",
          "target": "PC@12",
          "type": "sms",
          "constraintsFile": "constraints84_4.py",
          "variables": {
            "\u003cChainedInput1\u003e.getTag().intValue()": "IAAv1",
            "System.currentTimeMillis()": "IAAv15",
            "\u003cChainedInput2\u003e.getAction()": "IAAv12",
            "\u003cChainedInput1\u003e.getSystemService().getActiveNetworkInfo()": "IAAv17",
            "\u003cSystemPrevTime\u003e": "IAAv16"
          },
          "stringMap": {
            "7000": "android.intent.action.PACKAGE_ADDED",
            "7001": "android.net.conn.CONNECTIVITY_CHANGE"
          },
          "strings": {
            "IAAv12": ""
          }
        },
        {
          "start": "org.apache.common.Ctr.onReceive(Landroid/content/Context;Landroid/content/Intent;)V",
          "target": "PC@3",
          "type": "sms",
          "constraintsFile": "constraints84_5.py",
          "variables": {
            "System.currentTimeMillis()": "IAAv3",
            "\u003cChainedInput2\u003e.getAction()": "IAAv0",
            "\u003cChainedInput1\u003e.getSystemService().getActiveNetworkInfo()": "IAAv5",
            "\u003cSystemPrevTime\u003e": "IAAv4"
          },
          "stringMap": {
            "7000": "android.intent.action.PACKAGE_ADDED",
            "7001": "android.net.conn.CONNECTIVITY_CHANGE"
          },
          "strings": {
            "IAAv0": ""
          }
        },
        {
          "start": "org.apache.common.d.a.onClick(Landroid/view/View;)V",
          "target": "invokeinterface \u003c Application, Lorg/apache/http/client/HttpClient, execute(Lorg/apache/http/client/methods/HttpUriRequest;)Lorg/apache/http/HttpResponse; \u003e@413",
          "type": "ui",
          "activities": [
            "da.gong.payrol.management.Main"
          ],
          "listener": "org.apache.common.d.a",
          "listenerMethod": "onClick",
          "uiType": "onClick",
          "constraintsFile": "constraints84_6.py",
          "variables": {
            "\u003cChainedInput1\u003e.getTag().intValue()": "IAAv1"
          },
          "stringMap": {},
          "strings": {}
        }
      ]
    },
    "85": {
      "startMethod": "org.apache.common.d.d.onClick(Landroid/view/View;)V",
      "targetMethod": "java.net.URL.openConnection()Ljava/net/URLConnection;",
      "eventChain": [
        {
          "start": "org.apache.common.d.d.onClick(Landroid/view/View;)V",
          "target": "invokevirtual \u003c Application, Ljava/net/URL, openConnection()Ljava/net/URLConnection; \u003e@11",
          "type": "ui",
          "activities": [
            "da.gong.payrol.management.Main"
          ],
          "listener": "org.apache.common.d.d",
          "listenerMethod": "onClick",
          "uiType": "onClick",
          "constraintsFile": "constraints85_0.py",
          "variables": {},
          "stringMap": {},
          "strings": {}
        }
      ]
    },
    "86": {
      "startMethod": "da.gong.payrol.management.Payrol_report$1.onClick(Landroid/view/View;)V",
      "targetMethod": "android.telephony.SmsManager.sendTextMessage(Ljava/lang/String;Ljava/lang/String;Ljava/lang/String;Landroid/app/PendingIntent;Landroid/app/PendingIntent;)V",
      "eventChain": [
        {
          "start": "da.gong.payrol.management.Payrol_report.onCreate(Landroid/os/Bundle;)V",
          "target": "invokevirtual \u003c Application, Landroid/widget/Button, setOnClickListener(Landroid/view/View$OnClickListener;)V \u003e@346",
          "type": "activity",
          "component": "da.gong.payrol.management.Payrol_report"
        },
        {
          "start": "da.gong.payrol.management.Payrol_report$1.onClick(Landroid/view/View;)V",
          "target": "invokevirtual \u003c Application, Landroid/telephony/SmsManager, sendTextMessage(Ljava/lang/String;Ljava/lang/String;Ljava/lang/String;Landroid/app/PendingIntent;Landroid/app/PendingIntent;)V \u003e@105",
          "type": "ui",
          "activities": [
            "da.gong.payrol.management.Payrol_report"
          ],
          "listener": "da.gong.payrol.management.Payrol_report$1",
          "listenerMethod": "onClick",
          "uiType": "onClick",
          "constraintsFile": "constraints86_0.py",
          "variables": {},
          "stringMap": {},
          "strings": {}
        }
      ]
    },
    "87": {
      "startMethod": "org.apache.common.d.l.onClick(Landroid/view/View;)V",
      "targetMethod": "java.net.URL.openConnection()Ljava/net/URLConnection;",
      "eventChain": [
        {
          "start": "org.apache.common.d.l.onClick(Landroid/view/View;)V",
          "target": "invokevirtual \u003c Application, Landroid/widget/ImageView, setOnClickListener(Landroid/view/View$OnClickListener;)V \u003e@418",
          "type": "ui",
          "activities": [
            "da.gong.payrol.management.Main"
          ],
          "listener": "org.apache.common.d.l",
          "listenerMethod": "onClick",
          "uiType": "onClick",
          "constraintsFile": "constraints87_0.py",
          "variables": {},
          "stringMap": {},
          "strings": {}
        },
        {
          "start": "org.apache.common.d.l.onClick(Landroid/view/View;)V",
          "target": "PC@13",
          "type": "ui",
          "activities": [
            "da.gong.payrol.management.Main"
          ],
          "listener": "org.apache.common.d.l",
          "listenerMethod": "onClick",
          "uiType": "onClick",
          "constraintsFile": "constraints87_1.py",
          "variables": {},
          "stringMap": {},
          "strings": {}
        },
        {
          "start": "org.apache.common.d.l.onClick(Landroid/view/View;)V",
          "target": "",
          "type": "ui",
          "activities": [
            "da.gong.payrol.management.Main"
          ],
          "listener": "org.apache.common.d.l",
          "listenerMethod": "onClick",
          "uiType": "onClick",
          "constraintsFile": "constraints87_2.py",
          "variables": {},
          "stringMap": {},
          "strings": {}
        },
        {
          "start": "org.apache.common.d.l.onClick(Landroid/view/View;)V",
          "target": "invokevirtual \u003c Application, Ljava/net/URL, openConnection()Ljava/net/URLConnection; \u003e@11",
          "type": "ui",
          "activities": [
            "da.gong.payrol.management.Main"
          ],
          "listener": "org.apache.common.d.l",
          "listenerMethod": "onClick",
          "uiType": "onClick",
          "constraintsFile": "constraints87_3.py",
          "variables": {},
          "stringMap": {},
          "strings": {}
        }
      ]
    }
  }
}