{
  "packageName": "me.iweek.wannianli",
  "mainActivity": "me.iweek.rili.plugs.remind.remindDialog",
  "callPaths": {
    "0": {
      "startMethod": "me.iweek.rili.MainApplication.onCreate()V",
      "targetMethod": "android.provider.Settings$Secure.getUriFor(Ljava/lang/String;)Landroid/net/Uri;",
      "eventChain": [
        {
          "start": "me.iweek.rili.MainApplication.onCreate()V",
          "target": "invokespecial \u003c Application, Landroid/app/Application, onCreate()V \u003e@2",
          "type": ""
        },
        {
          "start": "me.iweek.rili.MainApplication.onCreate()V",
          "target": "invokestatic \u003c Application, Landroid/provider/Settings$Secure, getUriFor(Ljava/lang/String;)Landroid/net/Uri; \u003e@27",
          "type": ""
        }
      ]
    },
    "1": {
      "startMethod": "me.iweek.rili.MainApplication.onCreate()V",
      "targetMethod": "android.net.ConnectivityManager.getActiveNetworkInfo()Landroid/net/NetworkInfo;",
      "eventChain": [
        {
          "start": "me.iweek.rili.MainApplication.onCreate()V",
          "target": "invokespecial \u003c Application, Landroid/app/Application, onCreate()V \u003e@2",
          "type": ""
        },
        {
          "start": "me.iweek.rili.MainApplication.onCreate()V",
          "target": "invokevirtual \u003c Application, Landroid/net/ConnectivityManager, getActiveNetworkInfo()Landroid/net/NetworkInfo; \u003e@33",
          "type": ""
        }
      ]
    },
    "2": {
      "startMethod": "com.xiaomi.push.service.receivers.NetworkStatusReceiver.onReceive(Landroid/content/Context;Landroid/content/Intent;)V",
      "targetMethod": "android.provider.Settings$Secure.getUriFor(Ljava/lang/String;)Landroid/net/Uri;",
      "eventChain": [
        {
          "start": "com.xiaomi.push.service.receivers.NetworkStatusReceiver.onReceive(Landroid/content/Context;Landroid/content/Intent;)V",
          "target": "invokestatic \u003c Application, Landroid/provider/Settings$Secure, getUriFor(Ljava/lang/String;)Landroid/net/Uri; \u003e@27",
          "type": "sms",
          "constraintsFile": "constraints2_0.py",
          "variables": {
            "\u003cChainedInput1\u003e.a().g.intValue()": "IAAv6",
            "\u003cChainedInput1\u003e.a().c.a().a()": "IAAv4",
            "\u003cChainedInput1\u003e.d()": "IAAv3",
            "\u003cChainedInput1\u003e.a().g": "IAAv5",
            "\u003cChainedInput1\u003e.a().g()": "IAAv1",
            "\u003cChainedInput1\u003e.a().b()": "IAAv0",
            "\u003cChainedInput1\u003e.a().l()": "IAAv2"
          },
          "stringMap": {},
          "strings": {}
        }
      ]
    },
    "3": {
      "startMethod": "com.xiaomi.push.service.receivers.NetworkStatusReceiver.onReceive(Landroid/content/Context;Landroid/content/Intent;)V",
      "targetMethod": "java.net.URL.openConnection()Ljava/net/URLConnection;",
      "eventChain": [
        {
          "start": "com.xiaomi.push.service.receivers.NetworkStatusReceiver.onReceive(Landroid/content/Context;Landroid/content/Intent;)V",
          "target": "invokevirtual \u003c Application, Ljava/net/URL, openConnection()Ljava/net/URLConnection; \u003e@70",
          "type": "sms",
          "constraintsFile": "constraints3_0.py",
          "variables": {
            "\u003cInput1\u003e.a().j.isEmpty()": "IAAv3",
            "\u003cInput1\u003e.getPackageManager().getPackageInfo()": "IAAv9",
            "\u003cInput1\u003e.c()": "IAAv10",
            "\u003cInput1\u003e.a().b()": "IAAv0",
            "\u003cInput1\u003e.a()": "IAAv7",
            "\u003cInput1\u003e.a().l()": "IAAv2",
            "\u003cInput1\u003e.a().h": "IAAv5",
            "\u003cInput1\u003e.d()": "IAAv4",
            "\u003cInput1\u003e.b()": "IAAv11",
            "\u003cInput1\u003e.e()": "IAAv8",
            "\u003cInput1\u003e.a().g()": "IAAv1"
          },
          "stringMap": {
            "7000": "5"
          },
          "strings": {
            "IAAv5": ""
          }
        }
      ]
    },
    "4": {
      "startMethod": "com.xiaomi.push.service.receivers.NetworkStatusReceiver.onReceive(Landroid/content/Context;Landroid/content/Intent;)V",
      "targetMethod": "android.net.ConnectivityManager.getActiveNetworkInfo()Landroid/net/NetworkInfo;",
      "eventChain": [
        {
          "start": "com.xiaomi.push.service.receivers.NetworkStatusReceiver.onReceive(Landroid/content/Context;Landroid/content/Intent;)V",
          "target": "invokevirtual \u003c Application, Landroid/net/ConnectivityManager, getActiveNetworkInfo()Landroid/net/NetworkInfo; \u003e@33",
          "type": "sms",
          "constraintsFile": "constraints4_0.py",
          "variables": {
            "\u003cInput1\u003e.a().j.isEmpty()": "IAAv3",
            "\u003cInput1\u003e.a().b()": "IAAv0",
            "\u003cInput1\u003e.a().l()": "IAAv2",
            "\u003cInput1\u003e.a().g()": "IAAv1",
            "\u003cInput1\u003e.getSystemService()": "IAAv4"
          },
          "stringMap": {},
          "strings": {}
        }
      ]
    },
    "5": {
      "startMethod": "com.xiaomi.push.service.receivers.NetworkStatusReceiver.onReceive(Landroid/content/Context;Landroid/content/Intent;)V",
      "targetMethod": "android.telephony.TelephonyManager.getDeviceId()Ljava/lang/String;",
      "eventChain": [
        {
          "start": "com.xiaomi.push.service.receivers.NetworkStatusReceiver.onReceive(Landroid/content/Context;Landroid/content/Intent;)V",
          "target": "invokevirtual \u003c Application, Landroid/telephony/TelephonyManager, getDeviceId()Ljava/lang/String; \u003e@55",
          "type": "sms",
          "constraintsFile": "constraints5_0.py",
          "variables": {
            "\u003cInput1\u003e.a().j.isEmpty()": "IAAv3",
            "\u003cInput1\u003e.a().b()": "IAAv0",
            "\u003cInput1\u003e.getSystemService().\u003cDeviceID\u003e": "IAAv9",
            "\u003cInput1\u003e.a()": "IAAv7",
            "\u003cInput1\u003e.a().l()": "IAAv2",
            "\u003cInput1\u003e.a().h": "IAAv5",
            "\u003cInput1\u003e.d()": "IAAv4",
            "\u003cInput1\u003e.a().g()": "IAAv1",
            "\u003cInput1\u003e.a().j.a().b": "IAAv8"
          },
          "stringMap": {
            "7000": "5"
          },
          "strings": {
            "IAAv9": "",
            "IAAv8": "",
            "IAAv5": ""
          }
        }
      ]
    },
    "6": {
      "startMethod": "com.xiaomi.push.service.receivers.NetworkStatusReceiver.onReceive(Landroid/content/Context;Landroid/content/Intent;)V",
      "targetMethod": "android.telephony.TelephonyManager.getDeviceId()Ljava/lang/String;",
      "eventChain": [
        {
          "start": "com.xiaomi.push.service.receivers.NetworkStatusReceiver.onReceive(Landroid/content/Context;Landroid/content/Intent;)V",
          "target": "invokevirtual \u003c Application, Landroid/telephony/TelephonyManager, getDeviceId()Ljava/lang/String; \u003e@16",
          "type": "sms",
          "constraintsFile": "constraints6_0.py",
          "variables": {
            "\u003cInput1\u003e.a().j.isEmpty()": "IAAv3",
            "\u003cInput1\u003e.a().b()": "IAAv0",
            "\u003cInput1\u003e.a()": "IAAv7",
            "\u003cInput1\u003e.a().l()": "IAAv2",
            "\u003cInput1\u003e.a().h": "IAAv5",
            "\u003cInput1\u003e.d()": "IAAv4",
            "\u003cInput1\u003e.a().g()": "IAAv1",
            "\u003cInput1\u003e.a().j.a().b": "IAAv8"
          },
          "stringMap": {
            "7000": "5"
          },
          "strings": {
            "IAAv8": "",
            "IAAv5": ""
          }
        }
      ]
    },
    "7": {
      "startMethod": "com.xiaomi.push.service.receivers.NetworkStatusReceiver.onReceive(Landroid/content/Context;Landroid/content/Intent;)V",
      "targetMethod": "java.lang.reflect.Method.invoke(Ljava/lang/Object;[Ljava/lang/Object;)Ljava/lang/Object;",
      "eventChain": [
        {
          "start": "com.xiaomi.push.service.receivers.NetworkStatusReceiver.onReceive(Landroid/content/Context;Landroid/content/Intent;)V",
          "target": "invokevirtual \u003c Application, Ljava/lang/reflect/Method, invoke(Ljava/lang/Object;[Ljava/lang/Object;)Ljava/lang/Object; \u003e@135",
          "type": "sms",
          "constraintsFile": "constraints7_0.py",
          "variables": {
            "\u003cChainedInput1\u003e.a().g()": "IAAv1",
            "\u003cChainedInput1\u003e.a().b()": "IAAv0",
            "\u003cChainedInput1\u003e.a().l()": "IAAv2"
          },
          "stringMap": {},
          "strings": {}
        }
      ]
    },
    "8": {
      "startMethod": "com.xiaomi.push.service.receivers.NetworkStatusReceiver.onReceive(Landroid/content/Context;Landroid/content/Intent;)V",
      "targetMethod": "java.net.URL.openConnection()Ljava/net/URLConnection;",
      "eventChain": [
        {
          "start": "com.xiaomi.push.service.receivers.NetworkStatusReceiver.onReceive(Landroid/content/Context;Landroid/content/Intent;)V",
          "target": "invokevirtual \u003c Application, Ljava/net/URL, openConnection()Ljava/net/URLConnection; \u003e@105",
          "type": "sms",
          "constraintsFile": "constraints8_0.py",
          "variables": {
            "\u003cInput1\u003e.a().j.isEmpty()": "IAAv3",
            "\u003cInput1\u003e.getPackageManager().getPackageInfo()": "IAAv9",
            "\u003cInput1\u003e.c()": "IAAv10",
            "\u003cInput1\u003e.a().b()": "IAAv0",
            "\u003cInput1\u003e.a()": "IAAv7",
            "\u003cInput1\u003e.a().l()": "IAAv2",
            "\u003cInput1\u003e.a().h": "IAAv5",
            "\u003cInput1\u003e.d()": "IAAv4",
            "\u003cInput1\u003e.b()": "IAAv11",
            "\u003cInput1\u003e.e()": "IAAv8",
            "\u003cInput1\u003e.a().g()": "IAAv1"
          },
          "stringMap": {
            "7000": "5"
          },
          "strings": {
            "IAAv5": ""
          }
        }
      ]
    },
    "9": {
      "startMethod": "com.xiaomi.push.service.receivers.NetworkStatusReceiver.onReceive(Landroid/content/Context;Landroid/content/Intent;)V",
      "targetMethod": "android.net.ConnectivityManager.getActiveNetworkInfo()Landroid/net/NetworkInfo;",
      "eventChain": [
        {
          "start": "com.xiaomi.push.service.receivers.NetworkStatusReceiver.onReceive(Landroid/content/Context;Landroid/content/Intent;)V",
          "target": "invokevirtual \u003c Application, Landroid/net/ConnectivityManager, getActiveNetworkInfo()Landroid/net/NetworkInfo; \u003e@1518",
          "type": "sms",
          "constraintsFile": "constraints9_0.py",
          "variables": {
            "\u003cInput1\u003e.a().b()": "IAAv0",
            "\u003cInput1\u003e.a().l()": "IAAv2",
            "\u003cInput1\u003e.a().g()": "IAAv1"
          },
          "stringMap": {},
          "strings": {}
        }
      ]
    },
    "10": {
      "startMethod": "com.xiaomi.push.service.receivers.NetworkStatusReceiver.onReceive(Landroid/content/Context;Landroid/content/Intent;)V",
      "targetMethod": "java.net.URL.openConnection(Ljava/net/Proxy;)Ljava/net/URLConnection;",
      "eventChain": [
        {
          "start": "com.xiaomi.push.service.receivers.NetworkStatusReceiver.onReceive(Landroid/content/Context;Landroid/content/Intent;)V",
          "target": "invokevirtual \u003c Application, Ljava/net/URL, openConnection(Ljava/net/Proxy;)Ljava/net/URLConnection; \u003e@49",
          "type": "sms",
          "constraintsFile": "constraints10_0.py",
          "variables": {
            "\u003cInput1\u003e.a().j.isEmpty()": "IAAv3",
            "\u003cInput1\u003e.getPackageManager().getPackageInfo()": "IAAv9",
            "\u003cInput1\u003e.c()": "IAAv10",
            "\u003cInput1\u003e.a().b()": "IAAv0",
            "\u003cInput1\u003e.a()": "IAAv7",
            "\u003cInput1\u003e.a().l()": "IAAv2",
            "\u003cInput1\u003e.a().h": "IAAv5",
            "\u003cInput1\u003e.d()": "IAAv4",
            "\u003cInput1\u003e.e()": "IAAv8",
            "\u003cInput1\u003e.a().g()": "IAAv1"
          },
          "stringMap": {
            "7000": "5"
          },
          "strings": {
            "IAAv5": ""
          }
        }
      ]
    },
    "11": {
      "startMethod": "com.xiaomi.push.service.receivers.NetworkStatusReceiver.onReceive(Landroid/content/Context;Landroid/content/Intent;)V",
      "targetMethod": "android.net.ConnectivityManager.getActiveNetworkInfo()Landroid/net/NetworkInfo;",
      "eventChain": [
        {
          "start": "com.xiaomi.push.service.receivers.NetworkStatusReceiver.onReceive(Landroid/content/Context;Landroid/content/Intent;)V",
          "target": "invokevirtual \u003c Application, Landroid/net/ConnectivityManager, getActiveNetworkInfo()Landroid/net/NetworkInfo; \u003e@63",
          "type": "sms",
          "constraintsFile": "constraints11_0.py",
          "variables": {
            "\u003cInput1\u003e.a().j.isEmpty()": "IAAv3",
            "\u003cInput1\u003e.c()": "IAAv10",
            "\u003cInput1\u003e.a().l()": "IAAv2",
            "\u003cInput1\u003e.a()": "IAAv7",
            "\u003cInput1\u003e.a().h": "IAAv5",
            "\u003cInput1\u003e.a().g()": "IAAv1",
            "\u003cInput1\u003e.e()": "IAAv8",
            "\u003cInput1\u003e.getSystemService()": "IAAv13",
            "\u003cInput1\u003e.getPackageManager().getPackageInfo()": "IAAv9",
            "\u003cInput1\u003e.a().b()": "IAAv0",
            "\u003cInput1\u003e.d()": "IAAv4",
            "\u003cInput1\u003e.getSystemService().getSimCountryIso()": "IAAv11"
          },
          "stringMap": {
            "7000": "5",
            "7001": "CN"
          },
          "strings": {
            "IAAv11": "",
            "IAAv5": ""
          }
        }
      ]
    },
    "12": {
      "startMethod": "com.xiaomi.push.service.receivers.NetworkStatusReceiver.onReceive(Landroid/content/Context;Landroid/content/Intent;)V",
      "targetMethod": "android.net.ConnectivityManager.getActiveNetworkInfo()Landroid/net/NetworkInfo;",
      "eventChain": [
        {
          "start": "com.xiaomi.push.service.receivers.NetworkStatusReceiver.onReceive(Landroid/content/Context;Landroid/content/Intent;)V",
          "target": "invokevirtual \u003c Application, Landroid/net/ConnectivityManager, getActiveNetworkInfo()Landroid/net/NetworkInfo; \u003e@71",
          "type": "sms",
          "constraintsFile": "constraints12_0.py",
          "variables": {
            "\u003cInput1\u003e.a().j.isEmpty()": "IAAv3",
            "\u003cInput1\u003e.a().l()": "IAAv2",
            "\u003cInput1\u003e.a()": "IAAv7",
            "\u003cInput1\u003e.a().h": "IAAv5",
            "\u003cInput1\u003e.a().g()": "IAAv1",
            "\u003cInput1\u003e.e()": "IAAv8",
            "\u003cInput1\u003e.getSystemService()": "IAAv12",
            "\u003cInput1\u003e.getPackageManager().getPackageInfo()": "IAAv9",
            "\u003cInput1\u003e.a().b()": "IAAv0",
            "\u003cInput1\u003e.d()": "IAAv4",
            "\u003cInput1\u003e.getSystemService().getSimCountryIso()": "IAAv10"
          },
          "stringMap": {
            "7000": "5",
            "7001": "CN"
          },
          "strings": {
            "IAAv10": "",
            "IAAv5": ""
          }
        }
      ]
    },
    "13": {
      "startMethod": "com.wangdongxu.dhttp.dHttp$ConnectionChangeReceiver.onReceive(Landroid/content/Context;Landroid/content/Intent;)V",
      "targetMethod": "android.net.ConnectivityManager.getActiveNetworkInfo()Landroid/net/NetworkInfo;",
      "eventChain": [
        {
          "start": "me.iweek.rili.MainApplication.onCreate()V",
          "target": "invokespecial \u003c Application, Landroid/content/BroadcastReceiver, \u003cinit\u003e()V \u003e@2",
          "type": ""
        },
        {
          "start": "com.wangdongxu.dhttp.dHttp$ConnectionChangeReceiver.onReceive(Landroid/content/Context;Landroid/content/Intent;)V",
          "target": "invokevirtual \u003c Application, Landroid/net/ConnectivityManager, getActiveNetworkInfo()Landroid/net/NetworkInfo; \u003e@20",
          "type": "sms"
        }
      ]
    },
    "14": {
      "startMethod": "me.iweek.mainView.MainActivity.onCreate(Landroid/os/Bundle;)V",
      "targetMethod": "android.webkit.WebView.\u003cinit\u003e(Landroid/content/Context;)V",
      "eventChain": [
        {
          "start": "me.iweek.mainView.MainActivity.\u003cinit\u003e()V",
          "target": "PC@52",
          "type": "",
          "constraintsFile": "constraints14_0.py",
          "variables": {},
          "stringMap": {},
          "strings": {}
        },
        {
          "start": "me.iweek.mainView.MainActivity.onCreate(Landroid/os/Bundle;)V",
          "target": "invokespecial \u003c Application, Landroid/webkit/WebView, \u003cinit\u003e(Landroid/content/Context;)V \u003e@3",
          "type": "activity",
          "component": "me.iweek.mainView.MainActivity",
          "constraintsFile": "constraints14_1.py",
          "variables": {},
          "stringMap": {},
          "strings": {}
        }
      ]
    },
    "15": {
      "startMethod": "com.xiaomi.push.service.XMPushService.onCreate()V",
      "targetMethod": "android.net.ConnectivityManager.getActiveNetworkInfo()Landroid/net/NetworkInfo;",
      "eventChain": [
        {
          "start": "com.xiaomi.push.service.XMPushService.onCreate()V",
          "target": "PC@79",
          "type": "service",
          "component": "com.xiaomi.push.service.XMPushService",
          "constraintsFile": "constraints15_0.py",
          "variables": {},
          "stringMap": {},
          "strings": {}
        },
        {
          "start": "com.xiaomi.push.service.XMPushService.onCreate()V",
          "target": "invokevirtual \u003c Application, Landroid/net/ConnectivityManager, getActiveNetworkInfo()Landroid/net/NetworkInfo; \u003e@46",
          "type": "service",
          "component": "com.xiaomi.push.service.XMPushService",
          "constraintsFile": "constraints15_1.py",
          "variables": {},
          "stringMap": {},
          "strings": {}
        }
      ]
    },
    "16": {
      "startMethod": "com.xiaomi.push.service.XMPushService.onCreate()V",
      "targetMethod": "java.net.URL.openStream()Ljava/io/InputStream;",
      "eventChain": [
        {
          "start": "com.xiaomi.push.service.XMPushService.onCreate()V",
          "target": "invokevirtual \u003c Application, Ljava/net/URL, openStream()Ljava/io/InputStream; \u003e@68",
          "type": "service",
          "component": "com.xiaomi.push.service.XMPushService",
          "constraintsFile": "constraints16_0.py",
          "variables": {},
          "stringMap": {},
          "strings": {}
        }
      ]
    },
    "17": {
      "startMethod": "com.xiaomi.push.service.XMPushService.onCreate()V",
      "targetMethod": "android.net.wifi.WifiManager.getConnectionInfo()Landroid/net/wifi/WifiInfo;",
      "eventChain": [
        {
          "start": "com.xiaomi.push.service.XMPushService.onCreate()V",
          "target": "PC@79",
          "type": "service",
          "component": "com.xiaomi.push.service.XMPushService",
          "constraintsFile": "constraints17_0.py",
          "variables": {},
          "stringMap": {},
          "strings": {}
        },
        {
          "start": "com.xiaomi.push.service.XMPushService.onCreate()V",
          "target": "invokevirtual \u003c Application, Landroid/net/wifi/WifiManager, getConnectionInfo()Landroid/net/wifi/WifiInfo; \u003e@97",
          "type": "service",
          "component": "com.xiaomi.push.service.XMPushService",
          "constraintsFile": "constraints17_1.py",
          "variables": {},
          "stringMap": {},
          "strings": {}
        }
      ]
    },
    "18": {
      "startMethod": "com.xiaomi.push.service.XMPushService.onCreate()V",
      "targetMethod": "android.net.wifi.WifiManager.getConnectionInfo()Landroid/net/wifi/WifiInfo;",
      "eventChain": [
        {
          "start": "com.xiaomi.push.service.XMPushService.onCreate()V",
          "target": "PC@79",
          "type": "service",
          "component": "com.xiaomi.push.service.XMPushService",
          "constraintsFile": "constraints18_0.py",
          "variables": {},
          "stringMap": {},
          "strings": {}
        },
        {
          "start": "com.xiaomi.push.service.XMPushService.onCreate()V",
          "target": "invokevirtual \u003c Application, Landroid/net/wifi/WifiManager, getConnectionInfo()Landroid/net/wifi/WifiInfo; \u003e@123",
          "type": "service",
          "component": "com.xiaomi.push.service.XMPushService",
          "constraintsFile": "constraints18_1.py",
          "variables": {},
          "stringMap": {},
          "strings": {}
        }
      ]
    },
    "19": {
      "startMethod": "com.xiaomi.mipush.sdk.j.onReceive(Landroid/content/Context;Landroid/content/Intent;)V",
      "targetMethod": "android.provider.Settings$Secure.getUriFor(Ljava/lang/String;)Landroid/net/Uri;",
      "eventChain": [
        {
          "start": "me.iweek.rili.MainApplication.onCreate()V",
          "target": "PC@3",
          "type": ""
        },
        {
          "start": "com.xiaomi.mipush.sdk.j.onReceive(Landroid/content/Context;Landroid/content/Intent;)V",
          "target": "invokestatic \u003c Application, Landroid/provider/Settings$Secure, getUriFor(Ljava/lang/String;)Landroid/net/Uri; \u003e@27",
          "type": "sms",
          "constraintsFile": "constraints19_0.py",
          "variables": {
            "\u003cChainedInput1\u003e.a().b.a().j()": "IAAv4",
            "\u003cChainedInput1\u003e.a().b.a().b().SDK_INT": "IAAv15",
            "\u003cChainedInput1\u003e.a().b.a().g.intValue()": "IAAv14",
            "\u003cChainedInput1\u003e.a().b.a().b().a": "IAAv6",
            "\u003cChainedInput1\u003e.a().b.a().g()": "IAAv9",
            "\u003cChainedInput1\u003e.a().b.a().g": "IAAv13",
            "\u003cChainedInput1\u003e.a().b.a().l()": "IAAv5",
            "\u003cChainedInput1\u003e.a().b.a().b()": "IAAv11",
            "\u003cChainedInput1\u003e.a().b.a().c.a().a()": "IAAv12",
            "\u003cChainedInput1\u003e.a().b.a().e": "IAAv7",
            "\u003cChainedInput1\u003e.a().b.a().c.d()": "IAAv10"
          },
          "stringMap": {
            "7000": "com.xiaomi.mipush.RECEIVE_MESSAGE",
            "7001": "registration id expired"
          },
          "strings": {
            "IAAv1": "",
            "IAAv7": ""
          }
        }
      ]
    },
    "20": {
      "startMethod": "com.xiaomi.mipush.sdk.j.onReceive(Landroid/content/Context;Landroid/content/Intent;)V",
      "targetMethod": "android.net.ConnectivityManager.getActiveNetworkInfo()Landroid/net/NetworkInfo;",
      "eventChain": [
        {
          "start": "me.iweek.rili.MainApplication.onCreate()V",
          "target": "PC@3",
          "type": ""
        },
        {
          "start": "com.xiaomi.mipush.sdk.j.onReceive(Landroid/content/Context;Landroid/content/Intent;)V",
          "target": "invokevirtual \u003c Application, Landroid/net/ConnectivityManager, getActiveNetworkInfo()Landroid/net/NetworkInfo; \u003e@33",
          "type": "sms",
          "constraintsFile": "constraints20_0.py",
          "variables": {
            "\u003cChainedInput1\u003e.a().b.a().j()": "IAAv4",
            "\u003cChainedInput1\u003e.a().b.a().g()": "IAAv9",
            "\u003cChainedInput1\u003e.a().b.a().b().a": "IAAv6",
            "\u003cChainedInput1\u003e.a().b.a().l()": "IAAv5",
            "\u003cChainedInput1\u003e.a().b.a().c.getSystemService()": "IAAv10",
            "\u003cChainedInput1\u003e.a().b.a().e": "IAAv7"
          },
          "stringMap": {
            "7000": "com.xiaomi.mipush.RECEIVE_MESSAGE",
            "7001": "registration id expired"
          },
          "strings": {
            "IAAv1": "",
            "IAAv7": ""
          }
        }
      ]
    },
    "21": {
      "startMethod": "com.xiaomi.mipush.sdk.j.onReceive(Landroid/content/Context;Landroid/content/Intent;)V",
      "targetMethod": "android.app.NotificationManager.notify(ILandroid/app/Notification;)V",
      "eventChain": [
        {
          "start": "me.iweek.rili.MainApplication.onCreate()V",
          "target": "PC@3",
          "type": ""
        },
        {
          "start": "me.iweek.rili.MainApplication.onCreate()V",
          "target": "PC@3",
          "type": ""
        },
        {
          "start": "com.xiaomi.push.service.XMPushService.onStartCommand(Landroid/content/Intent;II)I",
          "target": "PC@382",
          "type": "service",
          "component": "com.xiaomi.push.service.XMPushService",
          "constraintsFile": "constraints21_0.py",
          "variables": {
            "\u003cChainedInput1\u003e": "IAAv24",
            "\u003cChainedInput1\u003e.getAction().b().g": "IAAv28",
            "\u003cChainedInput1\u003e.a().b.a().j().isEmpty()": "IAAv10",
            "\u003cChainedInput1\u003e.getAction()": "IAAv25",
            "\u003cChainedInput1\u003e.getBooleanExtra()": "IAAv48",
            "\u003cChainedInput1\u003e.a().b.a(\u003cChainedInput1\u003e.a().b.a().j()).a": "IAAv20",
            "\u003cChainedInput1\u003e.getAction().b().f": "IAAv30",
            "\u003cChainedInput1\u003e.getByteArrayExtra()": "IAAv49",
            "System.currentTimeMillis()": "IAAv19",
            "\u003cChainedInput1\u003e.getAction().b().c": "IAAv36",
            "\u003cChainedInput1\u003e.getAction().b().d": "IAAv34",
            "\u003cChainedInput1\u003e.a().b.a().l()": "IAAv8",
            "\u003cChainedInput1\u003e.getAction().b().e": "IAAv38",
            "\u003cChainedInput1\u003e.a().b.getPackageName()": "IAAv22",
            "\u003cChainedInput1\u003e.a().b.f(\u003cChainedInput1\u003e.a().b.a().j())": "IAAv11",
            "\u003cChainedInput1\u003e.getAction().b().b": "IAAv32",
            "\u003cChainedInput1\u003e.a().b.e(\u003cChainedInput1\u003e.a().b.a().h())": "IAAv13",
            "\u003cChainedInput1\u003e.a().b.a().g()": "IAAv7",
            "\u003cChainedInput1\u003e.a().a().a": "IAAv6",
            "\u003cChainedInput1\u003e.a().b.a().h().isEmpty()": "IAAv12",
            "\u003cChainedInput1\u003e.a().b.a().j()": "IAAv4",
            "\u003cChainedInput1\u003e.a().b.a(\u003cChainedInput1\u003e.a().b.a().j()).SDK_INT": "IAAv18",
            "\u003cChainedInput1\u003e.getAction().b().h": "IAAv43",
            "\u003cChainedInput1\u003e.a().b.a().b().a": "IAAv9",
            "\u003cChainedInput1\u003e.getAction().b().i": "IAAv45",
            "\u003cChainedInput1\u003e.getAction().b().a": "IAAv26"
          },
          "stringMap": {
            "7000": "com.xiaomi.mipush.RECEIVE_MESSAGE",
            "7001": "com.xiaomi.xmsf",
            "7002": "com.xiaomi.push.timer",
            "7003": "com.xiaomi.push.check_alive",
            "7004": "com.xiaomi.push.network_status_changed",
            "7005": "com.xiaomi.mipush.REGISTER_APP"
          },
          "strings": {
            "IAAv1": "",
            "IAAv36": "",
            "IAAv22": "",
            "IAAv38": "",
            "IAAv45": "",
            "IAAv32": "",
            "IAAv28": "",
            "IAAv43": "",
            "IAAv34": "",
            "IAAv25": "",
            "IAAv26": "",
            "IAAv30": ""
          }
        },
        {
          "start": "com.xiaomi.mipush.sdk.j.onReceive(Landroid/content/Context;Landroid/content/Intent;)V",
          "target": "invokevirtual \u003c Application, Landroid/app/NotificationManager, notify(ILandroid/app/Notification;)V \u003e@139",
          "type": "sms",
          "constraintsFile": "constraints21_1.py",
          "variables": {
            "\u003cChainedInput1\u003e.a().b.a().j()": "IAAv4",
            "\u003cChainedInput1\u003e.a().b.getPackageName()": "IAAv22",
            "\u003cChainedInput1\u003e.a().b.a(\u003cChainedInput1\u003e.a().b.a().j()).SDK_INT": "IAAv18",
            "System.currentTimeMillis()": "IAAv19",
            "\u003cChainedInput1\u003e.a().b.a().j().isEmpty()": "IAAv10",
            "\u003cChainedInput1\u003e.a().b.f(\u003cChainedInput1\u003e.a().b.a().j())": "IAAv11",
            "\u003cChainedInput1\u003e.a().b.e(\u003cChainedInput1\u003e.a().b.a().h())": "IAAv13",
            "\u003cChainedInput1\u003e.a().b.a().g()": "IAAv7",
            "\u003cChainedInput1\u003e.a().b.a().b().a": "IAAv9",
            "\u003cChainedInput1\u003e.a().b.a().l()": "IAAv8",
            "\u003cChainedInput1\u003e.a().b.a(\u003cChainedInput1\u003e.a().b.a().j()).a": "IAAv20",
            "\u003cChainedInput1\u003e.a().a().a": "IAAv6",
            "\u003cChainedInput1\u003e.a().b.a().h().isEmpty()": "IAAv12"
          },
          "stringMap": {
            "7000": "com.xiaomi.mipush.RECEIVE_MESSAGE",
            "7001": "com.xiaomi.xmsf"
          },
          "strings": {
            "IAAv1": "",
            "IAAv22": ""
          }
        }
      ]
    },
    "22": {
      "startMethod": "com.xiaomi.mipush.sdk.j.onReceive(Landroid/content/Context;Landroid/content/Intent;)V",
      "targetMethod": "java.lang.reflect.Method.invoke(Ljava/lang/Object;[Ljava/lang/Object;)Ljava/lang/Object;",
      "eventChain": [
        {
          "start": "me.iweek.rili.MainApplication.onCreate()V",
          "target": "PC@3",
          "type": ""
        },
        {
          "start": "me.iweek.rili.MainApplication.onCreate()V",
          "target": "PC@3",
          "type": ""
        },
        {
          "start": "com.xiaomi.push.service.XMPushService.onStartCommand(Landroid/content/Intent;II)I",
          "target": "PC@382",
          "type": "service",
          "component": "com.xiaomi.push.service.XMPushService",
          "constraintsFile": "constraints22_0.py",
          "variables": {
            "\u003cChainedInput1\u003e": "IAAv24",
            "\u003cChainedInput1\u003e.getAction().b().g": "IAAv28",
            "\u003cChainedInput1\u003e.a().b.a().j().isEmpty()": "IAAv10",
            "\u003cChainedInput1\u003e.getAction()": "IAAv25",
            "\u003cChainedInput1\u003e.getBooleanExtra()": "IAAv48",
            "\u003cChainedInput1\u003e.a().b.a(\u003cChainedInput1\u003e.a().b.a().j()).a": "IAAv20",
            "\u003cChainedInput1\u003e.getAction().b().f": "IAAv30",
            "\u003cChainedInput1\u003e.getByteArrayExtra()": "IAAv49",
            "System.currentTimeMillis()": "IAAv19",
            "\u003cChainedInput1\u003e.getAction().b().c": "IAAv36",
            "\u003cChainedInput1\u003e.getAction().b().d": "IAAv34",
            "\u003cChainedInput1\u003e.a().b.a().l()": "IAAv8",
            "\u003cChainedInput1\u003e.getAction().b().e": "IAAv38",
            "\u003cChainedInput1\u003e.a().b.getPackageName()": "IAAv22",
            "\u003cChainedInput1\u003e.a().b.f(\u003cChainedInput1\u003e.a().b.a().j())": "IAAv11",
            "\u003cChainedInput1\u003e.getAction().b().b": "IAAv32",
            "\u003cChainedInput1\u003e.a().b.e(\u003cChainedInput1\u003e.a().b.a().h())": "IAAv13",
            "\u003cChainedInput1\u003e.a().b.a().g()": "IAAv7",
            "\u003cChainedInput1\u003e.a().a().a": "IAAv6",
            "\u003cChainedInput1\u003e.a().b.a().h().isEmpty()": "IAAv12",
            "\u003cChainedInput1\u003e.a().b.a().j()": "IAAv4",
            "\u003cChainedInput1\u003e.a().b.a(\u003cChainedInput1\u003e.a().b.a().j()).SDK_INT": "IAAv18",
            "\u003cChainedInput1\u003e.getAction().b().h": "IAAv43",
            "\u003cChainedInput1\u003e.a().b.a().b().a": "IAAv9",
            "\u003cChainedInput1\u003e.getAction().b().i": "IAAv45",
            "\u003cChainedInput1\u003e.getAction().b().a": "IAAv26"
          },
          "stringMap": {
            "7000": "com.xiaomi.mipush.RECEIVE_MESSAGE",
            "7001": "com.xiaomi.xmsf",
            "7002": "com.xiaomi.push.timer",
            "7003": "com.xiaomi.push.check_alive",
            "7004": "com.xiaomi.push.network_status_changed",
            "7005": "com.xiaomi.mipush.REGISTER_APP"
          },
          "strings": {
            "IAAv1": "",
            "IAAv36": "",
            "IAAv22": "",
            "IAAv38": "",
            "IAAv45": "",
            "IAAv32": "",
            "IAAv28": "",
            "IAAv43": "",
            "IAAv34": "",
            "IAAv25": "",
            "IAAv26": "",
            "IAAv30": ""
          }
        },
        {
          "start": "com.xiaomi.mipush.sdk.j.onReceive(Landroid/content/Context;Landroid/content/Intent;)V",
          "target": "invokevirtual \u003c Application, Ljava/lang/reflect/Method, invoke(Ljava/lang/Object;[Ljava/lang/Object;)Ljava/lang/Object; \u003e@103",
          "type": "sms",
          "constraintsFile": "constraints22_1.py",
          "variables": {
            "\u003cChainedInput1\u003e.a().b.a().j()": "IAAv4",
            "\u003cChainedInput1\u003e.a().b.getPackageName()": "IAAv22",
            "\u003cChainedInput1\u003e.a().b.a(\u003cChainedInput1\u003e.a().b.a().j()).SDK_INT": "IAAv18",
            "System.currentTimeMillis()": "IAAv19",
            "\u003cChainedInput1\u003e.a().b.a().j().isEmpty()": "IAAv10",
            "\u003cChainedInput1\u003e.a().b.f(\u003cChainedInput1\u003e.a().b.a().j())": "IAAv11",
            "\u003cChainedInput1\u003e.a().b.e(\u003cChainedInput1\u003e.a().b.a().h())": "IAAv13",
            "\u003cChainedInput1\u003e.a().b.a().g()": "IAAv7",
            "\u003cChainedInput1\u003e.a().b.a().b().a": "IAAv9",
            "\u003cChainedInput1\u003e.a().b.a().l()": "IAAv8",
            "\u003cChainedInput1\u003e.a().b.a(\u003cChainedInput1\u003e.a().b.a().j()).a": "IAAv20",
            "\u003cChainedInput1\u003e.a().a().a": "IAAv6",
            "\u003cChainedInput1\u003e.a().b.a().h().isEmpty()": "IAAv12"
          },
          "stringMap": {
            "7000": "com.xiaomi.mipush.RECEIVE_MESSAGE",
            "7001": "com.xiaomi.xmsf"
          },
          "strings": {
            "IAAv1": "",
            "IAAv22": ""
          }
        }
      ]
    },
    "23": {
      "startMethod": "com.xiaomi.push.service.receivers.PingReceiver.onReceive(Landroid/content/Context;Landroid/content/Intent;)V",
      "targetMethod": "android.net.ConnectivityManager.getActiveNetworkInfo()Landroid/net/NetworkInfo;",
      "eventChain": [
        {
          "start": "com.xiaomi.push.service.receivers.PingReceiver.onReceive(Landroid/content/Context;Landroid/content/Intent;)V",
          "target": "invokevirtual \u003c Application, Landroid/net/ConnectivityManager, getActiveNetworkInfo()Landroid/net/NetworkInfo; \u003e@33",
          "type": "sms",
          "constraintsFile": "constraints23_0.py",
          "variables": {
            "\u003cInput1\u003e.a().j.isEmpty()": "IAAv6",
            "\u003cInput2\u003e.getAction()": "IAAv1",
            "\u003cInput2\u003e.getPackage().b().k": "IAAv0",
            "\u003cInput2\u003e.getPackage()": "IAAv4",
            "\u003cInput1\u003e.getSystemService()": "IAAv7",
            "\u003cInput1\u003e.getPackageName()": "IAAv3"
          },
          "stringMap": {},
          "strings": {
            "IAAv4": "",
            "IAAv3": "",
            "IAAv1": "",
            "IAAv0": ""
          }
        }
      ]
    },
    "24": {
      "startMethod": "com.xiaomi.push.service.receivers.PingReceiver.onReceive(Landroid/content/Context;Landroid/content/Intent;)V",
      "targetMethod": "android.telephony.TelephonyManager.getDeviceId()Ljava/lang/String;",
      "eventChain": [
        {
          "start": "com.xiaomi.push.service.receivers.PingReceiver.onReceive(Landroid/content/Context;Landroid/content/Intent;)V",
          "target": "invokevirtual \u003c Application, Landroid/telephony/TelephonyManager, getDeviceId()Ljava/lang/String; \u003e@55",
          "type": "sms",
          "constraintsFile": "constraints24_0.py",
          "variables": {
            "\u003cInput1\u003e.a().j.isEmpty()": "IAAv6",
            "\u003cInput1\u003e.a()": "IAAv10",
            "\u003cInput1\u003e.a().h": "IAAv8",
            "\u003cInput2\u003e.getPackage()": "IAAv4",
            "\u003cInput1\u003e.a().j.a().b": "IAAv11",
            "\u003cInput2\u003e.getAction()": "IAAv1",
            "\u003cInput1\u003e.getSystemService().\u003cDeviceID\u003e": "IAAv12",
            "\u003cInput2\u003e.getPackage().b().k": "IAAv0",
            "\u003cInput1\u003e.d()": "IAAv7",
            "\u003cInput1\u003e.getPackageName()": "IAAv3"
          },
          "stringMap": {
            "7000": "5"
          },
          "strings": {
            "IAAv4": "",
            "IAAv3": "",
            "IAAv1": "",
            "IAAv11": "",
            "IAAv0": "",
            "IAAv12": "",
            "IAAv8": ""
          }
        }
      ]
    },
    "25": {
      "startMethod": "com.xiaomi.push.service.receivers.PingReceiver.onReceive(Landroid/content/Context;Landroid/content/Intent;)V",
      "targetMethod": "android.net.ConnectivityManager.getActiveNetworkInfo()Landroid/net/NetworkInfo;",
      "eventChain": [
        {
          "start": "com.xiaomi.push.service.receivers.PingReceiver.onReceive(Landroid/content/Context;Landroid/content/Intent;)V",
          "target": "invokevirtual \u003c Application, Landroid/net/ConnectivityManager, getActiveNetworkInfo()Landroid/net/NetworkInfo; \u003e@1518",
          "type": "sms",
          "constraintsFile": "constraints25_0.py",
          "variables": {
            "\u003cInput2\u003e.getAction()": "IAAv1",
            "\u003cInput2\u003e.getPackage().b().k": "IAAv0",
            "\u003cInput2\u003e.getPackage()": "IAAv4",
            "\u003cInput1\u003e.getPackageName()": "IAAv3"
          },
          "stringMap": {},
          "strings": {
            "IAAv4": "",
            "IAAv3": "",
            "IAAv1": "",
            "IAAv0": ""
          }
        }
      ]
    },
    "26": {
      "startMethod": "com.xiaomi.push.service.receivers.PingReceiver.onReceive(Landroid/content/Context;Landroid/content/Intent;)V",
      "targetMethod": "java.net.URL.openConnection(Ljava/net/Proxy;)Ljava/net/URLConnection;",
      "eventChain": [
        {
          "start": "com.xiaomi.push.service.receivers.PingReceiver.onReceive(Landroid/content/Context;Landroid/content/Intent;)V",
          "target": "invokevirtual \u003c Application, Ljava/net/URL, openConnection(Ljava/net/Proxy;)Ljava/net/URLConnection; \u003e@49",
          "type": "sms",
          "constraintsFile": "constraints26_0.py",
          "variables": {
            "\u003cInput1\u003e.a().j.isEmpty()": "IAAv6",
            "\u003cInput1\u003e.c()": "IAAv13",
            "\u003cInput1\u003e.a()": "IAAv10",
            "\u003cInput1\u003e.a().h": "IAAv8",
            "\u003cInput2\u003e.getPackage()": "IAAv4",
            "\u003cInput1\u003e.e()": "IAAv11",
            "\u003cInput2\u003e.getAction()": "IAAv1",
            "\u003cInput1\u003e.getPackageManager().getPackageInfo()": "IAAv12",
            "\u003cInput2\u003e.getPackage().b().k": "IAAv0",
            "\u003cInput1\u003e.d()": "IAAv7",
            "\u003cInput1\u003e.getPackageName()": "IAAv3"
          },
          "stringMap": {
            "7000": "5"
          },
          "strings": {
            "IAAv4": "",
            "IAAv3": "",
            "IAAv1": "",
            "IAAv0": "",
            "IAAv8": ""
          }
        }
      ]
    },
    "27": {
      "startMethod": "com.xiaomi.push.service.receivers.PingReceiver.onReceive(Landroid/content/Context;Landroid/content/Intent;)V",
      "targetMethod": "android.net.ConnectivityManager.getActiveNetworkInfo()Landroid/net/NetworkInfo;",
      "eventChain": [
        {
          "start": "com.xiaomi.push.service.receivers.PingReceiver.onReceive(Landroid/content/Context;Landroid/content/Intent;)V",
          "target": "invokevirtual \u003c Application, Landroid/net/ConnectivityManager, getActiveNetworkInfo()Landroid/net/NetworkInfo; \u003e@63",
          "type": "sms",
          "constraintsFile": "constraints27_0.py",
          "variables": {
            "\u003cInput1\u003e.a().j.isEmpty()": "IAAv6",
            "\u003cInput1\u003e.c()": "IAAv13",
            "\u003cInput1\u003e.a()": "IAAv10",
            "\u003cInput1\u003e.a().h": "IAAv8",
            "\u003cInput2\u003e.getPackage()": "IAAv4",
            "\u003cInput1\u003e.e()": "IAAv11",
            "\u003cInput1\u003e.getSystemService()": "IAAv16",
            "\u003cInput2\u003e.getAction()": "IAAv1",
            "\u003cInput1\u003e.getPackageManager().getPackageInfo()": "IAAv12",
            "\u003cInput2\u003e.getPackage().b().k": "IAAv0",
            "\u003cInput1\u003e.d()": "IAAv7",
            "\u003cInput1\u003e.getPackageName()": "IAAv3",
            "\u003cInput1\u003e.getSystemService().getSimCountryIso()": "IAAv14"
          },
          "stringMap": {
            "7000": "5",
            "7001": "CN"
          },
          "strings": {
            "IAAv4": "",
            "IAAv3": "",
            "IAAv1": "",
            "IAAv0": "",
            "IAAv14": "",
            "IAAv8": ""
          }
        }
      ]
    },
    "28": {
      "startMethod": "com.xiaomi.push.service.receivers.PingReceiver.onReceive(Landroid/content/Context;Landroid/content/Intent;)V",
      "targetMethod": "java.net.URL.openConnection()Ljava/net/URLConnection;",
      "eventChain": [
        {
          "start": "com.xiaomi.push.service.receivers.PingReceiver.onReceive(Landroid/content/Context;Landroid/content/Intent;)V",
          "target": "invokevirtual \u003c Application, Ljava/net/URL, openConnection()Ljava/net/URLConnection; \u003e@70",
          "type": "sms",
          "constraintsFile": "constraints28_0.py",
          "variables": {
            "\u003cInput1\u003e.a().j.isEmpty()": "IAAv6",
            "\u003cInput1\u003e.c()": "IAAv13",
            "\u003cInput1\u003e.a()": "IAAv10",
            "\u003cInput1\u003e.a().h": "IAAv8",
            "\u003cInput2\u003e.getPackage()": "IAAv4",
            "\u003cInput1\u003e.e()": "IAAv11",
            "\u003cInput2\u003e.getAction()": "IAAv1",
            "\u003cInput1\u003e.getPackageManager().getPackageInfo()": "IAAv12",
            "\u003cInput2\u003e.getPackage().b().k": "IAAv0",
            "\u003cInput1\u003e.d()": "IAAv7",
            "\u003cInput1\u003e.b()": "IAAv14",
            "\u003cInput1\u003e.getPackageName()": "IAAv3"
          },
          "stringMap": {
            "7000": "5"
          },
          "strings": {
            "IAAv4": "",
            "IAAv3": "",
            "IAAv1": "",
            "IAAv0": "",
            "IAAv8": ""
          }
        }
      ]
    },
    "29": {
      "startMethod": "com.xiaomi.push.service.receivers.PingReceiver.onReceive(Landroid/content/Context;Landroid/content/Intent;)V",
      "targetMethod": "android.net.ConnectivityManager.getActiveNetworkInfo()Landroid/net/NetworkInfo;",
      "eventChain": [
        {
          "start": "com.xiaomi.push.service.receivers.PingReceiver.onReceive(Landroid/content/Context;Landroid/content/Intent;)V",
          "target": "invokevirtual \u003c Application, Landroid/net/ConnectivityManager, getActiveNetworkInfo()Landroid/net/NetworkInfo; \u003e@71",
          "type": "sms",
          "constraintsFile": "constraints29_0.py",
          "variables": {
            "\u003cInput1\u003e.a().j.isEmpty()": "IAAv6",
            "\u003cInput1\u003e.a()": "IAAv10",
            "\u003cInput1\u003e.a().h": "IAAv8",
            "\u003cInput2\u003e.getPackage()": "IAAv4",
            "\u003cInput1\u003e.e()": "IAAv11",
            "\u003cInput1\u003e.getSystemService()": "IAAv15",
            "\u003cInput2\u003e.getAction()": "IAAv1",
            "\u003cInput1\u003e.getPackageManager().getPackageInfo()": "IAAv12",
            "\u003cInput2\u003e.getPackage().b().k": "IAAv0",
            "\u003cInput1\u003e.d()": "IAAv7",
            "\u003cInput1\u003e.getPackageName()": "IAAv3",
            "\u003cInput1\u003e.getSystemService().getSimCountryIso()": "IAAv13"
          },
          "stringMap": {
            "7000": "5",
            "7001": "CN"
          },
          "strings": {
            "IAAv4": "",
            "IAAv3": "",
            "IAAv1": "",
            "IAAv0": "",
            "IAAv13": "",
            "IAAv8": ""
          }
        }
      ]
    },
    "30": {
      "startMethod": "com.xiaomi.push.service.receivers.PingReceiver.onReceive(Landroid/content/Context;Landroid/content/Intent;)V",
      "targetMethod": "java.net.URL.openConnection()Ljava/net/URLConnection;",
      "eventChain": [
        {
          "start": "com.xiaomi.push.service.receivers.PingReceiver.onReceive(Landroid/content/Context;Landroid/content/Intent;)V",
          "target": "invokevirtual \u003c Application, Ljava/net/URL, openConnection()Ljava/net/URLConnection; \u003e@105",
          "type": "sms",
          "constraintsFile": "constraints30_0.py",
          "variables": {
            "\u003cInput1\u003e.a().j.isEmpty()": "IAAv6",
            "\u003cInput1\u003e.c()": "IAAv13",
            "\u003cInput1\u003e.a()": "IAAv10",
            "\u003cInput1\u003e.a().h": "IAAv8",
            "\u003cInput2\u003e.getPackage()": "IAAv4",
            "\u003cInput1\u003e.e()": "IAAv11",
            "\u003cInput2\u003e.getAction()": "IAAv1",
            "\u003cInput1\u003e.getPackageManager().getPackageInfo()": "IAAv12",
            "\u003cInput2\u003e.getPackage().b().k": "IAAv0",
            "\u003cInput1\u003e.d()": "IAAv7",
            "\u003cInput1\u003e.b()": "IAAv14",
            "\u003cInput1\u003e.getPackageName()": "IAAv3"
          },
          "stringMap": {
            "7000": "5"
          },
          "strings": {
            "IAAv4": "",
            "IAAv3": "",
            "IAAv1": "",
            "IAAv0": "",
            "IAAv8": ""
          }
        }
      ]
    },
    "31": {
      "startMethod": "com.xiaomi.push.service.receivers.PingReceiver.onReceive(Landroid/content/Context;Landroid/content/Intent;)V",
      "targetMethod": "java.lang.reflect.Method.invoke(Ljava/lang/Object;[Ljava/lang/Object;)Ljava/lang/Object;",
      "eventChain": [
        {
          "start": "com.xiaomi.push.service.receivers.PingReceiver.onReceive(Landroid/content/Context;Landroid/content/Intent;)V",
          "target": "invokevirtual \u003c Application, Ljava/lang/reflect/Method, invoke(Ljava/lang/Object;[Ljava/lang/Object;)Ljava/lang/Object; \u003e@135",
          "type": "sms",
          "constraintsFile": "constraints31_0.py",
          "variables": {
            "\u003cChainedInput2\u003e.getPackage().b().SDK_INT": "IAAv11",
            "\u003cChainedInput2\u003e.getPackage()": "IAAv4",
            "\u003cChainedInput2\u003e.getAction()": "IAAv1",
            "\u003cChainedInput1\u003e.getPackageName()": "IAAv3",
            "\u003cChainedInput2\u003e.getPackage().b().k": "IAAv0"
          },
          "stringMap": {},
          "strings": {
            "IAAv4": "",
            "IAAv3": "",
            "IAAv1": "",
            "IAAv0": ""
          }
        }
      ]
    },
    "32": {
      "startMethod": "com.xiaomi.push.service.receivers.PingReceiver.onReceive(Landroid/content/Context;Landroid/content/Intent;)V",
      "targetMethod": "android.telephony.TelephonyManager.getDeviceId()Ljava/lang/String;",
      "eventChain": [
        {
          "start": "com.xiaomi.push.service.receivers.PingReceiver.onReceive(Landroid/content/Context;Landroid/content/Intent;)V",
          "target": "invokevirtual \u003c Application, Landroid/telephony/TelephonyManager, getDeviceId()Ljava/lang/String; \u003e@16",
          "type": "sms",
          "constraintsFile": "constraints32_0.py",
          "variables": {
            "\u003cInput1\u003e.a().j.isEmpty()": "IAAv6",
            "\u003cInput2\u003e.getAction()": "IAAv1",
            "\u003cInput1\u003e.a()": "IAAv10",
            "\u003cInput1\u003e.a().h": "IAAv8",
            "\u003cInput1\u003e.d()": "IAAv7",
            "\u003cInput2\u003e.getPackage().b().k": "IAAv0",
            "\u003cInput2\u003e.getPackage()": "IAAv4",
            "\u003cInput1\u003e.a().j.a().b": "IAAv11",
            "\u003cInput1\u003e.getPackageName()": "IAAv3"
          },
          "stringMap": {
            "7000": "5"
          },
          "strings": {
            "IAAv4": "",
            "IAAv3": "",
            "IAAv1": "",
            "IAAv11": "",
            "IAAv0": "",
            "IAAv8": ""
          }
        }
      ]
    },
    "33": {
      "startMethod": "me.iweek.notificationweekviews.weekNotificationBroadcastReceiver.onReceive(Landroid/content/Context;Landroid/content/Intent;)V",
      "targetMethod": "android.app.NotificationManager.notify(ILandroid/app/Notification;)V",
      "eventChain": [
        {
          "start": "me.iweek.notificationweekviews.weekNotificationBroadcastReceiver.onReceive(Landroid/content/Context;Landroid/content/Intent;)V",
          "target": "invokevirtual \u003c Application, Landroid/app/NotificationManager, notify(ILandroid/app/Notification;)V \u003e@469",
          "type": "sms",
          "constraintsFile": "constraints33_0.py",
          "variables": {
            "\u003cChainedInput1\u003e.e": "IAAv6",
            "\u003cChainedInput1\u003e.a.get().getExtras()": "IAAv2",
            "SharedPreferences\u003cother_setting_week\u003e": "IAAv8",
            "\u003cChainedInput1\u003e.a.size()": "IAAv0",
            "\u003cChainedInput1\u003e.a.get()": "IAAv1",
            "\u003cChainedInput1\u003e.e.getClass().getField()": "IAAv10",
            "SharedPreferences\u003cweeknotificationIsClose\u003e": "IAAv5"
          },
          "stringMap": {
            "7000": "android.intent.action.TIME_SET",
            "7001": "ME.IWEEK.RILI.REFRESH.NOTIFICATION",
            "7002": "0"
          },
          "strings": {
            "IAAv8": ""
          }
        }
      ]
    },
    "34": {
      "startMethod": "com.xiaomi.f.u.\u003cclinit\u003e()V",
      "targetMethod": "java.net.URL.openStream()Ljava/io/InputStream;",
      "eventChain": [
        {
          "start": "com.xiaomi.f.u.\u003cclinit\u003e()V",
          "target": "invokevirtual \u003c Application, Ljava/net/URL, openStream()Ljava/io/InputStream; \u003e@102",
          "type": ""
        }
      ]
    },
    "35": {
      "startMethod": "me.iweek.rili.staticView.n.onDownloadStart(Ljava/lang/String;Ljava/lang/String;Ljava/lang/String;Ljava/lang/String;J)V",
      "targetMethod": "android.app.DownloadManager.enqueue(Landroid/app/DownloadManager$Request;)J",
      "eventChain": [
        {
          "start": "me.iweek.rili.staticView.n.onDownloadStart(Ljava/lang/String;Ljava/lang/String;Ljava/lang/String;Ljava/lang/String;J)V",
          "target": "invokevirtual \u003c Application, Landroid/app/DownloadManager, enqueue(Landroid/app/DownloadManager$Request;)J \u003e@384",
          "type": ""
        }
      ]
    },
    "36": {
      "startMethod": "me.iweek.rili.staticView.n.onDownloadStart(Ljava/lang/String;Ljava/lang/String;Ljava/lang/String;Ljava/lang/String;J)V",
      "targetMethod": "android.app.DownloadManager.enqueue(Landroid/app/DownloadManager$Request;)J",
      "eventChain": [
        {
          "start": "me.iweek.rili.staticView.n.onDownloadStart(Ljava/lang/String;Ljava/lang/String;Ljava/lang/String;Ljava/lang/String;J)V",
          "target": "invokevirtual \u003c Application, Landroid/app/DownloadManager, enqueue(Landroid/app/DownloadManager$Request;)J \u003e@177",
          "type": ""
        }
      ]
    },
    "37": {
      "startMethod": "me.iweek.rili.staticView.n.onDownloadStart(Ljava/lang/String;Ljava/lang/String;Ljava/lang/String;Ljava/lang/String;J)V",
      "targetMethod": "android.app.DownloadManager.enqueue(Landroid/app/DownloadManager$Request;)J",
      "eventChain": [
        {
          "start": "me.iweek.rili.staticView.n.onDownloadStart(Ljava/lang/String;Ljava/lang/String;Ljava/lang/String;Ljava/lang/String;J)V",
          "target": "invokevirtual \u003c Application, Landroid/app/DownloadManager, enqueue(Landroid/app/DownloadManager$Request;)J \u003e@318",
          "type": ""
        }
      ]
    },
    "38": {
      "startMethod": "me.iweek.rili.staticView.n.onDownloadStart(Ljava/lang/String;Ljava/lang/String;Ljava/lang/String;Ljava/lang/String;J)V",
      "targetMethod": "android.app.DownloadManager.enqueue(Landroid/app/DownloadManager$Request;)J",
      "eventChain": [
        {
          "start": "me.iweek.rili.staticView.n.onDownloadStart(Ljava/lang/String;Ljava/lang/String;Ljava/lang/String;Ljava/lang/String;J)V",
          "target": "invokevirtual \u003c Application, Landroid/app/DownloadManager, enqueue(Landroid/app/DownloadManager$Request;)J \u003e@247",
          "type": ""
        }
      ]
    },
    "39": {
      "startMethod": "me.iweek.rili.plugs.p.handleMessage(Landroid/os/Message;)Z",
      "targetMethod": "android.app.NotificationManager.notify(ILandroid/app/Notification;)V",
      "eventChain": [
        {
          "start": "me.iweek.rili.plugs.r.\u003cclinit\u003e()V",
          "target": "",
          "type": ""
        },
        {
          "start": "me.iweek.rili.plugs.p.handleMessage(Landroid/os/Message;)Z",
          "target": "invokevirtual \u003c Application, Landroid/app/NotificationManager, notify(ILandroid/app/Notification;)V \u003e@469",
          "type": "",
          "constraintsFile": "constraints39_0.py",
          "variables": {
            "SharedPreferences\u003cother_setting_week\u003e": "IAAv4",
            "SharedPreferences\u003cweeknotificationIsClose\u003e": "IAAv1"
          },
          "stringMap": {
            "7000": "0"
          },
          "strings": {
            "IAAv4": ""
          }
        }
      ]
    },
    "40": {
      "startMethod": "me.iweek.notificationweekviews.a.onReceive(Landroid/content/Context;Landroid/content/Intent;)V",
      "targetMethod": "android.app.NotificationManager.notify(ILandroid/app/Notification;)V",
      "eventChain": [
        {
          "start": "me.iweek.notificationweekviews.weekNotificationService.onCreate()V",
          "target": "invokespecial \u003c Application, Landroid/content/BroadcastReceiver, \u003cinit\u003e()V \u003e@7",
          "type": "service",
          "component": "me.iweek.notificationweekviews.weekNotificationService"
        },
        {
          "start": "me.iweek.notificationweekviews.a.onReceive(Landroid/content/Context;Landroid/content/Intent;)V",
          "target": "invokevirtual \u003c Application, Landroid/app/NotificationManager, notify(ILandroid/app/Notification;)V \u003e@469",
          "type": "sms",
          "constraintsFile": "constraints40_0.py",
          "variables": {
            "SharedPreferences\u003cother_setting_week\u003e": "IAAv3",
            "SharedPreferences\u003cweeknotificationIsClose\u003e": "IAAv0"
          },
          "stringMap": {
            "7000": "0"
          },
          "strings": {
            "IAAv3": ""
          }
        }
      ]
    },
    "41": {
      "startMethod": "com.baidu.location.d.onReceive(Landroid/content/Context;Landroid/content/Intent;)V",
      "targetMethod": "android.net.wifi.WifiManager.getScanResults()Ljava/util/List;",
      "eventChain": [
        {
          "start": "com.baidu.location.d.onReceive(Landroid/content/Context;Landroid/content/Intent;)V",
          "target": "invokevirtual \u003c Application, Landroid/net/wifi/WifiManager, getScanResults()Ljava/util/List; \u003e@44",
          "type": "sms",
          "constraintsFile": "constraints41_0.py",
          "variables": {},
          "stringMap": {},
          "strings": {}
        }
      ]
    },
    "42": {
      "startMethod": "me.iweek.rili.plugs.feedPlugs.i.handleMessage(Landroid/os/Message;)V",
      "targetMethod": "android.webkit.WebView.\u003cinit\u003e(Landroid/content/Context;)V",
      "eventChain": [
        {
          "start": "me.iweek.mainView.MainActivity.onCreate(Landroid/os/Bundle;)V",
          "target": "invokespecial \u003c Application, Landroid/os/Handler, \u003cinit\u003e()V \u003e@7",
          "type": "activity",
          "component": "me.iweek.mainView.MainActivity",
          "constraintsFile": "constraints42_0.py",
          "variables": {},
          "stringMap": {},
          "strings": {}
        },
        {
          "start": "me.iweek.rili.plugs.feedPlugs.i.handleMessage(Landroid/os/Message;)V",
          "target": "invokespecial \u003c Application, Landroid/webkit/WebView, \u003cinit\u003e(Landroid/content/Context;)V \u003e@3",
          "type": "",
          "constraintsFile": "constraints42_1.py",
          "variables": {
            "\u003cInput1\u003e.what": "IAAv0"
          },
          "stringMap": {},
          "strings": {}
        }
      ]
    },
    "43": {
      "startMethod": "com.wangdongxu.dhttp.l.handleMessage(Landroid/os/Message;)V",
      "targetMethod": "android.net.ConnectivityManager.getActiveNetworkInfo()Landroid/net/NetworkInfo;",
      "eventChain": [
        {
          "start": "me.iweek.rili.MainApplication.onCreate()V",
          "target": "invokespecial \u003c Application, Landroid/os/Handler, \u003cinit\u003e()V \u003e@7",
          "type": ""
        },
        {
          "start": "me.iweek.contacts.BirthdayMainActivity.onResume()V",
          "target": "PC@29",
          "type": "activity",
          "component": "me.iweek.contacts.BirthdayMainActivity"
        },
        {
          "start": "com.wangdongxu.dhttp.s.\u003cclinit\u003e()V",
          "target": "",
          "type": ""
        },
        {
          "start": "com.wangdongxu.dhttp.l.handleMessage(Landroid/os/Message;)V",
          "target": "invokevirtual \u003c Application, Landroid/net/ConnectivityManager, getActiveNetworkInfo()Landroid/net/NetworkInfo; \u003e@20",
          "type": "",
          "constraintsFile": "constraints43_0.py",
          "variables": {
            "\u003cChainedInput1\u003e.what": "IAAv0"
          },
          "stringMap": {},
          "strings": {}
        }
      ]
    },
    "44": {
      "startMethod": "com.wangdongxu.a.b.handleMessage(Landroid/os/Message;)V",
      "targetMethod": "android.net.ConnectivityManager.getActiveNetworkInfo()Landroid/net/NetworkInfo;",
      "eventChain": [
        {
          "start": "me.iweek.contacts.BirthdayMainActivity.onResume()V",
          "target": "invokespecial \u003c Application, Landroid/os/Handler, \u003cinit\u003e()V \u003e@7",
          "type": "activity",
          "component": "me.iweek.contacts.BirthdayMainActivity"
        },
        {
          "start": "com.wangdongxu.a.b.handleMessage(Landroid/os/Message;)V",
          "target": "invokevirtual \u003c Application, Landroid/net/ConnectivityManager, getActiveNetworkInfo()Landroid/net/NetworkInfo; \u003e@21",
          "type": "",
          "constraintsFile": "constraints44_0.py",
          "variables": {
            "\u003cChainedInput1\u003e.what": "IAAv0"
          },
          "stringMap": {},
          "strings": {}
        }
      ]
    },
    "45": {
      "startMethod": "me.iweek.mainView.q.onClick(Landroid/view/View;)V",
      "targetMethod": "android.webkit.WebView.\u003cinit\u003e(Landroid/content/Context;)V",
      "eventChain": [
        {
          "start": "me.iweek.mainView.q.onClick(Landroid/view/View;)V",
          "target": "invokespecial \u003c Application, Landroid/webkit/WebView, \u003cinit\u003e(Landroid/content/Context;)V \u003e@3",
          "type": "ui",
          "activities": [
            "me.iweek.rili.plugs.remind.remindDialog"
          ],
          "listener": "me.iweek.mainView.q",
          "listenerMethod": "onClick",
          "uiType": "onClick"
        }
      ]
    },
    "46": {
      "startMethod": "me.iweek.mainView.d.onClick(Landroid/view/View;)V",
      "targetMethod": "android.webkit.WebView.\u003cinit\u003e(Landroid/content/Context;)V",
      "eventChain": [
        {
          "start": "me.iweek.mainView.d.onClick(Landroid/view/View;)V",
          "target": "invokespecial \u003c Application, Landroid/webkit/WebView, \u003cinit\u003e(Landroid/content/Context;)V \u003e@3",
          "type": "ui",
          "activities": [
            "me.iweek.rili.plugs.remind.remindDialog"
          ],
          "listener": "me.iweek.mainView.d",
          "listenerMethod": "onClick",
          "uiType": "onClick"
        }
      ]
    },
    "47": {
      "startMethod": "me.iweek.contacts.j.onClick(Landroid/view/View;)V",
      "targetMethod": "android.webkit.WebView.\u003cinit\u003e(Landroid/content/Context;)V",
      "eventChain": [
        {
          "start": "me.iweek.contacts.j.onClick(Landroid/view/View;)V",
          "target": "invokespecial \u003c Application, Landroid/webkit/WebView, \u003cinit\u003e(Landroid/content/Context;)V \u003e@3",
          "type": "ui",
          "activities": [
            "me.iweek.rili.plugs.remind.remindDialog"
          ],
          "listener": "me.iweek.contacts.j",
          "listenerMethod": "onClick",
          "uiType": "onClick"
        }
      ]
    },
    "48": {
      "startMethod": "me.iweek.mainView.ai.onClick(Landroid/view/View;)V",
      "targetMethod": "android.webkit.WebView.\u003cinit\u003e(Landroid/content/Context;)V",
      "eventChain": [
        {
          "start": "me.iweek.mainView.ai.onClick(Landroid/view/View;)V",
          "target": "invokespecial \u003c Application, Landroid/webkit/WebView, \u003cinit\u003e(Landroid/content/Context;)V \u003e@3",
          "type": "ui",
          "activities": [
            "me.iweek.rili.plugs.remind.remindDialog"
          ],
          "listener": "me.iweek.mainView.ai",
          "listenerMethod": "onClick",
          "uiType": "onClick"
        }
      ]
    },
    "49": {
      "startMethod": "me.iweek.mainView.g.onClick(Landroid/view/View;)V",
      "targetMethod": "android.webkit.WebView.\u003cinit\u003e(Landroid/content/Context;)V",
      "eventChain": [
        {
          "start": "me.iweek.mainView.g.onClick(Landroid/view/View;)V",
          "target": "invokespecial \u003c Application, Landroid/webkit/WebView, \u003cinit\u003e(Landroid/content/Context;)V \u003e@3",
          "type": "ui",
          "activities": [
            "me.iweek.rili.plugs.remind.remindDialog"
          ],
          "listener": "me.iweek.mainView.g",
          "listenerMethod": "onClick",
          "uiType": "onClick"
        }
      ]
    },
    "50": {
      "startMethod": "me.iweek.rili.calendarSubView.k.onClick(Landroid/view/View;)V",
      "targetMethod": "android.webkit.WebView.\u003cinit\u003e(Landroid/content/Context;)V",
      "eventChain": [
        {
          "start": "me.iweek.rili.calendarSubView.k.onClick(Landroid/view/View;)V",
          "target": "invokespecial \u003c Application, Landroid/webkit/WebView, \u003cinit\u003e(Landroid/content/Context;)V \u003e@3",
          "type": "ui",
          "activities": [
            "me.iweek.rili.plugs.remind.remindDialog"
          ],
          "listener": "me.iweek.rili.calendarSubView.k",
          "listenerMethod": "onClick",
          "uiType": "onClick"
        }
      ]
    },
    "51": {
      "startMethod": "me.iweek.contacts.u.onClick(Landroid/view/View;)V",
      "targetMethod": "android.webkit.WebView.\u003cinit\u003e(Landroid/content/Context;)V",
      "eventChain": [
        {
          "start": "me.iweek.contacts.u.onClick(Landroid/view/View;)V",
          "target": "invokespecial \u003c Application, Landroid/webkit/WebView, \u003cinit\u003e(Landroid/content/Context;)V \u003e@3",
          "type": "ui",
          "activities": [
            "me.iweek.rili.plugs.remind.remindDialog"
          ],
          "listener": "me.iweek.contacts.u",
          "listenerMethod": "onClick",
          "uiType": "onClick"
        }
      ]
    },
    "52": {
      "startMethod": "me.iweek.contacts.h.onClick(Landroid/view/View;)V",
      "targetMethod": "android.webkit.WebView.\u003cinit\u003e(Landroid/content/Context;)V",
      "eventChain": [
        {
          "start": "me.iweek.contacts.h.onClick(Landroid/view/View;)V",
          "target": "invokespecial \u003c Application, Landroid/webkit/WebView, \u003cinit\u003e(Landroid/content/Context;)V \u003e@3",
          "type": "ui",
          "activities": [
            "me.iweek.rili.plugs.remind.remindDialog"
          ],
          "listener": "me.iweek.contacts.h",
          "listenerMethod": "onClick",
          "uiType": "onClick"
        }
      ]
    },
    "53": {
      "startMethod": "me.iweek.rili.found.i.onClick(Landroid/view/View;)V",
      "targetMethod": "android.webkit.WebView.\u003cinit\u003e(Landroid/content/Context;)V",
      "eventChain": [
        {
          "start": "me.iweek.rili.found.i.onClick(Landroid/view/View;)V",
          "target": "invokespecial \u003c Application, Landroid/webkit/WebView, \u003cinit\u003e(Landroid/content/Context;)V \u003e@3",
          "type": "ui",
          "activities": [
            "me.iweek.rili.plugs.remind.remindDialog"
          ],
          "listener": "me.iweek.rili.found.i",
          "listenerMethod": "onClick",
          "uiType": "onClick",
          "constraintsFile": "constraints53_0.py",
          "variables": {
            "\u003cInput1\u003e.getTag()": "IAAv0"
          },
          "stringMap": {
            "7000": ""
          },
          "strings": {}
        }
      ]
    },
    "54": {
      "startMethod": "me.iweek.mainView.ao.onClick(Landroid/view/View;)V",
      "targetMethod": "android.net.ConnectivityManager.getActiveNetworkInfo()Landroid/net/NetworkInfo;",
      "eventChain": [
        {
          "start": "me.iweek.mainView.ao.onClick(Landroid/view/View;)V",
          "target": "invokevirtual \u003c Application, Landroid/net/ConnectivityManager, getActiveNetworkInfo()Landroid/net/NetworkInfo; \u003e@16",
          "type": "ui",
          "activities": [
            "me.iweek.rili.plugs.remind.remindDialog"
          ],
          "listener": "me.iweek.mainView.ao",
          "listenerMethod": "onClick",
          "uiType": "onClick"
        }
      ]
    },
    "55": {
      "startMethod": "me.iweek.contacts.k.onClick(Landroid/view/View;)V",
      "targetMethod": "android.webkit.WebView.\u003cinit\u003e(Landroid/content/Context;)V",
      "eventChain": [
        {
          "start": "me.iweek.contacts.k.onClick(Landroid/view/View;)V",
          "target": "invokespecial \u003c Application, Landroid/webkit/WebView, \u003cinit\u003e(Landroid/content/Context;)V \u003e@3",
          "type": "ui",
          "activities": [
            "me.iweek.rili.plugs.remind.remindDialog"
          ],
          "listener": "me.iweek.contacts.k",
          "listenerMethod": "onClick",
          "uiType": "onClick"
        }
      ]
    },
    "56": {
      "startMethod": "me.iweek.rili.found.d.onClick(Landroid/view/View;)V",
      "targetMethod": "android.webkit.WebView.\u003cinit\u003e(Landroid/content/Context;)V",
      "eventChain": [
        {
          "start": "me.iweek.rili.found.d.onClick(Landroid/view/View;)V",
          "target": "invokespecial \u003c Application, Landroid/webkit/WebView, \u003cinit\u003e(Landroid/content/Context;)V \u003e@3",
          "type": "ui",
          "activities": [
            "me.iweek.rili.plugs.remind.remindDialog"
          ],
          "listener": "me.iweek.rili.found.d",
          "listenerMethod": "onClick",
          "uiType": "onClick",
          "constraintsFile": "constraints56_0.py",
          "variables": {
            "\u003cInput1\u003e.getTag()": "IAAv0"
          },
          "stringMap": {
            "7000": ""
          },
          "strings": {}
        }
      ]
    },
    "57": {
      "startMethod": "me.iweek.contacts.d.onClick(Landroid/view/View;)V",
      "targetMethod": "android.webkit.WebView.\u003cinit\u003e(Landroid/content/Context;)V",
      "eventChain": [
        {
          "start": "me.iweek.contacts.d.onClick(Landroid/view/View;)V",
          "target": "invokespecial \u003c Application, Landroid/webkit/WebView, \u003cinit\u003e(Landroid/content/Context;)V \u003e@3",
          "type": "ui",
          "activities": [
            "me.iweek.rili.plugs.remind.remindDialog"
          ],
          "listener": "me.iweek.contacts.d",
          "listenerMethod": "onClick",
          "uiType": "onClick"
        }
      ]
    },
    "58": {
      "startMethod": "me.iweek.mainView.f.onClick(Landroid/view/View;)V",
      "targetMethod": "android.webkit.WebView.\u003cinit\u003e(Landroid/content/Context;)V",
      "eventChain": [
        {
          "start": "me.iweek.mainView.f.onClick(Landroid/view/View;)V",
          "target": "invokespecial \u003c Application, Landroid/webkit/WebView, \u003cinit\u003e(Landroid/content/Context;)V \u003e@3",
          "type": "ui",
          "activities": [
            "me.iweek.rili.plugs.remind.remindDialog"
          ],
          "listener": "me.iweek.mainView.f",
          "listenerMethod": "onClick",
          "uiType": "onClick"
        }
      ]
    },
    "59": {
      "startMethod": "com.baidu.location.LocationClient$1.run()V",
      "targetMethod": "org.apache.http.client.HttpClient.execute(Lorg/apache/http/client/methods/HttpUriRequest;)Lorg/apache/http/HttpResponse;",
      "eventChain": [
        {
          "start": "com.baidu.location.LocationClient$1.\u003cinit\u003e(Lcom/baidu/location/LocationClient;Ljava/lang/String;Ljava/lang/String;)V",
          "target": "PC@13",
          "type": "",
          "constraintsFile": "constraints59_0.py",
          "variables": {
            "\u003cInput3\u003e": "IAAv2"
          },
          "stringMap": {},
          "strings": {
            "IAAv2": ""
          }
        },
        {
          "start": "com.baidu.location.LocationClient$1.run()V",
          "target": "invokeinterface \u003c Application, Lorg/apache/http/client/HttpClient, execute(Lorg/apache/http/client/methods/HttpUriRequest;)Lorg/apache/http/HttpResponse; \u003e@284",
          "type": "",
          "constraintsFile": "constraints59_1.py",
          "variables": {},
          "stringMap": {},
          "strings": {}
        }
      ]
    },
    "60": {
      "startMethod": "com.c.a.u.run()V",
      "targetMethod": "android.net.wifi.WifiManager.getConnectionInfo()Landroid/net/wifi/WifiInfo;",
      "eventChain": [
        {
          "start": "com.c.a.u.run()V",
          "target": "invokevirtual \u003c Application, Landroid/net/wifi/WifiManager, getConnectionInfo()Landroid/net/wifi/WifiInfo; \u003e@30",
          "type": ""
        }
      ]
    },
    "61": {
      "startMethod": "com.c.a.u.run()V",
      "targetMethod": "java.lang.reflect.Method.invoke(Ljava/lang/Object;[Ljava/lang/Object;)Ljava/lang/Object;",
      "eventChain": [
        {
          "start": "com.c.a.u.run()V",
          "target": "invokevirtual \u003c Application, Ljava/lang/reflect/Method, invoke(Ljava/lang/Object;[Ljava/lang/Object;)Ljava/lang/Object; \u003e@131",
          "type": ""
        }
      ]
    },
    "62": {
      "startMethod": "com.c.a.u.run()V",
      "targetMethod": "android.telephony.TelephonyManager.getDeviceId()Ljava/lang/String;",
      "eventChain": [
        {
          "start": "com.c.a.u.run()V",
          "target": "invokevirtual \u003c Application, Landroid/telephony/TelephonyManager, getDeviceId()Ljava/lang/String; \u003e@48",
          "type": ""
        }
      ]
    },
    "63": {
      "startMethod": "com.c.a.u.run()V",
      "targetMethod": "java.lang.reflect.Method.invoke(Ljava/lang/Object;[Ljava/lang/Object;)Ljava/lang/Object;",
      "eventChain": [
        {
          "start": "com.c.a.u.run()V",
          "target": "invokevirtual \u003c Application, Ljava/lang/reflect/Method, invoke(Ljava/lang/Object;[Ljava/lang/Object;)Ljava/lang/Object; \u003e@175",
          "type": ""
        }
      ]
    },
    "64": {
      "startMethod": "com.wangdongxu.dhttp.m.run()V",
      "targetMethod": "org.apache.http.client.HttpClient.execute(Lorg/apache/http/client/methods/HttpUriRequest;)Lorg/apache/http/HttpResponse;",
      "eventChain": [
        {
          "start": "com.wangdongxu.dhttp.m.run()V",
          "target": "invokeinterface \u003c Application, Lorg/apache/http/client/HttpClient, execute(Lorg/apache/http/client/methods/HttpUriRequest;)Lorg/apache/http/HttpResponse; \u003e@457",
          "type": ""
        }
      ]
    },
    "65": {
      "startMethod": "com.c.a.a.d.run()V",
      "targetMethod": "android.telephony.TelephonyManager.getDeviceId()Ljava/lang/String;",
      "eventChain": [
        {
          "start": "com.c.a.a.d.run()V",
          "target": "invokevirtual \u003c Application, Landroid/telephony/TelephonyManager, getDeviceId()Ljava/lang/String; \u003e@48",
          "type": ""
        }
      ]
    },
    "66": {
      "startMethod": "com.c.a.a.d.run()V",
      "targetMethod": "org.apache.http.client.HttpClient.execute(Lorg/apache/http/client/methods/HttpUriRequest;)Lorg/apache/http/HttpResponse;",
      "eventChain": [
        {
          "start": "com.c.a.a.d.run()V",
          "target": "invokeinterface \u003c Application, Lorg/apache/http/client/HttpClient, execute(Lorg/apache/http/client/methods/HttpUriRequest;)Lorg/apache/http/HttpResponse; \u003e@226",
          "type": ""
        }
      ]
    },
    "67": {
      "startMethod": "com.c.a.a.d.run()V",
      "targetMethod": "org.apache.http.client.HttpClient.execute(Lorg/apache/http/client/methods/HttpUriRequest;)Lorg/apache/http/HttpResponse;",
      "eventChain": [
        {
          "start": "com.c.a.a.d.run()V",
          "target": "invokeinterface \u003c Application, Lorg/apache/http/client/HttpClient, execute(Lorg/apache/http/client/methods/HttpUriRequest;)Lorg/apache/http/HttpResponse; \u003e@275",
          "type": ""
        }
      ]
    },
    "68": {
      "startMethod": "com.c.a.a.d.run()V",
      "targetMethod": "android.net.wifi.WifiManager.getConnectionInfo()Landroid/net/wifi/WifiInfo;",
      "eventChain": [
        {
          "start": "com.c.a.a.d.run()V",
          "target": "invokevirtual \u003c Application, Landroid/net/wifi/WifiManager, getConnectionInfo()Landroid/net/wifi/WifiInfo; \u003e@30",
          "type": ""
        }
      ]
    },
    "69": {
      "startMethod": "com.baidu.location.e$a.run()V",
      "targetMethod": "android.net.wifi.WifiManager.isWifiEnabled()Z",
      "eventChain": [
        {
          "start": "com.baidu.location.e$a.run()V",
          "target": "invokevirtual \u003c Application, Landroid/net/wifi/WifiManager, isWifiEnabled()Z \u003e@41",
          "type": "",
          "constraintsFile": "constraints69_0.py",
          "variables": {},
          "stringMap": {},
          "strings": {}
        }
      ]
    },
    "70": {
      "startMethod": "com.baidu.location.e$a.run()V",
      "targetMethod": "android.net.wifi.WifiManager.startScan()Z",
      "eventChain": [
        {
          "start": "com.baidu.location.e$a.run()V",
          "target": "invokevirtual \u003c Application, Landroid/net/wifi/WifiManager, startScan()Z \u003e@60",
          "type": "",
          "constraintsFile": "constraints70_0.py",
          "variables": {},
          "stringMap": {},
          "strings": {}
        }
      ]
    },
    "71": {
      "startMethod": "com.xiaomi.mipush.sdk.u.onChange(Z)V",
      "targetMethod": "android.net.ConnectivityManager.getActiveNetworkInfo()Landroid/net/NetworkInfo;",
      "eventChain": [
        {
          "start": "me.iweek.rili.MainApplication.onCreate()V",
          "target": "invokespecial \u003c Application, Landroid/database/ContentObserver, \u003cinit\u003e(Landroid/os/Handler;)V \u003e@8",
          "type": ""
        },
        {
          "start": "com.xiaomi.mipush.sdk.u.onChange(Z)V",
          "target": "invokevirtual \u003c Application, Landroid/net/ConnectivityManager, getActiveNetworkInfo()Landroid/net/NetworkInfo; \u003e@33",
          "type": "",
          "constraintsFile": "constraints71_0.py",
          "variables": {},
          "stringMap": {},
          "strings": {}
        }
      ]
    },
    "72": {
      "startMethod": "me.iweek.rili.plugs.q.onServiceConnected(Landroid/content/ComponentName;Landroid/os/IBinder;)V",
      "targetMethod": "android.app.NotificationManager.notify(ILandroid/app/Notification;)V",
      "eventChain": [
        {
          "start": "me.iweek.rili.plugs.q.onServiceConnected(Landroid/content/ComponentName;Landroid/os/IBinder;)V",
          "target": "invokevirtual \u003c Application, Landroid/app/NotificationManager, notify(ILandroid/app/Notification;)V \u003e@469",
          "type": "",
          "constraintsFile": "constraints72_0.py",
          "variables": {
            "SharedPreferences\u003cother_setting_week\u003e": "IAAv3",
            "SharedPreferences\u003cweeknotificationIsClose\u003e": "IAAv0"
          },
          "stringMap": {
            "7000": "0"
          },
          "strings": {
            "IAAv3": ""
          }
        }
      ]
    },
    "73": {
      "startMethod": "me.iweek.rili.plugs.q.onServiceConnected(Landroid/content/ComponentName;Landroid/os/IBinder;)V",
      "targetMethod": "android.webkit.WebView.\u003cinit\u003e(Landroid/content/Context;)V",
      "eventChain": [
        {
          "start": "me.iweek.rili.plugs.q.onServiceConnected(Landroid/content/ComponentName;Landroid/os/IBinder;)V",
          "target": "invokespecial \u003c Application, Landroid/webkit/WebView, \u003cinit\u003e(Landroid/content/Context;)V \u003e@3",
          "type": ""
        }
      ]
    },
    "74": {
      "startMethod": "me.iweek.mainView.MainActivity.onNewIntent(Landroid/content/Intent;)V",
      "targetMethod": "android.webkit.WebView.\u003cinit\u003e(Landroid/content/Context;)V",
      "eventChain": [
        {
          "start": "me.iweek.mainView.MainActivity.onNewIntent(Landroid/content/Intent;)V",
          "target": "invokespecial \u003c Application, Landroid/webkit/WebView, \u003cinit\u003e(Landroid/content/Context;)V \u003e@3",
          "type": "activity",
          "component": "me.iweek.mainView.MainActivity",
          "constraintsFile": "constraints74_0.py",
          "variables": {
            "\u003cInput1\u003e.getSerializableExtra().b()": "IAAv1",
            "\u003cInput1\u003e.getSerializableExtra()": "IAAv0"
          },
          "stringMap": {
            "7000": ""
          },
          "strings": {
            "IAAv1": ""
          }
        }
      ]
    },
    "75": {
      "startMethod": "android.support.v7.internal.view.g.onMenuItemClick(Landroid/view/MenuItem;)Z",
      "targetMethod": "java.lang.reflect.Method.invoke(Ljava/lang/Object;[Ljava/lang/Object;)Ljava/lang/Object;",
      "eventChain": [
        {
          "start": "android.support.v7.internal.view.g.onMenuItemClick(Landroid/view/MenuItem;)Z",
          "target": "invokevirtual \u003c Application, Ljava/lang/reflect/Method, invoke(Ljava/lang/Object;[Ljava/lang/Object;)Ljava/lang/Object; \u003e@57",
          "type": "ui",
          "activities": [
            "me.iweek.rili.plugs.remind.remindDialog"
          ],
          "listener": "android.support.v7.internal.view.g",
          "listenerMethod": "onMenuItemClick",
          "uiType": "onMenuItemClick",
          "constraintsFile": "constraints75_0.py",
          "variables": {},
          "stringMap": {},
          "strings": {}
        }
      ]
    },
    "76": {
      "startMethod": "android.support.v7.internal.view.g.onMenuItemClick(Landroid/view/MenuItem;)Z",
      "targetMethod": "java.lang.reflect.Method.invoke(Ljava/lang/Object;[Ljava/lang/Object;)Ljava/lang/Object;",
      "eventChain": [
        {
          "start": "android.support.v7.internal.view.g.onMenuItemClick(Landroid/view/MenuItem;)Z",
          "target": "invokevirtual \u003c Application, Ljava/lang/reflect/Method, invoke(Ljava/lang/Object;[Ljava/lang/Object;)Ljava/lang/Object; \u003e@108",
          "type": "ui",
          "activities": [
            "me.iweek.rili.plugs.remind.remindDialog"
          ],
          "listener": "android.support.v7.internal.view.g",
          "listenerMethod": "onMenuItemClick",
          "uiType": "onMenuItemClick",
          "constraintsFile": "constraints76_0.py",
          "variables": {},
          "stringMap": {},
          "strings": {}
        }
      ]
    }
  }
}