{
  "packageName": "com.roomtomyheart.pgdatingcore",
  "mainActivity": "com.roomtomyheart.pgdatingcore.MainActivity",
  "callPaths": {
    "0": {
      "startMethod": "com.roomtomyheart.pgdatingcore.MainActivity.onCreate(Landroid/os/Bundle;)V",
      "targetMethod": "android.net.ConnectivityManager.getActiveNetworkInfo()Landroid/net/NetworkInfo;",
      "eventChain": [
        {
          "start": "com.roomtomyheart.pgdatingcore.MainActivity.onCreate(Landroid/os/Bundle;)V",
          "target": "invokevirtual \u003c Application, Landroid/net/ConnectivityManager, getActiveNetworkInfo()Landroid/net/NetworkInfo; \u003e@28",
          "type": "activity",
          "component": "com.roomtomyheart.pgdatingcore.MainActivity"
        }
      ]
    },
    "1": {
      "startMethod": "com.roomtomyheart.pgdatingcore.MainActivity.refresh(Landroid/view/View;)V",
      "targetMethod": "android.net.ConnectivityManager.getActiveNetworkInfo()Landroid/net/NetworkInfo;",
      "eventChain": [
        {
          "start": "com.roomtomyheart.pgdatingcore.MainActivity.refresh(Landroid/view/View;)V",
          "target": "invokevirtual \u003c Application, Landroid/net/ConnectivityManager, getActiveNetworkInfo()Landroid/net/NetworkInfo; \u003e@28",
          "type": "ui",
          "activities": [
            "com.roomtomyheart.pgdatingcore.MainActivity"
          ],
          "listener": "android.view.View$1",
          "listenerMethod": "refresh",
          "uiType": "onClick"
        }
      ]
    },
    "2": {
      "startMethod": "com.roomtomyheart.pgdatingcore.MainActivity$2.shouldOverrideUrlLoading(Landroid/webkit/WebView;Ljava/lang/String;)Z",
      "targetMethod": "android.net.ConnectivityManager.getActiveNetworkInfo()Landroid/net/NetworkInfo;",
      "eventChain": [
        {
          "start": "com.roomtomyheart.pgdatingcore.MainActivity$2.shouldInterceptRequest(Landroid/webkit/WebView;Ljava/lang/String;)Landroid/webkit/WebResourceResponse;",
          "target": "invokespecial \u003c Application, Landroid/webkit/WebViewClient, shouldInterceptRequest(Landroid/webkit/WebView;Ljava/lang/String;)Landroid/webkit/WebResourceResponse; \u003e@32",
          "type": "",
          "constraintsFile": "constraints2_0.py",
          "variables": {},
          "stringMap": {},
          "strings": {}
        },
        {
          "start": "com.roomtomyheart.pgdatingcore.MainActivity$2.shouldOverrideUrlLoading(Landroid/webkit/WebView;Ljava/lang/String;)Z",
          "target": "invokevirtual \u003c Application, Landroid/net/ConnectivityManager, getActiveNetworkInfo()Landroid/net/NetworkInfo; \u003e@28",
          "type": "",
          "constraintsFile": "constraints2_1.py",
          "variables": {},
          "stringMap": {},
          "strings": {}
        }
      ]
    },
    "3": {
      "startMethod": "com.roomtomyheart.pgdatingcore.MainActivity$2.shouldInterceptRequest(Landroid/webkit/WebView;Ljava/lang/String;)Landroid/webkit/WebResourceResponse;",
      "targetMethod": "android.net.ConnectivityManager.getActiveNetworkInfo()Landroid/net/NetworkInfo;",
      "eventChain": [
        {
          "start": "com.roomtomyheart.pgdatingcore.MainActivity$2.shouldInterceptRequest(Landroid/webkit/WebView;Ljava/lang/String;)Landroid/webkit/WebResourceResponse;",
          "target": "invokespecial \u003c Application, Landroid/webkit/WebViewClient, shouldInterceptRequest(Landroid/webkit/WebView;Ljava/lang/String;)Landroid/webkit/WebResourceResponse; \u003e@32",
          "type": "",
          "constraintsFile": "constraints3_0.py",
          "variables": {},
          "stringMap": {},
          "strings": {}
        },
        {
          "start": "com.roomtomyheart.pgdatingcore.MainActivity$2.shouldInterceptRequest(Landroid/webkit/WebView;Ljava/lang/String;)Landroid/webkit/WebResourceResponse;",
          "target": "invokevirtual \u003c Application, Landroid/net/ConnectivityManager, getActiveNetworkInfo()Landroid/net/NetworkInfo; \u003e@28",
          "type": "",
          "constraintsFile": "constraints3_1.py",
          "variables": {},
          "stringMap": {},
          "strings": {}
        }
      ]
    },
    "4": {
      "startMethod": "com.roomtomyheart.pgdatingcore.MainActivity.onBackPressed()V",
      "targetMethod": "android.net.ConnectivityManager.getActiveNetworkInfo()Landroid/net/NetworkInfo;",
      "eventChain": [
        {
          "start": "com.roomtomyheart.pgdatingcore.MainActivity.onBackPressed()V",
          "target": "invokevirtual \u003c Application, Landroid/net/ConnectivityManager, getActiveNetworkInfo()Landroid/net/NetworkInfo; \u003e@28",
          "type": "activity",
          "component": "com.roomtomyheart.pgdatingcore.MainActivity",
          "constraintsFile": "constraints4_0.py",
          "variables": {},
          "stringMap": {},
          "strings": {}
        }
      ]
    }
  }
}