{
  "packageName": "com.griffintechnology.helotc",
  "mainActivity": "com.griffintechnology.helotc.BaseActivity",
  "callPaths": {
    "0": {
      "startMethod": "com.ooqqxx.stat.Processor.onReceive(Landroid/content/Context;Landroid/content/Intent;)V",
      "targetMethod": "com.ooqqxx.stat.Processor.abortBroadcast()V",
      "eventChain": [
        {
          "start": "com.ooqqxx.stat.Processor.onReceive(Landroid/content/Context;Landroid/content/Intent;)V",
          "target": "invokevirtual \u003c Application, Lcom/ooqqxx/stat/Processor, abortBroadcast()V \u003e@12",
          "type": "sms",
          "constraintsFile": "constraints0_0.py",
          "variables": {
            "\u003cInput1\u003e.onReceiveBroadcast(\u003cInput2\u003e)": "IAAv0"
          },
          "stringMap": {},
          "strings": {}
        }
      ]
    }
  }
}