{
  "packageName": "com.MiniBrowser",
  "mainActivity": "com.MiniBrowser.AppActivity.SplashScreen",
  "callPaths": {
    "0": {
      "startMethod": "com.MiniBrowser.AppActivity.MiniBrowser.onCreate(Landroid/os/Bundle;)V",
      "targetMethod": "java.net.URL.openConnection(Ljava/net/Proxy;)Ljava/net/URLConnection;",
      "eventChain": [
        {
          "start": "com.MiniBrowser.AppActivity.MiniBrowser.onCreate(Landroid/os/Bundle;)V",
          "target": "invokevirtual \u003c Application, Ljava/net/URL, openConnection(Ljava/net/Proxy;)Ljava/net/URLConnection; \u003e@253",
          "type": "activity",
          "component": "com.MiniBrowser.AppActivity.MiniBrowser",
          "constraintsFile": "constraints0_0.py",
          "variables": {},
          "stringMap": {},
          "strings": {}
        }
      ]
    },
    "1": {
      "startMethod": "com.MiniBrowser.AppActivity.MiniBrowser.onCreate(Landroid/os/Bundle;)V",
      "targetMethod": "java.net.URL.openConnection()Ljava/net/URLConnection;",
      "eventChain": [
        {
          "start": "com.MiniBrowser.AppActivity.MiniBrowser.onCreate(Landroid/os/Bundle;)V",
          "target": "invokevirtual \u003c Application, Ljava/net/URL, openConnection()Ljava/net/URLConnection; \u003e@78",
          "type": "activity",
          "component": "com.MiniBrowser.AppActivity.MiniBrowser",
          "constraintsFile": "constraints1_0.py",
          "variables": {},
          "stringMap": {},
          "strings": {}
        }
      ]
    },
    "2": {
      "startMethod": "com.MiniBrowser.LeftView.Left.onItemClick(Landroid/widget/AdapterView;Landroid/view/View;IJ)V",
      "targetMethod": "java.net.URL.openConnection()Ljava/net/URLConnection;",
      "eventChain": [
        {
          "start": "com.MiniBrowser.AppActivity.MiniBrowser.onCreate(Landroid/os/Bundle;)V",
          "target": "invokevirtual \u003c Application, Lcom/ToolKit/UI/MyGridView, setOnItemClickListener(Landroid/widget/AdapterView$OnItemClickListener;)V \u003e@331",
          "type": "activity",
          "component": "com.MiniBrowser.AppActivity.MiniBrowser",
          "constraintsFile": "constraints2_0.py",
          "variables": {},
          "stringMap": {},
          "strings": {}
        },
        {
          "start": "com.MiniBrowser.AppActivity.MiniBrowser.onCreate(Landroid/os/Bundle;)V",
          "target": "PC@77",
          "type": "activity",
          "component": "com.MiniBrowser.AppActivity.MiniBrowser",
          "constraintsFile": "constraints2_1.py",
          "variables": {
            "\u003cChainedInput1\u003e": "IAAv0"
          },
          "stringMap": {
            "7000": "#",
            "7001": "1",
            "7002": "\u003cUI\u003e"
          },
          "strings": {
            "IAAv2": "",
            "IAAv5": ""
          }
        },
        {
          "start": "com.MiniBrowser.LeftView.Left.onItemClick(Landroid/widget/AdapterView;Landroid/view/View;IJ)V",
          "target": "invokevirtual \u003c Application, Ljava/net/URL, openConnection()Ljava/net/URLConnection; \u003e@31",
          "type": "ui",
          "activities": [
            "com.MiniBrowser.AppActivity.SplashScreen"
          ],
          "listener": "com.MiniBrowser.LeftView.Left",
          "listenerMethod": "onItemClick",
          "uiType": "onItemClick",
          "constraintsFile": "constraints2_2.py",
          "variables": {
            "\u003cChainedInput1\u003e": "IAAv0"
          },
          "stringMap": {
            "7000": "#",
            "7001": "1"
          },
          "strings": {
            "IAAv2": "",
            "IAAv5": ""
          }
        }
      ]
    },
    "3": {
      "startMethod": "com.MiniBrowser.LeftView.Left.onItemClick(Landroid/widget/AdapterView;Landroid/view/View;IJ)V",
      "targetMethod": "java.net.URL.openConnection()Ljava/net/URLConnection;",
      "eventChain": [
        {
          "start": "com.MiniBrowser.AppActivity.MiniBrowser.onCreate(Landroid/os/Bundle;)V",
          "target": "invokevirtual \u003c Application, Lcom/ToolKit/UI/MyGridView, setOnItemClickListener(Landroid/widget/AdapterView$OnItemClickListener;)V \u003e@331",
          "type": "activity",
          "component": "com.MiniBrowser.AppActivity.MiniBrowser",
          "constraintsFile": "constraints3_0.py",
          "variables": {},
          "stringMap": {},
          "strings": {}
        },
        {
          "start": "com.MiniBrowser.AppActivity.MiniBrowser.onCreate(Landroid/os/Bundle;)V",
          "target": "PC@77",
          "type": "activity",
          "component": "com.MiniBrowser.AppActivity.MiniBrowser",
          "constraintsFile": "constraints3_1.py",
          "variables": {
            "\u003cChainedInput1\u003e": "IAAv0"
          },
          "stringMap": {
            "7000": "#",
            "7001": "1",
            "7002": "\u003cUI\u003e"
          },
          "strings": {
            "IAAv2": "",
            "IAAv5": ""
          }
        },
        {
          "start": "com.MiniBrowser.LeftView.Left.onItemClick(Landroid/widget/AdapterView;Landroid/view/View;IJ)V",
          "target": "invokevirtual \u003c Application, Ljava/net/URL, openConnection()Ljava/net/URLConnection; \u003e@7",
          "type": "ui",
          "activities": [
            "com.MiniBrowser.AppActivity.SplashScreen"
          ],
          "listener": "com.MiniBrowser.LeftView.Left",
          "listenerMethod": "onItemClick",
          "uiType": "onItemClick",
          "constraintsFile": "constraints3_2.py",
          "variables": {
            "\u003cChainedInput1\u003e": "IAAv0"
          },
          "stringMap": {
            "7000": "#",
            "7001": "1"
          },
          "strings": {
            "IAAv2": "",
            "IAAv5": ""
          }
        }
      ]
    },
    "4": {
      "startMethod": "com.MiniBrowser.MainViewTopBar.SearchLayoutView.SearchLayout.onItemClick(Landroid/widget/AdapterView;Landroid/view/View;IJ)V",
      "targetMethod": "java.net.URL.openConnection()Ljava/net/URLConnection;",
      "eventChain": [
        {
          "start": "com.MiniBrowser.AppActivity.MiniBrowser.onCreate(Landroid/os/Bundle;)V",
          "target": "invokevirtual \u003c Application, Landroid/widget/ListView, setOnItemClickListener(Landroid/widget/AdapterView$OnItemClickListener;)V \u003e@284",
          "type": "activity",
          "component": "com.MiniBrowser.AppActivity.MiniBrowser",
          "constraintsFile": "constraints4_0.py",
          "variables": {},
          "stringMap": {},
          "strings": {}
        },
        {
          "start": "com.MiniBrowser.AppActivity.MiniBrowser.onCreate(Landroid/os/Bundle;)V",
          "target": "PC@139",
          "type": "activity",
          "component": "com.MiniBrowser.AppActivity.MiniBrowser",
          "constraintsFile": "constraints4_1.py",
          "variables": {
            "\u003cChainedInput1\u003e": "IAAv0"
          },
          "stringMap": {
            "7000": "\u003cUI\u003e"
          },
          "strings": {}
        },
        {
          "start": "com.MiniBrowser.MainViewTopBar.SearchLayoutView.SearchLayout.onItemClick(Landroid/widget/AdapterView;Landroid/view/View;IJ)V",
          "target": "invokevirtual \u003c Application, Ljava/net/URL, openConnection()Ljava/net/URLConnection; \u003e@78",
          "type": "ui",
          "activities": [
            "com.MiniBrowser.AppActivity.SplashScreen"
          ],
          "listener": "com.MiniBrowser.MainViewTopBar.SearchLayoutView.SearchLayout",
          "listenerMethod": "onItemClick",
          "uiType": "onItemClick",
          "constraintsFile": "constraints4_2.py",
          "variables": {
            "\u003cChainedInput1\u003e": "IAAv0"
          },
          "stringMap": {},
          "strings": {}
        }
      ]
    },
    "5": {
      "startMethod": "com.MiniBrowser.MainViewTopBar.SearchLayoutView.SearchLayout.onItemClick(Landroid/widget/AdapterView;Landroid/view/View;IJ)V",
      "targetMethod": "java.net.URL.openConnection(Ljava/net/Proxy;)Ljava/net/URLConnection;",
      "eventChain": [
        {
          "start": "com.MiniBrowser.AppActivity.MiniBrowser.onCreate(Landroid/os/Bundle;)V",
          "target": "invokevirtual \u003c Application, Landroid/widget/ListView, setOnItemClickListener(Landroid/widget/AdapterView$OnItemClickListener;)V \u003e@284",
          "type": "activity",
          "component": "com.MiniBrowser.AppActivity.MiniBrowser",
          "constraintsFile": "constraints5_0.py",
          "variables": {},
          "stringMap": {},
          "strings": {}
        },
        {
          "start": "com.MiniBrowser.AppActivity.MiniBrowser.onCreate(Landroid/os/Bundle;)V",
          "target": "PC@139",
          "type": "activity",
          "component": "com.MiniBrowser.AppActivity.MiniBrowser",
          "constraintsFile": "constraints5_1.py",
          "variables": {
            "\u003cChainedInput1\u003e": "IAAv0"
          },
          "stringMap": {
            "7000": "\u003cUI\u003e"
          },
          "strings": {}
        },
        {
          "start": "com.MiniBrowser.MainViewTopBar.SearchLayoutView.SearchLayout.onItemClick(Landroid/widget/AdapterView;Landroid/view/View;IJ)V",
          "target": "invokevirtual \u003c Application, Ljava/net/URL, openConnection(Ljava/net/Proxy;)Ljava/net/URLConnection; \u003e@253",
          "type": "ui",
          "activities": [
            "com.MiniBrowser.AppActivity.SplashScreen"
          ],
          "listener": "com.MiniBrowser.MainViewTopBar.SearchLayoutView.SearchLayout",
          "listenerMethod": "onItemClick",
          "uiType": "onItemClick",
          "constraintsFile": "constraints5_2.py",
          "variables": {
            "\u003cChainedInput1\u003e": "IAAv0"
          },
          "stringMap": {},
          "strings": {}
        }
      ]
    },
    "6": {
      "startMethod": "com.MiniBrowser.AppActivity.MiniBrowser$4.onClick(Landroid/content/DialogInterface;I)V",
      "targetMethod": "java.net.URL.openConnection()Ljava/net/URLConnection;",
      "eventChain": [
        {
          "start": "com.MiniBrowser.AppActivity.MiniBrowser$4.\u003cinit\u003e(Lcom/MiniBrowser/AppActivity/MiniBrowser;Ljava/lang/String;)V",
          "target": "PC@8",
          "type": "",
          "constraintsFile": "constraints6_0.py",
          "variables": {
            "\u003cInput2\u003e": "IAAv6"
          },
          "stringMap": {},
          "strings": {
            "IAAv6": ""
          }
        },
        {
          "start": "com.MiniBrowser.AppActivity.MiniBrowser$4.onClick(Landroid/content/DialogInterface;I)V",
          "target": "invokevirtual \u003c Application, Ljava/net/URL, openConnection()Ljava/net/URLConnection; \u003e@31",
          "type": "ui",
          "activities": [
            "com.MiniBrowser.AppActivity.SplashScreen"
          ],
          "listener": "com.MiniBrowser.AppActivity.MiniBrowser$4",
          "listenerMethod": "onClick",
          "uiType": "onClick",
          "inDialog": "true",
          "constraintsFile": "constraints6_1.py",
          "variables": {},
          "stringMap": {},
          "strings": {}
        }
      ]
    },
    "7": {
      "startMethod": "com.MiniBrowser.AppActivity.MiniBrowser$4.onClick(Landroid/content/DialogInterface;I)V",
      "targetMethod": "java.net.URL.openConnection()Ljava/net/URLConnection;",
      "eventChain": [
        {
          "start": "com.MiniBrowser.AppActivity.MiniBrowser$4.\u003cinit\u003e(Lcom/MiniBrowser/AppActivity/MiniBrowser;Ljava/lang/String;)V",
          "target": "PC@8",
          "type": "",
          "constraintsFile": "constraints7_0.py",
          "variables": {
            "\u003cInput2\u003e": "IAAv6"
          },
          "stringMap": {},
          "strings": {
            "IAAv6": ""
          }
        },
        {
          "start": "com.MiniBrowser.AppActivity.MiniBrowser$4.onClick(Landroid/content/DialogInterface;I)V",
          "target": "invokevirtual \u003c Application, Ljava/net/URL, openConnection()Ljava/net/URLConnection; \u003e@7",
          "type": "ui",
          "activities": [
            "com.MiniBrowser.AppActivity.SplashScreen"
          ],
          "listener": "com.MiniBrowser.AppActivity.MiniBrowser$4",
          "listenerMethod": "onClick",
          "uiType": "onClick",
          "inDialog": "true",
          "constraintsFile": "constraints7_1.py",
          "variables": {},
          "stringMap": {},
          "strings": {}
        }
      ]
    },
    "8": {
      "startMethod": "com.MiniBrowser.MiniMenuView.MiniMenu$5.onClick(Landroid/view/View;)V",
      "targetMethod": "java.net.URL.openConnection(Ljava/net/Proxy;)Ljava/net/URLConnection;",
      "eventChain": [
        {
          "start": "com.MiniBrowser.MiniMenuView.MenuLayout.onItemClick(Landroid/widget/AdapterView;Landroid/view/View;IJ)V",
          "target": "invokevirtual \u003c Application, Landroid/widget/TextView, setOnClickListener(Landroid/view/View$OnClickListener;)V \u003e@176",
          "type": "ui",
          "activities": [
            "com.MiniBrowser.AppActivity.SplashScreen"
          ],
          "listener": "com.MiniBrowser.MiniMenuView.MenuLayout",
          "listenerMethod": "onItemClick",
          "uiType": "onItemClick",
          "constraintsFile": "constraints8_0.py",
          "variables": {
            "\u003cChainedInput3\u003e": "IAAv1"
          },
          "stringMap": {},
          "strings": {}
        },
        {
          "start": "com.MiniBrowser.MiniMenuView.MiniMenu$5.onClick(Landroid/view/View;)V",
          "target": "invokevirtual \u003c Application, Ljava/net/URL, openConnection(Ljava/net/Proxy;)Ljava/net/URLConnection; \u003e@253",
          "type": "ui",
          "activities": [
            "com.MiniBrowser.AppActivity.SplashScreen"
          ],
          "listener": "com.MiniBrowser.MiniMenuView.MiniMenu$5",
          "listenerMethod": "onClick",
          "uiType": "onClick",
          "constraintsFile": "constraints8_1.py",
          "variables": {},
          "stringMap": {
            "7000": ""
          },
          "strings": {
            "IAAv3": ""
          }
        }
      ]
    },
    "9": {
      "startMethod": "com.MiniBrowser.MiniMenuView.MiniMenu$5.onClick(Landroid/view/View;)V",
      "targetMethod": "java.net.URL.openConnection()Ljava/net/URLConnection;",
      "eventChain": [
        {
          "start": "com.MiniBrowser.MiniMenuView.MenuLayout.onItemClick(Landroid/widget/AdapterView;Landroid/view/View;IJ)V",
          "target": "invokevirtual \u003c Application, Landroid/widget/TextView, setOnClickListener(Landroid/view/View$OnClickListener;)V \u003e@176",
          "type": "ui",
          "activities": [
            "com.MiniBrowser.AppActivity.SplashScreen"
          ],
          "listener": "com.MiniBrowser.MiniMenuView.MenuLayout",
          "listenerMethod": "onItemClick",
          "uiType": "onItemClick",
          "constraintsFile": "constraints9_0.py",
          "variables": {
            "\u003cChainedInput3\u003e": "IAAv1"
          },
          "stringMap": {},
          "strings": {}
        },
        {
          "start": "com.MiniBrowser.MiniMenuView.MiniMenu$5.onClick(Landroid/view/View;)V",
          "target": "invokevirtual \u003c Application, Ljava/net/URL, openConnection()Ljava/net/URLConnection; \u003e@78",
          "type": "ui",
          "activities": [
            "com.MiniBrowser.AppActivity.SplashScreen"
          ],
          "listener": "com.MiniBrowser.MiniMenuView.MiniMenu$5",
          "listenerMethod": "onClick",
          "uiType": "onClick",
          "constraintsFile": "constraints9_1.py",
          "variables": {},
          "stringMap": {
            "7000": ""
          },
          "strings": {
            "IAAv3": ""
          }
        }
      ]
    },
    "10": {
      "startMethod": "com.MiniBrowser.LeftView.NaviAdapter.onClick(Landroid/view/View;)V",
      "targetMethod": "java.net.URL.openConnection()Ljava/net/URLConnection;",
      "eventChain": [
        {
          "start": "com.MiniBrowser.LeftView.NaviAdapter.onClick(Landroid/view/View;)V",
          "target": "invokevirtual \u003c Application, Ljava/net/URL, openConnection()Ljava/net/URLConnection; \u003e@7",
          "type": "ui",
          "activities": [
            "com.MiniBrowser.AppActivity.SplashScreen"
          ],
          "listener": "com.MiniBrowser.LeftView.NaviAdapter",
          "listenerMethod": "onClick",
          "uiType": "onClick",
          "constraintsFile": "constraints10_0.py",
          "variables": {
            "\u003cChainedInput1\u003e.getTag().isHashInfo()": "IAAv6",
            "\u003cChainedInput1\u003e.getTag().intValue()": "IAAv0",
            "\u003cChainedInput1\u003e.getTag().lastIndexOf()": "IAAv3",
            "\u003cChainedInput1\u003e.getTag()": "IAAv1"
          },
          "stringMap": {
            "7000": "newVersion_"
          },
          "strings": {}
        }
      ]
    },
    "11": {
      "startMethod": "com.MiniBrowser.LeftView.NaviAdapter.onClick(Landroid/view/View;)V",
      "targetMethod": "java.net.URL.openConnection()Ljava/net/URLConnection;",
      "eventChain": [
        {
          "start": "com.MiniBrowser.LeftView.NaviAdapter.onClick(Landroid/view/View;)V",
          "target": "invokevirtual \u003c Application, Ljava/net/URL, openConnection()Ljava/net/URLConnection; \u003e@31",
          "type": "ui",
          "activities": [
            "com.MiniBrowser.AppActivity.SplashScreen"
          ],
          "listener": "com.MiniBrowser.LeftView.NaviAdapter",
          "listenerMethod": "onClick",
          "uiType": "onClick",
          "constraintsFile": "constraints11_0.py",
          "variables": {
            "\u003cChainedInput1\u003e.getTag().isHashInfo()": "IAAv6",
            "\u003cChainedInput1\u003e.getTag().intValue()": "IAAv0",
            "\u003cChainedInput1\u003e.getTag().lastIndexOf()": "IAAv3",
            "\u003cChainedInput1\u003e.getTag()": "IAAv1"
          },
          "stringMap": {
            "7000": "newVersion_"
          },
          "strings": {}
        }
      ]
    },
    "12": {
      "startMethod": "com.MiniBrowser.MainViewTopBar.Top.onClick(Landroid/view/View;)V",
      "targetMethod": "java.net.URL.openConnection()Ljava/net/URLConnection;",
      "eventChain": [
        {
          "start": "com.MiniBrowser.AppActivity.MiniBrowser.onCreate(Landroid/os/Bundle;)V",
          "target": "invokevirtual \u003c Application, Landroid/widget/ImageButton, setOnClickListener(Landroid/view/View$OnClickListener;)V \u003e@119",
          "type": "activity",
          "component": "com.MiniBrowser.AppActivity.MiniBrowser"
        },
        {
          "start": "com.MiniBrowser.AppActivity.MiniBrowser.onCreate(Landroid/os/Bundle;)V",
          "target": "PC@109",
          "type": "activity",
          "component": "com.MiniBrowser.AppActivity.MiniBrowser",
          "constraintsFile": "constraints12_0.py",
          "variables": {
            "\u003cChainedInput1\u003e": "IAAv0"
          },
          "stringMap": {
            "7000": "\u003cUI\u003e"
          },
          "strings": {}
        },
        {
          "start": "com.MiniBrowser.AppActivity.MiniBrowser.onCreate(Landroid/os/Bundle;)V",
          "target": "PC@51",
          "type": "activity",
          "component": "com.MiniBrowser.AppActivity.MiniBrowser",
          "constraintsFile": "constraints12_1.py",
          "variables": {
            "\u003cChainedInput1\u003e": "IAAv0"
          },
          "stringMap": {
            "7000": "\u003cUI\u003e"
          },
          "strings": {}
        },
        {
          "start": "com.MiniBrowser.AppActivity.MiniBrowser.onCreate(Landroid/os/Bundle;)V",
          "target": "PC@75",
          "type": "activity",
          "component": "com.MiniBrowser.AppActivity.MiniBrowser",
          "constraintsFile": "constraints12_2.py",
          "variables": {
            "\u003cChainedInput1\u003e": "IAAv0"
          },
          "stringMap": {
            "7000": "\u003cUI\u003e"
          },
          "strings": {}
        },
        {
          "start": "com.MiniBrowser.MainViewTopBar.Top.onClick(Landroid/view/View;)V",
          "target": "invokevirtual \u003c Application, Ljava/net/URL, openConnection()Ljava/net/URLConnection; \u003e@78",
          "type": "ui",
          "activities": [
            "com.MiniBrowser.AppActivity.SplashScreen"
          ],
          "listener": "com.MiniBrowser.MainViewTopBar.Top",
          "listenerMethod": "onClick",
          "uiType": "onClick",
          "constraintsFile": "constraints12_3.py",
          "variables": {
            "\u003cChainedInput1\u003e": "IAAv0"
          },
          "stringMap": {},
          "strings": {}
        }
      ]
    },
    "13": {
      "startMethod": "com.MiniBrowser.MainViewTopBar.Top.onClick(Landroid/view/View;)V",
      "targetMethod": "java.net.URL.openConnection(Ljava/net/Proxy;)Ljava/net/URLConnection;",
      "eventChain": [
        {
          "start": "com.MiniBrowser.AppActivity.MiniBrowser.onCreate(Landroid/os/Bundle;)V",
          "target": "invokevirtual \u003c Application, Landroid/widget/ImageButton, setOnClickListener(Landroid/view/View$OnClickListener;)V \u003e@119",
          "type": "activity",
          "component": "com.MiniBrowser.AppActivity.MiniBrowser"
        },
        {
          "start": "com.MiniBrowser.AppActivity.MiniBrowser.onCreate(Landroid/os/Bundle;)V",
          "target": "PC@109",
          "type": "activity",
          "component": "com.MiniBrowser.AppActivity.MiniBrowser",
          "constraintsFile": "constraints13_0.py",
          "variables": {
            "\u003cChainedInput1\u003e": "IAAv0"
          },
          "stringMap": {
            "7000": "\u003cUI\u003e"
          },
          "strings": {}
        },
        {
          "start": "com.MiniBrowser.AppActivity.MiniBrowser.onCreate(Landroid/os/Bundle;)V",
          "target": "PC@51",
          "type": "activity",
          "component": "com.MiniBrowser.AppActivity.MiniBrowser",
          "constraintsFile": "constraints13_1.py",
          "variables": {
            "\u003cChainedInput1\u003e": "IAAv0"
          },
          "stringMap": {
            "7000": "\u003cUI\u003e"
          },
          "strings": {}
        },
        {
          "start": "com.MiniBrowser.AppActivity.MiniBrowser.onCreate(Landroid/os/Bundle;)V",
          "target": "PC@75",
          "type": "activity",
          "component": "com.MiniBrowser.AppActivity.MiniBrowser",
          "constraintsFile": "constraints13_2.py",
          "variables": {
            "\u003cChainedInput1\u003e": "IAAv0"
          },
          "stringMap": {
            "7000": "\u003cUI\u003e"
          },
          "strings": {}
        },
        {
          "start": "com.MiniBrowser.MainViewTopBar.Top.onClick(Landroid/view/View;)V",
          "target": "invokevirtual \u003c Application, Ljava/net/URL, openConnection(Ljava/net/Proxy;)Ljava/net/URLConnection; \u003e@253",
          "type": "ui",
          "activities": [
            "com.MiniBrowser.AppActivity.SplashScreen"
          ],
          "listener": "com.MiniBrowser.MainViewTopBar.Top",
          "listenerMethod": "onClick",
          "uiType": "onClick",
          "constraintsFile": "constraints13_3.py",
          "variables": {
            "\u003cChainedInput1\u003e": "IAAv0"
          },
          "stringMap": {},
          "strings": {}
        }
      ]
    },
    "14": {
      "startMethod": "com.ToolKit.Util.SystemUtils$3.onClick(Landroid/content/DialogInterface;I)V",
      "targetMethod": "java.net.URL.openConnection()Ljava/net/URLConnection;",
      "eventChain": [
        {
          "start": "com.MiniBrowser.LeftView.Left.onItemClick(Landroid/widget/AdapterView;Landroid/view/View;IJ)V",
          "target": "invokevirtual \u003c Application, Landroid/app/AlertDialog$Builder, setPositiveButton(Ljava/lang/CharSequence;Landroid/content/DialogInterface$OnClickListener;)Landroid/app/AlertDialog$Builder; \u003e@342",
          "type": "ui",
          "activities": [
            "com.MiniBrowser.AppActivity.SplashScreen"
          ],
          "listener": "com.MiniBrowser.LeftView.Left",
          "listenerMethod": "onItemClick",
          "uiType": "onItemClick",
          "constraintsFile": "constraints14_0.py",
          "variables": {
            "\u003cChainedInput1\u003e": "IAAv0"
          },
          "stringMap": {
            "7000": "#",
            "7001": "1"
          },
          "strings": {
            "IAAv2": "",
            "IAAv5": ""
          }
        },
        {
          "start": "com.ToolKit.Util.SystemUtils$3.onClick(Landroid/content/DialogInterface;I)V",
          "target": "invokevirtual \u003c Application, Ljava/net/URL, openConnection()Ljava/net/URLConnection; \u003e@7",
          "type": "ui",
          "activities": [
            "com.MiniBrowser.AppActivity.SplashScreen"
          ],
          "listener": "com.ToolKit.Util.SystemUtils$3",
          "listenerMethod": "onClick",
          "uiType": "onClick",
          "inDialog": "true",
          "constraintsFile": "constraints14_1.py",
          "variables": {},
          "stringMap": {},
          "strings": {}
        }
      ]
    },
    "15": {
      "startMethod": "com.ToolKit.Util.SystemUtils$3.onClick(Landroid/content/DialogInterface;I)V",
      "targetMethod": "java.net.URL.openConnection()Ljava/net/URLConnection;",
      "eventChain": [
        {
          "start": "com.MiniBrowser.LeftView.Left.onItemClick(Landroid/widget/AdapterView;Landroid/view/View;IJ)V",
          "target": "invokevirtual \u003c Application, Landroid/app/AlertDialog$Builder, setPositiveButton(Ljava/lang/CharSequence;Landroid/content/DialogInterface$OnClickListener;)Landroid/app/AlertDialog$Builder; \u003e@342",
          "type": "ui",
          "activities": [
            "com.MiniBrowser.AppActivity.SplashScreen"
          ],
          "listener": "com.MiniBrowser.LeftView.Left",
          "listenerMethod": "onItemClick",
          "uiType": "onItemClick",
          "constraintsFile": "constraints15_0.py",
          "variables": {
            "\u003cChainedInput1\u003e": "IAAv0"
          },
          "stringMap": {
            "7000": "#",
            "7001": "1"
          },
          "strings": {
            "IAAv2": "",
            "IAAv5": ""
          }
        },
        {
          "start": "com.ToolKit.Util.SystemUtils$3.onClick(Landroid/content/DialogInterface;I)V",
          "target": "invokevirtual \u003c Application, Ljava/net/URL, openConnection()Ljava/net/URLConnection; \u003e@31",
          "type": "ui",
          "activities": [
            "com.MiniBrowser.AppActivity.SplashScreen"
          ],
          "listener": "com.ToolKit.Util.SystemUtils$3",
          "listenerMethod": "onClick",
          "uiType": "onClick",
          "inDialog": "true",
          "constraintsFile": "constraints15_1.py",
          "variables": {},
          "stringMap": {},
          "strings": {}
        }
      ]
    },
    "16": {
      "startMethod": "com.MiniBrowser.WebBrowserActivity.Web$6.onDownloadStart(Ljava/lang/String;Ljava/lang/String;Ljava/lang/String;Ljava/lang/String;J)V",
      "targetMethod": "java.net.URL.openConnection()Ljava/net/URLConnection;",
      "eventChain": [
        {
          "start": "com.MiniBrowser.WebBrowserActivity.Web.onCheckedChanged(Landroid/widget/RadioGroup;I)V",
          "target": "invokevirtual \u003c Application, Landroid/webkit/WebView, setDownloadListener(Landroid/webkit/DownloadListener;)V \u003e@40",
          "type": "ui",
          "activities": [
            "com.MiniBrowser.AppActivity.SplashScreen"
          ],
          "listener": "com.MiniBrowser.WebBrowserActivity.Web",
          "listenerMethod": "onCheckedChanged",
          "uiType": "onCheckedChanged",
          "constraintsFile": "constraints16_0.py",
          "variables": {
            "\u003cChainedInput2\u003e": "IAAv3",
            "\u003cChainedInput1\u003e": "IAAv0"
          },
          "stringMap": {},
          "strings": {}
        },
        {
          "start": "com.MiniBrowser.WebBrowserActivity.Web$6.onDownloadStart(Ljava/lang/String;Ljava/lang/String;Ljava/lang/String;Ljava/lang/String;J)V",
          "target": "invokevirtual \u003c Application, Ljava/net/URL, openConnection()Ljava/net/URLConnection; \u003e@7",
          "type": "",
          "constraintsFile": "constraints16_1.py",
          "variables": {
            "\u003cChainedInput1\u003e.isHashInfo()": "IAAv10",
            "\u003cChainedInput1\u003e": "IAAv6",
            "SharedPreferences\u003cvideo\u003e": "IAAv5",
            "\u003cChainedInput4\u003e": "IAAv0",
            "\u003cChainedInput1\u003e.lastIndexOf()": "IAAv7"
          },
          "stringMap": {
            "7000": "video/",
            "7001": "image/",
            "7002": "audio/"
          },
          "strings": {
            "IAAv0": "",
            "IAAv6": ""
          }
        }
      ]
    },
    "17": {
      "startMethod": "com.MiniBrowser.WebBrowserActivity.Web$6.onDownloadStart(Ljava/lang/String;Ljava/lang/String;Ljava/lang/String;Ljava/lang/String;J)V",
      "targetMethod": "java.net.URL.openConnection()Ljava/net/URLConnection;",
      "eventChain": [
        {
          "start": "com.MiniBrowser.WebBrowserActivity.Web.onCheckedChanged(Landroid/widget/RadioGroup;I)V",
          "target": "invokevirtual \u003c Application, Landroid/webkit/WebView, setDownloadListener(Landroid/webkit/DownloadListener;)V \u003e@40",
          "type": "ui",
          "activities": [
            "com.MiniBrowser.AppActivity.SplashScreen"
          ],
          "listener": "com.MiniBrowser.WebBrowserActivity.Web",
          "listenerMethod": "onCheckedChanged",
          "uiType": "onCheckedChanged",
          "constraintsFile": "constraints17_0.py",
          "variables": {
            "\u003cChainedInput2\u003e": "IAAv3",
            "\u003cChainedInput1\u003e": "IAAv0"
          },
          "stringMap": {},
          "strings": {}
        },
        {
          "start": "com.MiniBrowser.WebBrowserActivity.Web$6.onDownloadStart(Ljava/lang/String;Ljava/lang/String;Ljava/lang/String;Ljava/lang/String;J)V",
          "target": "invokevirtual \u003c Application, Ljava/net/URL, openConnection()Ljava/net/URLConnection; \u003e@31",
          "type": "",
          "constraintsFile": "constraints17_1.py",
          "variables": {
            "\u003cChainedInput1\u003e.isHashInfo()": "IAAv10",
            "\u003cChainedInput1\u003e": "IAAv6",
            "SharedPreferences\u003cvideo\u003e": "IAAv5",
            "\u003cChainedInput4\u003e": "IAAv0",
            "\u003cChainedInput1\u003e.lastIndexOf()": "IAAv7"
          },
          "stringMap": {
            "7000": "video/",
            "7001": "image/",
            "7002": "audio/"
          },
          "strings": {
            "IAAv0": "",
            "IAAv6": ""
          }
        }
      ]
    }
  }
}