{
  "packageName": "cn.com.lw.M_05_kl",
  "mainActivity": "cn.com.lw.MainActivity",
  "callPaths": {
    "0": {
      "startMethod": "cn.com.lw.MainActivity.onPause()V",
      "targetMethod": "java.net.URL.openConnection()Ljava/net/URLConnection;",
      "eventChain": [
        {
          "start": "cn.com.lw.MainActivity.onPause()V",
          "target": "invokevirtual \u003c Application, Ljava/net/URL, openConnection()Ljava/net/URLConnection; \u003e@75",
          "type": "activity",
          "component": "cn.com.lw.MainActivity",
          "constraintsFile": "constraints0_0.py",
          "variables": {},
          "stringMap": {},
          "strings": {}
        }
      ]
    },
    "1": {
      "startMethod": "cn.com.lw.MainActivity.onPause()V",
      "targetMethod": "org.apache.http.client.HttpClient.execute(Lorg/apache/http/client/methods/HttpUriRequest;)Lorg/apache/http/HttpResponse;",
      "eventChain": [
        {
          "start": "cn.com.lw.MainActivity.onPause()V",
          "target": "invokeinterface \u003c Application, Lorg/apache/http/client/HttpClient, execute(Lorg/apache/http/client/methods/HttpUriRequest;)Lorg/apache/http/HttpResponse; \u003e@299",
          "type": "activity",
          "component": "cn.com.lw.MainActivity",
          "constraintsFile": "constraints1_0.py",
          "variables": {},
          "stringMap": {},
          "strings": {}
        }
      ]
    },
    "2": {
      "startMethod": "cn.com.lw.MainActivity.onResume()V",
      "targetMethod": "java.net.URL.openConnection()Ljava/net/URLConnection;",
      "eventChain": [
        {
          "start": "cn.com.lw.MainActivity.onPause()V",
          "target": "invokeinterface \u003c Application, Landroid/content/SharedPreferences$Editor, putString(Ljava/lang/String;Ljava/lang/String;)Landroid/content/SharedPreferences$Editor; \u003e@367",
          "type": "activity",
          "component": "cn.com.lw.MainActivity",
          "constraintsFile": "constraints2_0.py",
          "variables": {},
          "stringMap": {},
          "strings": {}
        },
        {
          "start": "cn.com.lw.MainActivity.onPause()V",
          "target": "invokeinterface \u003c Application, Landroid/content/SharedPreferences$Editor, putString(Ljava/lang/String;Ljava/lang/String;)Landroid/content/SharedPreferences$Editor; \u003e@57",
          "type": "activity",
          "component": "cn.com.lw.MainActivity",
          "constraintsFile": "constraints2_1.py",
          "variables": {},
          "stringMap": {},
          "strings": {}
        },
        {
          "start": "cn.com.lw.MainActivity.onPause()V",
          "target": "invokeinterface \u003c Application, Landroid/content/SharedPreferences$Editor, putLong(Ljava/lang/String;J)Landroid/content/SharedPreferences$Editor; \u003e@420",
          "type": "activity",
          "component": "cn.com.lw.MainActivity",
          "constraintsFile": "constraints2_2.py",
          "variables": {},
          "stringMap": {},
          "strings": {}
        },
        {
          "start": "cn.com.lw.MainActivity.onPause()V",
          "target": "",
          "type": "activity",
          "component": "cn.com.lw.MainActivity",
          "constraintsFile": "constraints2_3.py",
          "variables": {},
          "stringMap": {},
          "strings": {}
        },
        {
          "start": "cn.com.lw.MainActivity.onPause()V",
          "target": "PC@23",
          "type": "activity",
          "component": "cn.com.lw.MainActivity",
          "constraintsFile": "constraints2_4.py",
          "variables": {},
          "stringMap": {},
          "strings": {}
        },
        {
          "start": "cn.com.lw.MainActivity.onPause()V",
          "target": "PC@12",
          "type": "activity",
          "component": "cn.com.lw.MainActivity",
          "constraintsFile": "constraints2_5.py",
          "variables": {},
          "stringMap": {},
          "strings": {}
        },
        {
          "start": "cn.com.lw.MainActivity.onResume()V",
          "target": "invokevirtual \u003c Application, Ljava/net/URL, openConnection()Ljava/net/URLConnection; \u003e@75",
          "type": "activity",
          "component": "cn.com.lw.MainActivity",
          "constraintsFile": "constraints2_6.py",
          "variables": {
            "SharedPreferences\u003csession_id\u003e": "IAAv5",
            "SharedPreferences\u003cduration\u003e.valueOf().longValue()": "IAAv6",
            "SharedPreferences\u003cactivities\u003e": "IAAv8"
          },
          "stringMap": {
            "7000": "",
            "7001": "update",
            "7002": "Yes",
            "7003": "yes"
          },
          "strings": {
            "IAAv1": "",
            "IAAv8": "",
            "IAAv19": "",
            "IAAv5": ""
          }
        }
      ]
    },
    "3": {
      "startMethod": "cn.com.lw.MainActivity.onResume()V",
      "targetMethod": "org.apache.http.client.HttpClient.execute(Lorg/apache/http/client/methods/HttpUriRequest;)Lorg/apache/http/HttpResponse;",
      "eventChain": [
        {
          "start": "cn.com.lw.MainActivity.onPause()V",
          "target": "invokeinterface \u003c Application, Landroid/content/SharedPreferences$Editor, putString(Ljava/lang/String;Ljava/lang/String;)Landroid/content/SharedPreferences$Editor; \u003e@367",
          "type": "activity",
          "component": "cn.com.lw.MainActivity",
          "constraintsFile": "constraints3_0.py",
          "variables": {},
          "stringMap": {},
          "strings": {}
        },
        {
          "start": "cn.com.lw.MainActivity.onPause()V",
          "target": "invokeinterface \u003c Application, Landroid/content/SharedPreferences$Editor, putString(Ljava/lang/String;Ljava/lang/String;)Landroid/content/SharedPreferences$Editor; \u003e@57",
          "type": "activity",
          "component": "cn.com.lw.MainActivity",
          "constraintsFile": "constraints3_1.py",
          "variables": {},
          "stringMap": {},
          "strings": {}
        },
        {
          "start": "cn.com.lw.MainActivity.onPause()V",
          "target": "invokeinterface \u003c Application, Landroid/content/SharedPreferences$Editor, putLong(Ljava/lang/String;J)Landroid/content/SharedPreferences$Editor; \u003e@420",
          "type": "activity",
          "component": "cn.com.lw.MainActivity",
          "constraintsFile": "constraints3_2.py",
          "variables": {},
          "stringMap": {},
          "strings": {}
        },
        {
          "start": "cn.com.lw.MainActivity.onPause()V",
          "target": "PC@23",
          "type": "activity",
          "component": "cn.com.lw.MainActivity",
          "constraintsFile": "constraints3_3.py",
          "variables": {},
          "stringMap": {},
          "strings": {}
        },
        {
          "start": "cn.com.lw.MainActivity.onPause()V",
          "target": "PC@12",
          "type": "activity",
          "component": "cn.com.lw.MainActivity",
          "constraintsFile": "constraints3_4.py",
          "variables": {},
          "stringMap": {},
          "strings": {}
        },
        {
          "start": "cn.com.lw.MainActivity.onResume()V",
          "target": "invokeinterface \u003c Application, Lorg/apache/http/client/HttpClient, execute(Lorg/apache/http/client/methods/HttpUriRequest;)Lorg/apache/http/HttpResponse; \u003e@299",
          "type": "activity",
          "component": "cn.com.lw.MainActivity",
          "constraintsFile": "constraints3_5.py",
          "variables": {
            "SharedPreferences\u003csession_id\u003e": "IAAv5",
            "SharedPreferences\u003cduration\u003e.valueOf().longValue()": "IAAv6",
            "SharedPreferences\u003cactivities\u003e": "IAAv8"
          },
          "stringMap": {
            "7000": "",
            "7001": "update"
          },
          "strings": {
            "IAAv1": "",
            "IAAv13": "",
            "IAAv8": "",
            "IAAv5": ""
          }
        }
      ]
    },
    "4": {
      "startMethod": "cn.com.lw.MainActivity.onCreate(Landroid/os/Bundle;)V",
      "targetMethod": "org.apache.http.impl.client.DefaultHttpClient.execute(Lorg/apache/http/client/methods/HttpUriRequest;)Lorg/apache/http/HttpResponse;",
      "eventChain": [
        {
          "start": "cn.com.lw.MainActivity.onCreate(Landroid/os/Bundle;)V",
          "target": "invokevirtual \u003c Application, Lorg/apache/http/impl/client/DefaultHttpClient, execute(Lorg/apache/http/client/methods/HttpUriRequest;)Lorg/apache/http/HttpResponse; \u003e@354",
          "type": "activity",
          "component": "cn.com.lw.MainActivity"
        }
      ]
    },
    "5": {
      "startMethod": "cn.com.lw.MainActivity.onCreate(Landroid/os/Bundle;)V",
      "targetMethod": "java.net.URL.openConnection()Ljava/net/URLConnection;",
      "eventChain": [
        {
          "start": "cn.com.lw.MainActivity.onCreate(Landroid/os/Bundle;)V",
          "target": "invokevirtual \u003c Application, Ljava/net/URL, openConnection()Ljava/net/URLConnection; \u003e@75",
          "type": "activity",
          "component": "cn.com.lw.MainActivity"
        }
      ]
    },
    "6": {
      "startMethod": "cn.com.lw.MainActivity.onCreate(Landroid/os/Bundle;)V",
      "targetMethod": "org.apache.http.client.HttpClient.execute(Lorg/apache/http/client/methods/HttpUriRequest;)Lorg/apache/http/HttpResponse;",
      "eventChain": [
        {
          "start": "cn.com.lw.MainActivity.onCreate(Landroid/os/Bundle;)V",
          "target": "invokeinterface \u003c Application, Lorg/apache/http/client/HttpClient, execute(Lorg/apache/http/client/methods/HttpUriRequest;)Lorg/apache/http/HttpResponse; \u003e@299",
          "type": "activity",
          "component": "cn.com.lw.MainActivity"
        }
      ]
    },
    "7": {
      "startMethod": "com.feedback.ui.FeedbackConversations.onCreate(Landroid/os/Bundle;)V",
      "targetMethod": "org.apache.http.impl.client.DefaultHttpClient.execute(Lorg/apache/http/client/methods/HttpUriRequest;)Lorg/apache/http/HttpResponse;",
      "eventChain": [
        {
          "start": "com.feedback.ui.FeedbackConversations.onCreate(Landroid/os/Bundle;)V",
          "target": "invokevirtual \u003c Application, Lorg/apache/http/impl/client/DefaultHttpClient, execute(Lorg/apache/http/client/methods/HttpUriRequest;)Lorg/apache/http/HttpResponse; \u003e@354",
          "type": "activity",
          "component": "com.feedback.ui.FeedbackConversations",
          "constraintsFile": "constraints7_0.py",
          "variables": {
            "SharedPreferences\u003cmaxReplyID\u003e": "IAAv1"
          },
          "stringMap": {
            "7000": "\u003cUI\u003e",
            "7001": "RP0"
          },
          "strings": {
            "IAAv1": ""
          }
        }
      ]
    },
    "8": {
      "startMethod": "com.mobclick.android.h.onClick(Landroid/content/DialogInterface;I)V",
      "targetMethod": "java.net.URL.openConnection()Ljava/net/URLConnection;",
      "eventChain": [
        {
          "start": "cn.com.lw.MainActivity.onPause()V",
          "target": "invokevirtual \u003c Application, Landroid/app/AlertDialog$Builder, setPositiveButton(Ljava/lang/CharSequence;Landroid/content/DialogInterface$OnClickListener;)Landroid/app/AlertDialog$Builder; \u003e@403",
          "type": "activity",
          "component": "cn.com.lw.MainActivity",
          "constraintsFile": "constraints8_0.py",
          "variables": {},
          "stringMap": {},
          "strings": {}
        },
        {
          "start": "com.mobclick.android.h.onClick(Landroid/content/DialogInterface;I)V",
          "target": "invokevirtual \u003c Application, Ljava/net/URL, openConnection()Ljava/net/URLConnection; \u003e@22",
          "type": "ui",
          "activities": [
            "cn.com.lw.MainActivity"
          ],
          "listener": "com.mobclick.android.h",
          "listenerMethod": "onClick",
          "uiType": "onClick",
          "inDialog": "true"
        }
      ]
    },
    "9": {
      "startMethod": "com.feiwo.coverscreen.w.onClick(Landroid/content/DialogInterface;I)V",
      "targetMethod": "java.net.URL.openConnection()Ljava/net/URLConnection;",
      "eventChain": [
        {
          "start": "com.feiwo.coverscreen.v.onClick(Landroid/view/View;)V",
          "target": "invokevirtual \u003c Application, Landroid/app/AlertDialog$Builder, setPositiveButton(Ljava/lang/CharSequence;Landroid/content/DialogInterface$OnClickListener;)Landroid/app/AlertDialog$Builder; \u003e@118",
          "type": "ui",
          "activities": [
            "cn.com.lw.MainActivity"
          ],
          "listener": "com.feiwo.coverscreen.v",
          "listenerMethod": "onClick",
          "uiType": "onClick",
          "constraintsFile": "constraints9_0.py",
          "variables": {},
          "stringMap": {
            "7000": "download",
            "7001": "false"
          },
          "strings": {
            "IAAv3": "",
            "IAAv0": ""
          }
        },
        {
          "start": "com.feiwo.coverscreen.v.onClick(Landroid/view/View;)V",
          "target": "PC@13",
          "type": "ui",
          "activities": [
            "cn.com.lw.MainActivity"
          ],
          "listener": "com.feiwo.coverscreen.v",
          "listenerMethod": "onClick",
          "uiType": "onClick",
          "constraintsFile": "constraints9_1.py",
          "variables": {},
          "stringMap": {
            "7000": "download",
            "7001": "false"
          },
          "strings": {
            "IAAv3": "",
            "IAAv10": "",
            "IAAv7": ""
          }
        },
        {
          "start": "com.feiwo.coverscreen.w.onClick(Landroid/content/DialogInterface;I)V",
          "target": "invokevirtual \u003c Application, Ljava/net/URL, openConnection()Ljava/net/URLConnection; \u003e@101",
          "type": "ui",
          "activities": [
            "cn.com.lw.MainActivity"
          ],
          "listener": "com.feiwo.coverscreen.w",
          "listenerMethod": "onClick",
          "uiType": "onClick",
          "inDialog": "true",
          "constraintsFile": "constraints9_2.py",
          "variables": {},
          "stringMap": {
            "7000": "download"
          },
          "strings": {
            "IAAv3": ""
          }
        }
      ]
    },
    "10": {
      "startMethod": "com.feiwo.coverscreen.v.onClick(Landroid/view/View;)V",
      "targetMethod": "java.net.URL.openConnection()Ljava/net/URLConnection;",
      "eventChain": [
        {
          "start": "com.feiwo.coverscreen.v.onClick(Landroid/view/View;)V",
          "target": "invokevirtual \u003c Application, Ljava/net/URL, openConnection()Ljava/net/URLConnection; \u003e@101",
          "type": "ui",
          "activities": [
            "cn.com.lw.MainActivity"
          ],
          "listener": "com.feiwo.coverscreen.v",
          "listenerMethod": "onClick",
          "uiType": "onClick",
          "constraintsFile": "constraints10_0.py",
          "variables": {},
          "stringMap": {
            "7000": "download",
            "7001": "false"
          },
          "strings": {
            "IAAv3": "",
            "IAAv0": "",
            "IAAv5": ""
          }
        }
      ]
    },
    "11": {
      "startMethod": "com.feedback.ui.j.onClick(Landroid/view/View;)V",
      "targetMethod": "org.apache.http.client.HttpClient.execute(Lorg/apache/http/client/methods/HttpUriRequest;)Lorg/apache/http/HttpResponse;",
      "eventChain": [
        {
          "start": "com.feedback.ui.SendFeedback.onCreate(Landroid/os/Bundle;)V",
          "target": "invokevirtual \u003c Application, Landroid/widget/TextView, setOnClickListener(Landroid/view/View$OnClickListener;)V \u003e@66",
          "type": "activity",
          "component": "com.feedback.ui.SendFeedback",
          "constraintsFile": "constraints11_0.py",
          "variables": {},
          "stringMap": {},
          "strings": {}
        },
        {
          "start": "com.feedback.ui.j.onClick(Landroid/view/View;)V",
          "target": "invokeinterface \u003c Application, Lorg/apache/http/client/HttpClient, execute(Lorg/apache/http/client/methods/HttpUriRequest;)Lorg/apache/http/HttpResponse; \u003e@199",
          "type": "ui",
          "activities": [
            "com.feedback.ui.SendFeedback"
          ],
          "listener": "com.feedback.ui.j",
          "listenerMethod": "onClick",
          "uiType": "onClick",
          "constraintsFile": "constraints11_1.py",
          "variables": {},
          "stringMap": {
            "7000": "new_feedback"
          },
          "strings": {
            "IAAv5": ""
          }
        }
      ]
    }
  }
}