{
  "packageName": "com.andro.webap",
  "mainActivity": "com.andro.webap.LoadActivity",
  "callPaths": {
    "0": {
      "startMethod": "com.andro.webap.MyActivity.onCreate(Landroid/os/Bundle;)V",
      "targetMethod": "java.net.URL.openConnection()Ljava/net/URLConnection;",
      "eventChain": [
        {
          "start": "com.andro.webap.MyActivity.onCreate(Landroid/os/Bundle;)V",
          "target": "invokevirtual \u003c Application, Ljava/net/URL, openConnection()Ljava/net/URLConnection; \u003e@11",
          "type": "activity",
          "component": "com.andro.webap.MyActivity"
        }
      ]
    }
  }
}