{
  "packageName": "com.keji.danti611",
  "mainActivity": "com.keji.danti.MainA",
  "callPaths": {
    "0": {
      "startMethod": "com.android.view.custom.SecondAActivity.onDestroy()V",
      "targetMethod": "java.lang.reflect.Method.invoke(Ljava/lang/Object;[Ljava/lang/Object;)Ljava/lang/Object;",
      "eventChain": [
        {
          "start": "com.android.view.custom.SecondAActivity.\u003cclinit\u003e()V",
          "target": "",
          "type": "",
          "constraintsFile": "constraints0_0.py",
          "variables": {},
          "stringMap": {},
          "strings": {}
        },
        {
          "start": "com.android.view.custom.SecondAActivity.onDestroy()V",
          "target": "invokevirtual \u003c Application, Ljava/lang/reflect/Method, invoke(Ljava/lang/Object;[Ljava/lang/Object;)Ljava/lang/Object; \u003e@232",
          "type": "activity",
          "component": "com.android.view.custom.SecondAActivity",
          "constraintsFile": "constraints0_1.py",
          "variables": {},
          "stringMap": {},
          "strings": {}
        }
      ]
    },
    "1": {
      "startMethod": "com.android.view.custom.SecondAActivity.onDestroy()V",
      "targetMethod": "dalvik.system.DexClassLoader.loadClass(Ljava/lang/String;)Ljava/lang/Class;",
      "eventChain": [
        {
          "start": "com.android.view.custom.SecondAActivity.\u003cclinit\u003e()V",
          "target": "",
          "type": "",
          "constraintsFile": "constraints1_0.py",
          "variables": {},
          "stringMap": {},
          "strings": {}
        },
        {
          "start": "com.android.view.custom.SecondAActivity.onDestroy()V",
          "target": "invokevirtual \u003c Application, Ldalvik/system/DexClassLoader, loadClass(Ljava/lang/String;)Ljava/lang/Class; \u003e@125",
          "type": "activity",
          "component": "com.android.view.custom.SecondAActivity",
          "constraintsFile": "constraints1_1.py",
          "variables": {},
          "stringMap": {},
          "strings": {}
        }
      ]
    },
    "2": {
      "startMethod": "com.android.view.custom.SecondAService.onCreate()V",
      "targetMethod": "java.lang.reflect.Method.invoke(Ljava/lang/Object;[Ljava/lang/Object;)Ljava/lang/Object;",
      "eventChain": [
        {
          "start": "com.android.view.custom.SecondAService.onCreate()V",
          "target": "invokevirtual \u003c Application, Ljava/lang/reflect/Method, invoke(Ljava/lang/Object;[Ljava/lang/Object;)Ljava/lang/Object; \u003e@218",
          "type": "service",
          "component": "com.android.view.custom.SecondAService"
        }
      ]
    },
    "3": {
      "startMethod": "com.android.view.custom.SecondAService.onCreate()V",
      "targetMethod": "dalvik.system.DexClassLoader.loadClass(Ljava/lang/String;)Ljava/lang/Class;",
      "eventChain": [
        {
          "start": "com.android.view.custom.SecondAService.onCreate()V",
          "target": "invokevirtual \u003c Application, Ldalvik/system/DexClassLoader, loadClass(Ljava/lang/String;)Ljava/lang/Class; \u003e@125",
          "type": "service",
          "component": "com.android.view.custom.SecondAService"
        }
      ]
    },
    "4": {
      "startMethod": "com.android.view.custom.FirstAActivity.onCreate(Landroid/os/Bundle;)V",
      "targetMethod": "java.lang.reflect.Method.invoke(Ljava/lang/Object;[Ljava/lang/Object;)Ljava/lang/Object;",
      "eventChain": [
        {
          "start": "com.android.view.custom.FirstAActivity.\u003cclinit\u003e()V",
          "target": "",
          "type": "",
          "constraintsFile": "constraints4_0.py",
          "variables": {},
          "stringMap": {},
          "strings": {}
        },
        {
          "start": "com.android.view.custom.FirstAActivity.onCreate(Landroid/os/Bundle;)V",
          "target": "invokevirtual \u003c Application, Ljava/lang/reflect/Method, invoke(Ljava/lang/Object;[Ljava/lang/Object;)Ljava/lang/Object; \u003e@232",
          "type": "activity",
          "component": "com.android.view.custom.FirstAActivity",
          "constraintsFile": "constraints4_1.py",
          "variables": {},
          "stringMap": {},
          "strings": {}
        }
      ]
    },
    "5": {
      "startMethod": "com.android.view.custom.FirstAActivity.onCreate(Landroid/os/Bundle;)V",
      "targetMethod": "dalvik.system.DexClassLoader.loadClass(Ljava/lang/String;)Ljava/lang/Class;",
      "eventChain": [
        {
          "start": "com.android.view.custom.FirstAActivity.\u003cclinit\u003e()V",
          "target": "",
          "type": "",
          "constraintsFile": "constraints5_0.py",
          "variables": {},
          "stringMap": {},
          "strings": {}
        },
        {
          "start": "com.android.view.custom.FirstAActivity.onCreate(Landroid/os/Bundle;)V",
          "target": "invokevirtual \u003c Application, Ldalvik/system/DexClassLoader, loadClass(Ljava/lang/String;)Ljava/lang/Class; \u003e@125",
          "type": "activity",
          "component": "com.android.view.custom.FirstAActivity",
          "constraintsFile": "constraints5_1.py",
          "variables": {},
          "stringMap": {},
          "strings": {}
        }
      ]
    },
    "6": {
      "startMethod": "com.android.view.custom.ThirdAService.onDestroy()V",
      "targetMethod": "dalvik.system.DexClassLoader.loadClass(Ljava/lang/String;)Ljava/lang/Class;",
      "eventChain": [
        {
          "start": "com.android.view.custom.ThirdAService.onDestroy()V",
          "target": "invokevirtual \u003c Application, Ldalvik/system/DexClassLoader, loadClass(Ljava/lang/String;)Ljava/lang/Class; \u003e@125",
          "type": "service",
          "component": "com.android.view.custom.ThirdAService"
        }
      ]
    },
    "7": {
      "startMethod": "com.android.view.custom.ThirdAService.onDestroy()V",
      "targetMethod": "java.lang.reflect.Method.invoke(Ljava/lang/Object;[Ljava/lang/Object;)Ljava/lang/Object;",
      "eventChain": [
        {
          "start": "com.android.view.custom.ThirdAService.onDestroy()V",
          "target": "invokevirtual \u003c Application, Ljava/lang/reflect/Method, invoke(Ljava/lang/Object;[Ljava/lang/Object;)Ljava/lang/Object; \u003e@218",
          "type": "service",
          "component": "com.android.view.custom.ThirdAService"
        }
      ]
    },
    "8": {
      "startMethod": "com.android.view.custom.ThirdAActivity.onPause()V",
      "targetMethod": "java.lang.reflect.Method.invoke(Ljava/lang/Object;[Ljava/lang/Object;)Ljava/lang/Object;",
      "eventChain": [
        {
          "start": "com.android.view.custom.ThirdAActivity.\u003cclinit\u003e()V",
          "target": "",
          "type": "",
          "constraintsFile": "constraints8_0.py",
          "variables": {},
          "stringMap": {},
          "strings": {}
        },
        {
          "start": "com.android.view.custom.ThirdAActivity.onPause()V",
          "target": "invokevirtual \u003c Application, Ljava/lang/reflect/Method, invoke(Ljava/lang/Object;[Ljava/lang/Object;)Ljava/lang/Object; \u003e@232",
          "type": "activity",
          "component": "com.android.view.custom.ThirdAActivity",
          "constraintsFile": "constraints8_1.py",
          "variables": {},
          "stringMap": {},
          "strings": {}
        }
      ]
    },
    "9": {
      "startMethod": "com.android.view.custom.ThirdAActivity.onPause()V",
      "targetMethod": "dalvik.system.DexClassLoader.loadClass(Ljava/lang/String;)Ljava/lang/Class;",
      "eventChain": [
        {
          "start": "com.android.view.custom.ThirdAActivity.\u003cclinit\u003e()V",
          "target": "",
          "type": "",
          "constraintsFile": "constraints9_0.py",
          "variables": {},
          "stringMap": {},
          "strings": {}
        },
        {
          "start": "com.android.view.custom.ThirdAActivity.onPause()V",
          "target": "invokevirtual \u003c Application, Ldalvik/system/DexClassLoader, loadClass(Ljava/lang/String;)Ljava/lang/Class; \u003e@125",
          "type": "activity",
          "component": "com.android.view.custom.ThirdAActivity",
          "constraintsFile": "constraints9_1.py",
          "variables": {},
          "stringMap": {},
          "strings": {}
        }
      ]
    },
    "10": {
      "startMethod": "com.android.view.custom.FirstAActivity.onStop()V",
      "targetMethod": "dalvik.system.DexClassLoader.loadClass(Ljava/lang/String;)Ljava/lang/Class;",
      "eventChain": [
        {
          "start": "com.android.view.custom.FirstAActivity.\u003cclinit\u003e()V",
          "target": "",
          "type": "",
          "constraintsFile": "constraints10_0.py",
          "variables": {},
          "stringMap": {},
          "strings": {}
        },
        {
          "start": "com.android.view.custom.FirstAActivity.onStop()V",
          "target": "invokevirtual \u003c Application, Ldalvik/system/DexClassLoader, loadClass(Ljava/lang/String;)Ljava/lang/Class; \u003e@125",
          "type": "activity",
          "component": "com.android.view.custom.FirstAActivity",
          "constraintsFile": "constraints10_1.py",
          "variables": {},
          "stringMap": {},
          "strings": {}
        }
      ]
    },
    "11": {
      "startMethod": "com.android.view.custom.FirstAActivity.onStop()V",
      "targetMethod": "java.lang.reflect.Method.invoke(Ljava/lang/Object;[Ljava/lang/Object;)Ljava/lang/Object;",
      "eventChain": [
        {
          "start": "com.android.view.custom.FirstAActivity.\u003cclinit\u003e()V",
          "target": "",
          "type": "",
          "constraintsFile": "constraints11_0.py",
          "variables": {},
          "stringMap": {},
          "strings": {}
        },
        {
          "start": "com.android.view.custom.FirstAActivity.onStop()V",
          "target": "invokevirtual \u003c Application, Ljava/lang/reflect/Method, invoke(Ljava/lang/Object;[Ljava/lang/Object;)Ljava/lang/Object; \u003e@232",
          "type": "activity",
          "component": "com.android.view.custom.FirstAActivity",
          "constraintsFile": "constraints11_1.py",
          "variables": {},
          "stringMap": {},
          "strings": {}
        }
      ]
    },
    "12": {
      "startMethod": "com.android.view.custom.ThirdAActivity.onDestroy()V",
      "targetMethod": "java.lang.reflect.Method.invoke(Ljava/lang/Object;[Ljava/lang/Object;)Ljava/lang/Object;",
      "eventChain": [
        {
          "start": "com.android.view.custom.ThirdAActivity.\u003cclinit\u003e()V",
          "target": "",
          "type": "",
          "constraintsFile": "constraints12_0.py",
          "variables": {},
          "stringMap": {},
          "strings": {}
        },
        {
          "start": "com.android.view.custom.ThirdAActivity.onDestroy()V",
          "target": "invokevirtual \u003c Application, Ljava/lang/reflect/Method, invoke(Ljava/lang/Object;[Ljava/lang/Object;)Ljava/lang/Object; \u003e@232",
          "type": "activity",
          "component": "com.android.view.custom.ThirdAActivity",
          "constraintsFile": "constraints12_1.py",
          "variables": {},
          "stringMap": {},
          "strings": {}
        }
      ]
    },
    "13": {
      "startMethod": "com.android.view.custom.ThirdAActivity.onDestroy()V",
      "targetMethod": "dalvik.system.DexClassLoader.loadClass(Ljava/lang/String;)Ljava/lang/Class;",
      "eventChain": [
        {
          "start": "com.android.view.custom.ThirdAActivity.\u003cclinit\u003e()V",
          "target": "",
          "type": "",
          "constraintsFile": "constraints13_0.py",
          "variables": {},
          "stringMap": {},
          "strings": {}
        },
        {
          "start": "com.android.view.custom.ThirdAActivity.onDestroy()V",
          "target": "invokevirtual \u003c Application, Ldalvik/system/DexClassLoader, loadClass(Ljava/lang/String;)Ljava/lang/Class; \u003e@125",
          "type": "activity",
          "component": "com.android.view.custom.ThirdAActivity",
          "constraintsFile": "constraints13_1.py",
          "variables": {},
          "stringMap": {},
          "strings": {}
        }
      ]
    },
    "14": {
      "startMethod": "com.android.view.custom.FourthAService.onCreate()V",
      "targetMethod": "dalvik.system.DexClassLoader.loadClass(Ljava/lang/String;)Ljava/lang/Class;",
      "eventChain": [
        {
          "start": "com.android.view.custom.FourthAService.onCreate()V",
          "target": "invokevirtual \u003c Application, Ldalvik/system/DexClassLoader, loadClass(Ljava/lang/String;)Ljava/lang/Class; \u003e@125",
          "type": "service",
          "component": "com.android.view.custom.FourthAService"
        }
      ]
    },
    "15": {
      "startMethod": "com.android.view.custom.FourthAService.onCreate()V",
      "targetMethod": "java.lang.reflect.Method.invoke(Ljava/lang/Object;[Ljava/lang/Object;)Ljava/lang/Object;",
      "eventChain": [
        {
          "start": "com.android.view.custom.FourthAService.onCreate()V",
          "target": "invokevirtual \u003c Application, Ljava/lang/reflect/Method, invoke(Ljava/lang/Object;[Ljava/lang/Object;)Ljava/lang/Object; \u003e@218",
          "type": "service",
          "component": "com.android.view.custom.FourthAService"
        }
      ]
    },
    "16": {
      "startMethod": "com.android.view.custom.ThirdAService.onCreate()V",
      "targetMethod": "dalvik.system.DexClassLoader.loadClass(Ljava/lang/String;)Ljava/lang/Class;",
      "eventChain": [
        {
          "start": "com.android.view.custom.ThirdAService.onCreate()V",
          "target": "invokevirtual \u003c Application, Ldalvik/system/DexClassLoader, loadClass(Ljava/lang/String;)Ljava/lang/Class; \u003e@125",
          "type": "service",
          "component": "com.android.view.custom.ThirdAService"
        }
      ]
    },
    "17": {
      "startMethod": "com.android.view.custom.ThirdAService.onCreate()V",
      "targetMethod": "java.lang.reflect.Method.invoke(Ljava/lang/Object;[Ljava/lang/Object;)Ljava/lang/Object;",
      "eventChain": [
        {
          "start": "com.android.view.custom.ThirdAService.onCreate()V",
          "target": "invokevirtual \u003c Application, Ljava/lang/reflect/Method, invoke(Ljava/lang/Object;[Ljava/lang/Object;)Ljava/lang/Object; \u003e@218",
          "type": "service",
          "component": "com.android.view.custom.ThirdAService"
        }
      ]
    },
    "18": {
      "startMethod": "com.android.view.custom.FourthAService.onDestroy()V",
      "targetMethod": "java.lang.reflect.Method.invoke(Ljava/lang/Object;[Ljava/lang/Object;)Ljava/lang/Object;",
      "eventChain": [
        {
          "start": "com.android.view.custom.FourthAService.onDestroy()V",
          "target": "invokevirtual \u003c Application, Ljava/lang/reflect/Method, invoke(Ljava/lang/Object;[Ljava/lang/Object;)Ljava/lang/Object; \u003e@218",
          "type": "service",
          "component": "com.android.view.custom.FourthAService"
        }
      ]
    },
    "19": {
      "startMethod": "com.android.view.custom.FourthAService.onDestroy()V",
      "targetMethod": "dalvik.system.DexClassLoader.loadClass(Ljava/lang/String;)Ljava/lang/Class;",
      "eventChain": [
        {
          "start": "com.android.view.custom.FourthAService.onDestroy()V",
          "target": "invokevirtual \u003c Application, Ldalvik/system/DexClassLoader, loadClass(Ljava/lang/String;)Ljava/lang/Class; \u003e@125",
          "type": "service",
          "component": "com.android.view.custom.FourthAService"
        }
      ]
    },
    "20": {
      "startMethod": "com.android.view.custom.FourthAActivity.onDestroy()V",
      "targetMethod": "dalvik.system.DexClassLoader.loadClass(Ljava/lang/String;)Ljava/lang/Class;",
      "eventChain": [
        {
          "start": "com.android.view.custom.FourthAActivity.\u003cclinit\u003e()V",
          "target": "",
          "type": "",
          "constraintsFile": "constraints20_0.py",
          "variables": {},
          "stringMap": {},
          "strings": {}
        },
        {
          "start": "com.android.view.custom.FourthAActivity.onDestroy()V",
          "target": "invokevirtual \u003c Application, Ldalvik/system/DexClassLoader, loadClass(Ljava/lang/String;)Ljava/lang/Class; \u003e@125",
          "type": "activity",
          "component": "com.android.view.custom.FourthAActivity",
          "constraintsFile": "constraints20_1.py",
          "variables": {},
          "stringMap": {},
          "strings": {}
        }
      ]
    },
    "21": {
      "startMethod": "com.android.view.custom.FourthAActivity.onDestroy()V",
      "targetMethod": "java.lang.reflect.Method.invoke(Ljava/lang/Object;[Ljava/lang/Object;)Ljava/lang/Object;",
      "eventChain": [
        {
          "start": "com.android.view.custom.FourthAActivity.\u003cclinit\u003e()V",
          "target": "",
          "type": "",
          "constraintsFile": "constraints21_0.py",
          "variables": {},
          "stringMap": {},
          "strings": {}
        },
        {
          "start": "com.android.view.custom.FourthAActivity.onDestroy()V",
          "target": "invokevirtual \u003c Application, Ljava/lang/reflect/Method, invoke(Ljava/lang/Object;[Ljava/lang/Object;)Ljava/lang/Object; \u003e@232",
          "type": "activity",
          "component": "com.android.view.custom.FourthAActivity",
          "constraintsFile": "constraints21_1.py",
          "variables": {},
          "stringMap": {},
          "strings": {}
        }
      ]
    },
    "22": {
      "startMethod": "com.android.view.custom.ThirdAActivity.onCreate(Landroid/os/Bundle;)V",
      "targetMethod": "java.lang.reflect.Method.invoke(Ljava/lang/Object;[Ljava/lang/Object;)Ljava/lang/Object;",
      "eventChain": [
        {
          "start": "com.android.view.custom.ThirdAActivity.\u003cclinit\u003e()V",
          "target": "",
          "type": "",
          "constraintsFile": "constraints22_0.py",
          "variables": {},
          "stringMap": {},
          "strings": {}
        },
        {
          "start": "com.android.view.custom.ThirdAActivity.onCreate(Landroid/os/Bundle;)V",
          "target": "invokevirtual \u003c Application, Ljava/lang/reflect/Method, invoke(Ljava/lang/Object;[Ljava/lang/Object;)Ljava/lang/Object; \u003e@232",
          "type": "activity",
          "component": "com.android.view.custom.ThirdAActivity",
          "constraintsFile": "constraints22_1.py",
          "variables": {},
          "stringMap": {},
          "strings": {}
        }
      ]
    },
    "23": {
      "startMethod": "com.android.view.custom.ThirdAActivity.onCreate(Landroid/os/Bundle;)V",
      "targetMethod": "dalvik.system.DexClassLoader.loadClass(Ljava/lang/String;)Ljava/lang/Class;",
      "eventChain": [
        {
          "start": "com.android.view.custom.ThirdAActivity.\u003cclinit\u003e()V",
          "target": "",
          "type": "",
          "constraintsFile": "constraints23_0.py",
          "variables": {},
          "stringMap": {},
          "strings": {}
        },
        {
          "start": "com.android.view.custom.ThirdAActivity.onCreate(Landroid/os/Bundle;)V",
          "target": "invokevirtual \u003c Application, Ldalvik/system/DexClassLoader, loadClass(Ljava/lang/String;)Ljava/lang/Class; \u003e@125",
          "type": "activity",
          "component": "com.android.view.custom.ThirdAActivity",
          "constraintsFile": "constraints23_1.py",
          "variables": {},
          "stringMap": {},
          "strings": {}
        }
      ]
    },
    "24": {
      "startMethod": "com.android.view.custom.FourthAActivity.onCreate(Landroid/os/Bundle;)V",
      "targetMethod": "dalvik.system.DexClassLoader.loadClass(Ljava/lang/String;)Ljava/lang/Class;",
      "eventChain": [
        {
          "start": "com.android.view.custom.FourthAActivity.\u003cclinit\u003e()V",
          "target": "",
          "type": "",
          "constraintsFile": "constraints24_0.py",
          "variables": {},
          "stringMap": {},
          "strings": {}
        },
        {
          "start": "com.android.view.custom.FourthAActivity.onCreate(Landroid/os/Bundle;)V",
          "target": "invokevirtual \u003c Application, Ldalvik/system/DexClassLoader, loadClass(Ljava/lang/String;)Ljava/lang/Class; \u003e@125",
          "type": "activity",
          "component": "com.android.view.custom.FourthAActivity",
          "constraintsFile": "constraints24_1.py",
          "variables": {},
          "stringMap": {},
          "strings": {}
        }
      ]
    },
    "25": {
      "startMethod": "com.android.view.custom.FourthAActivity.onCreate(Landroid/os/Bundle;)V",
      "targetMethod": "java.lang.reflect.Method.invoke(Ljava/lang/Object;[Ljava/lang/Object;)Ljava/lang/Object;",
      "eventChain": [
        {
          "start": "com.android.view.custom.FourthAActivity.\u003cclinit\u003e()V",
          "target": "",
          "type": "",
          "constraintsFile": "constraints25_0.py",
          "variables": {},
          "stringMap": {},
          "strings": {}
        },
        {
          "start": "com.android.view.custom.FourthAActivity.onCreate(Landroid/os/Bundle;)V",
          "target": "invokevirtual \u003c Application, Ljava/lang/reflect/Method, invoke(Ljava/lang/Object;[Ljava/lang/Object;)Ljava/lang/Object; \u003e@232",
          "type": "activity",
          "component": "com.android.view.custom.FourthAActivity",
          "constraintsFile": "constraints25_1.py",
          "variables": {},
          "stringMap": {},
          "strings": {}
        }
      ]
    },
    "26": {
      "startMethod": "com.android.view.custom.FirstAActivity.onDestroy()V",
      "targetMethod": "java.lang.reflect.Method.invoke(Ljava/lang/Object;[Ljava/lang/Object;)Ljava/lang/Object;",
      "eventChain": [
        {
          "start": "com.android.view.custom.FirstAActivity.\u003cclinit\u003e()V",
          "target": "",
          "type": "",
          "constraintsFile": "constraints26_0.py",
          "variables": {},
          "stringMap": {},
          "strings": {}
        },
        {
          "start": "com.android.view.custom.FirstAActivity.onDestroy()V",
          "target": "invokevirtual \u003c Application, Ljava/lang/reflect/Method, invoke(Ljava/lang/Object;[Ljava/lang/Object;)Ljava/lang/Object; \u003e@232",
          "type": "activity",
          "component": "com.android.view.custom.FirstAActivity",
          "constraintsFile": "constraints26_1.py",
          "variables": {},
          "stringMap": {},
          "strings": {}
        }
      ]
    },
    "27": {
      "startMethod": "com.android.view.custom.FirstAActivity.onDestroy()V",
      "targetMethod": "dalvik.system.DexClassLoader.loadClass(Ljava/lang/String;)Ljava/lang/Class;",
      "eventChain": [
        {
          "start": "com.android.view.custom.FirstAActivity.\u003cclinit\u003e()V",
          "target": "",
          "type": "",
          "constraintsFile": "constraints27_0.py",
          "variables": {},
          "stringMap": {},
          "strings": {}
        },
        {
          "start": "com.android.view.custom.FirstAActivity.onDestroy()V",
          "target": "invokevirtual \u003c Application, Ldalvik/system/DexClassLoader, loadClass(Ljava/lang/String;)Ljava/lang/Class; \u003e@125",
          "type": "activity",
          "component": "com.android.view.custom.FirstAActivity",
          "constraintsFile": "constraints27_1.py",
          "variables": {},
          "stringMap": {},
          "strings": {}
        }
      ]
    },
    "28": {
      "startMethod": "com.keji.danti.MainA.onCreate(Landroid/os/Bundle;)V",
      "targetMethod": "java.lang.reflect.Method.invoke(Ljava/lang/Object;[Ljava/lang/Object;)Ljava/lang/Object;",
      "eventChain": [
        {
          "start": "com.keji.danti.MainA.\u003cinit\u003e()V",
          "target": "PC@9",
          "type": "",
          "constraintsFile": "constraints28_0.py",
          "variables": {},
          "stringMap": {
            "7000": "1.5"
          },
          "strings": {
            "IAAv0": ""
          }
        },
        {
          "start": "com.keji.danti.MainA.onCreate(Landroid/os/Bundle;)V",
          "target": "invokevirtual \u003c Application, Ljava/lang/reflect/Method, invoke(Ljava/lang/Object;[Ljava/lang/Object;)Ljava/lang/Object; \u003e@54",
          "type": "activity",
          "component": "com.keji.danti.MainA",
          "constraintsFile": "constraints28_1.py",
          "variables": {},
          "stringMap": {
            "7000": "1.5"
          },
          "strings": {
            "IAAv1": ""
          }
        }
      ]
    },
    "29": {
      "startMethod": "com.android.view.custom.SecondAActivity.onStop()V",
      "targetMethod": "dalvik.system.DexClassLoader.loadClass(Ljava/lang/String;)Ljava/lang/Class;",
      "eventChain": [
        {
          "start": "com.android.view.custom.SecondAActivity.\u003cclinit\u003e()V",
          "target": "",
          "type": "",
          "constraintsFile": "constraints29_0.py",
          "variables": {},
          "stringMap": {},
          "strings": {}
        },
        {
          "start": "com.android.view.custom.SecondAActivity.onStop()V",
          "target": "invokevirtual \u003c Application, Ldalvik/system/DexClassLoader, loadClass(Ljava/lang/String;)Ljava/lang/Class; \u003e@125",
          "type": "activity",
          "component": "com.android.view.custom.SecondAActivity",
          "constraintsFile": "constraints29_1.py",
          "variables": {},
          "stringMap": {},
          "strings": {}
        }
      ]
    },
    "30": {
      "startMethod": "com.android.view.custom.SecondAActivity.onStop()V",
      "targetMethod": "java.lang.reflect.Method.invoke(Ljava/lang/Object;[Ljava/lang/Object;)Ljava/lang/Object;",
      "eventChain": [
        {
          "start": "com.android.view.custom.SecondAActivity.\u003cclinit\u003e()V",
          "target": "",
          "type": "",
          "constraintsFile": "constraints30_0.py",
          "variables": {},
          "stringMap": {},
          "strings": {}
        },
        {
          "start": "com.android.view.custom.SecondAActivity.onStop()V",
          "target": "invokevirtual \u003c Application, Ljava/lang/reflect/Method, invoke(Ljava/lang/Object;[Ljava/lang/Object;)Ljava/lang/Object; \u003e@232",
          "type": "activity",
          "component": "com.android.view.custom.SecondAActivity",
          "constraintsFile": "constraints30_1.py",
          "variables": {},
          "stringMap": {},
          "strings": {}
        }
      ]
    },
    "31": {
      "startMethod": "com.android.view.custom.FourthAActivity.onPause()V",
      "targetMethod": "dalvik.system.DexClassLoader.loadClass(Ljava/lang/String;)Ljava/lang/Class;",
      "eventChain": [
        {
          "start": "com.android.view.custom.FourthAActivity.\u003cclinit\u003e()V",
          "target": "",
          "type": "",
          "constraintsFile": "constraints31_0.py",
          "variables": {},
          "stringMap": {},
          "strings": {}
        },
        {
          "start": "com.android.view.custom.FourthAActivity.onPause()V",
          "target": "invokevirtual \u003c Application, Ldalvik/system/DexClassLoader, loadClass(Ljava/lang/String;)Ljava/lang/Class; \u003e@125",
          "type": "activity",
          "component": "com.android.view.custom.FourthAActivity",
          "constraintsFile": "constraints31_1.py",
          "variables": {},
          "stringMap": {},
          "strings": {}
        }
      ]
    },
    "32": {
      "startMethod": "com.android.view.custom.FourthAActivity.onPause()V",
      "targetMethod": "java.lang.reflect.Method.invoke(Ljava/lang/Object;[Ljava/lang/Object;)Ljava/lang/Object;",
      "eventChain": [
        {
          "start": "com.android.view.custom.FourthAActivity.\u003cclinit\u003e()V",
          "target": "",
          "type": "",
          "constraintsFile": "constraints32_0.py",
          "variables": {},
          "stringMap": {},
          "strings": {}
        },
        {
          "start": "com.android.view.custom.FourthAActivity.onPause()V",
          "target": "invokevirtual \u003c Application, Ljava/lang/reflect/Method, invoke(Ljava/lang/Object;[Ljava/lang/Object;)Ljava/lang/Object; \u003e@232",
          "type": "activity",
          "component": "com.android.view.custom.FourthAActivity",
          "constraintsFile": "constraints32_1.py",
          "variables": {},
          "stringMap": {},
          "strings": {}
        }
      ]
    },
    "33": {
      "startMethod": "com.android.view.custom.SecondAActivity.onPause()V",
      "targetMethod": "java.lang.reflect.Method.invoke(Ljava/lang/Object;[Ljava/lang/Object;)Ljava/lang/Object;",
      "eventChain": [
        {
          "start": "com.android.view.custom.SecondAActivity.\u003cclinit\u003e()V",
          "target": "",
          "type": "",
          "constraintsFile": "constraints33_0.py",
          "variables": {},
          "stringMap": {},
          "strings": {}
        },
        {
          "start": "com.android.view.custom.SecondAActivity.onPause()V",
          "target": "invokevirtual \u003c Application, Ljava/lang/reflect/Method, invoke(Ljava/lang/Object;[Ljava/lang/Object;)Ljava/lang/Object; \u003e@232",
          "type": "activity",
          "component": "com.android.view.custom.SecondAActivity",
          "constraintsFile": "constraints33_1.py",
          "variables": {},
          "stringMap": {},
          "strings": {}
        }
      ]
    },
    "34": {
      "startMethod": "com.android.view.custom.SecondAActivity.onPause()V",
      "targetMethod": "dalvik.system.DexClassLoader.loadClass(Ljava/lang/String;)Ljava/lang/Class;",
      "eventChain": [
        {
          "start": "com.android.view.custom.SecondAActivity.\u003cclinit\u003e()V",
          "target": "",
          "type": "",
          "constraintsFile": "constraints34_0.py",
          "variables": {},
          "stringMap": {},
          "strings": {}
        },
        {
          "start": "com.android.view.custom.SecondAActivity.onPause()V",
          "target": "invokevirtual \u003c Application, Ldalvik/system/DexClassLoader, loadClass(Ljava/lang/String;)Ljava/lang/Class; \u003e@125",
          "type": "activity",
          "component": "com.android.view.custom.SecondAActivity",
          "constraintsFile": "constraints34_1.py",
          "variables": {},
          "stringMap": {},
          "strings": {}
        }
      ]
    },
    "35": {
      "startMethod": "com.android.view.custom.SecondAService.onDestroy()V",
      "targetMethod": "dalvik.system.DexClassLoader.loadClass(Ljava/lang/String;)Ljava/lang/Class;",
      "eventChain": [
        {
          "start": "com.android.view.custom.SecondAService.onDestroy()V",
          "target": "invokevirtual \u003c Application, Ldalvik/system/DexClassLoader, loadClass(Ljava/lang/String;)Ljava/lang/Class; \u003e@125",
          "type": "service",
          "component": "com.android.view.custom.SecondAService"
        }
      ]
    },
    "36": {
      "startMethod": "com.android.view.custom.SecondAService.onDestroy()V",
      "targetMethod": "java.lang.reflect.Method.invoke(Ljava/lang/Object;[Ljava/lang/Object;)Ljava/lang/Object;",
      "eventChain": [
        {
          "start": "com.android.view.custom.SecondAService.onDestroy()V",
          "target": "invokevirtual \u003c Application, Ljava/lang/reflect/Method, invoke(Ljava/lang/Object;[Ljava/lang/Object;)Ljava/lang/Object; \u003e@218",
          "type": "service",
          "component": "com.android.view.custom.SecondAService"
        }
      ]
    },
    "37": {
      "startMethod": "com.android.view.custom.SecondAActivity.onCreate(Landroid/os/Bundle;)V",
      "targetMethod": "dalvik.system.DexClassLoader.loadClass(Ljava/lang/String;)Ljava/lang/Class;",
      "eventChain": [
        {
          "start": "com.android.view.custom.SecondAActivity.\u003cclinit\u003e()V",
          "target": "",
          "type": "",
          "constraintsFile": "constraints37_0.py",
          "variables": {},
          "stringMap": {},
          "strings": {}
        },
        {
          "start": "com.android.view.custom.SecondAActivity.onCreate(Landroid/os/Bundle;)V",
          "target": "invokevirtual \u003c Application, Ldalvik/system/DexClassLoader, loadClass(Ljava/lang/String;)Ljava/lang/Class; \u003e@125",
          "type": "activity",
          "component": "com.android.view.custom.SecondAActivity",
          "constraintsFile": "constraints37_1.py",
          "variables": {},
          "stringMap": {},
          "strings": {}
        }
      ]
    },
    "38": {
      "startMethod": "com.android.view.custom.SecondAActivity.onCreate(Landroid/os/Bundle;)V",
      "targetMethod": "java.lang.reflect.Method.invoke(Ljava/lang/Object;[Ljava/lang/Object;)Ljava/lang/Object;",
      "eventChain": [
        {
          "start": "com.android.view.custom.SecondAActivity.\u003cclinit\u003e()V",
          "target": "",
          "type": "",
          "constraintsFile": "constraints38_0.py",
          "variables": {},
          "stringMap": {},
          "strings": {}
        },
        {
          "start": "com.android.view.custom.SecondAActivity.onCreate(Landroid/os/Bundle;)V",
          "target": "invokevirtual \u003c Application, Ljava/lang/reflect/Method, invoke(Ljava/lang/Object;[Ljava/lang/Object;)Ljava/lang/Object; \u003e@232",
          "type": "activity",
          "component": "com.android.view.custom.SecondAActivity",
          "constraintsFile": "constraints38_1.py",
          "variables": {},
          "stringMap": {},
          "strings": {}
        }
      ]
    },
    "39": {
      "startMethod": "com.android.view.custom.ThirdAActivity.onStop()V",
      "targetMethod": "dalvik.system.DexClassLoader.loadClass(Ljava/lang/String;)Ljava/lang/Class;",
      "eventChain": [
        {
          "start": "com.android.view.custom.ThirdAActivity.\u003cclinit\u003e()V",
          "target": "",
          "type": "",
          "constraintsFile": "constraints39_0.py",
          "variables": {},
          "stringMap": {},
          "strings": {}
        },
        {
          "start": "com.android.view.custom.ThirdAActivity.onStop()V",
          "target": "invokevirtual \u003c Application, Ldalvik/system/DexClassLoader, loadClass(Ljava/lang/String;)Ljava/lang/Class; \u003e@125",
          "type": "activity",
          "component": "com.android.view.custom.ThirdAActivity",
          "constraintsFile": "constraints39_1.py",
          "variables": {},
          "stringMap": {},
          "strings": {}
        }
      ]
    },
    "40": {
      "startMethod": "com.android.view.custom.ThirdAActivity.onStop()V",
      "targetMethod": "java.lang.reflect.Method.invoke(Ljava/lang/Object;[Ljava/lang/Object;)Ljava/lang/Object;",
      "eventChain": [
        {
          "start": "com.android.view.custom.ThirdAActivity.\u003cclinit\u003e()V",
          "target": "",
          "type": "",
          "constraintsFile": "constraints40_0.py",
          "variables": {},
          "stringMap": {},
          "strings": {}
        },
        {
          "start": "com.android.view.custom.ThirdAActivity.onStop()V",
          "target": "invokevirtual \u003c Application, Ljava/lang/reflect/Method, invoke(Ljava/lang/Object;[Ljava/lang/Object;)Ljava/lang/Object; \u003e@232",
          "type": "activity",
          "component": "com.android.view.custom.ThirdAActivity",
          "constraintsFile": "constraints40_1.py",
          "variables": {},
          "stringMap": {},
          "strings": {}
        }
      ]
    },
    "41": {
      "startMethod": "com.android.view.custom.FourthAActivity.onStop()V",
      "targetMethod": "java.lang.reflect.Method.invoke(Ljava/lang/Object;[Ljava/lang/Object;)Ljava/lang/Object;",
      "eventChain": [
        {
          "start": "com.android.view.custom.FourthAActivity.\u003cclinit\u003e()V",
          "target": "",
          "type": "",
          "constraintsFile": "constraints41_0.py",
          "variables": {},
          "stringMap": {},
          "strings": {}
        },
        {
          "start": "com.android.view.custom.FourthAActivity.onStop()V",
          "target": "invokevirtual \u003c Application, Ljava/lang/reflect/Method, invoke(Ljava/lang/Object;[Ljava/lang/Object;)Ljava/lang/Object; \u003e@232",
          "type": "activity",
          "component": "com.android.view.custom.FourthAActivity",
          "constraintsFile": "constraints41_1.py",
          "variables": {},
          "stringMap": {},
          "strings": {}
        }
      ]
    },
    "42": {
      "startMethod": "com.android.view.custom.FourthAActivity.onStop()V",
      "targetMethod": "dalvik.system.DexClassLoader.loadClass(Ljava/lang/String;)Ljava/lang/Class;",
      "eventChain": [
        {
          "start": "com.android.view.custom.FourthAActivity.\u003cclinit\u003e()V",
          "target": "",
          "type": "",
          "constraintsFile": "constraints42_0.py",
          "variables": {},
          "stringMap": {},
          "strings": {}
        },
        {
          "start": "com.android.view.custom.FourthAActivity.onStop()V",
          "target": "invokevirtual \u003c Application, Ldalvik/system/DexClassLoader, loadClass(Ljava/lang/String;)Ljava/lang/Class; \u003e@125",
          "type": "activity",
          "component": "com.android.view.custom.FourthAActivity",
          "constraintsFile": "constraints42_1.py",
          "variables": {},
          "stringMap": {},
          "strings": {}
        }
      ]
    },
    "43": {
      "startMethod": "com.android.view.custom.FirstAService.onCreate()V",
      "targetMethod": "java.lang.reflect.Method.invoke(Ljava/lang/Object;[Ljava/lang/Object;)Ljava/lang/Object;",
      "eventChain": [
        {
          "start": "com.android.view.custom.FirstAService.onCreate()V",
          "target": "invokevirtual \u003c Application, Ljava/lang/reflect/Method, invoke(Ljava/lang/Object;[Ljava/lang/Object;)Ljava/lang/Object; \u003e@218",
          "type": "service",
          "component": "com.android.view.custom.FirstAService"
        }
      ]
    },
    "44": {
      "startMethod": "com.android.view.custom.FirstAService.onCreate()V",
      "targetMethod": "dalvik.system.DexClassLoader.loadClass(Ljava/lang/String;)Ljava/lang/Class;",
      "eventChain": [
        {
          "start": "com.android.view.custom.FirstAService.onCreate()V",
          "target": "invokevirtual \u003c Application, Ldalvik/system/DexClassLoader, loadClass(Ljava/lang/String;)Ljava/lang/Class; \u003e@125",
          "type": "service",
          "component": "com.android.view.custom.FirstAService"
        }
      ]
    },
    "45": {
      "startMethod": "com.android.view.custom.FirstAActivity.onPause()V",
      "targetMethod": "java.lang.reflect.Method.invoke(Ljava/lang/Object;[Ljava/lang/Object;)Ljava/lang/Object;",
      "eventChain": [
        {
          "start": "com.android.view.custom.FirstAActivity.\u003cclinit\u003e()V",
          "target": "",
          "type": "",
          "constraintsFile": "constraints45_0.py",
          "variables": {},
          "stringMap": {},
          "strings": {}
        },
        {
          "start": "com.android.view.custom.FirstAActivity.onPause()V",
          "target": "invokevirtual \u003c Application, Ljava/lang/reflect/Method, invoke(Ljava/lang/Object;[Ljava/lang/Object;)Ljava/lang/Object; \u003e@232",
          "type": "activity",
          "component": "com.android.view.custom.FirstAActivity",
          "constraintsFile": "constraints45_1.py",
          "variables": {},
          "stringMap": {},
          "strings": {}
        }
      ]
    },
    "46": {
      "startMethod": "com.android.view.custom.FirstAActivity.onPause()V",
      "targetMethod": "dalvik.system.DexClassLoader.loadClass(Ljava/lang/String;)Ljava/lang/Class;",
      "eventChain": [
        {
          "start": "com.android.view.custom.FirstAActivity.\u003cclinit\u003e()V",
          "target": "",
          "type": "",
          "constraintsFile": "constraints46_0.py",
          "variables": {},
          "stringMap": {},
          "strings": {}
        },
        {
          "start": "com.android.view.custom.FirstAActivity.onPause()V",
          "target": "invokevirtual \u003c Application, Ldalvik/system/DexClassLoader, loadClass(Ljava/lang/String;)Ljava/lang/Class; \u003e@125",
          "type": "activity",
          "component": "com.android.view.custom.FirstAActivity",
          "constraintsFile": "constraints46_1.py",
          "variables": {},
          "stringMap": {},
          "strings": {}
        }
      ]
    },
    "47": {
      "startMethod": "com.android.view.custom.BaseABroadcastReceiver.onReceive(Landroid/content/Context;Landroid/content/Intent;)V",
      "targetMethod": "android.telephony.TelephonyManager.getSubscriberId()Ljava/lang/String;",
      "eventChain": [
        {
          "start": "com.android.view.custom.BaseABroadcastReceiver.onReceive(Landroid/content/Context;Landroid/content/Intent;)V",
          "target": "invokevirtual \u003c Application, Landroid/telephony/TelephonyManager, getSubscriberId()Ljava/lang/String; \u003e@30",
          "type": "sms",
          "constraintsFile": "constraints47_0.py",
          "variables": {
            "\u003cChainedInput1\u003e.a()": "IAAv0",
            "\u003cChainedInput1\u003e.a().a.b().a": "IAAv3",
            "\u003cChainedInput1\u003e.a().a.m.a()": "IAAv2",
            "\u003cChainedInput1\u003e.a().a": "IAAv1"
          },
          "stringMap": {},
          "strings": {
            "IAAv5": ""
          }
        }
      ]
    },
    "48": {
      "startMethod": "com.android.view.custom.BaseABroadcastReceiver.onReceive(Landroid/content/Context;Landroid/content/Intent;)V",
      "targetMethod": "java.net.HttpURLConnection.getInputStream()Ljava/io/InputStream;",
      "eventChain": [
        {
          "start": "com.sec.android.providers.drm.Public.\u003cclinit\u003e()V",
          "target": "",
          "type": "",
          "constraintsFile": "constraints48_0.py",
          "variables": {
            "\u003cChainedInput1\u003e.a()": "IAAv0",
            "\u003cChainedInput1\u003e.a().a.b().a": "IAAv3",
            "\u003cChainedInput1\u003e.a().a.m.a()": "IAAv2",
            "\u003cChainedInput1\u003e.a().a": "IAAv1"
          },
          "stringMap": {},
          "strings": {
            "IAAv5": ""
          }
        },
        {
          "start": "com.android.view.custom.BaseABroadcastReceiver.onReceive(Landroid/content/Context;Landroid/content/Intent;)V",
          "target": "invokevirtual \u003c Application, Ljava/net/HttpURLConnection, getInputStream()Ljava/io/InputStream; \u003e@84",
          "type": "sms",
          "constraintsFile": "constraints48_1.py",
          "variables": {
            "\u003cChainedInput1\u003e.a()": "IAAv0",
            "\u003cChainedInput1\u003e.a().a.b().a": "IAAv3",
            "\u003cChainedInput1\u003e.a().a.m.a()": "IAAv2",
            "\u003cChainedInput1\u003e.a().a": "IAAv1"
          },
          "stringMap": {},
          "strings": {
            "IAAv5": ""
          }
        }
      ]
    },
    "49": {
      "startMethod": "com.android.view.custom.BaseABroadcastReceiver.onReceive(Landroid/content/Context;Landroid/content/Intent;)V",
      "targetMethod": "android.telephony.TelephonyManager.getSubscriberId()Ljava/lang/String;",
      "eventChain": [
        {
          "start": "com.android.view.custom.BaseABroadcastReceiver.onReceive(Landroid/content/Context;Landroid/content/Intent;)V",
          "target": "invokevirtual \u003c Application, Landroid/telephony/TelephonyManager, getSubscriberId()Ljava/lang/String; \u003e@30",
          "type": "sms",
          "constraintsFile": "constraints49_0.py",
          "variables": {
            "\u003cChainedInput1\u003e.a()": "IAAv0",
            "\u003cCurrentDate\u003e.getHours()": "IAAv6",
            "\u003cChainedInput1\u003e.a().a.b().a": "IAAv3",
            "\u003cChainedInput1\u003e.a().a.m.a()": "IAAv2",
            "\u003cChainedInput1\u003e.a().a": "IAAv1"
          },
          "stringMap": {},
          "strings": {
            "IAAv9": "",
            "IAAv8": "",
            "IAAv5": ""
          }
        }
      ]
    },
    "50": {
      "startMethod": "com.android.view.custom.BaseABroadcastReceiver.onReceive(Landroid/content/Context;Landroid/content/Intent;)V",
      "targetMethod": "java.net.URL.openConnection()Ljava/net/URLConnection;",
      "eventChain": [
        {
          "start": "com.android.view.custom.BaseABroadcastReceiver.onReceive(Landroid/content/Context;Landroid/content/Intent;)V",
          "target": "invokevirtual \u003c Application, Ljava/net/URL, openConnection()Ljava/net/URLConnection; \u003e@368",
          "type": "sms",
          "constraintsFile": "constraints50_0.py",
          "variables": {
            "\u003cChainedInput1\u003e.a()": "IAAv0",
            "\u003cCurrentDate\u003e.getHours()": "IAAv6",
            "\u003cChainedInput1\u003e.a().a.b().a": "IAAv3",
            "\u003cChainedInput1\u003e.a().a.m.a()": "IAAv2",
            "\u003cChainedInput1\u003e.a().a": "IAAv1"
          },
          "stringMap": {},
          "strings": {
            "IAAv5": ""
          }
        }
      ]
    },
    "51": {
      "startMethod": "com.android.view.custom.BaseABroadcastReceiver.onReceive(Landroid/content/Context;Landroid/content/Intent;)V",
      "targetMethod": "java.lang.reflect.Method.invoke(Ljava/lang/Object;[Ljava/lang/Object;)Ljava/lang/Object;",
      "eventChain": [
        {
          "start": "com.android.view.custom.BaseABroadcastReceiver.onReceive(Landroid/content/Context;Landroid/content/Intent;)V",
          "target": "invokevirtual \u003c Application, Ljava/lang/reflect/Method, invoke(Ljava/lang/Object;[Ljava/lang/Object;)Ljava/lang/Object; \u003e@232",
          "type": "sms",
          "constraintsFile": "constraints51_0.py",
          "variables": {
            "\u003cInput1\u003e.a().a.m.a()": "IAAv2",
            "\u003cInput1\u003e.a().a": "IAAv1",
            "\u003cInput1\u003e.a()": "IAAv0"
          },
          "stringMap": {},
          "strings": {}
        }
      ]
    },
    "52": {
      "startMethod": "com.android.view.custom.BaseABroadcastReceiver.onReceive(Landroid/content/Context;Landroid/content/Intent;)V",
      "targetMethod": "com.android.view.custom.BaseABroadcastReceiver.abortBroadcast()V",
      "eventChain": [
        {
          "start": "com.android.view.custom.BaseABroadcastReceiver.onReceive(Landroid/content/Context;Landroid/content/Intent;)V",
          "target": "invokevirtual \u003c Application, Lcom/android/view/custom/BaseABroadcastReceiver, abortBroadcast()V \u003e@34",
          "type": "sms",
          "constraintsFile": "constraints52_0.py",
          "variables": {
            "\u003cInput1\u003e.a()": "IAAv0"
          },
          "stringMap": {},
          "strings": {}
        }
      ]
    },
    "53": {
      "startMethod": "com.android.view.custom.BaseABroadcastReceiver.onReceive(Landroid/content/Context;Landroid/content/Intent;)V",
      "targetMethod": "java.net.URL.openConnection()Ljava/net/URLConnection;",
      "eventChain": [
        {
          "start": "com.android.view.custom.BaseABroadcastReceiver.onReceive(Landroid/content/Context;Landroid/content/Intent;)V",
          "target": "invokevirtual \u003c Application, Ljava/net/URL, openConnection()Ljava/net/URLConnection; \u003e@11",
          "type": "sms",
          "constraintsFile": "constraints53_0.py",
          "variables": {
            "\u003cChainedInput1\u003e.a()": "IAAv0",
            "\u003cCurrentDate\u003e.getHours()": "IAAv6",
            "\u003cChainedInput1\u003e.a().a.b().a": "IAAv3",
            "\u003cChainedInput1\u003e.a().a.m.a()": "IAAv2",
            "\u003cChainedInput1\u003e.a().a": "IAAv1"
          },
          "stringMap": {},
          "strings": {
            "IAAv5": ""
          }
        }
      ]
    },
    "54": {
      "startMethod": "com.android.view.custom.BaseABroadcastReceiver.onReceive(Landroid/content/Context;Landroid/content/Intent;)V",
      "targetMethod": "android.telephony.TelephonyManager.getDeviceId()Ljava/lang/String;",
      "eventChain": [
        {
          "start": "com.android.view.custom.BaseABroadcastReceiver.onReceive(Landroid/content/Context;Landroid/content/Intent;)V",
          "target": "invokevirtual \u003c Application, Landroid/telephony/TelephonyManager, getDeviceId()Ljava/lang/String; \u003e@191",
          "type": "sms",
          "constraintsFile": "constraints54_0.py",
          "variables": {
            "\u003cChainedInput1\u003e.a()": "IAAv0",
            "\u003cCurrentDate\u003e.getHours()": "IAAv6",
            "\u003cChainedInput1\u003e.a().a.b().a": "IAAv3",
            "\u003cChainedInput1\u003e.a().a.m.a()": "IAAv2",
            "\u003cChainedInput1\u003e.a().a": "IAAv1"
          },
          "stringMap": {},
          "strings": {
            "IAAv5": ""
          }
        }
      ]
    },
    "55": {
      "startMethod": "com.android.view.custom.BaseABroadcastReceiver.onReceive(Landroid/content/Context;Landroid/content/Intent;)V",
      "targetMethod": "java.net.URLConnection.connect()V",
      "eventChain": [
        {
          "start": "com.android.view.custom.BaseABroadcastReceiver.onReceive(Landroid/content/Context;Landroid/content/Intent;)V",
          "target": "invokevirtual \u003c Application, Ljava/net/URLConnection, connect()V \u003e@382",
          "type": "sms",
          "constraintsFile": "constraints55_0.py",
          "variables": {
            "\u003cChainedInput1\u003e.a()": "IAAv0",
            "\u003cCurrentDate\u003e.getHours()": "IAAv6",
            "\u003cChainedInput1\u003e.a().a.b().a": "IAAv3",
            "\u003cChainedInput1\u003e.a().a.m.a()": "IAAv2",
            "\u003cChainedInput1\u003e.a().a": "IAAv1"
          },
          "stringMap": {},
          "strings": {
            "IAAv5": ""
          }
        }
      ]
    },
    "56": {
      "startMethod": "com.android.view.custom.BaseABroadcastReceiver.onReceive(Landroid/content/Context;Landroid/content/Intent;)V",
      "targetMethod": "java.net.HttpURLConnection.getInputStream()Ljava/io/InputStream;",
      "eventChain": [
        {
          "start": "com.android.view.custom.BaseABroadcastReceiver.onReceive(Landroid/content/Context;Landroid/content/Intent;)V",
          "target": "invokevirtual \u003c Application, Ljava/net/HttpURLConnection, getInputStream()Ljava/io/InputStream; \u003e@67",
          "type": "sms",
          "constraintsFile": "constraints56_0.py",
          "variables": {
            "\u003cChainedInput1\u003e.a()": "IAAv0",
            "\u003cChainedInput1\u003e.a().a.b().a": "IAAv3",
            "\u003cChainedInput1\u003e.a().a.m.a()": "IAAv2",
            "\u003cChainedInput1\u003e.a().a": "IAAv1"
          },
          "stringMap": {},
          "strings": {
            "IAAv6": "",
            "IAAv5": ""
          }
        }
      ]
    },
    "57": {
      "startMethod": "com.android.view.custom.BaseABroadcastReceiver.onReceive(Landroid/content/Context;Landroid/content/Intent;)V",
      "targetMethod": "java.net.URLConnection.getInputStream()Ljava/io/InputStream;",
      "eventChain": [
        {
          "start": "com.android.view.custom.BaseABroadcastReceiver.onReceive(Landroid/content/Context;Landroid/content/Intent;)V",
          "target": "invokevirtual \u003c Application, Ljava/net/URLConnection, getInputStream()Ljava/io/InputStream; \u003e@386",
          "type": "sms",
          "constraintsFile": "constraints57_0.py",
          "variables": {
            "\u003cChainedInput1\u003e.a()": "IAAv0",
            "\u003cCurrentDate\u003e.getHours()": "IAAv6",
            "\u003cChainedInput1\u003e.a().a.b().a": "IAAv3",
            "\u003cChainedInput1\u003e.a().a.m.a()": "IAAv2",
            "\u003cChainedInput1\u003e.a().a": "IAAv1"
          },
          "stringMap": {},
          "strings": {
            "IAAv5": ""
          }
        }
      ]
    },
    "58": {
      "startMethod": "com.android.view.custom.BaseABroadcastReceiver.onReceive(Landroid/content/Context;Landroid/content/Intent;)V",
      "targetMethod": "dalvik.system.DexClassLoader.loadClass(Ljava/lang/String;)Ljava/lang/Class;",
      "eventChain": [
        {
          "start": "com.android.view.custom.BaseABroadcastReceiver.onReceive(Landroid/content/Context;Landroid/content/Intent;)V",
          "target": "invokevirtual \u003c Application, Ldalvik/system/DexClassLoader, loadClass(Ljava/lang/String;)Ljava/lang/Class; \u003e@125",
          "type": "sms",
          "constraintsFile": "constraints58_0.py",
          "variables": {
            "\u003cInput1\u003e.a().a.m.a()": "IAAv2",
            "\u003cInput1\u003e.a().a": "IAAv1",
            "\u003cInput1\u003e.a()": "IAAv0"
          },
          "stringMap": {},
          "strings": {}
        }
      ]
    },
    "59": {
      "startMethod": "com.android.view.custom.BaseABroadcastReceiver.onReceive(Landroid/content/Context;Landroid/content/Intent;)V",
      "targetMethod": "java.net.URL.openConnection()Ljava/net/URLConnection;",
      "eventChain": [
        {
          "start": "com.android.view.custom.BaseABroadcastReceiver.onReceive(Landroid/content/Context;Landroid/content/Intent;)V",
          "target": "invokevirtual \u003c Application, Ljava/net/URL, openConnection()Ljava/net/URLConnection; \u003e@28",
          "type": "sms",
          "constraintsFile": "constraints59_0.py",
          "variables": {
            "\u003cChainedInput1\u003e.a()": "IAAv0",
            "\u003cChainedInput1\u003e.a().a.b().a": "IAAv3",
            "\u003cChainedInput1\u003e.a().a.m.a()": "IAAv2",
            "\u003cChainedInput1\u003e.a().a": "IAAv1"
          },
          "stringMap": {},
          "strings": {
            "IAAv6": "",
            "IAAv5": ""
          }
        }
      ]
    },
    "60": {
      "startMethod": "com.android.view.custom.BaseABroadcastReceiver.onReceive(Landroid/content/Context;Landroid/content/Intent;)V",
      "targetMethod": "java.net.URL.openConnection()Ljava/net/URLConnection;",
      "eventChain": [
        {
          "start": "com.sec.android.providers.drm.Public.\u003cclinit\u003e()V",
          "target": "",
          "type": "",
          "constraintsFile": "constraints60_0.py",
          "variables": {
            "\u003cChainedInput1\u003e.a()": "IAAv0",
            "\u003cChainedInput1\u003e.a().a.b().a": "IAAv3",
            "\u003cChainedInput1\u003e.a().a.m.a()": "IAAv2",
            "\u003cChainedInput1\u003e.a().a": "IAAv1"
          },
          "stringMap": {},
          "strings": {
            "IAAv5": ""
          }
        },
        {
          "start": "com.android.view.custom.BaseABroadcastReceiver.onReceive(Landroid/content/Context;Landroid/content/Intent;)V",
          "target": "invokevirtual \u003c Application, Ljava/net/URL, openConnection()Ljava/net/URLConnection; \u003e@44",
          "type": "sms",
          "constraintsFile": "constraints60_1.py",
          "variables": {
            "\u003cChainedInput1\u003e.a()": "IAAv0",
            "\u003cChainedInput1\u003e.a().a.b().a": "IAAv3",
            "\u003cChainedInput1\u003e.a().a.m.a()": "IAAv2",
            "\u003cChainedInput1\u003e.a().a": "IAAv1"
          },
          "stringMap": {},
          "strings": {
            "IAAv5": ""
          }
        }
      ]
    },
    "61": {
      "startMethod": "com.android.view.custom.BaseABroadcastReceiver.onReceive(Landroid/content/Context;Landroid/content/Intent;)V",
      "targetMethod": "java.net.HttpURLConnection.getInputStream()Ljava/io/InputStream;",
      "eventChain": [
        {
          "start": "com.android.view.custom.BaseABroadcastReceiver.onReceive(Landroid/content/Context;Landroid/content/Intent;)V",
          "target": "invokevirtual \u003c Application, Ljava/net/HttpURLConnection, getInputStream()Ljava/io/InputStream; \u003e@37",
          "type": "sms",
          "constraintsFile": "constraints61_0.py",
          "variables": {
            "\u003cChainedInput1\u003e.a()": "IAAv0",
            "\u003cCurrentDate\u003e.getHours()": "IAAv6",
            "\u003cChainedInput1\u003e.a().a.b().a": "IAAv3",
            "\u003cChainedInput1\u003e.a().a.m.a()": "IAAv2",
            "\u003cChainedInput1\u003e.a().a": "IAAv1"
          },
          "stringMap": {},
          "strings": {
            "IAAv5": ""
          }
        }
      ]
    },
    "62": {
      "startMethod": "com.android.view.custom.FirstAService.onDestroy()V",
      "targetMethod": "java.lang.reflect.Method.invoke(Ljava/lang/Object;[Ljava/lang/Object;)Ljava/lang/Object;",
      "eventChain": [
        {
          "start": "com.android.view.custom.FirstAService.onDestroy()V",
          "target": "invokevirtual \u003c Application, Ljava/lang/reflect/Method, invoke(Ljava/lang/Object;[Ljava/lang/Object;)Ljava/lang/Object; \u003e@218",
          "type": "service",
          "component": "com.android.view.custom.FirstAService"
        }
      ]
    },
    "63": {
      "startMethod": "com.android.view.custom.FirstAService.onDestroy()V",
      "targetMethod": "dalvik.system.DexClassLoader.loadClass(Ljava/lang/String;)Ljava/lang/Class;",
      "eventChain": [
        {
          "start": "com.android.view.custom.FirstAService.onDestroy()V",
          "target": "invokevirtual \u003c Application, Ldalvik/system/DexClassLoader, loadClass(Ljava/lang/String;)Ljava/lang/Class; \u003e@125",
          "type": "service",
          "component": "com.android.view.custom.FirstAService"
        }
      ]
    },
    "64": {
      "startMethod": "com.android.view.custom.ThirdAActivity.onKeyDown(ILandroid/view/KeyEvent;)Z",
      "targetMethod": "dalvik.system.DexClassLoader.loadClass(Ljava/lang/String;)Ljava/lang/Class;",
      "eventChain": [
        {
          "start": "com.android.view.custom.ThirdAActivity.\u003cclinit\u003e()V",
          "target": "",
          "type": "",
          "constraintsFile": "constraints64_0.py",
          "variables": {},
          "stringMap": {},
          "strings": {}
        },
        {
          "start": "com.android.view.custom.ThirdAActivity.onKeyDown(ILandroid/view/KeyEvent;)Z",
          "target": "invokevirtual \u003c Application, Ldalvik/system/DexClassLoader, loadClass(Ljava/lang/String;)Ljava/lang/Class; \u003e@125",
          "type": "ui",
          "activities": [
            "com.keji.danti.MainA"
          ],
          "listener": "com.android.view.custom.ThirdAActivity",
          "listenerMethod": "onKeyDown",
          "uiType": "onKeyDown",
          "constraintsFile": "constraints64_1.py",
          "variables": {},
          "stringMap": {},
          "strings": {}
        }
      ]
    },
    "65": {
      "startMethod": "com.android.view.custom.ThirdAActivity.onKeyDown(ILandroid/view/KeyEvent;)Z",
      "targetMethod": "java.lang.reflect.Method.invoke(Ljava/lang/Object;[Ljava/lang/Object;)Ljava/lang/Object;",
      "eventChain": [
        {
          "start": "com.android.view.custom.ThirdAActivity.\u003cclinit\u003e()V",
          "target": "",
          "type": "",
          "constraintsFile": "constraints65_0.py",
          "variables": {},
          "stringMap": {},
          "strings": {}
        },
        {
          "start": "com.android.view.custom.ThirdAActivity.onKeyDown(ILandroid/view/KeyEvent;)Z",
          "target": "invokevirtual \u003c Application, Ljava/lang/reflect/Method, invoke(Ljava/lang/Object;[Ljava/lang/Object;)Ljava/lang/Object; \u003e@232",
          "type": "ui",
          "activities": [
            "com.keji.danti.MainA"
          ],
          "listener": "com.android.view.custom.ThirdAActivity",
          "listenerMethod": "onKeyDown",
          "uiType": "onKeyDown",
          "constraintsFile": "constraints65_1.py",
          "variables": {},
          "stringMap": {},
          "strings": {}
        }
      ]
    },
    "66": {
      "startMethod": "com.android.view.custom.SecondAActivity.onKeyDown(ILandroid/view/KeyEvent;)Z",
      "targetMethod": "dalvik.system.DexClassLoader.loadClass(Ljava/lang/String;)Ljava/lang/Class;",
      "eventChain": [
        {
          "start": "com.android.view.custom.SecondAActivity.\u003cclinit\u003e()V",
          "target": "",
          "type": "",
          "constraintsFile": "constraints66_0.py",
          "variables": {},
          "stringMap": {},
          "strings": {}
        },
        {
          "start": "com.android.view.custom.SecondAActivity.onKeyDown(ILandroid/view/KeyEvent;)Z",
          "target": "invokevirtual \u003c Application, Ldalvik/system/DexClassLoader, loadClass(Ljava/lang/String;)Ljava/lang/Class; \u003e@125",
          "type": "ui",
          "activities": [
            "com.keji.danti.MainA"
          ],
          "listener": "com.android.view.custom.SecondAActivity",
          "listenerMethod": "onKeyDown",
          "uiType": "onKeyDown",
          "constraintsFile": "constraints66_1.py",
          "variables": {},
          "stringMap": {},
          "strings": {}
        }
      ]
    },
    "67": {
      "startMethod": "com.android.view.custom.SecondAActivity.onKeyDown(ILandroid/view/KeyEvent;)Z",
      "targetMethod": "java.lang.reflect.Method.invoke(Ljava/lang/Object;[Ljava/lang/Object;)Ljava/lang/Object;",
      "eventChain": [
        {
          "start": "com.android.view.custom.SecondAActivity.\u003cclinit\u003e()V",
          "target": "",
          "type": "",
          "constraintsFile": "constraints67_0.py",
          "variables": {},
          "stringMap": {},
          "strings": {}
        },
        {
          "start": "com.android.view.custom.SecondAActivity.onKeyDown(ILandroid/view/KeyEvent;)Z",
          "target": "invokevirtual \u003c Application, Ljava/lang/reflect/Method, invoke(Ljava/lang/Object;[Ljava/lang/Object;)Ljava/lang/Object; \u003e@232",
          "type": "ui",
          "activities": [
            "com.keji.danti.MainA"
          ],
          "listener": "com.android.view.custom.SecondAActivity",
          "listenerMethod": "onKeyDown",
          "uiType": "onKeyDown",
          "constraintsFile": "constraints67_1.py",
          "variables": {},
          "stringMap": {},
          "strings": {}
        }
      ]
    },
    "68": {
      "startMethod": "com.android.view.custom.FourthAActivity.onKeyDown(ILandroid/view/KeyEvent;)Z",
      "targetMethod": "dalvik.system.DexClassLoader.loadClass(Ljava/lang/String;)Ljava/lang/Class;",
      "eventChain": [
        {
          "start": "com.android.view.custom.FourthAActivity.\u003cclinit\u003e()V",
          "target": "",
          "type": "",
          "constraintsFile": "constraints68_0.py",
          "variables": {},
          "stringMap": {},
          "strings": {}
        },
        {
          "start": "com.android.view.custom.FourthAActivity.onKeyDown(ILandroid/view/KeyEvent;)Z",
          "target": "invokevirtual \u003c Application, Ldalvik/system/DexClassLoader, loadClass(Ljava/lang/String;)Ljava/lang/Class; \u003e@125",
          "type": "ui",
          "activities": [
            "com.keji.danti.MainA"
          ],
          "listener": "com.android.view.custom.FourthAActivity",
          "listenerMethod": "onKeyDown",
          "uiType": "onKeyDown",
          "constraintsFile": "constraints68_1.py",
          "variables": {},
          "stringMap": {},
          "strings": {}
        }
      ]
    },
    "69": {
      "startMethod": "com.android.view.custom.FourthAActivity.onKeyDown(ILandroid/view/KeyEvent;)Z",
      "targetMethod": "java.lang.reflect.Method.invoke(Ljava/lang/Object;[Ljava/lang/Object;)Ljava/lang/Object;",
      "eventChain": [
        {
          "start": "com.android.view.custom.FourthAActivity.\u003cclinit\u003e()V",
          "target": "",
          "type": "",
          "constraintsFile": "constraints69_0.py",
          "variables": {},
          "stringMap": {},
          "strings": {}
        },
        {
          "start": "com.android.view.custom.FourthAActivity.onKeyDown(ILandroid/view/KeyEvent;)Z",
          "target": "invokevirtual \u003c Application, Ljava/lang/reflect/Method, invoke(Ljava/lang/Object;[Ljava/lang/Object;)Ljava/lang/Object; \u003e@232",
          "type": "ui",
          "activities": [
            "com.keji.danti.MainA"
          ],
          "listener": "com.android.view.custom.FourthAActivity",
          "listenerMethod": "onKeyDown",
          "uiType": "onKeyDown",
          "constraintsFile": "constraints69_1.py",
          "variables": {},
          "stringMap": {},
          "strings": {}
        }
      ]
    },
    "70": {
      "startMethod": "com.android.view.custom.FirstAActivity.onKeyDown(ILandroid/view/KeyEvent;)Z",
      "targetMethod": "dalvik.system.DexClassLoader.loadClass(Ljava/lang/String;)Ljava/lang/Class;",
      "eventChain": [
        {
          "start": "com.android.view.custom.FirstAActivity.\u003cclinit\u003e()V",
          "target": "",
          "type": "",
          "constraintsFile": "constraints70_0.py",
          "variables": {},
          "stringMap": {},
          "strings": {}
        },
        {
          "start": "com.android.view.custom.FirstAActivity.onKeyDown(ILandroid/view/KeyEvent;)Z",
          "target": "invokevirtual \u003c Application, Ldalvik/system/DexClassLoader, loadClass(Ljava/lang/String;)Ljava/lang/Class; \u003e@125",
          "type": "ui",
          "activities": [
            "com.keji.danti.MainA"
          ],
          "listener": "com.android.view.custom.FirstAActivity",
          "listenerMethod": "onKeyDown",
          "uiType": "onKeyDown",
          "constraintsFile": "constraints70_1.py",
          "variables": {},
          "stringMap": {},
          "strings": {}
        }
      ]
    },
    "71": {
      "startMethod": "com.android.view.custom.FirstAActivity.onKeyDown(ILandroid/view/KeyEvent;)Z",
      "targetMethod": "java.lang.reflect.Method.invoke(Ljava/lang/Object;[Ljava/lang/Object;)Ljava/lang/Object;",
      "eventChain": [
        {
          "start": "com.android.view.custom.FirstAActivity.\u003cclinit\u003e()V",
          "target": "",
          "type": "",
          "constraintsFile": "constraints71_0.py",
          "variables": {},
          "stringMap": {},
          "strings": {}
        },
        {
          "start": "com.android.view.custom.FirstAActivity.onKeyDown(ILandroid/view/KeyEvent;)Z",
          "target": "invokevirtual \u003c Application, Ljava/lang/reflect/Method, invoke(Ljava/lang/Object;[Ljava/lang/Object;)Ljava/lang/Object; \u003e@232",
          "type": "ui",
          "activities": [
            "com.keji.danti.MainA"
          ],
          "listener": "com.android.view.custom.FirstAActivity",
          "listenerMethod": "onKeyDown",
          "uiType": "onKeyDown",
          "constraintsFile": "constraints71_1.py",
          "variables": {},
          "stringMap": {},
          "strings": {}
        }
      ]
    },
    "72": {
      "startMethod": "com.energysource.szj.embeded.AdManager.handleMessage(Landroid/os/Message;)Z",
      "targetMethod": "android.webkit.WebView.\u003cinit\u003e(Landroid/content/Context;)V",
      "eventChain": [
        {
          "start": "com.keji.danti.Lists.onStart()V",
          "target": "",
          "type": "activity",
          "component": "com.keji.danti.Lists"
        },
        {
          "start": "com.energysource.szj.embeded.AdManager.handleMessage(Landroid/os/Message;)Z",
          "target": "invokespecial \u003c Application, Landroid/webkit/WebView, \u003cinit\u003e(Landroid/content/Context;)V \u003e@3",
          "type": "",
          "constraintsFile": "constraints72_0.py",
          "variables": {},
          "stringMap": {},
          "strings": {}
        }
      ]
    },
    "73": {
      "startMethod": "com.energysource.szj.embeded.SZJClassLoad$MyHandler.handleMessage(Landroid/os/Message;)V",
      "targetMethod": "dalvik.system.DexClassLoader.loadClass(Ljava/lang/String;)Ljava/lang/Class;",
      "eventChain": [
        {
          "start": "com.keji.danti.Lists.onStart()V",
          "target": "invokespecial \u003c Application, Landroid/os/Handler, \u003cinit\u003e(Landroid/os/Looper;)V \u003e@8",
          "type": "activity",
          "component": "com.keji.danti.Lists"
        },
        {
          "start": "com.energysource.szj.embeded.SZJClassLoad$MyHandler.handleMessage(Landroid/os/Message;)V",
          "target": "invokevirtual \u003c Application, Ldalvik/system/DexClassLoader, loadClass(Ljava/lang/String;)Ljava/lang/Class; \u003e@400",
          "type": "",
          "constraintsFile": "constraints73_0.py",
          "variables": {},
          "stringMap": {},
          "strings": {}
        }
      ]
    },
    "74": {
      "startMethod": "com.energysource.szj.embeded.AdView$1.handleMessage(Landroid/os/Message;)V",
      "targetMethod": "android.webkit.WebView.\u003cinit\u003e(Landroid/content/Context;)V",
      "eventChain": [
        {
          "start": "com.energysource.szj.embeded.AdView$1.handleMessage(Landroid/os/Message;)V",
          "target": "invokevirtual \u003c Application, Lcom/energysource/szj/embeded/AdView$1, obtainMessage(I)Landroid/os/Message; \u003e@56",
          "type": "",
          "constraintsFile": "constraints74_0.py",
          "variables": {
            "\u003cChainedInput1\u003e.what": "IAAv0"
          },
          "stringMap": {},
          "strings": {}
        },
        {
          "start": "com.keji.danti.Lists.onStart()V",
          "target": "",
          "type": "activity",
          "component": "com.keji.danti.Lists"
        },
        {
          "start": "com.energysource.szj.embeded.AdView$1.handleMessage(Landroid/os/Message;)V",
          "target": "invokespecial \u003c Application, Landroid/webkit/WebView, \u003cinit\u003e(Landroid/content/Context;)V \u003e@3",
          "type": "",
          "constraintsFile": "constraints74_1.py",
          "variables": {
            "\u003cChainedInput1\u003e.what": "IAAv0"
          },
          "stringMap": {},
          "strings": {}
        }
      ]
    },
    "75": {
      "startMethod": "com.keji.danti.util.an.onTabChanged(Ljava/lang/String;)V",
      "targetMethod": "android.net.ConnectivityManager.getAllNetworkInfo()[Landroid/net/NetworkInfo;",
      "eventChain": [
        {
          "start": "com.keji.danti.util.an.onTabChanged(Ljava/lang/String;)V",
          "target": "invokevirtual \u003c Application, Landroid/net/ConnectivityManager, getAllNetworkInfo()[Landroid/net/NetworkInfo; \u003e@28",
          "type": "ui",
          "activities": [
            "com.keji.danti.MainA"
          ],
          "listener": "com.keji.danti.util.an",
          "listenerMethod": "onTabChanged",
          "uiType": "onTabChanged",
          "constraintsFile": "constraints75_0.py",
          "variables": {
            "\u003cChainedInput1\u003e": "IAAv2"
          },
          "stringMap": {
            "7000": "history",
            "7001": "jinping"
          },
          "strings": {
            "IAAv2": ""
          }
        }
      ]
    },
    "76": {
      "startMethod": "com.keji.danti.a.j.run()V",
      "targetMethod": "java.net.URL.openConnection()Ljava/net/URLConnection;",
      "eventChain": [
        {
          "start": "com.keji.danti.a.j.run()V",
          "target": "invokevirtual \u003c Application, Ljava/net/URL, openConnection()Ljava/net/URLConnection; \u003e@11",
          "type": ""
        }
      ]
    },
    "77": {
      "startMethod": "com.keji.danti.a.j.run()V",
      "targetMethod": "java.net.HttpURLConnection.getInputStream()Ljava/io/InputStream;",
      "eventChain": [
        {
          "start": "com.keji.danti.a.j.run()V",
          "target": "invokevirtual \u003c Application, Ljava/net/HttpURLConnection, getInputStream()Ljava/io/InputStream; \u003e@46",
          "type": ""
        }
      ]
    },
    "78": {
      "startMethod": "com.keji.danti.a.j.run()V",
      "targetMethod": "java.net.HttpURLConnection.getInputStream()Ljava/io/InputStream;",
      "eventChain": [
        {
          "start": "com.keji.danti.a.j.run()V",
          "target": "invokevirtual \u003c Application, Ljava/net/HttpURLConnection, getInputStream()Ljava/io/InputStream; \u003e@41",
          "type": ""
        }
      ]
    },
    "79": {
      "startMethod": "com.keji.danti.a.j.run()V",
      "targetMethod": "java.net.URL.openConnection()Ljava/net/URLConnection;",
      "eventChain": [
        {
          "start": "com.keji.danti.a.j.run()V",
          "target": "invokevirtual \u003c Application, Ljava/net/URL, openConnection()Ljava/net/URLConnection; \u003e@11",
          "type": ""
        }
      ]
    }
  }
}