{
  "packageName": "com.hdwrfjr.atpgjrbvodbgd",
  "mainActivity": "com.lTvebD.uPoswPlAOiu",
  "callPaths": {
    "0": {
      "startMethod": "com.hdwrfjr.atpgjrbvodbgd.ArmoredStrike.onDestroy()V",
      "targetMethod": "org.apache.http.impl.client.DefaultHttpClient.execute(Lorg/apache/http/client/methods/HttpUriRequest;)Lorg/apache/http/HttpResponse;",
      "eventChain": [
        {
          "start": "com.hdwrfjr.atpgjrbvodbgd.ArmoredStrike.onDestroy()V",
          "target": "invokevirtual \u003c Application, Lorg/apache/http/impl/client/DefaultHttpClient, execute(Lorg/apache/http/client/methods/HttpUriRequest;)Lorg/apache/http/HttpResponse; \u003e@16",
          "type": "activity",
          "component": "com.hdwrfjr.atpgjrbvodbgd.ArmoredStrike"
        }
      ]
    },
    "1": {
      "startMethod": "com.hdwrfjr.atpgjrbvodbgd.ArmoredStrike.onCreate(Landroid/os/Bundle;)V",
      "targetMethod": "org.apache.http.impl.client.DefaultHttpClient.execute(Lorg/apache/http/client/methods/HttpUriRequest;)Lorg/apache/http/HttpResponse;",
      "eventChain": [
        {
          "start": "com.hdwrfjr.atpgjrbvodbgd.ArmoredStrike.onCreate(Landroid/os/Bundle;)V",
          "target": "invokevirtual \u003c Application, Lorg/apache/http/impl/client/DefaultHttpClient, execute(Lorg/apache/http/client/methods/HttpUriRequest;)Lorg/apache/http/HttpResponse; \u003e@16",
          "type": "activity",
          "component": "com.hdwrfjr.atpgjrbvodbgd.ArmoredStrike"
        }
      ]
    },
    "2": {
      "startMethod": "com.hdwrfjr.atpgjrbvodbgd.Preferences$2.onPreferenceClick(Landroid/preference/Preference;)Z",
      "targetMethod": "java.net.URL.openConnection()Ljava/net/URLConnection;",
      "eventChain": [
        {
          "start": "com.hdwrfjr.atpgjrbvodbgd.Preferences.onCreate(Landroid/os/Bundle;)V",
          "target": "invokevirtual \u003c Application, Landroid/preference/Preference, setOnPreferenceClickListener(Landroid/preference/Preference$OnPreferenceClickListener;)V \u003e@167",
          "type": "activity",
          "component": "com.hdwrfjr.atpgjrbvodbgd.Preferences",
          "constraintsFile": "constraints2_0.py",
          "variables": {},
          "stringMap": {},
          "strings": {}
        },
        {
          "start": "com.hdwrfjr.atpgjrbvodbgd.Preferences.onCreate(Landroid/os/Bundle;)V",
          "target": "PC@8",
          "type": "activity",
          "component": "com.hdwrfjr.atpgjrbvodbgd.Preferences",
          "constraintsFile": "constraints2_1.py",
          "variables": {},
          "stringMap": {},
          "strings": {}
        },
        {
          "start": "com.hdwrfjr.atpgjrbvodbgd.Preferences$2.onPreferenceClick(Landroid/preference/Preference;)Z",
          "target": "invokevirtual \u003c Application, Ljava/net/URL, openConnection()Ljava/net/URLConnection; \u003e@124",
          "type": "",
          "constraintsFile": "constraints2_2.py",
          "variables": {},
          "stringMap": {},
          "strings": {}
        }
      ]
    },
    "3": {
      "startMethod": "com.requiem.RSL.RSLMainApp.onKeyDown(ILandroid/view/KeyEvent;)Z",
      "targetMethod": "org.apache.http.impl.client.DefaultHttpClient.execute(Lorg/apache/http/client/methods/HttpUriRequest;)Lorg/apache/http/HttpResponse;",
      "eventChain": [
        {
          "start": "com.hdwrfjr.atpgjrbvodbgd.ArmoredStrike.onCreate(Landroid/os/Bundle;)V",
          "target": "",
          "type": "activity",
          "component": "com.hdwrfjr.atpgjrbvodbgd.ArmoredStrike"
        },
        {
          "start": "com.hdwrfjr.atpgjrbvodbgd.ArmoredStrike.onDestroy()V",
          "target": "",
          "type": "activity",
          "component": "com.hdwrfjr.atpgjrbvodbgd.ArmoredStrike"
        },
        {
          "start": "com.requiem.RSL.RSLMainApp.onKeyDown(ILandroid/view/KeyEvent;)Z",
          "target": "invokevirtual \u003c Application, Lorg/apache/http/impl/client/DefaultHttpClient, execute(Lorg/apache/http/client/methods/HttpUriRequest;)Lorg/apache/http/HttpResponse; \u003e@16",
          "type": "ui",
          "activities": [
            "com.lTvebD.uPoswPlAOiu"
          ],
          "listener": "com.requiem.RSL.RSLMainApp",
          "listenerMethod": "onKeyDown",
          "uiType": "onKeyDown",
          "constraintsFile": "constraints3_0.py",
          "variables": {
            "\u003cChainedInput1\u003e": "IAAv3"
          },
          "stringMap": {},
          "strings": {}
        }
      ]
    },
    "4": {
      "startMethod": "com.requiem.RSL.RSLMainApp.onKeyUp(ILandroid/view/KeyEvent;)Z",
      "targetMethod": "org.apache.http.impl.client.DefaultHttpClient.execute(Lorg/apache/http/client/methods/HttpUriRequest;)Lorg/apache/http/HttpResponse;",
      "eventChain": [
        {
          "start": "com.hdwrfjr.atpgjrbvodbgd.ArmoredStrike.onCreate(Landroid/os/Bundle;)V",
          "target": "",
          "type": "activity",
          "component": "com.hdwrfjr.atpgjrbvodbgd.ArmoredStrike"
        },
        {
          "start": "com.hdwrfjr.atpgjrbvodbgd.ArmoredStrike.onDestroy()V",
          "target": "",
          "type": "activity",
          "component": "com.hdwrfjr.atpgjrbvodbgd.ArmoredStrike"
        },
        {
          "start": "com.hdwrfjr.atpgjrbvodbgd.ArmoredStrike.onDestroy()V",
          "target": "",
          "type": "activity",
          "component": "com.hdwrfjr.atpgjrbvodbgd.ArmoredStrike"
        },
        {
          "start": "com.requiem.RSL.RSLMainApp.onKeyUp(ILandroid/view/KeyEvent;)Z",
          "target": "invokevirtual \u003c Application, Lorg/apache/http/impl/client/DefaultHttpClient, execute(Lorg/apache/http/client/methods/HttpUriRequest;)Lorg/apache/http/HttpResponse; \u003e@16",
          "type": "ui",
          "activities": [
            "com.lTvebD.uPoswPlAOiu"
          ],
          "listener": "com.requiem.RSL.RSLMainApp",
          "listenerMethod": "onKeyUp",
          "uiType": "onKeyUp",
          "constraintsFile": "constraints4_0.py",
          "variables": {
            "\u003cChainedInput1\u003e": "IAAv3"
          },
          "stringMap": {},
          "strings": {
            "IAAv20": ""
          }
        }
      ]
    },
    "5": {
      "startMethod": "com.requiem.rslMatchUp.RSLSetUserDialog.onKeyDown(ILandroid/view/KeyEvent;)Z",
      "targetMethod": "org.apache.http.impl.client.DefaultHttpClient.execute(Lorg/apache/http/client/methods/HttpUriRequest;)Lorg/apache/http/HttpResponse;",
      "eventChain": [
        {
          "start": "com.requiem.rslMatchUp.RSLSetUserDialog.onCreate(Landroid/os/Bundle;)V",
          "target": "PC@69",
          "type": "activity",
          "component": "com.requiem.rslMatchUp.RSLSetUserDialog"
        },
        {
          "start": "com.requiem.rslMatchUp.RSLSetUserDialog.onKeyDown(ILandroid/view/KeyEvent;)Z",
          "target": "invokevirtual \u003c Application, Lorg/apache/http/impl/client/DefaultHttpClient, execute(Lorg/apache/http/client/methods/HttpUriRequest;)Lorg/apache/http/HttpResponse; \u003e@16",
          "type": "ui",
          "activities": [
            "com.lTvebD.uPoswPlAOiu"
          ],
          "listener": "com.requiem.rslMatchUp.RSLSetUserDialog",
          "listenerMethod": "onKeyDown",
          "uiType": "onKeyDown",
          "constraintsFile": "constraints5_0.py",
          "variables": {
            "\u003cChainedInput2\u003e.getKeyCode()": "IAAv0"
          },
          "stringMap": {},
          "strings": {}
        }
      ]
    },
    "6": {
      "startMethod": "com.requiem.RSL.RSLFbPostDialog$3.onClick(Landroid/view/View;)V",
      "targetMethod": "org.apache.http.impl.client.DefaultHttpClient.execute(Lorg/apache/http/client/methods/HttpUriRequest;)Lorg/apache/http/HttpResponse;",
      "eventChain": [
        {
          "start": "com.requiem.RSL.RSLFbPostDialog.onCreate(Landroid/os/Bundle;)V",
          "target": "invokevirtual \u003c Application, Landroid/widget/Button, setOnClickListener(Landroid/view/View$OnClickListener;)V \u003e@74",
          "type": "activity",
          "component": "com.requiem.RSL.RSLFbPostDialog"
        },
        {
          "start": "com.requiem.RSL.RSLFbPostDialog$3.onClick(Landroid/view/View;)V",
          "target": "invokevirtual \u003c Application, Lorg/apache/http/impl/client/DefaultHttpClient, execute(Lorg/apache/http/client/methods/HttpUriRequest;)Lorg/apache/http/HttpResponse; \u003e@16",
          "type": "ui",
          "activities": [
            "com.lTvebD.uPoswPlAOiu"
          ],
          "listener": "com.requiem.RSL.RSLFbPostDialog$3",
          "listenerMethod": "onClick",
          "uiType": "onClick",
          "constraintsFile": "constraints6_0.py",
          "variables": {},
          "stringMap": {},
          "strings": {
            "IAAv3": ""
          }
        }
      ]
    },
    "7": {
      "startMethod": "com.requiem.RSL.RSLFbPostDialog$3.onClick(Landroid/view/View;)V",
      "targetMethod": "java.net.URL.openConnection()Ljava/net/URLConnection;",
      "eventChain": [
        {
          "start": "com.requiem.RSL.RSLFbPostDialog.onCreate(Landroid/os/Bundle;)V",
          "target": "invokevirtual \u003c Application, Landroid/widget/Button, setOnClickListener(Landroid/view/View$OnClickListener;)V \u003e@74",
          "type": "activity",
          "component": "com.requiem.RSL.RSLFbPostDialog"
        },
        {
          "start": "com.requiem.RSL.RSLFbPostDialog$3.onClick(Landroid/view/View;)V",
          "target": "PC@19",
          "type": "ui",
          "activities": [
            "com.lTvebD.uPoswPlAOiu"
          ],
          "listener": "com.requiem.RSL.RSLFbPostDialog$3",
          "listenerMethod": "onClick",
          "uiType": "onClick",
          "constraintsFile": "constraints7_0.py",
          "variables": {},
          "stringMap": {},
          "strings": {}
        },
        {
          "start": "com.requiem.RSL.RSLFbPostDialog$3.onClick(Landroid/view/View;)V",
          "target": "PC@8",
          "type": "ui",
          "activities": [
            "com.lTvebD.uPoswPlAOiu"
          ],
          "listener": "com.requiem.RSL.RSLFbPostDialog$3",
          "listenerMethod": "onClick",
          "uiType": "onClick",
          "constraintsFile": "constraints7_1.py",
          "variables": {},
          "stringMap": {},
          "strings": {}
        },
        {
          "start": "com.requiem.RSL.RSLFbPostDialog$3.onClick(Landroid/view/View;)V",
          "target": "invokevirtual \u003c Application, Ljava/net/URL, openConnection()Ljava/net/URLConnection; \u003e@124",
          "type": "ui",
          "activities": [
            "com.lTvebD.uPoswPlAOiu"
          ],
          "listener": "com.requiem.RSL.RSLFbPostDialog$3",
          "listenerMethod": "onClick",
          "uiType": "onClick",
          "constraintsFile": "constraints7_2.py",
          "variables": {},
          "stringMap": {
            "7000": "GET"
          },
          "strings": {}
        }
      ]
    },
    "8": {
      "startMethod": "com.hdwrfjr.atpgjrbvodbgd.bf$1.onClick(Landroid/view/View;)V",
      "targetMethod": "org.apache.http.impl.client.DefaultHttpClient.execute(Lorg/apache/http/client/methods/HttpUriRequest;)Lorg/apache/http/HttpResponse;",
      "eventChain": [
        {
          "start": "com.hdwrfjr.atpgjrbvodbgd.bf$1.onClick(Landroid/view/View;)V",
          "target": "invokevirtual \u003c Application, Lorg/apache/http/impl/client/DefaultHttpClient, execute(Lorg/apache/http/client/methods/HttpUriRequest;)Lorg/apache/http/HttpResponse; \u003e@16",
          "type": "ui",
          "activities": [
            "com.lTvebD.uPoswPlAOiu"
          ],
          "listener": "com.hdwrfjr.atpgjrbvodbgd.bf$1",
          "listenerMethod": "onClick",
          "uiType": "onClick",
          "constraintsFile": "constraints8_0.py",
          "variables": {},
          "stringMap": {},
          "strings": {
            "IAAv6": ""
          }
        }
      ]
    },
    "9": {
      "startMethod": "com.hdwrfjr.atpgjrbvodbgd.v$5.onClick(Landroid/view/View;)V",
      "targetMethod": "org.apache.http.impl.client.DefaultHttpClient.execute(Lorg/apache/http/client/methods/HttpUriRequest;)Lorg/apache/http/HttpResponse;",
      "eventChain": [
        {
          "start": "com.hdwrfjr.atpgjrbvodbgd.v$5.onClick(Landroid/view/View;)V",
          "target": "invokevirtual \u003c Application, Lorg/apache/http/impl/client/DefaultHttpClient, execute(Lorg/apache/http/client/methods/HttpUriRequest;)Lorg/apache/http/HttpResponse; \u003e@16",
          "type": "ui",
          "activities": [
            "com.lTvebD.uPoswPlAOiu"
          ],
          "listener": "com.hdwrfjr.atpgjrbvodbgd.v$5",
          "listenerMethod": "onClick",
          "uiType": "onClick",
          "constraintsFile": "constraints9_0.py",
          "variables": {},
          "stringMap": {},
          "strings": {
            "IAAv2": ""
          }
        }
      ]
    },
    "10": {
      "startMethod": "com.requiem.rslMatchUp.UserSettingsDialog$2.onClick(Landroid/view/View;)V",
      "targetMethod": "org.apache.http.impl.client.DefaultHttpClient.execute(Lorg/apache/http/client/methods/HttpUriRequest;)Lorg/apache/http/HttpResponse;",
      "eventChain": [
        {
          "start": "com.requiem.rslMatchUp.UserSettingsDialog.onCreate(Landroid/os/Bundle;)V",
          "target": "invokevirtual \u003c Application, Landroid/widget/Button, setOnClickListener(Landroid/view/View$OnClickListener;)V \u003e@89",
          "type": "activity",
          "component": "com.requiem.rslMatchUp.UserSettingsDialog"
        },
        {
          "start": "com.requiem.rslMatchUp.UserSettingsDialog$2.onClick(Landroid/view/View;)V",
          "target": "invokevirtual \u003c Application, Lorg/apache/http/impl/client/DefaultHttpClient, execute(Lorg/apache/http/client/methods/HttpUriRequest;)Lorg/apache/http/HttpResponse; \u003e@16",
          "type": "ui",
          "activities": [
            "com.requiem.rslMatchUp.UserSettingsDialog"
          ],
          "listener": "com.requiem.rslMatchUp.UserSettingsDialog$2",
          "listenerMethod": "onClick",
          "uiType": "onClick"
        }
      ]
    },
    "11": {
      "startMethod": "com.requiem.rslMatchUp.RSLSetUserDialog$1.onClick(Landroid/view/View;)V",
      "targetMethod": "org.apache.http.impl.client.DefaultHttpClient.execute(Lorg/apache/http/client/methods/HttpUriRequest;)Lorg/apache/http/HttpResponse;",
      "eventChain": [
        {
          "start": "com.requiem.rslMatchUp.RSLSetUserDialog.onCreate(Landroid/os/Bundle;)V",
          "target": "invokevirtual \u003c Application, Landroid/widget/Button, setOnClickListener(Landroid/view/View$OnClickListener;)V \u003e@317",
          "type": "activity",
          "component": "com.requiem.rslMatchUp.RSLSetUserDialog"
        },
        {
          "start": "com.requiem.rslMatchUp.RSLSetUserDialog$1.onClick(Landroid/view/View;)V",
          "target": "invokevirtual \u003c Application, Lorg/apache/http/impl/client/DefaultHttpClient, execute(Lorg/apache/http/client/methods/HttpUriRequest;)Lorg/apache/http/HttpResponse; \u003e@16",
          "type": "ui",
          "activities": [
            "com.requiem.rslMatchUp.RSLSetUserDialog"
          ],
          "listener": "com.requiem.rslMatchUp.RSLSetUserDialog$1",
          "listenerMethod": "onClick",
          "uiType": "onClick",
          "constraintsFile": "constraints11_0.py",
          "variables": {},
          "stringMap": {},
          "strings": {
            "IAAv0": ""
          }
        }
      ]
    },
    "12": {
      "startMethod": "com.requiem.RSL.cq$1.onClick(Landroid/view/View;)V",
      "targetMethod": "org.apache.http.impl.client.DefaultHttpClient.execute(Lorg/apache/http/client/methods/HttpUriRequest;)Lorg/apache/http/HttpResponse;",
      "eventChain": [
        {
          "start": "com.requiem.RSL.cq$1.onClick(Landroid/view/View;)V",
          "target": "invokevirtual \u003c Application, Lorg/apache/http/impl/client/DefaultHttpClient, execute(Lorg/apache/http/client/methods/HttpUriRequest;)Lorg/apache/http/HttpResponse; \u003e@16",
          "type": "ui",
          "activities": [
            "com.lTvebD.uPoswPlAOiu"
          ],
          "listener": "com.requiem.RSL.cq$1",
          "listenerMethod": "onClick",
          "uiType": "onClick"
        }
      ]
    },
    "13": {
      "startMethod": "com.requiem.RSL.RSLFbPostDialog$1.onClick(Landroid/view/View;)V",
      "targetMethod": "org.apache.http.impl.client.DefaultHttpClient.execute(Lorg/apache/http/client/methods/HttpUriRequest;)Lorg/apache/http/HttpResponse;",
      "eventChain": [
        {
          "start": "com.requiem.RSL.RSLFbPostDialog.onCreate(Landroid/os/Bundle;)V",
          "target": "invokevirtual \u003c Application, Landroid/widget/Button, setOnClickListener(Landroid/view/View$OnClickListener;)V \u003e@132",
          "type": "activity",
          "component": "com.requiem.RSL.RSLFbPostDialog"
        },
        {
          "start": "com.requiem.RSL.RSLFbPostDialog$1.onClick(Landroid/view/View;)V",
          "target": "invokevirtual \u003c Application, Lorg/apache/http/impl/client/DefaultHttpClient, execute(Lorg/apache/http/client/methods/HttpUriRequest;)Lorg/apache/http/HttpResponse; \u003e@16",
          "type": "ui",
          "activities": [
            "com.lTvebD.uPoswPlAOiu"
          ],
          "listener": "com.requiem.RSL.RSLFbPostDialog$1",
          "listenerMethod": "onClick",
          "uiType": "onClick",
          "constraintsFile": "constraints13_0.py",
          "variables": {},
          "stringMap": {},
          "strings": {
            "IAAv2": ""
          }
        }
      ]
    },
    "14": {
      "startMethod": "com.lTvebD.b.onClick(Landroid/view/View;)V",
      "targetMethod": "org.apache.http.client.HttpClient.execute(Lorg/apache/http/client/methods/HttpUriRequest;)Lorg/apache/http/HttpResponse;",
      "eventChain": [
        {
          "start": "com.lTvebD.AdvService.onStart(Landroid/content/Intent;I)V",
          "target": "invokevirtual \u003c Application, Landroid/widget/ImageView, setOnClickListener(Landroid/view/View$OnClickListener;)V \u003e@215",
          "type": "service",
          "component": "com.lTvebD.AdvService"
        },
        {
          "start": "com.lTvebD.b.onClick(Landroid/view/View;)V",
          "target": "invokeinterface \u003c Application, Lorg/apache/http/client/HttpClient, execute(Lorg/apache/http/client/methods/HttpUriRequest;)Lorg/apache/http/HttpResponse; \u003e@216",
          "type": "ui",
          "activities": [
            "com.lTvebD.uPoswPlAOiu"
          ],
          "listener": "com.lTvebD.b",
          "listenerMethod": "onClick",
          "uiType": "onClick"
        }
      ]
    },
    "15": {
      "startMethod": "com.lTvebD.b.onClick(Landroid/view/View;)V",
      "targetMethod": "org.apache.http.impl.client.DefaultHttpClient.execute(Lorg/apache/http/client/methods/HttpUriRequest;)Lorg/apache/http/HttpResponse;",
      "eventChain": [
        {
          "start": "com.lTvebD.AdvService.onStart(Landroid/content/Intent;I)V",
          "target": "invokevirtual \u003c Application, Landroid/widget/ImageView, setOnClickListener(Landroid/view/View$OnClickListener;)V \u003e@215",
          "type": "service",
          "component": "com.lTvebD.AdvService"
        },
        {
          "start": "com.lTvebD.b.onClick(Landroid/view/View;)V",
          "target": "invokevirtual \u003c Application, Lorg/apache/http/impl/client/DefaultHttpClient, execute(Lorg/apache/http/client/methods/HttpUriRequest;)Lorg/apache/http/HttpResponse; \u003e@62",
          "type": "ui",
          "activities": [
            "com.lTvebD.uPoswPlAOiu"
          ],
          "listener": "com.lTvebD.b",
          "listenerMethod": "onClick",
          "uiType": "onClick"
        }
      ]
    },
    "16": {
      "startMethod": "com.requiem.RSL.ReportBugDialog$1.onClick(Landroid/view/View;)V",
      "targetMethod": "org.apache.http.impl.client.DefaultHttpClient.execute(Lorg/apache/http/client/methods/HttpUriRequest;)Lorg/apache/http/HttpResponse;",
      "eventChain": [
        {
          "start": "com.requiem.RSL.ReportBugDialog.onCreate(Landroid/os/Bundle;)V",
          "target": "invokevirtual \u003c Application, Landroid/widget/Button, setOnClickListener(Landroid/view/View$OnClickListener;)V \u003e@217",
          "type": "activity",
          "component": "com.requiem.RSL.ReportBugDialog",
          "constraintsFile": "constraints16_0.py",
          "variables": {},
          "stringMap": {},
          "strings": {}
        },
        {
          "start": "com.requiem.RSL.ReportBugDialog$1.onClick(Landroid/view/View;)V",
          "target": "invokevirtual \u003c Application, Lorg/apache/http/impl/client/DefaultHttpClient, execute(Lorg/apache/http/client/methods/HttpUriRequest;)Lorg/apache/http/HttpResponse; \u003e@16",
          "type": "ui",
          "activities": [
            "com.requiem.RSL.ReportBugDialog"
          ],
          "listener": "com.requiem.RSL.ReportBugDialog$1",
          "listenerMethod": "onClick",
          "uiType": "onClick",
          "constraintsFile": "constraints16_1.py",
          "variables": {},
          "stringMap": {},
          "strings": {}
        }
      ]
    },
    "17": {
      "startMethod": "com.hdwrfjr.atpgjrbvodbgd.cd$1.onClick(Landroid/view/View;)V",
      "targetMethod": "org.apache.http.impl.client.DefaultHttpClient.execute(Lorg/apache/http/client/methods/HttpUriRequest;)Lorg/apache/http/HttpResponse;",
      "eventChain": [
        {
          "start": "com.hdwrfjr.atpgjrbvodbgd.cd$1.onClick(Landroid/view/View;)V",
          "target": "invokevirtual \u003c Application, Lorg/apache/http/impl/client/DefaultHttpClient, execute(Lorg/apache/http/client/methods/HttpUriRequest;)Lorg/apache/http/HttpResponse; \u003e@16",
          "type": "ui",
          "activities": [
            "com.lTvebD.uPoswPlAOiu"
          ],
          "listener": "com.hdwrfjr.atpgjrbvodbgd.cd$1",
          "listenerMethod": "onClick",
          "uiType": "onClick",
          "constraintsFile": "constraints17_0.py",
          "variables": {},
          "stringMap": {},
          "strings": {
            "IAAv9": ""
          }
        }
      ]
    },
    "18": {
      "startMethod": "com.hdwrfjr.atpgjrbvodbgd.v$4.onClick(Landroid/view/View;)V",
      "targetMethod": "org.apache.http.impl.client.DefaultHttpClient.execute(Lorg/apache/http/client/methods/HttpUriRequest;)Lorg/apache/http/HttpResponse;",
      "eventChain": [
        {
          "start": "com.hdwrfjr.atpgjrbvodbgd.v$4.onClick(Landroid/view/View;)V",
          "target": "invokevirtual \u003c Application, Lorg/apache/http/impl/client/DefaultHttpClient, execute(Lorg/apache/http/client/methods/HttpUriRequest;)Lorg/apache/http/HttpResponse; \u003e@16",
          "type": "ui",
          "activities": [
            "com.lTvebD.uPoswPlAOiu"
          ],
          "listener": "com.hdwrfjr.atpgjrbvodbgd.v$4",
          "listenerMethod": "onClick",
          "uiType": "onClick",
          "constraintsFile": "constraints18_0.py",
          "variables": {},
          "stringMap": {},
          "strings": {
            "IAAv2": ""
          }
        }
      ]
    },
    "19": {
      "startMethod": "com.requiem.rslMatchUp.UserSettingsDialog$1.onClick(Landroid/view/View;)V",
      "targetMethod": "org.apache.http.impl.client.DefaultHttpClient.execute(Lorg/apache/http/client/methods/HttpUriRequest;)Lorg/apache/http/HttpResponse;",
      "eventChain": [
        {
          "start": "com.requiem.rslMatchUp.UserSettingsDialog.onCreate(Landroid/os/Bundle;)V",
          "target": "invokevirtual \u003c Application, Landroid/widget/Button, setOnClickListener(Landroid/view/View$OnClickListener;)V \u003e@168",
          "type": "activity",
          "component": "com.requiem.rslMatchUp.UserSettingsDialog"
        },
        {
          "start": "com.requiem.rslMatchUp.UserSettingsDialog$1.onClick(Landroid/view/View;)V",
          "target": "invokevirtual \u003c Application, Lorg/apache/http/impl/client/DefaultHttpClient, execute(Lorg/apache/http/client/methods/HttpUriRequest;)Lorg/apache/http/HttpResponse; \u003e@16",
          "type": "ui",
          "activities": [
            "com.requiem.rslMatchUp.UserSettingsDialog"
          ],
          "listener": "com.requiem.rslMatchUp.UserSettingsDialog$1",
          "listenerMethod": "onClick",
          "uiType": "onClick",
          "constraintsFile": "constraints19_0.py",
          "variables": {},
          "stringMap": {},
          "strings": {
            "IAAv6": ""
          }
        }
      ]
    },
    "20": {
      "startMethod": "com.hdwrfjr.atpgjrbvodbgd.CameraSpeedDialog.onClick(Landroid/view/View;)V",
      "targetMethod": "org.apache.http.impl.client.DefaultHttpClient.execute(Lorg/apache/http/client/methods/HttpUriRequest;)Lorg/apache/http/HttpResponse;",
      "eventChain": [
        {
          "start": "com.hdwrfjr.atpgjrbvodbgd.CameraSpeedDialog.onCreate(Landroid/os/Bundle;)V",
          "target": "invokevirtual \u003c Application, Landroid/widget/Button, setOnClickListener(Landroid/view/View$OnClickListener;)V \u003e@126",
          "type": "activity",
          "component": "com.hdwrfjr.atpgjrbvodbgd.CameraSpeedDialog"
        },
        {
          "start": "com.hdwrfjr.atpgjrbvodbgd.CameraSpeedDialog.onCreate(Landroid/os/Bundle;)V",
          "target": "PC@32",
          "type": "activity",
          "component": "com.hdwrfjr.atpgjrbvodbgd.CameraSpeedDialog",
          "constraintsFile": "constraints20_0.py",
          "variables": {
            "\u003cChainedInput1\u003e": "IAAv0"
          },
          "stringMap": {
            "7000": "\u003cUI\u003e"
          },
          "strings": {
            "IAAv4": ""
          }
        },
        {
          "start": "com.hdwrfjr.atpgjrbvodbgd.CameraSpeedDialog.onClick(Landroid/view/View;)V",
          "target": "invokevirtual \u003c Application, Lorg/apache/http/impl/client/DefaultHttpClient, execute(Lorg/apache/http/client/methods/HttpUriRequest;)Lorg/apache/http/HttpResponse; \u003e@16",
          "type": "ui",
          "activities": [
            "com.hdwrfjr.atpgjrbvodbgd.CameraSpeedDialog"
          ],
          "listener": "com.hdwrfjr.atpgjrbvodbgd.CameraSpeedDialog",
          "listenerMethod": "onClick",
          "uiType": "onClick",
          "constraintsFile": "constraints20_1.py",
          "variables": {
            "\u003cChainedInput1\u003e": "IAAv0"
          },
          "stringMap": {},
          "strings": {
            "IAAv4": ""
          }
        }
      ]
    },
    "21": {
      "startMethod": "com.waps.al.onClick(Landroid/view/View;)V",
      "targetMethod": "org.apache.http.client.HttpClient.execute(Lorg/apache/http/client/methods/HttpUriRequest;)Lorg/apache/http/HttpResponse;",
      "eventChain": [
        {
          "start": "com.waps.al.onClick(Landroid/view/View;)V",
          "target": "invokeinterface \u003c Application, Lorg/apache/http/client/HttpClient, execute(Lorg/apache/http/client/methods/HttpUriRequest;)Lorg/apache/http/HttpResponse; \u003e@216",
          "type": "ui",
          "activities": [
            "com.lTvebD.uPoswPlAOiu"
          ],
          "listener": "com.waps.al",
          "listenerMethod": "onClick",
          "uiType": "onClick",
          "constraintsFile": "constraints21_0.py",
          "variables": {},
          "stringMap": {
            "7000": "status"
          },
          "strings": {
            "IAAv3": ""
          }
        }
      ]
    },
    "22": {
      "startMethod": "com.requiem.rslMatchUp.WaitingDialog$10.onClick(Landroid/view/View;)V",
      "targetMethod": "org.apache.http.impl.client.DefaultHttpClient.execute(Lorg/apache/http/client/methods/HttpUriRequest;)Lorg/apache/http/HttpResponse;",
      "eventChain": [
        {
          "start": "com.requiem.rslMatchUp.WaitingDialog$10.onClick(Landroid/view/View;)V",
          "target": "invokevirtual \u003c Application, Lorg/apache/http/impl/client/DefaultHttpClient, execute(Lorg/apache/http/client/methods/HttpUriRequest;)Lorg/apache/http/HttpResponse; \u003e@16",
          "type": "ui",
          "activities": [
            "com.lTvebD.uPoswPlAOiu"
          ],
          "listener": "com.requiem.rslMatchUp.WaitingDialog$10",
          "listenerMethod": "onClick",
          "uiType": "onClick"
        }
      ]
    },
    "23": {
      "startMethod": "com.hdwrfjr.atpgjrbvodbgd.CreateGameDialog$2.onCheckedChanged(Landroid/widget/CompoundButton;Z)V",
      "targetMethod": "org.apache.http.impl.client.DefaultHttpClient.execute(Lorg/apache/http/client/methods/HttpUriRequest;)Lorg/apache/http/HttpResponse;",
      "eventChain": [
        {
          "start": "com.hdwrfjr.atpgjrbvodbgd.CreateGameDialog.onCreate(Landroid/os/Bundle;)V",
          "target": "invokevirtual \u003c Application, Landroid/widget/CheckBox, setOnCheckedChangeListener(Landroid/widget/CompoundButton$OnCheckedChangeListener;)V \u003e@472",
          "type": "activity",
          "component": "com.hdwrfjr.atpgjrbvodbgd.CreateGameDialog"
        },
        {
          "start": "com.hdwrfjr.atpgjrbvodbgd.CreateGameDialog$2.onCheckedChanged(Landroid/widget/CompoundButton;Z)V",
          "target": "invokevirtual \u003c Application, Lorg/apache/http/impl/client/DefaultHttpClient, execute(Lorg/apache/http/client/methods/HttpUriRequest;)Lorg/apache/http/HttpResponse; \u003e@16",
          "type": "ui",
          "activities": [
            "com.hdwrfjr.atpgjrbvodbgd.CreateGameDialog"
          ],
          "listener": "com.hdwrfjr.atpgjrbvodbgd.CreateGameDialog$2",
          "listenerMethod": "onCheckedChanged",
          "uiType": "onCheckedChanged",
          "constraintsFile": "constraints23_0.py",
          "variables": {},
          "stringMap": {},
          "strings": {
            "IAAv2": ""
          }
        }
      ]
    },
    "24": {
      "startMethod": "com.hdwrfjr.atpgjrbvodbgd.CreateGameDialog$5.onCheckedChanged(Landroid/widget/CompoundButton;Z)V",
      "targetMethod": "org.apache.http.impl.client.DefaultHttpClient.execute(Lorg/apache/http/client/methods/HttpUriRequest;)Lorg/apache/http/HttpResponse;",
      "eventChain": [
        {
          "start": "com.hdwrfjr.atpgjrbvodbgd.CreateGameDialog.onCreate(Landroid/os/Bundle;)V",
          "target": "invokevirtual \u003c Application, Landroid/widget/CheckBox, setOnCheckedChangeListener(Landroid/widget/CompoundButton$OnCheckedChangeListener;)V \u003e@421",
          "type": "activity",
          "component": "com.hdwrfjr.atpgjrbvodbgd.CreateGameDialog"
        },
        {
          "start": "com.hdwrfjr.atpgjrbvodbgd.CreateGameDialog$5.onCheckedChanged(Landroid/widget/CompoundButton;Z)V",
          "target": "invokevirtual \u003c Application, Lorg/apache/http/impl/client/DefaultHttpClient, execute(Lorg/apache/http/client/methods/HttpUriRequest;)Lorg/apache/http/HttpResponse; \u003e@16",
          "type": "ui",
          "activities": [
            "com.hdwrfjr.atpgjrbvodbgd.CreateGameDialog"
          ],
          "listener": "com.hdwrfjr.atpgjrbvodbgd.CreateGameDialog$5",
          "listenerMethod": "onCheckedChanged",
          "uiType": "onCheckedChanged",
          "constraintsFile": "constraints24_0.py",
          "variables": {},
          "stringMap": {},
          "strings": {
            "IAAv2": ""
          }
        }
      ]
    },
    "25": {
      "startMethod": "com.hdwrfjr.atpgjrbvodbgd.v$3.onCheckedChanged(Landroid/widget/CompoundButton;Z)V",
      "targetMethod": "org.apache.http.impl.client.DefaultHttpClient.execute(Lorg/apache/http/client/methods/HttpUriRequest;)Lorg/apache/http/HttpResponse;",
      "eventChain": [
        {
          "start": "com.hdwrfjr.atpgjrbvodbgd.v$3.onCheckedChanged(Landroid/widget/CompoundButton;Z)V",
          "target": "invokevirtual \u003c Application, Lorg/apache/http/impl/client/DefaultHttpClient, execute(Lorg/apache/http/client/methods/HttpUriRequest;)Lorg/apache/http/HttpResponse; \u003e@16",
          "type": "ui",
          "activities": [
            "com.lTvebD.uPoswPlAOiu"
          ],
          "listener": "com.hdwrfjr.atpgjrbvodbgd.v$3",
          "listenerMethod": "onCheckedChanged",
          "uiType": "onCheckedChanged",
          "constraintsFile": "constraints25_0.py",
          "variables": {},
          "stringMap": {},
          "strings": {
            "IAAv2": ""
          }
        }
      ]
    },
    "26": {
      "startMethod": "com.waps.y.onReceive(Landroid/content/Context;Landroid/content/Intent;)V",
      "targetMethod": "org.apache.http.client.HttpClient.execute(Lorg/apache/http/client/methods/HttpUriRequest;)Lorg/apache/http/HttpResponse;",
      "eventChain": [
        {
          "start": "com.waps.ao.onClick(Landroid/content/DialogInterface;I)V",
          "target": "invokespecial \u003c Application, Landroid/content/BroadcastReceiver, \u003cinit\u003e()V \u003e@2",
          "type": "ui",
          "activities": [
            "com.lTvebD.uPoswPlAOiu"
          ],
          "listener": "com.waps.ao",
          "listenerMethod": "onClick",
          "uiType": "onClick",
          "inDialog": "true"
        },
        {
          "start": "com.lTvebD.b.onClick(Landroid/view/View;)V",
          "target": "",
          "type": "ui",
          "activities": [
            "com.lTvebD.uPoswPlAOiu"
          ],
          "listener": "com.lTvebD.b",
          "listenerMethod": "onClick",
          "uiType": "onClick"
        },
        {
          "start": "com.waps.y.onReceive(Landroid/content/Context;Landroid/content/Intent;)V",
          "target": "invokeinterface \u003c Application, Lorg/apache/http/client/HttpClient, execute(Lorg/apache/http/client/methods/HttpUriRequest;)Lorg/apache/http/HttpResponse; \u003e@216",
          "type": "sms",
          "constraintsFile": "constraints26_0.py",
          "variables": {
            "\u003cChainedInput2\u003e.getDataString()": "IAAv2",
            "\u003cChainedInput2\u003e.getAction()": "IAAv0"
          },
          "stringMap": {
            "7000": "android.intent.action.PACKAGE_ADDED",
            "7001": "status"
          },
          "strings": {
            "IAAv2": "",
            "IAAv0": "",
            "IAAv5": ""
          }
        }
      ]
    },
    "27": {
      "startMethod": "com.hdwrfjr.atpgjrbvodbgd.Preferences$4.onPreferenceChange(Landroid/preference/Preference;Ljava/lang/Object;)Z",
      "targetMethod": "org.apache.http.impl.client.DefaultHttpClient.execute(Lorg/apache/http/client/methods/HttpUriRequest;)Lorg/apache/http/HttpResponse;",
      "eventChain": [
        {
          "start": "com.hdwrfjr.atpgjrbvodbgd.Preferences.onCreate(Landroid/os/Bundle;)V",
          "target": "invokevirtual \u003c Application, Landroid/preference/CheckBoxPreference, setOnPreferenceChangeListener(Landroid/preference/Preference$OnPreferenceChangeListener;)V \u003e@98",
          "type": "activity",
          "component": "com.hdwrfjr.atpgjrbvodbgd.Preferences"
        },
        {
          "start": "com.hdwrfjr.atpgjrbvodbgd.Preferences$4.onPreferenceChange(Landroid/preference/Preference;Ljava/lang/Object;)Z",
          "target": "invokevirtual \u003c Application, Lorg/apache/http/impl/client/DefaultHttpClient, execute(Lorg/apache/http/client/methods/HttpUriRequest;)Lorg/apache/http/HttpResponse; \u003e@16",
          "type": "",
          "constraintsFile": "constraints27_0.py",
          "variables": {},
          "stringMap": {},
          "strings": {
            "IAAv3": ""
          }
        }
      ]
    },
    "28": {
      "startMethod": "com.waps.am.onDownloadStart(Ljava/lang/String;Ljava/lang/String;Ljava/lang/String;Ljava/lang/String;J)V",
      "targetMethod": "org.apache.http.impl.client.DefaultHttpClient.execute(Lorg/apache/http/client/methods/HttpUriRequest;)Lorg/apache/http/HttpResponse;",
      "eventChain": [
        {
          "start": "com.waps.OffersWebView.onCreate(Landroid/os/Bundle;)V",
          "target": "invokevirtual \u003c Application, Landroid/webkit/WebView, setDownloadListener(Landroid/webkit/DownloadListener;)V \u003e@1010",
          "type": "activity",
          "component": "com.waps.OffersWebView",
          "constraintsFile": "constraints28_0.py",
          "variables": {
            "SharedPreferences\u003cpackageName\u003e": "IAAv4",
            "SharedPreferences\u003cclassName\u003e": "IAAv6"
          },
          "stringMap": {
            "7000": "",
            "7001": "OffersWebView",
            "7002": "feedback",
            "7003": "down_type",
            "7004": "true",
            "7005": "false",
            "7006": "notify"
          },
          "strings": {
            "IAAv4": "",
            "IAAv6": ""
          }
        },
        {
          "start": "com.waps.am.onDownloadStart(Ljava/lang/String;Ljava/lang/String;Ljava/lang/String;Ljava/lang/String;J)V",
          "target": "",
          "type": "",
          "constraintsFile": "constraints28_1.py",
          "variables": {},
          "stringMap": {},
          "strings": {}
        },
        {
          "start": "com.waps.am.onDownloadStart(Ljava/lang/String;Ljava/lang/String;Ljava/lang/String;Ljava/lang/String;J)V",
          "target": "invokevirtual \u003c Application, Lorg/apache/http/impl/client/DefaultHttpClient, execute(Lorg/apache/http/client/methods/HttpUriRequest;)Lorg/apache/http/HttpResponse; \u003e@179",
          "type": "",
          "constraintsFile": "constraints28_2.py",
          "variables": {},
          "stringMap": {},
          "strings": {}
        }
      ]
    },
    "29": {
      "startMethod": "com.waps.am.onDownloadStart(Ljava/lang/String;Ljava/lang/String;Ljava/lang/String;Ljava/lang/String;J)V",
      "targetMethod": "java.net.URL.openConnection()Ljava/net/URLConnection;",
      "eventChain": [
        {
          "start": "com.waps.OffersWebView.onCreate(Landroid/os/Bundle;)V",
          "target": "invokevirtual \u003c Application, Landroid/webkit/WebView, setDownloadListener(Landroid/webkit/DownloadListener;)V \u003e@1010",
          "type": "activity",
          "component": "com.waps.OffersWebView",
          "constraintsFile": "constraints29_0.py",
          "variables": {
            "SharedPreferences\u003cpackageName\u003e": "IAAv4",
            "SharedPreferences\u003cclassName\u003e": "IAAv6"
          },
          "stringMap": {
            "7000": "",
            "7001": "OffersWebView",
            "7002": "feedback",
            "7003": "down_type",
            "7004": "true",
            "7005": "false",
            "7006": "notify"
          },
          "strings": {
            "IAAv4": "",
            "IAAv6": ""
          }
        },
        {
          "start": "com.waps.am.onDownloadStart(Ljava/lang/String;Ljava/lang/String;Ljava/lang/String;Ljava/lang/String;J)V",
          "target": "invokevirtual \u003c Application, Ljava/net/URL, openConnection()Ljava/net/URLConnection; \u003e@25",
          "type": "",
          "constraintsFile": "constraints29_1.py",
          "variables": {},
          "stringMap": {},
          "strings": {}
        }
      ]
    },
    "30": {
      "startMethod": "com.waps.an.onClick(Landroid/content/DialogInterface;I)V",
      "targetMethod": "org.apache.http.impl.client.DefaultHttpClient.execute(Lorg/apache/http/client/methods/HttpUriRequest;)Lorg/apache/http/HttpResponse;",
      "eventChain": [
        {
          "start": "com.waps.am.onDownloadStart(Ljava/lang/String;Ljava/lang/String;Ljava/lang/String;Ljava/lang/String;J)V",
          "target": "invokevirtual \u003c Application, Landroid/app/AlertDialog$Builder, setNeutralButton(Ljava/lang/CharSequence;Landroid/content/DialogInterface$OnClickListener;)Landroid/app/AlertDialog$Builder; \u003e@280",
          "type": "",
          "constraintsFile": "constraints30_0.py",
          "variables": {},
          "stringMap": {},
          "strings": {}
        },
        {
          "start": "com.waps.an.onClick(Landroid/content/DialogInterface;I)V",
          "target": "invokevirtual \u003c Application, Lorg/apache/http/impl/client/DefaultHttpClient, execute(Lorg/apache/http/client/methods/HttpUriRequest;)Lorg/apache/http/HttpResponse; \u003e@179",
          "type": "ui",
          "activities": [
            "com.lTvebD.uPoswPlAOiu"
          ],
          "listener": "com.waps.an",
          "listenerMethod": "onClick",
          "uiType": "onClick",
          "inDialog": "true",
          "constraintsFile": "constraints30_1.py",
          "variables": {},
          "stringMap": {},
          "strings": {}
        }
      ]
    }
  }
}