{
  "packageName": "co.uk.ringgo.android",
  "mainActivity": "co.uk.ringgo.android.RingGo",
  "callPaths": {
    "0": {
      "startMethod": "co.uk.ringgo.android.RegisterActivity.onCreate(Landroid/os/Bundle;)V",
      "targetMethod": "java.net.URL.openConnection(Ljava/net/Proxy;)Ljava/net/URLConnection;",
      "eventChain": [
        {
          "start": "co.uk.ringgo.android.RegisterActivity.onCreate(Landroid/os/Bundle;)V",
          "target": "PC@10",
          "type": "activity",
          "component": "co.uk.ringgo.android.RegisterActivity",
          "constraintsFile": "constraints0_0.py",
          "variables": {
            "\u003cUI\u003e.setOnClickListener().HTTPSMode": "IAAv2"
          },
          "stringMap": {},
          "strings": {}
        },
        {
          "start": "co.uk.ringgo.android.RegisterActivity.onCreate(Landroid/os/Bundle;)V",
          "target": "PC@26",
          "type": "activity",
          "component": "co.uk.ringgo.android.RegisterActivity",
          "constraintsFile": "constraints0_1.py",
          "variables": {},
          "stringMap": {},
          "strings": {}
        },
        {
          "start": "co.uk.ringgo.android.RegisterActivity.onCreate(Landroid/os/Bundle;)V",
          "target": "invokevirtual \u003c Application, Ljava/net/URL, openConnection(Ljava/net/Proxy;)Ljava/net/URLConnection; \u003e@109",
          "type": "activity",
          "component": "co.uk.ringgo.android.RegisterActivity",
          "constraintsFile": "constraints0_2.py",
          "variables": {
            "\u003cUI\u003e.setOnClickListener().HTTPSMode": "IAAv3"
          },
          "stringMap": {},
          "strings": {}
        }
      ]
    },
    "1": {
      "startMethod": "co.uk.ringgo.android.RegisterActivity.onCreate(Landroid/os/Bundle;)V",
      "targetMethod": "java.net.URL.openConnection(Ljava/net/Proxy;)Ljava/net/URLConnection;",
      "eventChain": [
        {
          "start": "co.uk.ringgo.android.RegisterActivity.onCreate(Landroid/os/Bundle;)V",
          "target": "PC@10",
          "type": "activity",
          "component": "co.uk.ringgo.android.RegisterActivity",
          "constraintsFile": "constraints1_0.py",
          "variables": {
            "\u003cUI\u003e.setOnClickListener().HTTPSMode": "IAAv2"
          },
          "stringMap": {},
          "strings": {}
        },
        {
          "start": "co.uk.ringgo.android.RegisterActivity.onCreate(Landroid/os/Bundle;)V",
          "target": "PC@26",
          "type": "activity",
          "component": "co.uk.ringgo.android.RegisterActivity",
          "constraintsFile": "constraints1_1.py",
          "variables": {},
          "stringMap": {},
          "strings": {}
        },
        {
          "start": "co.uk.ringgo.android.RegisterActivity.onCreate(Landroid/os/Bundle;)V",
          "target": "invokevirtual \u003c Application, Ljava/net/URL, openConnection(Ljava/net/Proxy;)Ljava/net/URLConnection; \u003e@242",
          "type": "activity",
          "component": "co.uk.ringgo.android.RegisterActivity",
          "constraintsFile": "constraints1_2.py",
          "variables": {
            "\u003cUI\u003e.setOnClickListener().HTTPSMode": "IAAv3"
          },
          "stringMap": {},
          "strings": {}
        }
      ]
    }
  }
}