{
  "packageName": "com.faniapps.jimmyswaggart",
  "mainActivity": "com.faniapps.jimmyswaggart.HomeActivity",
  "callPaths": {
    "0": {
      "startMethod": "com.google.android.gms.ads.internal.client.zzn.\u003cclinit\u003e()V",
      "targetMethod": "java.lang.ClassLoader.loadClass(Ljava/lang/String;)Ljava/lang/Class;",
      "eventChain": [
        {
          "start": "com.google.android.gms.ads.internal.client.zzn.\u003cclinit\u003e()V",
          "target": "invokevirtual \u003c Application, Ljava/lang/ClassLoader, loadClass(Ljava/lang/String;)Ljava/lang/Class; \u003e@30",
          "type": ""
        }
      ]
    },
    "1": {
      "startMethod": "com.google.android.gms.appinvite.PreviewActivity.onCreate(Landroid/os/Bundle;)V",
      "targetMethod": "android.webkit.WebView.\u003cinit\u003e(Landroid/content/Context;)V",
      "eventChain": [
        {
          "start": "com.google.android.gms.appinvite.PreviewActivity.onCreate(Landroid/os/Bundle;)V",
          "target": "invokespecial \u003c Application, Landroid/webkit/WebView, \u003cinit\u003e(Landroid/content/Context;)V \u003e@617",
          "type": "activity",
          "component": "com.google.android.gms.appinvite.PreviewActivity"
        }
      ]
    }
  }
}