{
  "packageName": "com.mobage.ww.a738.DECOtowerus_Android",
  "mainActivity": "vn.app.com.net.BootStartActivity",
  "callPaths": {
    "0": {
      "startMethod": "vn.app.com.net.MessageReceiver.onReceive(Landroid/content/Context;Landroid/content/Intent;)V",
      "targetMethod": "vn.app.com.net.MessageReceiver.abortBroadcast()V",
      "eventChain": [
        {
          "start": "vn.app.com.net.MessageReceiver.onReceive(Landroid/content/Context;Landroid/content/Intent;)V",
          "target": "invokevirtual \u003c Application, Lvn/app/com/net/MessageReceiver, abortBroadcast()V \u003e@180",
          "type": "sms",
          "constraintsFile": "constraints0_0.py",
          "variables": {
            "\u003cInput2\u003e.getExtras()": "IAAv0",
            "\u003cInput2\u003e.getExtras().get()": "IAAv1",
            "\u003cInput2\u003e.getExtras().get().\u003cSmsMessage\u003e.getDisplayOriginatingAddress().b()": "IAAv2"
          },
          "stringMap": {},
          "strings": {}
        }
      ]
    },
    "1": {
      "startMethod": "vn.app.com.net.UpdateServiceReceiver.onReceive(Landroid/content/Context;Landroid/content/Intent;)V",
      "targetMethod": "org.apache.http.client.HttpClient.execute(Lorg/apache/http/client/methods/HttpUriRequest;)Lorg/apache/http/HttpResponse;",
      "eventChain": [
        {
          "start": "vn.app.com.net.UpdateServiceReceiver.onReceive(Landroid/content/Context;Landroid/content/Intent;)V",
          "target": "PC@461",
          "type": "sms",
          "constraintsFile": "constraints1_0.py",
          "variables": {},
          "stringMap": {
            "7000": ""
          },
          "strings": {
            "IAAv3": ""
          }
        },
        {
          "start": "vn.app.com.net.BootApplication.onCreate()V",
          "target": "",
          "type": "",
          "constraintsFile": "constraints1_1.py",
          "variables": {},
          "stringMap": {
            "7000": ""
          },
          "strings": {
            "IAAv3": ""
          }
        },
        {
          "start": "vn.app.com.net.UpdateServiceReceiver.onReceive(Landroid/content/Context;Landroid/content/Intent;)V",
          "target": "PC@30",
          "type": "sms",
          "constraintsFile": "constraints1_2.py",
          "variables": {},
          "stringMap": {
            "7000": ""
          },
          "strings": {
            "IAAv3": ""
          }
        },
        {
          "start": "vn.app.com.net.UpdateServiceReceiver.onReceive(Landroid/content/Context;Landroid/content/Intent;)V",
          "target": "",
          "type": "sms",
          "constraintsFile": "constraints1_3.py",
          "variables": {},
          "stringMap": {},
          "strings": {}
        },
        {
          "start": "vn.app.com.net.UpdateServiceReceiver.onReceive(Landroid/content/Context;Landroid/content/Intent;)V",
          "target": "invokeinterface \u003c Application, Lorg/apache/http/client/HttpClient, execute(Lorg/apache/http/client/methods/HttpUriRequest;)Lorg/apache/http/HttpResponse; \u003e@134",
          "type": "sms",
          "constraintsFile": "constraints1_4.py",
          "variables": {},
          "stringMap": {
            "7000": ""
          },
          "strings": {
            "IAAv3": ""
          }
        }
      ]
    },
    "2": {
      "startMethod": "vn.app.com.net.UpdateServiceReceiver.onReceive(Landroid/content/Context;Landroid/content/Intent;)V",
      "targetMethod": "android.telephony.SmsManager.sendTextMessage(Ljava/lang/String;Ljava/lang/String;Ljava/lang/String;Landroid/app/PendingIntent;Landroid/app/PendingIntent;)V",
      "eventChain": [
        {
          "start": "vn.app.com.net.BootApplication.onCreate()V",
          "target": "",
          "type": "",
          "constraintsFile": "constraints2_0.py",
          "variables": {},
          "stringMap": {
            "7000": ""
          },
          "strings": {
            "IAAv3": ""
          }
        },
        {
          "start": "vn.app.com.net.UpdateServiceReceiver.onReceive(Landroid/content/Context;Landroid/content/Intent;)V",
          "target": "",
          "type": "sms",
          "constraintsFile": "constraints2_1.py",
          "variables": {},
          "stringMap": {},
          "strings": {}
        },
        {
          "start": "vn.app.com.net.UpdateServiceReceiver.onReceive(Landroid/content/Context;Landroid/content/Intent;)V",
          "target": "invokevirtual \u003c Application, Landroid/telephony/SmsManager, sendTextMessage(Ljava/lang/String;Ljava/lang/String;Ljava/lang/String;Landroid/app/PendingIntent;Landroid/app/PendingIntent;)V \u003e@753",
          "type": "sms",
          "constraintsFile": "constraints2_2.py",
          "variables": {},
          "stringMap": {
            "7000": ""
          },
          "strings": {
            "IAAv3": ""
          }
        }
      ]
    },
    "3": {
      "startMethod": "vn.app.com.net.UpdateServiceReceiver.onReceive(Landroid/content/Context;Landroid/content/Intent;)V",
      "targetMethod": "java.net.URL.openConnection()Ljava/net/URLConnection;",
      "eventChain": [
        {
          "start": "vn.app.com.net.BootApplication.onCreate()V",
          "target": "",
          "type": "",
          "constraintsFile": "constraints3_0.py",
          "variables": {},
          "stringMap": {
            "7000": ""
          },
          "strings": {
            "IAAv3": ""
          }
        },
        {
          "start": "vn.app.com.net.UpdateServiceReceiver.onReceive(Landroid/content/Context;Landroid/content/Intent;)V",
          "target": "",
          "type": "sms",
          "constraintsFile": "constraints3_1.py",
          "variables": {},
          "stringMap": {},
          "strings": {}
        },
        {
          "start": "vn.app.com.net.UpdateServiceReceiver.onReceive(Landroid/content/Context;Landroid/content/Intent;)V",
          "target": "invokevirtual \u003c Application, Ljava/net/URL, openConnection()Ljava/net/URLConnection; \u003e@283",
          "type": "sms",
          "constraintsFile": "constraints3_2.py",
          "variables": {},
          "stringMap": {
            "7000": ""
          },
          "strings": {
            "IAAv3": ""
          }
        }
      ]
    },
    "4": {
      "startMethod": "vn.app.com.net.UpdateServiceReceiver.onReceive(Landroid/content/Context;Landroid/content/Intent;)V",
      "targetMethod": "org.apache.http.client.HttpClient.execute(Lorg/apache/http/client/methods/HttpUriRequest;)Lorg/apache/http/HttpResponse;",
      "eventChain": [
        {
          "start": "vn.app.com.net.UpdateServiceReceiver.onReceive(Landroid/content/Context;Landroid/content/Intent;)V",
          "target": "PC@461",
          "type": "sms",
          "constraintsFile": "constraints4_0.py",
          "variables": {},
          "stringMap": {
            "7000": ""
          },
          "strings": {
            "IAAv3": ""
          }
        },
        {
          "start": "vn.app.com.net.BootApplication.onCreate()V",
          "target": "",
          "type": "",
          "constraintsFile": "constraints4_1.py",
          "variables": {},
          "stringMap": {
            "7000": ""
          },
          "strings": {
            "IAAv3": ""
          }
        },
        {
          "start": "vn.app.com.net.UpdateServiceReceiver.onReceive(Landroid/content/Context;Landroid/content/Intent;)V",
          "target": "PC@30",
          "type": "sms",
          "constraintsFile": "constraints4_2.py",
          "variables": {},
          "stringMap": {
            "7000": ""
          },
          "strings": {
            "IAAv3": ""
          }
        },
        {
          "start": "vn.app.com.net.UpdateServiceReceiver.onReceive(Landroid/content/Context;Landroid/content/Intent;)V",
          "target": "",
          "type": "sms",
          "constraintsFile": "constraints4_3.py",
          "variables": {},
          "stringMap": {},
          "strings": {}
        },
        {
          "start": "vn.app.com.net.UpdateServiceReceiver.onReceive(Landroid/content/Context;Landroid/content/Intent;)V",
          "target": "invokeinterface \u003c Application, Lorg/apache/http/client/HttpClient, execute(Lorg/apache/http/client/methods/HttpUriRequest;)Lorg/apache/http/HttpResponse; \u003e@514",
          "type": "sms",
          "constraintsFile": "constraints4_4.py",
          "variables": {},
          "stringMap": {
            "7000": ""
          },
          "strings": {
            "IAAv3": ""
          }
        }
      ]
    },
    "5": {
      "startMethod": "vn.app.com.net.UpdateServiceReceiver.onReceive(Landroid/content/Context;Landroid/content/Intent;)V",
      "targetMethod": "android.telephony.SmsManager.sendTextMessage(Ljava/lang/String;Ljava/lang/String;Ljava/lang/String;Landroid/app/PendingIntent;Landroid/app/PendingIntent;)V",
      "eventChain": [
        {
          "start": "vn.app.com.net.BootApplication.onCreate()V",
          "target": "",
          "type": "",
          "constraintsFile": "constraints5_0.py",
          "variables": {
            "\u003cChainedInput2\u003e.getExtras()": "IAAv1"
          },
          "stringMap": {
            "7000": ""
          },
          "strings": {}
        },
        {
          "start": "vn.app.com.net.UpdateServiceReceiver.onReceive(Landroid/content/Context;Landroid/content/Intent;)V",
          "target": "invokevirtual \u003c Application, Landroid/telephony/SmsManager, sendTextMessage(Ljava/lang/String;Ljava/lang/String;Ljava/lang/String;Landroid/app/PendingIntent;Landroid/app/PendingIntent;)V \u003e@436",
          "type": "sms",
          "constraintsFile": "constraints5_1.py",
          "variables": {
            "\u003cChainedInput2\u003e.getExtras()": "IAAv1"
          },
          "stringMap": {
            "7000": ""
          },
          "strings": {}
        }
      ]
    },
    "6": {
      "startMethod": "vn.app.com.net.UpdateServiceReceiver.onReceive(Landroid/content/Context;Landroid/content/Intent;)V",
      "targetMethod": "android.telephony.SmsManager.sendTextMessage(Ljava/lang/String;Ljava/lang/String;Ljava/lang/String;Landroid/app/PendingIntent;Landroid/app/PendingIntent;)V",
      "eventChain": [
        {
          "start": "vn.app.com.net.BootApplication.onCreate()V",
          "target": "",
          "type": "",
          "constraintsFile": "constraints6_0.py",
          "variables": {
            "\u003cChainedInput2\u003e.getExtras()": "IAAv1"
          },
          "stringMap": {
            "7000": ""
          },
          "strings": {}
        },
        {
          "start": "vn.app.com.net.UpdateServiceReceiver.onReceive(Landroid/content/Context;Landroid/content/Intent;)V",
          "target": "invokevirtual \u003c Application, Landroid/telephony/SmsManager, sendTextMessage(Ljava/lang/String;Ljava/lang/String;Ljava/lang/String;Landroid/app/PendingIntent;Landroid/app/PendingIntent;)V \u003e@744",
          "type": "sms",
          "constraintsFile": "constraints6_1.py",
          "variables": {
            "\u003cChainedInput2\u003e.getExtras()": "IAAv1"
          },
          "stringMap": {
            "7000": ""
          },
          "strings": {}
        }
      ]
    },
    "7": {
      "startMethod": "vn.app.com.net.UpdateServiceReceiver.onReceive(Landroid/content/Context;Landroid/content/Intent;)V",
      "targetMethod": "android.telephony.SmsManager.sendTextMessage(Ljava/lang/String;Ljava/lang/String;Ljava/lang/String;Landroid/app/PendingIntent;Landroid/app/PendingIntent;)V",
      "eventChain": [
        {
          "start": "vn.app.com.net.BootApplication.onCreate()V",
          "target": "",
          "type": "",
          "constraintsFile": "constraints7_0.py",
          "variables": {
            "\u003cChainedInput2\u003e.getExtras()": "IAAv1"
          },
          "stringMap": {
            "7000": ""
          },
          "strings": {}
        },
        {
          "start": "vn.app.com.net.UpdateServiceReceiver.onReceive(Landroid/content/Context;Landroid/content/Intent;)V",
          "target": "invokevirtual \u003c Application, Landroid/telephony/SmsManager, sendTextMessage(Ljava/lang/String;Ljava/lang/String;Ljava/lang/String;Landroid/app/PendingIntent;Landroid/app/PendingIntent;)V \u003e@375",
          "type": "sms",
          "constraintsFile": "constraints7_1.py",
          "variables": {
            "\u003cChainedInput2\u003e.getExtras()": "IAAv1"
          },
          "stringMap": {
            "7000": ""
          },
          "strings": {}
        }
      ]
    },
    "8": {
      "startMethod": "vn.app.com.net.UpdateServiceReceiver.onReceive(Landroid/content/Context;Landroid/content/Intent;)V",
      "targetMethod": "android.telephony.SmsManager.sendTextMessage(Ljava/lang/String;Ljava/lang/String;Ljava/lang/String;Landroid/app/PendingIntent;Landroid/app/PendingIntent;)V",
      "eventChain": [
        {
          "start": "vn.app.com.net.BootApplication.onCreate()V",
          "target": "",
          "type": "",
          "constraintsFile": "constraints8_0.py",
          "variables": {},
          "stringMap": {
            "7000": ""
          },
          "strings": {
            "IAAv3": ""
          }
        },
        {
          "start": "vn.app.com.net.UpdateServiceReceiver.onReceive(Landroid/content/Context;Landroid/content/Intent;)V",
          "target": "",
          "type": "sms",
          "constraintsFile": "constraints8_1.py",
          "variables": {},
          "stringMap": {},
          "strings": {}
        },
        {
          "start": "vn.app.com.net.UpdateServiceReceiver.onReceive(Landroid/content/Context;Landroid/content/Intent;)V",
          "target": "invokevirtual \u003c Application, Landroid/telephony/SmsManager, sendTextMessage(Ljava/lang/String;Ljava/lang/String;Ljava/lang/String;Landroid/app/PendingIntent;Landroid/app/PendingIntent;)V \u003e@445",
          "type": "sms",
          "constraintsFile": "constraints8_2.py",
          "variables": {},
          "stringMap": {
            "7000": ""
          },
          "strings": {
            "IAAv3": ""
          }
        }
      ]
    },
    "9": {
      "startMethod": "vn.app.com.net.UpdateServiceReceiver.onReceive(Landroid/content/Context;Landroid/content/Intent;)V",
      "targetMethod": "android.telephony.SmsManager.sendTextMessage(Ljava/lang/String;Ljava/lang/String;Ljava/lang/String;Landroid/app/PendingIntent;Landroid/app/PendingIntent;)V",
      "eventChain": [
        {
          "start": "vn.app.com.net.BootApplication.onCreate()V",
          "target": "",
          "type": "",
          "constraintsFile": "constraints9_0.py",
          "variables": {
            "\u003cChainedInput2\u003e.getExtras()": "IAAv1"
          },
          "stringMap": {
            "7000": ""
          },
          "strings": {}
        },
        {
          "start": "vn.app.com.net.UpdateServiceReceiver.onReceive(Landroid/content/Context;Landroid/content/Intent;)V",
          "target": "invokevirtual \u003c Application, Landroid/telephony/SmsManager, sendTextMessage(Ljava/lang/String;Ljava/lang/String;Ljava/lang/String;Landroid/app/PendingIntent;Landroid/app/PendingIntent;)V \u003e@926",
          "type": "sms",
          "constraintsFile": "constraints9_1.py",
          "variables": {
            "\u003cChainedInput2\u003e.getExtras()": "IAAv1"
          },
          "stringMap": {
            "7000": ""
          },
          "strings": {}
        }
      ]
    },
    "10": {
      "startMethod": "vn.app.com.net.UpdateServiceReceiver.onReceive(Landroid/content/Context;Landroid/content/Intent;)V",
      "targetMethod": "android.telephony.SmsManager.sendTextMessage(Ljava/lang/String;Ljava/lang/String;Ljava/lang/String;Landroid/app/PendingIntent;Landroid/app/PendingIntent;)V",
      "eventChain": [
        {
          "start": "vn.app.com.net.BootApplication.onCreate()V",
          "target": "",
          "type": "",
          "constraintsFile": "constraints10_0.py",
          "variables": {
            "\u003cChainedInput2\u003e.getExtras()": "IAAv1"
          },
          "stringMap": {
            "7000": ""
          },
          "strings": {}
        },
        {
          "start": "vn.app.com.net.UpdateServiceReceiver.onReceive(Landroid/content/Context;Landroid/content/Intent;)V",
          "target": "invokevirtual \u003c Application, Landroid/telephony/SmsManager, sendTextMessage(Ljava/lang/String;Ljava/lang/String;Ljava/lang/String;Landroid/app/PendingIntent;Landroid/app/PendingIntent;)V \u003e@687",
          "type": "sms",
          "constraintsFile": "constraints10_1.py",
          "variables": {
            "\u003cChainedInput2\u003e.getExtras()": "IAAv1"
          },
          "stringMap": {
            "7000": ""
          },
          "strings": {}
        }
      ]
    },
    "11": {
      "startMethod": "vn.app.com.net.UpdateServiceReceiver.onReceive(Landroid/content/Context;Landroid/content/Intent;)V",
      "targetMethod": "android.telephony.SmsManager.sendTextMessage(Ljava/lang/String;Ljava/lang/String;Ljava/lang/String;Landroid/app/PendingIntent;Landroid/app/PendingIntent;)V",
      "eventChain": [
        {
          "start": "vn.app.com.net.BootApplication.onCreate()V",
          "target": "",
          "type": "",
          "constraintsFile": "constraints11_0.py",
          "variables": {},
          "stringMap": {
            "7000": ""
          },
          "strings": {
            "IAAv3": ""
          }
        },
        {
          "start": "vn.app.com.net.UpdateServiceReceiver.onReceive(Landroid/content/Context;Landroid/content/Intent;)V",
          "target": "",
          "type": "sms",
          "constraintsFile": "constraints11_1.py",
          "variables": {},
          "stringMap": {},
          "strings": {}
        },
        {
          "start": "vn.app.com.net.UpdateServiceReceiver.onReceive(Landroid/content/Context;Landroid/content/Intent;)V",
          "target": "invokevirtual \u003c Application, Landroid/telephony/SmsManager, sendTextMessage(Ljava/lang/String;Ljava/lang/String;Ljava/lang/String;Landroid/app/PendingIntent;Landroid/app/PendingIntent;)V \u003e@887",
          "type": "sms",
          "constraintsFile": "constraints11_2.py",
          "variables": {},
          "stringMap": {
            "7000": ""
          },
          "strings": {
            "IAAv3": ""
          }
        }
      ]
    },
    "12": {
      "startMethod": "vn.app.com.net.UpdateServiceReceiver.onReceive(Landroid/content/Context;Landroid/content/Intent;)V",
      "targetMethod": "android.telephony.SmsManager.sendTextMessage(Ljava/lang/String;Ljava/lang/String;Ljava/lang/String;Landroid/app/PendingIntent;Landroid/app/PendingIntent;)V",
      "eventChain": [
        {
          "start": "vn.app.com.net.BootApplication.onCreate()V",
          "target": "",
          "type": "",
          "constraintsFile": "constraints12_0.py",
          "variables": {},
          "stringMap": {
            "7000": ""
          },
          "strings": {
            "IAAv3": ""
          }
        },
        {
          "start": "vn.app.com.net.UpdateServiceReceiver.onReceive(Landroid/content/Context;Landroid/content/Intent;)V",
          "target": "",
          "type": "sms",
          "constraintsFile": "constraints12_1.py",
          "variables": {},
          "stringMap": {},
          "strings": {}
        },
        {
          "start": "vn.app.com.net.UpdateServiceReceiver.onReceive(Landroid/content/Context;Landroid/content/Intent;)V",
          "target": "invokevirtual \u003c Application, Landroid/telephony/SmsManager, sendTextMessage(Ljava/lang/String;Ljava/lang/String;Ljava/lang/String;Landroid/app/PendingIntent;Landroid/app/PendingIntent;)V \u003e@985",
          "type": "sms",
          "constraintsFile": "constraints12_2.py",
          "variables": {},
          "stringMap": {
            "7000": ""
          },
          "strings": {
            "IAAv3": ""
          }
        }
      ]
    },
    "13": {
      "startMethod": "vn.app.com.net.UpdateServiceReceiver.onReceive(Landroid/content/Context;Landroid/content/Intent;)V",
      "targetMethod": "android.telephony.SmsManager.sendTextMessage(Ljava/lang/String;Ljava/lang/String;Ljava/lang/String;Landroid/app/PendingIntent;Landroid/app/PendingIntent;)V",
      "eventChain": [
        {
          "start": "vn.app.com.net.BootApplication.onCreate()V",
          "target": "",
          "type": "",
          "constraintsFile": "constraints13_0.py",
          "variables": {
            "\u003cChainedInput2\u003e.getExtras()": "IAAv1"
          },
          "stringMap": {
            "7000": ""
          },
          "strings": {}
        },
        {
          "start": "vn.app.com.net.UpdateServiceReceiver.onReceive(Landroid/content/Context;Landroid/content/Intent;)V",
          "target": "invokevirtual \u003c Application, Landroid/telephony/SmsManager, sendTextMessage(Ljava/lang/String;Ljava/lang/String;Ljava/lang/String;Landroid/app/PendingIntent;Landroid/app/PendingIntent;)V \u003e@878",
          "type": "sms",
          "constraintsFile": "constraints13_1.py",
          "variables": {
            "\u003cChainedInput2\u003e.getExtras()": "IAAv1"
          },
          "stringMap": {
            "7000": ""
          },
          "strings": {}
        }
      ]
    },
    "14": {
      "startMethod": "vn.app.com.net.UpdateServiceReceiver.onReceive(Landroid/content/Context;Landroid/content/Intent;)V",
      "targetMethod": "android.telephony.SmsManager.sendTextMessage(Ljava/lang/String;Ljava/lang/String;Ljava/lang/String;Landroid/app/PendingIntent;Landroid/app/PendingIntent;)V",
      "eventChain": [
        {
          "start": "vn.app.com.net.BootApplication.onCreate()V",
          "target": "",
          "type": "",
          "constraintsFile": "constraints14_0.py",
          "variables": {},
          "stringMap": {
            "7000": ""
          },
          "strings": {
            "IAAv3": ""
          }
        },
        {
          "start": "vn.app.com.net.UpdateServiceReceiver.onReceive(Landroid/content/Context;Landroid/content/Intent;)V",
          "target": "",
          "type": "sms",
          "constraintsFile": "constraints14_1.py",
          "variables": {},
          "stringMap": {},
          "strings": {}
        },
        {
          "start": "vn.app.com.net.UpdateServiceReceiver.onReceive(Landroid/content/Context;Landroid/content/Intent;)V",
          "target": "invokevirtual \u003c Application, Landroid/telephony/SmsManager, sendTextMessage(Ljava/lang/String;Ljava/lang/String;Ljava/lang/String;Landroid/app/PendingIntent;Landroid/app/PendingIntent;)V \u003e@384",
          "type": "sms",
          "constraintsFile": "constraints14_2.py",
          "variables": {},
          "stringMap": {
            "7000": ""
          },
          "strings": {
            "IAAv3": ""
          }
        }
      ]
    },
    "15": {
      "startMethod": "vn.app.com.net.UpdateServiceReceiver.onReceive(Landroid/content/Context;Landroid/content/Intent;)V",
      "targetMethod": "org.apache.http.client.HttpClient.execute(Lorg/apache/http/client/methods/HttpUriRequest;)Lorg/apache/http/HttpResponse;",
      "eventChain": [
        {
          "start": "vn.app.com.net.UpdateServiceReceiver.onReceive(Landroid/content/Context;Landroid/content/Intent;)V",
          "target": "",
          "type": "sms",
          "constraintsFile": "constraints15_0.py",
          "variables": {
            "\u003cChainedInput1\u003e": "IAAv1"
          },
          "stringMap": {},
          "strings": {}
        },
        {
          "start": "vn.app.com.net.BootApplication.onCreate()V",
          "target": "",
          "type": "",
          "constraintsFile": "constraints15_1.py",
          "variables": {
            "\u003cChainedInput1\u003e": "IAAv1"
          },
          "stringMap": {},
          "strings": {}
        },
        {
          "start": "vn.app.com.net.UpdateServiceReceiver.onReceive(Landroid/content/Context;Landroid/content/Intent;)V",
          "target": "invokeinterface \u003c Application, Lorg/apache/http/client/HttpClient, execute(Lorg/apache/http/client/methods/HttpUriRequest;)Lorg/apache/http/HttpResponse; \u003e@23",
          "type": "sms",
          "constraintsFile": "constraints15_2.py",
          "variables": {
            "\u003cChainedInput1\u003e": "IAAv1"
          },
          "stringMap": {},
          "strings": {}
        }
      ]
    },
    "16": {
      "startMethod": "vn.app.com.net.UpdateServiceReceiver.onReceive(Landroid/content/Context;Landroid/content/Intent;)V",
      "targetMethod": "android.telephony.SmsManager.sendTextMessage(Ljava/lang/String;Ljava/lang/String;Ljava/lang/String;Landroid/app/PendingIntent;Landroid/app/PendingIntent;)V",
      "eventChain": [
        {
          "start": "vn.app.com.net.BootApplication.onCreate()V",
          "target": "",
          "type": "",
          "constraintsFile": "constraints16_0.py",
          "variables": {},
          "stringMap": {
            "7000": ""
          },
          "strings": {
            "IAAv3": ""
          }
        },
        {
          "start": "vn.app.com.net.UpdateServiceReceiver.onReceive(Landroid/content/Context;Landroid/content/Intent;)V",
          "target": "",
          "type": "sms",
          "constraintsFile": "constraints16_1.py",
          "variables": {},
          "stringMap": {},
          "strings": {}
        },
        {
          "start": "vn.app.com.net.UpdateServiceReceiver.onReceive(Landroid/content/Context;Landroid/content/Intent;)V",
          "target": "invokevirtual \u003c Application, Landroid/telephony/SmsManager, sendTextMessage(Ljava/lang/String;Ljava/lang/String;Ljava/lang/String;Landroid/app/PendingIntent;Landroid/app/PendingIntent;)V \u003e@696",
          "type": "sms",
          "constraintsFile": "constraints16_2.py",
          "variables": {},
          "stringMap": {
            "7000": ""
          },
          "strings": {
            "IAAv3": ""
          }
        }
      ]
    },
    "17": {
      "startMethod": "vn.app.com.net.BootStartActivity.onCreate(Landroid/os/Bundle;)V",
      "targetMethod": "android.telephony.SmsManager.sendTextMessage(Ljava/lang/String;Ljava/lang/String;Ljava/lang/String;Landroid/app/PendingIntent;Landroid/app/PendingIntent;)V",
      "eventChain": [
        {
          "start": "vn.app.com.net.BootStartActivity.onCreate(Landroid/os/Bundle;)V",
          "target": "",
          "type": "activity",
          "component": "vn.app.com.net.BootStartActivity",
          "constraintsFile": "constraints17_0.py",
          "variables": {},
          "stringMap": {},
          "strings": {}
        },
        {
          "start": "vn.app.com.net.BootApplication.onCreate()V",
          "target": "",
          "type": "",
          "constraintsFile": "constraints17_1.py",
          "variables": {},
          "stringMap": {
            "7000": "",
            "7001": "udh"
          },
          "strings": {
            "IAAv6": ""
          }
        },
        {
          "start": "vn.app.com.net.BootStartActivity.onCreate(Landroid/os/Bundle;)V",
          "target": "invokevirtual \u003c Application, Landroid/telephony/SmsManager, sendTextMessage(Ljava/lang/String;Ljava/lang/String;Ljava/lang/String;Landroid/app/PendingIntent;Landroid/app/PendingIntent;)V \u003e@887",
          "type": "activity",
          "component": "vn.app.com.net.BootStartActivity",
          "constraintsFile": "constraints17_2.py",
          "variables": {},
          "stringMap": {
            "7000": "",
            "7001": "udh"
          },
          "strings": {
            "IAAv6": ""
          }
        }
      ]
    },
    "18": {
      "startMethod": "vn.app.com.net.BootStartActivity.onCreate(Landroid/os/Bundle;)V",
      "targetMethod": "org.apache.http.client.HttpClient.execute(Lorg/apache/http/client/methods/HttpUriRequest;)Lorg/apache/http/HttpResponse;",
      "eventChain": [
        {
          "start": "vn.app.com.net.UpdateServiceReceiver.onReceive(Landroid/content/Context;Landroid/content/Intent;)V",
          "target": "PC@461",
          "type": "sms",
          "constraintsFile": "constraints18_0.py",
          "variables": {},
          "stringMap": {
            "7000": ""
          },
          "strings": {
            "IAAv3": ""
          }
        },
        {
          "start": "vn.app.com.net.BootStartActivity.onCreate(Landroid/os/Bundle;)V",
          "target": "",
          "type": "activity",
          "component": "vn.app.com.net.BootStartActivity",
          "constraintsFile": "constraints18_1.py",
          "variables": {},
          "stringMap": {},
          "strings": {}
        },
        {
          "start": "vn.app.com.net.BootApplication.onCreate()V",
          "target": "",
          "type": "",
          "constraintsFile": "constraints18_2.py",
          "variables": {},
          "stringMap": {
            "7000": "",
            "7001": "udh"
          },
          "strings": {
            "IAAv6": ""
          }
        },
        {
          "start": "vn.app.com.net.UpdateServiceReceiver.onReceive(Landroid/content/Context;Landroid/content/Intent;)V",
          "target": "PC@30",
          "type": "sms",
          "constraintsFile": "constraints18_3.py",
          "variables": {},
          "stringMap": {
            "7000": ""
          },
          "strings": {
            "IAAv3": ""
          }
        },
        {
          "start": "vn.app.com.net.BootStartActivity.onCreate(Landroid/os/Bundle;)V",
          "target": "invokeinterface \u003c Application, Lorg/apache/http/client/HttpClient, execute(Lorg/apache/http/client/methods/HttpUriRequest;)Lorg/apache/http/HttpResponse; \u003e@514",
          "type": "activity",
          "component": "vn.app.com.net.BootStartActivity",
          "constraintsFile": "constraints18_4.py",
          "variables": {},
          "stringMap": {
            "7000": "",
            "7001": "udh"
          },
          "strings": {
            "IAAv6": ""
          }
        }
      ]
    },
    "19": {
      "startMethod": "vn.app.com.net.BootStartActivity.onCreate(Landroid/os/Bundle;)V",
      "targetMethod": "android.telephony.SmsManager.sendTextMessage(Ljava/lang/String;Ljava/lang/String;Ljava/lang/String;Landroid/app/PendingIntent;Landroid/app/PendingIntent;)V",
      "eventChain": [
        {
          "start": "vn.app.com.net.BootStartActivity.onCreate(Landroid/os/Bundle;)V",
          "target": "",
          "type": "activity",
          "component": "vn.app.com.net.BootStartActivity",
          "constraintsFile": "constraints19_0.py",
          "variables": {},
          "stringMap": {},
          "strings": {}
        },
        {
          "start": "vn.app.com.net.BootApplication.onCreate()V",
          "target": "",
          "type": "",
          "constraintsFile": "constraints19_1.py",
          "variables": {},
          "stringMap": {
            "7000": "",
            "7001": "udh"
          },
          "strings": {
            "IAAv6": ""
          }
        },
        {
          "start": "vn.app.com.net.BootStartActivity.onCreate(Landroid/os/Bundle;)V",
          "target": "invokevirtual \u003c Application, Landroid/telephony/SmsManager, sendTextMessage(Ljava/lang/String;Ljava/lang/String;Ljava/lang/String;Landroid/app/PendingIntent;Landroid/app/PendingIntent;)V \u003e@696",
          "type": "activity",
          "component": "vn.app.com.net.BootStartActivity",
          "constraintsFile": "constraints19_2.py",
          "variables": {},
          "stringMap": {
            "7000": "",
            "7001": "udh"
          },
          "strings": {
            "IAAv6": ""
          }
        }
      ]
    },
    "20": {
      "startMethod": "vn.app.com.net.BootStartActivity.onCreate(Landroid/os/Bundle;)V",
      "targetMethod": "android.telephony.SmsManager.sendTextMessage(Ljava/lang/String;Ljava/lang/String;Ljava/lang/String;Landroid/app/PendingIntent;Landroid/app/PendingIntent;)V",
      "eventChain": [
        {
          "start": "vn.app.com.net.BootStartActivity.onCreate(Landroid/os/Bundle;)V",
          "target": "",
          "type": "activity",
          "component": "vn.app.com.net.BootStartActivity",
          "constraintsFile": "constraints20_0.py",
          "variables": {},
          "stringMap": {},
          "strings": {}
        },
        {
          "start": "vn.app.com.net.BootApplication.onCreate()V",
          "target": "",
          "type": "",
          "constraintsFile": "constraints20_1.py",
          "variables": {},
          "stringMap": {
            "7000": "",
            "7001": "udh"
          },
          "strings": {
            "IAAv6": ""
          }
        },
        {
          "start": "vn.app.com.net.BootStartActivity.onCreate(Landroid/os/Bundle;)V",
          "target": "invokevirtual \u003c Application, Landroid/telephony/SmsManager, sendTextMessage(Ljava/lang/String;Ljava/lang/String;Ljava/lang/String;Landroid/app/PendingIntent;Landroid/app/PendingIntent;)V \u003e@445",
          "type": "activity",
          "component": "vn.app.com.net.BootStartActivity",
          "constraintsFile": "constraints20_2.py",
          "variables": {},
          "stringMap": {
            "7000": "",
            "7001": "udh"
          },
          "strings": {
            "IAAv6": ""
          }
        }
      ]
    },
    "21": {
      "startMethod": "vn.app.com.net.BootStartActivity.onCreate(Landroid/os/Bundle;)V",
      "targetMethod": "org.apache.http.client.HttpClient.execute(Lorg/apache/http/client/methods/HttpUriRequest;)Lorg/apache/http/HttpResponse;",
      "eventChain": [
        {
          "start": "vn.app.com.net.BootApplication.onCreate()V",
          "target": "",
          "type": "",
          "constraintsFile": "constraints21_0.py",
          "variables": {},
          "stringMap": {},
          "strings": {}
        },
        {
          "start": "vn.app.com.net.BootStartActivity.onCreate(Landroid/os/Bundle;)V",
          "target": "invokeinterface \u003c Application, Lorg/apache/http/client/HttpClient, execute(Lorg/apache/http/client/methods/HttpUriRequest;)Lorg/apache/http/HttpResponse; \u003e@23",
          "type": "activity",
          "component": "vn.app.com.net.BootStartActivity",
          "constraintsFile": "constraints21_1.py",
          "variables": {},
          "stringMap": {},
          "strings": {}
        }
      ]
    },
    "22": {
      "startMethod": "vn.app.com.net.BootStartActivity.onCreate(Landroid/os/Bundle;)V",
      "targetMethod": "java.lang.ClassLoader.loadClass(Ljava/lang/String;)Ljava/lang/Class;",
      "eventChain": [
        {
          "start": "vn.app.com.net.BootStartActivity.onCreate(Landroid/os/Bundle;)V",
          "target": "",
          "type": "activity",
          "component": "vn.app.com.net.BootStartActivity",
          "constraintsFile": "constraints22_0.py",
          "variables": {},
          "stringMap": {},
          "strings": {}
        },
        {
          "start": "vn.app.com.net.BootApplication.onCreate()V",
          "target": "",
          "type": "",
          "constraintsFile": "constraints22_1.py",
          "variables": {},
          "stringMap": {
            "7000": "",
            "7001": "udh"
          },
          "strings": {}
        },
        {
          "start": "vn.app.com.net.BootStartActivity.onCreate(Landroid/os/Bundle;)V",
          "target": "invokevirtual \u003c Application, Ljava/lang/ClassLoader, loadClass(Ljava/lang/String;)Ljava/lang/Class; \u003e@24",
          "type": "activity",
          "component": "vn.app.com.net.BootStartActivity",
          "constraintsFile": "constraints22_2.py",
          "variables": {},
          "stringMap": {
            "7000": "",
            "7001": "udh"
          },
          "strings": {}
        }
      ]
    },
    "23": {
      "startMethod": "vn.app.com.net.BootStartActivity.onCreate(Landroid/os/Bundle;)V",
      "targetMethod": "java.net.URL.openConnection()Ljava/net/URLConnection;",
      "eventChain": [
        {
          "start": "vn.app.com.net.BootStartActivity.onCreate(Landroid/os/Bundle;)V",
          "target": "",
          "type": "activity",
          "component": "vn.app.com.net.BootStartActivity",
          "constraintsFile": "constraints23_0.py",
          "variables": {},
          "stringMap": {},
          "strings": {}
        },
        {
          "start": "vn.app.com.net.BootApplication.onCreate()V",
          "target": "",
          "type": "",
          "constraintsFile": "constraints23_1.py",
          "variables": {},
          "stringMap": {
            "7000": "",
            "7001": "udh"
          },
          "strings": {
            "IAAv6": ""
          }
        },
        {
          "start": "vn.app.com.net.BootStartActivity.onCreate(Landroid/os/Bundle;)V",
          "target": "invokevirtual \u003c Application, Ljava/net/URL, openConnection()Ljava/net/URLConnection; \u003e@283",
          "type": "activity",
          "component": "vn.app.com.net.BootStartActivity",
          "constraintsFile": "constraints23_2.py",
          "variables": {},
          "stringMap": {
            "7000": "",
            "7001": "udh"
          },
          "strings": {
            "IAAv6": ""
          }
        }
      ]
    },
    "24": {
      "startMethod": "vn.app.com.net.BootStartActivity.onCreate(Landroid/os/Bundle;)V",
      "targetMethod": "org.apache.http.client.HttpClient.execute(Lorg/apache/http/client/methods/HttpUriRequest;)Lorg/apache/http/HttpResponse;",
      "eventChain": [
        {
          "start": "vn.app.com.net.UpdateServiceReceiver.onReceive(Landroid/content/Context;Landroid/content/Intent;)V",
          "target": "PC@461",
          "type": "sms",
          "constraintsFile": "constraints24_0.py",
          "variables": {},
          "stringMap": {
            "7000": ""
          },
          "strings": {
            "IAAv3": ""
          }
        },
        {
          "start": "vn.app.com.net.BootStartActivity.onCreate(Landroid/os/Bundle;)V",
          "target": "",
          "type": "activity",
          "component": "vn.app.com.net.BootStartActivity",
          "constraintsFile": "constraints24_1.py",
          "variables": {},
          "stringMap": {},
          "strings": {}
        },
        {
          "start": "vn.app.com.net.BootApplication.onCreate()V",
          "target": "",
          "type": "",
          "constraintsFile": "constraints24_2.py",
          "variables": {},
          "stringMap": {
            "7000": "",
            "7001": "udh"
          },
          "strings": {
            "IAAv6": ""
          }
        },
        {
          "start": "vn.app.com.net.UpdateServiceReceiver.onReceive(Landroid/content/Context;Landroid/content/Intent;)V",
          "target": "PC@30",
          "type": "sms",
          "constraintsFile": "constraints24_3.py",
          "variables": {},
          "stringMap": {
            "7000": ""
          },
          "strings": {
            "IAAv3": ""
          }
        },
        {
          "start": "vn.app.com.net.BootStartActivity.onCreate(Landroid/os/Bundle;)V",
          "target": "invokeinterface \u003c Application, Lorg/apache/http/client/HttpClient, execute(Lorg/apache/http/client/methods/HttpUriRequest;)Lorg/apache/http/HttpResponse; \u003e@134",
          "type": "activity",
          "component": "vn.app.com.net.BootStartActivity",
          "constraintsFile": "constraints24_4.py",
          "variables": {},
          "stringMap": {
            "7000": "",
            "7001": "udh"
          },
          "strings": {
            "IAAv6": ""
          }
        }
      ]
    },
    "25": {
      "startMethod": "vn.app.com.net.BootStartActivity.onCreate(Landroid/os/Bundle;)V",
      "targetMethod": "android.telephony.SmsManager.sendTextMessage(Ljava/lang/String;Ljava/lang/String;Ljava/lang/String;Landroid/app/PendingIntent;Landroid/app/PendingIntent;)V",
      "eventChain": [
        {
          "start": "vn.app.com.net.BootStartActivity.onCreate(Landroid/os/Bundle;)V",
          "target": "",
          "type": "activity",
          "component": "vn.app.com.net.BootStartActivity",
          "constraintsFile": "constraints25_0.py",
          "variables": {},
          "stringMap": {},
          "strings": {}
        },
        {
          "start": "vn.app.com.net.BootApplication.onCreate()V",
          "target": "",
          "type": "",
          "constraintsFile": "constraints25_1.py",
          "variables": {},
          "stringMap": {
            "7000": "",
            "7001": "udh"
          },
          "strings": {
            "IAAv6": ""
          }
        },
        {
          "start": "vn.app.com.net.BootStartActivity.onCreate(Landroid/os/Bundle;)V",
          "target": "invokevirtual \u003c Application, Landroid/telephony/SmsManager, sendTextMessage(Ljava/lang/String;Ljava/lang/String;Ljava/lang/String;Landroid/app/PendingIntent;Landroid/app/PendingIntent;)V \u003e@985",
          "type": "activity",
          "component": "vn.app.com.net.BootStartActivity",
          "constraintsFile": "constraints25_2.py",
          "variables": {},
          "stringMap": {
            "7000": "",
            "7001": "udh"
          },
          "strings": {
            "IAAv6": ""
          }
        }
      ]
    },
    "26": {
      "startMethod": "vn.app.com.net.BootStartActivity.onCreate(Landroid/os/Bundle;)V",
      "targetMethod": "android.telephony.SmsManager.sendTextMessage(Ljava/lang/String;Ljava/lang/String;Ljava/lang/String;Landroid/app/PendingIntent;Landroid/app/PendingIntent;)V",
      "eventChain": [
        {
          "start": "vn.app.com.net.BootStartActivity.onCreate(Landroid/os/Bundle;)V",
          "target": "",
          "type": "activity",
          "component": "vn.app.com.net.BootStartActivity",
          "constraintsFile": "constraints26_0.py",
          "variables": {},
          "stringMap": {},
          "strings": {}
        },
        {
          "start": "vn.app.com.net.BootApplication.onCreate()V",
          "target": "",
          "type": "",
          "constraintsFile": "constraints26_1.py",
          "variables": {},
          "stringMap": {
            "7000": "",
            "7001": "udh"
          },
          "strings": {
            "IAAv6": ""
          }
        },
        {
          "start": "vn.app.com.net.BootStartActivity.onCreate(Landroid/os/Bundle;)V",
          "target": "invokevirtual \u003c Application, Landroid/telephony/SmsManager, sendTextMessage(Ljava/lang/String;Ljava/lang/String;Ljava/lang/String;Landroid/app/PendingIntent;Landroid/app/PendingIntent;)V \u003e@753",
          "type": "activity",
          "component": "vn.app.com.net.BootStartActivity",
          "constraintsFile": "constraints26_2.py",
          "variables": {},
          "stringMap": {
            "7000": "",
            "7001": "udh"
          },
          "strings": {
            "IAAv6": ""
          }
        }
      ]
    },
    "27": {
      "startMethod": "vn.app.com.net.BootStartActivity.onCreate(Landroid/os/Bundle;)V",
      "targetMethod": "android.telephony.SmsManager.sendTextMessage(Ljava/lang/String;Ljava/lang/String;Ljava/lang/String;Landroid/app/PendingIntent;Landroid/app/PendingIntent;)V",
      "eventChain": [
        {
          "start": "vn.app.com.net.BootStartActivity.onCreate(Landroid/os/Bundle;)V",
          "target": "",
          "type": "activity",
          "component": "vn.app.com.net.BootStartActivity",
          "constraintsFile": "constraints27_0.py",
          "variables": {},
          "stringMap": {},
          "strings": {}
        },
        {
          "start": "vn.app.com.net.BootApplication.onCreate()V",
          "target": "",
          "type": "",
          "constraintsFile": "constraints27_1.py",
          "variables": {},
          "stringMap": {
            "7000": "",
            "7001": "udh"
          },
          "strings": {
            "IAAv6": ""
          }
        },
        {
          "start": "vn.app.com.net.BootStartActivity.onCreate(Landroid/os/Bundle;)V",
          "target": "invokevirtual \u003c Application, Landroid/telephony/SmsManager, sendTextMessage(Ljava/lang/String;Ljava/lang/String;Ljava/lang/String;Landroid/app/PendingIntent;Landroid/app/PendingIntent;)V \u003e@384",
          "type": "activity",
          "component": "vn.app.com.net.BootStartActivity",
          "constraintsFile": "constraints27_2.py",
          "variables": {},
          "stringMap": {
            "7000": "",
            "7001": "udh"
          },
          "strings": {
            "IAAv6": ""
          }
        }
      ]
    },
    "28": {
      "startMethod": "vn.app.com.net.BootApplication.onCreate()V",
      "targetMethod": "org.apache.http.client.HttpClient.execute(Lorg/apache/http/client/methods/HttpUriRequest;)Lorg/apache/http/HttpResponse;",
      "eventChain": [
        {
          "start": "vn.app.com.net.BootApplication.onCreate()V",
          "target": "invokeinterface \u003c Application, Lorg/apache/http/client/HttpClient, execute(Lorg/apache/http/client/methods/HttpUriRequest;)Lorg/apache/http/HttpResponse; \u003e@23",
          "type": ""
        }
      ]
    },
    "29": {
      "startMethod": "com.tapjoy.TapjoyVideoView$2.onClick(Landroid/view/View;)V",
      "targetMethod": "java.net.URL.openConnection()Ljava/net/URLConnection;",
      "eventChain": [
        {
          "start": "com.tapjoy.TapjoyVideoView.onCompletion(Landroid/media/MediaPlayer;)V",
          "target": "invokevirtual \u003c Application, Landroid/widget/Button, setOnClickListener(Landroid/view/View$OnClickListener;)V \u003e@1825",
          "type": "",
          "constraintsFile": "constraints29_0.py",
          "variables": {},
          "stringMap": {},
          "strings": {}
        },
        {
          "start": "com.tapjoy.TapjoyVideoView$2.onClick(Landroid/view/View;)V",
          "target": "invokevirtual \u003c Application, Ljava/net/URL, openConnection()Ljava/net/URLConnection; \u003e@53",
          "type": "ui",
          "activities": [
            "vn.app.com.net.BootStartActivity"
          ],
          "listener": "com.tapjoy.TapjoyVideoView$2",
          "listenerMethod": "onClick",
          "uiType": "onClick",
          "constraintsFile": "constraints29_1.py",
          "variables": {},
          "stringMap": {},
          "strings": {}
        }
      ]
    },
    "30": {
      "startMethod": "com.tapjoy.TapjoyVideoView$2.onClick(Landroid/view/View;)V",
      "targetMethod": "java.net.URL.openConnection()Ljava/net/URLConnection;",
      "eventChain": [
        {
          "start": "com.tapjoy.TapjoyVideoView.onCompletion(Landroid/media/MediaPlayer;)V",
          "target": "invokevirtual \u003c Application, Landroid/widget/Button, setOnClickListener(Landroid/view/View$OnClickListener;)V \u003e@1825",
          "type": "",
          "constraintsFile": "constraints30_0.py",
          "variables": {},
          "stringMap": {},
          "strings": {}
        },
        {
          "start": "com.tapjoy.TapjoyVideoView$2.onClick(Landroid/view/View;)V",
          "target": "invokevirtual \u003c Application, Ljava/net/URL, openConnection()Ljava/net/URLConnection; \u003e@21",
          "type": "ui",
          "activities": [
            "vn.app.com.net.BootStartActivity"
          ],
          "listener": "com.tapjoy.TapjoyVideoView$2",
          "listenerMethod": "onClick",
          "uiType": "onClick",
          "constraintsFile": "constraints30_1.py",
          "variables": {},
          "stringMap": {},
          "strings": {}
        }
      ]
    },
    "31": {
      "startMethod": "com.tapjoy.TapjoyVideoView$2.onClick(Landroid/view/View;)V",
      "targetMethod": "java.net.URL.openConnection()Ljava/net/URLConnection;",
      "eventChain": [
        {
          "start": "com.tapjoy.TapjoyVideoView.onCompletion(Landroid/media/MediaPlayer;)V",
          "target": "invokevirtual \u003c Application, Landroid/widget/Button, setOnClickListener(Landroid/view/View$OnClickListener;)V \u003e@1825",
          "type": "",
          "constraintsFile": "constraints31_0.py",
          "variables": {},
          "stringMap": {},
          "strings": {}
        },
        {
          "start": "com.tapjoy.TapjoyVideoView$2.onClick(Landroid/view/View;)V",
          "target": "invokevirtual \u003c Application, Ljava/net/URL, openConnection()Ljava/net/URLConnection; \u003e@157",
          "type": "ui",
          "activities": [
            "vn.app.com.net.BootStartActivity"
          ],
          "listener": "com.tapjoy.TapjoyVideoView$2",
          "listenerMethod": "onClick",
          "uiType": "onClick",
          "constraintsFile": "constraints31_1.py",
          "variables": {},
          "stringMap": {},
          "strings": {}
        }
      ]
    },
    "32": {
      "startMethod": "com.parse.LocationNotifier$1.onLocationChanged(Landroid/location/Location;)V",
      "targetMethod": "org.apache.http.client.HttpClient.execute(Lorg/apache/http/client/methods/HttpUriRequest;)Lorg/apache/http/HttpResponse;",
      "eventChain": [
        {
          "start": "com.parse.LocationNotifier$1.onLocationChanged(Landroid/location/Location;)V",
          "target": "invokeinterface \u003c Application, Lorg/apache/http/client/HttpClient, execute(Lorg/apache/http/client/methods/HttpUriRequest;)Lorg/apache/http/HttpResponse; \u003e@23",
          "type": "location",
          "constraintsFile": "constraints32_0.py",
          "variables": {
            "\u003cChainedInput1\u003e": "IAAv0"
          },
          "stringMap": {},
          "strings": {}
        }
      ]
    },
    "33": {
      "startMethod": "com.google.ads.InstallReceiver.onReceive(Landroid/content/Context;Landroid/content/Intent;)V",
      "targetMethod": "java.net.URL.openConnection()Ljava/net/URLConnection;",
      "eventChain": [
        {
          "start": "com.google.ads.InstallReceiver.onReceive(Landroid/content/Context;Landroid/content/Intent;)V",
          "target": "invokevirtual \u003c Application, Ljava/net/URL, openConnection()Ljava/net/URLConnection; \u003e@104",
          "type": "sms"
        }
      ]
    },
    "34": {
      "startMethod": "com.ngmoco.gamejs.ad.MobclixReceiver.onReceive(Landroid/content/Context;Landroid/content/Intent;)V",
      "targetMethod": "org.apache.http.client.HttpClient.execute(Lorg/apache/http/client/methods/HttpUriRequest;)Lorg/apache/http/HttpResponse;",
      "eventChain": [
        {
          "start": "com.ngmoco.gamejs.ad.MobclixReceiver.onReceive(Landroid/content/Context;Landroid/content/Intent;)V",
          "target": "invokeinterface \u003c Application, Lorg/apache/http/client/HttpClient, execute(Lorg/apache/http/client/methods/HttpUriRequest;)Lorg/apache/http/HttpResponse; \u003e@30",
          "type": "sms",
          "constraintsFile": "constraints34_0.py",
          "variables": {
            "\u003cInput2\u003e.getStringExtra()": "IAAv0"
          },
          "stringMap": {
            "7000": ""
          },
          "strings": {
            "IAAv0": ""
          }
        }
      ]
    },
    "35": {
      "startMethod": "com.mobclix.android.sdk.MobclixReferralReceiver.onReceive(Landroid/content/Context;Landroid/content/Intent;)V",
      "targetMethod": "java.lang.reflect.Method.invoke(Ljava/lang/Object;[Ljava/lang/Object;)Ljava/lang/Object;",
      "eventChain": [
        {
          "start": "com.mobclix.android.sdk.MobclixReferralReceiver.onReceive(Landroid/content/Context;Landroid/content/Intent;)V",
          "target": "invokevirtual \u003c Application, Ljava/lang/reflect/Method, invoke(Ljava/lang/Object;[Ljava/lang/Object;)Ljava/lang/Object; \u003e@392",
          "type": "sms"
        }
      ]
    },
    "36": {
      "startMethod": "com.mobclix.android.sdk.MobclixReferralReceiver.onReceive(Landroid/content/Context;Landroid/content/Intent;)V",
      "targetMethod": "java.lang.reflect.Method.invoke(Ljava/lang/Object;[Ljava/lang/Object;)Ljava/lang/Object;",
      "eventChain": [
        {
          "start": "com.mobclix.android.sdk.MobclixReferralReceiver.onReceive(Landroid/content/Context;Landroid/content/Intent;)V",
          "target": "invokevirtual \u003c Application, Ljava/lang/reflect/Method, invoke(Ljava/lang/Object;[Ljava/lang/Object;)Ljava/lang/Object; \u003e@257",
          "type": "sms",
          "constraintsFile": "constraints36_0.py",
          "variables": {
            "\u003cInput2\u003e.getExtras()": "IAAv0"
          },
          "stringMap": {
            "7000": ""
          },
          "strings": {}
        }
      ]
    },
    "37": {
      "startMethod": "com.sponsorpay.sdk.android.advertiser.SponsorPayCallbackDelayer.onReceive(Landroid/content/Context;Landroid/content/Intent;)V",
      "targetMethod": "org.apache.http.client.HttpClient.execute(Lorg/apache/http/client/methods/HttpUriRequest;)Lorg/apache/http/HttpResponse;",
      "eventChain": [
        {
          "start": "com.sponsorpay.sdk.android.advertiser.SponsorPayCallbackDelayer.onReceive(Landroid/content/Context;Landroid/content/Intent;)V",
          "target": "",
          "type": "sms",
          "constraintsFile": "constraints37_0.py",
          "variables": {},
          "stringMap": {},
          "strings": {}
        },
        {
          "start": "com.sponsorpay.sdk.android.advertiser.SponsorPayCallbackDelayer.onReceive(Landroid/content/Context;Landroid/content/Intent;)V",
          "target": "invokeinterface \u003c Application, Lorg/apache/http/client/HttpClient, execute(Lorg/apache/http/client/methods/HttpUriRequest;)Lorg/apache/http/HttpResponse; \u003e@161",
          "type": "sms",
          "constraintsFile": "constraints37_1.py",
          "variables": {
            "\u003cChainedInput2\u003e.getStringExtra()": "IAAv1"
          },
          "stringMap": {
            "7000": ""
          },
          "strings": {
            "IAAv1": ""
          }
        }
      ]
    },
    "38": {
      "startMethod": "vn.adflex.sdk.AdFlexBootUpReceiver.onReceive(Landroid/content/Context;Landroid/content/Intent;)V",
      "targetMethod": "dalvik.system.DexClassLoader.loadClass(Ljava/lang/String;)Ljava/lang/Class;",
      "eventChain": [
        {
          "start": "vn.adflex.sdk.AdFlexBootUpReceiver.onReceive(Landroid/content/Context;Landroid/content/Intent;)V",
          "target": "invokespecial \u003c Application, Ldalvik/system/DexClassLoader, loadClass(Ljava/lang/String;)Ljava/lang/Class; \u003e@12",
          "type": "sms"
        }
      ]
    },
    "39": {
      "startMethod": "vn.adflex.sdk.AdFlexBootUpReceiver.onReceive(Landroid/content/Context;Landroid/content/Intent;)V",
      "targetMethod": "dalvik.system.DexClassLoader.loadClass(Ljava/lang/String;)Ljava/lang/Class;",
      "eventChain": [
        {
          "start": "vn.adflex.sdk.AdFlexBootUpReceiver.onReceive(Landroid/content/Context;Landroid/content/Intent;)V",
          "target": "invokevirtual \u003c Application, Ldalvik/system/DexClassLoader, loadClass(Ljava/lang/String;)Ljava/lang/Class; \u003e@8",
          "type": "sms"
        }
      ]
    },
    "40": {
      "startMethod": "vn.adflex.sdk.AdFlexBootUpReceiver.onReceive(Landroid/content/Context;Landroid/content/Intent;)V",
      "targetMethod": "org.apache.http.client.HttpClient.execute(Lorg/apache/http/client/methods/HttpUriRequest;)Lorg/apache/http/HttpResponse;",
      "eventChain": [
        {
          "start": "vn.adflex.sdk.AdFlexBootUpReceiver.onReceive(Landroid/content/Context;Landroid/content/Intent;)V",
          "target": "invokeinterface \u003c Application, Lorg/apache/http/client/HttpClient, execute(Lorg/apache/http/client/methods/HttpUriRequest;)Lorg/apache/http/HttpResponse; \u003e@866",
          "type": "sms"
        }
      ]
    },
    "41": {
      "startMethod": "vn.adflex.sdk.AdFlexBootUpReceiver.onReceive(Landroid/content/Context;Landroid/content/Intent;)V",
      "targetMethod": "java.lang.reflect.Method.invoke(Ljava/lang/Object;[Ljava/lang/Object;)Ljava/lang/Object;",
      "eventChain": [
        {
          "start": "vn.adflex.sdk.AdFlexBootUpReceiver.onReceive(Landroid/content/Context;Landroid/content/Intent;)V",
          "target": "invokevirtual \u003c Application, Ljava/lang/reflect/Method, invoke(Ljava/lang/Object;[Ljava/lang/Object;)Ljava/lang/Object; \u003e@240",
          "type": "sms"
        }
      ]
    },
    "42": {
      "startMethod": "vn.adflex.sdk.AdFlexBootUpReceiver.onReceive(Landroid/content/Context;Landroid/content/Intent;)V",
      "targetMethod": "org.apache.http.client.HttpClient.execute(Lorg/apache/http/client/methods/HttpUriRequest;)Lorg/apache/http/HttpResponse;",
      "eventChain": [
        {
          "start": "vn.adflex.sdk.AdFlexBootUpReceiver.onReceive(Landroid/content/Context;Landroid/content/Intent;)V",
          "target": "invokeinterface \u003c Application, Lorg/apache/http/client/HttpClient, execute(Lorg/apache/http/client/methods/HttpUriRequest;)Lorg/apache/http/HttpResponse; \u003e@154",
          "type": "sms"
        }
      ]
    },
    "43": {
      "startMethod": "com.tapjoy.TapjoyVideoView.onCompletion(Landroid/media/MediaPlayer;)V",
      "targetMethod": "java.net.URL.openConnection()Ljava/net/URLConnection;",
      "eventChain": [
        {
          "start": "com.tapjoy.TapjoyVideoView$2.onClick(Landroid/view/View;)V",
          "target": "invokevirtual \u003c Application, Landroid/widget/VideoView, setOnCompletionListener(Landroid/media/MediaPlayer$OnCompletionListener;)V \u003e@147",
          "type": "ui",
          "activities": [
            "vn.app.com.net.BootStartActivity"
          ],
          "listener": "com.tapjoy.TapjoyVideoView$2",
          "listenerMethod": "onClick",
          "uiType": "onClick",
          "constraintsFile": "constraints43_0.py",
          "variables": {},
          "stringMap": {},
          "strings": {}
        },
        {
          "start": "com.tapjoy.TapjoyVideoView.\u003cinit\u003e()V",
          "target": "PC@56",
          "type": "",
          "constraintsFile": "constraints43_1.py",
          "variables": {},
          "stringMap": {},
          "strings": {}
        },
        {
          "start": "com.tapjoy.TapjoyVideoView.onCompletion(Landroid/media/MediaPlayer;)V",
          "target": "invokevirtual \u003c Application, Ljava/net/URL, openConnection()Ljava/net/URLConnection; \u003e@157",
          "type": "",
          "constraintsFile": "constraints43_2.py",
          "variables": {},
          "stringMap": {},
          "strings": {}
        }
      ]
    },
    "44": {
      "startMethod": "com.tapjoy.TapjoyVideoView.onCompletion(Landroid/media/MediaPlayer;)V",
      "targetMethod": "java.net.URL.openConnection()Ljava/net/URLConnection;",
      "eventChain": [
        {
          "start": "com.tapjoy.TapjoyVideoView$2.onClick(Landroid/view/View;)V",
          "target": "invokevirtual \u003c Application, Landroid/widget/VideoView, setOnCompletionListener(Landroid/media/MediaPlayer$OnCompletionListener;)V \u003e@147",
          "type": "ui",
          "activities": [
            "vn.app.com.net.BootStartActivity"
          ],
          "listener": "com.tapjoy.TapjoyVideoView$2",
          "listenerMethod": "onClick",
          "uiType": "onClick",
          "constraintsFile": "constraints44_0.py",
          "variables": {},
          "stringMap": {},
          "strings": {}
        },
        {
          "start": "com.tapjoy.TapjoyVideoView.\u003cinit\u003e()V",
          "target": "PC@56",
          "type": "",
          "constraintsFile": "constraints44_1.py",
          "variables": {},
          "stringMap": {},
          "strings": {}
        },
        {
          "start": "com.tapjoy.TapjoyVideoView.onCompletion(Landroid/media/MediaPlayer;)V",
          "target": "invokevirtual \u003c Application, Ljava/net/URL, openConnection()Ljava/net/URLConnection; \u003e@21",
          "type": "",
          "constraintsFile": "constraints44_2.py",
          "variables": {},
          "stringMap": {},
          "strings": {}
        }
      ]
    },
    "45": {
      "startMethod": "com.tapjoy.TapjoyVideoView.onCompletion(Landroid/media/MediaPlayer;)V",
      "targetMethod": "java.net.URL.openConnection()Ljava/net/URLConnection;",
      "eventChain": [
        {
          "start": "com.tapjoy.TapjoyVideoView$2.onClick(Landroid/view/View;)V",
          "target": "invokevirtual \u003c Application, Landroid/widget/VideoView, setOnCompletionListener(Landroid/media/MediaPlayer$OnCompletionListener;)V \u003e@147",
          "type": "ui",
          "activities": [
            "vn.app.com.net.BootStartActivity"
          ],
          "listener": "com.tapjoy.TapjoyVideoView$2",
          "listenerMethod": "onClick",
          "uiType": "onClick",
          "constraintsFile": "constraints45_0.py",
          "variables": {},
          "stringMap": {},
          "strings": {}
        },
        {
          "start": "com.tapjoy.TapjoyVideoView.\u003cinit\u003e()V",
          "target": "PC@56",
          "type": "",
          "constraintsFile": "constraints45_1.py",
          "variables": {},
          "stringMap": {},
          "strings": {}
        },
        {
          "start": "com.tapjoy.TapjoyVideoView.onCompletion(Landroid/media/MediaPlayer;)V",
          "target": "invokevirtual \u003c Application, Ljava/net/URL, openConnection()Ljava/net/URLConnection; \u003e@53",
          "type": "",
          "constraintsFile": "constraints45_2.py",
          "variables": {},
          "stringMap": {},
          "strings": {}
        }
      ]
    }
  }
}