{
  "packageName": "com.blackube.sudokuUltra",
  "mainActivity": "com.blackube.sudokuUltra.MainActivity",
  "callPaths": {
    "0": {
      "startMethod": "com.appMobiCloud.google_play.BillingReceiver.onReceive(Landroid/content/Context;Landroid/content/Intent;)V",
      "targetMethod": "org.apache.http.impl.client.DefaultHttpClient.execute(Lorg/apache/http/client/methods/HttpUriRequest;)Lorg/apache/http/HttpResponse;",
      "eventChain": [
        {
          "start": "com.appMobiCloud.google_play.BillingReceiver.onReceive(Landroid/content/Context;Landroid/content/Intent;)V",
          "target": "invokevirtual \u003c Application, Lorg/apache/http/impl/client/DefaultHttpClient, execute(Lorg/apache/http/client/methods/HttpUriRequest;)Lorg/apache/http/HttpResponse; \u003e@108",
          "type": "sms",
          "constraintsFile": "constraints0_0.py",
          "variables": {
            "\u003cInput2\u003e.getAction()": "IAAv0"
          },
          "stringMap": {
            "7000": "com.android.vending.billing.PURCHASE_STATE_CHANGED"
          },
          "strings": {
            "IAAv0": ""
          }
        }
      ]
    },
    "1": {
      "startMethod": "com.appMobi.appMobiLib.AppMobiActivity.onKeyDown(ILandroid/view/KeyEvent;)Z",
      "targetMethod": "java.net.URL.openConnection()Ljava/net/URLConnection;",
      "eventChain": [
        {
          "start": "com.appMobi.appMobiLib.AppMobiActivity.onKeyDown(ILandroid/view/KeyEvent;)Z",
          "target": "PC@134",
          "type": "ui",
          "activities": [
            "com.blackube.sudokuUltra.MainActivity"
          ],
          "listener": "com.appMobi.appMobiLib.AppMobiActivity",
          "listenerMethod": "onKeyDown",
          "uiType": "onKeyDown",
          "constraintsFile": "constraints1_0.py",
          "variables": {
            "\u003cChainedInput1\u003e": "IAAv0"
          },
          "stringMap": {
            "7000": "LD2",
            "7001": "3.3.0",
            "7002": "3.4.0",
            "7003": "QA"
          },
          "strings": {
            "IAAv27": "",
            "IAAv15": "",
            "IAAv34": "",
            "IAAv30": ""
          }
        },
        {
          "start": "com.appMobi.appMobiLib.AppMobiActivity.onKeyDown(ILandroid/view/KeyEvent;)Z",
          "target": "PC@47",
          "type": "ui",
          "activities": [
            "com.blackube.sudokuUltra.MainActivity"
          ],
          "listener": "com.appMobi.appMobiLib.AppMobiActivity",
          "listenerMethod": "onKeyDown",
          "uiType": "onKeyDown",
          "constraintsFile": "constraints1_1.py",
          "variables": {
            "\u003cChainedInput1\u003e": "IAAv0"
          },
          "stringMap": {},
          "strings": {}
        },
        {
          "start": "com.appMobi.appMobiLib.AppMobiActivity.onKeyDown(ILandroid/view/KeyEvent;)Z",
          "target": "invokevirtual \u003c Application, Ljava/net/URL, openConnection()Ljava/net/URLConnection; \u003e@209",
          "type": "ui",
          "activities": [
            "com.blackube.sudokuUltra.MainActivity"
          ],
          "listener": "com.appMobi.appMobiLib.AppMobiActivity",
          "listenerMethod": "onKeyDown",
          "uiType": "onKeyDown",
          "constraintsFile": "constraints1_2.py",
          "variables": {
            "\u003cChainedInput1\u003e": "IAAv0"
          },
          "stringMap": {
            "7000": "LD2",
            "7001": "3.3.0",
            "7002": "3.4.0",
            "7003": "QA"
          },
          "strings": {
            "IAAv27": "",
            "IAAv15": "",
            "IAAv34": "",
            "IAAv30": ""
          }
        }
      ]
    },
    "2": {
      "startMethod": "com.appMobi.appMobiLib.AppMobiActivity.onKeyDown(ILandroid/view/KeyEvent;)Z",
      "targetMethod": "org.apache.http.impl.client.DefaultHttpClient.execute(Lorg/apache/http/client/methods/HttpUriRequest;)Lorg/apache/http/HttpResponse;",
      "eventChain": [
        {
          "start": "com.appMobi.appMobiLib.AppMobiActivity.onKeyDown(ILandroid/view/KeyEvent;)Z",
          "target": "PC@134",
          "type": "ui",
          "activities": [
            "com.blackube.sudokuUltra.MainActivity"
          ],
          "listener": "com.appMobi.appMobiLib.AppMobiActivity",
          "listenerMethod": "onKeyDown",
          "uiType": "onKeyDown",
          "constraintsFile": "constraints2_0.py",
          "variables": {
            "\u003cChainedInput1\u003e": "IAAv0"
          },
          "stringMap": {
            "7000": "LD2"
          },
          "strings": {
            "IAAv15": ""
          }
        },
        {
          "start": "com.appMobi.appMobiLib.AppMobiActivity.onKeyDown(ILandroid/view/KeyEvent;)Z",
          "target": "PC@47",
          "type": "ui",
          "activities": [
            "com.blackube.sudokuUltra.MainActivity"
          ],
          "listener": "com.appMobi.appMobiLib.AppMobiActivity",
          "listenerMethod": "onKeyDown",
          "uiType": "onKeyDown",
          "constraintsFile": "constraints2_1.py",
          "variables": {
            "\u003cChainedInput1\u003e": "IAAv0"
          },
          "stringMap": {},
          "strings": {}
        },
        {
          "start": "com.appMobi.appMobiLib.AppMobiActivity.onKeyDown(ILandroid/view/KeyEvent;)Z",
          "target": "invokevirtual \u003c Application, Lorg/apache/http/impl/client/DefaultHttpClient, execute(Lorg/apache/http/client/methods/HttpUriRequest;)Lorg/apache/http/HttpResponse; \u003e@225",
          "type": "ui",
          "activities": [
            "com.blackube.sudokuUltra.MainActivity"
          ],
          "listener": "com.appMobi.appMobiLib.AppMobiActivity",
          "listenerMethod": "onKeyDown",
          "uiType": "onKeyDown",
          "constraintsFile": "constraints2_2.py",
          "variables": {
            "\u003cChainedInput1\u003e": "IAAv0"
          },
          "stringMap": {
            "7000": "LD2"
          },
          "strings": {
            "IAAv15": ""
          }
        }
      ]
    },
    "3": {
      "startMethod": "com.appMobi.appMobiLib.AppMobiActivity.onKeyDown(ILandroid/view/KeyEvent;)Z",
      "targetMethod": "org.apache.http.impl.client.DefaultHttpClient.execute(Lorg/apache/http/client/methods/HttpUriRequest;)Lorg/apache/http/HttpResponse;",
      "eventChain": [
        {
          "start": "com.appMobi.appMobiLib.AppMobiActivity.onKeyDown(ILandroid/view/KeyEvent;)Z",
          "target": "PC@134",
          "type": "ui",
          "activities": [
            "com.blackube.sudokuUltra.MainActivity"
          ],
          "listener": "com.appMobi.appMobiLib.AppMobiActivity",
          "listenerMethod": "onKeyDown",
          "uiType": "onKeyDown",
          "constraintsFile": "constraints3_0.py",
          "variables": {
            "\u003cChainedInput1\u003e": "IAAv0"
          },
          "stringMap": {},
          "strings": {
            "IAAv10": ""
          }
        },
        {
          "start": "com.appMobi.appMobiLib.AppMobiActivity.onKeyDown(ILandroid/view/KeyEvent;)Z",
          "target": "PC@47",
          "type": "ui",
          "activities": [
            "com.blackube.sudokuUltra.MainActivity"
          ],
          "listener": "com.appMobi.appMobiLib.AppMobiActivity",
          "listenerMethod": "onKeyDown",
          "uiType": "onKeyDown",
          "constraintsFile": "constraints3_1.py",
          "variables": {
            "\u003cChainedInput1\u003e": "IAAv0"
          },
          "stringMap": {},
          "strings": {}
        },
        {
          "start": "com.appMobi.appMobiLib.AppMobiActivity.onKeyDown(ILandroid/view/KeyEvent;)Z",
          "target": "invokevirtual \u003c Application, Lorg/apache/http/impl/client/DefaultHttpClient, execute(Lorg/apache/http/client/methods/HttpUriRequest;)Lorg/apache/http/HttpResponse; \u003e@175",
          "type": "ui",
          "activities": [
            "com.blackube.sudokuUltra.MainActivity"
          ],
          "listener": "com.appMobi.appMobiLib.AppMobiActivity",
          "listenerMethod": "onKeyDown",
          "uiType": "onKeyDown",
          "constraintsFile": "constraints3_2.py",
          "variables": {
            "\u003cChainedInput1\u003e": "IAAv0"
          },
          "stringMap": {},
          "strings": {
            "IAAv10": ""
          }
        }
      ]
    },
    "4": {
      "startMethod": "com.appMobi.appMobiLib.AppMobiActivity.onKeyDown(ILandroid/view/KeyEvent;)Z",
      "targetMethod": "org.apache.http.impl.client.DefaultHttpClient.execute(Lorg/apache/http/client/methods/HttpUriRequest;)Lorg/apache/http/HttpResponse;",
      "eventChain": [
        {
          "start": "com.appMobi.appMobiLib.AppMobiActivity.onKeyDown(ILandroid/view/KeyEvent;)Z",
          "target": "PC@134",
          "type": "ui",
          "activities": [
            "com.blackube.sudokuUltra.MainActivity"
          ],
          "listener": "com.appMobi.appMobiLib.AppMobiActivity",
          "listenerMethod": "onKeyDown",
          "uiType": "onKeyDown",
          "constraintsFile": "constraints4_0.py",
          "variables": {
            "\u003cChainedInput1\u003e": "IAAv0"
          },
          "stringMap": {
            "7000": "LD2",
            "7001": "3.3.0",
            "7002": "3.4.0"
          },
          "strings": {
            "IAAv36": "",
            "IAAv28": "",
            "IAAv15": ""
          }
        },
        {
          "start": "com.appMobi.appMobiLib.AppMobiActivity.onKeyDown(ILandroid/view/KeyEvent;)Z",
          "target": "PC@47",
          "type": "ui",
          "activities": [
            "com.blackube.sudokuUltra.MainActivity"
          ],
          "listener": "com.appMobi.appMobiLib.AppMobiActivity",
          "listenerMethod": "onKeyDown",
          "uiType": "onKeyDown",
          "constraintsFile": "constraints4_1.py",
          "variables": {
            "\u003cChainedInput1\u003e": "IAAv0"
          },
          "stringMap": {},
          "strings": {}
        },
        {
          "start": "com.appMobi.appMobiLib.AppMobiActivity.onKeyDown(ILandroid/view/KeyEvent;)Z",
          "target": "invokevirtual \u003c Application, Lorg/apache/http/impl/client/DefaultHttpClient, execute(Lorg/apache/http/client/methods/HttpUriRequest;)Lorg/apache/http/HttpResponse; \u003e@73",
          "type": "ui",
          "activities": [
            "com.blackube.sudokuUltra.MainActivity"
          ],
          "listener": "com.appMobi.appMobiLib.AppMobiActivity",
          "listenerMethod": "onKeyDown",
          "uiType": "onKeyDown",
          "constraintsFile": "constraints4_2.py",
          "variables": {
            "\u003cChainedInput1\u003e": "IAAv0"
          },
          "stringMap": {
            "7000": "LD2",
            "7001": "3.3.0",
            "7002": "3.4.0",
            "7003": "QA"
          },
          "strings": {
            "IAAv32": "",
            "IAAv27": "",
            "IAAv15": "",
            "IAAv30": ""
          }
        }
      ]
    },
    "5": {
      "startMethod": "com.appMobi.appMobiLib.AppMobiActivity.onKeyDown(ILandroid/view/KeyEvent;)Z",
      "targetMethod": "org.apache.http.impl.client.DefaultHttpClient.execute(Lorg/apache/http/client/methods/HttpUriRequest;)Lorg/apache/http/HttpResponse;",
      "eventChain": [
        {
          "start": "com.appMobi.appMobiLib.AppMobiActivity.onKeyDown(ILandroid/view/KeyEvent;)Z",
          "target": "PC@134",
          "type": "ui",
          "activities": [
            "com.blackube.sudokuUltra.MainActivity"
          ],
          "listener": "com.appMobi.appMobiLib.AppMobiActivity",
          "listenerMethod": "onKeyDown",
          "uiType": "onKeyDown",
          "constraintsFile": "constraints5_0.py",
          "variables": {
            "\u003cChainedInput1\u003e": "IAAv0",
            "DateFormat(yyyy-MM-dd HH:mm:ss).isAmazon": "IAAv40"
          },
          "stringMap": {
            "7000": "LD2",
            "7001": "3.3.0",
            "7002": "3.4.0"
          },
          "strings": {
            "IAAv36": "",
            "IAAv28": "",
            "IAAv15": "",
            "IAAv42": ""
          }
        },
        {
          "start": "com.appMobi.appMobiLib.AppMobiActivity.onKeyDown(ILandroid/view/KeyEvent;)Z",
          "target": "PC@47",
          "type": "ui",
          "activities": [
            "com.blackube.sudokuUltra.MainActivity"
          ],
          "listener": "com.appMobi.appMobiLib.AppMobiActivity",
          "listenerMethod": "onKeyDown",
          "uiType": "onKeyDown",
          "constraintsFile": "constraints5_1.py",
          "variables": {
            "\u003cChainedInput1\u003e": "IAAv0"
          },
          "stringMap": {},
          "strings": {}
        },
        {
          "start": "com.appMobi.appMobiLib.AppMobiActivity.onKeyDown(ILandroid/view/KeyEvent;)Z",
          "target": "invokevirtual \u003c Application, Lorg/apache/http/impl/client/DefaultHttpClient, execute(Lorg/apache/http/client/methods/HttpUriRequest;)Lorg/apache/http/HttpResponse; \u003e@2604",
          "type": "ui",
          "activities": [
            "com.blackube.sudokuUltra.MainActivity"
          ],
          "listener": "com.appMobi.appMobiLib.AppMobiActivity",
          "listenerMethod": "onKeyDown",
          "uiType": "onKeyDown",
          "constraintsFile": "constraints5_2.py",
          "variables": {
            "\u003cChainedInput1\u003e": "IAAv0",
            "DateFormat(yyyy-MM-dd HH:mm:ss).isAmazon": "IAAv42"
          },
          "stringMap": {
            "7000": "LD2",
            "7001": "3.3.0",
            "7002": "3.4.0",
            "7003": "QA"
          },
          "strings": {
            "IAAv32": "",
            "IAAv27": "",
            "IAAv15": "",
            "IAAv44": "",
            "IAAv30": ""
          }
        }
      ]
    },
    "6": {
      "startMethod": "com.appMobi.appMobiLib.AppMobiActivity.onKeyDown(ILandroid/view/KeyEvent;)Z",
      "targetMethod": "org.apache.http.impl.client.DefaultHttpClient.execute(Lorg/apache/http/client/methods/HttpUriRequest;)Lorg/apache/http/HttpResponse;",
      "eventChain": [
        {
          "start": "com.appMobi.appMobiLib.AppMobiActivity.onKeyDown(ILandroid/view/KeyEvent;)Z",
          "target": "PC@134",
          "type": "ui",
          "activities": [
            "com.blackube.sudokuUltra.MainActivity"
          ],
          "listener": "com.appMobi.appMobiLib.AppMobiActivity",
          "listenerMethod": "onKeyDown",
          "uiType": "onKeyDown",
          "constraintsFile": "constraints6_0.py",
          "variables": {
            "\u003cChainedInput1\u003e": "IAAv0",
            "DateFormat(yyyy-MM-dd HH:mm:ss).isAmazon": "IAAv40"
          },
          "stringMap": {
            "7000": "LD2",
            "7001": "3.3.0",
            "7002": "3.4.0"
          },
          "strings": {
            "IAAv36": "",
            "IAAv28": "",
            "IAAv15": ""
          }
        },
        {
          "start": "com.appMobi.appMobiLib.AppMobiActivity.onKeyDown(ILandroid/view/KeyEvent;)Z",
          "target": "PC@47",
          "type": "ui",
          "activities": [
            "com.blackube.sudokuUltra.MainActivity"
          ],
          "listener": "com.appMobi.appMobiLib.AppMobiActivity",
          "listenerMethod": "onKeyDown",
          "uiType": "onKeyDown",
          "constraintsFile": "constraints6_1.py",
          "variables": {
            "\u003cChainedInput1\u003e": "IAAv0"
          },
          "stringMap": {},
          "strings": {}
        },
        {
          "start": "com.appMobi.appMobiLib.AppMobiActivity.onKeyDown(ILandroid/view/KeyEvent;)Z",
          "target": "invokevirtual \u003c Application, Lorg/apache/http/impl/client/DefaultHttpClient, execute(Lorg/apache/http/client/methods/HttpUriRequest;)Lorg/apache/http/HttpResponse; \u003e@1889",
          "type": "ui",
          "activities": [
            "com.blackube.sudokuUltra.MainActivity"
          ],
          "listener": "com.appMobi.appMobiLib.AppMobiActivity",
          "listenerMethod": "onKeyDown",
          "uiType": "onKeyDown",
          "constraintsFile": "constraints6_2.py",
          "variables": {
            "\u003cChainedInput1\u003e": "IAAv0",
            "DateFormat(yyyy-MM-dd HH:mm:ss).isAmazon": "IAAv42"
          },
          "stringMap": {
            "7000": "LD2",
            "7001": "3.3.0",
            "7002": "3.4.0",
            "7003": "QA"
          },
          "strings": {
            "IAAv32": "",
            "IAAv27": "",
            "IAAv15": "",
            "IAAv30": ""
          }
        }
      ]
    },
    "7": {
      "startMethod": "com.appMobi.appMobiLib.AppMobiActivity.onKeyDown(ILandroid/view/KeyEvent;)Z",
      "targetMethod": "org.apache.http.impl.client.DefaultHttpClient.execute(Lorg/apache/http/client/methods/HttpUriRequest;)Lorg/apache/http/HttpResponse;",
      "eventChain": [
        {
          "start": "com.appMobi.appMobiLib.AppMobiActivity.onKeyDown(ILandroid/view/KeyEvent;)Z",
          "target": "PC@134",
          "type": "ui",
          "activities": [
            "com.blackube.sudokuUltra.MainActivity"
          ],
          "listener": "com.appMobi.appMobiLib.AppMobiActivity",
          "listenerMethod": "onKeyDown",
          "uiType": "onKeyDown",
          "constraintsFile": "constraints7_0.py",
          "variables": {
            "\u003cChainedInput1\u003e": "IAAv0"
          },
          "stringMap": {
            "7000": "android.intent.action.VIEW",
            "7001": "1",
            "7002": "appmobitest",
            "7003": "intel.xdk.app.preview"
          },
          "strings": {
            "IAAv10": "",
            "IAAv12": "",
            "IAAv27": "",
            "IAAv14": "",
            "IAAv25": ""
          }
        },
        {
          "start": "com.appMobi.appMobiLib.AppMobiActivity.onKeyDown(ILandroid/view/KeyEvent;)Z",
          "target": "PC@47",
          "type": "ui",
          "activities": [
            "com.blackube.sudokuUltra.MainActivity"
          ],
          "listener": "com.appMobi.appMobiLib.AppMobiActivity",
          "listenerMethod": "onKeyDown",
          "uiType": "onKeyDown",
          "constraintsFile": "constraints7_1.py",
          "variables": {
            "\u003cChainedInput1\u003e": "IAAv0"
          },
          "stringMap": {},
          "strings": {}
        },
        {
          "start": "com.appMobi.appMobiLib.AppMobiActivity.onKeyDown(ILandroid/view/KeyEvent;)Z",
          "target": "invokevirtual \u003c Application, Lorg/apache/http/impl/client/DefaultHttpClient, execute(Lorg/apache/http/client/methods/HttpUriRequest;)Lorg/apache/http/HttpResponse; \u003e@1519",
          "type": "ui",
          "activities": [
            "com.blackube.sudokuUltra.MainActivity"
          ],
          "listener": "com.appMobi.appMobiLib.AppMobiActivity",
          "listenerMethod": "onKeyDown",
          "uiType": "onKeyDown",
          "constraintsFile": "constraints7_2.py",
          "variables": {
            "\u003cChainedInput1\u003e": "IAAv0"
          },
          "stringMap": {
            "7000": "android.intent.action.VIEW",
            "7001": "1",
            "7002": "appmobitest",
            "7003": "intel.xdk.app.preview"
          },
          "strings": {
            "IAAv10": "",
            "IAAv12": "",
            "IAAv27": "",
            "IAAv14": "",
            "IAAv25": ""
          }
        }
      ]
    },
    "8": {
      "startMethod": "com.appMobi.appMobiLib.AppMobiActivity$2.onClick(Landroid/view/View;)V",
      "targetMethod": "org.apache.http.impl.client.DefaultHttpClient.execute(Lorg/apache/http/client/methods/HttpUriRequest;)Lorg/apache/http/HttpResponse;",
      "eventChain": [
        {
          "start": "com.blackube.sudokuUltra.MainActivity.onCreate(Landroid/os/Bundle;)V",
          "target": "invokevirtual \u003c Application, Landroid/widget/Button, setOnClickListener(Landroid/view/View$OnClickListener;)V \u003e@1897",
          "type": "activity",
          "component": "com.blackube.sudokuUltra.MainActivity",
          "constraintsFile": "constraints8_0.py",
          "variables": {},
          "stringMap": {
            "7000": "Kindle"
          },
          "strings": {}
        },
        {
          "start": "com.appMobi.appMobiLib.AppMobiActivity$2.onClick(Landroid/view/View;)V",
          "target": "invokevirtual \u003c Application, Lorg/apache/http/impl/client/DefaultHttpClient, execute(Lorg/apache/http/client/methods/HttpUriRequest;)Lorg/apache/http/HttpResponse; \u003e@1889",
          "type": "ui",
          "activities": [
            "com.appMobi.appMobiLib.AppMobiActivity"
          ],
          "listener": "com.appMobi.appMobiLib.AppMobiActivity$2",
          "listenerMethod": "onClick",
          "uiType": "onClick",
          "constraintsFile": "constraints8_1.py",
          "variables": {
            "DateFormat(yyyy-MM-dd HH:mm:ss).isAmazon": "IAAv25"
          },
          "stringMap": {
            "7000": "LD2",
            "7001": "3.3.0",
            "7002": "3.4.0",
            "7003": "QA"
          },
          "strings": {
            "IAAv10": "",
            "IAAv13": "",
            "IAAv15": ""
          }
        }
      ]
    },
    "9": {
      "startMethod": "com.appMobi.appMobiLib.AppMobiActivity$2.onClick(Landroid/view/View;)V",
      "targetMethod": "org.apache.http.impl.client.DefaultHttpClient.execute(Lorg/apache/http/client/methods/HttpUriRequest;)Lorg/apache/http/HttpResponse;",
      "eventChain": [
        {
          "start": "com.blackube.sudokuUltra.MainActivity.onCreate(Landroid/os/Bundle;)V",
          "target": "invokevirtual \u003c Application, Landroid/widget/Button, setOnClickListener(Landroid/view/View$OnClickListener;)V \u003e@1897",
          "type": "activity",
          "component": "com.blackube.sudokuUltra.MainActivity",
          "constraintsFile": "constraints9_0.py",
          "variables": {},
          "stringMap": {
            "7000": "Kindle"
          },
          "strings": {}
        },
        {
          "start": "com.appMobi.appMobiLib.AppMobiActivity$2.onClick(Landroid/view/View;)V",
          "target": "invokevirtual \u003c Application, Lorg/apache/http/impl/client/DefaultHttpClient, execute(Lorg/apache/http/client/methods/HttpUriRequest;)Lorg/apache/http/HttpResponse; \u003e@73",
          "type": "ui",
          "activities": [
            "com.appMobi.appMobiLib.AppMobiActivity"
          ],
          "listener": "com.appMobi.appMobiLib.AppMobiActivity$2",
          "listenerMethod": "onClick",
          "uiType": "onClick",
          "constraintsFile": "constraints9_1.py",
          "variables": {},
          "stringMap": {
            "7000": "LD2",
            "7001": "3.3.0",
            "7002": "3.4.0",
            "7003": "QA"
          },
          "strings": {
            "IAAv10": "",
            "IAAv13": "",
            "IAAv15": ""
          }
        }
      ]
    },
    "10": {
      "startMethod": "com.appMobi.appMobiLib.AppMobiActivity$2.onClick(Landroid/view/View;)V",
      "targetMethod": "org.apache.http.impl.client.DefaultHttpClient.execute(Lorg/apache/http/client/methods/HttpUriRequest;)Lorg/apache/http/HttpResponse;",
      "eventChain": [
        {
          "start": "com.blackube.sudokuUltra.MainActivity.onCreate(Landroid/os/Bundle;)V",
          "target": "invokevirtual \u003c Application, Landroid/widget/Button, setOnClickListener(Landroid/view/View$OnClickListener;)V \u003e@1897",
          "type": "activity",
          "component": "com.blackube.sudokuUltra.MainActivity",
          "constraintsFile": "constraints10_0.py",
          "variables": {},
          "stringMap": {
            "7000": "Kindle"
          },
          "strings": {}
        },
        {
          "start": "com.appMobi.appMobiLib.AppMobiActivity$2.onClick(Landroid/view/View;)V",
          "target": "invokevirtual \u003c Application, Lorg/apache/http/impl/client/DefaultHttpClient, execute(Lorg/apache/http/client/methods/HttpUriRequest;)Lorg/apache/http/HttpResponse; \u003e@2604",
          "type": "ui",
          "activities": [
            "com.appMobi.appMobiLib.AppMobiActivity"
          ],
          "listener": "com.appMobi.appMobiLib.AppMobiActivity$2",
          "listenerMethod": "onClick",
          "uiType": "onClick",
          "constraintsFile": "constraints10_1.py",
          "variables": {
            "DateFormat(yyyy-MM-dd HH:mm:ss).isAmazon": "IAAv25"
          },
          "stringMap": {
            "7000": "LD2",
            "7001": "3.3.0",
            "7002": "3.4.0",
            "7003": "QA"
          },
          "strings": {
            "IAAv10": "",
            "IAAv13": "",
            "IAAv27": "",
            "IAAv15": ""
          }
        }
      ]
    },
    "11": {
      "startMethod": "com.appMobi.appMobiLib.AppMobiActivity$2.onClick(Landroid/view/View;)V",
      "targetMethod": "java.net.URL.openConnection()Ljava/net/URLConnection;",
      "eventChain": [
        {
          "start": "com.blackube.sudokuUltra.MainActivity.onCreate(Landroid/os/Bundle;)V",
          "target": "invokevirtual \u003c Application, Landroid/widget/Button, setOnClickListener(Landroid/view/View$OnClickListener;)V \u003e@1897",
          "type": "activity",
          "component": "com.blackube.sudokuUltra.MainActivity",
          "constraintsFile": "constraints11_0.py",
          "variables": {},
          "stringMap": {
            "7000": "Kindle"
          },
          "strings": {}
        },
        {
          "start": "com.appMobi.appMobiLib.AppMobiActivity$2.onClick(Landroid/view/View;)V",
          "target": "invokevirtual \u003c Application, Ljava/net/URL, openConnection()Ljava/net/URLConnection; \u003e@209",
          "type": "ui",
          "activities": [
            "com.appMobi.appMobiLib.AppMobiActivity"
          ],
          "listener": "com.appMobi.appMobiLib.AppMobiActivity$2",
          "listenerMethod": "onClick",
          "uiType": "onClick",
          "constraintsFile": "constraints11_1.py",
          "variables": {},
          "stringMap": {
            "7000": "LD2",
            "7001": "3.3.0",
            "7002": "3.4.0",
            "7003": "QA"
          },
          "strings": {
            "IAAv10": "",
            "IAAv13": "",
            "IAAv17": ""
          }
        }
      ]
    },
    "12": {
      "startMethod": "com.appMobi.appMobiLib.AppMobiActivity$2.onClick(Landroid/view/View;)V",
      "targetMethod": "org.apache.http.impl.client.DefaultHttpClient.execute(Lorg/apache/http/client/methods/HttpUriRequest;)Lorg/apache/http/HttpResponse;",
      "eventChain": [
        {
          "start": "com.blackube.sudokuUltra.MainActivity.onCreate(Landroid/os/Bundle;)V",
          "target": "invokevirtual \u003c Application, Landroid/widget/Button, setOnClickListener(Landroid/view/View$OnClickListener;)V \u003e@1897",
          "type": "activity",
          "component": "com.blackube.sudokuUltra.MainActivity",
          "constraintsFile": "constraints12_0.py",
          "variables": {},
          "stringMap": {
            "7000": "Kindle"
          },
          "strings": {}
        },
        {
          "start": "com.appMobi.appMobiLib.AppMobiActivity$2.onClick(Landroid/view/View;)V",
          "target": "invokevirtual \u003c Application, Lorg/apache/http/impl/client/DefaultHttpClient, execute(Lorg/apache/http/client/methods/HttpUriRequest;)Lorg/apache/http/HttpResponse; \u003e@225",
          "type": "ui",
          "activities": [
            "com.appMobi.appMobiLib.AppMobiActivity"
          ],
          "listener": "com.appMobi.appMobiLib.AppMobiActivity$2",
          "listenerMethod": "onClick",
          "uiType": "onClick",
          "constraintsFile": "constraints12_1.py",
          "variables": {},
          "stringMap": {
            "7000": "LD2"
          },
          "strings": {}
        }
      ]
    },
    "13": {
      "startMethod": "com.appMobi.appMobiLib.AppMobiActivity$2.onClick(Landroid/view/View;)V",
      "targetMethod": "org.apache.http.impl.client.DefaultHttpClient.execute(Lorg/apache/http/client/methods/HttpUriRequest;)Lorg/apache/http/HttpResponse;",
      "eventChain": [
        {
          "start": "com.blackube.sudokuUltra.MainActivity.onCreate(Landroid/os/Bundle;)V",
          "target": "invokevirtual \u003c Application, Landroid/widget/Button, setOnClickListener(Landroid/view/View$OnClickListener;)V \u003e@1897",
          "type": "activity",
          "component": "com.blackube.sudokuUltra.MainActivity",
          "constraintsFile": "constraints13_0.py",
          "variables": {},
          "stringMap": {
            "7000": "Kindle"
          },
          "strings": {}
        },
        {
          "start": "com.appMobi.appMobiLib.AppMobiActivity$2.onClick(Landroid/view/View;)V",
          "target": "invokevirtual \u003c Application, Lorg/apache/http/impl/client/DefaultHttpClient, execute(Lorg/apache/http/client/methods/HttpUriRequest;)Lorg/apache/http/HttpResponse; \u003e@175",
          "type": "ui",
          "activities": [
            "com.appMobi.appMobiLib.AppMobiActivity"
          ],
          "listener": "com.appMobi.appMobiLib.AppMobiActivity$2",
          "listenerMethod": "onClick",
          "uiType": "onClick",
          "constraintsFile": "constraints13_1.py",
          "variables": {},
          "stringMap": {
            "7000": "LD2",
            "7001": "3.3.0",
            "7002": "3.4.0",
            "7003": "QA"
          },
          "strings": {
            "IAAv10": "",
            "IAAv13": "",
            "IAAv21": ""
          }
        }
      ]
    },
    "14": {
      "startMethod": "com.appMobi.appMobiLib.AppMobiActivity$1.onClick(Landroid/view/View;)V",
      "targetMethod": "org.apache.http.impl.client.DefaultHttpClient.execute(Lorg/apache/http/client/methods/HttpUriRequest;)Lorg/apache/http/HttpResponse;",
      "eventChain": [
        {
          "start": "com.blackube.sudokuUltra.MainActivity.onCreate(Landroid/os/Bundle;)V",
          "target": "invokevirtual \u003c Application, Landroid/widget/Button, setOnClickListener(Landroid/view/View$OnClickListener;)V \u003e@1865",
          "type": "activity",
          "component": "com.blackube.sudokuUltra.MainActivity",
          "constraintsFile": "constraints14_0.py",
          "variables": {},
          "stringMap": {
            "7000": "Kindle"
          },
          "strings": {}
        },
        {
          "start": "com.appMobi.appMobiLib.AppMobiActivity$1.onClick(Landroid/view/View;)V",
          "target": "invokevirtual \u003c Application, Lorg/apache/http/impl/client/DefaultHttpClient, execute(Lorg/apache/http/client/methods/HttpUriRequest;)Lorg/apache/http/HttpResponse; \u003e@175",
          "type": "ui",
          "activities": [
            "com.appMobi.appMobiLib.AppMobiActivity"
          ],
          "listener": "com.appMobi.appMobiLib.AppMobiActivity$1",
          "listenerMethod": "onClick",
          "uiType": "onClick",
          "constraintsFile": "constraints14_1.py",
          "variables": {},
          "stringMap": {
            "7000": "LD2"
          },
          "strings": {
            "IAAv9": ""
          }
        }
      ]
    },
    "15": {
      "startMethod": "com.appMobi.appMobiLib.AppMobiActivity$1.onClick(Landroid/view/View;)V",
      "targetMethod": "org.apache.http.impl.client.DefaultHttpClient.execute(Lorg/apache/http/client/methods/HttpUriRequest;)Lorg/apache/http/HttpResponse;",
      "eventChain": [
        {
          "start": "com.blackube.sudokuUltra.MainActivity.onCreate(Landroid/os/Bundle;)V",
          "target": "invokevirtual \u003c Application, Landroid/widget/Button, setOnClickListener(Landroid/view/View$OnClickListener;)V \u003e@1865",
          "type": "activity",
          "component": "com.blackube.sudokuUltra.MainActivity",
          "constraintsFile": "constraints15_0.py",
          "variables": {},
          "stringMap": {
            "7000": "Kindle"
          },
          "strings": {}
        },
        {
          "start": "com.appMobi.appMobiLib.AppMobiActivity$1.onClick(Landroid/view/View;)V",
          "target": "invokevirtual \u003c Application, Lorg/apache/http/impl/client/DefaultHttpClient, execute(Lorg/apache/http/client/methods/HttpUriRequest;)Lorg/apache/http/HttpResponse; \u003e@225",
          "type": "ui",
          "activities": [
            "com.appMobi.appMobiLib.AppMobiActivity"
          ],
          "listener": "com.appMobi.appMobiLib.AppMobiActivity$1",
          "listenerMethod": "onClick",
          "uiType": "onClick",
          "constraintsFile": "constraints15_1.py",
          "variables": {},
          "stringMap": {},
          "strings": {}
        }
      ]
    },
    "16": {
      "startMethod": "com.appMobi.appMobiLib.AppMobiActivity$1.onClick(Landroid/view/View;)V",
      "targetMethod": "java.net.URL.openConnection()Ljava/net/URLConnection;",
      "eventChain": [
        {
          "start": "com.blackube.sudokuUltra.MainActivity.onCreate(Landroid/os/Bundle;)V",
          "target": "invokevirtual \u003c Application, Landroid/widget/Button, setOnClickListener(Landroid/view/View$OnClickListener;)V \u003e@1865",
          "type": "activity",
          "component": "com.blackube.sudokuUltra.MainActivity",
          "constraintsFile": "constraints16_0.py",
          "variables": {},
          "stringMap": {
            "7000": "Kindle"
          },
          "strings": {}
        },
        {
          "start": "com.appMobi.appMobiLib.AppMobiActivity.onKeyDown(ILandroid/view/KeyEvent;)Z",
          "target": "PC@8",
          "type": "ui",
          "activities": [
            "com.blackube.sudokuUltra.MainActivity"
          ],
          "listener": "com.appMobi.appMobiLib.AppMobiActivity",
          "listenerMethod": "onKeyDown",
          "uiType": "onKeyDown",
          "constraintsFile": "constraints16_1.py",
          "variables": {
            "\u003cChainedInput1\u003e": "IAAv0"
          },
          "stringMap": {
            "7000": "LD2",
            "7001": "3.3.0",
            "7002": "3.4.0",
            "7003": "QA"
          },
          "strings": {
            "IAAv27": "",
            "IAAv15": "",
            "IAAv30": ""
          }
        },
        {
          "start": "com.appMobi.appMobiLib.AppMobiActivity$1.onClick(Landroid/view/View;)V",
          "target": "invokevirtual \u003c Application, Ljava/net/URL, openConnection()Ljava/net/URLConnection; \u003e@209",
          "type": "ui",
          "activities": [
            "com.appMobi.appMobiLib.AppMobiActivity"
          ],
          "listener": "com.appMobi.appMobiLib.AppMobiActivity$1",
          "listenerMethod": "onClick",
          "uiType": "onClick",
          "constraintsFile": "constraints16_2.py",
          "variables": {},
          "stringMap": {
            "7000": "LD2",
            "7001": "3.3.0",
            "7002": "3.4.0",
            "7003": "QA"
          },
          "strings": {
            "IAAv22": "",
            "IAAv25": "",
            "IAAv9": "",
            "IAAv29": ""
          }
        }
      ]
    },
    "17": {
      "startMethod": "com.appMobi.appMobiLib.AppMobiActivity$1.onClick(Landroid/view/View;)V",
      "targetMethod": "org.apache.http.impl.client.DefaultHttpClient.execute(Lorg/apache/http/client/methods/HttpUriRequest;)Lorg/apache/http/HttpResponse;",
      "eventChain": [
        {
          "start": "com.blackube.sudokuUltra.MainActivity.onCreate(Landroid/os/Bundle;)V",
          "target": "invokevirtual \u003c Application, Landroid/widget/Button, setOnClickListener(Landroid/view/View$OnClickListener;)V \u003e@1865",
          "type": "activity",
          "component": "com.blackube.sudokuUltra.MainActivity",
          "constraintsFile": "constraints17_0.py",
          "variables": {},
          "stringMap": {
            "7000": "Kindle"
          },
          "strings": {}
        },
        {
          "start": "com.appMobi.appMobiLib.AppMobiActivity.onKeyDown(ILandroid/view/KeyEvent;)Z",
          "target": "PC@8",
          "type": "ui",
          "activities": [
            "com.blackube.sudokuUltra.MainActivity"
          ],
          "listener": "com.appMobi.appMobiLib.AppMobiActivity",
          "listenerMethod": "onKeyDown",
          "uiType": "onKeyDown",
          "constraintsFile": "constraints17_1.py",
          "variables": {
            "\u003cChainedInput1\u003e": "IAAv0"
          },
          "stringMap": {
            "7000": "LD2",
            "7001": "3.3.0",
            "7002": "3.4.0",
            "7003": "QA"
          },
          "strings": {
            "IAAv27": "",
            "IAAv15": "",
            "IAAv30": ""
          }
        },
        {
          "start": "com.appMobi.appMobiLib.AppMobiActivity$1.onClick(Landroid/view/View;)V",
          "target": "invokevirtual \u003c Application, Lorg/apache/http/impl/client/DefaultHttpClient, execute(Lorg/apache/http/client/methods/HttpUriRequest;)Lorg/apache/http/HttpResponse; \u003e@2604",
          "type": "ui",
          "activities": [
            "com.appMobi.appMobiLib.AppMobiActivity"
          ],
          "listener": "com.appMobi.appMobiLib.AppMobiActivity$1",
          "listenerMethod": "onClick",
          "uiType": "onClick",
          "constraintsFile": "constraints17_2.py",
          "variables": {
            "DateFormat(yyyy-MM-dd HH:mm:ss).isAmazon": "IAAv37"
          },
          "stringMap": {
            "7000": "LD2",
            "7001": "3.3.0",
            "7002": "3.4.0",
            "7003": "QA"
          },
          "strings": {
            "IAAv39": "",
            "IAAv22": "",
            "IAAv27": "",
            "IAAv25": "",
            "IAAv9": ""
          }
        }
      ]
    },
    "18": {
      "startMethod": "com.appMobi.appMobiLib.AppMobiActivity$1.onClick(Landroid/view/View;)V",
      "targetMethod": "org.apache.http.impl.client.DefaultHttpClient.execute(Lorg/apache/http/client/methods/HttpUriRequest;)Lorg/apache/http/HttpResponse;",
      "eventChain": [
        {
          "start": "com.blackube.sudokuUltra.MainActivity.onCreate(Landroid/os/Bundle;)V",
          "target": "invokevirtual \u003c Application, Landroid/widget/Button, setOnClickListener(Landroid/view/View$OnClickListener;)V \u003e@1865",
          "type": "activity",
          "component": "com.blackube.sudokuUltra.MainActivity",
          "constraintsFile": "constraints18_0.py",
          "variables": {},
          "stringMap": {
            "7000": "Kindle"
          },
          "strings": {}
        },
        {
          "start": "com.appMobi.appMobiLib.AppMobiActivity$1.onClick(Landroid/view/View;)V",
          "target": "invokevirtual \u003c Application, Lorg/apache/http/impl/client/DefaultHttpClient, execute(Lorg/apache/http/client/methods/HttpUriRequest;)Lorg/apache/http/HttpResponse; \u003e@211",
          "type": "ui",
          "activities": [
            "com.appMobi.appMobiLib.AppMobiActivity"
          ],
          "listener": "com.appMobi.appMobiLib.AppMobiActivity$1",
          "listenerMethod": "onClick",
          "uiType": "onClick",
          "constraintsFile": "constraints18_1.py",
          "variables": {},
          "stringMap": {},
          "strings": {}
        }
      ]
    },
    "19": {
      "startMethod": "com.appMobi.appMobiLib.AppMobiActivity$1.onClick(Landroid/view/View;)V",
      "targetMethod": "org.apache.http.impl.client.DefaultHttpClient.execute(Lorg/apache/http/client/methods/HttpUriRequest;)Lorg/apache/http/HttpResponse;",
      "eventChain": [
        {
          "start": "com.blackube.sudokuUltra.MainActivity.onCreate(Landroid/os/Bundle;)V",
          "target": "invokevirtual \u003c Application, Landroid/widget/Button, setOnClickListener(Landroid/view/View$OnClickListener;)V \u003e@1865",
          "type": "activity",
          "component": "com.blackube.sudokuUltra.MainActivity",
          "constraintsFile": "constraints19_0.py",
          "variables": {},
          "stringMap": {
            "7000": "Kindle"
          },
          "strings": {}
        },
        {
          "start": "com.appMobi.appMobiLib.AppMobiActivity.onKeyDown(ILandroid/view/KeyEvent;)Z",
          "target": "PC@8",
          "type": "ui",
          "activities": [
            "com.blackube.sudokuUltra.MainActivity"
          ],
          "listener": "com.appMobi.appMobiLib.AppMobiActivity",
          "listenerMethod": "onKeyDown",
          "uiType": "onKeyDown",
          "constraintsFile": "constraints19_1.py",
          "variables": {
            "\u003cChainedInput1\u003e": "IAAv0"
          },
          "stringMap": {
            "7000": "LD2",
            "7001": "3.3.0",
            "7002": "3.4.0",
            "7003": "QA"
          },
          "strings": {
            "IAAv27": "",
            "IAAv15": "",
            "IAAv30": ""
          }
        },
        {
          "start": "com.appMobi.appMobiLib.AppMobiActivity$1.onClick(Landroid/view/View;)V",
          "target": "invokevirtual \u003c Application, Lorg/apache/http/impl/client/DefaultHttpClient, execute(Lorg/apache/http/client/methods/HttpUriRequest;)Lorg/apache/http/HttpResponse; \u003e@1889",
          "type": "ui",
          "activities": [
            "com.appMobi.appMobiLib.AppMobiActivity"
          ],
          "listener": "com.appMobi.appMobiLib.AppMobiActivity$1",
          "listenerMethod": "onClick",
          "uiType": "onClick",
          "constraintsFile": "constraints19_2.py",
          "variables": {
            "DateFormat(yyyy-MM-dd HH:mm:ss).isAmazon": "IAAv37"
          },
          "stringMap": {
            "7000": "LD2",
            "7001": "3.3.0",
            "7002": "3.4.0",
            "7003": "QA"
          },
          "strings": {
            "IAAv22": "",
            "IAAv27": "",
            "IAAv25": "",
            "IAAv9": ""
          }
        }
      ]
    },
    "20": {
      "startMethod": "com.appMobi.appMobiLib.AppMobiActivity$1.onClick(Landroid/view/View;)V",
      "targetMethod": "org.apache.http.impl.client.DefaultHttpClient.execute(Lorg/apache/http/client/methods/HttpUriRequest;)Lorg/apache/http/HttpResponse;",
      "eventChain": [
        {
          "start": "com.blackube.sudokuUltra.MainActivity.onCreate(Landroid/os/Bundle;)V",
          "target": "invokevirtual \u003c Application, Landroid/widget/Button, setOnClickListener(Landroid/view/View$OnClickListener;)V \u003e@1865",
          "type": "activity",
          "component": "com.blackube.sudokuUltra.MainActivity",
          "constraintsFile": "constraints20_0.py",
          "variables": {},
          "stringMap": {
            "7000": "Kindle"
          },
          "strings": {}
        },
        {
          "start": "com.appMobi.appMobiLib.AppMobiActivity.onKeyDown(ILandroid/view/KeyEvent;)Z",
          "target": "PC@8",
          "type": "ui",
          "activities": [
            "com.blackube.sudokuUltra.MainActivity"
          ],
          "listener": "com.appMobi.appMobiLib.AppMobiActivity",
          "listenerMethod": "onKeyDown",
          "uiType": "onKeyDown",
          "constraintsFile": "constraints20_1.py",
          "variables": {
            "\u003cChainedInput1\u003e": "IAAv0"
          },
          "stringMap": {
            "7000": "LD2",
            "7001": "3.3.0",
            "7002": "3.4.0",
            "7003": "QA"
          },
          "strings": {
            "IAAv27": "",
            "IAAv15": "",
            "IAAv30": ""
          }
        },
        {
          "start": "com.appMobi.appMobiLib.AppMobiActivity$1.onClick(Landroid/view/View;)V",
          "target": "invokevirtual \u003c Application, Lorg/apache/http/impl/client/DefaultHttpClient, execute(Lorg/apache/http/client/methods/HttpUriRequest;)Lorg/apache/http/HttpResponse; \u003e@73",
          "type": "ui",
          "activities": [
            "com.appMobi.appMobiLib.AppMobiActivity"
          ],
          "listener": "com.appMobi.appMobiLib.AppMobiActivity$1",
          "listenerMethod": "onClick",
          "uiType": "onClick",
          "constraintsFile": "constraints20_2.py",
          "variables": {},
          "stringMap": {
            "7000": "LD2",
            "7001": "3.3.0",
            "7002": "3.4.0",
            "7003": "QA"
          },
          "strings": {
            "IAAv22": "",
            "IAAv27": "",
            "IAAv25": "",
            "IAAv9": ""
          }
        }
      ]
    }
  }
}