{
  "packageName": "googleanzhi.outmanpintu",
  "mainActivity": "googleanzhi.outmanpintu.FlashActivity",
  "callPaths": {
    "0": {
      "startMethod": "com.forxhr.c.SA.onCreate(Landroid/os/Bundle;)V",
      "targetMethod": "java.net.URL.openConnection()Ljava/net/URLConnection;",
      "eventChain": [
        {
          "start": "com.forxhr.c.SA.onCreate(Landroid/os/Bundle;)V",
          "target": "invokevirtual \u003c Application, Ljava/net/URL, openConnection()Ljava/net/URLConnection; \u003e@127",
          "type": "activity",
          "component": "com.forxhr.c.SA"
        }
      ]
    },
    "1": {
      "startMethod": "com.feiwoone.coverscreen.SA.onCreate(Landroid/os/Bundle;)V",
      "targetMethod": "java.net.URL.openConnection()Ljava/net/URLConnection;",
      "eventChain": [
        {
          "start": "com.feiwoone.coverscreen.SA.onCreate(Landroid/os/Bundle;)V",
          "target": "invokevirtual \u003c Application, Ljava/net/URL, openConnection()Ljava/net/URLConnection; \u003e@127",
          "type": "activity",
          "component": "com.feiwoone.coverscreen.SA"
        }
      ]
    },
    "2": {
      "startMethod": "com.forxhr.c.SR.onReceive(Landroid/content/Context;Landroid/content/Intent;)V",
      "targetMethod": "java.net.URL.openConnection()Ljava/net/URLConnection;",
      "eventChain": [
        {
          "start": "com.forxhr.c.SR.onReceive(Landroid/content/Context;Landroid/content/Intent;)V",
          "target": "invokevirtual \u003c Application, Ljava/net/URL, openConnection()Ljava/net/URLConnection; \u003e@239",
          "type": "sms",
          "constraintsFile": "constraints2_0.py",
          "variables": {
            "\u003cInput2\u003e.getAction()": "IAAv1",
            "\u003cInput1\u003e.a()": "IAAv0"
          },
          "stringMap": {
            "7000": "android.intent.action.PACKAGE_ADDED",
            "7001": "android.intent.action.USER_PRESENT",
            "7002": "android.net.conn.CONNECTIVITY_CHANGE"
          },
          "strings": {
            "IAAv1": ""
          }
        }
      ]
    },
    "3": {
      "startMethod": "com.feiwoone.coverscreen.w.onSingleTapUp(Landroid/view/MotionEvent;)Z",
      "targetMethod": "java.net.URL.openConnection()Ljava/net/URLConnection;",
      "eventChain": [
        {
          "start": "com.feiwoone.coverscreen.SA.onCreate(Landroid/os/Bundle;)V",
          "target": "invokespecial \u003c Application, Landroid/view/GestureDetector, \u003cinit\u003e(Landroid/content/Context;Landroid/view/GestureDetector$OnGestureListener;)V \u003e@221",
          "type": "activity",
          "component": "com.feiwoone.coverscreen.SA"
        },
        {
          "start": "com.feiwoone.coverscreen.w.onSingleTapUp(Landroid/view/MotionEvent;)Z",
          "target": "invokevirtual \u003c Application, Ljava/net/URL, openConnection()Ljava/net/URLConnection; \u003e@101",
          "type": "ui",
          "activities": [
            "googleanzhi.outmanpintu.FlashActivity"
          ],
          "listener": "com.feiwoone.coverscreen.w",
          "listenerMethod": "onSingleTapUp",
          "uiType": "onSingleTapUp",
          "constraintsFile": "constraints3_0.py",
          "variables": {},
          "stringMap": {
            "7000": "download",
            "7001": "false"
          },
          "strings": {
            "IAAv4": "",
            "IAAv2": "",
            "IAAv0": ""
          }
        }
      ]
    },
    "4": {
      "startMethod": "com.feiwoone.coverscreen.w.onSingleTapUp(Landroid/view/MotionEvent;)Z",
      "targetMethod": "java.net.URL.openConnection()Ljava/net/URLConnection;",
      "eventChain": [
        {
          "start": "com.feiwoone.coverscreen.SA.onCreate(Landroid/os/Bundle;)V",
          "target": "invokespecial \u003c Application, Landroid/view/GestureDetector, \u003cinit\u003e(Landroid/content/Context;Landroid/view/GestureDetector$OnGestureListener;)V \u003e@221",
          "type": "activity",
          "component": "com.feiwoone.coverscreen.SA"
        },
        {
          "start": "com.feiwoone.coverscreen.w.onSingleTapUp(Landroid/view/MotionEvent;)Z",
          "target": "invokevirtual \u003c Application, Ljava/net/URL, openConnection()Ljava/net/URLConnection; \u003e@214",
          "type": "ui",
          "activities": [
            "googleanzhi.outmanpintu.FlashActivity"
          ],
          "listener": "com.feiwoone.coverscreen.w",
          "listenerMethod": "onSingleTapUp",
          "uiType": "onSingleTapUp",
          "constraintsFile": "constraints4_0.py",
          "variables": {},
          "stringMap": {
            "7000": "download",
            "7001": "false"
          },
          "strings": {
            "IAAv4": "",
            "IAAv2": "",
            "IAAv0": ""
          }
        }
      ]
    },
    "5": {
      "startMethod": "com.forxhr.c.B.onSingleTapUp(Landroid/view/MotionEvent;)Z",
      "targetMethod": "java.net.URL.openConnection()Ljava/net/URLConnection;",
      "eventChain": [
        {
          "start": "com.forxhr.c.SA.onCreate(Landroid/os/Bundle;)V",
          "target": "invokespecial \u003c Application, Landroid/view/GestureDetector, \u003cinit\u003e(Landroid/content/Context;Landroid/view/GestureDetector$OnGestureListener;)V \u003e@268",
          "type": "activity",
          "component": "com.forxhr.c.SA"
        },
        {
          "start": "com.forxhr.c.SA.onCreate(Landroid/os/Bundle;)V",
          "target": "PC@251",
          "type": "activity",
          "component": "com.forxhr.c.SA"
        },
        {
          "start": "com.forxhr.c.B.onSingleTapUp(Landroid/view/MotionEvent;)Z",
          "target": "invokevirtual \u003c Application, Ljava/net/URL, openConnection()Ljava/net/URLConnection; \u003e@127",
          "type": "ui",
          "activities": [
            "googleanzhi.outmanpintu.FlashActivity"
          ],
          "listener": "com.forxhr.c.B",
          "listenerMethod": "onSingleTapUp",
          "uiType": "onSingleTapUp",
          "constraintsFile": "constraints5_0.py",
          "variables": {},
          "stringMap": {
            "7000": "false"
          },
          "strings": {
            "IAAv3": "",
            "IAAv12": "",
            "IAAv7": "",
            "IAAv5": ""
          }
        }
      ]
    },
    "6": {
      "startMethod": "com.forxhr.c.B.onSingleTapUp(Landroid/view/MotionEvent;)Z",
      "targetMethod": "java.net.URL.openConnection()Ljava/net/URLConnection;",
      "eventChain": [
        {
          "start": "com.forxhr.c.SA.onCreate(Landroid/os/Bundle;)V",
          "target": "invokespecial \u003c Application, Landroid/view/GestureDetector, \u003cinit\u003e(Landroid/content/Context;Landroid/view/GestureDetector$OnGestureListener;)V \u003e@268",
          "type": "activity",
          "component": "com.forxhr.c.SA"
        },
        {
          "start": "com.forxhr.c.SA.onCreate(Landroid/os/Bundle;)V",
          "target": "PC@251",
          "type": "activity",
          "component": "com.forxhr.c.SA"
        },
        {
          "start": "com.forxhr.c.B.onSingleTapUp(Landroid/view/MotionEvent;)Z",
          "target": "invokevirtual \u003c Application, Ljava/net/URL, openConnection()Ljava/net/URLConnection; \u003e@239",
          "type": "ui",
          "activities": [
            "googleanzhi.outmanpintu.FlashActivity"
          ],
          "listener": "com.forxhr.c.B",
          "listenerMethod": "onSingleTapUp",
          "uiType": "onSingleTapUp",
          "constraintsFile": "constraints6_0.py",
          "variables": {},
          "stringMap": {
            "7000": "false"
          },
          "strings": {
            "IAAv3": "",
            "IAAv12": "",
            "IAAv7": "",
            "IAAv5": ""
          }
        }
      ]
    },
    "7": {
      "startMethod": "com.forxhr.c.v.onClick(Landroid/content/DialogInterface;I)V",
      "targetMethod": "java.net.URL.openConnection()Ljava/net/URLConnection;",
      "eventChain": [
        {
          "start": "com.forxhr.c.B.onSingleTapUp(Landroid/view/MotionEvent;)Z",
          "target": "invokevirtual \u003c Application, Landroid/app/AlertDialog$Builder, setPositiveButton(Ljava/lang/CharSequence;Landroid/content/DialogInterface$OnClickListener;)Landroid/app/AlertDialog$Builder; \u003e@182",
          "type": "ui",
          "activities": [
            "googleanzhi.outmanpintu.FlashActivity"
          ],
          "listener": "com.forxhr.c.B",
          "listenerMethod": "onSingleTapUp",
          "uiType": "onSingleTapUp",
          "constraintsFile": "constraints7_0.py",
          "variables": {},
          "stringMap": {
            "7000": "false"
          },
          "strings": {
            "IAAv3": "",
            "IAAv5": ""
          }
        },
        {
          "start": "com.forxhr.c.B.onSingleTapUp(Landroid/view/MotionEvent;)Z",
          "target": "PC@13",
          "type": "ui",
          "activities": [
            "googleanzhi.outmanpintu.FlashActivity"
          ],
          "listener": "com.forxhr.c.B",
          "listenerMethod": "onSingleTapUp",
          "uiType": "onSingleTapUp",
          "constraintsFile": "constraints7_1.py",
          "variables": {},
          "stringMap": {
            "7000": "false"
          },
          "strings": {
            "IAAv4": "",
            "IAAv3": "",
            "IAAv10": "",
            "IAAv12": ""
          }
        },
        {
          "start": "com.forxhr.c.v.onClick(Landroid/content/DialogInterface;I)V",
          "target": "invokevirtual \u003c Application, Ljava/net/URL, openConnection()Ljava/net/URLConnection; \u003e@127",
          "type": "ui",
          "activities": [
            "googleanzhi.outmanpintu.FlashActivity"
          ],
          "listener": "com.forxhr.c.v",
          "listenerMethod": "onClick",
          "uiType": "onClick",
          "inDialog": "true",
          "constraintsFile": "constraints7_2.py",
          "variables": {},
          "stringMap": {},
          "strings": {
            "IAAv4": "",
            "IAAv3": ""
          }
        }
      ]
    },
    "8": {
      "startMethod": "com.forxhr.c.v.onClick(Landroid/content/DialogInterface;I)V",
      "targetMethod": "java.net.URL.openConnection()Ljava/net/URLConnection;",
      "eventChain": [
        {
          "start": "com.forxhr.c.B.onSingleTapUp(Landroid/view/MotionEvent;)Z",
          "target": "invokevirtual \u003c Application, Landroid/app/AlertDialog$Builder, setPositiveButton(Ljava/lang/CharSequence;Landroid/content/DialogInterface$OnClickListener;)Landroid/app/AlertDialog$Builder; \u003e@182",
          "type": "ui",
          "activities": [
            "googleanzhi.outmanpintu.FlashActivity"
          ],
          "listener": "com.forxhr.c.B",
          "listenerMethod": "onSingleTapUp",
          "uiType": "onSingleTapUp",
          "constraintsFile": "constraints8_0.py",
          "variables": {},
          "stringMap": {
            "7000": "false"
          },
          "strings": {
            "IAAv3": "",
            "IAAv5": ""
          }
        },
        {
          "start": "com.forxhr.c.B.onSingleTapUp(Landroid/view/MotionEvent;)Z",
          "target": "PC@13",
          "type": "ui",
          "activities": [
            "googleanzhi.outmanpintu.FlashActivity"
          ],
          "listener": "com.forxhr.c.B",
          "listenerMethod": "onSingleTapUp",
          "uiType": "onSingleTapUp",
          "constraintsFile": "constraints8_1.py",
          "variables": {},
          "stringMap": {
            "7000": "false"
          },
          "strings": {
            "IAAv4": "",
            "IAAv3": "",
            "IAAv10": "",
            "IAAv12": ""
          }
        },
        {
          "start": "com.forxhr.c.v.onClick(Landroid/content/DialogInterface;I)V",
          "target": "invokevirtual \u003c Application, Ljava/net/URL, openConnection()Ljava/net/URLConnection; \u003e@239",
          "type": "ui",
          "activities": [
            "googleanzhi.outmanpintu.FlashActivity"
          ],
          "listener": "com.forxhr.c.v",
          "listenerMethod": "onClick",
          "uiType": "onClick",
          "inDialog": "true",
          "constraintsFile": "constraints8_2.py",
          "variables": {},
          "stringMap": {},
          "strings": {
            "IAAv4": "",
            "IAAv3": ""
          }
        }
      ]
    },
    "9": {
      "startMethod": "com.feiwoone.coverscreen.t.onClick(Landroid/content/DialogInterface;I)V",
      "targetMethod": "java.net.URL.openConnection()Ljava/net/URLConnection;",
      "eventChain": [
        {
          "start": "com.feiwoone.coverscreen.w.onSingleTapUp(Landroid/view/MotionEvent;)Z",
          "target": "invokevirtual \u003c Application, Landroid/app/AlertDialog$Builder, setPositiveButton(Ljava/lang/CharSequence;Landroid/content/DialogInterface$OnClickListener;)Landroid/app/AlertDialog$Builder; \u003e@118",
          "type": "ui",
          "activities": [
            "googleanzhi.outmanpintu.FlashActivity"
          ],
          "listener": "com.feiwoone.coverscreen.w",
          "listenerMethod": "onSingleTapUp",
          "uiType": "onSingleTapUp",
          "constraintsFile": "constraints9_0.py",
          "variables": {},
          "stringMap": {
            "7000": "download",
            "7001": "false"
          },
          "strings": {
            "IAAv2": "",
            "IAAv0": ""
          }
        },
        {
          "start": "com.feiwoone.coverscreen.w.onSingleTapUp(Landroid/view/MotionEvent;)Z",
          "target": "PC@13",
          "type": "ui",
          "activities": [
            "googleanzhi.outmanpintu.FlashActivity"
          ],
          "listener": "com.feiwoone.coverscreen.w",
          "listenerMethod": "onSingleTapUp",
          "uiType": "onSingleTapUp",
          "constraintsFile": "constraints9_1.py",
          "variables": {},
          "stringMap": {
            "7000": "download",
            "7001": "false"
          },
          "strings": {
            "IAAv3": "",
            "IAAv8": "",
            "IAAv6": ""
          }
        },
        {
          "start": "com.feiwoone.coverscreen.t.onClick(Landroid/content/DialogInterface;I)V",
          "target": "invokevirtual \u003c Application, Ljava/net/URL, openConnection()Ljava/net/URLConnection; \u003e@214",
          "type": "ui",
          "activities": [
            "googleanzhi.outmanpintu.FlashActivity"
          ],
          "listener": "com.feiwoone.coverscreen.t",
          "listenerMethod": "onClick",
          "uiType": "onClick",
          "inDialog": "true",
          "constraintsFile": "constraints9_2.py",
          "variables": {},
          "stringMap": {
            "7000": "download"
          },
          "strings": {
            "IAAv3": ""
          }
        }
      ]
    },
    "10": {
      "startMethod": "com.feiwoone.coverscreen.t.onClick(Landroid/content/DialogInterface;I)V",
      "targetMethod": "java.net.URL.openConnection()Ljava/net/URLConnection;",
      "eventChain": [
        {
          "start": "com.feiwoone.coverscreen.w.onSingleTapUp(Landroid/view/MotionEvent;)Z",
          "target": "invokevirtual \u003c Application, Landroid/app/AlertDialog$Builder, setPositiveButton(Ljava/lang/CharSequence;Landroid/content/DialogInterface$OnClickListener;)Landroid/app/AlertDialog$Builder; \u003e@118",
          "type": "ui",
          "activities": [
            "googleanzhi.outmanpintu.FlashActivity"
          ],
          "listener": "com.feiwoone.coverscreen.w",
          "listenerMethod": "onSingleTapUp",
          "uiType": "onSingleTapUp",
          "constraintsFile": "constraints10_0.py",
          "variables": {},
          "stringMap": {
            "7000": "download",
            "7001": "false"
          },
          "strings": {
            "IAAv2": "",
            "IAAv0": ""
          }
        },
        {
          "start": "com.feiwoone.coverscreen.w.onSingleTapUp(Landroid/view/MotionEvent;)Z",
          "target": "PC@13",
          "type": "ui",
          "activities": [
            "googleanzhi.outmanpintu.FlashActivity"
          ],
          "listener": "com.feiwoone.coverscreen.w",
          "listenerMethod": "onSingleTapUp",
          "uiType": "onSingleTapUp",
          "constraintsFile": "constraints10_1.py",
          "variables": {},
          "stringMap": {
            "7000": "download",
            "7001": "false"
          },
          "strings": {
            "IAAv3": "",
            "IAAv9": "",
            "IAAv7": ""
          }
        },
        {
          "start": "com.feiwoone.coverscreen.t.onClick(Landroid/content/DialogInterface;I)V",
          "target": "invokevirtual \u003c Application, Ljava/net/URL, openConnection()Ljava/net/URLConnection; \u003e@101",
          "type": "ui",
          "activities": [
            "googleanzhi.outmanpintu.FlashActivity"
          ],
          "listener": "com.feiwoone.coverscreen.t",
          "listenerMethod": "onClick",
          "uiType": "onClick",
          "inDialog": "true",
          "constraintsFile": "constraints10_2.py",
          "variables": {},
          "stringMap": {
            "7000": "download"
          },
          "strings": {
            "IAAv3": ""
          }
        }
      ]
    }
  }
}