{
  "packageName": "com.tsangle.android.hardwareprice",
  "mainActivity": "com.tsangle.android.hardwareprice.HardwareCategory",
  "callPaths": {
    "0": {
      "startMethod": "com.tsangle.android.hardwareprice.HardwarePrice.onCreate(Landroid/os/Bundle;)V",
      "targetMethod": "org.apache.http.client.HttpClient.execute(Lorg/apache/http/client/methods/HttpUriRequest;)Lorg/apache/http/HttpResponse;",
      "eventChain": [
        {
          "start": "com.tsangle.android.hardwareprice.HardwarePrice.onCreate(Landroid/os/Bundle;)V",
          "target": "",
          "type": "activity",
          "component": "com.tsangle.android.hardwareprice.HardwarePrice",
          "constraintsFile": "constraints0_0.py",
          "variables": {},
          "stringMap": {},
          "strings": {}
        },
        {
          "start": "com.tsangle.android.hardwareprice.HardwarePrice.onCreate(Landroid/os/Bundle;)V",
          "target": "invokeinterface \u003c Application, Lorg/apache/http/client/HttpClient, execute(Lorg/apache/http/client/methods/HttpUriRequest;)Lorg/apache/http/HttpResponse; \u003e@263",
          "type": "activity",
          "component": "com.tsangle.android.hardwareprice.HardwarePrice",
          "constraintsFile": "constraints0_1.py",
          "variables": {},
          "stringMap": {},
          "strings": {}
        }
      ]
    }
  }
}