{
  "packageName": "com.savor365.android",
  "mainActivity": "com.savor365.android.MainActivity",
  "callPaths": {
    "0": {
      "startMethod": "org.apache.cordova.inappbrowser.InAppBrowser$5.run()V",
      "targetMethod": "android.webkit.WebView.\u003cinit\u003e(Landroid/content/Context;)V",
      "eventChain": [
        {
          "start": "org.apache.cordova.inappbrowser.InAppBrowser$5.run()V",
          "target": "invokespecial \u003c Application, Landroid/webkit/WebView, \u003cinit\u003e(Landroid/content/Context;)V \u003e@2112",
          "type": "",
          "constraintsFile": "constraints0_0.py",
          "variables": {},
          "stringMap": {},
          "strings": {}
        }
      ]
    },
    "1": {
      "startMethod": "org.apache.cordova.CordovaActivity$2.run()V",
      "targetMethod": "java.net.URL.openConnection()Ljava/net/URLConnection;",
      "eventChain": [
        {
          "start": "org.apache.cordova.CordovaActivity$2.run()V",
          "target": "invokevirtual \u003c Application, Ljava/net/URL, openConnection()Ljava/net/URLConnection; \u003e@117",
          "type": "",
          "constraintsFile": "constraints1_0.py",
          "variables": {},
          "stringMap": {
            "7000": "file"
          },
          "strings": {
            "IAAv2": ""
          }
        }
      ]
    },
    "2": {
      "startMethod": "org.apache.cordova.inappbrowser.InAppBrowser$InAppBrowserClient.onReceivedHttpAuthRequest(Landroid/webkit/WebView;Landroid/webkit/HttpAuthHandler;Ljava/lang/String;Ljava/lang/String;)V",
      "targetMethod": "java.lang.reflect.Method.invoke(Ljava/lang/Object;[Ljava/lang/Object;)Ljava/lang/Object;",
      "eventChain": [
        {
          "start": "org.apache.cordova.inappbrowser.InAppBrowser$InAppBrowserClient.onReceivedError(Landroid/webkit/WebView;ILjava/lang/String;Ljava/lang/String;)V",
          "target": "invokespecial \u003c Application, Landroid/webkit/WebViewClient, onReceivedError(Landroid/webkit/WebView;ILjava/lang/String;Ljava/lang/String;)V \u003e@7",
          "type": ""
        },
        {
          "start": "org.apache.cordova.inappbrowser.InAppBrowser$5.run()V",
          "target": "PC@12",
          "type": "",
          "constraintsFile": "constraints2_0.py",
          "variables": {},
          "stringMap": {},
          "strings": {}
        },
        {
          "start": "org.apache.cordova.inappbrowser.InAppBrowser$InAppBrowserClient.onReceivedHttpAuthRequest(Landroid/webkit/WebView;Landroid/webkit/HttpAuthHandler;Ljava/lang/String;Ljava/lang/String;)V",
          "target": "invokevirtual \u003c Application, Ljava/lang/reflect/Method, invoke(Ljava/lang/Object;[Ljava/lang/Object;)Ljava/lang/Object; \u003e@64",
          "type": ""
        }
      ]
    }
  }
}