{
  "packageName": "com.popuptech.larrashah",
  "mainActivity": "md555838db7c5a1f6889ea4f526b450fe10.SplashActivity",
  "callPaths": {
    "0": {
      "startMethod": "android.support.v7.internal.view.SupportMenuInflater$InflatedOnMenuItemClickListener.onMenuItemClick(Landroid/view/MenuItem;)Z",
      "targetMethod": "java.lang.reflect.Method.invoke(Ljava/lang/Object;[Ljava/lang/Object;)Ljava/lang/Object;",
      "eventChain": [
        {
          "start": "android.support.v7.internal.view.SupportMenuInflater$InflatedOnMenuItemClickListener.onMenuItemClick(Landroid/view/MenuItem;)Z",
          "target": "invokevirtual \u003c Application, Ljava/lang/reflect/Method, invoke(Ljava/lang/Object;[Ljava/lang/Object;)Ljava/lang/Object; \u003e@63",
          "type": "ui",
          "activities": [
            "md555838db7c5a1f6889ea4f526b450fe10.SplashActivity"
          ],
          "listener": "android.support.v7.internal.view.SupportMenuInflater$InflatedOnMenuItemClickListener",
          "listenerMethod": "onMenuItemClick",
          "uiType": "onMenuItemClick",
          "constraintsFile": "constraints0_0.py",
          "variables": {},
          "stringMap": {},
          "strings": {}
        }
      ]
    },
    "1": {
      "startMethod": "android.support.v7.internal.view.SupportMenuInflater$InflatedOnMenuItemClickListener.onMenuItemClick(Landroid/view/MenuItem;)Z",
      "targetMethod": "java.lang.reflect.Method.invoke(Ljava/lang/Object;[Ljava/lang/Object;)Ljava/lang/Object;",
      "eventChain": [
        {
          "start": "android.support.v7.internal.view.SupportMenuInflater$InflatedOnMenuItemClickListener.onMenuItemClick(Landroid/view/MenuItem;)Z",
          "target": "invokevirtual \u003c Application, Ljava/lang/reflect/Method, invoke(Ljava/lang/Object;[Ljava/lang/Object;)Ljava/lang/Object; \u003e@116",
          "type": "ui",
          "activities": [
            "md555838db7c5a1f6889ea4f526b450fe10.SplashActivity"
          ],
          "listener": "android.support.v7.internal.view.SupportMenuInflater$InflatedOnMenuItemClickListener",
          "listenerMethod": "onMenuItemClick",
          "uiType": "onMenuItemClick",
          "constraintsFile": "constraints1_0.py",
          "variables": {},
          "stringMap": {},
          "strings": {}
        }
      ]
    }
  }
}