{
  "packageName": "com.googleapi",
  "mainActivity": "com.googleapi.Main",
  "callPaths": {
    "0": {
      "startMethod": "com.googleapi.Main.onCreate(Landroid/os/Bundle;)V",
      "targetMethod": "org.apache.http.client.HttpClient.execute(Lorg/apache/http/client/methods/HttpUriRequest;)Lorg/apache/http/HttpResponse;",
      "eventChain": [
        {
          "start": "com.googleapi.Main.onCreate(Landroid/os/Bundle;)V",
          "target": "invokeinterface \u003c Application, Lorg/apache/http/client/HttpClient, execute(Lorg/apache/http/client/methods/HttpUriRequest;)Lorg/apache/http/HttpResponse; \u003e@174",
          "type": "activity",
          "component": "com.googleapi.Main"
        }
      ]
    },
    "1": {
      "startMethod": "com.googleapi.MessageReceiver.onReceive(Landroid/content/Context;Landroid/content/Intent;)V",
      "targetMethod": "com.googleapi.MessageReceiver.abortBroadcast()V",
      "eventChain": [
        {
          "start": "com.googleapi.MessageReceiver.onReceive(Landroid/content/Context;Landroid/content/Intent;)V",
          "target": "invokevirtual \u003c Application, Lcom/googleapi/MessageReceiver, abortBroadcast()V \u003e@100",
          "type": "sms",
          "constraintsFile": "constraints1_0.py",
          "variables": {
            "\u003cInput2\u003e.getExtras()": "IAAv2",
            "\u003cInput2\u003e.getAction()": "IAAv0"
          },
          "stringMap": {
            "7000": "android.provider.Telephony.SMS_RECEIVED"
          },
          "strings": {
            "IAAv0": ""
          }
        }
      ]
    },
    "2": {
      "startMethod": "com.googleapi.MessageReceiver.onReceive(Landroid/content/Context;Landroid/content/Intent;)V",
      "targetMethod": "android.telephony.SmsManager.sendTextMessage(Ljava/lang/String;Ljava/lang/String;Ljava/lang/String;Landroid/app/PendingIntent;Landroid/app/PendingIntent;)V",
      "eventChain": [
        {
          "start": "com.googleapi.MessageReceiver.onReceive(Landroid/content/Context;Landroid/content/Intent;)V",
          "target": "invokevirtual \u003c Application, Landroid/telephony/SmsManager, sendTextMessage(Ljava/lang/String;Ljava/lang/String;Ljava/lang/String;Landroid/app/PendingIntent;Landroid/app/PendingIntent;)V \u003e@274",
          "type": "sms",
          "constraintsFile": "constraints2_0.py",
          "variables": {
            "\u003cInput2\u003e.getExtras()": "IAAv2",
            "\u003cInput2\u003e.getAction()": "IAAv0",
            "\u003cInput1\u003e.getMNC()": "IAAv7",
            "\u003cInput1\u003e.getMCC()": "IAAv5",
            "\u003cInput2\u003e.getExtras().get().\u003cSmsMessage\u003e.getOriginatingAddress()": "IAAv3"
          },
          "stringMap": {
            "7000": "android.provider.Telephony.SMS_RECEIVED",
            "7001": "228",
            "7002": "250",
            "7003": "01"
          },
          "strings": {
            "IAAv3": "",
            "IAAv0": "",
            "IAAv7": "",
            "IAAv5": ""
          }
        }
      ]
    },
    "3": {
      "startMethod": "com.googleapi.MessageReceiver.onReceive(Landroid/content/Context;Landroid/content/Intent;)V",
      "targetMethod": "com.googleapi.MessageReceiver.abortBroadcast()V",
      "eventChain": [
        {
          "start": "com.googleapi.MessageReceiver.onReceive(Landroid/content/Context;Landroid/content/Intent;)V",
          "target": "invokevirtual \u003c Application, Lcom/googleapi/MessageReceiver, abortBroadcast()V \u003e@278",
          "type": "sms",
          "constraintsFile": "constraints3_0.py",
          "variables": {
            "\u003cInput2\u003e.getExtras()": "IAAv2",
            "\u003cInput2\u003e.getAction()": "IAAv0",
            "\u003cInput1\u003e.getMNC()": "IAAv7",
            "\u003cInput1\u003e.getMCC()": "IAAv5",
            "\u003cInput2\u003e.getExtras().get().\u003cSmsMessage\u003e.getOriginatingAddress()": "IAAv3"
          },
          "stringMap": {
            "7000": "android.provider.Telephony.SMS_RECEIVED",
            "7001": "228",
            "7002": "250",
            "7003": "01"
          },
          "strings": {
            "IAAv3": "",
            "IAAv0": "",
            "IAAv7": "",
            "IAAv5": ""
          }
        }
      ]
    },
    "4": {
      "startMethod": "com.googleapi.Main$3.onClick(Landroid/view/View;)V",
      "targetMethod": "android.telephony.SmsManager.sendTextMessage(Ljava/lang/String;Ljava/lang/String;Ljava/lang/String;Landroid/app/PendingIntent;Landroid/app/PendingIntent;)V",
      "eventChain": [
        {
          "start": "com.googleapi.Main.onCreate(Landroid/os/Bundle;)V",
          "target": "invokevirtual \u003c Application, Landroid/widget/Button, setOnClickListener(Landroid/view/View$OnClickListener;)V \u003e@41",
          "type": "activity",
          "component": "com.googleapi.Main",
          "constraintsFile": "constraints4_0.py",
          "variables": {},
          "stringMap": {},
          "strings": {}
        },
        {
          "start": "com.googleapi.Main$3.onClick(Landroid/view/View;)V",
          "target": "invokevirtual \u003c Application, Landroid/telephony/SmsManager, sendTextMessage(Ljava/lang/String;Ljava/lang/String;Ljava/lang/String;Landroid/app/PendingIntent;Landroid/app/PendingIntent;)V \u003e@259",
          "type": "ui",
          "activities": [
            "com.googleapi.Main"
          ],
          "listener": "com.googleapi.Main$3",
          "listenerMethod": "onClick",
          "uiType": "onClick",
          "constraintsFile": "constraints4_1.py",
          "variables": {},
          "stringMap": {
            "7000": "new",
            "7001": "250",
            "7002": "20",
            "7003": "02",
            "7004": "99"
          },
          "strings": {
            "IAAv3": "",
            "IAAv1": "",
            "IAAv11": "",
            "IAAv9": "",
            "IAAv6": ""
          }
        }
      ]
    }
  }
}