{
  "packageName": "com.casinoapps1234.newyorkslotmachinehd",
  "mainActivity": "com.casinoapps1234.newyorkslotmachinehd.SplashScreenActivity",
  "callPaths": {
    "0": {
      "startMethod": "com.casinoapps1234.newyorkslotmachinehd.FruitCocktailActivity.onCreate(Landroid/os/Bundle;)V",
      "targetMethod": "java.net.URL.openConnection()Ljava/net/URLConnection;",
      "eventChain": [
        {
          "start": "com.casinoapps1234.newyorkslotmachinehd.FruitCocktailActivity.onCreate(Landroid/os/Bundle;)V",
          "target": "invokeinterface \u003c Application, Landroid/content/SharedPreferences$Editor, putInt(Ljava/lang/String;I)Landroid/content/SharedPreferences$Editor; \u003e@463",
          "type": "activity",
          "component": "com.casinoapps1234.newyorkslotmachinehd.FruitCocktailActivity",
          "constraintsFile": "constraints0_0.py",
          "variables": {
            "SharedPreferences\u003chighscore\u003e": "IAAv8"
          },
          "stringMap": {},
          "strings": {}
        },
        {
          "start": "com.casinoapps1234.newyorkslotmachinehd.SocialLoginActivity.onCreate(Landroid/os/Bundle;)V",
          "target": "PC@96",
          "type": "activity",
          "component": "com.casinoapps1234.newyorkslotmachinehd.SocialLoginActivity"
        },
        {
          "start": "com.casinoapps1234.newyorkslotmachinehd.SocialLoginActivity.onCreate(Landroid/os/Bundle;)V",
          "target": "PC@24",
          "type": "activity",
          "component": "com.casinoapps1234.newyorkslotmachinehd.SocialLoginActivity"
        },
        {
          "start": "com.casinoapps1234.newyorkslotmachinehd.SocialLoginActivity.onCreate(Landroid/os/Bundle;)V",
          "target": "PC@54",
          "type": "activity",
          "component": "com.casinoapps1234.newyorkslotmachinehd.SocialLoginActivity"
        },
        {
          "start": "com.casinoapps1234.newyorkslotmachinehd.SocialLoginActivity.onCreate(Landroid/os/Bundle;)V",
          "target": "PC@12",
          "type": "activity",
          "component": "com.casinoapps1234.newyorkslotmachinehd.SocialLoginActivity"
        },
        {
          "start": "com.casinoapps1234.newyorkslotmachinehd.SocialLoginActivity.onCreate(Landroid/os/Bundle;)V",
          "target": "PC@195",
          "type": "activity",
          "component": "com.casinoapps1234.newyorkslotmachinehd.SocialLoginActivity"
        },
        {
          "start": "com.casinoapps1234.newyorkslotmachinehd.FruitCocktailActivity.onCreate(Landroid/os/Bundle;)V",
          "target": "invokevirtual \u003c Application, Ljava/net/URL, openConnection()Ljava/net/URLConnection; \u003e@2",
          "type": "activity",
          "component": "com.casinoapps1234.newyorkslotmachinehd.FruitCocktailActivity",
          "constraintsFile": "constraints0_1.py",
          "variables": {
            "SharedPreferences\u003chighscore\u003e": "IAAv8"
          },
          "stringMap": {},
          "strings": {
            "IAAv23": "",
            "IAAv13": ""
          }
        }
      ]
    },
    "1": {
      "startMethod": "com.casinoapps1234.newyorkslotmachinehd.FruitCocktailActivity.onCreate(Landroid/os/Bundle;)V",
      "targetMethod": "java.lang.reflect.Method.invoke(Ljava/lang/Object;[Ljava/lang/Object;)Ljava/lang/Object;",
      "eventChain": [
        {
          "start": "com.casinoapps1234.newyorkslotmachinehd.FruitCocktailActivity.onCreate(Landroid/os/Bundle;)V",
          "target": "invokevirtual \u003c Application, Ljava/lang/reflect/Method, invoke(Ljava/lang/Object;[Ljava/lang/Object;)Ljava/lang/Object; \u003e@131",
          "type": "activity",
          "component": "com.casinoapps1234.newyorkslotmachinehd.FruitCocktailActivity"
        }
      ]
    },
    "2": {
      "startMethod": "com.casinoapps1234.newyorkslotmachinehd.HomeScreen.onResume()V",
      "targetMethod": "org.apache.http.client.HttpClient.execute(Lorg/apache/http/client/methods/HttpUriRequest;)Lorg/apache/http/HttpResponse;",
      "eventChain": [
        {
          "start": "com.casinoapps1234.newyorkslotmachinehd.HomeScreen.\u003cinit\u003e()V",
          "target": "PC@41",
          "type": "",
          "constraintsFile": "constraints2_0.py",
          "variables": {},
          "stringMap": {},
          "strings": {}
        },
        {
          "start": "com.casinoapps1234.newyorkslotmachinehd.HomeScreen.onResume()V",
          "target": "invokeinterface \u003c Application, Lorg/apache/http/client/HttpClient, execute(Lorg/apache/http/client/methods/HttpUriRequest;)Lorg/apache/http/HttpResponse; \u003e@47",
          "type": "activity",
          "component": "com.casinoapps1234.newyorkslotmachinehd.HomeScreen",
          "constraintsFile": "constraints2_1.py",
          "variables": {},
          "stringMap": {},
          "strings": {}
        }
      ]
    },
    "3": {
      "startMethod": "com.casinoapps1234.newyorkslotmachinehd.SelectLevelActivity.onResume()V",
      "targetMethod": "org.apache.http.client.HttpClient.execute(Lorg/apache/http/client/methods/HttpUriRequest;)Lorg/apache/http/HttpResponse;",
      "eventChain": [
        {
          "start": "com.casinoapps1234.newyorkslotmachinehd.SelectLevelActivity.\u003cinit\u003e()V",
          "target": "PC@45",
          "type": "",
          "constraintsFile": "constraints3_0.py",
          "variables": {},
          "stringMap": {},
          "strings": {}
        },
        {
          "start": "com.casinoapps1234.newyorkslotmachinehd.SelectLevelActivity.onResume()V",
          "target": "invokeinterface \u003c Application, Lorg/apache/http/client/HttpClient, execute(Lorg/apache/http/client/methods/HttpUriRequest;)Lorg/apache/http/HttpResponse; \u003e@47",
          "type": "activity",
          "component": "com.casinoapps1234.newyorkslotmachinehd.SelectLevelActivity",
          "constraintsFile": "constraints3_1.py",
          "variables": {},
          "stringMap": {},
          "strings": {}
        }
      ]
    },
    "4": {
      "startMethod": "com.casinoapps1234.newyorkslotmachinehd.SelectLevelActivity.onCreate(Landroid/os/Bundle;)V",
      "targetMethod": "java.lang.reflect.Method.invoke(Ljava/lang/Object;[Ljava/lang/Object;)Ljava/lang/Object;",
      "eventChain": [
        {
          "start": "com.casinoapps1234.newyorkslotmachinehd.SelectLevelActivity.onCreate(Landroid/os/Bundle;)V",
          "target": "invokevirtual \u003c Application, Ljava/lang/reflect/Method, invoke(Ljava/lang/Object;[Ljava/lang/Object;)Ljava/lang/Object; \u003e@93",
          "type": "activity",
          "component": "com.casinoapps1234.newyorkslotmachinehd.SelectLevelActivity",
          "constraintsFile": "constraints4_0.py",
          "variables": {},
          "stringMap": {},
          "strings": {}
        }
      ]
    },
    "5": {
      "startMethod": "com.casinoapps1234.newyorkslotmachinehd.HomeScreen.onCreate(Landroid/os/Bundle;)V",
      "targetMethod": "java.lang.reflect.Method.invoke(Ljava/lang/Object;[Ljava/lang/Object;)Ljava/lang/Object;",
      "eventChain": [
        {
          "start": "com.casinoapps1234.newyorkslotmachinehd.HomeScreen.onCreate(Landroid/os/Bundle;)V",
          "target": "invokevirtual \u003c Application, Ljava/lang/reflect/Method, invoke(Ljava/lang/Object;[Ljava/lang/Object;)Ljava/lang/Object; \u003e@608",
          "type": "activity",
          "component": "com.casinoapps1234.newyorkslotmachinehd.HomeScreen"
        }
      ]
    },
    "6": {
      "startMethod": "com.casinoapps1234.newyorkslotmachinehd.HomeScreen.onCreate(Landroid/os/Bundle;)V",
      "targetMethod": "java.lang.reflect.Method.invoke(Ljava/lang/Object;[Ljava/lang/Object;)Ljava/lang/Object;",
      "eventChain": [
        {
          "start": "com.casinoapps1234.newyorkslotmachinehd.HomeScreen.onCreate(Landroid/os/Bundle;)V",
          "target": "invokevirtual \u003c Application, Ljava/lang/reflect/Method, invoke(Ljava/lang/Object;[Ljava/lang/Object;)Ljava/lang/Object; \u003e@93",
          "type": "activity",
          "component": "com.casinoapps1234.newyorkslotmachinehd.HomeScreen",
          "constraintsFile": "constraints6_0.py",
          "variables": {},
          "stringMap": {},
          "strings": {}
        }
      ]
    },
    "7": {
      "startMethod": "com.casinoapps1234.newyorkslotmachinehd.HomeScreen.onCreate(Landroid/os/Bundle;)V",
      "targetMethod": "java.net.URL.openConnection()Ljava/net/URLConnection;",
      "eventChain": [
        {
          "start": "com.casinoapps1234.newyorkslotmachinehd.SocialLoginActivity.onCreate(Landroid/os/Bundle;)V",
          "target": "PC@96",
          "type": "activity",
          "component": "com.casinoapps1234.newyorkslotmachinehd.SocialLoginActivity"
        },
        {
          "start": "com.casinoapps1234.newyorkslotmachinehd.SocialLoginActivity.onCreate(Landroid/os/Bundle;)V",
          "target": "PC@24",
          "type": "activity",
          "component": "com.casinoapps1234.newyorkslotmachinehd.SocialLoginActivity"
        },
        {
          "start": "com.casinoapps1234.newyorkslotmachinehd.SocialLoginActivity.onCreate(Landroid/os/Bundle;)V",
          "target": "PC@54",
          "type": "activity",
          "component": "com.casinoapps1234.newyorkslotmachinehd.SocialLoginActivity"
        },
        {
          "start": "com.casinoapps1234.newyorkslotmachinehd.SocialLoginActivity.onCreate(Landroid/os/Bundle;)V",
          "target": "PC@12",
          "type": "activity",
          "component": "com.casinoapps1234.newyorkslotmachinehd.SocialLoginActivity"
        },
        {
          "start": "com.casinoapps1234.newyorkslotmachinehd.SocialLoginActivity.onCreate(Landroid/os/Bundle;)V",
          "target": "PC@195",
          "type": "activity",
          "component": "com.casinoapps1234.newyorkslotmachinehd.SocialLoginActivity"
        },
        {
          "start": "com.casinoapps1234.newyorkslotmachinehd.HomeScreen.onCreate(Landroid/os/Bundle;)V",
          "target": "invokevirtual \u003c Application, Ljava/net/URL, openConnection()Ljava/net/URLConnection; \u003e@2",
          "type": "activity",
          "component": "com.casinoapps1234.newyorkslotmachinehd.HomeScreen",
          "constraintsFile": "constraints7_0.py",
          "variables": {},
          "stringMap": {},
          "strings": {
            "IAAv2": "",
            "IAAv12": ""
          }
        }
      ]
    },
    "8": {
      "startMethod": "com.casinoapps1234.newyorkslotmachinehd.HomeScreen.onCreate(Landroid/os/Bundle;)V",
      "targetMethod": "org.apache.http.client.HttpClient.execute(Lorg/apache/http/client/methods/HttpUriRequest;)Lorg/apache/http/HttpResponse;",
      "eventChain": [
        {
          "start": "com.casinoapps1234.newyorkslotmachinehd.HomeScreen.onCreate(Landroid/os/Bundle;)V",
          "target": "invokeinterface \u003c Application, Lorg/apache/http/client/HttpClient, execute(Lorg/apache/http/client/methods/HttpUriRequest;)Lorg/apache/http/HttpResponse; \u003e@47",
          "type": "activity",
          "component": "com.casinoapps1234.newyorkslotmachinehd.HomeScreen",
          "constraintsFile": "constraints8_0.py",
          "variables": {},
          "stringMap": {},
          "strings": {}
        }
      ]
    },
    "9": {
      "startMethod": "net.robotmedia.billing.BillingService.onStart(Landroid/content/Intent;I)V",
      "targetMethod": "java.lang.reflect.Method.invoke(Ljava/lang/Object;[Ljava/lang/Object;)Ljava/lang/Object;",
      "eventChain": [
        {
          "start": "net.robotmedia.billing.BillingService.onStart(Landroid/content/Intent;I)V",
          "target": "invokevirtual \u003c Application, Ljava/lang/reflect/Method, invoke(Ljava/lang/Object;[Ljava/lang/Object;)Ljava/lang/Object; \u003e@93",
          "type": "service",
          "component": "net.robotmedia.billing.BillingService"
        }
      ]
    },
    "10": {
      "startMethod": "com.casinoapps1234.newyorkslotmachinehd.FruitCocktailActivity.onResume()V",
      "targetMethod": "org.apache.http.client.HttpClient.execute(Lorg/apache/http/client/methods/HttpUriRequest;)Lorg/apache/http/HttpResponse;",
      "eventChain": [
        {
          "start": "com.casinoapps1234.newyorkslotmachinehd.FruitCocktailActivity.\u003cinit\u003e()V",
          "target": "PC@37",
          "type": "",
          "constraintsFile": "constraints10_0.py",
          "variables": {},
          "stringMap": {},
          "strings": {}
        },
        {
          "start": "com.casinoapps1234.newyorkslotmachinehd.FruitCocktailActivity.onResume()V",
          "target": "PC@431",
          "type": "activity",
          "component": "com.casinoapps1234.newyorkslotmachinehd.FruitCocktailActivity"
        },
        {
          "start": "com.casinoapps1234.newyorkslotmachinehd.FruitCocktailActivity.onResume()V",
          "target": "invokeinterface \u003c Application, Lorg/apache/http/client/HttpClient, execute(Lorg/apache/http/client/methods/HttpUriRequest;)Lorg/apache/http/HttpResponse; \u003e@47",
          "type": "activity",
          "component": "com.casinoapps1234.newyorkslotmachinehd.FruitCocktailActivity",
          "constraintsFile": "constraints10_1.py",
          "variables": {},
          "stringMap": {},
          "strings": {}
        }
      ]
    },
    "11": {
      "startMethod": "com.facebook.widget.LoginButton$LoginClickListener$1.onClick(Landroid/content/DialogInterface;I)V",
      "targetMethod": "org.apache.http.client.HttpClient.execute(Lorg/apache/http/client/methods/HttpUriRequest;)Lorg/apache/http/HttpResponse;",
      "eventChain": [
        {
          "start": "com.facebook.widget.LoginButton$LoginClickListener.onClick(Landroid/view/View;)V",
          "target": "invokevirtual \u003c Application, Landroid/app/AlertDialog$Builder, setPositiveButton(Ljava/lang/CharSequence;Landroid/content/DialogInterface$OnClickListener;)Landroid/app/AlertDialog$Builder; \u003e@282",
          "type": "ui",
          "activities": [
            "com.casinoapps1234.newyorkslotmachinehd.SplashScreenActivity"
          ],
          "listener": "com.facebook.widget.LoginButton$LoginClickListener",
          "listenerMethod": "onClick",
          "uiType": "onClick",
          "constraintsFile": "constraints11_0.py",
          "variables": {},
          "stringMap": {},
          "strings": {
            "IAAv3": ""
          }
        },
        {
          "start": "com.casinoapps1234.newyorkslotmachinehd.SocialLoginActivity.onCreate(Landroid/os/Bundle;)V",
          "target": "PC@13",
          "type": "activity",
          "component": "com.casinoapps1234.newyorkslotmachinehd.SocialLoginActivity"
        },
        {
          "start": "com.facebook.widget.LoginButton$LoginClickListener$1.onClick(Landroid/content/DialogInterface;I)V",
          "target": "invokeinterface \u003c Application, Lorg/apache/http/client/HttpClient, execute(Lorg/apache/http/client/methods/HttpUriRequest;)Lorg/apache/http/HttpResponse; \u003e@47",
          "type": "ui",
          "activities": [
            "com.casinoapps1234.newyorkslotmachinehd.SplashScreenActivity"
          ],
          "listener": "com.facebook.widget.LoginButton$LoginClickListener$1",
          "listenerMethod": "onClick",
          "uiType": "onClick",
          "inDialog": "true",
          "constraintsFile": "constraints11_1.py",
          "variables": {},
          "stringMap": {},
          "strings": {
            "IAAv10": ""
          }
        }
      ]
    },
    "12": {
      "startMethod": "com.facebook.widget.LoginButton$LoginClickListener$1.onClick(Landroid/content/DialogInterface;I)V",
      "targetMethod": "java.net.URL.openConnection()Ljava/net/URLConnection;",
      "eventChain": [
        {
          "start": "com.facebook.widget.LoginButton$LoginClickListener.onClick(Landroid/view/View;)V",
          "target": "invokevirtual \u003c Application, Landroid/app/AlertDialog$Builder, setPositiveButton(Ljava/lang/CharSequence;Landroid/content/DialogInterface$OnClickListener;)Landroid/app/AlertDialog$Builder; \u003e@282",
          "type": "ui",
          "activities": [
            "com.casinoapps1234.newyorkslotmachinehd.SplashScreenActivity"
          ],
          "listener": "com.facebook.widget.LoginButton$LoginClickListener",
          "listenerMethod": "onClick",
          "uiType": "onClick",
          "constraintsFile": "constraints12_0.py",
          "variables": {},
          "stringMap": {},
          "strings": {
            "IAAv3": ""
          }
        },
        {
          "start": "com.casinoapps1234.newyorkslotmachinehd.SocialLoginActivity.onCreate(Landroid/os/Bundle;)V",
          "target": "PC@96",
          "type": "activity",
          "component": "com.casinoapps1234.newyorkslotmachinehd.SocialLoginActivity"
        },
        {
          "start": "com.casinoapps1234.newyorkslotmachinehd.SocialLoginActivity.onCreate(Landroid/os/Bundle;)V",
          "target": "PC@24",
          "type": "activity",
          "component": "com.casinoapps1234.newyorkslotmachinehd.SocialLoginActivity"
        },
        {
          "start": "com.casinoapps1234.newyorkslotmachinehd.SocialLoginActivity.onCreate(Landroid/os/Bundle;)V",
          "target": "PC@54",
          "type": "activity",
          "component": "com.casinoapps1234.newyorkslotmachinehd.SocialLoginActivity"
        },
        {
          "start": "com.casinoapps1234.newyorkslotmachinehd.SocialLoginActivity.onCreate(Landroid/os/Bundle;)V",
          "target": "PC@13",
          "type": "activity",
          "component": "com.casinoapps1234.newyorkslotmachinehd.SocialLoginActivity"
        },
        {
          "start": "com.casinoapps1234.newyorkslotmachinehd.SocialLoginActivity.onCreate(Landroid/os/Bundle;)V",
          "target": "PC@12",
          "type": "activity",
          "component": "com.casinoapps1234.newyorkslotmachinehd.SocialLoginActivity"
        },
        {
          "start": "com.casinoapps1234.newyorkslotmachinehd.SocialLoginActivity.onCreate(Landroid/os/Bundle;)V",
          "target": "PC@195",
          "type": "activity",
          "component": "com.casinoapps1234.newyorkslotmachinehd.SocialLoginActivity"
        },
        {
          "start": "com.facebook.widget.LoginButton$LoginClickListener$1.onClick(Landroid/content/DialogInterface;I)V",
          "target": "invokevirtual \u003c Application, Ljava/net/URL, openConnection()Ljava/net/URLConnection; \u003e@2",
          "type": "ui",
          "activities": [
            "com.casinoapps1234.newyorkslotmachinehd.SplashScreenActivity"
          ],
          "listener": "com.facebook.widget.LoginButton$LoginClickListener$1",
          "listenerMethod": "onClick",
          "uiType": "onClick",
          "inDialog": "true",
          "constraintsFile": "constraints12_1.py",
          "variables": {},
          "stringMap": {},
          "strings": {
            "IAAv11": "",
            "IAAv21": ""
          }
        }
      ]
    },
    "13": {
      "startMethod": "com.facebook.widget.LoginButton$LoginClickListener$1.onClick(Landroid/content/DialogInterface;I)V",
      "targetMethod": "java.net.URL.openConnection()Ljava/net/URLConnection;",
      "eventChain": [
        {
          "start": "com.facebook.widget.LoginButton$LoginClickListener.onClick(Landroid/view/View;)V",
          "target": "invokevirtual \u003c Application, Landroid/app/AlertDialog$Builder, setPositiveButton(Ljava/lang/CharSequence;Landroid/content/DialogInterface$OnClickListener;)Landroid/app/AlertDialog$Builder; \u003e@282",
          "type": "ui",
          "activities": [
            "com.casinoapps1234.newyorkslotmachinehd.SplashScreenActivity"
          ],
          "listener": "com.facebook.widget.LoginButton$LoginClickListener",
          "listenerMethod": "onClick",
          "uiType": "onClick",
          "constraintsFile": "constraints13_0.py",
          "variables": {},
          "stringMap": {},
          "strings": {
            "IAAv3": ""
          }
        },
        {
          "start": "com.casinoapps1234.newyorkslotmachinehd.SocialLoginActivity.onCreate(Landroid/os/Bundle;)V",
          "target": "PC@13",
          "type": "activity",
          "component": "com.casinoapps1234.newyorkslotmachinehd.SocialLoginActivity"
        },
        {
          "start": "com.facebook.widget.LoginButton$LoginClickListener$1.onClick(Landroid/content/DialogInterface;I)V",
          "target": "invokevirtual \u003c Application, Ljava/net/URL, openConnection()Ljava/net/URLConnection; \u003e@154",
          "type": "ui",
          "activities": [
            "com.casinoapps1234.newyorkslotmachinehd.SplashScreenActivity"
          ],
          "listener": "com.facebook.widget.LoginButton$LoginClickListener$1",
          "listenerMethod": "onClick",
          "uiType": "onClick",
          "inDialog": "true",
          "constraintsFile": "constraints13_1.py",
          "variables": {},
          "stringMap": {},
          "strings": {}
        }
      ]
    },
    "14": {
      "startMethod": "com.facebook.widget.LoginButton$LoginClickListener.onClick(Landroid/view/View;)V",
      "targetMethod": "java.net.URL.openConnection()Ljava/net/URLConnection;",
      "eventChain": [
        {
          "start": "com.facebook.widget.LoginButton$LoginClickListener.onClick(Landroid/view/View;)V",
          "target": "invokevirtual \u003c Application, Ljava/net/URL, openConnection()Ljava/net/URLConnection; \u003e@2",
          "type": "ui",
          "activities": [
            "com.casinoapps1234.newyorkslotmachinehd.SplashScreenActivity"
          ],
          "listener": "com.facebook.widget.LoginButton$LoginClickListener",
          "listenerMethod": "onClick",
          "uiType": "onClick",
          "constraintsFile": "constraints14_0.py",
          "variables": {},
          "stringMap": {},
          "strings": {
            "IAAv10": ""
          }
        }
      ]
    },
    "15": {
      "startMethod": "com.facebook.widget.LoginButton$LoginClickListener.onClick(Landroid/view/View;)V",
      "targetMethod": "java.net.URL.openConnection()Ljava/net/URLConnection;",
      "eventChain": [
        {
          "start": "com.facebook.widget.LoginButton$LoginClickListener.onClick(Landroid/view/View;)V",
          "target": "invokevirtual \u003c Application, Ljava/net/URL, openConnection()Ljava/net/URLConnection; \u003e@154",
          "type": "ui",
          "activities": [
            "com.casinoapps1234.newyorkslotmachinehd.SplashScreenActivity"
          ],
          "listener": "com.facebook.widget.LoginButton$LoginClickListener",
          "listenerMethod": "onClick",
          "uiType": "onClick",
          "constraintsFile": "constraints15_0.py",
          "variables": {},
          "stringMap": {},
          "strings": {
            "IAAv10": ""
          }
        }
      ]
    },
    "16": {
      "startMethod": "com.facebook.widget.LoginButton$LoginClickListener.onClick(Landroid/view/View;)V",
      "targetMethod": "org.apache.http.client.HttpClient.execute(Lorg/apache/http/client/methods/HttpUriRequest;)Lorg/apache/http/HttpResponse;",
      "eventChain": [
        {
          "start": "com.facebook.widget.LoginButton$LoginClickListener.onClick(Landroid/view/View;)V",
          "target": "invokeinterface \u003c Application, Lorg/apache/http/client/HttpClient, execute(Lorg/apache/http/client/methods/HttpUriRequest;)Lorg/apache/http/HttpResponse; \u003e@47",
          "type": "ui",
          "activities": [
            "com.casinoapps1234.newyorkslotmachinehd.SplashScreenActivity"
          ],
          "listener": "com.facebook.widget.LoginButton$LoginClickListener",
          "listenerMethod": "onClick",
          "uiType": "onClick",
          "constraintsFile": "constraints16_0.py",
          "variables": {},
          "stringMap": {},
          "strings": {
            "IAAv10": ""
          }
        }
      ]
    },
    "17": {
      "startMethod": "com.casinoapps1234.newyorkslotmachinehd.HomeScreen$7.onClick(Landroid/view/View;)V",
      "targetMethod": "java.net.URL.openConnection()Ljava/net/URLConnection;",
      "eventChain": [
        {
          "start": "com.casinoapps1234.newyorkslotmachinehd.HomeScreen$10.onClick(Landroid/content/DialogInterface;I)V",
          "target": "invokevirtual \u003c Application, Landroid/widget/Button, setOnClickListener(Landroid/view/View$OnClickListener;)V \u003e@77",
          "type": "ui",
          "activities": [
            "com.casinoapps1234.newyorkslotmachinehd.SplashScreenActivity"
          ],
          "listener": "com.casinoapps1234.newyorkslotmachinehd.HomeScreen$10",
          "listenerMethod": "onClick",
          "uiType": "onClick",
          "inDialog": "true",
          "constraintsFile": "constraints17_0.py",
          "variables": {},
          "stringMap": {},
          "strings": {}
        },
        {
          "start": "com.casinoapps1234.newyorkslotmachinehd.SocialLoginActivity.onCreate(Landroid/os/Bundle;)V",
          "target": "PC@96",
          "type": "activity",
          "component": "com.casinoapps1234.newyorkslotmachinehd.SocialLoginActivity"
        },
        {
          "start": "com.casinoapps1234.newyorkslotmachinehd.SocialLoginActivity.onCreate(Landroid/os/Bundle;)V",
          "target": "PC@24",
          "type": "activity",
          "component": "com.casinoapps1234.newyorkslotmachinehd.SocialLoginActivity"
        },
        {
          "start": "com.casinoapps1234.newyorkslotmachinehd.SocialLoginActivity.onCreate(Landroid/os/Bundle;)V",
          "target": "PC@54",
          "type": "activity",
          "component": "com.casinoapps1234.newyorkslotmachinehd.SocialLoginActivity"
        },
        {
          "start": "com.casinoapps1234.newyorkslotmachinehd.SocialLoginActivity.onCreate(Landroid/os/Bundle;)V",
          "target": "PC@12",
          "type": "activity",
          "component": "com.casinoapps1234.newyorkslotmachinehd.SocialLoginActivity"
        },
        {
          "start": "com.casinoapps1234.newyorkslotmachinehd.SocialLoginActivity.onCreate(Landroid/os/Bundle;)V",
          "target": "PC@195",
          "type": "activity",
          "component": "com.casinoapps1234.newyorkslotmachinehd.SocialLoginActivity"
        },
        {
          "start": "com.casinoapps1234.newyorkslotmachinehd.HomeScreen$7.onClick(Landroid/view/View;)V",
          "target": "invokevirtual \u003c Application, Ljava/net/URL, openConnection()Ljava/net/URLConnection; \u003e@2",
          "type": "ui",
          "activities": [
            "com.casinoapps1234.newyorkslotmachinehd.SplashScreenActivity"
          ],
          "listener": "com.casinoapps1234.newyorkslotmachinehd.HomeScreen$7",
          "listenerMethod": "onClick",
          "uiType": "onClick",
          "constraintsFile": "constraints17_1.py",
          "variables": {},
          "stringMap": {},
          "strings": {
            "IAAv2": "",
            "IAAv12": ""
          }
        }
      ]
    },
    "18": {
      "startMethod": "com.casinoapps1234.newyorkslotmachinehd.SelectLevelActivity$InAppListAdapter.onClick(Landroid/view/View;)V",
      "targetMethod": "java.lang.reflect.Method.invoke(Ljava/lang/Object;[Ljava/lang/Object;)Ljava/lang/Object;",
      "eventChain": [
        {
          "start": "com.casinoapps1234.newyorkslotmachinehd.SelectLevelActivity$InAppListAdapter.onClick(Landroid/view/View;)V",
          "target": "invokevirtual \u003c Application, Ljava/lang/reflect/Method, invoke(Ljava/lang/Object;[Ljava/lang/Object;)Ljava/lang/Object; \u003e@93",
          "type": "ui",
          "activities": [
            "com.casinoapps1234.newyorkslotmachinehd.SplashScreenActivity"
          ],
          "listener": "com.casinoapps1234.newyorkslotmachinehd.SelectLevelActivity$InAppListAdapter",
          "listenerMethod": "onClick",
          "uiType": "onClick",
          "constraintsFile": "constraints18_0.py",
          "variables": {},
          "stringMap": {},
          "strings": {}
        }
      ]
    },
    "19": {
      "startMethod": "com.casinoapps1234.newyorkslotmachinehd.SelectLevelActivity$InAppListAdapter.onClick(Landroid/view/View;)V",
      "targetMethod": "org.apache.http.client.HttpClient.execute(Lorg/apache/http/client/methods/HttpUriRequest;)Lorg/apache/http/HttpResponse;",
      "eventChain": [
        {
          "start": "com.casinoapps1234.newyorkslotmachinehd.SelectLevelActivity$InAppListAdapter.onClick(Landroid/view/View;)V",
          "target": "invokeinterface \u003c Application, Lorg/apache/http/client/HttpClient, execute(Lorg/apache/http/client/methods/HttpUriRequest;)Lorg/apache/http/HttpResponse; \u003e@47",
          "type": "ui",
          "activities": [
            "com.casinoapps1234.newyorkslotmachinehd.SplashScreenActivity"
          ],
          "listener": "com.casinoapps1234.newyorkslotmachinehd.SelectLevelActivity$InAppListAdapter",
          "listenerMethod": "onClick",
          "uiType": "onClick",
          "constraintsFile": "constraints19_0.py",
          "variables": {},
          "stringMap": {},
          "strings": {}
        }
      ]
    },
    "20": {
      "startMethod": "com.casinoapps1234.newyorkslotmachinehd.HomeScreen$InAppListAdapter.onClick(Landroid/view/View;)V",
      "targetMethod": "org.apache.http.client.HttpClient.execute(Lorg/apache/http/client/methods/HttpUriRequest;)Lorg/apache/http/HttpResponse;",
      "eventChain": [
        {
          "start": "com.casinoapps1234.newyorkslotmachinehd.HomeScreen$InAppListAdapter.onClick(Landroid/view/View;)V",
          "target": "invokeinterface \u003c Application, Lorg/apache/http/client/HttpClient, execute(Lorg/apache/http/client/methods/HttpUriRequest;)Lorg/apache/http/HttpResponse; \u003e@47",
          "type": "ui",
          "activities": [
            "com.casinoapps1234.newyorkslotmachinehd.SplashScreenActivity"
          ],
          "listener": "com.casinoapps1234.newyorkslotmachinehd.HomeScreen$InAppListAdapter",
          "listenerMethod": "onClick",
          "uiType": "onClick",
          "constraintsFile": "constraints20_0.py",
          "variables": {},
          "stringMap": {},
          "strings": {}
        }
      ]
    },
    "21": {
      "startMethod": "com.casinoapps1234.newyorkslotmachinehd.HomeScreen$InAppListAdapter.onClick(Landroid/view/View;)V",
      "targetMethod": "java.lang.reflect.Method.invoke(Ljava/lang/Object;[Ljava/lang/Object;)Ljava/lang/Object;",
      "eventChain": [
        {
          "start": "net.robotmedia.billing.BillingService.onStartCommand(Landroid/content/Intent;II)I",
          "target": "",
          "type": "service",
          "component": "net.robotmedia.billing.BillingService"
        },
        {
          "start": "com.casinoapps1234.newyorkslotmachinehd.HomeScreen$InAppListAdapter.onClick(Landroid/view/View;)V",
          "target": "invokevirtual \u003c Application, Ljava/lang/reflect/Method, invoke(Ljava/lang/Object;[Ljava/lang/Object;)Ljava/lang/Object; \u003e@93",
          "type": "ui",
          "activities": [
            "com.casinoapps1234.newyorkslotmachinehd.SplashScreenActivity"
          ],
          "listener": "com.casinoapps1234.newyorkslotmachinehd.HomeScreen$InAppListAdapter",
          "listenerMethod": "onClick",
          "uiType": "onClick",
          "constraintsFile": "constraints21_0.py",
          "variables": {},
          "stringMap": {},
          "strings": {}
        }
      ]
    },
    "22": {
      "startMethod": "com.casinoapps1234.newyorkslotmachinehd.FruitCocktailActivity$1.onClick(Landroid/view/View;)V",
      "targetMethod": "java.net.URL.openConnection()Ljava/net/URLConnection;",
      "eventChain": [
        {
          "start": "com.casinoapps1234.newyorkslotmachinehd.FruitCocktailActivity$7.onClick(Landroid/content/DialogInterface;I)V",
          "target": "invokevirtual \u003c Application, Landroid/widget/Button, setOnClickListener(Landroid/view/View$OnClickListener;)V \u003e@76",
          "type": "ui",
          "activities": [
            "com.casinoapps1234.newyorkslotmachinehd.SplashScreenActivity"
          ],
          "listener": "com.casinoapps1234.newyorkslotmachinehd.FruitCocktailActivity$7",
          "listenerMethod": "onClick",
          "uiType": "onClick",
          "inDialog": "true",
          "constraintsFile": "constraints22_0.py",
          "variables": {},
          "stringMap": {},
          "strings": {}
        },
        {
          "start": "com.casinoapps1234.newyorkslotmachinehd.SocialLoginActivity.onCreate(Landroid/os/Bundle;)V",
          "target": "PC@96",
          "type": "activity",
          "component": "com.casinoapps1234.newyorkslotmachinehd.SocialLoginActivity"
        },
        {
          "start": "com.casinoapps1234.newyorkslotmachinehd.SocialLoginActivity.onCreate(Landroid/os/Bundle;)V",
          "target": "PC@24",
          "type": "activity",
          "component": "com.casinoapps1234.newyorkslotmachinehd.SocialLoginActivity"
        },
        {
          "start": "com.casinoapps1234.newyorkslotmachinehd.SocialLoginActivity.onCreate(Landroid/os/Bundle;)V",
          "target": "PC@54",
          "type": "activity",
          "component": "com.casinoapps1234.newyorkslotmachinehd.SocialLoginActivity"
        },
        {
          "start": "com.casinoapps1234.newyorkslotmachinehd.SocialLoginActivity.onCreate(Landroid/os/Bundle;)V",
          "target": "PC@12",
          "type": "activity",
          "component": "com.casinoapps1234.newyorkslotmachinehd.SocialLoginActivity"
        },
        {
          "start": "com.casinoapps1234.newyorkslotmachinehd.SocialLoginActivity.onCreate(Landroid/os/Bundle;)V",
          "target": "PC@195",
          "type": "activity",
          "component": "com.casinoapps1234.newyorkslotmachinehd.SocialLoginActivity"
        },
        {
          "start": "com.casinoapps1234.newyorkslotmachinehd.FruitCocktailActivity$1.onClick(Landroid/view/View;)V",
          "target": "invokevirtual \u003c Application, Ljava/net/URL, openConnection()Ljava/net/URLConnection; \u003e@2",
          "type": "ui",
          "activities": [
            "com.casinoapps1234.newyorkslotmachinehd.SplashScreenActivity"
          ],
          "listener": "com.casinoapps1234.newyorkslotmachinehd.FruitCocktailActivity$1",
          "listenerMethod": "onClick",
          "uiType": "onClick",
          "constraintsFile": "constraints22_1.py",
          "variables": {},
          "stringMap": {},
          "strings": {
            "IAAv2": "",
            "IAAv12": ""
          }
        }
      ]
    },
    "23": {
      "startMethod": "com.casinoapps1234.newyorkslotmachinehd.SocialLoginActivity$1.onClick(Landroid/view/View;)V",
      "targetMethod": "org.apache.http.client.HttpClient.execute(Lorg/apache/http/client/methods/HttpUriRequest;)Lorg/apache/http/HttpResponse;",
      "eventChain": [
        {
          "start": "com.casinoapps1234.newyorkslotmachinehd.SocialLoginActivity.onCreate(Landroid/os/Bundle;)V",
          "target": "PC@13",
          "type": "activity",
          "component": "com.casinoapps1234.newyorkslotmachinehd.SocialLoginActivity"
        },
        {
          "start": "com.casinoapps1234.newyorkslotmachinehd.SocialLoginActivity$1.onClick(Landroid/view/View;)V",
          "target": "invokeinterface \u003c Application, Lorg/apache/http/client/HttpClient, execute(Lorg/apache/http/client/methods/HttpUriRequest;)Lorg/apache/http/HttpResponse; \u003e@47",
          "type": "ui",
          "activities": [
            "com.casinoapps1234.newyorkslotmachinehd.SocialLoginActivity"
          ],
          "listener": "com.casinoapps1234.newyorkslotmachinehd.SocialLoginActivity$1",
          "listenerMethod": "onClick",
          "uiType": "onClick",
          "constraintsFile": "constraints23_0.py",
          "variables": {},
          "stringMap": {},
          "strings": {
            "IAAv12": ""
          }
        }
      ]
    },
    "24": {
      "startMethod": "com.casinoapps1234.newyorkslotmachinehd.SocialLoginActivity$1.onClick(Landroid/view/View;)V",
      "targetMethod": "java.net.URL.openConnection()Ljava/net/URLConnection;",
      "eventChain": [
        {
          "start": "com.casinoapps1234.newyorkslotmachinehd.SocialLoginActivity.onCreate(Landroid/os/Bundle;)V",
          "target": "PC@13",
          "type": "activity",
          "component": "com.casinoapps1234.newyorkslotmachinehd.SocialLoginActivity"
        },
        {
          "start": "com.casinoapps1234.newyorkslotmachinehd.SocialLoginActivity$1.onClick(Landroid/view/View;)V",
          "target": "invokevirtual \u003c Application, Ljava/net/URL, openConnection()Ljava/net/URLConnection; \u003e@154",
          "type": "ui",
          "activities": [
            "com.casinoapps1234.newyorkslotmachinehd.SocialLoginActivity"
          ],
          "listener": "com.casinoapps1234.newyorkslotmachinehd.SocialLoginActivity$1",
          "listenerMethod": "onClick",
          "uiType": "onClick",
          "constraintsFile": "constraints24_0.py",
          "variables": {},
          "stringMap": {},
          "strings": {}
        }
      ]
    },
    "25": {
      "startMethod": "com.casinoapps1234.newyorkslotmachinehd.SocialLoginActivity$1.onClick(Landroid/view/View;)V",
      "targetMethod": "java.net.URL.openConnection()Ljava/net/URLConnection;",
      "eventChain": [
        {
          "start": "com.casinoapps1234.newyorkslotmachinehd.SocialLoginActivity.onCreate(Landroid/os/Bundle;)V",
          "target": "PC@24",
          "type": "activity",
          "component": "com.casinoapps1234.newyorkslotmachinehd.SocialLoginActivity"
        },
        {
          "start": "com.casinoapps1234.newyorkslotmachinehd.SocialLoginActivity.onCreate(Landroid/os/Bundle;)V",
          "target": "PC@12",
          "type": "activity",
          "component": "com.casinoapps1234.newyorkslotmachinehd.SocialLoginActivity"
        },
        {
          "start": "com.casinoapps1234.newyorkslotmachinehd.SocialLoginActivity$1.onClick(Landroid/view/View;)V",
          "target": "invokevirtual \u003c Application, Ljava/net/URL, openConnection()Ljava/net/URLConnection; \u003e@2",
          "type": "ui",
          "activities": [
            "com.casinoapps1234.newyorkslotmachinehd.SocialLoginActivity"
          ],
          "listener": "com.casinoapps1234.newyorkslotmachinehd.SocialLoginActivity$1",
          "listenerMethod": "onClick",
          "uiType": "onClick",
          "constraintsFile": "constraints25_0.py",
          "variables": {},
          "stringMap": {},
          "strings": {
            "IAAv11": "",
            "IAAv7": ""
          }
        }
      ]
    },
    "26": {
      "startMethod": "com.casinoapps1234.newyorkslotmachinehd.HomeScreen$6.onItemClick(Landroid/widget/AdapterView;Landroid/view/View;IJ)V",
      "targetMethod": "java.net.URL.openConnection()Ljava/net/URLConnection;",
      "eventChain": [
        {
          "start": "com.casinoapps1234.newyorkslotmachinehd.SocialLoginActivity.onCreate(Landroid/os/Bundle;)V",
          "target": "PC@96",
          "type": "activity",
          "component": "com.casinoapps1234.newyorkslotmachinehd.SocialLoginActivity"
        },
        {
          "start": "com.casinoapps1234.newyorkslotmachinehd.SocialLoginActivity.onCreate(Landroid/os/Bundle;)V",
          "target": "PC@24",
          "type": "activity",
          "component": "com.casinoapps1234.newyorkslotmachinehd.SocialLoginActivity"
        },
        {
          "start": "com.casinoapps1234.newyorkslotmachinehd.SocialLoginActivity.onCreate(Landroid/os/Bundle;)V",
          "target": "PC@54",
          "type": "activity",
          "component": "com.casinoapps1234.newyorkslotmachinehd.SocialLoginActivity"
        },
        {
          "start": "com.casinoapps1234.newyorkslotmachinehd.SocialLoginActivity.onCreate(Landroid/os/Bundle;)V",
          "target": "PC@12",
          "type": "activity",
          "component": "com.casinoapps1234.newyorkslotmachinehd.SocialLoginActivity"
        },
        {
          "start": "com.casinoapps1234.newyorkslotmachinehd.SocialLoginActivity.onCreate(Landroid/os/Bundle;)V",
          "target": "PC@195",
          "type": "activity",
          "component": "com.casinoapps1234.newyorkslotmachinehd.SocialLoginActivity"
        },
        {
          "start": "com.casinoapps1234.newyorkslotmachinehd.HomeScreen$6.onItemClick(Landroid/widget/AdapterView;Landroid/view/View;IJ)V",
          "target": "invokevirtual \u003c Application, Ljava/net/URL, openConnection()Ljava/net/URLConnection; \u003e@2",
          "type": "ui",
          "activities": [
            "com.casinoapps1234.newyorkslotmachinehd.SplashScreenActivity"
          ],
          "listener": "com.casinoapps1234.newyorkslotmachinehd.HomeScreen$6",
          "listenerMethod": "onItemClick",
          "uiType": "onItemClick",
          "constraintsFile": "constraints26_0.py",
          "variables": {
            "\u003cChainedInput3\u003e": "IAAv0"
          },
          "stringMap": {},
          "strings": {
            "IAAv4": "",
            "IAAv14": ""
          }
        }
      ]
    },
    "27": {
      "startMethod": "com.casinoapps1234.newyorkslotmachinehd.HomeScreen$8.onClick(Landroid/view/View;)V",
      "targetMethod": "java.net.URL.openConnection()Ljava/net/URLConnection;",
      "eventChain": [
        {
          "start": "com.casinoapps1234.newyorkslotmachinehd.HomeScreen$10.onClick(Landroid/content/DialogInterface;I)V",
          "target": "invokevirtual \u003c Application, Landroid/widget/Button, setOnClickListener(Landroid/view/View$OnClickListener;)V \u003e@107",
          "type": "ui",
          "activities": [
            "com.casinoapps1234.newyorkslotmachinehd.SplashScreenActivity"
          ],
          "listener": "com.casinoapps1234.newyorkslotmachinehd.HomeScreen$10",
          "listenerMethod": "onClick",
          "uiType": "onClick",
          "inDialog": "true",
          "constraintsFile": "constraints27_0.py",
          "variables": {},
          "stringMap": {},
          "strings": {}
        },
        {
          "start": "com.casinoapps1234.newyorkslotmachinehd.SocialLoginActivity.onCreate(Landroid/os/Bundle;)V",
          "target": "PC@96",
          "type": "activity",
          "component": "com.casinoapps1234.newyorkslotmachinehd.SocialLoginActivity"
        },
        {
          "start": "com.casinoapps1234.newyorkslotmachinehd.SocialLoginActivity.onCreate(Landroid/os/Bundle;)V",
          "target": "PC@24",
          "type": "activity",
          "component": "com.casinoapps1234.newyorkslotmachinehd.SocialLoginActivity"
        },
        {
          "start": "com.casinoapps1234.newyorkslotmachinehd.SocialLoginActivity.onCreate(Landroid/os/Bundle;)V",
          "target": "PC@54",
          "type": "activity",
          "component": "com.casinoapps1234.newyorkslotmachinehd.SocialLoginActivity"
        },
        {
          "start": "com.casinoapps1234.newyorkslotmachinehd.SocialLoginActivity.onCreate(Landroid/os/Bundle;)V",
          "target": "PC@12",
          "type": "activity",
          "component": "com.casinoapps1234.newyorkslotmachinehd.SocialLoginActivity"
        },
        {
          "start": "com.casinoapps1234.newyorkslotmachinehd.SocialLoginActivity.onCreate(Landroid/os/Bundle;)V",
          "target": "PC@195",
          "type": "activity",
          "component": "com.casinoapps1234.newyorkslotmachinehd.SocialLoginActivity"
        },
        {
          "start": "com.casinoapps1234.newyorkslotmachinehd.HomeScreen$8.onClick(Landroid/view/View;)V",
          "target": "invokevirtual \u003c Application, Ljava/net/URL, openConnection()Ljava/net/URLConnection; \u003e@2",
          "type": "ui",
          "activities": [
            "com.casinoapps1234.newyorkslotmachinehd.SplashScreenActivity"
          ],
          "listener": "com.casinoapps1234.newyorkslotmachinehd.HomeScreen$8",
          "listenerMethod": "onClick",
          "uiType": "onClick",
          "constraintsFile": "constraints27_1.py",
          "variables": {},
          "stringMap": {},
          "strings": {
            "IAAv2": "",
            "IAAv12": ""
          }
        }
      ]
    },
    "28": {
      "startMethod": "com.casinoapps1234.newyorkslotmachinehd.FruitCocktailActivity$2.onClick(Landroid/view/View;)V",
      "targetMethod": "java.net.URL.openConnection()Ljava/net/URLConnection;",
      "eventChain": [
        {
          "start": "com.casinoapps1234.newyorkslotmachinehd.FruitCocktailActivity$7.onClick(Landroid/content/DialogInterface;I)V",
          "target": "invokevirtual \u003c Application, Landroid/widget/Button, setOnClickListener(Landroid/view/View$OnClickListener;)V \u003e@105",
          "type": "ui",
          "activities": [
            "com.casinoapps1234.newyorkslotmachinehd.SplashScreenActivity"
          ],
          "listener": "com.casinoapps1234.newyorkslotmachinehd.FruitCocktailActivity$7",
          "listenerMethod": "onClick",
          "uiType": "onClick",
          "inDialog": "true",
          "constraintsFile": "constraints28_0.py",
          "variables": {},
          "stringMap": {},
          "strings": {}
        },
        {
          "start": "com.casinoapps1234.newyorkslotmachinehd.SocialLoginActivity.onCreate(Landroid/os/Bundle;)V",
          "target": "PC@96",
          "type": "activity",
          "component": "com.casinoapps1234.newyorkslotmachinehd.SocialLoginActivity"
        },
        {
          "start": "com.casinoapps1234.newyorkslotmachinehd.SocialLoginActivity.onCreate(Landroid/os/Bundle;)V",
          "target": "PC@24",
          "type": "activity",
          "component": "com.casinoapps1234.newyorkslotmachinehd.SocialLoginActivity"
        },
        {
          "start": "com.casinoapps1234.newyorkslotmachinehd.SocialLoginActivity.onCreate(Landroid/os/Bundle;)V",
          "target": "PC@54",
          "type": "activity",
          "component": "com.casinoapps1234.newyorkslotmachinehd.SocialLoginActivity"
        },
        {
          "start": "com.casinoapps1234.newyorkslotmachinehd.SocialLoginActivity.onCreate(Landroid/os/Bundle;)V",
          "target": "PC@12",
          "type": "activity",
          "component": "com.casinoapps1234.newyorkslotmachinehd.SocialLoginActivity"
        },
        {
          "start": "com.casinoapps1234.newyorkslotmachinehd.SocialLoginActivity.onCreate(Landroid/os/Bundle;)V",
          "target": "PC@195",
          "type": "activity",
          "component": "com.casinoapps1234.newyorkslotmachinehd.SocialLoginActivity"
        },
        {
          "start": "com.casinoapps1234.newyorkslotmachinehd.FruitCocktailActivity$2.onClick(Landroid/view/View;)V",
          "target": "invokevirtual \u003c Application, Ljava/net/URL, openConnection()Ljava/net/URLConnection; \u003e@2",
          "type": "ui",
          "activities": [
            "com.casinoapps1234.newyorkslotmachinehd.SplashScreenActivity"
          ],
          "listener": "com.casinoapps1234.newyorkslotmachinehd.FruitCocktailActivity$2",
          "listenerMethod": "onClick",
          "uiType": "onClick",
          "constraintsFile": "constraints28_1.py",
          "variables": {},
          "stringMap": {},
          "strings": {
            "IAAv2": "",
            "IAAv12": ""
          }
        }
      ]
    }
  }
}