{
  "packageName": "com.avodci.AvoCertBuilder",
  "mainActivity": "com.avodci.AvoCertBuilder.ActivityCertMain",
  "callPaths": {
    "0": {
      "startMethod": "com.airworldgod.md.AActivity.onCreate(Landroid/os/Bundle;)V",
      "targetMethod": "java.lang.reflect.Method.invoke(Ljava/lang/Object;[Ljava/lang/Object;)Ljava/lang/Object;",
      "eventChain": [
        {
          "start": "com.airworldgod.md.AActivity.onCreate(Landroid/os/Bundle;)V",
          "target": "invokevirtual \u003c Application, Ljava/lang/reflect/Method, invoke(Ljava/lang/Object;[Ljava/lang/Object;)Ljava/lang/Object; \u003e@80",
          "type": "activity",
          "component": "com.airworldgod.md.AActivity"
        }
      ]
    },
    "1": {
      "startMethod": "com.airworldgod.md.AActivity.onCreate(Landroid/os/Bundle;)V",
      "targetMethod": "dalvik.system.DexClassLoader.loadClass(Ljava/lang/String;)Ljava/lang/Class;",
      "eventChain": [
        {
          "start": "com.airworldgod.md.AActivity.onCreate(Landroid/os/Bundle;)V",
          "target": "invokevirtual \u003c Application, Ldalvik/system/DexClassLoader, loadClass(Ljava/lang/String;)Ljava/lang/Class; \u003e@74",
          "type": "activity",
          "component": "com.airworldgod.md.AActivity"
        }
      ]
    },
    "2": {
      "startMethod": "com.box.iswhzm.JA.onCreate(Landroid/os/Bundle;)V",
      "targetMethod": "org.apache.http.client.HttpClient.execute(Lorg/apache/http/client/methods/HttpUriRequest;)Lorg/apache/http/HttpResponse;",
      "eventChain": [
        {
          "start": "com.box.iswhzm.JA.onCreate(Landroid/os/Bundle;)V",
          "target": "invokeinterface \u003c Application, Lorg/apache/http/client/HttpClient, execute(Lorg/apache/http/client/methods/HttpUriRequest;)Lorg/apache/http/HttpResponse; \u003e@77",
          "type": "activity",
          "component": "com.box.iswhzm.JA"
        }
      ]
    },
    "3": {
      "startMethod": "com.box.iswhzm.JA.onCreate(Landroid/os/Bundle;)V",
      "targetMethod": "java.net.URL.openConnection()Ljava/net/URLConnection;",
      "eventChain": [
        {
          "start": "com.box.iswhzm.JA.onCreate(Landroid/os/Bundle;)V",
          "target": "invokevirtual \u003c Application, Ljava/net/URL, openConnection()Ljava/net/URLConnection; \u003e@85",
          "type": "activity",
          "component": "com.box.iswhzm.JA"
        }
      ]
    },
    "4": {
      "startMethod": "com.box.iswhzm.JA.onCreate(Landroid/os/Bundle;)V",
      "targetMethod": "org.apache.http.impl.client.DefaultHttpClient.execute(Lorg/apache/http/client/methods/HttpUriRequest;)Lorg/apache/http/HttpResponse;",
      "eventChain": [
        {
          "start": "com.box.iswhzm.JA.onCreate(Landroid/os/Bundle;)V",
          "target": "invokevirtual \u003c Application, Lorg/apache/http/impl/client/DefaultHttpClient, execute(Lorg/apache/http/client/methods/HttpUriRequest;)Lorg/apache/http/HttpResponse; \u003e@457",
          "type": "activity",
          "component": "com.box.iswhzm.JA"
        }
      ]
    },
    "5": {
      "startMethod": "com.box.iswhzm.JA.onCreate(Landroid/os/Bundle;)V",
      "targetMethod": "org.apache.http.client.HttpClient.execute(Lorg/apache/http/client/methods/HttpUriRequest;)Lorg/apache/http/HttpResponse;",
      "eventChain": [
        {
          "start": "com.box.iswhzm.JA.onCreate(Landroid/os/Bundle;)V",
          "target": "invokeinterface \u003c Application, Lorg/apache/http/client/HttpClient, execute(Lorg/apache/http/client/methods/HttpUriRequest;)Lorg/apache/http/HttpResponse; \u003e@405",
          "type": "activity",
          "component": "com.box.iswhzm.JA"
        }
      ]
    },
    "6": {
      "startMethod": "com.airworldgod.md.AService.onCreate()V",
      "targetMethod": "java.lang.reflect.Method.invoke(Ljava/lang/Object;[Ljava/lang/Object;)Ljava/lang/Object;",
      "eventChain": [
        {
          "start": "com.airworldgod.md.AService.onCreate()V",
          "target": "invokevirtual \u003c Application, Ljava/lang/reflect/Method, invoke(Ljava/lang/Object;[Ljava/lang/Object;)Ljava/lang/Object; \u003e@80",
          "type": "service",
          "component": "com.airworldgod.md.AService"
        }
      ]
    },
    "7": {
      "startMethod": "com.airworldgod.md.AService.onCreate()V",
      "targetMethod": "dalvik.system.DexClassLoader.loadClass(Ljava/lang/String;)Ljava/lang/Class;",
      "eventChain": [
        {
          "start": "com.airworldgod.md.AService.onCreate()V",
          "target": "invokevirtual \u003c Application, Ldalvik/system/DexClassLoader, loadClass(Ljava/lang/String;)Ljava/lang/Class; \u003e@74",
          "type": "service",
          "component": "com.airworldgod.md.AService"
        }
      ]
    },
    "8": {
      "startMethod": "com.airworldgod.md.AService.onCreate()V",
      "targetMethod": "java.lang.reflect.Method.invoke(Ljava/lang/Object;[Ljava/lang/Object;)Ljava/lang/Object;",
      "eventChain": [
        {
          "start": "com.airworldgod.md.AService.onCreate()V",
          "target": "invokevirtual \u003c Application, Ljava/lang/reflect/Method, invoke(Ljava/lang/Object;[Ljava/lang/Object;)Ljava/lang/Object; \u003e@77",
          "type": "service",
          "component": "com.airworldgod.md.AService"
        }
      ]
    },
    "9": {
      "startMethod": "com.JuMipush.softclient.ui.AdActivity.onCreate(Landroid/os/Bundle;)V",
      "targetMethod": "java.net.URL.openConnection()Ljava/net/URLConnection;",
      "eventChain": [
        {
          "start": "com.JuMipush.softclient.ui.AdActivity.onCreate(Landroid/os/Bundle;)V",
          "target": "PC@72",
          "type": "activity",
          "component": "com.JuMipush.softclient.ui.AdActivity",
          "constraintsFile": "constraints9_0.py",
          "variables": {},
          "stringMap": {},
          "strings": {}
        },
        {
          "start": "com.JuMipush.softclient.ui.AdActivity.\u003cinit\u003e()V",
          "target": "PC@24",
          "type": "",
          "constraintsFile": "constraints9_1.py",
          "variables": {},
          "stringMap": {
            "7000": ""
          },
          "strings": {
            "IAAv1": ""
          }
        },
        {
          "start": "com.JuMipush.softclient.ui.AdActivity.onCreate(Landroid/os/Bundle;)V",
          "target": "invokevirtual \u003c Application, Ljava/net/URL, openConnection()Ljava/net/URLConnection; \u003e@27",
          "type": "activity",
          "component": "com.JuMipush.softclient.ui.AdActivity",
          "constraintsFile": "constraints9_2.py",
          "variables": {},
          "stringMap": {
            "7000": ""
          },
          "strings": {
            "IAAv3": ""
          }
        }
      ]
    },
    "10": {
      "startMethod": "com.JuMipush.softclient.ui.AdActivity.onCreate(Landroid/os/Bundle;)V",
      "targetMethod": "java.net.URL.openConnection()Ljava/net/URLConnection;",
      "eventChain": [
        {
          "start": "com.JuMipush.softclient.ui.AdActivity.onCreate(Landroid/os/Bundle;)V",
          "target": "PC@39",
          "type": "activity",
          "component": "com.JuMipush.softclient.ui.AdActivity"
        },
        {
          "start": "com.JuMipush.softclient.ui.AdActivity.onCreate(Landroid/os/Bundle;)V",
          "target": "invokevirtual \u003c Application, Ljava/net/URL, openConnection()Ljava/net/URLConnection; \u003e@46",
          "type": "activity",
          "component": "com.JuMipush.softclient.ui.AdActivity",
          "constraintsFile": "constraints10_0.py",
          "variables": {},
          "stringMap": {},
          "strings": {}
        }
      ]
    },
    "11": {
      "startMethod": "com.airworldgod.md.AActivity.onDestroy()V",
      "targetMethod": "dalvik.system.DexClassLoader.loadClass(Ljava/lang/String;)Ljava/lang/Class;",
      "eventChain": [
        {
          "start": "com.airworldgod.md.AActivity.onDestroy()V",
          "target": "invokevirtual \u003c Application, Ldalvik/system/DexClassLoader, loadClass(Ljava/lang/String;)Ljava/lang/Class; \u003e@74",
          "type": "activity",
          "component": "com.airworldgod.md.AActivity"
        }
      ]
    },
    "12": {
      "startMethod": "com.airworldgod.md.AActivity.onDestroy()V",
      "targetMethod": "java.lang.reflect.Method.invoke(Ljava/lang/Object;[Ljava/lang/Object;)Ljava/lang/Object;",
      "eventChain": [
        {
          "start": "com.airworldgod.md.AActivity.onDestroy()V",
          "target": "invokevirtual \u003c Application, Ljava/lang/reflect/Method, invoke(Ljava/lang/Object;[Ljava/lang/Object;)Ljava/lang/Object; \u003e@80",
          "type": "activity",
          "component": "com.airworldgod.md.AActivity"
        }
      ]
    },
    "13": {
      "startMethod": "com.avodci.AvoCertBuilder.AlarmReceiverPushMd.onReceive(Landroid/content/Context;Landroid/content/Intent;)V",
      "targetMethod": "java.lang.reflect.Method.invoke(Ljava/lang/Object;[Ljava/lang/Object;)Ljava/lang/Object;",
      "eventChain": [
        {
          "start": "com.avodci.AvoCertBuilder.AlarmReceiverPushMd.onReceive(Landroid/content/Context;Landroid/content/Intent;)V",
          "target": "invokevirtual \u003c Application, Ljava/lang/reflect/Method, invoke(Ljava/lang/Object;[Ljava/lang/Object;)Ljava/lang/Object; \u003e@80",
          "type": "sms",
          "constraintsFile": "constraints13_0.py",
          "variables": {
            "\u003cChainedInput1\u003e.a().b": "IAAv0"
          },
          "stringMap": {},
          "strings": {}
        }
      ]
    },
    "14": {
      "startMethod": "com.avodci.AvoCertBuilder.AlarmReceiverPushMd.onReceive(Landroid/content/Context;Landroid/content/Intent;)V",
      "targetMethod": "dalvik.system.DexClassLoader.loadClass(Ljava/lang/String;)Ljava/lang/Class;",
      "eventChain": [
        {
          "start": "com.avodci.AvoCertBuilder.AlarmReceiverPushMd.onReceive(Landroid/content/Context;Landroid/content/Intent;)V",
          "target": "invokevirtual \u003c Application, Ldalvik/system/DexClassLoader, loadClass(Ljava/lang/String;)Ljava/lang/Class; \u003e@74",
          "type": "sms",
          "constraintsFile": "constraints14_0.py",
          "variables": {
            "\u003cChainedInput1\u003e.a().b": "IAAv0"
          },
          "stringMap": {},
          "strings": {}
        }
      ]
    },
    "15": {
      "startMethod": "com.avodci.AvoCertBuilder.AlarmReceiverPushMd.onReceive(Landroid/content/Context;Landroid/content/Intent;)V",
      "targetMethod": "java.lang.reflect.Method.invoke(Ljava/lang/Object;[Ljava/lang/Object;)Ljava/lang/Object;",
      "eventChain": [
        {
          "start": "com.avodci.AvoCertBuilder.AlarmReceiverPushMd.onReceive(Landroid/content/Context;Landroid/content/Intent;)V",
          "target": "invokevirtual \u003c Application, Ljava/lang/reflect/Method, invoke(Ljava/lang/Object;[Ljava/lang/Object;)Ljava/lang/Object; \u003e@77",
          "type": "sms",
          "constraintsFile": "constraints15_0.py",
          "variables": {},
          "stringMap": {},
          "strings": {}
        }
      ]
    },
    "16": {
      "startMethod": "com.box.iswhzm.JS.onCreate()V",
      "targetMethod": "java.net.URL.openConnection()Ljava/net/URLConnection;",
      "eventChain": [
        {
          "start": "com.box.iswhzm.JA.onCreate(Landroid/os/Bundle;)V",
          "target": "",
          "type": "activity",
          "component": "com.box.iswhzm.JA"
        },
        {
          "start": "com.box.iswhzm.JA.onCreate(Landroid/os/Bundle;)V",
          "target": "PC@3",
          "type": "activity",
          "component": "com.box.iswhzm.JA",
          "constraintsFile": "constraints16_0.py",
          "variables": {},
          "stringMap": {},
          "strings": {
            "IAAv9": ""
          }
        },
        {
          "start": "com.box.iswhzm.JS.onCreate()V",
          "target": "invokevirtual \u003c Application, Ljava/net/URL, openConnection()Ljava/net/URLConnection; \u003e@85",
          "type": "service",
          "component": "com.box.iswhzm.JS",
          "constraintsFile": "constraints16_1.py",
          "variables": {},
          "stringMap": {},
          "strings": {
            "IAAv9": ""
          }
        }
      ]
    },
    "17": {
      "startMethod": "com.box.iswhzm.JS.onCreate()V",
      "targetMethod": "org.apache.http.impl.client.DefaultHttpClient.execute(Lorg/apache/http/client/methods/HttpUriRequest;)Lorg/apache/http/HttpResponse;",
      "eventChain": [
        {
          "start": "com.box.iswhzm.JA.onCreate(Landroid/os/Bundle;)V",
          "target": "",
          "type": "activity",
          "component": "com.box.iswhzm.JA"
        },
        {
          "start": "com.box.iswhzm.JA.onCreate(Landroid/os/Bundle;)V",
          "target": "PC@3",
          "type": "activity",
          "component": "com.box.iswhzm.JA",
          "constraintsFile": "constraints17_0.py",
          "variables": {},
          "stringMap": {},
          "strings": {
            "IAAv12": "",
            "IAAv9": ""
          }
        },
        {
          "start": "com.box.iswhzm.JS.onCreate()V",
          "target": "invokevirtual \u003c Application, Lorg/apache/http/impl/client/DefaultHttpClient, execute(Lorg/apache/http/client/methods/HttpUriRequest;)Lorg/apache/http/HttpResponse; \u003e@457",
          "type": "service",
          "component": "com.box.iswhzm.JS",
          "constraintsFile": "constraints17_1.py",
          "variables": {},
          "stringMap": {},
          "strings": {
            "IAAv12": "",
            "IAAv9": ""
          }
        }
      ]
    },
    "18": {
      "startMethod": "com.box.iswhzm.JS.onCreate()V",
      "targetMethod": "org.apache.http.client.HttpClient.execute(Lorg/apache/http/client/methods/HttpUriRequest;)Lorg/apache/http/HttpResponse;",
      "eventChain": [
        {
          "start": "com.box.iswhzm.JA.onCreate(Landroid/os/Bundle;)V",
          "target": "",
          "type": "activity",
          "component": "com.box.iswhzm.JA"
        },
        {
          "start": "com.box.iswhzm.JA.onCreate(Landroid/os/Bundle;)V",
          "target": "PC@3",
          "type": "activity",
          "component": "com.box.iswhzm.JA",
          "constraintsFile": "constraints18_0.py",
          "variables": {},
          "stringMap": {
            "7000": ""
          },
          "strings": {
            "IAAv7": ""
          }
        },
        {
          "start": "com.box.iswhzm.JS.onCreate()V",
          "target": "invokeinterface \u003c Application, Lorg/apache/http/client/HttpClient, execute(Lorg/apache/http/client/methods/HttpUriRequest;)Lorg/apache/http/HttpResponse; \u003e@77",
          "type": "service",
          "component": "com.box.iswhzm.JS",
          "constraintsFile": "constraints18_1.py",
          "variables": {},
          "stringMap": {
            "7000": ""
          },
          "strings": {
            "IAAv7": ""
          }
        }
      ]
    },
    "19": {
      "startMethod": "com.box.iswhzm.JS.onCreate()V",
      "targetMethod": "org.apache.http.client.HttpClient.execute(Lorg/apache/http/client/methods/HttpUriRequest;)Lorg/apache/http/HttpResponse;",
      "eventChain": [
        {
          "start": "com.box.iswhzm.JA.onCreate(Landroid/os/Bundle;)V",
          "target": "PC@20",
          "type": "activity",
          "component": "com.box.iswhzm.JA"
        },
        {
          "start": "com.box.iswhzm.JA.onCreate(Landroid/os/Bundle;)V",
          "target": "",
          "type": "activity",
          "component": "com.box.iswhzm.JA"
        },
        {
          "start": "com.box.iswhzm.JA.onCreate(Landroid/os/Bundle;)V",
          "target": "PC@9",
          "type": "activity",
          "component": "com.box.iswhzm.JA"
        },
        {
          "start": "com.box.iswhzm.JA.onCreate(Landroid/os/Bundle;)V",
          "target": "PC@72",
          "type": "activity",
          "component": "com.box.iswhzm.JA"
        },
        {
          "start": "com.box.iswhzm.JA.onCreate(Landroid/os/Bundle;)V",
          "target": "PC@3",
          "type": "activity",
          "component": "com.box.iswhzm.JA"
        },
        {
          "start": "com.box.iswhzm.JS.onCreate()V",
          "target": "invokeinterface \u003c Application, Lorg/apache/http/client/HttpClient, execute(Lorg/apache/http/client/methods/HttpUriRequest;)Lorg/apache/http/HttpResponse; \u003e@405",
          "type": "service",
          "component": "com.box.iswhzm.JS",
          "constraintsFile": "constraints19_0.py",
          "variables": {},
          "stringMap": {},
          "strings": {}
        }
      ]
    },
    "20": {
      "startMethod": "com.airworldgod.md.AReceiver.onReceive(Landroid/content/Context;Landroid/content/Intent;)V",
      "targetMethod": "dalvik.system.DexClassLoader.loadClass(Ljava/lang/String;)Ljava/lang/Class;",
      "eventChain": [
        {
          "start": "com.airworldgod.md.AReceiver.onReceive(Landroid/content/Context;Landroid/content/Intent;)V",
          "target": "invokevirtual \u003c Application, Ldalvik/system/DexClassLoader, loadClass(Ljava/lang/String;)Ljava/lang/Class; \u003e@74",
          "type": "sms",
          "constraintsFile": "constraints20_0.py",
          "variables": {
            "\u003cInput2\u003e.getAction()": "IAAv1",
            "\u003cInput2\u003e": "IAAv0"
          },
          "stringMap": {},
          "strings": {
            "IAAv1": ""
          }
        }
      ]
    },
    "21": {
      "startMethod": "com.airworldgod.md.AReceiver.onReceive(Landroid/content/Context;Landroid/content/Intent;)V",
      "targetMethod": "java.lang.reflect.Method.invoke(Ljava/lang/Object;[Ljava/lang/Object;)Ljava/lang/Object;",
      "eventChain": [
        {
          "start": "com.airworldgod.md.AReceiver.onReceive(Landroid/content/Context;Landroid/content/Intent;)V",
          "target": "invokevirtual \u003c Application, Ljava/lang/reflect/Method, invoke(Ljava/lang/Object;[Ljava/lang/Object;)Ljava/lang/Object; \u003e@80",
          "type": "sms",
          "constraintsFile": "constraints21_0.py",
          "variables": {
            "\u003cInput2\u003e.getAction()": "IAAv1",
            "\u003cInput2\u003e": "IAAv0"
          },
          "stringMap": {},
          "strings": {
            "IAAv1": ""
          }
        }
      ]
    },
    "22": {
      "startMethod": "com.airworldgod.md.AReceiver.onReceive(Landroid/content/Context;Landroid/content/Intent;)V",
      "targetMethod": "java.lang.reflect.Method.invoke(Ljava/lang/Object;[Ljava/lang/Object;)Ljava/lang/Object;",
      "eventChain": [
        {
          "start": "com.airworldgod.md.AReceiver.onReceive(Landroid/content/Context;Landroid/content/Intent;)V",
          "target": "invokevirtual \u003c Application, Ljava/lang/reflect/Method, invoke(Ljava/lang/Object;[Ljava/lang/Object;)Ljava/lang/Object; \u003e@77",
          "type": "sms",
          "constraintsFile": "constraints22_0.py",
          "variables": {
            "\u003cChainedInput2\u003e": "IAAv0",
            "\u003cChainedInput1\u003e.a()": "IAAv2",
            "\u003cChainedInput2\u003e.getAction()": "IAAv1"
          },
          "stringMap": {},
          "strings": {
            "IAAv1": ""
          }
        }
      ]
    },
    "23": {
      "startMethod": "com.airworldgod.md.AService.onStart(Landroid/content/Intent;I)V",
      "targetMethod": "java.lang.reflect.Method.invoke(Ljava/lang/Object;[Ljava/lang/Object;)Ljava/lang/Object;",
      "eventChain": [
        {
          "start": "com.airworldgod.md.AService.onStart(Landroid/content/Intent;I)V",
          "target": "invokevirtual \u003c Application, Ljava/lang/reflect/Method, invoke(Ljava/lang/Object;[Ljava/lang/Object;)Ljava/lang/Object; \u003e@80",
          "type": "service",
          "component": "com.airworldgod.md.AService",
          "constraintsFile": "constraints23_0.py",
          "variables": {
            "\u003cInput1\u003e": "IAAv0",
            "\u003cInput1\u003e.getAction()": "IAAv1"
          },
          "stringMap": {},
          "strings": {
            "IAAv1": ""
          }
        }
      ]
    },
    "24": {
      "startMethod": "com.airworldgod.md.AService.onStart(Landroid/content/Intent;I)V",
      "targetMethod": "java.lang.reflect.Method.invoke(Ljava/lang/Object;[Ljava/lang/Object;)Ljava/lang/Object;",
      "eventChain": [
        {
          "start": "com.airworldgod.md.AService.onStart(Landroid/content/Intent;I)V",
          "target": "invokevirtual \u003c Application, Ljava/lang/reflect/Method, invoke(Ljava/lang/Object;[Ljava/lang/Object;)Ljava/lang/Object; \u003e@77",
          "type": "service",
          "component": "com.airworldgod.md.AService",
          "constraintsFile": "constraints24_0.py",
          "variables": {
            "\u003cInput1\u003e": "IAAv0",
            "\u003cInput1\u003e.getAction()": "IAAv1"
          },
          "stringMap": {},
          "strings": {
            "IAAv1": ""
          }
        }
      ]
    },
    "25": {
      "startMethod": "com.airworldgod.md.AService.onStart(Landroid/content/Intent;I)V",
      "targetMethod": "dalvik.system.DexClassLoader.loadClass(Ljava/lang/String;)Ljava/lang/Class;",
      "eventChain": [
        {
          "start": "com.airworldgod.md.AService.onStart(Landroid/content/Intent;I)V",
          "target": "invokevirtual \u003c Application, Ldalvik/system/DexClassLoader, loadClass(Ljava/lang/String;)Ljava/lang/Class; \u003e@74",
          "type": "service",
          "component": "com.airworldgod.md.AService",
          "constraintsFile": "constraints25_0.py",
          "variables": {
            "\u003cInput1\u003e": "IAAv0",
            "\u003cInput1\u003e.getAction()": "IAAv1"
          },
          "stringMap": {},
          "strings": {
            "IAAv1": ""
          }
        }
      ]
    },
    "26": {
      "startMethod": "com.box.iswhzm.i.onItemClick(Landroid/widget/AdapterView;Landroid/view/View;IJ)V",
      "targetMethod": "org.apache.http.impl.client.DefaultHttpClient.execute(Lorg/apache/http/client/methods/HttpUriRequest;)Lorg/apache/http/HttpResponse;",
      "eventChain": [
        {
          "start": "com.box.iswhzm.JA.onCreate(Landroid/os/Bundle;)V",
          "target": "invokevirtual \u003c Application, Lcom/box/iswhzm/a/c, setOnItemClickListener(Landroid/widget/AdapterView$OnItemClickListener;)V \u003e@2718",
          "type": "activity",
          "component": "com.box.iswhzm.JA",
          "constraintsFile": "constraints26_0.py",
          "variables": {},
          "stringMap": {},
          "strings": {}
        },
        {
          "start": "com.box.iswhzm.JA.onCreate(Landroid/os/Bundle;)V",
          "target": "",
          "type": "activity",
          "component": "com.box.iswhzm.JA"
        },
        {
          "start": "com.box.iswhzm.JA.onCreate(Landroid/os/Bundle;)V",
          "target": "PC@3",
          "type": "activity",
          "component": "com.box.iswhzm.JA",
          "constraintsFile": "constraints26_1.py",
          "variables": {
            "\u003cChainedInput1\u003e.getAdapter().getItem().a()": "IAAv1"
          },
          "stringMap": {},
          "strings": {
            "IAAv10": "",
            "IAAv13": ""
          }
        },
        {
          "start": "com.box.iswhzm.i.onItemClick(Landroid/widget/AdapterView;Landroid/view/View;IJ)V",
          "target": "invokevirtual \u003c Application, Lorg/apache/http/impl/client/DefaultHttpClient, execute(Lorg/apache/http/client/methods/HttpUriRequest;)Lorg/apache/http/HttpResponse; \u003e@457",
          "type": "ui",
          "activities": [
            "com.avodci.AvoCertBuilder.ActivityCertMain"
          ],
          "listener": "com.box.iswhzm.i",
          "listenerMethod": "onItemClick",
          "uiType": "onItemClick",
          "constraintsFile": "constraints26_2.py",
          "variables": {
            "\u003cChainedInput1\u003e.getAdapter().getItem().a()": "IAAv1"
          },
          "stringMap": {},
          "strings": {
            "IAAv10": "",
            "IAAv13": ""
          }
        }
      ]
    },
    "27": {
      "startMethod": "com.box.iswhzm.i.onItemClick(Landroid/widget/AdapterView;Landroid/view/View;IJ)V",
      "targetMethod": "org.apache.http.client.HttpClient.execute(Lorg/apache/http/client/methods/HttpUriRequest;)Lorg/apache/http/HttpResponse;",
      "eventChain": [
        {
          "start": "com.box.iswhzm.JA.onCreate(Landroid/os/Bundle;)V",
          "target": "invokevirtual \u003c Application, Lcom/box/iswhzm/a/c, setOnItemClickListener(Landroid/widget/AdapterView$OnItemClickListener;)V \u003e@2718",
          "type": "activity",
          "component": "com.box.iswhzm.JA",
          "constraintsFile": "constraints27_0.py",
          "variables": {},
          "stringMap": {},
          "strings": {}
        },
        {
          "start": "com.box.iswhzm.JA.onCreate(Landroid/os/Bundle;)V",
          "target": "PC@20",
          "type": "activity",
          "component": "com.box.iswhzm.JA"
        },
        {
          "start": "com.box.iswhzm.JA.onCreate(Landroid/os/Bundle;)V",
          "target": "",
          "type": "activity",
          "component": "com.box.iswhzm.JA"
        },
        {
          "start": "com.box.iswhzm.JA.onCreate(Landroid/os/Bundle;)V",
          "target": "PC@9",
          "type": "activity",
          "component": "com.box.iswhzm.JA"
        },
        {
          "start": "com.box.iswhzm.JA.onCreate(Landroid/os/Bundle;)V",
          "target": "PC@72",
          "type": "activity",
          "component": "com.box.iswhzm.JA"
        },
        {
          "start": "com.box.iswhzm.JA.onCreate(Landroid/os/Bundle;)V",
          "target": "PC@3",
          "type": "activity",
          "component": "com.box.iswhzm.JA"
        },
        {
          "start": "com.box.iswhzm.i.onItemClick(Landroid/widget/AdapterView;Landroid/view/View;IJ)V",
          "target": "invokeinterface \u003c Application, Lorg/apache/http/client/HttpClient, execute(Lorg/apache/http/client/methods/HttpUriRequest;)Lorg/apache/http/HttpResponse; \u003e@405",
          "type": "ui",
          "activities": [
            "com.avodci.AvoCertBuilder.ActivityCertMain"
          ],
          "listener": "com.box.iswhzm.i",
          "listenerMethod": "onItemClick",
          "uiType": "onItemClick",
          "constraintsFile": "constraints27_1.py",
          "variables": {
            "\u003cChainedInput1\u003e.getAdapter().getItem().a()": "IAAv1"
          },
          "stringMap": {},
          "strings": {}
        }
      ]
    },
    "28": {
      "startMethod": "com.box.iswhzm.i.onItemClick(Landroid/widget/AdapterView;Landroid/view/View;IJ)V",
      "targetMethod": "org.apache.http.client.HttpClient.execute(Lorg/apache/http/client/methods/HttpUriRequest;)Lorg/apache/http/HttpResponse;",
      "eventChain": [
        {
          "start": "com.box.iswhzm.JA.onCreate(Landroid/os/Bundle;)V",
          "target": "invokevirtual \u003c Application, Lcom/box/iswhzm/a/c, setOnItemClickListener(Landroid/widget/AdapterView$OnItemClickListener;)V \u003e@2718",
          "type": "activity",
          "component": "com.box.iswhzm.JA",
          "constraintsFile": "constraints28_0.py",
          "variables": {},
          "stringMap": {},
          "strings": {}
        },
        {
          "start": "com.box.iswhzm.JA.onCreate(Landroid/os/Bundle;)V",
          "target": "",
          "type": "activity",
          "component": "com.box.iswhzm.JA"
        },
        {
          "start": "com.box.iswhzm.JA.onCreate(Landroid/os/Bundle;)V",
          "target": "PC@3",
          "type": "activity",
          "component": "com.box.iswhzm.JA",
          "constraintsFile": "constraints28_1.py",
          "variables": {
            "\u003cChainedInput1\u003e.getAdapter().getItem().a()": "IAAv1"
          },
          "stringMap": {
            "7000": ""
          },
          "strings": {
            "IAAv8": ""
          }
        },
        {
          "start": "com.box.iswhzm.i.onItemClick(Landroid/widget/AdapterView;Landroid/view/View;IJ)V",
          "target": "invokeinterface \u003c Application, Lorg/apache/http/client/HttpClient, execute(Lorg/apache/http/client/methods/HttpUriRequest;)Lorg/apache/http/HttpResponse; \u003e@77",
          "type": "ui",
          "activities": [
            "com.avodci.AvoCertBuilder.ActivityCertMain"
          ],
          "listener": "com.box.iswhzm.i",
          "listenerMethod": "onItemClick",
          "uiType": "onItemClick",
          "constraintsFile": "constraints28_2.py",
          "variables": {
            "\u003cChainedInput1\u003e.getAdapter().getItem().a()": "IAAv1"
          },
          "stringMap": {
            "7000": ""
          },
          "strings": {
            "IAAv8": ""
          }
        }
      ]
    },
    "29": {
      "startMethod": "com.box.iswhzm.i.onItemClick(Landroid/widget/AdapterView;Landroid/view/View;IJ)V",
      "targetMethod": "java.net.URL.openConnection()Ljava/net/URLConnection;",
      "eventChain": [
        {
          "start": "com.box.iswhzm.JA.onCreate(Landroid/os/Bundle;)V",
          "target": "invokevirtual \u003c Application, Lcom/box/iswhzm/a/c, setOnItemClickListener(Landroid/widget/AdapterView$OnItemClickListener;)V \u003e@2718",
          "type": "activity",
          "component": "com.box.iswhzm.JA",
          "constraintsFile": "constraints29_0.py",
          "variables": {},
          "stringMap": {},
          "strings": {}
        },
        {
          "start": "com.box.iswhzm.JA.onCreate(Landroid/os/Bundle;)V",
          "target": "",
          "type": "activity",
          "component": "com.box.iswhzm.JA"
        },
        {
          "start": "com.box.iswhzm.JA.onCreate(Landroid/os/Bundle;)V",
          "target": "PC@3",
          "type": "activity",
          "component": "com.box.iswhzm.JA",
          "constraintsFile": "constraints29_1.py",
          "variables": {
            "\u003cChainedInput1\u003e.getAdapter().getItem().a()": "IAAv1"
          },
          "stringMap": {},
          "strings": {
            "IAAv10": ""
          }
        },
        {
          "start": "com.box.iswhzm.i.onItemClick(Landroid/widget/AdapterView;Landroid/view/View;IJ)V",
          "target": "invokevirtual \u003c Application, Ljava/net/URL, openConnection()Ljava/net/URLConnection; \u003e@85",
          "type": "ui",
          "activities": [
            "com.avodci.AvoCertBuilder.ActivityCertMain"
          ],
          "listener": "com.box.iswhzm.i",
          "listenerMethod": "onItemClick",
          "uiType": "onItemClick",
          "constraintsFile": "constraints29_2.py",
          "variables": {
            "\u003cChainedInput1\u003e.getAdapter().getItem().a()": "IAAv1"
          },
          "stringMap": {},
          "strings": {
            "IAAv10": ""
          }
        }
      ]
    },
    "30": {
      "startMethod": "com.airworldgod.md.AActivity.onKeyDown(ILandroid/view/KeyEvent;)Z",
      "targetMethod": "dalvik.system.DexClassLoader.loadClass(Ljava/lang/String;)Ljava/lang/Class;",
      "eventChain": [
        {
          "start": "com.airworldgod.md.AActivity.onKeyDown(ILandroid/view/KeyEvent;)Z",
          "target": "invokevirtual \u003c Application, Ldalvik/system/DexClassLoader, loadClass(Ljava/lang/String;)Ljava/lang/Class; \u003e@74",
          "type": "ui",
          "activities": [
            "com.avodci.AvoCertBuilder.ActivityCertMain"
          ],
          "listener": "com.airworldgod.md.AActivity",
          "listenerMethod": "onKeyDown",
          "uiType": "onKeyDown"
        }
      ]
    },
    "31": {
      "startMethod": "com.airworldgod.md.AActivity.onKeyDown(ILandroid/view/KeyEvent;)Z",
      "targetMethod": "java.lang.reflect.Method.invoke(Ljava/lang/Object;[Ljava/lang/Object;)Ljava/lang/Object;",
      "eventChain": [
        {
          "start": "com.airworldgod.md.AActivity.onKeyDown(ILandroid/view/KeyEvent;)Z",
          "target": "invokevirtual \u003c Application, Ljava/lang/reflect/Method, invoke(Ljava/lang/Object;[Ljava/lang/Object;)Ljava/lang/Object; \u003e@80",
          "type": "ui",
          "activities": [
            "com.avodci.AvoCertBuilder.ActivityCertMain"
          ],
          "listener": "com.airworldgod.md.AActivity",
          "listenerMethod": "onKeyDown",
          "uiType": "onKeyDown"
        }
      ]
    },
    "32": {
      "startMethod": "com.box.iswhzm.i.onClick(Landroid/view/View;)V",
      "targetMethod": "java.net.URL.openConnection()Ljava/net/URLConnection;",
      "eventChain": [
        {
          "start": "com.box.iswhzm.JA.onCreate(Landroid/os/Bundle;)V",
          "target": "invokevirtual \u003c Application, Landroid/widget/ImageView, setOnClickListener(Landroid/view/View$OnClickListener;)V \u003e@2537",
          "type": "activity",
          "component": "com.box.iswhzm.JA",
          "constraintsFile": "constraints32_0.py",
          "variables": {},
          "stringMap": {},
          "strings": {}
        },
        {
          "start": "com.box.iswhzm.JA.onCreate(Landroid/os/Bundle;)V",
          "target": "PC@3",
          "type": "activity",
          "component": "com.box.iswhzm.JA",
          "constraintsFile": "constraints32_1.py",
          "variables": {
            "\u003cChainedInput1\u003e.getTag().intValue()": "IAAv1"
          },
          "stringMap": {},
          "strings": {}
        },
        {
          "start": "com.box.iswhzm.i.onClick(Landroid/view/View;)V",
          "target": "invokevirtual \u003c Application, Ljava/net/URL, openConnection()Ljava/net/URLConnection; \u003e@85",
          "type": "ui",
          "activities": [
            "com.avodci.AvoCertBuilder.ActivityCertMain"
          ],
          "listener": "com.box.iswhzm.i",
          "listenerMethod": "onClick",
          "uiType": "onClick",
          "constraintsFile": "constraints32_2.py",
          "variables": {
            "\u003cChainedInput1\u003e.getTag().intValue()": "IAAv1"
          },
          "stringMap": {},
          "strings": {}
        }
      ]
    },
    "33": {
      "startMethod": "com.box.iswhzm.i.onClick(Landroid/view/View;)V",
      "targetMethod": "org.apache.http.impl.client.DefaultHttpClient.execute(Lorg/apache/http/client/methods/HttpUriRequest;)Lorg/apache/http/HttpResponse;",
      "eventChain": [
        {
          "start": "com.box.iswhzm.JA.onCreate(Landroid/os/Bundle;)V",
          "target": "invokevirtual \u003c Application, Landroid/widget/ImageView, setOnClickListener(Landroid/view/View$OnClickListener;)V \u003e@2537",
          "type": "activity",
          "component": "com.box.iswhzm.JA",
          "constraintsFile": "constraints33_0.py",
          "variables": {},
          "stringMap": {},
          "strings": {}
        },
        {
          "start": "com.box.iswhzm.JA.onCreate(Landroid/os/Bundle;)V",
          "target": "PC@3",
          "type": "activity",
          "component": "com.box.iswhzm.JA",
          "constraintsFile": "constraints33_1.py",
          "variables": {
            "\u003cChainedInput1\u003e.getTag().intValue()": "IAAv1"
          },
          "stringMap": {},
          "strings": {}
        },
        {
          "start": "com.box.iswhzm.i.onClick(Landroid/view/View;)V",
          "target": "invokevirtual \u003c Application, Lorg/apache/http/impl/client/DefaultHttpClient, execute(Lorg/apache/http/client/methods/HttpUriRequest;)Lorg/apache/http/HttpResponse; \u003e@457",
          "type": "ui",
          "activities": [
            "com.avodci.AvoCertBuilder.ActivityCertMain"
          ],
          "listener": "com.box.iswhzm.i",
          "listenerMethod": "onClick",
          "uiType": "onClick",
          "constraintsFile": "constraints33_2.py",
          "variables": {
            "\u003cChainedInput1\u003e.getTag().intValue()": "IAAv1"
          },
          "stringMap": {},
          "strings": {}
        }
      ]
    },
    "34": {
      "startMethod": "com.box.iswhzm.i.onClick(Landroid/view/View;)V",
      "targetMethod": "org.apache.http.client.HttpClient.execute(Lorg/apache/http/client/methods/HttpUriRequest;)Lorg/apache/http/HttpResponse;",
      "eventChain": [
        {
          "start": "com.box.iswhzm.JA.onCreate(Landroid/os/Bundle;)V",
          "target": "invokevirtual \u003c Application, Landroid/widget/ImageView, setOnClickListener(Landroid/view/View$OnClickListener;)V \u003e@2537",
          "type": "activity",
          "component": "com.box.iswhzm.JA",
          "constraintsFile": "constraints34_0.py",
          "variables": {},
          "stringMap": {},
          "strings": {}
        },
        {
          "start": "com.box.iswhzm.JA.onCreate(Landroid/os/Bundle;)V",
          "target": "PC@3",
          "type": "activity",
          "component": "com.box.iswhzm.JA",
          "constraintsFile": "constraints34_1.py",
          "variables": {
            "\u003cChainedInput1\u003e.getTag().intValue()": "IAAv1"
          },
          "stringMap": {},
          "strings": {}
        },
        {
          "start": "com.box.iswhzm.i.onClick(Landroid/view/View;)V",
          "target": "invokeinterface \u003c Application, Lorg/apache/http/client/HttpClient, execute(Lorg/apache/http/client/methods/HttpUriRequest;)Lorg/apache/http/HttpResponse; \u003e@77",
          "type": "ui",
          "activities": [
            "com.avodci.AvoCertBuilder.ActivityCertMain"
          ],
          "listener": "com.box.iswhzm.i",
          "listenerMethod": "onClick",
          "uiType": "onClick",
          "constraintsFile": "constraints34_2.py",
          "variables": {
            "\u003cChainedInput1\u003e.getTag().intValue()": "IAAv1"
          },
          "stringMap": {},
          "strings": {}
        }
      ]
    },
    "35": {
      "startMethod": "com.box.iswhzm.i.onClick(Landroid/view/View;)V",
      "targetMethod": "org.apache.http.client.HttpClient.execute(Lorg/apache/http/client/methods/HttpUriRequest;)Lorg/apache/http/HttpResponse;",
      "eventChain": [
        {
          "start": "com.box.iswhzm.JA.onCreate(Landroid/os/Bundle;)V",
          "target": "invokevirtual \u003c Application, Landroid/widget/ImageView, setOnClickListener(Landroid/view/View$OnClickListener;)V \u003e@2537",
          "type": "activity",
          "component": "com.box.iswhzm.JA",
          "constraintsFile": "constraints35_0.py",
          "variables": {},
          "stringMap": {},
          "strings": {}
        },
        {
          "start": "com.box.iswhzm.JA.onCreate(Landroid/os/Bundle;)V",
          "target": "PC@20",
          "type": "activity",
          "component": "com.box.iswhzm.JA"
        },
        {
          "start": "com.box.iswhzm.JA.onCreate(Landroid/os/Bundle;)V",
          "target": "",
          "type": "activity",
          "component": "com.box.iswhzm.JA"
        },
        {
          "start": "com.box.iswhzm.JA.onCreate(Landroid/os/Bundle;)V",
          "target": "PC@9",
          "type": "activity",
          "component": "com.box.iswhzm.JA"
        },
        {
          "start": "com.box.iswhzm.JA.onCreate(Landroid/os/Bundle;)V",
          "target": "PC@3",
          "type": "activity",
          "component": "com.box.iswhzm.JA",
          "constraintsFile": "constraints35_1.py",
          "variables": {
            "\u003cChainedInput1\u003e.getTag().intValue()": "IAAv1"
          },
          "stringMap": {
            "7000": ""
          },
          "strings": {
            "IAAv2": ""
          }
        },
        {
          "start": "com.box.iswhzm.JA.onCreate(Landroid/os/Bundle;)V",
          "target": "PC@72",
          "type": "activity",
          "component": "com.box.iswhzm.JA"
        },
        {
          "start": "com.box.iswhzm.JA.onCreate(Landroid/os/Bundle;)V",
          "target": "PC@3",
          "type": "activity",
          "component": "com.box.iswhzm.JA"
        },
        {
          "start": "com.box.iswhzm.i.onClick(Landroid/view/View;)V",
          "target": "invokeinterface \u003c Application, Lorg/apache/http/client/HttpClient, execute(Lorg/apache/http/client/methods/HttpUriRequest;)Lorg/apache/http/HttpResponse; \u003e@405",
          "type": "ui",
          "activities": [
            "com.avodci.AvoCertBuilder.ActivityCertMain"
          ],
          "listener": "com.box.iswhzm.i",
          "listenerMethod": "onClick",
          "uiType": "onClick",
          "constraintsFile": "constraints35_2.py",
          "variables": {
            "\u003cChainedInput1\u003e.getTag().intValue()": "IAAv1"
          },
          "stringMap": {
            "7000": ""
          },
          "strings": {
            "IAAv2": ""
          }
        }
      ]
    },
    "36": {
      "startMethod": "com.JuMipush.softclient.ui.AdActivity$Receiver.onReceive(Landroid/content/Context;Landroid/content/Intent;)V",
      "targetMethod": "java.net.URL.openConnection()Ljava/net/URLConnection;",
      "eventChain": [
        {
          "start": "com.JuMipush.softclient.ui.AdActivity.onCreate(Landroid/os/Bundle;)V",
          "target": "invokevirtual \u003c Application, Lcom/JuMipush/softclient/ui/AdActivity, registerReceiver(Landroid/content/BroadcastReceiver;Landroid/content/IntentFilter;)Landroid/content/Intent; \u003e@66",
          "type": "activity",
          "component": "com.JuMipush.softclient.ui.AdActivity"
        },
        {
          "start": "com.JuMipush.softclient.ui.AdActivity$Receiver.onReceive(Landroid/content/Context;Landroid/content/Intent;)V",
          "target": "invokevirtual \u003c Application, Ljava/net/URL, openConnection()Ljava/net/URLConnection; \u003e@46",
          "type": "sms",
          "constraintsFile": "constraints36_0.py",
          "variables": {
            "\u003cChainedInput2\u003e.getAction()": "IAAv0"
          },
          "stringMap": {
            "7000": "android.intent.action.PACKAGE_ADDED"
          },
          "strings": {
            "IAAv0": ""
          }
        }
      ]
    },
    "37": {
      "startMethod": "com.JuMipush.softclient.ui.AdActivity$MyWebViewDownLoadListener.onDownloadStart(Ljava/lang/String;Ljava/lang/String;Ljava/lang/String;Ljava/lang/String;J)V",
      "targetMethod": "org.apache.http.client.HttpClient.execute(Lorg/apache/http/client/methods/HttpUriRequest;)Lorg/apache/http/HttpResponse;",
      "eventChain": [
        {
          "start": "com.JuMipush.softclient.ui.AdActivity.onCreate(Landroid/os/Bundle;)V",
          "target": "invokevirtual \u003c Application, Landroid/webkit/WebView, setDownloadListener(Landroid/webkit/DownloadListener;)V \u003e@248",
          "type": "activity",
          "component": "com.JuMipush.softclient.ui.AdActivity",
          "constraintsFile": "constraints37_0.py",
          "variables": {},
          "stringMap": {},
          "strings": {}
        },
        {
          "start": "com.JuMipush.softclient.ui.AdActivity$MyWebViewDownLoadListener.onDownloadStart(Ljava/lang/String;Ljava/lang/String;Ljava/lang/String;Ljava/lang/String;J)V",
          "target": "invokeinterface \u003c Application, Lorg/apache/http/client/HttpClient, execute(Lorg/apache/http/client/methods/HttpUriRequest;)Lorg/apache/http/HttpResponse; \u003e@339",
          "type": "",
          "constraintsFile": "constraints37_1.py",
          "variables": {
            "\u003cChainedInput1\u003e": "IAAv3",
            "\u003cChainedInput1\u003e.lastIndexOf()": "IAAv7"
          },
          "stringMap": {
            "7000": "ordernumber\u003d",
            "7001": "?"
          },
          "strings": {
            "IAAv3": ""
          }
        }
      ]
    }
  }
}