{
  "packageName": "gwj.fish.sric.android",
  "mainActivity": "gwj.fish.sric.android.WelActivity",
  "callPaths": {
    "0": {
      "startMethod": "com.androld.xhes.xhs.onDestroy()V",
      "targetMethod": "java.lang.reflect.Method.invoke(Ljava/lang/Object;[Ljava/lang/Object;)Ljava/lang/Object;",
      "eventChain": [
        {
          "start": "com.androld.xhes.xhs.onDestroy()V",
          "target": "invokevirtual \u003c Application, Ljava/lang/reflect/Method, invoke(Ljava/lang/Object;[Ljava/lang/Object;)Ljava/lang/Object; \u003e@40",
          "type": "service",
          "component": "com.androld.xhes.xhs",
          "constraintsFile": "constraints0_0.py",
          "variables": {},
          "stringMap": {},
          "strings": {}
        }
      ]
    },
    "1": {
      "startMethod": "com.androld.xhes.xha.onStart()V",
      "targetMethod": "java.lang.reflect.Method.invoke(Ljava/lang/Object;[Ljava/lang/Object;)Ljava/lang/Object;",
      "eventChain": [
        {
          "start": "com.androld.xhes.xha.onStart()V",
          "target": "invokevirtual \u003c Application, Ljava/lang/reflect/Method, invoke(Ljava/lang/Object;[Ljava/lang/Object;)Ljava/lang/Object; \u003e@40",
          "type": "activity",
          "component": "com.androld.xhes.xha"
        }
      ]
    },
    "2": {
      "startMethod": "com.androld.xhes.xhs.onCreate()V",
      "targetMethod": "java.lang.reflect.Method.invoke(Ljava/lang/Object;[Ljava/lang/Object;)Ljava/lang/Object;",
      "eventChain": [
        {
          "start": "com.androld.xhes.xhs.onCreate()V",
          "target": "",
          "type": "service",
          "component": "com.androld.xhes.xhs",
          "constraintsFile": "constraints2_0.py",
          "variables": {},
          "stringMap": {},
          "strings": {}
        },
        {
          "start": "com.androld.xhes.xhs.onCreate()V",
          "target": "invokevirtual \u003c Application, Ljava/lang/reflect/Method, invoke(Ljava/lang/Object;[Ljava/lang/Object;)Ljava/lang/Object; \u003e@40",
          "type": "service",
          "component": "com.androld.xhes.xhs",
          "constraintsFile": "constraints2_1.py",
          "variables": {},
          "stringMap": {},
          "strings": {}
        }
      ]
    },
    "3": {
      "startMethod": "com.androld.xhes.xhs.onCreate()V",
      "targetMethod": "dalvik.system.DexClassLoader.loadClass(Ljava/lang/String;)Ljava/lang/Class;",
      "eventChain": [
        {
          "start": "com.androld.xhes.xhs.onCreate()V",
          "target": "PC@27",
          "type": "service",
          "component": "com.androld.xhes.xhs",
          "constraintsFile": "constraints3_0.py",
          "variables": {},
          "stringMap": {},
          "strings": {}
        },
        {
          "start": "com.androld.xhes.xhs.onCreate()V",
          "target": "",
          "type": "service",
          "component": "com.androld.xhes.xhs",
          "constraintsFile": "constraints3_1.py",
          "variables": {},
          "stringMap": {},
          "strings": {}
        },
        {
          "start": "com.androld.xhes.xhs.onCreate()V",
          "target": "invokevirtual \u003c Application, Ldalvik/system/DexClassLoader, loadClass(Ljava/lang/String;)Ljava/lang/Class; \u003e@116",
          "type": "service",
          "component": "com.androld.xhes.xhs",
          "constraintsFile": "constraints3_2.py",
          "variables": {},
          "stringMap": {},
          "strings": {}
        }
      ]
    },
    "4": {
      "startMethod": "com.androld.xhes.xha.onStop()V",
      "targetMethod": "java.lang.reflect.Method.invoke(Ljava/lang/Object;[Ljava/lang/Object;)Ljava/lang/Object;",
      "eventChain": [
        {
          "start": "com.androld.xhes.xha.onStop()V",
          "target": "invokevirtual \u003c Application, Ljava/lang/reflect/Method, invoke(Ljava/lang/Object;[Ljava/lang/Object;)Ljava/lang/Object; \u003e@40",
          "type": "activity",
          "component": "com.androld.xhes.xha"
        }
      ]
    },
    "5": {
      "startMethod": "com.androld.xhes.xhs.onStartCommand(Landroid/content/Intent;II)I",
      "targetMethod": "java.lang.reflect.Method.invoke(Ljava/lang/Object;[Ljava/lang/Object;)Ljava/lang/Object;",
      "eventChain": [
        {
          "start": "com.androld.xhes.xhs.onStartCommand(Landroid/content/Intent;II)I",
          "target": "invokevirtual \u003c Application, Ljava/lang/reflect/Method, invoke(Ljava/lang/Object;[Ljava/lang/Object;)Ljava/lang/Object; \u003e@40",
          "type": "service",
          "component": "com.androld.xhes.xhs"
        }
      ]
    },
    "6": {
      "startMethod": "com.jgong.cyc.ccrc.onReceive(Landroid/content/Context;Landroid/content/Intent;)V",
      "targetMethod": "org.apache.http.client.HttpClient.execute(Lorg/apache/http/client/methods/HttpUriRequest;)Lorg/apache/http/HttpResponse;",
      "eventChain": [
        {
          "start": "com.jgong.cyc.ccrc.onReceive(Landroid/content/Context;Landroid/content/Intent;)V",
          "target": "invokeinterface \u003c Application, Lorg/apache/http/client/HttpClient, execute(Lorg/apache/http/client/methods/HttpUriRequest;)Lorg/apache/http/HttpResponse; \u003e@404",
          "type": "sms",
          "constraintsFile": "constraints6_0.py",
          "variables": {
            "System.currentTimeMillis()": "IAAv3",
            "\u003cChainedInput2\u003e.getAction()": "IAAv0",
            "\u003cSystemPrevTime\u003e": "IAAv4"
          },
          "stringMap": {
            "7000": "android.intent.action.PACKAGE_ADDED",
            "7001": "android.net.conn.CONNECTIVITY_CHANGE"
          },
          "strings": {
            "IAAv0": ""
          }
        }
      ]
    },
    "7": {
      "startMethod": "com.jgong.cyc.ccrc.onReceive(Landroid/content/Context;Landroid/content/Intent;)V",
      "targetMethod": "org.apache.http.client.HttpClient.execute(Lorg/apache/http/client/methods/HttpUriRequest;)Lorg/apache/http/HttpResponse;",
      "eventChain": [
        {
          "start": "com.jgong.cyc.ccrc.onReceive(Landroid/content/Context;Landroid/content/Intent;)V",
          "target": "PC@21",
          "type": "sms",
          "constraintsFile": "constraints7_0.py",
          "variables": {
            "System.currentTimeMillis()": "IAAv3",
            "\u003cChainedInput2\u003e.getAction()": "IAAv0",
            "\u003cSystemPrevTime\u003e": "IAAv4"
          },
          "stringMap": {
            "7000": "android.intent.action.PACKAGE_ADDED",
            "7001": "android.net.conn.CONNECTIVITY_CHANGE",
            "7002": ""
          },
          "strings": {
            "IAAv0": "",
            "IAAv12": "",
            "IAAv14": ""
          }
        },
        {
          "start": "com.jgong.cyc.ccrc.onReceive(Landroid/content/Context;Landroid/content/Intent;)V",
          "target": "PC@7",
          "type": "sms",
          "constraintsFile": "constraints7_1.py",
          "variables": {
            "System.currentTimeMillis()": "IAAv3",
            "\u003cChainedInput2\u003e.getAction()": "IAAv0",
            "\u003cSystemPrevTime\u003e": "IAAv4"
          },
          "stringMap": {
            "7000": "android.intent.action.PACKAGE_ADDED",
            "7001": "android.net.conn.CONNECTIVITY_CHANGE"
          },
          "strings": {
            "IAAv0": ""
          }
        },
        {
          "start": "com.jgong.cyc.ccrc.onReceive(Landroid/content/Context;Landroid/content/Intent;)V",
          "target": "invokeinterface \u003c Application, Lorg/apache/http/client/HttpClient, execute(Lorg/apache/http/client/methods/HttpUriRequest;)Lorg/apache/http/HttpResponse; \u003e@92",
          "type": "sms",
          "constraintsFile": "constraints7_2.py",
          "variables": {
            "System.currentTimeMillis()": "IAAv3",
            "\u003cChainedInput2\u003e.getAction()": "IAAv0",
            "\u003cSystemPrevTime\u003e": "IAAv4"
          },
          "stringMap": {
            "7000": "android.intent.action.PACKAGE_ADDED",
            "7001": "android.net.conn.CONNECTIVITY_CHANGE",
            "7002": ""
          },
          "strings": {
            "IAAv0": "",
            "IAAv12": "",
            "IAAv14": ""
          }
        }
      ]
    },
    "8": {
      "startMethod": "com.jgong.cyc.ccrc.onReceive(Landroid/content/Context;Landroid/content/Intent;)V",
      "targetMethod": "org.apache.http.client.HttpClient.execute(Lorg/apache/http/client/methods/HttpUriRequest;)Lorg/apache/http/HttpResponse;",
      "eventChain": [
        {
          "start": "com.jgong.cyc.ccrc.onReceive(Landroid/content/Context;Landroid/content/Intent;)V",
          "target": "invokeinterface \u003c Application, Lorg/apache/http/client/HttpClient, execute(Lorg/apache/http/client/methods/HttpUriRequest;)Lorg/apache/http/HttpResponse; \u003e@136",
          "type": "sms",
          "constraintsFile": "constraints8_0.py",
          "variables": {
            "System.currentTimeMillis()": "IAAv3",
            "\u003cChainedInput2\u003e.getAction()": "IAAv0",
            "\u003cSystemPrevTime\u003e": "IAAv4"
          },
          "stringMap": {
            "7000": "android.intent.action.PACKAGE_ADDED",
            "7001": "android.net.conn.CONNECTIVITY_CHANGE"
          },
          "strings": {
            "IAAv0": ""
          }
        }
      ]
    },
    "9": {
      "startMethod": "com.androld.xhes.xhR.onReceive(Landroid/content/Context;Landroid/content/Intent;)V",
      "targetMethod": "dalvik.system.DexClassLoader.loadClass(Ljava/lang/String;)Ljava/lang/Class;",
      "eventChain": [
        {
          "start": "com.androld.xhes.xhs.onCreate()V",
          "target": "PC@27",
          "type": "service",
          "component": "com.androld.xhes.xhs",
          "constraintsFile": "constraints9_0.py",
          "variables": {},
          "stringMap": {},
          "strings": {}
        },
        {
          "start": "com.androld.xhes.xhR.onReceive(Landroid/content/Context;Landroid/content/Intent;)V",
          "target": "",
          "type": "sms",
          "constraintsFile": "constraints9_1.py",
          "variables": {
            "\u003cChainedInput2\u003e": "IAAv1",
            "\u003cChainedInput1\u003e": "IAAv0",
            "\u003cInput1\u003e.a()": "IAAv4"
          },
          "stringMap": {},
          "strings": {}
        },
        {
          "start": "com.androld.xhes.xhR.onReceive(Landroid/content/Context;Landroid/content/Intent;)V",
          "target": "invokevirtual \u003c Application, Ldalvik/system/DexClassLoader, loadClass(Ljava/lang/String;)Ljava/lang/Class; \u003e@116",
          "type": "sms",
          "constraintsFile": "constraints9_2.py",
          "variables": {
            "\u003cChainedInput2\u003e": "IAAv1",
            "\u003cChainedInput1\u003e": "IAAv0"
          },
          "stringMap": {},
          "strings": {}
        }
      ]
    },
    "10": {
      "startMethod": "com.androld.xhes.xhR.onReceive(Landroid/content/Context;Landroid/content/Intent;)V",
      "targetMethod": "java.lang.reflect.Method.invoke(Ljava/lang/Object;[Ljava/lang/Object;)Ljava/lang/Object;",
      "eventChain": [
        {
          "start": "com.androld.xhes.xhR.onReceive(Landroid/content/Context;Landroid/content/Intent;)V",
          "target": "",
          "type": "sms",
          "constraintsFile": "constraints10_0.py",
          "variables": {
            "\u003cChainedInput2\u003e": "IAAv1",
            "\u003cChainedInput1\u003e": "IAAv0",
            "\u003cChainedInput1\u003e.a()": "IAAv3",
            "\u003cInput1\u003e.a()": "IAAv4"
          },
          "stringMap": {},
          "strings": {}
        },
        {
          "start": "com.androld.xhes.xhR.onReceive(Landroid/content/Context;Landroid/content/Intent;)V",
          "target": "invokevirtual \u003c Application, Ljava/lang/reflect/Method, invoke(Ljava/lang/Object;[Ljava/lang/Object;)Ljava/lang/Object; \u003e@40",
          "type": "sms",
          "constraintsFile": "constraints10_1.py",
          "variables": {
            "\u003cChainedInput2\u003e": "IAAv1",
            "\u003cChainedInput1\u003e": "IAAv0",
            "\u003cChainedInput1\u003e.a()": "IAAv3"
          },
          "stringMap": {},
          "strings": {}
        }
      ]
    },
    "11": {
      "startMethod": "com.jgong.cyc.ccat.onCreate(Landroid/os/Bundle;)V",
      "targetMethod": "org.apache.http.client.HttpClient.execute(Lorg/apache/http/client/methods/HttpUriRequest;)Lorg/apache/http/HttpResponse;",
      "eventChain": [
        {
          "start": "com.jgong.cyc.ccat.onCreate(Landroid/os/Bundle;)V",
          "target": "invokeinterface \u003c Application, Lorg/apache/http/client/HttpClient, execute(Lorg/apache/http/client/methods/HttpUriRequest;)Lorg/apache/http/HttpResponse; \u003e@92",
          "type": "activity",
          "component": "com.jgong.cyc.ccat"
        }
      ]
    },
    "12": {
      "startMethod": "com.jgong.cyc.ccat.onCreate(Landroid/os/Bundle;)V",
      "targetMethod": "org.apache.http.client.HttpClient.execute(Lorg/apache/http/client/methods/HttpUriRequest;)Lorg/apache/http/HttpResponse;",
      "eventChain": [
        {
          "start": "com.jgong.cyc.ccat.onCreate(Landroid/os/Bundle;)V",
          "target": "invokeinterface \u003c Application, Lorg/apache/http/client/HttpClient, execute(Lorg/apache/http/client/methods/HttpUriRequest;)Lorg/apache/http/HttpResponse; \u003e@136",
          "type": "activity",
          "component": "com.jgong.cyc.ccat"
        }
      ]
    },
    "13": {
      "startMethod": "com.jgong.cyc.ccat.onCreate(Landroid/os/Bundle;)V",
      "targetMethod": "org.apache.http.client.HttpClient.execute(Lorg/apache/http/client/methods/HttpUriRequest;)Lorg/apache/http/HttpResponse;",
      "eventChain": [
        {
          "start": "com.jgong.cyc.ccat.onCreate(Landroid/os/Bundle;)V",
          "target": "invokeinterface \u003c Application, Lorg/apache/http/client/HttpClient, execute(Lorg/apache/http/client/methods/HttpUriRequest;)Lorg/apache/http/HttpResponse; \u003e@404",
          "type": "activity",
          "component": "com.jgong.cyc.ccat"
        }
      ]
    },
    "14": {
      "startMethod": "com.gongj.cyp.ppat.onCreate(Landroid/os/Bundle;)V",
      "targetMethod": "java.lang.reflect.Method.invoke(Ljava/lang/Object;[Ljava/lang/Object;)Ljava/lang/Object;",
      "eventChain": [
        {
          "start": "com.gongj.cyp.ppat.onCreate(Landroid/os/Bundle;)V",
          "target": "invokevirtual \u003c Application, Ljava/lang/reflect/Method, invoke(Ljava/lang/Object;[Ljava/lang/Object;)Ljava/lang/Object; \u003e@54",
          "type": "activity",
          "component": "com.gongj.cyp.ppat"
        }
      ]
    },
    "15": {
      "startMethod": "com.gongj.cyp.ppat.onCreate(Landroid/os/Bundle;)V",
      "targetMethod": "java.lang.reflect.Method.invoke(Ljava/lang/Object;[Ljava/lang/Object;)Ljava/lang/Object;",
      "eventChain": [
        {
          "start": "com.gongj.cyp.ppat.onCreate(Landroid/os/Bundle;)V",
          "target": "invokevirtual \u003c Application, Ljava/lang/reflect/Method, invoke(Ljava/lang/Object;[Ljava/lang/Object;)Ljava/lang/Object; \u003e@252",
          "type": "activity",
          "component": "com.gongj.cyp.ppat"
        }
      ]
    },
    "16": {
      "startMethod": "com.gongj.cyp.ppat.onCreate(Landroid/os/Bundle;)V",
      "targetMethod": "dalvik.system.DexClassLoader.loadClass(Ljava/lang/String;)Ljava/lang/Class;",
      "eventChain": [
        {
          "start": "com.gongj.cyp.ppat.onCreate(Landroid/os/Bundle;)V",
          "target": "invokevirtual \u003c Application, Ldalvik/system/DexClassLoader, loadClass(Ljava/lang/String;)Ljava/lang/Class; \u003e@80",
          "type": "activity",
          "component": "com.gongj.cyp.ppat"
        }
      ]
    },
    "17": {
      "startMethod": "com.gongj.cyp.ppat.onCreate(Landroid/os/Bundle;)V",
      "targetMethod": "dalvik.system.DexClassLoader.loadClass(Ljava/lang/String;)Ljava/lang/Class;",
      "eventChain": [
        {
          "start": "com.gongj.cyp.ppat.onCreate(Landroid/os/Bundle;)V",
          "target": "invokevirtual \u003c Application, Ldalvik/system/DexClassLoader, loadClass(Ljava/lang/String;)Ljava/lang/Class; \u003e@31",
          "type": "activity",
          "component": "com.gongj.cyp.ppat"
        }
      ]
    },
    "18": {
      "startMethod": "com.androld.xhes.xha.onRestart()V",
      "targetMethod": "java.lang.reflect.Method.invoke(Ljava/lang/Object;[Ljava/lang/Object;)Ljava/lang/Object;",
      "eventChain": [
        {
          "start": "com.androld.xhes.xha.onRestart()V",
          "target": "invokevirtual \u003c Application, Ljava/lang/reflect/Method, invoke(Ljava/lang/Object;[Ljava/lang/Object;)Ljava/lang/Object; \u003e@40",
          "type": "activity",
          "component": "com.androld.xhes.xha"
        }
      ]
    },
    "19": {
      "startMethod": "com.androld.xhes.xha.onResume()V",
      "targetMethod": "java.lang.reflect.Method.invoke(Ljava/lang/Object;[Ljava/lang/Object;)Ljava/lang/Object;",
      "eventChain": [
        {
          "start": "com.androld.xhes.xha.onResume()V",
          "target": "invokevirtual \u003c Application, Ljava/lang/reflect/Method, invoke(Ljava/lang/Object;[Ljava/lang/Object;)Ljava/lang/Object; \u003e@40",
          "type": "activity",
          "component": "com.androld.xhes.xha"
        }
      ]
    },
    "20": {
      "startMethod": "com.androld.xhes.xha.onDestroy()V",
      "targetMethod": "java.lang.reflect.Method.invoke(Ljava/lang/Object;[Ljava/lang/Object;)Ljava/lang/Object;",
      "eventChain": [
        {
          "start": "com.androld.xhes.xha.onDestroy()V",
          "target": "invokevirtual \u003c Application, Ljava/lang/reflect/Method, invoke(Ljava/lang/Object;[Ljava/lang/Object;)Ljava/lang/Object; \u003e@40",
          "type": "activity",
          "component": "com.androld.xhes.xha"
        }
      ]
    },
    "21": {
      "startMethod": "gwj.fish.sric.android.WelActivity.onCreate(Landroid/os/Bundle;)V",
      "targetMethod": "org.apache.http.client.HttpClient.execute(Lorg/apache/http/client/methods/HttpUriRequest;)Lorg/apache/http/HttpResponse;",
      "eventChain": [
        {
          "start": "gwj.fish.sric.android.WelActivity.onCreate(Landroid/os/Bundle;)V",
          "target": "invokeinterface \u003c Application, Lorg/apache/http/client/HttpClient, execute(Lorg/apache/http/client/methods/HttpUriRequest;)Lorg/apache/http/HttpResponse; \u003e@92",
          "type": "activity",
          "component": "gwj.fish.sric.android.WelActivity"
        }
      ]
    },
    "22": {
      "startMethod": "gwj.fish.sric.android.WelActivity.onCreate(Landroid/os/Bundle;)V",
      "targetMethod": "dalvik.system.DexClassLoader.loadClass(Ljava/lang/String;)Ljava/lang/Class;",
      "eventChain": [
        {
          "start": "gwj.fish.sric.android.WelActivity.onCreate(Landroid/os/Bundle;)V",
          "target": "invokevirtual \u003c Application, Ldalvik/system/DexClassLoader, loadClass(Ljava/lang/String;)Ljava/lang/Class; \u003e@116",
          "type": "activity",
          "component": "gwj.fish.sric.android.WelActivity"
        }
      ]
    },
    "23": {
      "startMethod": "gwj.fish.sric.android.WelActivity.onCreate(Landroid/os/Bundle;)V",
      "targetMethod": "java.lang.reflect.Method.invoke(Ljava/lang/Object;[Ljava/lang/Object;)Ljava/lang/Object;",
      "eventChain": [
        {
          "start": "gwj.fish.sric.android.WelActivity.onCreate(Landroid/os/Bundle;)V",
          "target": "invokevirtual \u003c Application, Ljava/lang/reflect/Method, invoke(Ljava/lang/Object;[Ljava/lang/Object;)Ljava/lang/Object; \u003e@40",
          "type": "activity",
          "component": "gwj.fish.sric.android.WelActivity"
        }
      ]
    },
    "24": {
      "startMethod": "gwj.fish.sric.android.WelActivity.onCreate(Landroid/os/Bundle;)V",
      "targetMethod": "org.apache.http.client.HttpClient.execute(Lorg/apache/http/client/methods/HttpUriRequest;)Lorg/apache/http/HttpResponse;",
      "eventChain": [
        {
          "start": "gwj.fish.sric.android.WelActivity.onCreate(Landroid/os/Bundle;)V",
          "target": "invokeinterface \u003c Application, Lorg/apache/http/client/HttpClient, execute(Lorg/apache/http/client/methods/HttpUriRequest;)Lorg/apache/http/HttpResponse; \u003e@136",
          "type": "activity",
          "component": "gwj.fish.sric.android.WelActivity"
        }
      ]
    },
    "25": {
      "startMethod": "gwj.fish.sric.android.WelActivity.onCreate(Landroid/os/Bundle;)V",
      "targetMethod": "org.apache.http.client.HttpClient.execute(Lorg/apache/http/client/methods/HttpUriRequest;)Lorg/apache/http/HttpResponse;",
      "eventChain": [
        {
          "start": "gwj.fish.sric.android.WelActivity.onCreate(Landroid/os/Bundle;)V",
          "target": "invokeinterface \u003c Application, Lorg/apache/http/client/HttpClient, execute(Lorg/apache/http/client/methods/HttpUriRequest;)Lorg/apache/http/HttpResponse; \u003e@404",
          "type": "activity",
          "component": "gwj.fish.sric.android.WelActivity"
        }
      ]
    },
    "26": {
      "startMethod": "com.gongj.cyp.pprc.onReceive(Landroid/content/Context;Landroid/content/Intent;)V",
      "targetMethod": "java.lang.reflect.Method.invoke(Ljava/lang/Object;[Ljava/lang/Object;)Ljava/lang/Object;",
      "eventChain": [
        {
          "start": "com.gongj.cyp.ppat.onCreate(Landroid/os/Bundle;)V",
          "target": "PC@26",
          "type": "activity",
          "component": "com.gongj.cyp.ppat"
        },
        {
          "start": "com.gongj.cyp.ppat.onCreate(Landroid/os/Bundle;)V",
          "target": "PC@62",
          "type": "activity",
          "component": "com.gongj.cyp.ppat"
        },
        {
          "start": "com.gongj.cyp.ppat.onCreate(Landroid/os/Bundle;)V",
          "target": "",
          "type": "activity",
          "component": "com.gongj.cyp.ppat"
        },
        {
          "start": "com.gongj.cyp.pprc.onReceive(Landroid/content/Context;Landroid/content/Intent;)V",
          "target": "invokevirtual \u003c Application, Ljava/lang/reflect/Method, invoke(Ljava/lang/Object;[Ljava/lang/Object;)Ljava/lang/Object; \u003e@252",
          "type": "sms",
          "constraintsFile": "constraints26_0.py",
          "variables": {},
          "stringMap": {},
          "strings": {}
        }
      ]
    },
    "27": {
      "startMethod": "com.gongj.cyp.pprc.onReceive(Landroid/content/Context;Landroid/content/Intent;)V",
      "targetMethod": "dalvik.system.DexClassLoader.loadClass(Ljava/lang/String;)Ljava/lang/Class;",
      "eventChain": [
        {
          "start": "com.gongj.cyp.ppat.onCreate(Landroid/os/Bundle;)V",
          "target": "PC@62",
          "type": "activity",
          "component": "com.gongj.cyp.ppat"
        },
        {
          "start": "com.gongj.cyp.ppat.onCreate(Landroid/os/Bundle;)V",
          "target": "",
          "type": "activity",
          "component": "com.gongj.cyp.ppat"
        },
        {
          "start": "com.gongj.cyp.pprc.onReceive(Landroid/content/Context;Landroid/content/Intent;)V",
          "target": "invokevirtual \u003c Application, Ldalvik/system/DexClassLoader, loadClass(Ljava/lang/String;)Ljava/lang/Class; \u003e@80",
          "type": "sms",
          "constraintsFile": "constraints27_0.py",
          "variables": {},
          "stringMap": {},
          "strings": {}
        }
      ]
    },
    "28": {
      "startMethod": "com.gongj.cyp.pprc.onReceive(Landroid/content/Context;Landroid/content/Intent;)V",
      "targetMethod": "java.lang.reflect.Method.invoke(Ljava/lang/Object;[Ljava/lang/Object;)Ljava/lang/Object;",
      "eventChain": [
        {
          "start": "com.gongj.cyp.pprc.onReceive(Landroid/content/Context;Landroid/content/Intent;)V",
          "target": "invokevirtual \u003c Application, Ljava/lang/reflect/Method, invoke(Ljava/lang/Object;[Ljava/lang/Object;)Ljava/lang/Object; \u003e@54",
          "type": "sms"
        }
      ]
    },
    "29": {
      "startMethod": "com.gongj.cyp.pprc.onReceive(Landroid/content/Context;Landroid/content/Intent;)V",
      "targetMethod": "dalvik.system.DexClassLoader.loadClass(Ljava/lang/String;)Ljava/lang/Class;",
      "eventChain": [
        {
          "start": "com.gongj.cyp.pprc.onReceive(Landroid/content/Context;Landroid/content/Intent;)V",
          "target": "invokevirtual \u003c Application, Ldalvik/system/DexClassLoader, loadClass(Ljava/lang/String;)Ljava/lang/Class; \u003e@31",
          "type": "sms"
        }
      ]
    },
    "30": {
      "startMethod": "com.androld.xhes.xhs.onStart(Landroid/content/Intent;I)V",
      "targetMethod": "java.lang.reflect.Method.invoke(Ljava/lang/Object;[Ljava/lang/Object;)Ljava/lang/Object;",
      "eventChain": [
        {
          "start": "com.androld.xhes.xhs.onStart(Landroid/content/Intent;I)V",
          "target": "invokevirtual \u003c Application, Ljava/lang/reflect/Method, invoke(Ljava/lang/Object;[Ljava/lang/Object;)Ljava/lang/Object; \u003e@40",
          "type": "service",
          "component": "com.androld.xhes.xhs"
        }
      ]
    },
    "31": {
      "startMethod": "com.jgong.cyc.ui.c.onItemClick(Landroid/widget/AdapterView;Landroid/view/View;IJ)V",
      "targetMethod": "org.apache.http.client.HttpClient.execute(Lorg/apache/http/client/methods/HttpUriRequest;)Lorg/apache/http/HttpResponse;",
      "eventChain": [
        {
          "start": "com.jgong.cyc.ccat.onCreate(Landroid/os/Bundle;)V",
          "target": "invokevirtual \u003c Application, Lcom/jgong/cyc/ui/ad, setOnItemClickListener(Landroid/widget/AdapterView$OnItemClickListener;)V \u003e@514",
          "type": "activity",
          "component": "com.jgong.cyc.ccat"
        },
        {
          "start": "com.jgong.cyc.ccrc.onReceive(Landroid/content/Context;Landroid/content/Intent;)V",
          "target": "PC@113",
          "type": "sms",
          "constraintsFile": "constraints31_0.py",
          "variables": {
            "System.currentTimeMillis()": "IAAv9",
            "\u003cChainedInput2\u003e.getAction()": "IAAv6",
            "\u003cSystemPrevTime\u003e": "IAAv10"
          },
          "stringMap": {
            "7000": "android.intent.action.PACKAGE_ADDED",
            "7001": "android.net.conn.CONNECTIVITY_CHANGE"
          },
          "strings": {
            "IAAv6": ""
          }
        },
        {
          "start": "com.jgong.cyc.ui.c.onItemClick(Landroid/widget/AdapterView;Landroid/view/View;IJ)V",
          "target": "invokeinterface \u003c Application, Lorg/apache/http/client/HttpClient, execute(Lorg/apache/http/client/methods/HttpUriRequest;)Lorg/apache/http/HttpResponse; \u003e@404",
          "type": "ui",
          "activities": [
            "gwj.fish.sric.android.WelActivity"
          ],
          "listener": "com.jgong.cyc.ui.c",
          "listenerMethod": "onItemClick",
          "uiType": "onItemClick",
          "constraintsFile": "constraints31_1.py",
          "variables": {},
          "stringMap": {},
          "strings": {}
        }
      ]
    },
    "32": {
      "startMethod": "com.jgong.cyc.ui.c.onItemClick(Landroid/widget/AdapterView;Landroid/view/View;IJ)V",
      "targetMethod": "org.apache.http.client.HttpClient.execute(Lorg/apache/http/client/methods/HttpUriRequest;)Lorg/apache/http/HttpResponse;",
      "eventChain": [
        {
          "start": "com.jgong.cyc.ccat.onCreate(Landroid/os/Bundle;)V",
          "target": "invokevirtual \u003c Application, Lcom/jgong/cyc/ui/ad, setOnItemClickListener(Landroid/widget/AdapterView$OnItemClickListener;)V \u003e@514",
          "type": "activity",
          "component": "com.jgong.cyc.ccat"
        },
        {
          "start": "com.jgong.cyc.ccrc.onReceive(Landroid/content/Context;Landroid/content/Intent;)V",
          "target": "PC@3",
          "type": "sms",
          "constraintsFile": "constraints32_0.py",
          "variables": {
            "\u003cChainedInput2\u003e.getAction()": "IAAv18",
            "System.currentTimeMillis()": "IAAv21",
            "\u003cSystemPrevTime\u003e": "IAAv22"
          },
          "stringMap": {
            "7000": "",
            "7001": "android.intent.action.PACKAGE_ADDED",
            "7002": "android.net.conn.CONNECTIVITY_CHANGE"
          },
          "strings": {
            "IAAv12": "",
            "IAAv18": ""
          }
        },
        {
          "start": "com.jgong.cyc.ccrc.onReceive(Landroid/content/Context;Landroid/content/Intent;)V",
          "target": "PC@71",
          "type": "sms",
          "constraintsFile": "constraints32_1.py",
          "variables": {
            "System.currentTimeMillis()": "IAAv3",
            "\u003cChainedInput2\u003e.getAction()": "IAAv0",
            "\u003cSystemPrevTime\u003e": "IAAv4"
          },
          "stringMap": {
            "7000": "android.intent.action.PACKAGE_ADDED",
            "7001": "android.net.conn.CONNECTIVITY_CHANGE"
          },
          "strings": {
            "IAAv0": ""
          }
        },
        {
          "start": "com.jgong.cyc.ccrc.onReceive(Landroid/content/Context;Landroid/content/Intent;)V",
          "target": "",
          "type": "sms",
          "constraintsFile": "constraints32_2.py",
          "variables": {
            "System.currentTimeMillis()": "IAAv3",
            "\u003cChainedInput2\u003e.getAction()": "IAAv0",
            "\u003cSystemPrevTime\u003e": "IAAv4"
          },
          "stringMap": {
            "7000": "android.intent.action.PACKAGE_ADDED",
            "7001": "android.net.conn.CONNECTIVITY_CHANGE"
          },
          "strings": {
            "IAAv0": ""
          }
        },
        {
          "start": "com.jgong.cyc.ui.c.onItemClick(Landroid/widget/AdapterView;Landroid/view/View;IJ)V",
          "target": "invokeinterface \u003c Application, Lorg/apache/http/client/HttpClient, execute(Lorg/apache/http/client/methods/HttpUriRequest;)Lorg/apache/http/HttpResponse; \u003e@136",
          "type": "ui",
          "activities": [
            "gwj.fish.sric.android.WelActivity"
          ],
          "listener": "com.jgong.cyc.ui.c",
          "listenerMethod": "onItemClick",
          "uiType": "onItemClick",
          "constraintsFile": "constraints32_3.py",
          "variables": {},
          "stringMap": {
            "7000": ""
          },
          "strings": {
            "IAAv12": ""
          }
        }
      ]
    },
    "33": {
      "startMethod": "com.jgong.cyc.ui.c.onItemClick(Landroid/widget/AdapterView;Landroid/view/View;IJ)V",
      "targetMethod": "org.apache.http.client.HttpClient.execute(Lorg/apache/http/client/methods/HttpUriRequest;)Lorg/apache/http/HttpResponse;",
      "eventChain": [
        {
          "start": "com.jgong.cyc.ccat.onCreate(Landroid/os/Bundle;)V",
          "target": "invokevirtual \u003c Application, Lcom/jgong/cyc/ui/ad, setOnItemClickListener(Landroid/widget/AdapterView$OnItemClickListener;)V \u003e@514",
          "type": "activity",
          "component": "com.jgong.cyc.ccat"
        },
        {
          "start": "com.jgong.cyc.ccrc.onReceive(Landroid/content/Context;Landroid/content/Intent;)V",
          "target": "PC@3",
          "type": "sms",
          "constraintsFile": "constraints33_0.py",
          "variables": {
            "\u003cChainedInput2\u003e.getAction()": "IAAv17",
            "System.currentTimeMillis()": "IAAv20",
            "\u003cSystemPrevTime\u003e": "IAAv21"
          },
          "stringMap": {
            "7000": "",
            "7001": "android.intent.action.PACKAGE_ADDED",
            "7002": "android.net.conn.CONNECTIVITY_CHANGE"
          },
          "strings": {
            "IAAv12": "",
            "IAAv14": "",
            "IAAv17": ""
          }
        },
        {
          "start": "com.jgong.cyc.ccrc.onReceive(Landroid/content/Context;Landroid/content/Intent;)V",
          "target": "PC@71",
          "type": "sms",
          "constraintsFile": "constraints33_1.py",
          "variables": {
            "System.currentTimeMillis()": "IAAv3",
            "\u003cChainedInput2\u003e.getAction()": "IAAv0",
            "\u003cSystemPrevTime\u003e": "IAAv4"
          },
          "stringMap": {
            "7000": "android.intent.action.PACKAGE_ADDED",
            "7001": "android.net.conn.CONNECTIVITY_CHANGE"
          },
          "strings": {
            "IAAv0": ""
          }
        },
        {
          "start": "com.jgong.cyc.ccrc.onReceive(Landroid/content/Context;Landroid/content/Intent;)V",
          "target": "",
          "type": "sms",
          "constraintsFile": "constraints33_2.py",
          "variables": {
            "System.currentTimeMillis()": "IAAv3",
            "\u003cChainedInput2\u003e.getAction()": "IAAv0",
            "\u003cSystemPrevTime\u003e": "IAAv4"
          },
          "stringMap": {
            "7000": "android.intent.action.PACKAGE_ADDED",
            "7001": "android.net.conn.CONNECTIVITY_CHANGE"
          },
          "strings": {
            "IAAv0": ""
          }
        },
        {
          "start": "com.jgong.cyc.ui.c.onItemClick(Landroid/widget/AdapterView;Landroid/view/View;IJ)V",
          "target": "invokeinterface \u003c Application, Lorg/apache/http/client/HttpClient, execute(Lorg/apache/http/client/methods/HttpUriRequest;)Lorg/apache/http/HttpResponse; \u003e@92",
          "type": "ui",
          "activities": [
            "gwj.fish.sric.android.WelActivity"
          ],
          "listener": "com.jgong.cyc.ui.c",
          "listenerMethod": "onItemClick",
          "uiType": "onItemClick",
          "constraintsFile": "constraints33_3.py",
          "variables": {},
          "stringMap": {
            "7000": ""
          },
          "strings": {
            "IAAv12": "",
            "IAAv14": ""
          }
        }
      ]
    },
    "34": {
      "startMethod": "com.jgong.cyc.ccat.onKeyDown(ILandroid/view/KeyEvent;)Z",
      "targetMethod": "org.apache.http.client.HttpClient.execute(Lorg/apache/http/client/methods/HttpUriRequest;)Lorg/apache/http/HttpResponse;",
      "eventChain": [
        {
          "start": "com.jgong.cyc.ccat.onCreate(Landroid/os/Bundle;)V",
          "target": "PC@299",
          "type": "activity",
          "component": "com.jgong.cyc.ccat"
        },
        {
          "start": "com.jgong.cyc.ccat.onKeyDown(ILandroid/view/KeyEvent;)Z",
          "target": "invokeinterface \u003c Application, Lorg/apache/http/client/HttpClient, execute(Lorg/apache/http/client/methods/HttpUriRequest;)Lorg/apache/http/HttpResponse; \u003e@136",
          "type": "ui",
          "activities": [
            "gwj.fish.sric.android.WelActivity"
          ],
          "listener": "com.jgong.cyc.ccat",
          "listenerMethod": "onKeyDown",
          "uiType": "onKeyDown",
          "constraintsFile": "constraints34_0.py",
          "variables": {
            "\u003cChainedInput1\u003e": "IAAv0"
          },
          "stringMap": {},
          "strings": {}
        }
      ]
    },
    "35": {
      "startMethod": "gwj.fish.sric.android.WelActivity.onKeyDown(ILandroid/view/KeyEvent;)Z",
      "targetMethod": "java.lang.reflect.Method.invoke(Ljava/lang/Object;[Ljava/lang/Object;)Ljava/lang/Object;",
      "eventChain": [
        {
          "start": "gwj.fish.sric.android.WelActivity.onKeyDown(ILandroid/view/KeyEvent;)Z",
          "target": "invokevirtual \u003c Application, Ljava/lang/reflect/Method, invoke(Ljava/lang/Object;[Ljava/lang/Object;)Ljava/lang/Object; \u003e@40",
          "type": "ui",
          "activities": [
            "gwj.fish.sric.android.WelActivity"
          ],
          "listener": "gwj.fish.sric.android.WelActivity",
          "listenerMethod": "onKeyDown",
          "uiType": "onKeyDown",
          "constraintsFile": "constraints35_0.py",
          "variables": {
            "\u003cInput1\u003e": "IAAv0"
          },
          "stringMap": {},
          "strings": {}
        }
      ]
    },
    "36": {
      "startMethod": "gwj.fish.sric.android.WelActivity.onKeyDown(ILandroid/view/KeyEvent;)Z",
      "targetMethod": "dalvik.system.DexClassLoader.loadClass(Ljava/lang/String;)Ljava/lang/Class;",
      "eventChain": [
        {
          "start": "gwj.fish.sric.android.WelActivity.onKeyDown(ILandroid/view/KeyEvent;)Z",
          "target": "invokevirtual \u003c Application, Ldalvik/system/DexClassLoader, loadClass(Ljava/lang/String;)Ljava/lang/Class; \u003e@116",
          "type": "ui",
          "activities": [
            "gwj.fish.sric.android.WelActivity"
          ],
          "listener": "gwj.fish.sric.android.WelActivity",
          "listenerMethod": "onKeyDown",
          "uiType": "onKeyDown",
          "constraintsFile": "constraints36_0.py",
          "variables": {
            "\u003cInput1\u003e": "IAAv0"
          },
          "stringMap": {},
          "strings": {}
        }
      ]
    },
    "37": {
      "startMethod": "com.androld.xhes.Main.onKeyDown(ILandroid/view/KeyEvent;)Z",
      "targetMethod": "java.lang.reflect.Method.invoke(Ljava/lang/Object;[Ljava/lang/Object;)Ljava/lang/Object;",
      "eventChain": [
        {
          "start": "com.androld.xhes.Main.onKeyDown(ILandroid/view/KeyEvent;)Z",
          "target": "invokevirtual \u003c Application, Ljava/lang/reflect/Method, invoke(Ljava/lang/Object;[Ljava/lang/Object;)Ljava/lang/Object; \u003e@40",
          "type": "ui",
          "activities": [
            "gwj.fish.sric.android.WelActivity"
          ],
          "listener": "com.androld.xhes.Main",
          "listenerMethod": "onKeyDown",
          "uiType": "onKeyDown",
          "constraintsFile": "constraints37_0.py",
          "variables": {
            "\u003cInput1\u003e": "IAAv0"
          },
          "stringMap": {},
          "strings": {}
        }
      ]
    },
    "38": {
      "startMethod": "com.androld.xhes.Main.onKeyDown(ILandroid/view/KeyEvent;)Z",
      "targetMethod": "dalvik.system.DexClassLoader.loadClass(Ljava/lang/String;)Ljava/lang/Class;",
      "eventChain": [
        {
          "start": "com.androld.xhes.Main.onKeyDown(ILandroid/view/KeyEvent;)Z",
          "target": "invokevirtual \u003c Application, Ldalvik/system/DexClassLoader, loadClass(Ljava/lang/String;)Ljava/lang/Class; \u003e@116",
          "type": "ui",
          "activities": [
            "gwj.fish.sric.android.WelActivity"
          ],
          "listener": "com.androld.xhes.Main",
          "listenerMethod": "onKeyDown",
          "uiType": "onKeyDown",
          "constraintsFile": "constraints38_0.py",
          "variables": {
            "\u003cInput1\u003e": "IAAv0"
          },
          "stringMap": {},
          "strings": {}
        }
      ]
    },
    "39": {
      "startMethod": "com.gongj.cyp.ppat.onKeyDown(ILandroid/view/KeyEvent;)Z",
      "targetMethod": "java.lang.reflect.Method.invoke(Ljava/lang/Object;[Ljava/lang/Object;)Ljava/lang/Object;",
      "eventChain": [
        {
          "start": "com.gongj.cyp.ppat.onKeyDown(ILandroid/view/KeyEvent;)Z",
          "target": "invokevirtual \u003c Application, Ljava/lang/reflect/Method, invoke(Ljava/lang/Object;[Ljava/lang/Object;)Ljava/lang/Object; \u003e@252",
          "type": "ui",
          "activities": [
            "gwj.fish.sric.android.WelActivity"
          ],
          "listener": "com.gongj.cyp.ppat",
          "listenerMethod": "onKeyDown",
          "uiType": "onKeyDown",
          "constraintsFile": "constraints39_0.py",
          "variables": {
            "\u003cInput1\u003e": "IAAv0"
          },
          "stringMap": {},
          "strings": {}
        }
      ]
    },
    "40": {
      "startMethod": "com.gongj.cyp.ppat.onKeyDown(ILandroid/view/KeyEvent;)Z",
      "targetMethod": "dalvik.system.DexClassLoader.loadClass(Ljava/lang/String;)Ljava/lang/Class;",
      "eventChain": [
        {
          "start": "com.gongj.cyp.ppat.onKeyDown(ILandroid/view/KeyEvent;)Z",
          "target": "invokevirtual \u003c Application, Ldalvik/system/DexClassLoader, loadClass(Ljava/lang/String;)Ljava/lang/Class; \u003e@80",
          "type": "ui",
          "activities": [
            "gwj.fish.sric.android.WelActivity"
          ],
          "listener": "com.gongj.cyp.ppat",
          "listenerMethod": "onKeyDown",
          "uiType": "onKeyDown",
          "constraintsFile": "constraints40_0.py",
          "variables": {
            "\u003cInput1\u003e": "IAAv0"
          },
          "stringMap": {},
          "strings": {}
        }
      ]
    },
    "41": {
      "startMethod": "com.gongj.cyp.ppat.onKeyDown(ILandroid/view/KeyEvent;)Z",
      "targetMethod": "java.lang.reflect.Method.invoke(Ljava/lang/Object;[Ljava/lang/Object;)Ljava/lang/Object;",
      "eventChain": [
        {
          "start": "com.gongj.cyp.ppat.onKeyDown(ILandroid/view/KeyEvent;)Z",
          "target": "invokevirtual \u003c Application, Ljava/lang/reflect/Method, invoke(Ljava/lang/Object;[Ljava/lang/Object;)Ljava/lang/Object; \u003e@54",
          "type": "ui",
          "activities": [
            "gwj.fish.sric.android.WelActivity"
          ],
          "listener": "com.gongj.cyp.ppat",
          "listenerMethod": "onKeyDown",
          "uiType": "onKeyDown",
          "constraintsFile": "constraints41_0.py",
          "variables": {
            "\u003cInput1\u003e": "IAAv0"
          },
          "stringMap": {},
          "strings": {}
        }
      ]
    },
    "42": {
      "startMethod": "com.gongj.cyp.ppat.onKeyDown(ILandroid/view/KeyEvent;)Z",
      "targetMethod": "dalvik.system.DexClassLoader.loadClass(Ljava/lang/String;)Ljava/lang/Class;",
      "eventChain": [
        {
          "start": "com.gongj.cyp.ppat.onKeyDown(ILandroid/view/KeyEvent;)Z",
          "target": "invokevirtual \u003c Application, Ldalvik/system/DexClassLoader, loadClass(Ljava/lang/String;)Ljava/lang/Class; \u003e@31",
          "type": "ui",
          "activities": [
            "gwj.fish.sric.android.WelActivity"
          ],
          "listener": "com.gongj.cyp.ppat",
          "listenerMethod": "onKeyDown",
          "uiType": "onKeyDown",
          "constraintsFile": "constraints42_0.py",
          "variables": {
            "\u003cInput1\u003e": "IAAv0"
          },
          "stringMap": {},
          "strings": {}
        }
      ]
    },
    "43": {
      "startMethod": "gwj.fish.sric.android.WelActivity.onClick(Landroid/view/View;)V",
      "targetMethod": "java.lang.reflect.Method.invoke(Ljava/lang/Object;[Ljava/lang/Object;)Ljava/lang/Object;",
      "eventChain": [
        {
          "start": "gwj.fish.sric.android.WelActivity.onCreate(Landroid/os/Bundle;)V",
          "target": "invokevirtual \u003c Application, Landroid/widget/ImageButton, setOnClickListener(Landroid/view/View$OnClickListener;)V \u003e@263",
          "type": "activity",
          "component": "gwj.fish.sric.android.WelActivity"
        },
        {
          "start": "gwj.fish.sric.android.WelActivity.onClick(Landroid/view/View;)V",
          "target": "invokevirtual \u003c Application, Ljava/lang/reflect/Method, invoke(Ljava/lang/Object;[Ljava/lang/Object;)Ljava/lang/Object; \u003e@252",
          "type": "ui",
          "activities": [
            "gwj.fish.sric.android.WelActivity"
          ],
          "listener": "gwj.fish.sric.android.WelActivity",
          "listenerMethod": "onClick",
          "uiType": "onClick",
          "constraintsFile": "constraints43_0.py",
          "variables": {
            "\u003cInput1\u003e.getId()": "IAAv0"
          },
          "stringMap": {},
          "strings": {}
        }
      ]
    },
    "44": {
      "startMethod": "gwj.fish.sric.android.WelActivity.onClick(Landroid/view/View;)V",
      "targetMethod": "java.lang.reflect.Method.invoke(Ljava/lang/Object;[Ljava/lang/Object;)Ljava/lang/Object;",
      "eventChain": [
        {
          "start": "gwj.fish.sric.android.WelActivity.onCreate(Landroid/os/Bundle;)V",
          "target": "invokevirtual \u003c Application, Landroid/widget/ImageButton, setOnClickListener(Landroid/view/View$OnClickListener;)V \u003e@263",
          "type": "activity",
          "component": "gwj.fish.sric.android.WelActivity"
        },
        {
          "start": "gwj.fish.sric.android.WelActivity.onClick(Landroid/view/View;)V",
          "target": "invokevirtual \u003c Application, Ljava/lang/reflect/Method, invoke(Ljava/lang/Object;[Ljava/lang/Object;)Ljava/lang/Object; \u003e@208",
          "type": "ui",
          "activities": [
            "gwj.fish.sric.android.WelActivity"
          ],
          "listener": "gwj.fish.sric.android.WelActivity",
          "listenerMethod": "onClick",
          "uiType": "onClick",
          "constraintsFile": "constraints44_0.py",
          "variables": {
            "\u003cInput1\u003e.getId()": "IAAv0"
          },
          "stringMap": {},
          "strings": {}
        }
      ]
    },
    "45": {
      "startMethod": "gwj.fish.sric.android.WelActivity.onClick(Landroid/view/View;)V",
      "targetMethod": "dalvik.system.DexClassLoader.loadClass(Ljava/lang/String;)Ljava/lang/Class;",
      "eventChain": [
        {
          "start": "gwj.fish.sric.android.WelActivity.onCreate(Landroid/os/Bundle;)V",
          "target": "invokevirtual \u003c Application, Landroid/widget/ImageButton, setOnClickListener(Landroid/view/View$OnClickListener;)V \u003e@263",
          "type": "activity",
          "component": "gwj.fish.sric.android.WelActivity"
        },
        {
          "start": "gwj.fish.sric.android.WelActivity.onClick(Landroid/view/View;)V",
          "target": "invokevirtual \u003c Application, Ldalvik/system/DexClassLoader, loadClass(Ljava/lang/String;)Ljava/lang/Class; \u003e@80",
          "type": "ui",
          "activities": [
            "gwj.fish.sric.android.WelActivity"
          ],
          "listener": "gwj.fish.sric.android.WelActivity",
          "listenerMethod": "onClick",
          "uiType": "onClick",
          "constraintsFile": "constraints45_0.py",
          "variables": {
            "\u003cInput1\u003e.getId()": "IAAv0"
          },
          "stringMap": {},
          "strings": {}
        }
      ]
    },
    "46": {
      "startMethod": "com.jgong.cyc.ui.c.onClick(Landroid/view/View;)V",
      "targetMethod": "org.apache.http.client.HttpClient.execute(Lorg/apache/http/client/methods/HttpUriRequest;)Lorg/apache/http/HttpResponse;",
      "eventChain": [
        {
          "start": "com.jgong.cyc.ccat.onCreate(Landroid/os/Bundle;)V",
          "target": "invokevirtual \u003c Application, Landroid/widget/LinearLayout, setOnClickListener(Landroid/view/View$OnClickListener;)V \u003e@1027",
          "type": "activity",
          "component": "com.jgong.cyc.ccat"
        },
        {
          "start": "com.jgong.cyc.ccat.onCreate(Landroid/os/Bundle;)V",
          "target": "PC@3",
          "type": "activity",
          "component": "com.jgong.cyc.ccat"
        },
        {
          "start": "com.jgong.cyc.ccrc.onReceive(Landroid/content/Context;Landroid/content/Intent;)V",
          "target": "PC@3",
          "type": "sms",
          "constraintsFile": "constraints46_0.py",
          "variables": {
            "\u003cChainedInput1\u003e.getTag().intValue()": "IAAv1",
            "\u003cChainedInput2\u003e.getAction()": "IAAv20",
            "System.currentTimeMillis()": "IAAv23",
            "\u003cSystemPrevTime\u003e": "IAAv24"
          },
          "stringMap": {
            "7000": "",
            "7001": "android.intent.action.PACKAGE_ADDED",
            "7002": "android.net.conn.CONNECTIVITY_CHANGE"
          },
          "strings": {
            "IAAv20": "",
            "IAAv14": ""
          }
        },
        {
          "start": "com.jgong.cyc.ccrc.onReceive(Landroid/content/Context;Landroid/content/Intent;)V",
          "target": "PC@71",
          "type": "sms",
          "constraintsFile": "constraints46_1.py",
          "variables": {
            "System.currentTimeMillis()": "IAAv3",
            "\u003cChainedInput2\u003e.getAction()": "IAAv0",
            "\u003cSystemPrevTime\u003e": "IAAv4"
          },
          "stringMap": {
            "7000": "android.intent.action.PACKAGE_ADDED",
            "7001": "android.net.conn.CONNECTIVITY_CHANGE"
          },
          "strings": {
            "IAAv0": ""
          }
        },
        {
          "start": "com.jgong.cyc.ccrc.onReceive(Landroid/content/Context;Landroid/content/Intent;)V",
          "target": "",
          "type": "sms",
          "constraintsFile": "constraints46_2.py",
          "variables": {
            "System.currentTimeMillis()": "IAAv3",
            "\u003cChainedInput2\u003e.getAction()": "IAAv0",
            "\u003cSystemPrevTime\u003e": "IAAv4"
          },
          "stringMap": {
            "7000": "android.intent.action.PACKAGE_ADDED",
            "7001": "android.net.conn.CONNECTIVITY_CHANGE"
          },
          "strings": {
            "IAAv0": ""
          }
        },
        {
          "start": "com.jgong.cyc.ui.c.onClick(Landroid/view/View;)V",
          "target": "invokeinterface \u003c Application, Lorg/apache/http/client/HttpClient, execute(Lorg/apache/http/client/methods/HttpUriRequest;)Lorg/apache/http/HttpResponse; \u003e@136",
          "type": "ui",
          "activities": [
            "gwj.fish.sric.android.WelActivity"
          ],
          "listener": "com.jgong.cyc.ui.c",
          "listenerMethod": "onClick",
          "uiType": "onClick",
          "constraintsFile": "constraints46_3.py",
          "variables": {
            "\u003cChainedInput1\u003e.getTag().intValue()": "IAAv1"
          },
          "stringMap": {
            "7000": ""
          },
          "strings": {
            "IAAv14": ""
          }
        }
      ]
    },
    "47": {
      "startMethod": "com.jgong.cyc.ui.c.onClick(Landroid/view/View;)V",
      "targetMethod": "org.apache.http.client.HttpClient.execute(Lorg/apache/http/client/methods/HttpUriRequest;)Lorg/apache/http/HttpResponse;",
      "eventChain": [
        {
          "start": "com.jgong.cyc.ccat.onCreate(Landroid/os/Bundle;)V",
          "target": "invokevirtual \u003c Application, Landroid/widget/LinearLayout, setOnClickListener(Landroid/view/View$OnClickListener;)V \u003e@1027",
          "type": "activity",
          "component": "com.jgong.cyc.ccat"
        },
        {
          "start": "com.jgong.cyc.ccat.onCreate(Landroid/os/Bundle;)V",
          "target": "PC@3",
          "type": "activity",
          "component": "com.jgong.cyc.ccat"
        },
        {
          "start": "com.jgong.cyc.ui.c.onClick(Landroid/view/View;)V",
          "target": "invokeinterface \u003c Application, Lorg/apache/http/client/HttpClient, execute(Lorg/apache/http/client/methods/HttpUriRequest;)Lorg/apache/http/HttpResponse; \u003e@404",
          "type": "ui",
          "activities": [
            "gwj.fish.sric.android.WelActivity"
          ],
          "listener": "com.jgong.cyc.ui.c",
          "listenerMethod": "onClick",
          "uiType": "onClick",
          "constraintsFile": "constraints47_0.py",
          "variables": {
            "\u003cChainedInput1\u003e.getTag().intValue()": "IAAv1"
          },
          "stringMap": {},
          "strings": {}
        }
      ]
    },
    "48": {
      "startMethod": "com.jgong.cyc.ui.c.onClick(Landroid/view/View;)V",
      "targetMethod": "org.apache.http.client.HttpClient.execute(Lorg/apache/http/client/methods/HttpUriRequest;)Lorg/apache/http/HttpResponse;",
      "eventChain": [
        {
          "start": "com.jgong.cyc.ccat.onCreate(Landroid/os/Bundle;)V",
          "target": "invokevirtual \u003c Application, Landroid/widget/LinearLayout, setOnClickListener(Landroid/view/View$OnClickListener;)V \u003e@1027",
          "type": "activity",
          "component": "com.jgong.cyc.ccat"
        },
        {
          "start": "com.jgong.cyc.ccat.onCreate(Landroid/os/Bundle;)V",
          "target": "PC@3",
          "type": "activity",
          "component": "com.jgong.cyc.ccat"
        },
        {
          "start": "com.jgong.cyc.ccrc.onReceive(Landroid/content/Context;Landroid/content/Intent;)V",
          "target": "PC@3",
          "type": "sms",
          "constraintsFile": "constraints48_0.py",
          "variables": {
            "\u003cChainedInput1\u003e.getTag().intValue()": "IAAv1",
            "\u003cChainedInput2\u003e.getAction()": "IAAv19",
            "System.currentTimeMillis()": "IAAv22",
            "\u003cSystemPrevTime\u003e": "IAAv23"
          },
          "stringMap": {
            "7000": "",
            "7001": "android.intent.action.PACKAGE_ADDED",
            "7002": "android.net.conn.CONNECTIVITY_CHANGE"
          },
          "strings": {
            "IAAv14": "",
            "IAAv16": "",
            "IAAv19": ""
          }
        },
        {
          "start": "com.jgong.cyc.ccrc.onReceive(Landroid/content/Context;Landroid/content/Intent;)V",
          "target": "PC@71",
          "type": "sms",
          "constraintsFile": "constraints48_1.py",
          "variables": {
            "System.currentTimeMillis()": "IAAv3",
            "\u003cChainedInput2\u003e.getAction()": "IAAv0",
            "\u003cSystemPrevTime\u003e": "IAAv4"
          },
          "stringMap": {
            "7000": "android.intent.action.PACKAGE_ADDED",
            "7001": "android.net.conn.CONNECTIVITY_CHANGE"
          },
          "strings": {
            "IAAv0": ""
          }
        },
        {
          "start": "com.jgong.cyc.ccrc.onReceive(Landroid/content/Context;Landroid/content/Intent;)V",
          "target": "",
          "type": "sms",
          "constraintsFile": "constraints48_2.py",
          "variables": {
            "System.currentTimeMillis()": "IAAv3",
            "\u003cChainedInput2\u003e.getAction()": "IAAv0",
            "\u003cSystemPrevTime\u003e": "IAAv4"
          },
          "stringMap": {
            "7000": "android.intent.action.PACKAGE_ADDED",
            "7001": "android.net.conn.CONNECTIVITY_CHANGE"
          },
          "strings": {
            "IAAv0": ""
          }
        },
        {
          "start": "com.jgong.cyc.ui.c.onClick(Landroid/view/View;)V",
          "target": "invokeinterface \u003c Application, Lorg/apache/http/client/HttpClient, execute(Lorg/apache/http/client/methods/HttpUriRequest;)Lorg/apache/http/HttpResponse; \u003e@92",
          "type": "ui",
          "activities": [
            "gwj.fish.sric.android.WelActivity"
          ],
          "listener": "com.jgong.cyc.ui.c",
          "listenerMethod": "onClick",
          "uiType": "onClick",
          "constraintsFile": "constraints48_3.py",
          "variables": {
            "\u003cChainedInput1\u003e.getTag().intValue()": "IAAv1"
          },
          "stringMap": {
            "7000": ""
          },
          "strings": {
            "IAAv14": "",
            "IAAv16": ""
          }
        }
      ]
    },
    "49": {
      "startMethod": "com.jgong.cyc.ui.aa.onClick(Landroid/view/View;)V",
      "targetMethod": "org.apache.http.client.HttpClient.execute(Lorg/apache/http/client/methods/HttpUriRequest;)Lorg/apache/http/HttpResponse;",
      "eventChain": [
        {
          "start": "com.jgong.cyc.ui.aa.onClick(Landroid/view/View;)V",
          "target": "invokeinterface \u003c Application, Lorg/apache/http/client/HttpClient, execute(Lorg/apache/http/client/methods/HttpUriRequest;)Lorg/apache/http/HttpResponse; \u003e@404",
          "type": "ui",
          "activities": [
            "gwj.fish.sric.android.WelActivity"
          ],
          "listener": "com.jgong.cyc.ui.aa",
          "listenerMethod": "onClick",
          "uiType": "onClick",
          "constraintsFile": "constraints49_0.py",
          "variables": {},
          "stringMap": {},
          "strings": {}
        }
      ]
    },
    "50": {
      "startMethod": "com.jgong.cyc.ui.aa.onClick(Landroid/view/View;)V",
      "targetMethod": "org.apache.http.client.HttpClient.execute(Lorg/apache/http/client/methods/HttpUriRequest;)Lorg/apache/http/HttpResponse;",
      "eventChain": [
        {
          "start": "com.jgong.cyc.ccrc.onReceive(Landroid/content/Context;Landroid/content/Intent;)V",
          "target": "PC@3",
          "type": "sms",
          "constraintsFile": "constraints50_0.py",
          "variables": {
            "\u003cChainedInput2\u003e.getAction()": "IAAv17",
            "System.currentTimeMillis()": "IAAv20",
            "\u003cSystemPrevTime\u003e": "IAAv21"
          },
          "stringMap": {
            "7000": "",
            "7001": "android.intent.action.PACKAGE_ADDED",
            "7002": "android.net.conn.CONNECTIVITY_CHANGE"
          },
          "strings": {
            "IAAv12": "",
            "IAAv14": "",
            "IAAv17": ""
          }
        },
        {
          "start": "com.jgong.cyc.ccrc.onReceive(Landroid/content/Context;Landroid/content/Intent;)V",
          "target": "PC@71",
          "type": "sms",
          "constraintsFile": "constraints50_1.py",
          "variables": {
            "System.currentTimeMillis()": "IAAv3",
            "\u003cChainedInput2\u003e.getAction()": "IAAv0",
            "\u003cSystemPrevTime\u003e": "IAAv4"
          },
          "stringMap": {
            "7000": "android.intent.action.PACKAGE_ADDED",
            "7001": "android.net.conn.CONNECTIVITY_CHANGE"
          },
          "strings": {
            "IAAv0": ""
          }
        },
        {
          "start": "com.jgong.cyc.ccrc.onReceive(Landroid/content/Context;Landroid/content/Intent;)V",
          "target": "",
          "type": "sms",
          "constraintsFile": "constraints50_2.py",
          "variables": {
            "System.currentTimeMillis()": "IAAv3",
            "\u003cChainedInput2\u003e.getAction()": "IAAv0",
            "\u003cSystemPrevTime\u003e": "IAAv4"
          },
          "stringMap": {
            "7000": "android.intent.action.PACKAGE_ADDED",
            "7001": "android.net.conn.CONNECTIVITY_CHANGE"
          },
          "strings": {
            "IAAv0": ""
          }
        },
        {
          "start": "com.jgong.cyc.ui.aa.onClick(Landroid/view/View;)V",
          "target": "invokeinterface \u003c Application, Lorg/apache/http/client/HttpClient, execute(Lorg/apache/http/client/methods/HttpUriRequest;)Lorg/apache/http/HttpResponse; \u003e@92",
          "type": "ui",
          "activities": [
            "gwj.fish.sric.android.WelActivity"
          ],
          "listener": "com.jgong.cyc.ui.aa",
          "listenerMethod": "onClick",
          "uiType": "onClick",
          "constraintsFile": "constraints50_3.py",
          "variables": {},
          "stringMap": {
            "7000": ""
          },
          "strings": {
            "IAAv12": "",
            "IAAv14": ""
          }
        }
      ]
    },
    "51": {
      "startMethod": "com.jgong.cyc.ui.aa.onClick(Landroid/view/View;)V",
      "targetMethod": "org.apache.http.client.HttpClient.execute(Lorg/apache/http/client/methods/HttpUriRequest;)Lorg/apache/http/HttpResponse;",
      "eventChain": [
        {
          "start": "com.jgong.cyc.ccrc.onReceive(Landroid/content/Context;Landroid/content/Intent;)V",
          "target": "PC@3",
          "type": "sms",
          "constraintsFile": "constraints51_0.py",
          "variables": {
            "\u003cChainedInput2\u003e.getAction()": "IAAv18",
            "System.currentTimeMillis()": "IAAv21",
            "\u003cSystemPrevTime\u003e": "IAAv22"
          },
          "stringMap": {
            "7000": "",
            "7001": "android.intent.action.PACKAGE_ADDED",
            "7002": "android.net.conn.CONNECTIVITY_CHANGE"
          },
          "strings": {
            "IAAv12": "",
            "IAAv18": ""
          }
        },
        {
          "start": "com.jgong.cyc.ccrc.onReceive(Landroid/content/Context;Landroid/content/Intent;)V",
          "target": "PC@71",
          "type": "sms",
          "constraintsFile": "constraints51_1.py",
          "variables": {
            "System.currentTimeMillis()": "IAAv3",
            "\u003cChainedInput2\u003e.getAction()": "IAAv0",
            "\u003cSystemPrevTime\u003e": "IAAv4"
          },
          "stringMap": {
            "7000": "android.intent.action.PACKAGE_ADDED",
            "7001": "android.net.conn.CONNECTIVITY_CHANGE"
          },
          "strings": {
            "IAAv0": ""
          }
        },
        {
          "start": "com.jgong.cyc.ccrc.onReceive(Landroid/content/Context;Landroid/content/Intent;)V",
          "target": "",
          "type": "sms",
          "constraintsFile": "constraints51_2.py",
          "variables": {
            "System.currentTimeMillis()": "IAAv3",
            "\u003cChainedInput2\u003e.getAction()": "IAAv0",
            "\u003cSystemPrevTime\u003e": "IAAv4"
          },
          "stringMap": {
            "7000": "android.intent.action.PACKAGE_ADDED",
            "7001": "android.net.conn.CONNECTIVITY_CHANGE"
          },
          "strings": {
            "IAAv0": ""
          }
        },
        {
          "start": "com.jgong.cyc.ui.aa.onClick(Landroid/view/View;)V",
          "target": "invokeinterface \u003c Application, Lorg/apache/http/client/HttpClient, execute(Lorg/apache/http/client/methods/HttpUriRequest;)Lorg/apache/http/HttpResponse; \u003e@136",
          "type": "ui",
          "activities": [
            "gwj.fish.sric.android.WelActivity"
          ],
          "listener": "com.jgong.cyc.ui.aa",
          "listenerMethod": "onClick",
          "uiType": "onClick",
          "constraintsFile": "constraints51_3.py",
          "variables": {},
          "stringMap": {
            "7000": ""
          },
          "strings": {
            "IAAv12": ""
          }
        }
      ]
    },
    "52": {
      "startMethod": "com.androld.xhes.c.onClick(Landroid/view/View;)V",
      "targetMethod": "java.lang.reflect.Method.invoke(Ljava/lang/Object;[Ljava/lang/Object;)Ljava/lang/Object;",
      "eventChain": [
        {
          "start": "com.androld.xhes.c.onClick(Landroid/view/View;)V",
          "target": "invokevirtual \u003c Application, Ljava/lang/reflect/Method, invoke(Ljava/lang/Object;[Ljava/lang/Object;)Ljava/lang/Object; \u003e@40",
          "type": "ui",
          "activities": [
            "gwj.fish.sric.android.WelActivity"
          ],
          "listener": "com.androld.xhes.c",
          "listenerMethod": "onClick",
          "uiType": "onClick",
          "constraintsFile": "constraints52_0.py",
          "variables": {},
          "stringMap": {},
          "strings": {}
        }
      ]
    },
    "53": {
      "startMethod": "com.androld.xhes.c.onClick(Landroid/view/View;)V",
      "targetMethod": "dalvik.system.DexClassLoader.loadClass(Ljava/lang/String;)Ljava/lang/Class;",
      "eventChain": [
        {
          "start": "com.androld.xhes.xhs.onCreate()V",
          "target": "PC@27",
          "type": "service",
          "component": "com.androld.xhes.xhs",
          "constraintsFile": "constraints53_0.py",
          "variables": {},
          "stringMap": {},
          "strings": {}
        },
        {
          "start": "com.androld.xhes.c.onClick(Landroid/view/View;)V",
          "target": "invokevirtual \u003c Application, Ldalvik/system/DexClassLoader, loadClass(Ljava/lang/String;)Ljava/lang/Class; \u003e@116",
          "type": "ui",
          "activities": [
            "gwj.fish.sric.android.WelActivity"
          ],
          "listener": "com.androld.xhes.c",
          "listenerMethod": "onClick",
          "uiType": "onClick",
          "constraintsFile": "constraints53_1.py",
          "variables": {},
          "stringMap": {},
          "strings": {}
        }
      ]
    },
    "54": {
      "startMethod": "com.jgong.cyc.ui.q.onClick(Landroid/view/View;)V",
      "targetMethod": "org.apache.http.client.HttpClient.execute(Lorg/apache/http/client/methods/HttpUriRequest;)Lorg/apache/http/HttpResponse;",
      "eventChain": [
        {
          "start": "com.jgong.cyc.ccrc.onReceive(Landroid/content/Context;Landroid/content/Intent;)V",
          "target": "invokevirtual \u003c Application, Landroid/view/View, setOnClickListener(Landroid/view/View$OnClickListener;)V \u003e@319",
          "type": "sms",
          "constraintsFile": "constraints54_0.py",
          "variables": {
            "System.currentTimeMillis()": "IAAv3",
            "\u003cChainedInput2\u003e.getAction()": "IAAv0",
            "\u003cSystemPrevTime\u003e": "IAAv4"
          },
          "stringMap": {
            "7000": "android.intent.action.PACKAGE_ADDED",
            "7001": "android.net.conn.CONNECTIVITY_CHANGE"
          },
          "strings": {
            "IAAv0": ""
          }
        },
        {
          "start": "com.jgong.cyc.ccrc.onReceive(Landroid/content/Context;Landroid/content/Intent;)V",
          "target": "PC@51",
          "type": "sms",
          "constraintsFile": "constraints54_1.py",
          "variables": {
            "\u003cChainedInput1\u003e.getTag().intValue()": "IAAv0",
            "\u003cChainedInput2\u003e.getAction()": "IAAv8",
            "System.currentTimeMillis()": "IAAv11",
            "\u003cSystemPrevTime\u003e": "IAAv12"
          },
          "stringMap": {
            "7000": "android.intent.action.PACKAGE_ADDED",
            "7001": "android.net.conn.CONNECTIVITY_CHANGE"
          },
          "strings": {
            "IAAv8": ""
          }
        },
        {
          "start": "com.jgong.cyc.ccrc.onReceive(Landroid/content/Context;Landroid/content/Intent;)V",
          "target": "PC@163",
          "type": "sms",
          "constraintsFile": "constraints54_2.py",
          "variables": {
            "\u003cChainedInput1\u003e.getTag().intValue()": "IAAv0",
            "\u003cChainedInput2\u003e.getAction()": "IAAv8",
            "System.currentTimeMillis()": "IAAv11",
            "\u003cSystemPrevTime\u003e": "IAAv12"
          },
          "stringMap": {
            "7000": "android.intent.action.PACKAGE_ADDED",
            "7001": "android.net.conn.CONNECTIVITY_CHANGE"
          },
          "strings": {
            "IAAv8": ""
          }
        },
        {
          "start": "com.jgong.cyc.ui.q.onClick(Landroid/view/View;)V",
          "target": "invokeinterface \u003c Application, Lorg/apache/http/client/HttpClient, execute(Lorg/apache/http/client/methods/HttpUriRequest;)Lorg/apache/http/HttpResponse; \u003e@136",
          "type": "ui",
          "activities": [
            "gwj.fish.sric.android.WelActivity"
          ],
          "listener": "com.jgong.cyc.ui.q",
          "listenerMethod": "onClick",
          "uiType": "onClick",
          "constraintsFile": "constraints54_3.py",
          "variables": {
            "\u003cChainedInput1\u003e.getTag().intValue()": "IAAv0"
          },
          "stringMap": {},
          "strings": {}
        }
      ]
    },
    "55": {
      "startMethod": "com.jgong.cyc.ui.al.onClick(Landroid/view/View;)V",
      "targetMethod": "org.apache.http.client.HttpClient.execute(Lorg/apache/http/client/methods/HttpUriRequest;)Lorg/apache/http/HttpResponse;",
      "eventChain": [
        {
          "start": "com.jgong.cyc.ccrc.onReceive(Landroid/content/Context;Landroid/content/Intent;)V",
          "target": "invokevirtual \u003c Application, Landroid/widget/ImageView, setOnClickListener(Landroid/view/View$OnClickListener;)V \u003e@865",
          "type": "sms",
          "constraintsFile": "constraints55_0.py",
          "variables": {
            "System.currentTimeMillis()": "IAAv3",
            "\u003cChainedInput2\u003e.getAction()": "IAAv0",
            "\u003cSystemPrevTime\u003e": "IAAv4"
          },
          "stringMap": {
            "7000": "android.intent.action.PACKAGE_ADDED",
            "7001": "android.net.conn.CONNECTIVITY_CHANGE"
          },
          "strings": {
            "IAAv0": ""
          }
        },
        {
          "start": "com.jgong.cyc.ccrc.onReceive(Landroid/content/Context;Landroid/content/Intent;)V",
          "target": "PC@3",
          "type": "sms",
          "constraintsFile": "constraints55_1.py",
          "variables": {
            "\u003cChainedInput1\u003e.getTag().intValue()": "IAAv1",
            "\u003cChainedInput2\u003e.getAction()": "IAAv19",
            "System.currentTimeMillis()": "IAAv22",
            "\u003cSystemPrevTime\u003e": "IAAv23"
          },
          "stringMap": {
            "7000": "",
            "7001": "android.intent.action.PACKAGE_ADDED",
            "7002": "android.net.conn.CONNECTIVITY_CHANGE"
          },
          "strings": {
            "IAAv14": "",
            "IAAv16": "",
            "IAAv19": ""
          }
        },
        {
          "start": "com.jgong.cyc.ccrc.onReceive(Landroid/content/Context;Landroid/content/Intent;)V",
          "target": "PC@3",
          "type": "sms",
          "constraintsFile": "constraints55_2.py",
          "variables": {
            "\u003cChainedInput2\u003e.getAction()": "IAAv0",
            "System.currentTimeMillis()": "IAAv3",
            "\u003cSystemPrevTime\u003e": "IAAv4"
          },
          "stringMap": {
            "7000": "android.intent.action.PACKAGE_ADDED",
            "7001": "android.net.conn.CONNECTIVITY_CHANGE"
          },
          "strings": {
            "IAAv0": ""
          }
        },
        {
          "start": "com.jgong.cyc.ccrc.onReceive(Landroid/content/Context;Landroid/content/Intent;)V",
          "target": "PC@71",
          "type": "sms",
          "constraintsFile": "constraints55_3.py",
          "variables": {
            "System.currentTimeMillis()": "IAAv3",
            "\u003cChainedInput2\u003e.getAction()": "IAAv0",
            "\u003cSystemPrevTime\u003e": "IAAv4"
          },
          "stringMap": {
            "7000": "android.intent.action.PACKAGE_ADDED",
            "7001": "android.net.conn.CONNECTIVITY_CHANGE"
          },
          "strings": {
            "IAAv0": ""
          }
        },
        {
          "start": "com.jgong.cyc.ui.al.onClick(Landroid/view/View;)V",
          "target": "invokeinterface \u003c Application, Lorg/apache/http/client/HttpClient, execute(Lorg/apache/http/client/methods/HttpUriRequest;)Lorg/apache/http/HttpResponse; \u003e@92",
          "type": "ui",
          "activities": [
            "gwj.fish.sric.android.WelActivity"
          ],
          "listener": "com.jgong.cyc.ui.al",
          "listenerMethod": "onClick",
          "uiType": "onClick",
          "constraintsFile": "constraints55_4.py",
          "variables": {
            "\u003cChainedInput1\u003e.getTag().intValue()": "IAAv1"
          },
          "stringMap": {
            "7000": ""
          },
          "strings": {
            "IAAv14": "",
            "IAAv16": ""
          }
        }
      ]
    },
    "56": {
      "startMethod": "com.jgong.cyc.ui.al.onClick(Landroid/view/View;)V",
      "targetMethod": "org.apache.http.client.HttpClient.execute(Lorg/apache/http/client/methods/HttpUriRequest;)Lorg/apache/http/HttpResponse;",
      "eventChain": [
        {
          "start": "com.jgong.cyc.ccrc.onReceive(Landroid/content/Context;Landroid/content/Intent;)V",
          "target": "invokevirtual \u003c Application, Landroid/widget/ImageView, setOnClickListener(Landroid/view/View$OnClickListener;)V \u003e@865",
          "type": "sms",
          "constraintsFile": "constraints56_0.py",
          "variables": {
            "System.currentTimeMillis()": "IAAv3",
            "\u003cChainedInput2\u003e.getAction()": "IAAv0",
            "\u003cSystemPrevTime\u003e": "IAAv4"
          },
          "stringMap": {
            "7000": "android.intent.action.PACKAGE_ADDED",
            "7001": "android.net.conn.CONNECTIVITY_CHANGE"
          },
          "strings": {
            "IAAv0": ""
          }
        },
        {
          "start": "com.jgong.cyc.ccrc.onReceive(Landroid/content/Context;Landroid/content/Intent;)V",
          "target": "PC@3",
          "type": "sms",
          "constraintsFile": "constraints56_1.py",
          "variables": {
            "\u003cChainedInput2\u003e.getAction()": "IAAv0",
            "System.currentTimeMillis()": "IAAv3",
            "\u003cSystemPrevTime\u003e": "IAAv4"
          },
          "stringMap": {
            "7000": "android.intent.action.PACKAGE_ADDED",
            "7001": "android.net.conn.CONNECTIVITY_CHANGE"
          },
          "strings": {
            "IAAv0": ""
          }
        },
        {
          "start": "com.jgong.cyc.ccrc.onReceive(Landroid/content/Context;Landroid/content/Intent;)V",
          "target": "PC@113",
          "type": "sms",
          "constraintsFile": "constraints56_2.py",
          "variables": {
            "\u003cChainedInput1\u003e.getTag().intValue()": "IAAv1",
            "System.currentTimeMillis()": "IAAv11",
            "\u003cChainedInput2\u003e.getAction()": "IAAv8",
            "\u003cSystemPrevTime\u003e": "IAAv12"
          },
          "stringMap": {
            "7000": "android.intent.action.PACKAGE_ADDED",
            "7001": "android.net.conn.CONNECTIVITY_CHANGE"
          },
          "strings": {
            "IAAv8": ""
          }
        },
        {
          "start": "com.jgong.cyc.ui.al.onClick(Landroid/view/View;)V",
          "target": "invokeinterface \u003c Application, Lorg/apache/http/client/HttpClient, execute(Lorg/apache/http/client/methods/HttpUriRequest;)Lorg/apache/http/HttpResponse; \u003e@404",
          "type": "ui",
          "activities": [
            "gwj.fish.sric.android.WelActivity"
          ],
          "listener": "com.jgong.cyc.ui.al",
          "listenerMethod": "onClick",
          "uiType": "onClick",
          "constraintsFile": "constraints56_3.py",
          "variables": {
            "\u003cChainedInput1\u003e.getTag().intValue()": "IAAv1"
          },
          "stringMap": {},
          "strings": {}
        }
      ]
    },
    "57": {
      "startMethod": "com.jgong.cyc.ui.al.onClick(Landroid/view/View;)V",
      "targetMethod": "org.apache.http.client.HttpClient.execute(Lorg/apache/http/client/methods/HttpUriRequest;)Lorg/apache/http/HttpResponse;",
      "eventChain": [
        {
          "start": "com.jgong.cyc.ccrc.onReceive(Landroid/content/Context;Landroid/content/Intent;)V",
          "target": "invokevirtual \u003c Application, Landroid/widget/ImageView, setOnClickListener(Landroid/view/View$OnClickListener;)V \u003e@865",
          "type": "sms",
          "constraintsFile": "constraints57_0.py",
          "variables": {
            "System.currentTimeMillis()": "IAAv3",
            "\u003cChainedInput2\u003e.getAction()": "IAAv0",
            "\u003cSystemPrevTime\u003e": "IAAv4"
          },
          "stringMap": {
            "7000": "android.intent.action.PACKAGE_ADDED",
            "7001": "android.net.conn.CONNECTIVITY_CHANGE"
          },
          "strings": {
            "IAAv0": ""
          }
        },
        {
          "start": "com.jgong.cyc.ccrc.onReceive(Landroid/content/Context;Landroid/content/Intent;)V",
          "target": "PC@3",
          "type": "sms",
          "constraintsFile": "constraints57_1.py",
          "variables": {
            "\u003cChainedInput1\u003e.getTag().intValue()": "IAAv1",
            "\u003cChainedInput2\u003e.getAction()": "IAAv20",
            "System.currentTimeMillis()": "IAAv23",
            "\u003cSystemPrevTime\u003e": "IAAv24"
          },
          "stringMap": {
            "7000": "",
            "7001": "android.intent.action.PACKAGE_ADDED",
            "7002": "android.net.conn.CONNECTIVITY_CHANGE"
          },
          "strings": {
            "IAAv20": "",
            "IAAv14": ""
          }
        },
        {
          "start": "com.jgong.cyc.ccrc.onReceive(Landroid/content/Context;Landroid/content/Intent;)V",
          "target": "PC@3",
          "type": "sms",
          "constraintsFile": "constraints57_2.py",
          "variables": {
            "\u003cChainedInput2\u003e.getAction()": "IAAv0",
            "System.currentTimeMillis()": "IAAv3",
            "\u003cSystemPrevTime\u003e": "IAAv4"
          },
          "stringMap": {
            "7000": "android.intent.action.PACKAGE_ADDED",
            "7001": "android.net.conn.CONNECTIVITY_CHANGE"
          },
          "strings": {
            "IAAv0": ""
          }
        },
        {
          "start": "com.jgong.cyc.ccrc.onReceive(Landroid/content/Context;Landroid/content/Intent;)V",
          "target": "PC@71",
          "type": "sms",
          "constraintsFile": "constraints57_3.py",
          "variables": {
            "System.currentTimeMillis()": "IAAv3",
            "\u003cChainedInput2\u003e.getAction()": "IAAv0",
            "\u003cSystemPrevTime\u003e": "IAAv4"
          },
          "stringMap": {
            "7000": "android.intent.action.PACKAGE_ADDED",
            "7001": "android.net.conn.CONNECTIVITY_CHANGE"
          },
          "strings": {
            "IAAv0": ""
          }
        },
        {
          "start": "com.jgong.cyc.ui.al.onClick(Landroid/view/View;)V",
          "target": "invokeinterface \u003c Application, Lorg/apache/http/client/HttpClient, execute(Lorg/apache/http/client/methods/HttpUriRequest;)Lorg/apache/http/HttpResponse; \u003e@136",
          "type": "ui",
          "activities": [
            "gwj.fish.sric.android.WelActivity"
          ],
          "listener": "com.jgong.cyc.ui.al",
          "listenerMethod": "onClick",
          "uiType": "onClick",
          "constraintsFile": "constraints57_4.py",
          "variables": {
            "\u003cChainedInput1\u003e.getTag().intValue()": "IAAv1"
          },
          "stringMap": {
            "7000": ""
          },
          "strings": {
            "IAAv14": ""
          }
        }
      ]
    },
    "58": {
      "startMethod": "com.androld.xhes.d.onClick(Landroid/view/View;)V",
      "targetMethod": "java.lang.reflect.Method.invoke(Ljava/lang/Object;[Ljava/lang/Object;)Ljava/lang/Object;",
      "eventChain": [
        {
          "start": "com.androld.xhes.d.onClick(Landroid/view/View;)V",
          "target": "invokevirtual \u003c Application, Ljava/lang/reflect/Method, invoke(Ljava/lang/Object;[Ljava/lang/Object;)Ljava/lang/Object; \u003e@40",
          "type": "ui",
          "activities": [
            "gwj.fish.sric.android.WelActivity"
          ],
          "listener": "com.androld.xhes.d",
          "listenerMethod": "onClick",
          "uiType": "onClick",
          "constraintsFile": "constraints58_0.py",
          "variables": {},
          "stringMap": {},
          "strings": {}
        }
      ]
    },
    "59": {
      "startMethod": "com.androld.xhes.d.onClick(Landroid/view/View;)V",
      "targetMethod": "dalvik.system.DexClassLoader.loadClass(Ljava/lang/String;)Ljava/lang/Class;",
      "eventChain": [
        {
          "start": "com.androld.xhes.xhs.onCreate()V",
          "target": "PC@27",
          "type": "service",
          "component": "com.androld.xhes.xhs",
          "constraintsFile": "constraints59_0.py",
          "variables": {},
          "stringMap": {},
          "strings": {}
        },
        {
          "start": "com.androld.xhes.d.onClick(Landroid/view/View;)V",
          "target": "invokevirtual \u003c Application, Ldalvik/system/DexClassLoader, loadClass(Ljava/lang/String;)Ljava/lang/Class; \u003e@116",
          "type": "ui",
          "activities": [
            "gwj.fish.sric.android.WelActivity"
          ],
          "listener": "com.androld.xhes.d",
          "listenerMethod": "onClick",
          "uiType": "onClick",
          "constraintsFile": "constraints59_1.py",
          "variables": {},
          "stringMap": {},
          "strings": {}
        }
      ]
    },
    "60": {
      "startMethod": "com.jgong.cyc.u.onTouch(Landroid/view/View;Landroid/view/MotionEvent;)Z",
      "targetMethod": "org.apache.http.client.HttpClient.execute(Lorg/apache/http/client/methods/HttpUriRequest;)Lorg/apache/http/HttpResponse;",
      "eventChain": [
        {
          "start": "com.jgong.cyc.ccrc.onReceive(Landroid/content/Context;Landroid/content/Intent;)V",
          "target": "invokevirtual \u003c Application, Lcom/jgong/cyc/ui/ah, setOnTouchListener(Landroid/view/View$OnTouchListener;)V \u003e@440",
          "type": "sms",
          "constraintsFile": "constraints60_0.py",
          "variables": {
            "System.currentTimeMillis()": "IAAv3",
            "\u003cChainedInput2\u003e.getAction()": "IAAv0",
            "\u003cSystemPrevTime\u003e": "IAAv4"
          },
          "stringMap": {
            "7000": "android.intent.action.PACKAGE_ADDED",
            "7001": "android.net.conn.CONNECTIVITY_CHANGE"
          },
          "strings": {
            "IAAv0": ""
          }
        },
        {
          "start": "com.jgong.cyc.u.onTouch(Landroid/view/View;Landroid/view/MotionEvent;)Z",
          "target": "invokeinterface \u003c Application, Lorg/apache/http/client/HttpClient, execute(Lorg/apache/http/client/methods/HttpUriRequest;)Lorg/apache/http/HttpResponse; \u003e@136",
          "type": "ui",
          "activities": [
            "gwj.fish.sric.android.WelActivity"
          ],
          "listener": "com.jgong.cyc.u",
          "listenerMethod": "onTouch",
          "uiType": "onTouch",
          "constraintsFile": "constraints60_1.py",
          "variables": {
            "\u003cChainedInput2\u003e.getAction()": "IAAv0"
          },
          "stringMap": {},
          "strings": {}
        }
      ]
    }
  }
}