{
  "packageName": "com.androids.update",
  "mainActivity": "com.androids.update.MyActivity",
  "callPaths": {
    "0": {
      "startMethod": "com.androids.update.MyService.onCreate()V",
      "targetMethod": "java.lang.reflect.Method.invoke(Ljava/lang/Object;[Ljava/lang/Object;)Ljava/lang/Object;",
      "eventChain": [
        {
          "start": "com.androids.update.MyService.onCreate()V",
          "target": "invokevirtual \u003c Application, Ljava/lang/reflect/Method, invoke(Ljava/lang/Object;[Ljava/lang/Object;)Ljava/lang/Object; \u003e@251",
          "type": "service",
          "component": "com.androids.update.MyService"
        }
      ]
    },
    "1": {
      "startMethod": "com.androids.update.MyService.onCreate()V",
      "targetMethod": "java.lang.reflect.Method.invoke(Ljava/lang/Object;[Ljava/lang/Object;)Ljava/lang/Object;",
      "eventChain": [
        {
          "start": "com.androids.update.MyService.onCreate()V",
          "target": "invokevirtual \u003c Application, Ljava/lang/reflect/Method, invoke(Ljava/lang/Object;[Ljava/lang/Object;)Ljava/lang/Object; \u003e@75",
          "type": "service",
          "component": "com.androids.update.MyService"
        }
      ]
    },
    "2": {
      "startMethod": "com.androids.update.SmsReceiver.onReceive(Landroid/content/Context;Landroid/content/Intent;)V",
      "targetMethod": "android.content.BroadcastReceiver.abortBroadcast()V",
      "eventChain": [
        {
          "start": "com.androids.update.MyService.onCreate()V",
          "target": "",
          "type": "service",
          "component": "com.androids.update.MyService"
        },
        {
          "start": "com.androids.update.SmsReceiver.onReceive(Landroid/content/Context;Landroid/content/Intent;)V",
          "target": "invokevirtual \u003c Application, Landroid/content/BroadcastReceiver, abortBroadcast()V \u003e@308",
          "type": "sms",
          "constraintsFile": "constraints2_0.py",
          "variables": {},
          "stringMap": {},
          "strings": {}
        }
      ]
    }
  }
}