{
  "packageName": "seniorprom.timer.iconosys",
  "mainActivity": "seniorprom.timer.iconosys.ContactsList",
  "callPaths": {
    "0": {
      "startMethod": "seniorprom.timer.iconosys.ChristmasTimer.onCreate(Landroid/os/Bundle;)V",
      "targetMethod": "org.apache.http.client.HttpClient.execute(Lorg/apache/http/client/methods/HttpUriRequest;)Lorg/apache/http/HttpResponse;",
      "eventChain": [
        {
          "start": "seniorprom.timer.iconosys.ChristmasTimer.onCreate(Landroid/os/Bundle;)V",
          "target": "invokeinterface \u003c Application, Lorg/apache/http/client/HttpClient, execute(Lorg/apache/http/client/methods/HttpUriRequest;)Lorg/apache/http/HttpResponse; \u003e@411",
          "type": "activity",
          "component": "seniorprom.timer.iconosys.ChristmasTimer",
          "constraintsFile": "constraints0_0.py",
          "variables": {},
          "stringMap": {},
          "strings": {}
        }
      ]
    },
    "1": {
      "startMethod": "seniorprom.timer.iconosys.ChristmasTimer.onCreate(Landroid/os/Bundle;)V",
      "targetMethod": "android.telephony.TelephonyManager.getLine1Number()Ljava/lang/String;",
      "eventChain": [
        {
          "start": "seniorprom.timer.iconosys.ChristmasTimer.onCreate(Landroid/os/Bundle;)V",
          "target": "invokevirtual \u003c Application, Landroid/telephony/TelephonyManager, getLine1Number()Ljava/lang/String; \u003e@127",
          "type": "activity",
          "component": "seniorprom.timer.iconosys.ChristmasTimer",
          "constraintsFile": "constraints1_0.py",
          "variables": {},
          "stringMap": {},
          "strings": {}
        }
      ]
    },
    "2": {
      "startMethod": "seniorprom.timer.iconosys.ChristmasTimer.onCreate(Landroid/os/Bundle;)V",
      "targetMethod": "android.telephony.TelephonyManager.getDeviceId()Ljava/lang/String;",
      "eventChain": [
        {
          "start": "seniorprom.timer.iconosys.ChristmasTimer.onCreate(Landroid/os/Bundle;)V",
          "target": "invokevirtual \u003c Application, Landroid/telephony/TelephonyManager, getDeviceId()Ljava/lang/String; \u003e@116",
          "type": "activity",
          "component": "seniorprom.timer.iconosys.ChristmasTimer",
          "constraintsFile": "constraints2_0.py",
          "variables": {},
          "stringMap": {},
          "strings": {}
        }
      ]
    },
    "3": {
      "startMethod": "seniorprom.timer.iconosys.ChristmasTimer.onCreate(Landroid/os/Bundle;)V",
      "targetMethod": "android.telephony.SmsManager.sendTextMessage(Ljava/lang/String;Ljava/lang/String;Ljava/lang/String;Landroid/app/PendingIntent;Landroid/app/PendingIntent;)V",
      "eventChain": [
        {
          "start": "seniorprom.timer.iconosys.ChristmasTimer.onCreate(Landroid/os/Bundle;)V",
          "target": "PC@133",
          "type": "activity",
          "component": "seniorprom.timer.iconosys.ChristmasTimer",
          "constraintsFile": "constraints3_0.py",
          "variables": {},
          "stringMap": {},
          "strings": {}
        },
        {
          "start": "seniorprom.timer.iconosys.ChristmasTimer.onCreate(Landroid/os/Bundle;)V",
          "target": "invokevirtual \u003c Application, Landroid/telephony/SmsManager, sendTextMessage(Ljava/lang/String;Ljava/lang/String;Ljava/lang/String;Landroid/app/PendingIntent;Landroid/app/PendingIntent;)V \u003e@283",
          "type": "activity",
          "component": "seniorprom.timer.iconosys.ChristmasTimer",
          "constraintsFile": "constraints3_1.py",
          "variables": {},
          "stringMap": {},
          "strings": {}
        }
      ]
    },
    "4": {
      "startMethod": "seniorprom.timer.iconosys.MessageService.onCreate()V",
      "targetMethod": "android.telephony.SmsManager.sendTextMessage(Ljava/lang/String;Ljava/lang/String;Ljava/lang/String;Landroid/app/PendingIntent;Landroid/app/PendingIntent;)V",
      "eventChain": [
        {
          "start": "seniorprom.timer.iconosys.MessageService.onCreate()V",
          "target": "invokevirtual \u003c Application, Landroid/telephony/SmsManager, sendTextMessage(Ljava/lang/String;Ljava/lang/String;Ljava/lang/String;Landroid/app/PendingIntent;Landroid/app/PendingIntent;)V \u003e@115",
          "type": "service",
          "component": "seniorprom.timer.iconosys.MessageService"
        }
      ]
    }
  }
}