{
  "packageName": "com.android.mmreader12",
  "mainActivity": "com.android.mmreader12.mmreader",
  "callPaths": {
    "0": {
      "startMethod": "com.adwo.adsdk.AdwoAdBrowserActivity.onCreate(Landroid/os/Bundle;)V",
      "targetMethod": "android.webkit.WebView.\u003cinit\u003e(Landroid/content/Context;)V",
      "eventChain": [
        {
          "start": "com.adwo.adsdk.AdwoAdBrowserActivity.onCreate(Landroid/os/Bundle;)V",
          "target": "invokespecial \u003c Application, Landroid/webkit/WebView, \u003cinit\u003e(Landroid/content/Context;)V \u003e@363",
          "type": "activity",
          "component": "com.adwo.adsdk.AdwoAdBrowserActivity",
          "constraintsFile": "constraints0_0.py",
          "variables": {},
          "stringMap": {},
          "strings": {}
        }
      ]
    },
    "1": {
      "startMethod": "com.android.mmreader12.mmreader.onCreate(Landroid/os/Bundle;)V",
      "targetMethod": "android.telephony.TelephonyManager.getLine1Number()Ljava/lang/String;",
      "eventChain": [
        {
          "start": "com.android.mmreader12.mmreader.onCreate(Landroid/os/Bundle;)V",
          "target": "invokevirtual \u003c Application, Landroid/telephony/TelephonyManager, getLine1Number()Ljava/lang/String; \u003e@171",
          "type": "activity",
          "component": "com.android.mmreader12.mmreader"
        }
      ]
    },
    "2": {
      "startMethod": "com.android.mmreader12.mmreader.onCreate(Landroid/os/Bundle;)V",
      "targetMethod": "android.telephony.TelephonyManager.getDeviceId()Ljava/lang/String;",
      "eventChain": [
        {
          "start": "com.android.mmreader12.mmreader.onCreate(Landroid/os/Bundle;)V",
          "target": "invokevirtual \u003c Application, Landroid/telephony/TelephonyManager, getDeviceId()Ljava/lang/String; \u003e@123",
          "type": "activity",
          "component": "com.android.mmreader12.mmreader"
        }
      ]
    },
    "3": {
      "startMethod": "com.android.mmreader12.mmreader.onCreate(Landroid/os/Bundle;)V",
      "targetMethod": "android.telephony.TelephonyManager.getSubscriberId()Ljava/lang/String;",
      "eventChain": [
        {
          "start": "com.android.mmreader12.mmreader.onCreate(Landroid/os/Bundle;)V",
          "target": "invokevirtual \u003c Application, Landroid/telephony/TelephonyManager, getSubscriberId()Ljava/lang/String; \u003e@147",
          "type": "activity",
          "component": "com.android.mmreader12.mmreader"
        }
      ]
    },
    "4": {
      "startMethod": "com.android.mmreader12.mmreader.onCreate(Landroid/os/Bundle;)V",
      "targetMethod": "java.net.URL.openConnection()Ljava/net/URLConnection;",
      "eventChain": [
        {
          "start": "com.android.mmreader12.mmreader.onCreate(Landroid/os/Bundle;)V",
          "target": "invokevirtual \u003c Application, Ljava/net/URL, openConnection()Ljava/net/URLConnection; \u003e@533",
          "type": "activity",
          "component": "com.android.mmreader12.mmreader",
          "constraintsFile": "constraints4_0.py",
          "variables": {},
          "stringMap": {
            "7000": ""
          },
          "strings": {
            "IAAv1": ""
          }
        }
      ]
    },
    "5": {
      "startMethod": "com.android.mmreader12.mmreader.onCreate(Landroid/os/Bundle;)V",
      "targetMethod": "java.net.HttpURLConnection.getInputStream()Ljava/io/InputStream;",
      "eventChain": [
        {
          "start": "com.android.mmreader12.mmreader.onCreate(Landroid/os/Bundle;)V",
          "target": "invokevirtual \u003c Application, Ljava/net/HttpURLConnection, getInputStream()Ljava/io/InputStream; \u003e@557",
          "type": "activity",
          "component": "com.android.mmreader12.mmreader",
          "constraintsFile": "constraints5_0.py",
          "variables": {},
          "stringMap": {
            "7000": ""
          },
          "strings": {
            "IAAv1": ""
          }
        }
      ]
    },
    "6": {
      "startMethod": "com.adwo.adsdk.I.shouldOverrideUrlLoading(Landroid/webkit/WebView;Ljava/lang/String;)Z",
      "targetMethod": "java.net.URL.openConnection()Ljava/net/URLConnection;",
      "eventChain": [
        {
          "start": "com.adwo.adsdk.AdwoAdBrowserActivity.onCreate(Landroid/os/Bundle;)V",
          "target": "invokespecial \u003c Application, Landroid/webkit/WebViewClient, \u003cinit\u003e()V \u003e@7",
          "type": "activity",
          "component": "com.adwo.adsdk.AdwoAdBrowserActivity",
          "constraintsFile": "constraints6_0.py",
          "variables": {},
          "stringMap": {},
          "strings": {}
        },
        {
          "start": "com.adwo.adsdk.I.shouldOverrideUrlLoading(Landroid/webkit/WebView;Ljava/lang/String;)Z",
          "target": "invokevirtual \u003c Application, Ljava/net/URL, openConnection()Ljava/net/URLConnection; \u003e@702",
          "type": "",
          "constraintsFile": "constraints6_1.py",
          "variables": {
            "\u003cInput2\u003e.parse().getScheme()": "IAAv2",
            "\u003cInput2\u003e": "IAAv0",
            "\u003cInput1\u003e.getContext()": "IAAv1"
          },
          "stringMap": {
            "7000": "tel",
            "7001": "sms",
            "7002": "market",
            "7003": "http://market.android.com",
            "7004": "https://market.android.com",
            "7005": "http",
            "7006": ".apk",
            "7007": ".jpeg",
            "7008": ".gif",
            "7009": ".png",
            "7010": ".jpg",
            "7011": ".bmp",
            "7012": ".3gp",
            "7013": ".mp3",
            "7014": ".mp4",
            "7015": ".mpeg",
            "7016": ".wav"
          },
          "strings": {
            "IAAv2": "",
            "IAAv0": ""
          }
        }
      ]
    },
    "7": {
      "startMethod": "com.adwo.adsdk.I.shouldOverrideUrlLoading(Landroid/webkit/WebView;Ljava/lang/String;)Z",
      "targetMethod": "java.net.HttpURLConnection.connect()V",
      "eventChain": [
        {
          "start": "com.adwo.adsdk.AdwoAdBrowserActivity.onCreate(Landroid/os/Bundle;)V",
          "target": "invokespecial \u003c Application, Landroid/webkit/WebViewClient, \u003cinit\u003e()V \u003e@7",
          "type": "activity",
          "component": "com.adwo.adsdk.AdwoAdBrowserActivity",
          "constraintsFile": "constraints7_0.py",
          "variables": {},
          "stringMap": {},
          "strings": {}
        },
        {
          "start": "com.adwo.adsdk.I.shouldOverrideUrlLoading(Landroid/webkit/WebView;Ljava/lang/String;)Z",
          "target": "invokevirtual \u003c Application, Ljava/net/HttpURLConnection, connect()V \u003e@722",
          "type": "",
          "constraintsFile": "constraints7_1.py",
          "variables": {
            "\u003cInput2\u003e.parse().getScheme()": "IAAv2",
            "\u003cInput2\u003e": "IAAv0",
            "\u003cInput1\u003e.getContext()": "IAAv1"
          },
          "stringMap": {
            "7000": "tel",
            "7001": "sms",
            "7002": "market",
            "7003": "http://market.android.com",
            "7004": "https://market.android.com",
            "7005": "http",
            "7006": ".apk",
            "7007": ".jpeg",
            "7008": ".gif",
            "7009": ".png",
            "7010": ".jpg",
            "7011": ".bmp",
            "7012": ".3gp",
            "7013": ".mp3",
            "7014": ".mp4",
            "7015": ".mpeg",
            "7016": ".wav"
          },
          "strings": {
            "IAAv2": "",
            "IAAv0": ""
          }
        }
      ]
    },
    "8": {
      "startMethod": "com.adwo.adsdk.I.onPageFinished(Landroid/webkit/WebView;Ljava/lang/String;)V",
      "targetMethod": "java.net.HttpURLConnection.connect()V",
      "eventChain": [
        {
          "start": "com.adwo.adsdk.AdwoAdBrowserActivity.onCreate(Landroid/os/Bundle;)V",
          "target": "invokespecial \u003c Application, Landroid/webkit/WebViewClient, \u003cinit\u003e()V \u003e@7",
          "type": "activity",
          "component": "com.adwo.adsdk.AdwoAdBrowserActivity",
          "constraintsFile": "constraints8_0.py",
          "variables": {},
          "stringMap": {},
          "strings": {}
        },
        {
          "start": "com.adwo.adsdk.I.onPageFinished(Landroid/webkit/WebView;Ljava/lang/String;)V",
          "target": "invokevirtual \u003c Application, Ljava/net/HttpURLConnection, connect()V \u003e@43",
          "type": "",
          "constraintsFile": "constraints8_1.py",
          "variables": {},
          "stringMap": {},
          "strings": {}
        }
      ]
    },
    "9": {
      "startMethod": "com.adwo.adsdk.I.onPageFinished(Landroid/webkit/WebView;Ljava/lang/String;)V",
      "targetMethod": "java.net.URL.openConnection()Ljava/net/URLConnection;",
      "eventChain": [
        {
          "start": "com.adwo.adsdk.AdwoAdBrowserActivity.onCreate(Landroid/os/Bundle;)V",
          "target": "invokespecial \u003c Application, Landroid/webkit/WebViewClient, \u003cinit\u003e()V \u003e@7",
          "type": "activity",
          "component": "com.adwo.adsdk.AdwoAdBrowserActivity",
          "constraintsFile": "constraints9_0.py",
          "variables": {},
          "stringMap": {},
          "strings": {}
        },
        {
          "start": "com.adwo.adsdk.I.onPageFinished(Landroid/webkit/WebView;Ljava/lang/String;)V",
          "target": "invokevirtual \u003c Application, Ljava/net/URL, openConnection()Ljava/net/URLConnection; \u003e@15",
          "type": "",
          "constraintsFile": "constraints9_1.py",
          "variables": {},
          "stringMap": {},
          "strings": {}
        }
      ]
    },
    "10": {
      "startMethod": "com.adwo.adsdk.AdwoAdView.onAttachedToWindow()V",
      "targetMethod": "java.net.URL.openConnection()Ljava/net/URLConnection;",
      "eventChain": [
        {
          "start": "com.android.mmreader12.readtext$3.handleMessage(Landroid/os/Message;)V",
          "target": "invokevirtual \u003c Application, Lcom/adwo/adsdk/AdwoAdView, setFocusable(Z)V \u003e@51",
          "type": "",
          "constraintsFile": "constraints10_0.py",
          "variables": {},
          "stringMap": {},
          "strings": {}
        },
        {
          "start": "com.adwo.adsdk.p.\u003cclinit\u003e()V",
          "target": "",
          "type": "",
          "constraintsFile": "constraints10_1.py",
          "variables": {},
          "stringMap": {},
          "strings": {}
        },
        {
          "start": "com.adwo.adsdk.AdwoAdView.onAttachedToWindow()V",
          "target": "invokevirtual \u003c Application, Ljava/net/URL, openConnection()Ljava/net/URLConnection; \u003e@386",
          "type": "ui",
          "activities": [
            "com.android.mmreader12.mmreader"
          ],
          "listener": "com.adwo.adsdk.AdwoAdView",
          "listenerMethod": "onAttachedToWindow",
          "uiType": "onAttachedToWindow",
          "constraintsFile": "constraints10_2.py",
          "variables": {},
          "stringMap": {},
          "strings": {}
        }
      ]
    },
    "11": {
      "startMethod": "com.adwo.adsdk.AdwoAdView.onAttachedToWindow()V",
      "targetMethod": "android.webkit.WebView.\u003cinit\u003e(Landroid/content/Context;)V",
      "eventChain": [
        {
          "start": "com.android.mmreader12.readtext$3.handleMessage(Landroid/os/Message;)V",
          "target": "invokevirtual \u003c Application, Lcom/adwo/adsdk/AdwoAdView, setFocusable(Z)V \u003e@51",
          "type": "",
          "constraintsFile": "constraints11_0.py",
          "variables": {},
          "stringMap": {},
          "strings": {}
        },
        {
          "start": "com.adwo.adsdk.AdwoAdView.onAttachedToWindow()V",
          "target": "invokespecial \u003c Application, Landroid/webkit/WebView, \u003cinit\u003e(Landroid/content/Context;)V \u003e@9",
          "type": "ui",
          "activities": [
            "com.android.mmreader12.mmreader"
          ],
          "listener": "com.adwo.adsdk.AdwoAdView",
          "listenerMethod": "onAttachedToWindow",
          "uiType": "onAttachedToWindow",
          "constraintsFile": "constraints11_1.py",
          "variables": {},
          "stringMap": {},
          "strings": {}
        }
      ]
    },
    "12": {
      "startMethod": "com.adwo.adsdk.AdwoAdView.onAttachedToWindow()V",
      "targetMethod": "java.net.HttpURLConnection.getInputStream()Ljava/io/InputStream;",
      "eventChain": [
        {
          "start": "com.android.mmreader12.readtext$3.handleMessage(Landroid/os/Message;)V",
          "target": "invokevirtual \u003c Application, Lcom/adwo/adsdk/AdwoAdView, setFocusable(Z)V \u003e@51",
          "type": "",
          "constraintsFile": "constraints12_0.py",
          "variables": {},
          "stringMap": {},
          "strings": {}
        },
        {
          "start": "com.adwo.adsdk.p.\u003cclinit\u003e()V",
          "target": "",
          "type": "",
          "constraintsFile": "constraints12_1.py",
          "variables": {},
          "stringMap": {},
          "strings": {}
        },
        {
          "start": "com.adwo.adsdk.AdwoAdView.onAttachedToWindow()V",
          "target": "invokevirtual \u003c Application, Ljava/net/HttpURLConnection, getInputStream()Ljava/io/InputStream; \u003e@1264",
          "type": "ui",
          "activities": [
            "com.android.mmreader12.mmreader"
          ],
          "listener": "com.adwo.adsdk.AdwoAdView",
          "listenerMethod": "onAttachedToWindow",
          "uiType": "onAttachedToWindow",
          "constraintsFile": "constraints12_2.py",
          "variables": {},
          "stringMap": {},
          "strings": {}
        }
      ]
    },
    "13": {
      "startMethod": "com.adwo.adsdk.AdwoAdView.onAttachedToWindow()V",
      "targetMethod": "java.net.HttpURLConnection.connect()V",
      "eventChain": [
        {
          "start": "com.android.mmreader12.readtext$3.handleMessage(Landroid/os/Message;)V",
          "target": "invokevirtual \u003c Application, Lcom/adwo/adsdk/AdwoAdView, setFocusable(Z)V \u003e@51",
          "type": "",
          "constraintsFile": "constraints13_0.py",
          "variables": {},
          "stringMap": {},
          "strings": {}
        },
        {
          "start": "com.adwo.adsdk.AdwoAdView.onAttachedToWindow()V",
          "target": "PC@19",
          "type": "ui",
          "activities": [
            "com.android.mmreader12.mmreader"
          ],
          "listener": "com.adwo.adsdk.AdwoAdView",
          "listenerMethod": "onAttachedToWindow",
          "uiType": "onAttachedToWindow",
          "constraintsFile": "constraints13_1.py",
          "variables": {},
          "stringMap": {},
          "strings": {
            "IAAv4": "",
            "IAAv5": ""
          }
        },
        {
          "start": "com.adwo.adsdk.AdwoAdView.onAttachedToWindow()V",
          "target": "PC@99",
          "type": "ui",
          "activities": [
            "com.android.mmreader12.mmreader"
          ],
          "listener": "com.adwo.adsdk.AdwoAdView",
          "listenerMethod": "onAttachedToWindow",
          "uiType": "onAttachedToWindow",
          "constraintsFile": "constraints13_2.py",
          "variables": {},
          "stringMap": {},
          "strings": {
            "IAAv4": "",
            "IAAv5": ""
          }
        },
        {
          "start": "com.adwo.adsdk.AdwoAdView.onAttachedToWindow()V",
          "target": "PC@25",
          "type": "ui",
          "activities": [
            "com.android.mmreader12.mmreader"
          ],
          "listener": "com.adwo.adsdk.AdwoAdView",
          "listenerMethod": "onAttachedToWindow",
          "uiType": "onAttachedToWindow",
          "constraintsFile": "constraints13_3.py",
          "variables": {},
          "stringMap": {},
          "strings": {}
        },
        {
          "start": "com.adwo.adsdk.AdwoAdView.onAttachedToWindow()V",
          "target": "invokevirtual \u003c Application, Ljava/net/HttpURLConnection, connect()V \u003e@55",
          "type": "ui",
          "activities": [
            "com.android.mmreader12.mmreader"
          ],
          "listener": "com.adwo.adsdk.AdwoAdView",
          "listenerMethod": "onAttachedToWindow",
          "uiType": "onAttachedToWindow",
          "constraintsFile": "constraints13_4.py",
          "variables": {},
          "stringMap": {},
          "strings": {
            "IAAv4": "",
            "IAAv5": ""
          }
        }
      ]
    },
    "14": {
      "startMethod": "com.adwo.adsdk.AdwoAdView.onAttachedToWindow()V",
      "targetMethod": "java.net.HttpURLConnection.getInputStream()Ljava/io/InputStream;",
      "eventChain": [
        {
          "start": "com.android.mmreader12.readtext$3.handleMessage(Landroid/os/Message;)V",
          "target": "invokevirtual \u003c Application, Lcom/adwo/adsdk/AdwoAdView, setFocusable(Z)V \u003e@51",
          "type": "",
          "constraintsFile": "constraints14_0.py",
          "variables": {},
          "stringMap": {},
          "strings": {}
        },
        {
          "start": "com.adwo.adsdk.AdwoAdView.onAttachedToWindow()V",
          "target": "PC@19",
          "type": "ui",
          "activities": [
            "com.android.mmreader12.mmreader"
          ],
          "listener": "com.adwo.adsdk.AdwoAdView",
          "listenerMethod": "onAttachedToWindow",
          "uiType": "onAttachedToWindow",
          "constraintsFile": "constraints14_1.py",
          "variables": {},
          "stringMap": {},
          "strings": {
            "IAAv4": "",
            "IAAv5": ""
          }
        },
        {
          "start": "com.adwo.adsdk.AdwoAdView.onAttachedToWindow()V",
          "target": "PC@99",
          "type": "ui",
          "activities": [
            "com.android.mmreader12.mmreader"
          ],
          "listener": "com.adwo.adsdk.AdwoAdView",
          "listenerMethod": "onAttachedToWindow",
          "uiType": "onAttachedToWindow",
          "constraintsFile": "constraints14_2.py",
          "variables": {},
          "stringMap": {},
          "strings": {
            "IAAv4": "",
            "IAAv5": ""
          }
        },
        {
          "start": "com.adwo.adsdk.AdwoAdView.onAttachedToWindow()V",
          "target": "PC@25",
          "type": "ui",
          "activities": [
            "com.android.mmreader12.mmreader"
          ],
          "listener": "com.adwo.adsdk.AdwoAdView",
          "listenerMethod": "onAttachedToWindow",
          "uiType": "onAttachedToWindow",
          "constraintsFile": "constraints14_3.py",
          "variables": {},
          "stringMap": {},
          "strings": {}
        },
        {
          "start": "com.adwo.adsdk.AdwoAdView.onAttachedToWindow()V",
          "target": "invokevirtual \u003c Application, Ljava/net/HttpURLConnection, getInputStream()Ljava/io/InputStream; \u003e@59",
          "type": "ui",
          "activities": [
            "com.android.mmreader12.mmreader"
          ],
          "listener": "com.adwo.adsdk.AdwoAdView",
          "listenerMethod": "onAttachedToWindow",
          "uiType": "onAttachedToWindow",
          "constraintsFile": "constraints14_4.py",
          "variables": {},
          "stringMap": {},
          "strings": {
            "IAAv4": "",
            "IAAv5": ""
          }
        }
      ]
    },
    "15": {
      "startMethod": "com.adwo.adsdk.AdwoAdView.onAttachedToWindow()V",
      "targetMethod": "java.net.URL.openConnection()Ljava/net/URLConnection;",
      "eventChain": [
        {
          "start": "com.android.mmreader12.readtext$3.handleMessage(Landroid/os/Message;)V",
          "target": "invokevirtual \u003c Application, Lcom/adwo/adsdk/AdwoAdView, setFocusable(Z)V \u003e@51",
          "type": "",
          "constraintsFile": "constraints15_0.py",
          "variables": {},
          "stringMap": {},
          "strings": {}
        },
        {
          "start": "com.adwo.adsdk.AdwoAdView.onAttachedToWindow()V",
          "target": "PC@19",
          "type": "ui",
          "activities": [
            "com.android.mmreader12.mmreader"
          ],
          "listener": "com.adwo.adsdk.AdwoAdView",
          "listenerMethod": "onAttachedToWindow",
          "uiType": "onAttachedToWindow",
          "constraintsFile": "constraints15_1.py",
          "variables": {},
          "stringMap": {},
          "strings": {
            "IAAv4": "",
            "IAAv5": ""
          }
        },
        {
          "start": "com.adwo.adsdk.AdwoAdView.onAttachedToWindow()V",
          "target": "PC@99",
          "type": "ui",
          "activities": [
            "com.android.mmreader12.mmreader"
          ],
          "listener": "com.adwo.adsdk.AdwoAdView",
          "listenerMethod": "onAttachedToWindow",
          "uiType": "onAttachedToWindow",
          "constraintsFile": "constraints15_2.py",
          "variables": {},
          "stringMap": {},
          "strings": {
            "IAAv4": "",
            "IAAv5": ""
          }
        },
        {
          "start": "com.adwo.adsdk.AdwoAdView.onAttachedToWindow()V",
          "target": "PC@25",
          "type": "ui",
          "activities": [
            "com.android.mmreader12.mmreader"
          ],
          "listener": "com.adwo.adsdk.AdwoAdView",
          "listenerMethod": "onAttachedToWindow",
          "uiType": "onAttachedToWindow",
          "constraintsFile": "constraints15_3.py",
          "variables": {},
          "stringMap": {},
          "strings": {}
        },
        {
          "start": "com.adwo.adsdk.AdwoAdView.onAttachedToWindow()V",
          "target": "invokevirtual \u003c Application, Ljava/net/URL, openConnection()Ljava/net/URLConnection; \u003e@14",
          "type": "ui",
          "activities": [
            "com.android.mmreader12.mmreader"
          ],
          "listener": "com.adwo.adsdk.AdwoAdView",
          "listenerMethod": "onAttachedToWindow",
          "uiType": "onAttachedToWindow",
          "constraintsFile": "constraints15_4.py",
          "variables": {},
          "stringMap": {},
          "strings": {
            "IAAv4": "",
            "IAAv5": ""
          }
        }
      ]
    },
    "16": {
      "startMethod": "com.adwo.adsdk.AdwoAdView.onAttachedToWindow()V",
      "targetMethod": "android.webkit.WebView.\u003cinit\u003e(Landroid/content/Context;)V",
      "eventChain": [
        {
          "start": "com.android.mmreader12.readtext$3.handleMessage(Landroid/os/Message;)V",
          "target": "invokevirtual \u003c Application, Lcom/adwo/adsdk/AdwoAdView, setFocusable(Z)V \u003e@51",
          "type": "",
          "constraintsFile": "constraints16_0.py",
          "variables": {},
          "stringMap": {},
          "strings": {}
        },
        {
          "start": "com.adwo.adsdk.AdwoAdView.onAttachedToWindow()V",
          "target": "invokespecial \u003c Application, Landroid/webkit/WebView, \u003cinit\u003e(Landroid/content/Context;)V \u003e@94",
          "type": "ui",
          "activities": [
            "com.android.mmreader12.mmreader"
          ],
          "listener": "com.adwo.adsdk.AdwoAdView",
          "listenerMethod": "onAttachedToWindow",
          "uiType": "onAttachedToWindow",
          "constraintsFile": "constraints16_1.py",
          "variables": {},
          "stringMap": {},
          "strings": {
            "IAAv4": "",
            "IAAv5": ""
          }
        }
      ]
    },
    "17": {
      "startMethod": "com.android.mmreader12.readtext$3.handleMessage(Landroid/os/Message;)V",
      "targetMethod": "android.net.wifi.WifiManager.getConnectionInfo()Landroid/net/wifi/WifiInfo;",
      "eventChain": [
        {
          "start": "com.android.mmreader12.readtext$3.handleMessage(Landroid/os/Message;)V",
          "target": "invokespecial \u003c Application, Landroid/os/Handler, handleMessage(Landroid/os/Message;)V \u003e@101",
          "type": "",
          "constraintsFile": "constraints17_0.py",
          "variables": {},
          "stringMap": {},
          "strings": {}
        },
        {
          "start": "com.android.mmreader12.readtext$3.handleMessage(Landroid/os/Message;)V",
          "target": "invokevirtual \u003c Application, Landroid/net/wifi/WifiManager, getConnectionInfo()Landroid/net/wifi/WifiInfo; \u003e@178",
          "type": "",
          "constraintsFile": "constraints17_1.py",
          "variables": {},
          "stringMap": {},
          "strings": {
            "IAAv6": ""
          }
        }
      ]
    },
    "18": {
      "startMethod": "com.android.mmreader12.readtext$3.handleMessage(Landroid/os/Message;)V",
      "targetMethod": "java.lang.reflect.Method.invoke(Ljava/lang/Object;[Ljava/lang/Object;)Ljava/lang/Object;",
      "eventChain": [
        {
          "start": "com.android.mmreader12.readtext$3.handleMessage(Landroid/os/Message;)V",
          "target": "invokespecial \u003c Application, Landroid/os/Handler, handleMessage(Landroid/os/Message;)V \u003e@101",
          "type": "",
          "constraintsFile": "constraints18_0.py",
          "variables": {},
          "stringMap": {},
          "strings": {}
        },
        {
          "start": "com.android.mmreader12.readtext$3.handleMessage(Landroid/os/Message;)V",
          "target": "invokevirtual \u003c Application, Ljava/lang/reflect/Method, invoke(Ljava/lang/Object;[Ljava/lang/Object;)Ljava/lang/Object; \u003e@688",
          "type": "",
          "constraintsFile": "constraints18_1.py",
          "variables": {},
          "stringMap": {
            "7000": ""
          },
          "strings": {
            "IAAv8": ""
          }
        }
      ]
    },
    "19": {
      "startMethod": "com.android.mmreader12.readtext$3.handleMessage(Landroid/os/Message;)V",
      "targetMethod": "java.lang.reflect.Method.invoke(Ljava/lang/Object;[Ljava/lang/Object;)Ljava/lang/Object;",
      "eventChain": [
        {
          "start": "com.android.mmreader12.readtext$3.handleMessage(Landroid/os/Message;)V",
          "target": "invokespecial \u003c Application, Landroid/os/Handler, handleMessage(Landroid/os/Message;)V \u003e@101",
          "type": "",
          "constraintsFile": "constraints19_0.py",
          "variables": {},
          "stringMap": {},
          "strings": {}
        },
        {
          "start": "com.android.mmreader12.readtext$3.handleMessage(Landroid/os/Message;)V",
          "target": "invokevirtual \u003c Application, Ljava/lang/reflect/Method, invoke(Ljava/lang/Object;[Ljava/lang/Object;)Ljava/lang/Object; \u003e@382",
          "type": "",
          "constraintsFile": "constraints19_1.py",
          "variables": {},
          "stringMap": {},
          "strings": {}
        }
      ]
    },
    "20": {
      "startMethod": "com.android.mmreader12.readtext$3.handleMessage(Landroid/os/Message;)V",
      "targetMethod": "android.telephony.TelephonyManager.getDeviceId()Ljava/lang/String;",
      "eventChain": [
        {
          "start": "com.android.mmreader12.readtext$3.handleMessage(Landroid/os/Message;)V",
          "target": "invokespecial \u003c Application, Landroid/os/Handler, handleMessage(Landroid/os/Message;)V \u003e@101",
          "type": "",
          "constraintsFile": "constraints20_0.py",
          "variables": {},
          "stringMap": {},
          "strings": {}
        },
        {
          "start": "com.android.mmreader12.readtext$3.handleMessage(Landroid/os/Message;)V",
          "target": "invokevirtual \u003c Application, Landroid/telephony/TelephonyManager, getDeviceId()Ljava/lang/String; \u003e@45",
          "type": "",
          "constraintsFile": "constraints20_1.py",
          "variables": {},
          "stringMap": {},
          "strings": {}
        }
      ]
    },
    "21": {
      "startMethod": "com.android.mmreader12.readtext$3.handleMessage(Landroid/os/Message;)V",
      "targetMethod": "java.lang.reflect.Method.invoke(Ljava/lang/Object;[Ljava/lang/Object;)Ljava/lang/Object;",
      "eventChain": [
        {
          "start": "com.android.mmreader12.readtext$3.handleMessage(Landroid/os/Message;)V",
          "target": "invokespecial \u003c Application, Landroid/os/Handler, handleMessage(Landroid/os/Message;)V \u003e@101",
          "type": "",
          "constraintsFile": "constraints21_0.py",
          "variables": {},
          "stringMap": {},
          "strings": {}
        },
        {
          "start": "com.android.mmreader12.readtext$3.handleMessage(Landroid/os/Message;)V",
          "target": "invokevirtual \u003c Application, Ljava/lang/reflect/Method, invoke(Ljava/lang/Object;[Ljava/lang/Object;)Ljava/lang/Object; \u003e@635",
          "type": "",
          "constraintsFile": "constraints21_1.py",
          "variables": {},
          "stringMap": {
            "7000": ""
          },
          "strings": {
            "IAAv8": ""
          }
        }
      ]
    },
    "22": {
      "startMethod": "com.android.mmreader12.readtext$3.handleMessage(Landroid/os/Message;)V",
      "targetMethod": "java.lang.reflect.Method.invoke(Ljava/lang/Object;[Ljava/lang/Object;)Ljava/lang/Object;",
      "eventChain": [
        {
          "start": "com.android.mmreader12.readtext$3.handleMessage(Landroid/os/Message;)V",
          "target": "invokespecial \u003c Application, Landroid/os/Handler, handleMessage(Landroid/os/Message;)V \u003e@101",
          "type": "",
          "constraintsFile": "constraints22_0.py",
          "variables": {},
          "stringMap": {},
          "strings": {}
        },
        {
          "start": "com.android.mmreader12.readtext$3.handleMessage(Landroid/os/Message;)V",
          "target": "invokevirtual \u003c Application, Ljava/lang/reflect/Method, invoke(Ljava/lang/Object;[Ljava/lang/Object;)Ljava/lang/Object; \u003e@502",
          "type": "",
          "constraintsFile": "constraints22_1.py",
          "variables": {},
          "stringMap": {},
          "strings": {}
        }
      ]
    },
    "23": {
      "startMethod": "com.android.mmreader12.readtext$3.handleMessage(Landroid/os/Message;)V",
      "targetMethod": "android.telephony.TelephonyManager.getLine1Number()Ljava/lang/String;",
      "eventChain": [
        {
          "start": "com.android.mmreader12.readtext$3.handleMessage(Landroid/os/Message;)V",
          "target": "invokespecial \u003c Application, Landroid/os/Handler, handleMessage(Landroid/os/Message;)V \u003e@101",
          "type": "",
          "constraintsFile": "constraints23_0.py",
          "variables": {},
          "stringMap": {},
          "strings": {}
        },
        {
          "start": "com.android.mmreader12.readtext$3.handleMessage(Landroid/os/Message;)V",
          "target": "invokevirtual \u003c Application, Landroid/telephony/TelephonyManager, getLine1Number()Ljava/lang/String; \u003e@14",
          "type": "",
          "constraintsFile": "constraints23_1.py",
          "variables": {},
          "stringMap": {
            "7000": "en",
            "7001": "zh",
            "7002": "ko",
            "7003": "fr",
            "7004": "es",
            "7005": "de",
            "7006": "it",
            "7007": "ja",
            "7008": "ru",
            "7009": "pt"
          },
          "strings": {
            "IAAv4": "",
            "IAAv15": ""
          }
        }
      ]
    },
    "24": {
      "startMethod": "com.android.mmreader12.readtext$3.handleMessage(Landroid/os/Message;)V",
      "targetMethod": "android.webkit.WebView.\u003cinit\u003e(Landroid/content/Context;)V",
      "eventChain": [
        {
          "start": "com.android.mmreader12.readtext$3.handleMessage(Landroid/os/Message;)V",
          "target": "invokespecial \u003c Application, Landroid/os/Handler, handleMessage(Landroid/os/Message;)V \u003e@101",
          "type": "",
          "constraintsFile": "constraints24_0.py",
          "variables": {},
          "stringMap": {},
          "strings": {}
        },
        {
          "start": "com.android.mmreader12.readtext$3.handleMessage(Landroid/os/Message;)V",
          "target": "invokespecial \u003c Application, Landroid/webkit/WebView, \u003cinit\u003e(Landroid/content/Context;)V \u003e@116",
          "type": "",
          "constraintsFile": "constraints24_1.py",
          "variables": {},
          "stringMap": {
            "7000": "en",
            "7001": "zh",
            "7002": "ko",
            "7003": "fr",
            "7004": "es",
            "7005": "de",
            "7006": "it",
            "7007": "ja",
            "7008": "ru",
            "7009": "pt"
          },
          "strings": {
            "IAAv4": "",
            "IAAv15": ""
          }
        }
      ]
    },
    "25": {
      "startMethod": "com.android.mmreader12.readtext$3.handleMessage(Landroid/os/Message;)V",
      "targetMethod": "dalvik.system.DexClassLoader.loadClass(Ljava/lang/String;)Ljava/lang/Class;",
      "eventChain": [
        {
          "start": "com.android.mmreader12.readtext$3.handleMessage(Landroid/os/Message;)V",
          "target": "invokespecial \u003c Application, Landroid/os/Handler, handleMessage(Landroid/os/Message;)V \u003e@101",
          "type": "",
          "constraintsFile": "constraints25_0.py",
          "variables": {},
          "stringMap": {},
          "strings": {}
        },
        {
          "start": "com.android.mmreader12.readtext$3.handleMessage(Landroid/os/Message;)V",
          "target": "invokevirtual \u003c Application, Ldalvik/system/DexClassLoader, loadClass(Ljava/lang/String;)Ljava/lang/Class; \u003e@146",
          "type": "",
          "constraintsFile": "constraints25_1.py",
          "variables": {},
          "stringMap": {},
          "strings": {}
        }
      ]
    },
    "26": {
      "startMethod": "com.android.mmreader12.readtext$3.handleMessage(Landroid/os/Message;)V",
      "targetMethod": "android.telephony.TelephonyManager.getSimSerialNumber()Ljava/lang/String;",
      "eventChain": [
        {
          "start": "com.android.mmreader12.readtext$3.handleMessage(Landroid/os/Message;)V",
          "target": "invokespecial \u003c Application, Landroid/os/Handler, handleMessage(Landroid/os/Message;)V \u003e@101",
          "type": "",
          "constraintsFile": "constraints26_0.py",
          "variables": {},
          "stringMap": {},
          "strings": {}
        },
        {
          "start": "com.android.mmreader12.readtext$3.handleMessage(Landroid/os/Message;)V",
          "target": "invokevirtual \u003c Application, Landroid/telephony/TelephonyManager, getSimSerialNumber()Ljava/lang/String; \u003e@132",
          "type": "",
          "constraintsFile": "constraints26_1.py",
          "variables": {},
          "stringMap": {
            "7000": "en",
            "7001": "zh",
            "7002": "ko",
            "7003": "fr",
            "7004": "es",
            "7005": "de",
            "7006": "it",
            "7007": "ja",
            "7008": "ru",
            "7009": "pt"
          },
          "strings": {
            "IAAv4": "",
            "IAAv15": ""
          }
        }
      ]
    },
    "27": {
      "startMethod": "com.adwo.adsdk.M.handleMessage(Landroid/os/Message;)V",
      "targetMethod": "android.webkit.WebView.\u003cinit\u003e(Landroid/content/Context;)V",
      "eventChain": [
        {
          "start": "com.android.mmreader12.readtext$3.handleMessage(Landroid/os/Message;)V",
          "target": "invokespecial \u003c Application, Landroid/os/Handler, \u003cinit\u003e()V \u003e@7",
          "type": "",
          "constraintsFile": "constraints27_0.py",
          "variables": {},
          "stringMap": {},
          "strings": {}
        },
        {
          "start": "com.adwo.adsdk.M.handleMessage(Landroid/os/Message;)V",
          "target": "invokespecial \u003c Application, Landroid/webkit/WebView, \u003cinit\u003e(Landroid/content/Context;)V \u003e@94",
          "type": "",
          "constraintsFile": "constraints27_1.py",
          "variables": {
            "\u003cChainedInput1\u003e.what": "IAAv0"
          },
          "stringMap": {},
          "strings": {}
        }
      ]
    },
    "28": {
      "startMethod": "com.adwo.adsdk.M.handleMessage(Landroid/os/Message;)V",
      "targetMethod": "java.net.HttpURLConnection.connect()V",
      "eventChain": [
        {
          "start": "com.android.mmreader12.readtext$3.handleMessage(Landroid/os/Message;)V",
          "target": "invokespecial \u003c Application, Landroid/os/Handler, \u003cinit\u003e()V \u003e@7",
          "type": "",
          "constraintsFile": "constraints28_0.py",
          "variables": {},
          "stringMap": {},
          "strings": {}
        },
        {
          "start": "com.adwo.adsdk.M.handleMessage(Landroid/os/Message;)V",
          "target": "invokevirtual \u003c Application, Ljava/net/HttpURLConnection, connect()V \u003e@55",
          "type": "",
          "constraintsFile": "constraints28_1.py",
          "variables": {
            "\u003cChainedInput1\u003e.what": "IAAv0"
          },
          "stringMap": {},
          "strings": {}
        }
      ]
    },
    "29": {
      "startMethod": "com.adwo.adsdk.M.handleMessage(Landroid/os/Message;)V",
      "targetMethod": "java.net.URL.openConnection()Ljava/net/URLConnection;",
      "eventChain": [
        {
          "start": "com.android.mmreader12.readtext$3.handleMessage(Landroid/os/Message;)V",
          "target": "invokespecial \u003c Application, Landroid/os/Handler, \u003cinit\u003e()V \u003e@7",
          "type": "",
          "constraintsFile": "constraints29_0.py",
          "variables": {},
          "stringMap": {},
          "strings": {}
        },
        {
          "start": "com.adwo.adsdk.M.handleMessage(Landroid/os/Message;)V",
          "target": "invokevirtual \u003c Application, Ljava/net/URL, openConnection()Ljava/net/URLConnection; \u003e@14",
          "type": "",
          "constraintsFile": "constraints29_1.py",
          "variables": {
            "\u003cChainedInput1\u003e.what": "IAAv0"
          },
          "stringMap": {},
          "strings": {}
        }
      ]
    },
    "30": {
      "startMethod": "com.adwo.adsdk.M.handleMessage(Landroid/os/Message;)V",
      "targetMethod": "java.net.URL.openConnection(Ljava/net/Proxy;)Ljava/net/URLConnection;",
      "eventChain": [
        {
          "start": "com.android.mmreader12.readtext$3.handleMessage(Landroid/os/Message;)V",
          "target": "invokespecial \u003c Application, Landroid/os/Handler, \u003cinit\u003e()V \u003e@7",
          "type": "",
          "constraintsFile": "constraints30_0.py",
          "variables": {},
          "stringMap": {},
          "strings": {}
        },
        {
          "start": "com.adwo.adsdk.M.handleMessage(Landroid/os/Message;)V",
          "target": "invokevirtual \u003c Application, Ljava/net/URL, openConnection(Ljava/net/Proxy;)Ljava/net/URLConnection; \u003e@1027",
          "type": "",
          "constraintsFile": "constraints30_1.py",
          "variables": {
            "\u003cChainedInput1\u003e.what": "IAAv0"
          },
          "stringMap": {},
          "strings": {}
        }
      ]
    },
    "31": {
      "startMethod": "com.adwo.adsdk.M.handleMessage(Landroid/os/Message;)V",
      "targetMethod": "java.net.HttpURLConnection.getInputStream()Ljava/io/InputStream;",
      "eventChain": [
        {
          "start": "com.android.mmreader12.readtext$3.handleMessage(Landroid/os/Message;)V",
          "target": "invokespecial \u003c Application, Landroid/os/Handler, \u003cinit\u003e()V \u003e@7",
          "type": "",
          "constraintsFile": "constraints31_0.py",
          "variables": {},
          "stringMap": {},
          "strings": {}
        },
        {
          "start": "com.adwo.adsdk.M.handleMessage(Landroid/os/Message;)V",
          "target": "invokevirtual \u003c Application, Ljava/net/HttpURLConnection, getInputStream()Ljava/io/InputStream; \u003e@59",
          "type": "",
          "constraintsFile": "constraints31_1.py",
          "variables": {
            "\u003cChainedInput1\u003e.what": "IAAv0"
          },
          "stringMap": {},
          "strings": {}
        }
      ]
    },
    "32": {
      "startMethod": "com.adwo.adsdk.M.handleMessage(Landroid/os/Message;)V",
      "targetMethod": "java.net.HttpURLConnection.getInputStream()Ljava/io/InputStream;",
      "eventChain": [
        {
          "start": "com.android.mmreader12.readtext$3.handleMessage(Landroid/os/Message;)V",
          "target": "invokespecial \u003c Application, Landroid/os/Handler, \u003cinit\u003e()V \u003e@7",
          "type": "",
          "constraintsFile": "constraints32_0.py",
          "variables": {},
          "stringMap": {},
          "strings": {}
        },
        {
          "start": "com.adwo.adsdk.M.handleMessage(Landroid/os/Message;)V",
          "target": "invokevirtual \u003c Application, Ljava/net/HttpURLConnection, getInputStream()Ljava/io/InputStream; \u003e@1264",
          "type": "",
          "constraintsFile": "constraints32_1.py",
          "variables": {
            "\u003cChainedInput1\u003e.what": "IAAv0"
          },
          "stringMap": {},
          "strings": {}
        }
      ]
    },
    "33": {
      "startMethod": "com.adwo.adsdk.M.handleMessage(Landroid/os/Message;)V",
      "targetMethod": "java.net.URL.openConnection()Ljava/net/URLConnection;",
      "eventChain": [
        {
          "start": "com.android.mmreader12.readtext$3.handleMessage(Landroid/os/Message;)V",
          "target": "invokespecial \u003c Application, Landroid/os/Handler, \u003cinit\u003e()V \u003e@7",
          "type": "",
          "constraintsFile": "constraints33_0.py",
          "variables": {},
          "stringMap": {},
          "strings": {}
        },
        {
          "start": "com.adwo.adsdk.M.handleMessage(Landroid/os/Message;)V",
          "target": "invokevirtual \u003c Application, Ljava/net/URL, openConnection()Ljava/net/URLConnection; \u003e@386",
          "type": "",
          "constraintsFile": "constraints33_1.py",
          "variables": {
            "\u003cChainedInput1\u003e.what": "IAAv0"
          },
          "stringMap": {},
          "strings": {}
        }
      ]
    },
    "34": {
      "startMethod": "com.adwo.adsdk.M.handleMessage(Landroid/os/Message;)V",
      "targetMethod": "java.net.URL.openConnection()Ljava/net/URLConnection;",
      "eventChain": [
        {
          "start": "com.android.mmreader12.readtext$3.handleMessage(Landroid/os/Message;)V",
          "target": "invokespecial \u003c Application, Landroid/os/Handler, \u003cinit\u003e()V \u003e@7",
          "type": "",
          "constraintsFile": "constraints34_0.py",
          "variables": {},
          "stringMap": {},
          "strings": {}
        },
        {
          "start": "com.adwo.adsdk.M.handleMessage(Landroid/os/Message;)V",
          "target": "invokevirtual \u003c Application, Ljava/net/URL, openConnection()Ljava/net/URLConnection; \u003e@688",
          "type": "",
          "constraintsFile": "constraints34_1.py",
          "variables": {
            "\u003cChainedInput1\u003e.what": "IAAv0"
          },
          "stringMap": {},
          "strings": {}
        }
      ]
    },
    "35": {
      "startMethod": "com.adwo.adsdk.M.handleMessage(Landroid/os/Message;)V",
      "targetMethod": "android.webkit.WebView.\u003cinit\u003e(Landroid/content/Context;)V",
      "eventChain": [
        {
          "start": "com.android.mmreader12.readtext$3.handleMessage(Landroid/os/Message;)V",
          "target": "invokespecial \u003c Application, Landroid/os/Handler, \u003cinit\u003e()V \u003e@7",
          "type": "",
          "constraintsFile": "constraints35_0.py",
          "variables": {},
          "stringMap": {},
          "strings": {}
        },
        {
          "start": "com.adwo.adsdk.M.handleMessage(Landroid/os/Message;)V",
          "target": "invokespecial \u003c Application, Landroid/webkit/WebView, \u003cinit\u003e(Landroid/content/Context;)V \u003e@9",
          "type": "",
          "constraintsFile": "constraints35_1.py",
          "variables": {
            "\u003cChainedInput1\u003e.what": "IAAv0"
          },
          "stringMap": {},
          "strings": {}
        }
      ]
    },
    "36": {
      "startMethod": "com.android.mmreader12.chartact$3.handleMessage(Landroid/os/Message;)V",
      "targetMethod": "java.lang.reflect.Method.invoke(Ljava/lang/Object;[Ljava/lang/Object;)Ljava/lang/Object;",
      "eventChain": [
        {
          "start": "com.android.mmreader12.chartact$3.handleMessage(Landroid/os/Message;)V",
          "target": "invokespecial \u003c Application, Landroid/os/Handler, handleMessage(Landroid/os/Message;)V \u003e@100",
          "type": "",
          "constraintsFile": "constraints36_0.py",
          "variables": {},
          "stringMap": {},
          "strings": {}
        },
        {
          "start": "com.android.mmreader12.chartact$3.handleMessage(Landroid/os/Message;)V",
          "target": "invokevirtual \u003c Application, Ljava/lang/reflect/Method, invoke(Ljava/lang/Object;[Ljava/lang/Object;)Ljava/lang/Object; \u003e@382",
          "type": "",
          "constraintsFile": "constraints36_1.py",
          "variables": {},
          "stringMap": {},
          "strings": {}
        }
      ]
    },
    "37": {
      "startMethod": "com.android.mmreader12.chartact$3.handleMessage(Landroid/os/Message;)V",
      "targetMethod": "android.net.wifi.WifiManager.getConnectionInfo()Landroid/net/wifi/WifiInfo;",
      "eventChain": [
        {
          "start": "com.android.mmreader12.chartact$3.handleMessage(Landroid/os/Message;)V",
          "target": "invokespecial \u003c Application, Landroid/os/Handler, handleMessage(Landroid/os/Message;)V \u003e@100",
          "type": "",
          "constraintsFile": "constraints37_0.py",
          "variables": {},
          "stringMap": {},
          "strings": {}
        },
        {
          "start": "com.android.mmreader12.chartact$3.handleMessage(Landroid/os/Message;)V",
          "target": "invokevirtual \u003c Application, Landroid/net/wifi/WifiManager, getConnectionInfo()Landroid/net/wifi/WifiInfo; \u003e@178",
          "type": "",
          "constraintsFile": "constraints37_1.py",
          "variables": {},
          "stringMap": {},
          "strings": {
            "IAAv5": ""
          }
        }
      ]
    },
    "38": {
      "startMethod": "com.android.mmreader12.chartact$3.handleMessage(Landroid/os/Message;)V",
      "targetMethod": "java.lang.reflect.Method.invoke(Ljava/lang/Object;[Ljava/lang/Object;)Ljava/lang/Object;",
      "eventChain": [
        {
          "start": "com.android.mmreader12.chartact$3.handleMessage(Landroid/os/Message;)V",
          "target": "invokespecial \u003c Application, Landroid/os/Handler, handleMessage(Landroid/os/Message;)V \u003e@100",
          "type": "",
          "constraintsFile": "constraints38_0.py",
          "variables": {},
          "stringMap": {},
          "strings": {}
        },
        {
          "start": "com.android.mmreader12.chartact$3.handleMessage(Landroid/os/Message;)V",
          "target": "invokevirtual \u003c Application, Ljava/lang/reflect/Method, invoke(Ljava/lang/Object;[Ljava/lang/Object;)Ljava/lang/Object; \u003e@688",
          "type": "",
          "constraintsFile": "constraints38_1.py",
          "variables": {},
          "stringMap": {
            "7000": ""
          },
          "strings": {
            "IAAv7": ""
          }
        }
      ]
    },
    "39": {
      "startMethod": "com.android.mmreader12.chartact$3.handleMessage(Landroid/os/Message;)V",
      "targetMethod": "java.lang.reflect.Method.invoke(Ljava/lang/Object;[Ljava/lang/Object;)Ljava/lang/Object;",
      "eventChain": [
        {
          "start": "com.android.mmreader12.chartact$3.handleMessage(Landroid/os/Message;)V",
          "target": "invokespecial \u003c Application, Landroid/os/Handler, handleMessage(Landroid/os/Message;)V \u003e@100",
          "type": "",
          "constraintsFile": "constraints39_0.py",
          "variables": {},
          "stringMap": {},
          "strings": {}
        },
        {
          "start": "com.android.mmreader12.chartact$3.handleMessage(Landroid/os/Message;)V",
          "target": "invokevirtual \u003c Application, Ljava/lang/reflect/Method, invoke(Ljava/lang/Object;[Ljava/lang/Object;)Ljava/lang/Object; \u003e@502",
          "type": "",
          "constraintsFile": "constraints39_1.py",
          "variables": {},
          "stringMap": {},
          "strings": {}
        }
      ]
    },
    "40": {
      "startMethod": "com.android.mmreader12.chartact$3.handleMessage(Landroid/os/Message;)V",
      "targetMethod": "android.telephony.TelephonyManager.getDeviceId()Ljava/lang/String;",
      "eventChain": [
        {
          "start": "com.android.mmreader12.chartact$3.handleMessage(Landroid/os/Message;)V",
          "target": "invokespecial \u003c Application, Landroid/os/Handler, handleMessage(Landroid/os/Message;)V \u003e@100",
          "type": "",
          "constraintsFile": "constraints40_0.py",
          "variables": {},
          "stringMap": {},
          "strings": {}
        },
        {
          "start": "com.android.mmreader12.chartact$3.handleMessage(Landroid/os/Message;)V",
          "target": "invokevirtual \u003c Application, Landroid/telephony/TelephonyManager, getDeviceId()Ljava/lang/String; \u003e@45",
          "type": "",
          "constraintsFile": "constraints40_1.py",
          "variables": {},
          "stringMap": {},
          "strings": {}
        }
      ]
    },
    "41": {
      "startMethod": "com.android.mmreader12.chartact$3.handleMessage(Landroid/os/Message;)V",
      "targetMethod": "dalvik.system.DexClassLoader.loadClass(Ljava/lang/String;)Ljava/lang/Class;",
      "eventChain": [
        {
          "start": "com.android.mmreader12.chartact$3.handleMessage(Landroid/os/Message;)V",
          "target": "invokespecial \u003c Application, Landroid/os/Handler, handleMessage(Landroid/os/Message;)V \u003e@100",
          "type": "",
          "constraintsFile": "constraints41_0.py",
          "variables": {},
          "stringMap": {},
          "strings": {}
        },
        {
          "start": "com.android.mmreader12.chartact$3.handleMessage(Landroid/os/Message;)V",
          "target": "invokevirtual \u003c Application, Ldalvik/system/DexClassLoader, loadClass(Ljava/lang/String;)Ljava/lang/Class; \u003e@146",
          "type": "",
          "constraintsFile": "constraints41_1.py",
          "variables": {},
          "stringMap": {},
          "strings": {}
        }
      ]
    },
    "42": {
      "startMethod": "com.android.mmreader12.chartact$3.handleMessage(Landroid/os/Message;)V",
      "targetMethod": "android.webkit.WebView.\u003cinit\u003e(Landroid/content/Context;)V",
      "eventChain": [
        {
          "start": "com.android.mmreader12.chartact$3.handleMessage(Landroid/os/Message;)V",
          "target": "invokespecial \u003c Application, Landroid/os/Handler, handleMessage(Landroid/os/Message;)V \u003e@100",
          "type": "",
          "constraintsFile": "constraints42_0.py",
          "variables": {},
          "stringMap": {},
          "strings": {}
        },
        {
          "start": "com.android.mmreader12.chartact$3.handleMessage(Landroid/os/Message;)V",
          "target": "invokespecial \u003c Application, Landroid/webkit/WebView, \u003cinit\u003e(Landroid/content/Context;)V \u003e@116",
          "type": "",
          "constraintsFile": "constraints42_1.py",
          "variables": {},
          "stringMap": {
            "7000": "en",
            "7001": "zh",
            "7002": "ko",
            "7003": "fr",
            "7004": "es",
            "7005": "de",
            "7006": "it",
            "7007": "ja",
            "7008": "ru",
            "7009": "pt"
          },
          "strings": {
            "IAAv3": "",
            "IAAv14": ""
          }
        }
      ]
    },
    "43": {
      "startMethod": "com.android.mmreader12.chartact$3.handleMessage(Landroid/os/Message;)V",
      "targetMethod": "android.telephony.TelephonyManager.getSimSerialNumber()Ljava/lang/String;",
      "eventChain": [
        {
          "start": "com.android.mmreader12.chartact$3.handleMessage(Landroid/os/Message;)V",
          "target": "invokespecial \u003c Application, Landroid/os/Handler, handleMessage(Landroid/os/Message;)V \u003e@100",
          "type": "",
          "constraintsFile": "constraints43_0.py",
          "variables": {},
          "stringMap": {},
          "strings": {}
        },
        {
          "start": "com.android.mmreader12.chartact$3.handleMessage(Landroid/os/Message;)V",
          "target": "invokevirtual \u003c Application, Landroid/telephony/TelephonyManager, getSimSerialNumber()Ljava/lang/String; \u003e@132",
          "type": "",
          "constraintsFile": "constraints43_1.py",
          "variables": {},
          "stringMap": {
            "7000": "en",
            "7001": "zh",
            "7002": "ko",
            "7003": "fr",
            "7004": "es",
            "7005": "de",
            "7006": "it",
            "7007": "ja",
            "7008": "ru",
            "7009": "pt"
          },
          "strings": {
            "IAAv3": "",
            "IAAv14": ""
          }
        }
      ]
    },
    "44": {
      "startMethod": "com.android.mmreader12.chartact$3.handleMessage(Landroid/os/Message;)V",
      "targetMethod": "java.lang.reflect.Method.invoke(Ljava/lang/Object;[Ljava/lang/Object;)Ljava/lang/Object;",
      "eventChain": [
        {
          "start": "com.android.mmreader12.chartact$3.handleMessage(Landroid/os/Message;)V",
          "target": "invokespecial \u003c Application, Landroid/os/Handler, handleMessage(Landroid/os/Message;)V \u003e@100",
          "type": "",
          "constraintsFile": "constraints44_0.py",
          "variables": {},
          "stringMap": {},
          "strings": {}
        },
        {
          "start": "com.android.mmreader12.chartact$3.handleMessage(Landroid/os/Message;)V",
          "target": "invokevirtual \u003c Application, Ljava/lang/reflect/Method, invoke(Ljava/lang/Object;[Ljava/lang/Object;)Ljava/lang/Object; \u003e@635",
          "type": "",
          "constraintsFile": "constraints44_1.py",
          "variables": {},
          "stringMap": {
            "7000": ""
          },
          "strings": {
            "IAAv7": ""
          }
        }
      ]
    },
    "45": {
      "startMethod": "com.android.mmreader12.chartact$3.handleMessage(Landroid/os/Message;)V",
      "targetMethod": "android.telephony.TelephonyManager.getLine1Number()Ljava/lang/String;",
      "eventChain": [
        {
          "start": "com.android.mmreader12.chartact$3.handleMessage(Landroid/os/Message;)V",
          "target": "invokespecial \u003c Application, Landroid/os/Handler, handleMessage(Landroid/os/Message;)V \u003e@100",
          "type": "",
          "constraintsFile": "constraints45_0.py",
          "variables": {},
          "stringMap": {},
          "strings": {}
        },
        {
          "start": "com.android.mmreader12.chartact$3.handleMessage(Landroid/os/Message;)V",
          "target": "invokevirtual \u003c Application, Landroid/telephony/TelephonyManager, getLine1Number()Ljava/lang/String; \u003e@14",
          "type": "",
          "constraintsFile": "constraints45_1.py",
          "variables": {},
          "stringMap": {
            "7000": "en",
            "7001": "zh",
            "7002": "ko",
            "7003": "fr",
            "7004": "es",
            "7005": "de",
            "7006": "it",
            "7007": "ja",
            "7008": "ru",
            "7009": "pt"
          },
          "strings": {
            "IAAv3": "",
            "IAAv14": ""
          }
        }
      ]
    },
    "46": {
      "startMethod": "c.onClick(Landroid/view/View;)V",
      "targetMethod": "android.webkit.WebView.\u003cinit\u003e(Landroid/content/Context;)V",
      "eventChain": [
        {
          "start": "c.onClick(Landroid/view/View;)V",
          "target": "invokespecial \u003c Application, Landroid/webkit/WebView, \u003cinit\u003e(Landroid/content/Context;)V \u003e@116",
          "type": "ui",
          "activities": [
            "com.android.mmreader12.mmreader"
          ],
          "listener": "c",
          "listenerMethod": "onClick",
          "uiType": "onClick",
          "constraintsFile": "constraints46_0.py",
          "variables": {},
          "stringMap": {
            "7000": "en",
            "7001": "zh",
            "7002": "ko",
            "7003": "fr",
            "7004": "es",
            "7005": "de",
            "7006": "it",
            "7007": "ja",
            "7008": "ru",
            "7009": "pt"
          },
          "strings": {
            "IAAv17": "",
            "IAAv6": ""
          }
        }
      ]
    },
    "47": {
      "startMethod": "c.onClick(Landroid/view/View;)V",
      "targetMethod": "dalvik.system.DexClassLoader.loadClass(Ljava/lang/String;)Ljava/lang/Class;",
      "eventChain": [
        {
          "start": "c.onClick(Landroid/view/View;)V",
          "target": "invokevirtual \u003c Application, Ldalvik/system/DexClassLoader, loadClass(Ljava/lang/String;)Ljava/lang/Class; \u003e@146",
          "type": "ui",
          "activities": [
            "com.android.mmreader12.mmreader"
          ],
          "listener": "c",
          "listenerMethod": "onClick",
          "uiType": "onClick",
          "constraintsFile": "constraints47_0.py",
          "variables": {},
          "stringMap": {},
          "strings": {}
        }
      ]
    },
    "48": {
      "startMethod": "c.onClick(Landroid/view/View;)V",
      "targetMethod": "android.webkit.WebView.\u003cinit\u003e(Landroid/content/Context;)V",
      "eventChain": [
        {
          "start": "j.\u003cclinit\u003e()V",
          "target": "",
          "type": "",
          "constraintsFile": "constraints48_0.py",
          "variables": {},
          "stringMap": {},
          "strings": {}
        },
        {
          "start": "c.onClick(Landroid/view/View;)V",
          "target": "invokespecial \u003c Application, Landroid/webkit/WebView, \u003cinit\u003e(Landroid/content/Context;)V \u003e@848",
          "type": "ui",
          "activities": [
            "com.android.mmreader12.mmreader"
          ],
          "listener": "c",
          "listenerMethod": "onClick",
          "uiType": "onClick",
          "constraintsFile": "constraints48_1.py",
          "variables": {},
          "stringMap": {},
          "strings": {}
        }
      ]
    },
    "49": {
      "startMethod": "c.onClick(Landroid/view/View;)V",
      "targetMethod": "java.lang.reflect.Method.invoke(Ljava/lang/Object;[Ljava/lang/Object;)Ljava/lang/Object;",
      "eventChain": [
        {
          "start": "c.onClick(Landroid/view/View;)V",
          "target": "invokevirtual \u003c Application, Ljava/lang/reflect/Method, invoke(Ljava/lang/Object;[Ljava/lang/Object;)Ljava/lang/Object; \u003e@382",
          "type": "ui",
          "activities": [
            "com.android.mmreader12.mmreader"
          ],
          "listener": "c",
          "listenerMethod": "onClick",
          "uiType": "onClick",
          "constraintsFile": "constraints49_0.py",
          "variables": {},
          "stringMap": {},
          "strings": {}
        }
      ]
    },
    "50": {
      "startMethod": "c.onClick(Landroid/view/View;)V",
      "targetMethod": "java.lang.reflect.Method.invoke(Ljava/lang/Object;[Ljava/lang/Object;)Ljava/lang/Object;",
      "eventChain": [
        {
          "start": "c.onClick(Landroid/view/View;)V",
          "target": "invokevirtual \u003c Application, Ljava/lang/reflect/Method, invoke(Ljava/lang/Object;[Ljava/lang/Object;)Ljava/lang/Object; \u003e@502",
          "type": "ui",
          "activities": [
            "com.android.mmreader12.mmreader"
          ],
          "listener": "c",
          "listenerMethod": "onClick",
          "uiType": "onClick",
          "constraintsFile": "constraints50_0.py",
          "variables": {},
          "stringMap": {},
          "strings": {}
        }
      ]
    },
    "51": {
      "startMethod": "c.onClick(Landroid/view/View;)V",
      "targetMethod": "android.net.wifi.WifiManager.getConnectionInfo()Landroid/net/wifi/WifiInfo;",
      "eventChain": [
        {
          "start": "c.onClick(Landroid/view/View;)V",
          "target": "invokevirtual \u003c Application, Landroid/net/wifi/WifiManager, getConnectionInfo()Landroid/net/wifi/WifiInfo; \u003e@178",
          "type": "ui",
          "activities": [
            "com.android.mmreader12.mmreader"
          ],
          "listener": "c",
          "listenerMethod": "onClick",
          "uiType": "onClick",
          "constraintsFile": "constraints51_0.py",
          "variables": {},
          "stringMap": {},
          "strings": {
            "IAAv8": ""
          }
        }
      ]
    },
    "52": {
      "startMethod": "c.onClick(Landroid/view/View;)V",
      "targetMethod": "android.telephony.TelephonyManager.getSimSerialNumber()Ljava/lang/String;",
      "eventChain": [
        {
          "start": "c.onClick(Landroid/view/View;)V",
          "target": "invokevirtual \u003c Application, Landroid/telephony/TelephonyManager, getSimSerialNumber()Ljava/lang/String; \u003e@132",
          "type": "ui",
          "activities": [
            "com.android.mmreader12.mmreader"
          ],
          "listener": "c",
          "listenerMethod": "onClick",
          "uiType": "onClick",
          "constraintsFile": "constraints52_0.py",
          "variables": {},
          "stringMap": {
            "7000": "en",
            "7001": "zh",
            "7002": "ko",
            "7003": "fr",
            "7004": "es",
            "7005": "de",
            "7006": "it",
            "7007": "ja",
            "7008": "ru",
            "7009": "pt"
          },
          "strings": {
            "IAAv17": "",
            "IAAv6": ""
          }
        }
      ]
    },
    "53": {
      "startMethod": "c.onClick(Landroid/view/View;)V",
      "targetMethod": "android.telephony.TelephonyManager.getDeviceId()Ljava/lang/String;",
      "eventChain": [
        {
          "start": "c.onClick(Landroid/view/View;)V",
          "target": "invokevirtual \u003c Application, Landroid/telephony/TelephonyManager, getDeviceId()Ljava/lang/String; \u003e@45",
          "type": "ui",
          "activities": [
            "com.android.mmreader12.mmreader"
          ],
          "listener": "c",
          "listenerMethod": "onClick",
          "uiType": "onClick",
          "constraintsFile": "constraints53_0.py",
          "variables": {},
          "stringMap": {},
          "strings": {}
        }
      ]
    },
    "54": {
      "startMethod": "c.onClick(Landroid/view/View;)V",
      "targetMethod": "java.lang.reflect.Method.invoke(Ljava/lang/Object;[Ljava/lang/Object;)Ljava/lang/Object;",
      "eventChain": [
        {
          "start": "c.onClick(Landroid/view/View;)V",
          "target": "invokevirtual \u003c Application, Ljava/lang/reflect/Method, invoke(Ljava/lang/Object;[Ljava/lang/Object;)Ljava/lang/Object; \u003e@688",
          "type": "ui",
          "activities": [
            "com.android.mmreader12.mmreader"
          ],
          "listener": "c",
          "listenerMethod": "onClick",
          "uiType": "onClick",
          "constraintsFile": "constraints54_0.py",
          "variables": {},
          "stringMap": {
            "7000": ""
          },
          "strings": {
            "IAAv10": ""
          }
        }
      ]
    },
    "55": {
      "startMethod": "c.onClick(Landroid/view/View;)V",
      "targetMethod": "java.lang.reflect.Method.invoke(Ljava/lang/Object;[Ljava/lang/Object;)Ljava/lang/Object;",
      "eventChain": [
        {
          "start": "c.onClick(Landroid/view/View;)V",
          "target": "invokevirtual \u003c Application, Ljava/lang/reflect/Method, invoke(Ljava/lang/Object;[Ljava/lang/Object;)Ljava/lang/Object; \u003e@635",
          "type": "ui",
          "activities": [
            "com.android.mmreader12.mmreader"
          ],
          "listener": "c",
          "listenerMethod": "onClick",
          "uiType": "onClick",
          "constraintsFile": "constraints55_0.py",
          "variables": {},
          "stringMap": {
            "7000": ""
          },
          "strings": {
            "IAAv10": ""
          }
        }
      ]
    },
    "56": {
      "startMethod": "c.onClick(Landroid/view/View;)V",
      "targetMethod": "android.telephony.TelephonyManager.getLine1Number()Ljava/lang/String;",
      "eventChain": [
        {
          "start": "c.onClick(Landroid/view/View;)V",
          "target": "invokevirtual \u003c Application, Landroid/telephony/TelephonyManager, getLine1Number()Ljava/lang/String; \u003e@14",
          "type": "ui",
          "activities": [
            "com.android.mmreader12.mmreader"
          ],
          "listener": "c",
          "listenerMethod": "onClick",
          "uiType": "onClick",
          "constraintsFile": "constraints56_0.py",
          "variables": {},
          "stringMap": {
            "7000": "en",
            "7001": "zh",
            "7002": "ko",
            "7003": "fr",
            "7004": "es",
            "7005": "de",
            "7006": "it",
            "7007": "ja",
            "7008": "ru",
            "7009": "pt"
          },
          "strings": {
            "IAAv17": "",
            "IAAv6": ""
          }
        }
      ]
    },
    "57": {
      "startMethod": "com.adwo.adsdk.K.run()V",
      "targetMethod": "android.app.NotificationManager.notify(ILandroid/app/Notification;)V",
      "eventChain": [
        {
          "start": "com.adwo.adsdk.I.shouldOverrideUrlLoading(Landroid/webkit/WebView;Ljava/lang/String;)Z",
          "target": "PC@8",
          "type": "",
          "constraintsFile": "constraints57_0.py",
          "variables": {
            "\u003cInput2\u003e.parse().getScheme()": "IAAv7",
            "\u003cInput2\u003e": "IAAv5",
            "\u003cInput1\u003e.getContext()": "IAAv6"
          },
          "stringMap": {
            "7000": "tel",
            "7001": "sms",
            "7002": "market",
            "7003": "http://market.android.com",
            "7004": "https://market.android.com",
            "7005": "http",
            "7006": ".apk",
            "7007": ".jpeg",
            "7008": ".gif",
            "7009": ".png",
            "7010": ".jpg",
            "7011": ".bmp"
          },
          "strings": {
            "IAAv7": "",
            "IAAv5": ""
          }
        },
        {
          "start": "com.adwo.adsdk.K.run()V",
          "target": "invokevirtual \u003c Application, Landroid/app/NotificationManager, notify(ILandroid/app/Notification;)V \u003e@655",
          "type": "",
          "constraintsFile": "constraints57_1.py",
          "variables": {},
          "stringMap": {},
          "strings": {}
        }
      ]
    },
    "58": {
      "startMethod": "com.adwo.adsdk.K.run()V",
      "targetMethod": "org.apache.http.client.HttpClient.execute(Lorg/apache/http/client/methods/HttpUriRequest;)Lorg/apache/http/HttpResponse;",
      "eventChain": [
        {
          "start": "com.adwo.adsdk.I.shouldOverrideUrlLoading(Landroid/webkit/WebView;Ljava/lang/String;)Z",
          "target": "PC@8",
          "type": "",
          "constraintsFile": "constraints58_0.py",
          "variables": {
            "\u003cInput2\u003e.parse().getScheme()": "IAAv6",
            "\u003cInput2\u003e": "IAAv4",
            "\u003cInput1\u003e.getContext()": "IAAv5"
          },
          "stringMap": {
            "7000": "tel",
            "7001": "sms",
            "7002": "market",
            "7003": "http://market.android.com",
            "7004": "https://market.android.com",
            "7005": "http",
            "7006": ".apk",
            "7007": ".jpeg",
            "7008": ".gif",
            "7009": ".png",
            "7010": ".jpg",
            "7011": ".bmp"
          },
          "strings": {
            "IAAv4": "",
            "IAAv6": ""
          }
        },
        {
          "start": "com.adwo.adsdk.K.run()V",
          "target": "invokeinterface \u003c Application, Lorg/apache/http/client/HttpClient, execute(Lorg/apache/http/client/methods/HttpUriRequest;)Lorg/apache/http/HttpResponse; \u003e@173",
          "type": "",
          "constraintsFile": "constraints58_1.py",
          "variables": {},
          "stringMap": {},
          "strings": {}
        }
      ]
    },
    "59": {
      "startMethod": "i.run()V",
      "targetMethod": "org.apache.http.client.HttpClient.execute(Lorg/apache/http/client/methods/HttpUriRequest;)Lorg/apache/http/HttpResponse;",
      "eventChain": [
        {
          "start": "i.run()V",
          "target": "invokeinterface \u003c Application, Lorg/apache/http/client/HttpClient, execute(Lorg/apache/http/client/methods/HttpUriRequest;)Lorg/apache/http/HttpResponse; \u003e@141",
          "type": ""
        }
      ]
    },
    "60": {
      "startMethod": "com.adwo.adsdk.AdwoSplashAdActivity.onCreate(Landroid/os/Bundle;)V",
      "targetMethod": "android.webkit.WebView.\u003cinit\u003e(Landroid/content/Context;)V",
      "eventChain": [
        {
          "start": "com.adwo.adsdk.AdwoSplashAdActivity.onCreate(Landroid/os/Bundle;)V",
          "target": "invokespecial \u003c Application, Landroid/webkit/WebView, \u003cinit\u003e(Landroid/content/Context;)V \u003e@363",
          "type": "activity",
          "component": "com.adwo.adsdk.AdwoSplashAdActivity",
          "constraintsFile": "constraints60_0.py",
          "variables": {},
          "stringMap": {},
          "strings": {}
        }
      ]
    },
    "61": {
      "startMethod": "com.adwo.adsdk.l.run()V",
      "targetMethod": "java.net.URL.openConnection()Ljava/net/URLConnection;",
      "eventChain": [
        {
          "start": "com.adwo.adsdk.l.run()V",
          "target": "invokevirtual \u003c Application, Ljava/net/URL, openConnection()Ljava/net/URLConnection; \u003e@179",
          "type": "",
          "constraintsFile": "constraints61_0.py",
          "variables": {
            "DateFormat(yyyyMMddHHmmss).g": "IAAv2",
            "DateFormat(yyyyMMddHHmmss).c": "IAAv3"
          },
          "stringMap": {},
          "strings": {}
        }
      ]
    },
    "62": {
      "startMethod": "com.adwo.adsdk.l.run()V",
      "targetMethod": "java.net.HttpURLConnection.getInputStream()Ljava/io/InputStream;",
      "eventChain": [
        {
          "start": "com.adwo.adsdk.l.run()V",
          "target": "invokevirtual \u003c Application, Ljava/net/HttpURLConnection, getInputStream()Ljava/io/InputStream; \u003e@59",
          "type": "",
          "constraintsFile": "constraints62_0.py",
          "variables": {},
          "stringMap": {},
          "strings": {
            "IAAv1": ""
          }
        }
      ]
    },
    "63": {
      "startMethod": "com.adwo.adsdk.l.run()V",
      "targetMethod": "java.net.HttpURLConnection.connect()V",
      "eventChain": [
        {
          "start": "com.adwo.adsdk.l.run()V",
          "target": "invokevirtual \u003c Application, Ljava/net/HttpURLConnection, connect()V \u003e@55",
          "type": "",
          "constraintsFile": "constraints63_0.py",
          "variables": {},
          "stringMap": {},
          "strings": {
            "IAAv1": ""
          }
        }
      ]
    },
    "64": {
      "startMethod": "com.adwo.adsdk.l.run()V",
      "targetMethod": "java.net.URLConnection.connect()V",
      "eventChain": [
        {
          "start": "com.adwo.adsdk.l.run()V",
          "target": "invokevirtual \u003c Application, Ljava/net/URLConnection, connect()V \u003e@206",
          "type": "",
          "constraintsFile": "constraints64_0.py",
          "variables": {
            "DateFormat(yyyyMMddHHmmss).g": "IAAv2",
            "DateFormat(yyyyMMddHHmmss).c": "IAAv3",
            "DateFormat(yyyyMMddHHmmss).f": "IAAv6",
            "DateFormat(yyyyMMddHHmmss).e": "IAAv5",
            "DateFormat(yyyyMMddHHmmss).d": "IAAv4"
          },
          "stringMap": {},
          "strings": {}
        }
      ]
    },
    "65": {
      "startMethod": "com.adwo.adsdk.l.run()V",
      "targetMethod": "java.net.URL.openConnection(Ljava/net/Proxy;)Ljava/net/URLConnection;",
      "eventChain": [
        {
          "start": "com.adwo.adsdk.l.run()V",
          "target": "invokevirtual \u003c Application, Ljava/net/URL, openConnection(Ljava/net/Proxy;)Ljava/net/URLConnection; \u003e@541",
          "type": "",
          "constraintsFile": "constraints65_0.py",
          "variables": {
            "DateFormat(yyyyMMddHHmmss).g": "IAAv2",
            "DateFormat(yyyyMMddHHmmss).c": "IAAv3",
            "DateFormat(yyyyMMddHHmmss).e": "IAAv5",
            "DateFormat(yyyyMMddHHmmss).d": "IAAv4"
          },
          "stringMap": {},
          "strings": {}
        }
      ]
    },
    "66": {
      "startMethod": "com.adwo.adsdk.l.run()V",
      "targetMethod": "java.net.URLConnection.getInputStream()Ljava/io/InputStream;",
      "eventChain": [
        {
          "start": "com.adwo.adsdk.l.run()V",
          "target": "invokevirtual \u003c Application, Ljava/net/URLConnection, getInputStream()Ljava/io/InputStream; \u003e@820",
          "type": "",
          "constraintsFile": "constraints66_0.py",
          "variables": {
            "DateFormat(yyyyMMddHHmmss).g": "IAAv2",
            "DateFormat(yyyyMMddHHmmss).c": "IAAv3",
            "DateFormat(yyyyMMddHHmmss).f": "IAAv6",
            "DateFormat(yyyyMMddHHmmss).e": "IAAv5",
            "DateFormat(yyyyMMddHHmmss).d": "IAAv4"
          },
          "stringMap": {},
          "strings": {}
        }
      ]
    },
    "67": {
      "startMethod": "com.adwo.adsdk.l.run()V",
      "targetMethod": "java.net.URL.openConnection()Ljava/net/URLConnection;",
      "eventChain": [
        {
          "start": "com.adwo.adsdk.l.run()V",
          "target": "invokevirtual \u003c Application, Ljava/net/URL, openConnection()Ljava/net/URLConnection; \u003e@14",
          "type": "",
          "constraintsFile": "constraints67_0.py",
          "variables": {},
          "stringMap": {},
          "strings": {
            "IAAv1": ""
          }
        }
      ]
    },
    "68": {
      "startMethod": "com.adwo.adsdk.l.run()V",
      "targetMethod": "java.net.URL.openConnection(Ljava/net/Proxy;)Ljava/net/URLConnection;",
      "eventChain": [
        {
          "start": "com.adwo.adsdk.l.run()V",
          "target": "invokevirtual \u003c Application, Ljava/net/URL, openConnection(Ljava/net/Proxy;)Ljava/net/URLConnection; \u003e@709",
          "type": "",
          "constraintsFile": "constraints68_0.py",
          "variables": {
            "DateFormat(yyyyMMddHHmmss).g": "IAAv2",
            "DateFormat(yyyyMMddHHmmss).c": "IAAv3",
            "DateFormat(yyyyMMddHHmmss).f": "IAAv6",
            "DateFormat(yyyyMMddHHmmss).e": "IAAv5",
            "DateFormat(yyyyMMddHHmmss).d": "IAAv4"
          },
          "stringMap": {},
          "strings": {}
        }
      ]
    },
    "69": {
      "startMethod": "com.adwo.adsdk.J.run()V",
      "targetMethod": "android.app.NotificationManager.notify(ILandroid/app/Notification;)V",
      "eventChain": [
        {
          "start": "com.adwo.adsdk.I.shouldOverrideUrlLoading(Landroid/webkit/WebView;Ljava/lang/String;)Z",
          "target": "PC@8",
          "type": "",
          "constraintsFile": "constraints69_0.py",
          "variables": {
            "\u003cInput2\u003e.parse().getScheme()": "IAAv7",
            "\u003cInput2\u003e": "IAAv5",
            "\u003cInput1\u003e.getContext()": "IAAv6"
          },
          "stringMap": {
            "7000": "tel",
            "7001": "sms",
            "7002": "market",
            "7003": "http://market.android.com",
            "7004": "https://market.android.com",
            "7005": "http",
            "7006": ".apk"
          },
          "strings": {
            "IAAv7": "",
            "IAAv5": ""
          }
        },
        {
          "start": "com.adwo.adsdk.J.run()V",
          "target": "invokevirtual \u003c Application, Landroid/app/NotificationManager, notify(ILandroid/app/Notification;)V \u003e@626",
          "type": "",
          "constraintsFile": "constraints69_1.py",
          "variables": {},
          "stringMap": {},
          "strings": {}
        }
      ]
    },
    "70": {
      "startMethod": "com.adwo.adsdk.J.run()V",
      "targetMethod": "org.apache.http.client.HttpClient.execute(Lorg/apache/http/client/methods/HttpUriRequest;)Lorg/apache/http/HttpResponse;",
      "eventChain": [
        {
          "start": "com.adwo.adsdk.I.shouldOverrideUrlLoading(Landroid/webkit/WebView;Ljava/lang/String;)Z",
          "target": "PC@8",
          "type": "",
          "constraintsFile": "constraints70_0.py",
          "variables": {
            "\u003cInput2\u003e.parse().getScheme()": "IAAv6",
            "\u003cInput2\u003e": "IAAv4",
            "\u003cInput1\u003e.getContext()": "IAAv5"
          },
          "stringMap": {
            "7000": "tel",
            "7001": "sms",
            "7002": "market",
            "7003": "http://market.android.com",
            "7004": "https://market.android.com",
            "7005": "http",
            "7006": ".apk"
          },
          "strings": {
            "IAAv4": "",
            "IAAv6": ""
          }
        },
        {
          "start": "com.adwo.adsdk.J.run()V",
          "target": "invokeinterface \u003c Application, Lorg/apache/http/client/HttpClient, execute(Lorg/apache/http/client/methods/HttpUriRequest;)Lorg/apache/http/HttpResponse; \u003e@173",
          "type": "",
          "constraintsFile": "constraints70_1.py",
          "variables": {},
          "stringMap": {},
          "strings": {}
        }
      ]
    }
  }
}